"V1";"V2";"V3";"V4";"V5";"V6"
"***";"nb classes";"10";"***";"";""
"**";"classe";"1";"**";"";""
"****";"20";"1997";"1";"****";""
"18";" 18";"100.00";"1795.484";"salutate";"0.000000e+00"
" 4";"  4";"100.00";" 396.194";"osculum";"3.711545e-88"
" 6";" 16";" 37.50";" 216.712";"saluto";"4.716265e-49"
" 2";"  3";" 66.67";" 130.666";"priscus";"2.929289e-30"
" 2";"  3";" 66.67";" 130.666";"cognatus";"2.929289e-30"
" 2";"  6";" 33.33";"  63.451";"dilectus";"1.644102e-15"
" 5";" 59";"  8.47";"  34.245";"sanctus";"4.859781e-09"
" 1";"  3";" 33.33";"  31.678";"nobilis";"1.819960e-08"
" 1";"  3";" 33.33";"  31.678";"laodiciae";"1.819960e-08"
" 1";"  3";" 33.33";"  31.678";"concaptivus";"1.819960e-08"
" 1";"  4";" 25.00";"  23.282";"apostola";"1.399108e-06"
" 1";"  4";" 25.00";"  23.282";"adiutores";"1.399108e-06"
" 3";" 33";"  9.09";"  22.146";"invicem";"2.526279e-06"
" 2";" 17";" 11.76";"  20.034";"laboro";"7.608344e-06"
" 1";"  5";" 20.00";"  18.248";"domesticus";"1.939233e-05"
" 6";"131";"  4.58";"  18.109";"christo";"2.086073e-05"
" 2";" 21";"  9.52";"  15.547";"domus";"8.048282e-05"
" 1";"  6";" 16.67";"  14.895";"soror";"1.136495e-04"
" 5";"131";"  3.82";"  11.207";"frater";"8.147281e-04"
" 1";"  8";" 12.50";"  10.711";"timotheus";"1.064935e-03"
" 1";"  8";" 12.50";"  10.711";"mater";"1.064935e-03"
" 3";" 61";"  4.92";"   9.735";"ecclesia";"1.808161e-03"
" 1";" 10";" 10.00";"   8.208";"sancio";"4.170508e-03"
" 1";" 11";"  9.09";"   7.300";"mecum";"6.894076e-03"
" 2";" 62";"  3.23";"   3.193";"multus";"7.395494e-02"
"*****";"*";"*";"*";"*";"*"
" 6";"124";"4.84";"19.634";"meus";"9.377825e-06"
"16";"951";"1.68";" 8.491";"in";"3.569009e-03"
" 1";" 22";"4.55";" 2.818";"ante";"9.321706e-02"
"*";"*";"*";"*";"*";"*"
"14";" 26";"53.85";"741.970";"*K_Erm_16";"2.235788e-163"
"14";"426";" 3.29";" 28.514";"*L_Erromatarrei";" 9.302145e-08"
" 1";" 13";" 7.69";"  5.908";"*K_2Ko_13";" 1.507047e-02"
" 1";" 17";" 5.88";"  4.120";"*K_Kol_4";" 4.238500e-02"
" 1";" 21";" 4.76";"  3.027";"*K_2Tm_4";" 8.189418e-02"
" 1";" 22";" 4.55";"  2.818";"*K_1Ko_16";" 9.321706e-02"
" 1";" 23";" 4.35";"  2.628";"*K_1Ts_5";" 1.049984e-01"
" 1";" 23";" 4.35";"  2.628";"*K_Flp_4";" 1.049984e-01"
"**";"classe";"2";"**";"";""
"****";"10";"1997";"0.5";"****";""
"6";"  8";"75.00";"894.737";"sobrius";"1.367641e-196"
"4";"  6";"66.67";"528.792";"parens";"5.172868e-117"
"2";"  3";"66.67";"263.998";"effero";" 2.306821e-59"
"2";"  4";"50.00";"197.100";"superbus";" 8.968869e-45"
"2";"  4";"50.00";"197.100";"oboedite";" 8.968869e-45"
"2";"  6";"33.33";"130.205";"iustum";" 3.696399e-30"
"1";"  3";"33.33";" 65.004";"fideles";" 7.473241e-16"
"1";"  3";"33.33";" 65.004";"episcopus";" 7.473241e-16"
"2";" 12";"16.67";" 63.322";"similiter";" 1.754932e-15"
"1";"  4";"25.00";" 48.283";"dormio";" 3.689303e-12"
"1";"  4";"25.00";" 48.283";"pudicus";" 3.689303e-12"
"1";"  4";"25.00";" 48.283";"contineo";" 3.689303e-12"
"1";"  5";"20.00";" 38.252";"vigilo";" 6.217721e-10"
"1";"  5";"20.00";" 38.252";"inreprehensibilis";" 6.217721e-10"
"1";"  5";"20.00";" 38.252";"amo";" 6.217721e-10"
"1";"  6";"16.67";" 31.566";"doctor";" 1.927944e-08"
"1";" 10";"10.00";" 18.202";"mens";" 1.986794e-05"
"1";" 14";" 7.14";" 12.484";"oboedio";" 4.104556e-04"
"1";" 16";" 6.25";" 10.700";"ceterus";" 1.071209e-03"
"1";" 20";" 5.00";"  8.208";"uxor";" 4.170508e-03"
"2";" 72";" 2.78";"  7.773";"filius";" 5.304044e-03"
"1";" 26";" 3.85";"  5.917";"oporteo";" 1.499335e-02"
"1";" 33";" 3.03";"  4.309";"mulier";" 3.790693e-02"
"2";"130";" 1.54";"  3.005";"deo";" 8.299265e-02"
"1";" 43";" 2.33";"  2.937";"vir";" 8.656369e-02"
"*****";"*";"*";"*";"*";"*"
"1";"28";"3.57";"5.374";"sive";"0.02043624"
"1";"31";"3.23";"4.693";"igitur";"0.03028295"
"*";"*";"*";"*";"*";"*"
"2";" 16";"12.50";"46.610";"*K_1Tm_3";"8.661306e-12"
"2";" 46";" 4.35";"13.986";"*L_Titori";"1.841622e-04"
"1";" 15";" 6.67";"11.532";"*K_Tt_2";"6.839427e-04"
"1";" 16";" 6.25";"10.700";"*K_Tt_1";"1.071209e-03"
"1";" 17";" 5.88";" 9.967";"*K_2Tm_3";"1.594132e-03"
"1";" 21";" 4.76";" 7.734";"*K_2Ko_5";"5.418047e-03"
"1";" 23";" 4.35";" 6.912";"*K_1Ts_5";"8.563854e-03"
"1";" 24";" 4.17";" 6.552";"*K_Ef_6";"1.047561e-02"
"1";" 25";" 4.00";" 6.222";"*K_Kol_3";"1.261837e-02"
"1";" 32";" 3.12";" 4.495";"*K_Erm_1";"3.399327e-02"
"2";"111";" 1.80";" 3.993";"*L_Timoteori1";"4.568797e-02"
"**";"classe";"3";"**";"";""
"****";"86";"1997";"4.31";"****";""
"35";"43";" 81.40";"633.727";"vir";"7.729230e-140"
"26";"33";" 78.79";"451.693";"mulier";"3.087912e-100"
"10";"10";"100.00";"223.328";"propheto";" 1.700472e-50"
"12";"15";" 80.00";"210.126";"caput";" 1.289207e-47"
"13";"20";" 65.00";"180.586";"uxor";" 3.610292e-41"
" 9";"14";" 64.29";"123.079";"infidelis";" 1.340335e-28"
" 5";" 5";"100.00";"111.384";"velo";" 4.876278e-26"
"11";"24";" 45.83";"101.652";"lingua";" 6.617112e-24"
" 5";" 6";" 83.33";" 91.202";"soror";" 1.297251e-21"
" 4";" 4";"100.00";" 89.062";"turpe";" 3.826089e-21"
" 4";" 4";"100.00";" 89.062";"interpreto";" 3.826089e-21"
" 4";" 4";"100.00";" 89.062";"dimitto";" 3.826089e-21"
" 5";" 7";" 71.43";" 76.798";"discedo";" 1.893467e-18"
"14";"52";" 26.92";" 66.270";"loquor";" 3.932855e-16"
" 7";"17";" 41.18";" 56.559";"oro";" 5.452421e-14"
" 5";"10";" 50.00";" 50.920";"mens";" 9.621741e-13"
" 4";" 8";" 50.00";" 40.695";"subdo";" 1.779519e-10"
" 3";" 5";" 60.00";" 37.728";"singulus";" 8.132300e-10"
"12";"61";" 19.67";" 36.050";"ecclesia";" 1.923405e-09"
" 2";" 3";" 66.67";" 28.352";"silentium";" 1.011335e-07"
" 2";" 3";" 66.67";" 28.352";"permitto";" 1.011335e-07"
" 2";" 3";" 66.67";" 28.352";"iudicate";" 1.011335e-07"
" 2";" 3";" 66.67";" 28.352";"idiota";" 1.011335e-07"
" 4";"12";" 33.33";" 24.683";"similiter";" 6.758088e-07"
" 2";" 4";" 50.00";" 20.307";"intro";" 6.597238e-06"
" 2";" 4";" 50.00";" 20.307";"decet";" 6.597238e-06"
" 4";"14";" 28.57";" 20.144";"debeo";" 7.183540e-06"
" 5";"21";" 23.81";" 19.589";"domus";" 9.601854e-06"
" 3";"10";" 30.00";" 16.100";"aemulo";" 6.008496e-05"
" 2";" 5";" 40.00";" 15.497";"subditus";" 8.265604e-05"
" 2";" 5";" 40.00";" 15.497";"castitas";" 8.265604e-05"
" 2";" 6";" 33.33";" 12.304";"corrumpo";" 4.519251e-04"
" 2";" 6";" 33.33";" 12.304";"cogito";" 4.519251e-04"
" 2";" 6";" 33.33";" 12.304";"consentio";" 4.519251e-04"
" 2";" 7";" 28.57";" 10.036";"virgo";" 1.534739e-03"
" 2";" 8";" 25.00";"  8.346";"teneo";" 3.864496e-03"
" 2";" 8";" 25.00";"  8.346";"mater";" 3.864496e-03"
" 4";"26";" 15.38";"  7.845";"potestas";" 5.095954e-03"
" 1";" 3";" 33.33";"  6.143";"unde";" 1.319426e-02"
" 1";" 3";" 33.33";"  6.143";"fideles";" 1.319426e-02"
" 1";" 3";" 33.33";"  6.143";"renovo";" 1.319426e-02"
" 1";" 3";" 33.33";"  6.143";"recipeo";" 1.319426e-02"
" 1";" 3";" 33.33";"  6.143";"quando";" 1.319426e-02"
" 1";" 3";" 33.33";"  6.143";"psalmus";" 1.319426e-02"
" 1";" 3";" 33.33";"  6.143";"primogenitus";" 1.319426e-02"
" 1";" 3";" 33.33";"  6.143";"pateo";" 1.319426e-02"
" 1";" 3";" 33.33";"  6.143";"nutrio";" 1.319426e-02"
" 1";" 3";" 33.33";"  6.143";"maior";" 1.319426e-02"
" 1";" 3";" 33.33";"  6.143";"luxuria";" 1.319426e-02"
" 1";" 3";" 33.33";"  6.143";"inmundus";" 1.319426e-02"
" 1";" 3";" 33.33";"  6.143";"habitus";" 1.319426e-02"
" 1";" 3";" 33.33";"  6.143";"forsitan";" 1.319426e-02"
" 1";" 3";" 33.33";"  6.143";"fidelem";" 1.319426e-02"
" 1";" 3";" 33.33";"  6.143";"effugio";" 1.319426e-02"
" 1";" 3";" 33.33";"  6.143";"debitum";" 1.319426e-02"
" 1";" 3";" 33.33";"  6.143";"considero";" 1.319426e-02"
" 1";" 3";" 33.33";"  6.143";"canto";" 1.319426e-02"
" 2";"10";" 20.00";"  6.006";"sector";" 1.425354e-02"
" 4";"31";" 12.90";"  5.647";"diligo";" 1.748453e-02"
" 3";"20";" 15.00";"  5.606";"disco";" 1.790062e-02"
" 2";"11";" 18.18";"  5.167";"pietas";" 2.301387e-02"
" 1";" 4";" 25.00";"  4.165";"hora";" 4.127154e-02"
" 1";" 4";" 25.00";"  4.165";"taceo";" 4.127154e-02"
" 1";" 4";" 25.00";"  4.165";"sobrietas";" 4.127154e-02"
" 1";" 4";" 25.00";"  4.165";"pudicus";" 4.127154e-02"
" 1";" 4";" 25.00";"  4.165";"prudentes";" 4.127154e-02"
" 1";" 4";" 25.00";"  4.165";"prohibeo";" 4.127154e-02"
" 1";" 4";" 25.00";"  4.165";"milium";" 4.127154e-02"
" 1";" 4";" 25.00";"  4.165";"genu";" 4.127154e-02"
" 1";" 4";" 25.00";"  4.165";"fideli";" 4.127154e-02"
" 1";" 4";" 25.00";"  4.165";"dijudico";" 4.127154e-02"
" 1";" 4";" 25.00";"  4.165";"crimen";" 4.127154e-02"
" 1";" 4";" 25.00";"  4.165";"contendo";" 4.127154e-02"
" 1";" 4";" 25.00";"  4.165";"cephas";" 4.127154e-02"
" 1";" 4";" 25.00";"  4.165";"adhereo";" 4.127154e-02"
" 3";"24";" 12.50";"  3.957";"ideo";" 4.666764e-02"
" 2";"13";" 15.38";"  3.897";"manus";" 4.837725e-02"
" 2";"14";" 14.29";"  3.407";"habito";" 6.491900e-02"
" 2";"14";" 14.29";"  3.407";"bene";" 6.491900e-02"
" 1";" 5";" 20.00";"  2.996";"fidelibus";" 8.348609e-02"
" 1";" 5";" 20.00";"  2.996";"vinum";" 8.348609e-02"
" 1";" 5";" 20.00";"  2.996";"reliquus";" 8.348609e-02"
" 1";" 5";" 20.00";"  2.996";"relinquo";" 8.348609e-02"
" 1";" 5";" 20.00";"  2.996";"circumvenio";" 8.348609e-02"
" 1";" 5";" 20.00";"  2.996";"amo";" 8.348609e-02"
" 6";"74";"  8.11";"  2.695";"corpus";" 1.006585e-01"
" 2";"16";" 12.50";"  2.628";"ceterus";" 1.050226e-01"
" 2";"16";" 12.50";"  2.628";"aedificatio";" 1.050226e-01"
" 2";"17";" 11.76";"  2.314";"doceo";" 1.281835e-01"
" 1";" 6";" 16.67";"  2.231";"parvulus";" 1.352631e-01"
" 1";" 6";" 16.67";"  2.231";"totus";" 1.352631e-01"
" 1";" 6";" 16.67";"  2.231";"promitto";" 1.352631e-01"
" 1";" 6";" 16.67";"  2.231";"principatus";" 1.352631e-01"
" 1";" 6";" 16.67";"  2.231";"cura";" 1.352631e-01"
" 4";"46";"  8.70";"  2.201";"volo";" 1.379100e-01"
" 2";"18";" 11.11";"  2.041";"supra";" 1.531229e-01"
" 2";"18";" 11.11";"  2.041";"pars";" 1.531229e-01"
"*****";"*";"*";"*";"*";"*"
"17";"112";"15.18";"34.034";"suus";"5.416495e-09"
"11";" 64";"17.19";"26.621";"aut";"2.475331e-07"
" 2";"  5";"40.00";"15.497";"verumtamen";"8.265604e-05"
" 2";"  7";"28.57";"10.036";"vel";"1.534739e-03"
" 8";" 89";" 8.99";" 4.956";"unus";"2.600463e-02"
"15";"213";" 7.04";" 4.330";"si";"3.743777e-02"
" 1";"  4";"25.00";" 4.165";"atque";"4.127154e-02"
" 6";" 75";" 8.00";" 2.580";"nam";"1.082424e-01"
"*";"*";"*";"*";"*";"*"
"16";" 40";"40.00";"126.190";"*K_1Ko_14";"2.794696e-29"
"12";" 34";"35.29";" 80.596";"*K_1Ko_11";"2.769795e-19"
"11";" 40";"27.50";" 53.282";"*K_1Ko_7";"2.889819e-13"
"45";"424";"10.61";" 51.954";"*L_Korintoarrei1";"5.680187e-13"
" 9";" 33";"27.27";" 42.947";"*K_Ef_5";"5.625582e-11"
" 5";" 15";"33.33";" 30.900";"*K_1Tm_2";"2.716249e-08"
"11";"111";" 9.91";"  8.955";"*L_Timoteori1";"2.767056e-03"
" 3";" 16";"18.75";"  8.165";"*K_1Tm_3";"4.270573e-03"
" 3";" 24";"12.50";"  3.957";"*L_Filemoni";"4.666764e-02"
" 3";" 24";"12.50";"  3.957";"*K_Flm_1";"4.666764e-02"
" 2";" 13";"15.38";"  3.897";"*K_1Ko_13";"4.837725e-02"
"11";"154";" 7.14";"  3.258";"*L_Efesoarrei";"7.109088e-02"
" 2";" 16";"12.50";"  2.628";"*K_Tt_1";"1.050226e-01"
"**";"classe";"4";"**";"";""
"****";"486";"1997";"24.34";"****";""
" 79";"159";" 49.69";"60.285";"habeo";"8.207914e-15"
"173";"476";" 36.34";"48.939";"autem";"2.640501e-12"
" 31";" 46";" 67.39";"47.400";"volo";"5.788647e-12"
" 21";" 26";" 80.77";"45.560";"oporteo";"1.480456e-11"
" 23";" 32";" 71.88";"39.913";"glorior";"2.655629e-10"
"183";"534";" 34.27";"39.058";"non";"4.114929e-10"
" 35";" 61";" 57.38";"37.304";"ita";"1.010907e-09"
" 16";" 20";" 80.00";"33.994";"patior";"5.529237e-09"
" 18";" 24";" 75.00";"33.862";"tribulatio";"5.917417e-09"
" 36";" 67";" 53.73";"32.531";"scio";"1.173258e-08"
" 24";" 39";" 61.54";"29.896";"magis";"4.557898e-08"
" 11";" 12";" 91.67";"29.722";"praesens";"4.987364e-08"
" 11";" 12";" 91.67";"29.722";"necessitas";"4.987364e-08"
" 17";" 24";" 70.83";"28.521";"gaudeo";"9.268919e-08"
"  9";"  9";"100.00";"28.108";"persecutio";"1.147212e-07"
" 29";" 53";" 54.72";"27.290";"ne";"1.751222e-07"
" 10";" 11";" 90.91";"26.622";"abundans";"2.474333e-07"
" 32";" 62";" 51.61";"25.853";"multus";"3.683488e-07"
" 12";" 15";" 80.00";"25.431";"sustineo";"4.585108e-07"
" 12";" 15";" 80.00";"25.431";"nullus";"4.585108e-07"
"  9";" 10";" 90.00";"23.533";"devito";"1.227678e-06"
" 13";" 18";" 72.22";"22.619";"probo";"1.975282e-06"
" 12";" 16";" 75.00";"22.483";"epistula";"2.119830e-06"
" 29";" 57";" 50.88";"22.446";"video";"2.161817e-06"
"  7";"  7";"100.00";"21.840";"nosmet";"2.963680e-06"
"  7";"  7";"100.00";"21.840";"reprobus";"2.963680e-06"
"  7";"  7";"100.00";"21.840";"macedonia";"2.963680e-06"
" 19";" 33";" 57.58";"20.133";"scribo";"7.223958e-06"
"  9";" 11";" 81.82";"19.847";"rogo";"8.387245e-06"
"  9";" 11";" 81.82";"19.847";"quemadmodum";"8.387245e-06"
" 57";"145";" 39.31";"19.038";"sicut";"1.281247e-05"
"  6";"  6";"100.00";"18.711";"confideo";"1.521395e-05"
"  5";"  5";"100.00";"15.584";"sufficio";"7.890762e-05"
"  5";"  5";"100.00";"15.584";"macedoniam";"7.890762e-05"
"  5";"  5";"100.00";"15.584";"serva";"7.890762e-05"
"  5";"  5";"100.00";"15.584";"plus";"7.890762e-05"
"  5";"  5";"100.00";"15.584";"paro";"7.890762e-05"
"  5";"  5";"100.00";"15.584";"insipientia";"7.890762e-05"
"  5";"  5";"100.00";"15.584";"confidentia";"7.890762e-05"
"  5";"  5";"100.00";"15.584";"angustia";"7.890762e-05"
"  5";"  5";"100.00";"15.584";"ample";"7.890762e-05"
" 16";" 29";" 55.17";"15.196";"praedico";"9.692537e-05"
" 11";" 17";" 64.71";"15.175";"laboro";"9.800564e-05"
" 13";" 22";" 59.09";"14.592";"membrum";"1.334945e-04"
"  6";"  7";" 85.71";"14.371";"viduus";"1.500598e-04"
"  6";"  7";" 85.71";"14.371";"modus";"1.500598e-04"
"  6";"  7";" 85.71";"14.371";"minus";"1.500598e-04"
"  6";"  7";" 85.71";"14.371";"inflo";"1.500598e-04"
"  9";" 13";" 69.23";"14.322";"qualis";"1.540183e-04"
"  8";" 11";" 72.73";"14.066";"audeo";"1.765018e-04"
"  8";" 11";" 72.73";"14.066";"talis";"1.765018e-04"
"  8";" 11";" 72.73";"14.066";"forte";"1.765018e-04"
"  7";"  9";" 77.78";"14.022";"perficio";"1.806742e-04"
"  7";"  9";" 77.78";"14.022";"proficio";"1.806742e-04"
"  7";"  9";" 77.78";"14.022";"magnus";"1.806742e-04"
" 12";" 20";" 60.00";"13.954";"existimo";"1.873198e-04"
" 23";" 49";" 46.94";"13.936";"accipio";"1.891197e-04"
" 14";" 25";" 56.00";"13.784";"mitto";"2.050441e-04"
" 22";" 47";" 46.81";"13.200";"opero";"2.799198e-04"
" 15";" 28";" 53.57";"13.181";"placeo";"2.827956e-04"
" 13";" 23";" 56.52";"13.090";"solum";"2.969344e-04"
"  4";"  4";"100.00";"12.461";"quare";"4.154988e-04"
"  4";"  4";"100.00";"12.461";"nego";"4.154988e-04"
"  4";"  4";"100.00";"12.461";"titum";"4.154988e-04"
"  4";"  4";"100.00";"12.461";"promptus";"4.154988e-04"
"  5";"  6";" 83.33";"11.376";"vere";"7.441889e-04"
"  6";"  8";" 75.00";"11.196";"tristitia";"8.195555e-04"
"  6";"  8";" 75.00";"11.196";"auditus";"8.195555e-04"
"  6";"  8";" 75.00";"11.196";"nubo";"8.195555e-04"
" 11";" 20";" 55.00";"10.316";"facies";"1.319009e-03"
" 14";" 28";" 50.00";"10.157";"quomodo";"1.437326e-03"
" 10";" 18";" 55.56";" 9.614";"supra";"1.931102e-03"
"  3";"  3";"100.00";" 9.341";"remaneo";"2.240596e-03"
"  3";"  3";"100.00";" 9.341";"parcus";"2.240596e-03"
"  3";"  3";"100.00";" 9.341";"inpedio";"2.240596e-03"
"  3";"  3";"100.00";" 9.341";"inmortalitas";"2.240596e-03"
"  3";"  3";"100.00";" 9.341";"aura";"2.240596e-03"
"  7";" 11";" 63.64";" 9.277";"confundo";"2.319915e-03"
"  7";" 11";" 63.64";" 9.277";"labor";"2.319915e-03"
"  9";" 16";" 56.25";" 8.921";"timor";"2.818969e-03"
"  6";"  9";" 66.67";" 8.798";"contristo";"3.016430e-03"
"  5";"  7";" 71.43";" 8.460";"apollo";"3.630280e-03"
"  5";"  7";" 71.43";" 8.460";"vox";"3.630280e-03"
"  5";"  7";" 71.43";" 8.460";"virgo";"3.630280e-03"
"  5";"  7";" 71.43";" 8.460";"merces";"3.630280e-03"
"  5";"  7";" 71.43";" 8.460";"gravo";"3.630280e-03"
"  4";"  5";" 80.00";" 8.434";"vacuus";"3.681849e-03"
"  4";"  5";" 80.00";" 8.434";"pando";"3.681849e-03"
"  4";"  5";" 80.00";" 8.434";"offendiculum";"3.681849e-03"
"  4";"  5";" 80.00";" 8.434";"injuria";"3.681849e-03"
"  4";"  5";" 80.00";" 8.434";"egeo";"3.681849e-03"
"  4";"  5";" 80.00";" 8.434";"divido";"3.681849e-03"
"  4";"  5";" 80.00";" 8.434";"deduco";"3.681849e-03"
"  4";"  5";" 80.00";" 8.434";"contumelia";"3.681849e-03"
"  4";"  5";" 80.00";" 8.434";"coepio";"3.681849e-03"
"  4";"  5";" 80.00";" 8.434";"achaia";"3.681849e-03"
"  8";" 14";" 57.14";" 8.241";"maneo";"4.096537e-03"
"  7";" 12";" 58.33";" 7.578";"anima";"5.909846e-03"
"  6";" 10";" 60.00";" 6.942";"desum";"8.419583e-03"
"  8";" 15";" 53.33";" 6.901";"scitis";"8.613986e-03"
"  8";" 15";" 53.33";" 6.901";"multo";"8.613986e-03"
" 12";" 26";" 46.15";" 6.810";"iterum";"9.066729e-03"
" 44";"131";" 33.59";" 6.516";"frater";"1.068939e-02"
"  9";" 18";" 50.00";" 6.497";"tantus";"1.080758e-02"
"  5";"  8";" 62.50";" 6.353";"occasio";"1.171771e-02"
"  5";"  8";" 62.50";" 6.353";"manifestus";"1.171771e-02"
"  5";"  8";" 62.50";" 6.353";"venero";"1.171771e-02"
"  5";"  8";" 62.50";" 6.353";"persequor";"1.171771e-02"
"  5";"  8";" 62.50";" 6.353";"iudicium";"1.171771e-02"
"  5";"  8";" 62.50";" 6.353";"absens";"1.171771e-02"
" 19";" 48";" 39.58";" 6.209";"sino";"1.271022e-02"
" 11";" 24";" 45.83";" 6.096";"ideo";"1.354651e-02"
"  4";"  6";" 66.67";" 5.856";"curro";"1.552258e-02"
"  4";"  6";" 66.67";" 5.856";"utor";"1.552258e-02"
"  4";"  6";" 66.67";" 5.856";"proprius";"1.552258e-02"
"  4";"  6";" 66.67";" 5.856";"necessarius";"1.552258e-02"
"  4";"  6";" 66.67";" 5.856";"multum";"1.552258e-02"
"  4";"  6";" 66.67";" 5.856";"hierusalem";"1.552258e-02"
"  3";"  4";" 75.00";" 5.587";"velut";"1.809456e-02"
"  3";"  4";" 75.00";" 5.587";"tremor";"1.809456e-02"
"  3";"  4";" 75.00";" 5.587";"praesentia";"1.809456e-02"
"  3";"  4";" 75.00";" 5.587";"offensio";"1.809456e-02"
"  3";"  4";" 75.00";" 5.587";"corona";"1.809456e-02"
"  6";" 11";" 54.55";" 5.482";"tunc";"1.921616e-02"
"  6";" 11";" 54.55";" 5.482";"infirmitas";"1.921616e-02"
"  6";" 11";" 54.55";" 5.482";"commendo";"1.921616e-02"
"  7";" 14";" 50.00";" 5.043";"consolo";"2.472871e-02"
"  7";" 14";" 50.00";" 5.043";"oboedio";"2.472871e-02"
"  8";" 17";" 47.06";" 4.808";"audio";"2.833554e-02"
"  5";"  9";" 55.56";" 4.785";"carissimi";"2.870552e-02"
"  5";"  9";" 55.56";" 4.785";"sollicitus";"2.870552e-02"
"  9";" 20";" 45.00";" 4.685";"disco";"3.043571e-02"
"  9";" 20";" 45.00";" 4.685";"pono";"3.043571e-02"
" 11";" 26";" 42.31";" 4.620";"potestas";"3.159501e-02"
"  4";"  7";" 57.14";" 4.106";"causa";"4.273720e-02"
"  4";"  7";" 57.14";" 4.106";"consilium";"4.273720e-02"
"  7";" 15";" 46.67";" 4.093";"eiusmodi";"4.307001e-02"
" 20";" 57";" 35.09";" 3.683";"venio";"5.496429e-02"
"  5";" 10";" 50.00";" 3.595";"vinculum";"5.796278e-02"
"  5";" 10";" 50.00";" 3.595";"infirmis";"5.796278e-02"
"  5";" 10";" 50.00";" 3.595";"fiducia";"5.796278e-02"
"  5";" 10";" 50.00";" 3.595";"aemulatio";"5.796278e-02"
"  3";"  5";" 60.00";" 3.462";"modicus";"6.278376e-02"
"  3";"  5";" 60.00";" 3.462";"superaedifico";"6.278376e-02"
"  3";"  5";" 60.00";" 3.462";"tribuo";"6.278376e-02"
"  3";"  5";" 60.00";" 3.462";"suppleo";"6.278376e-02"
"  3";"  5";" 60.00";" 3.462";"scandalum";"6.278376e-02"
"  3";"  5";" 60.00";" 3.462";"reliquus";"6.278376e-02"
"  3";"  5";" 60.00";" 3.462";"redigo";"6.278376e-02"
"  3";"  5";" 60.00";" 3.462";"praeparo";"6.278376e-02"
"  3";"  5";" 60.00";" 3.462";"lapis";"6.278376e-02"
"  3";"  5";" 60.00";" 3.462";"eundem";"6.278376e-02"
"  3";"  5";" 60.00";" 3.462";"circumvenio";"6.278376e-02"
"  6";" 13";" 46.15";" 3.383";"evangelizo";"6.589173e-02"
"  9";" 22";" 40.91";" 3.318";"unusquisque";"6.852730e-02"
"  8";" 19";" 42.11";" 3.289";"spero";"6.974193e-02"
" 18";" 52";" 34.62";" 3.063";"loquor";"8.007219e-02"
"  2";"  3";" 66.67";" 2.924";"iudicas";"8.728874e-02"
"  2";"  3";" 66.67";" 2.924";"fleo";"8.728874e-02"
"  2";"  3";" 66.67";" 2.924";"esurio";"8.728874e-02"
"  2";"  3";" 66.67";" 2.924";"certo";"8.728874e-02"
"  2";"  3";" 66.67";" 2.924";"turpis";"8.728874e-02"
"  2";"  3";" 66.67";" 2.924";"terreo";"8.728874e-02"
"  2";"  3";" 66.67";" 2.924";"tango";"8.728874e-02"
"  2";"  3";" 66.67";" 2.924";"subverto";"8.728874e-02"
"  2";"  3";" 66.67";" 2.924";"sollicite";"8.728874e-02"
"  2";"  3";" 66.67";" 2.924";"seductor";"8.728874e-02"
"  2";"  3";" 66.67";" 2.924";"rigo";"8.728874e-02"
"  2";"  3";" 66.67";" 2.924";"requies";"8.728874e-02"
"  2";"  3";" 66.67";" 2.924";"recte";"8.728874e-02"
"  2";"  3";" 66.67";" 2.924";"quando";"8.728874e-02"
"  2";"  3";" 66.67";" 2.924";"puto";"8.728874e-02"
"  2";"  3";" 66.67";" 2.924";"pugna";"8.728874e-02"
"  2";"  3";" 66.67";" 2.924";"proficiscor";"8.728874e-02"
"  2";"  3";" 66.67";" 2.924";"praetereo";"8.728874e-02"
"  2";"  3";" 66.67";" 2.924";"peto";"8.728874e-02"
"  2";"  3";" 66.67";" 2.924";"omnino";"8.728874e-02"
"  2";"  3";" 66.67";" 2.924";"occulo";"8.728874e-02"
"  2";"  3";" 66.67";" 2.924";"moneo";"8.728874e-02"
"  2";"  3";" 66.67";" 2.924";"manis";"8.728874e-02"
"  2";"  3";" 66.67";" 2.924";"libenter";"8.728874e-02"
"  2";"  3";" 66.67";" 2.924";"ignobilitas";"8.728874e-02"
"  2";"  3";" 66.67";" 2.924";"honeste";"8.728874e-02"
"  2";"  3";" 66.67";" 2.924";"furor";"8.728874e-02"
"  2";"  3";" 66.67";" 2.924";"firmus";"8.728874e-02"
"  2";"  3";" 66.67";" 2.924";"expedio";"8.728874e-02"
"  2";"  3";" 66.67";" 2.924";"effugio";"8.728874e-02"
"  2";"  3";" 66.67";" 2.924";"destructio";"8.728874e-02"
"  2";"  3";" 66.67";" 2.924";"converto";"8.728874e-02"
"  2";"  3";" 66.67";" 2.924";"commisceo";"8.728874e-02"
"  2";"  3";" 66.67";" 2.924";"alienus";"8.728874e-02"
"  2";"  3";" 66.67";" 2.924";"adultero";"8.728874e-02"
"  4";"  8";" 50.00";" 2.873";"mater";"9.008250e-02"
"  4";"  8";" 50.00";" 2.873";"convenio";"9.008250e-02"
" 13";" 36";" 36.11";" 2.760";"sermo";"9.663208e-02"
" 24";" 74";" 32.43";" 2.735";"corpus";"9.814758e-02"
"  5";" 11";" 45.45";" 2.679";"alter";"1.016869e-01"
"  5";" 11";" 45.45";" 2.679";"potens";"1.016869e-01"
"  5";" 11";" 45.45";" 2.679";"operatio";"1.016869e-01"
"  5";" 11";" 45.45";" 2.679";"circa";"1.016869e-01"
" 11";" 30";" 36.67";" 2.515";"semper";"1.127884e-01"
" 17";" 51";" 33.33";" 2.301";"fio";"1.293247e-01"
"  8";" 21";" 38.10";" 2.182";"domus";"1.396475e-01"
"  3";"  6";" 50.00";" 2.153";"cogito";"1.423371e-01"
"  3";"  6";" 50.00";" 2.153";"statuo";"1.423371e-01"
"  3";"  6";" 50.00";" 2.153";"genus";"1.423371e-01"
"  3";"  6";" 50.00";" 2.153";"cura";"1.423371e-01"
" 11";" 31";" 35.48";" 2.125";"diligo";"1.449141e-01"
"*****";"*";"*";"*";"*";"*"
"148";"434";"34.10";"28.714";"vos";"8.388319e-08"
" 20";" 37";"54.05";"18.080";"apud";"2.117838e-05"
" 78";"229";"34.06";"13.284";"ego";"2.676631e-04"
" 84";"255";"32.94";"11.754";"hic";"6.070519e-04"
"104";"339";"30.68";" 8.919";"ut";"2.822836e-03"
" 89";"290";"30.69";" 7.437";"sed";"6.390943e-03"
" 15";" 34";"44.12";" 7.350";"nisi";"6.705804e-03"
"  3";"  4";"75.00";" 5.587";"e";"1.809456e-02"
" 11";" 25";"44.00";" 5.316";"quasi";"2.113001e-02"
"  3";"  5";"60.00";" 3.462";"ultra";"6.278376e-02"
" 28";" 87";"32.18";" 3.042";"de";"8.113167e-02"
" 39";"127";"30.71";" 2.991";"quis";"8.374552e-02"
" 62";"213";"29.11";" 2.948";"si";"8.598524e-02"
" 35";"115";"30.43";" 2.464";"quia";"1.164459e-01"
"  8";" 21";"38.10";" 2.182";"inter";"1.396475e-01"
" 37";"124";"29.84";" 2.174";"meus";"1.403921e-01"
"  3";"  6";"50.00";" 2.153";"prout";"1.423371e-01"
" 32";"106";"30.19";" 2.082";"quoniam";"1.490440e-01"
"*";"*";"*";"*";"*";"*"
"112";"256";"43.75";"60.101";"*L_Korintoarrei2";"9.010986e-15"
" 15";" 21";"71.43";"25.560";"*K_2Ko_12";"4.288316e-07"
" 11";" 18";"61.11";"13.340";"*K_2Ko_10";"2.598026e-04"
" 10";" 17";"58.82";"11.075";"*K_2Ko_2";"8.751758e-04"
" 15";" 31";"48.39";" 9.892";"*K_1Ko_12";"1.660418e-03"
"  8";" 13";"61.54";" 9.835";"*K_1Ts_3";"1.712384e-03"
" 18";" 40";"45.00";" 9.465";"*K_1Ko_7";"2.094554e-03"
" 32";" 84";"38.10";" 9.015";"*L_Tesalonikarrei1";"2.678065e-03"
"  9";" 16";"56.25";" 8.921";"*K_2Ko_7";"2.818969e-03"
"126";"424";"29.72";" 8.463";"*L_Korintoarrei1";"3.624913e-03"
" 14";" 30";"46.67";" 8.248";"*K_Flp_1";"4.080314e-03"
" 15";" 33";"45.45";" 8.127";"*K_2Ko_11";"4.361855e-03"
" 11";" 22";"50.00";" 7.956";"*K_1Ko_16";"4.791567e-03"
"  7";" 13";"53.85";" 6.188";"*K_1Ko_13";"1.286061e-02"
"  9";" 20";"45.00";" 4.685";"*K_1Ts_2";"3.043571e-02"
"  8";" 18";"44.44";" 3.988";"*K_2Ko_4";"4.581540e-02"
" 10";" 24";"41.67";" 3.962";"*K_2Ko_8";"4.653626e-02"
" 27";" 82";"32.93";" 3.427";"*L_Timoteori2";"6.414355e-02"
"  6";" 13";"46.15";" 3.383";"*K_2Ko_13";"6.589173e-02"
" 33";"104";"31.73";" 3.258";"*L_Filipostarrei";"7.109038e-02"
" 10";" 26";"38.46";" 2.854";"*K_2Tm_2";"9.113007e-02"
"  7";" 17";"41.18";" 2.641";"*K_2Tm_3";"1.041654e-01"
"  7";" 18";"38.89";" 2.089";"*K_2Ko_3";"1.483678e-01"
"**";"classe";"5";"**";"";""
"****";"223";"1997";"11.17";"****";""
"23";"28";" 82.14";"144.216";"malus";"3.187449e-33"
"18";"24";" 75.00";" 99.782";"doctrina";"1.700983e-23"
"21";"33";" 63.64";" 93.124";"invicem";"4.910635e-22"
"38";"95";" 40.00";" 83.594";"bonus";"6.075191e-20"
"23";"48";" 47.92";" 66.960";"nolo";"2.770207e-16"
"12";"18";" 66.67";" 56.401";"testimonium";"5.909920e-14"
" 8";" 9";" 88.89";" 55.054";"inmunditia";"1.172449e-13"
" 9";"12";" 75.00";" 49.590";"sensus";"1.895183e-12"
" 6";" 6";"100.00";" 47.875";"malitia";"4.543279e-12"
" 6";" 6";"100.00";" 47.875";"arguo";"4.543279e-12"
"16";"36";" 44.44";" 40.927";"sermo";"1.580444e-10"
" 5";" 5";"100.00";" 39.876";"laqueum";"2.706601e-10"
" 6";" 7";" 85.71";" 39.354";"usus";"3.535545e-10"
" 6";" 7";" 85.71";" 39.354";"error";"3.535545e-10"
" 6";" 7";" 85.71";" 39.354";"communico";"3.535545e-10"
" 8";"12";" 66.67";" 37.487";"exhorto";"9.202257e-10"
" 8";"13";" 61.54";" 33.470";"reddo";"7.238577e-09"
" 4";" 4";"100.00";" 31.884";"iudicat";"1.636182e-08"
" 4";" 4";"100.00";" 31.884";"perhibeo";"1.636182e-08"
" 4";" 4";"100.00";" 31.884";"naturalis";"1.636182e-08"
" 4";" 4";"100.00";" 31.884";"expolio";"1.636182e-08"
" 5";" 6";" 83.33";" 31.596";"proximus";"1.898494e-08"
" 5";" 6";" 83.33";" 31.596";"carnale";"1.898494e-08"
" 6";" 9";" 66.67";" 28.073";"sanus";"1.168334e-07"
" 9";"18";" 50.00";" 27.613";"honor";"1.481975e-07"
" 5";" 7";" 71.43";" 25.716";"exhortatio";"3.955127e-07"
" 8";"16";" 50.00";" 24.520";"aedificatio";"7.354630e-07"
" 6";"10";" 60.00";" 24.161";"fornicatio";"8.862345e-07"
" 4";" 5";" 80.00";" 23.942";"quaecumque";"9.930329e-07"
" 4";" 5";" 80.00";" 23.942";"invidia";"9.930329e-07"
" 4";" 5";" 80.00";" 23.942";"indignatio";"9.930329e-07"
" 4";" 5";" 80.00";" 23.942";"damnatio";"9.930329e-07"
" 4";" 5";" 80.00";" 23.942";"acceptio";"9.930329e-07"
" 3";" 3";"100.00";" 23.901";"gero";"1.013992e-06"
" 3";" 3";"100.00";" 23.901";"depono";"1.013992e-06"
" 3";" 3";"100.00";" 23.901";"blasphemia";"1.013992e-06"
" 8";"17";" 47.06";" 22.267";"ministerium";"2.372817e-06"
" 5";" 8";" 62.50";" 21.337";"teneo";"3.852727e-06"
" 5";" 8";" 62.50";" 21.337";"simplicitas";"3.852727e-06"
" 8";"18";" 44.44";" 20.277";"desiderium";"6.699273e-06"
" 9";"22";" 40.91";" 19.837";"quidam";"8.432305e-06"
" 7";"15";" 46.67";" 19.201";"opera";"1.176677e-05"
" 4";" 6";" 66.67";" 18.687";"saecularis";"1.540263e-05"
" 4";" 6";" 66.67";" 18.687";"promitto";"1.540263e-05"
" 4";" 6";" 66.67";" 18.687";"avaritia";"1.540263e-05"
" 5";" 9";" 55.56";" 17.958";"utilis";"2.258784e-05"
" 5";" 9";" 55.56";" 17.958";"timeo";"2.258784e-05"
" 5";" 9";" 55.56";" 17.958";"blasphemo";"2.258784e-05"
" 7";"16";" 43.75";" 17.262";"timor";"3.255737e-05"
" 3";" 4";" 75.00";" 16.464";"parco";"4.959560e-05"
" 3";" 4";" 75.00";" 16.464";"erro";"4.959560e-05"
" 3";" 4";" 75.00";" 16.464";"nequitia";"4.959560e-05"
" 3";" 4";" 75.00";" 16.464";"diabolus";"4.959560e-05"
" 6";"13";" 46.15";" 16.147";"manus";"5.860978e-05"
" 7";"17";" 41.18";" 15.566";"conscientia";"7.966496e-05"
" 5";"10";" 50.00";" 15.279";"seduco";"9.275843e-05"
" 4";" 7";" 57.14";" 14.969";"recipio";"1.093074e-04"
" 4";" 7";" 57.14";" 14.969";"propterea";"1.093074e-04"
" 4";" 7";" 57.14";" 14.969";"praesum";"1.093074e-04"
" 4";" 7";" 57.14";" 14.969";"malo";"1.093074e-04"
" 8";"22";" 36.36";" 14.237";"unusquisque";"1.611518e-04"
"13";"46";" 28.26";" 13.870";"opus";"1.959231e-04"
" 9";"27";" 33.33";" 13.557";"servio";"2.313991e-04"
" 5";"11";" 45.45";" 13.109";"sollicitudo";"2.938866e-04"
" 4";" 8";" 50.00";" 12.211";"praeceptum";"4.751775e-04"
" 3";" 5";" 60.00";" 12.050";"tempto";"5.179192e-04"
" 9";"31";" 29.03";" 10.132";"itaque";"1.457367e-03"
" 5";"13";" 38.46";"  9.827";"oculus";"1.719350e-03"
" 2";" 3";" 66.67";"  9.329";"sinceritas";"2.254989e-03"
" 2";" 3";" 66.67";"  9.329";"serpens";"2.254989e-03"
" 2";" 3";" 66.67";"  9.329";"piger";"2.254989e-03"
" 2";" 3";" 66.67";"  9.329";"perierunt";"2.254989e-03"
" 2";" 3";" 66.67";"  9.329";"luxuria";"2.254989e-03"
" 2";" 3";" 66.67";"  9.329";"increpo";"2.254989e-03"
" 2";" 3";" 66.67";"  9.329";"incido";"2.254989e-03"
" 2";" 3";" 66.67";"  9.329";"fraudo";"2.254989e-03"
" 2";" 3";" 66.67";"  9.329";"domina";"2.254989e-03"
" 2";" 3";" 66.67";"  9.329";"dolus";"2.254989e-03"
" 2";" 3";" 66.67";"  9.329";"altus";"2.254989e-03"
" 2";" 3";" 66.67";"  9.329";"adtendo";"2.254989e-03"
" 3";" 6";" 50.00";"  9.149";"parvulus";"2.488840e-03"
" 3";" 6";" 50.00";"  9.149";"corrumpo";"2.488840e-03"
" 3";" 6";" 50.00";"  9.149";"ratio";"2.488840e-03"
" 3";" 6";" 50.00";"  9.149";"persona";"2.488840e-03"
" 3";" 6";" 50.00";"  9.149";"negotium";"2.488840e-03"
" 3";" 6";" 50.00";"  9.149";"mentior";"2.488840e-03"
" 3";" 6";" 50.00";"  9.149";"humilitas";"2.488840e-03"
" 5";"14";" 35.71";"  8.564";"os";"3.428003e-03"
" 5";"14";" 35.71";"  8.564";"bene";"3.428003e-03"
" 4";"10";" 40.00";"  8.423";"sanctor";"3.705109e-03"
" 4";"10";" 40.00";"  8.423";"ostendeo";"3.705109e-03"
" 5";"15";" 33.33";"  7.486";"semet";"6.217397e-03"
" 6";"20";" 30.00";"  7.224";"trado";"7.195400e-03"
" 3";" 7";" 42.86";"  7.112";"natura";"7.658070e-03"
" 3";" 7";" 42.86";"  7.112";"causa";"7.658070e-03"
" 3";" 7";" 42.86";"  7.112";"vas";"7.658070e-03"
" 3";" 7";" 42.86";"  7.112";"prophetia";"7.658070e-03"
" 3";" 7";" 42.86";"  7.112";"interitus";"7.658070e-03"
" 2";" 4";" 50.00";"  6.093";"masculus";"1.357134e-02"
" 2";" 4";" 50.00";"  6.093";"venter";"1.357134e-02"
" 2";" 4";" 50.00";"  6.093";"quaestio";"1.357134e-02"
" 2";" 4";" 50.00";"  6.093";"operarius";"1.357134e-02"
" 2";" 4";" 50.00";"  6.093";"oboedite";"1.357134e-02"
" 2";" 4";" 50.00";"  6.093";"mendax";"1.357134e-02"
" 2";" 4";" 50.00";"  6.093";"inutilis";"1.357134e-02"
" 2";" 4";" 50.00";"  6.093";"dignus";"1.357134e-02"
" 2";" 4";" 50.00";"  6.093";"decet";"1.357134e-02"
" 2";" 4";" 50.00";"  6.093";"astutia";"1.357134e-02"
" 2";" 4";" 50.00";"  6.093";"adverso";"1.357134e-02"
" 2";" 4";" 50.00";"  6.093";"abstineo";"1.357134e-02"
" 4";"12";" 33.33";"  5.980";"perfectus";"1.446982e-02"
" 4";"12";" 33.33";"  5.980";"contentio";"1.446982e-02"
" 5";"17";" 29.41";"  5.754";"doceo";"1.645388e-02"
" 5";"17";" 29.41";"  5.754";"impleo";"1.645388e-02"
" 3";" 8";" 37.50";"  5.615";"excido";"1.780868e-02"
" 4";"13";" 30.77";"  5.069";"Servius";"2.436117e-02"
" 8";"35";" 22.86";"  4.908";"voluntas";"2.673286e-02"
" 4";"14";" 28.57";"  4.305";"consolo";"3.799166e-02"
" 2";" 5";" 40.00";"  4.201";"porto";"4.040225e-02"
" 2";" 5";" 40.00";"  4.201";"vinum";"4.040225e-02"
" 2";" 5";" 40.00";"  4.201";"vetus";"4.040225e-02"
" 2";" 5";" 40.00";"  4.201";"tribuo";"4.040225e-02"
" 2";" 5";" 40.00";"  4.201";"state";"4.040225e-02"
" 2";" 5";" 40.00";"  4.201";"provoco";"4.040225e-02"
" 2";" 5";" 40.00";"  4.201";"mendacium";"4.040225e-02"
" 2";" 5";" 40.00";"  4.201";"instruo";"4.040225e-02"
" 2";" 5";" 40.00";"  4.201";"converso";"4.040225e-02"
" 2";" 5";" 40.00";"  4.201";"contemno";"4.040225e-02"
" 2";" 5";" 40.00";"  4.201";"animus";"4.040225e-02"
" 4";"15";" 26.67";"  3.660";"manifesto";"5.572209e-02"
" 3";"10";" 30.00";"  3.594";"sector";"5.800285e-02"
"10";"52";" 19.23";"  3.500";"loquor";"6.137047e-02"
" 5";"21";" 23.81";"  3.420";"ira";"6.442125e-02"
" 2";" 6";" 33.33";"  2.981";"suscipio";"8.425034e-02"
" 2";" 6";" 33.33";"  2.981";"proprius";"8.425034e-02"
" 2";" 6";" 33.33";"  2.981";"necessarius";"8.425034e-02"
" 2";" 6";" 33.33";"  2.981";"huiusmodi";"8.425034e-02"
" 2";" 6";" 33.33";"  2.981";"cogitatio";"8.425034e-02"
" 3";"11";" 27.27";"  2.892";"circa";"8.899643e-02"
" 4";"17";" 23.53";"  2.642";"aliquando";"1.040921e-01"
" 3";"12";" 25.00";"  2.329";"sto";"1.269942e-01"
" 4";"18";" 22.22";"  2.238";"fidelis";"1.346564e-01"
" 9";"51";" 17.65";"  2.216";"fio";"1.366205e-01"
" 2";" 7";" 28.57";"  2.145";"resisto";"1.430233e-01"
" 2";" 7";" 28.57";"  2.145";"inanis";"1.430233e-01"
" 2";" 7";" 28.57";"  2.145";"desidero";"1.430233e-01"
" 2";" 7";" 28.57";"  2.145";"merces";"1.430233e-01"
" 9";"52";" 17.31";"  2.030";"verbum";"1.542522e-01"
"*****";"*";"*";"*";"*";"*"
"18";" 80";"22.50";"10.791";"tu";"0.001020073"
" 8";" 32";"25.00";" 6.274";"nemo";"0.012255514"
"20";"112";"17.86";" 5.354";"suus";"0.020673729"
"10";" 49";"20.41";" 4.325";"neque";"0.037562237"
" 6";" 25";"24.00";" 4.203";"quasi";"0.040347300"
"29";"188";"15.43";" 3.795";"ad";"0.051418218"
"40";"290";"13.79";" 2.359";"sed";"0.124553967"
" 2";"  7";"28.57";" 2.145";"quanto";"0.143023349"
" 2";"  7";"28.57";" 2.145";"iste";"0.143023349"
" 2";"  7";"28.57";" 2.145";"contra";"0.143023349"
"48";"360";"13.33";" 2.078";"omnis";"0.149419589"
"*";"*";"*";"*";"*";"*"
"11";" 21";"52.38";"36.341";"*K_Erm_12";"1.656068e-09"
"26";"111";"23.42";"17.799";"*L_Timoteori1";"2.454772e-05"
"14";" 46";"30.43";"17.622";"*L_Titori";"2.694772e-05"
" 6";" 14";"42.86";"14.274";"*K_Erm_13";"1.580587e-04"
" 6";" 15";"40.00";"12.666";"*K_Tt_2";"3.723012e-04"
" 5";" 15";"33.33";" 7.486";"*K_1Tm_4";"6.217397e-03"
" 6";" 20";"30.00";" 7.224";"*K_1Tm_6";"7.195400e-03"
" 6";" 20";"30.00";" 7.224";"*K_1Tm_1";"7.195400e-03"
" 5";" 18";"27.78";" 5.052";"*K_Ga_6";"2.459223e-02"
" 6";" 24";"25.00";" 4.686";"*K_Ef_6";"3.040821e-02"
" 6";" 24";"25.00";" 4.686";"*K_Ga_5";"3.040821e-02"
"15";" 82";"18.29";" 4.377";"*L_Timoteori2";"3.642109e-02"
" 6";" 25";"24.00";" 4.203";"*K_Kol_3";"4.034730e-02"
" 6";" 25";"24.00";" 4.203";"*K_1Tm_5";"4.034730e-02"
" 7";" 31";"22.58";" 4.135";"*K_Ef_4";"4.199417e-02"
" 6";" 26";"23.08";" 3.767";"*K_2Tm_2";"5.227251e-02"
" 4";" 15";"26.67";" 3.660";"*K_Tt_3";"5.572209e-02"
" 7";" 33";"21.21";" 3.413";"*K_Ef_5";"6.467124e-02"
" 4";" 16";"25.00";" 3.111";"*K_Tt_1";"7.774480e-02"
" 5";" 23";"21.74";" 2.622";"*K_Erm_14";"1.054038e-01"
" 4";" 18";"22.22";" 2.238";"*K_1Ts_4";"1.346564e-01"
"**";"classe";"6";"**";"";""
"****";"22";"1997";"1.1";"****";""
"12";"14";" 85.71";"926.446";"terra";"1.749235e-203"
" 4";" 4";"100.00";"359.812";"terrenus";" 3.094601e-80"
" 4";" 4";"100.00";"359.812";"descendo";" 3.094601e-80"
" 5";" 9";" 55.56";"246.053";"caelum";" 1.883474e-55"
" 4";"11";" 36.36";"126.233";"caela";" 2.734832e-29"
" 2";" 5";" 40.00";" 69.613";"consummo";" 7.217711e-17"
" 3";"12";" 25.00";" 63.285";"caelestis";" 1.788597e-15"
" 3";"14";" 21.43";" 53.468";"plenitudo";" 2.628575e-13"
" 2";" 7";" 28.57";" 48.652";"ascendo";" 3.056753e-12"
" 2";"11";" 18.18";" 29.617";"universus";" 5.263947e-08"
" 1";" 3";" 33.33";" 28.649";"tuba";" 8.676778e-08"
" 1";" 3";" 33.33";" 28.649";"sursum";" 8.676778e-08"
" 1";" 3";" 33.33";" 28.649";"proficiscor";" 8.676778e-08"
" 1";" 3";" 33.33";" 28.649";"ostendo";" 8.676778e-08"
" 1";" 3";" 33.33";" 28.649";"ingemesco";" 8.676778e-08"
" 1";" 4";" 25.00";" 21.010";"venter";" 4.568140e-06"
" 1";" 4";" 25.00";" 21.010";"invisibilis";" 4.568140e-06"
" 1";" 4";" 25.00";" 21.010";"inhabito";" 4.568140e-06"
" 2";"16";" 12.50";" 19.234";"sapio";" 1.156513e-05"
" 1";" 5";" 20.00";" 16.431";"porto";" 5.044452e-05"
" 1";" 5";" 20.00";" 16.431";"nomino";" 5.044452e-05"
" 1";" 5";" 20.00";" 16.431";"dispensatio";" 5.044452e-05"
" 1";" 5";" 20.00";" 16.431";"anathema";" 5.044452e-05"
" 1";" 6";" 16.67";" 13.382";"principatus";" 2.540406e-04"
" 1";" 7";" 14.29";" 11.207";"vox";" 8.149109e-04"
" 1";" 7";" 14.29";" 11.207";"interitus";" 8.149109e-04"
" 1";" 7";" 14.29";" 11.207";"creo";" 8.149109e-04"
" 1";" 8";" 12.50";"  9.578";"reconcilio";" 1.969025e-03"
" 1";" 8";" 12.50";"  9.578";"imago";" 1.969025e-03"
" 1";"10";" 10.00";"  7.304";"adnuntio";" 6.879837e-03"
" 1";"11";"  9.09";"  6.480";"talis";" 1.090990e-02"
" 1";"11";"  9.09";"  6.480";"crux";" 1.090990e-02"
" 1";"12";"  8.33";"  5.795";"sanguis";" 1.607301e-02"
" 1";"12";"  8.33";"  5.795";"finis";" 1.607301e-02"
" 1";"13";"  7.69";"  5.217";"qualis";" 2.236982e-02"
" 1";"13";"  7.69";"  5.217";"evangelizo";" 2.236982e-02"
" 1";"13";"  7.69";"  5.217";"fructus";" 2.236982e-02"
" 1";"14";"  7.14";"  4.723";"scriptura";" 2.976575e-02"
" 1";"14";"  7.14";"  4.723";"bene";" 2.976575e-02"
" 1";"14";"  7.14";"  4.723";"angelus";" 2.976575e-02"
" 1";"17";"  5.88";"  3.597";"impleo";" 5.789237e-02"
" 1";"18";"  5.56";"  3.307";"supra";" 6.897942e-02"
" 1";"18";"  5.56";"  3.307";"pars";" 6.897942e-02"
" 2";"58";"  3.45";"  3.019";"mortuus";" 8.228775e-02"
" 1";"21";"  4.76";"  2.610";"resurgo";" 1.062085e-01"
" 1";"22";"  4.55";"  2.421";"nomen";" 1.196837e-01"
"*****";"*";"*";"*";"*";"*"
" 3";"  28";"10.71";"24.085";"sive";"9.218926e-07"
" 1";"   4";"25.00";"21.010";"licet";"4.568140e-06"
" 3";"  35";" 8.57";"18.244";"super";"1.943005e-05"
" 5";" 115";" 4.35";"11.802";"quia";"5.915805e-04"
" 4";"  87";" 4.60";"10.204";"de";"1.401100e-03"
" 2";"  31";" 6.45";" 8.272";"igitur";"4.025555e-03"
"17";"1008";" 1.69";" 6.390";"et";"1.147604e-02"
" 3";"  89";" 3.37";" 4.402";"unus";"3.589120e-02"
" 2";"  64";" 3.12";" 2.484";"aut";"1.149752e-01"
"14";" 951";" 1.47";" 2.287";"in";"1.304346e-01"
"*";"*";"*";"*";"*";"*"
"3";" 52";"5.77";"10.676";"*K_1Ko_15";"0.001085304"
"2";" 28";"7.14";" 9.513";"*K_Kol_1";"0.002040546"
"4";" 93";"4.30";" 9.164";"*L_Kolosarrei";"0.002467695"
"2";" 31";"6.45";" 8.272";"*K_Ef_4";"0.004025555"
"2";" 33";"6.06";" 7.574";"*K_Erm_9";"0.005923247"
"5";"154";"3.25";" 7.048";"*L_Efesoarrei";"0.007937588"
"1";" 13";"7.69";" 5.217";"*K_1Ko_8";"0.022369818"
"1";" 18";"5.56";" 3.307";"*K_1Ts_4";"0.068979423"
"1";" 21";"4.76";" 2.610";"*K_Ef_3";"0.106208544"
"1";" 21";"4.76";" 2.610";"*K_Erm_10";"0.106208544"
"1";" 21";"4.76";" 2.610";"*K_Flp_3";"0.106208544"
"1";" 21";"4.76";" 2.610";"*K_2Ko_5";"0.106208544"
"1";" 23";"4.35";" 2.250";"*K_Ef_1";"0.133575903"
"1";" 23";"4.35";" 2.250";"*K_Kol_2";"0.133575903"
"1";" 24";"4.17";" 2.095";"*K_Ef_6";"0.147823917"
"1";" 24";"4.17";" 2.095";"*K_Ga_1";"0.147823917"
"**";"classe";"7";"**";"";""
"****";"15";"1997";"0.75";"****";""
"14";" 16";"87.50";"1628.180";"praeputium";" 0.000000e+00"
"12";" 26";"46.15";" 728.433";"circumcisio";"1.962853e-160"
" 5";"  8";"62.50";" 410.821";"reputo";" 2.429019e-91"
" 1";"  3";"33.33";"  42.785";"signaculum";" 6.108398e-11"
" 1";"  3";"33.33";"  42.785";"praevaricator";" 6.108398e-11"
" 1";"  3";"33.33";"  42.785";"manufactus";" 6.108398e-11"
" 1";"  3";"33.33";"  42.785";"derelinquo";" 6.108398e-11"
" 1";"  3";"33.33";"  42.785";"beatitudo";" 6.108398e-11"
" 2";" 12";"16.67";"  41.021";"abrahae";" 1.506275e-10"
" 1";"  4";"25.00";"  31.614";"defensio";" 1.880995e-08"
" 1";"  4";"25.00";"  31.614";"iudicabit";" 1.880995e-08"
" 1";"  4";"25.00";"  31.614";"delinquo";" 1.880995e-08"
" 1";"  4";"25.00";"  31.614";"creditum";" 1.880995e-08"
" 1";"  5";"20.00";"  24.913";"consummo";" 5.996849e-07"
" 1";"  5";"20.00";"  24.913";"adduco";" 5.996849e-07"
" 2";" 22";" 9.09";"  20.754";"iustitiam";" 5.221914e-06"
" 1";"  6";"16.67";"  20.449";"custodio";" 6.125668e-06"
" 5";"131";" 3.82";"  17.675";"fides";" 2.621069e-05"
" 1";"  7";"14.29";"  17.261";"signum";" 3.257489e-05"
" 1";"  7";"14.29";"  17.261";"natura";" 3.257489e-05"
" 1";"  7";"14.29";"  17.261";"littera";" 3.257489e-05"
" 1";"  8";"12.50";"  14.873";"circumcido";" 1.150216e-04"
" 1";"  8";"12.50";"  14.873";"memor";" 1.150216e-04"
" 1";" 10";"10.00";"  11.532";"novus";" 6.839427e-04"
" 1";" 10";"10.00";"  11.532";"sector";" 6.839427e-04"
" 1";" 11";" 9.09";"  10.320";"dono";" 1.316260e-03"
" 1";" 11";" 9.09";"  10.320";"delictum";" 1.316260e-03"
" 1";" 11";" 9.09";"  10.320";"creatura";" 1.316260e-03"
" 1";" 13";" 7.69";"   8.457";"nonne";" 3.636747e-03"
" 1";" 14";" 7.14";"   7.726";"mandatum";" 5.441683e-03"
" 1";" 17";" 5.88";"   6.056";"aliquando";" 1.386137e-02"
" 1";" 18";" 5.56";"   5.624";"tantus";" 1.771562e-02"
" 2";" 63";" 3.17";"   5.125";"pater";" 2.358243e-02"
" 1";" 20";" 5.00";"   4.892";"iustitiae";" 2.697724e-02"
" 1";" 25";" 4.00";"   3.585";"edo";" 5.831826e-02"
" 2";" 78";" 2.56";"   3.579";"caro";" 5.851980e-02"
" 2";" 82";" 2.44";"   3.268";"ergo";" 7.064546e-02"
" 2";" 85";" 2.35";"   3.056";"lex";" 8.045988e-02"
" 1";" 28";" 3.57";"   3.030";"quomodo";" 8.173796e-02"
"*****";"*";"*";"*";"*";"*"
" 3";" 32";" 9.38";"32.444";"aliquis";"1.226910e-08"
" 1";"  4";"25.00";"31.614";"e";"1.880995e-08"
" 2";" 23";" 8.70";"19.700";"an";"9.062358e-06"
" 1";"  7";"14.29";"17.261";"contra";"3.257489e-05"
" 7";"290";" 2.41";"12.581";"sed";"3.896951e-04"
" 2";" 49";" 4.08";" 7.474";"neque";"6.258810e-03"
" 4";"163";" 2.45";" 6.904";"ille";"8.601444e-03"
" 4";"190";" 2.11";" 5.165";"per";"2.304815e-02"
" 3";"134";" 2.24";" 4.264";"ex";"3.892081e-02"
"11";"951";" 1.16";" 4.006";"in";"4.534677e-02"
" 2";" 89";" 2.25";" 2.797";"unus";"9.445642e-02"
" 1";" 31";" 3.23";" 2.587";"igitur";"1.077608e-01"
" 1";" 32";" 3.12";" 2.458";"nihil";"1.169023e-01"
" 1";" 32";" 3.12";" 2.458";"nemo";"1.169023e-01"
" 1";" 36";" 2.78";" 2.020";"etiam";"1.552530e-01"
"*";"*";"*";"*";"*";"*"
"4";" 25";"16.00";"78.967";"*K_Erm_4";"6.314301e-19"
"2";" 29";" 6.90";"14.908";"*K_Erm_2";"1.128901e-04"
"2";" 40";" 5.00";" 9.885";"*K_1Ko_7";"1.666741e-03"
"7";"426";" 1.64";" 5.781";"*L_Erromatarrei";"1.620480e-02"
"1";" 18";" 5.56";" 5.624";"*K_Ga_6";"1.771562e-02"
"1";" 20";" 5.00";" 4.892";"*K_Ga_2";"2.697724e-02"
"1";" 21";" 4.76";" 4.580";"*K_2Tm_4";"3.235450e-02"
"1";" 22";" 4.55";" 4.296";"*K_Ef_2";"3.820206e-02"
"1";" 23";" 4.35";" 4.038";"*K_Kol_2";"4.449584e-02"
"1";" 24";" 4.17";" 3.801";"*K_Ga_5";"5.121012e-02"
"3";"146";" 2.05";" 3.591";"*L_Galaziarrei";"5.809206e-02"
"1";" 31";" 3.23";" 2.587";"*K_Erm_3";"1.077608e-01"
"**";"classe";"8";"**";"";""
"****";"466";"1997";"23.34";"****";""
"137";"157";" 87.26";"389.235";"iesu";"1.214534e-86"
" 97";"142";" 68.31";"172.845";"christi";"1.769277e-39"
" 91";"139";" 65.47";"148.245";"gratia";"4.194119e-34"
" 77";"131";" 58.78";" 98.448";"christo";"3.335933e-23"
"113";"245";" 46.12";" 81.058";"dominus";"2.191787e-19"
" 32";" 45";" 71.11";" 58.739";"pax";"1.800275e-14"
" 40";" 63";" 63.49";" 58.638";"pater";"1.894963e-14"
" 37";" 59";" 62.71";" 52.693";"sanctus";"3.899640e-13"
" 20";" 24";" 83.33";" 48.880";"amen";"2.720429e-12"
" 59";"124";" 47.58";" 43.443";"spiritus";"4.363879e-11"
" 41";" 75";" 54.67";" 42.761";"gloria";"6.185297e-11"
" 88";"215";" 40.93";" 41.696";"dei";"1.066303e-10"
" 16";" 19";" 84.21";" 39.736";"oratio";"2.906943e-10"
" 11";" 11";"100.00";" 36.340";"actio";"1.657568e-09"
" 17";" 22";" 77.27";" 36.175";"gaudium";"1.803282e-09"
" 33";" 59";" 55.93";" 36.110";"caritas";"1.864519e-09"
" 15";" 19";" 78.95";" 33.162";"obsecro";"8.478339e-09"
" 12";" 14";" 85.71";" 30.666";"divitia";"3.064661e-08"
" 13";" 16";" 81.25";" 30.241";"adventus";"3.816326e-08"
" 56";"131";" 42.75";" 29.534";"fides";"5.494480e-08"
"  8";"  8";"100.00";" 26.389";"redemptio";"2.791290e-07"
"  8";"  8";"100.00";" 26.389";"conforto";"2.791290e-07"
" 17";" 26";" 65.38";" 26.037";"paulus";"3.350107e-07"
"  8";"  9";" 88.89";" 21.717";"vocatio";"3.160094e-06"
" 33";" 72";" 45.83";" 21.134";"filius";"4.283300e-06"
" 11";" 15";" 73.33";" 21.119";"dilectio";"4.316452e-06"
" 14";" 22";" 63.64";" 20.196";"nomen";"6.989430e-06"
"  6";"  6";"100.00";" 19.772";"communicatio";"8.725835e-06"
"  7";"  8";" 87.50";" 18.485";"viscer";"1.712269e-05"
"  7";"  8";" 87.50";" 18.485";"memoria";"1.712269e-05"
"  7";"  8";" 87.50";" 18.485";"confido";"1.712269e-05"
"  7";"  8";" 87.50";" 18.485";"agnitio";"1.712269e-05"
"  8";" 10";" 80.00";" 18.039";"vobiscum";"2.164609e-05"
"  5";"  5";"100.00";" 16.468";"claritas";"4.947109e-05"
"  5";"  5";"100.00";" 16.468";"res";"4.947109e-05"
"  5";"  5";"100.00";" 16.468";"modestia";"4.947109e-05"
"  5";"  5";"100.00";" 16.468";"longanimitas";"4.947109e-05"
"  5";"  5";"100.00";" 16.468";"intellectus";"4.947109e-05"
"  5";"  5";"100.00";" 16.468";"digne";"4.947109e-05"
" 49";"130";" 37.69";" 16.022";"deo";"6.260917e-05"
" 19";" 38";" 50.00";" 15.396";"voco";"8.717681e-05"
" 16";" 30";" 53.33";" 15.321";"Spes";"9.070759e-05"
"  6";"  7";" 85.71";" 15.279";"sanctifico";"9.273514e-05"
"  8";" 11";" 72.73";" 15.084";"creatura";"1.028539e-04"
"  7";"  9";" 77.78";" 14.979";"laus";"1.087204e-04"
" 23";" 51";" 45.10";" 13.856";"cor";"1.973604e-04"
" 10";" 16";" 62.50";" 13.829";"saluto";"2.001743e-04"
" 25";" 57";" 43.86";" 13.816";"Evangelium";"2.015599e-04"
" 15";" 29";" 51.72";" 13.257";"saeculum";"2.715415e-04"
"  4";"  4";"100.00";" 13.168";"unianimis";"2.847695e-04"
"  4";"  4";"100.00";" 13.168";"superabundo";"2.847695e-04"
"  4";"  4";"100.00";" 13.168";"prope";"2.847695e-04"
"  4";"  4";"100.00";" 13.168";"ostensio";"2.847695e-04"
"  5";"  6";" 83.33";" 12.110";"obsecratio";"5.016168e-04"
"  5";"  6";" 83.33";" 12.110";"vincio";"5.016168e-04"
"  5";"  6";" 83.33";" 12.110";"via";"5.016168e-04"
"  5";"  6";" 83.33";" 12.110";"querella";"5.016168e-04"
"  5";"  6";" 83.33";" 12.110";"praedestino";"5.016168e-04"
"  5";"  6";" 83.33";" 12.110";"pervenio";"5.016168e-04"
"  5";"  6";" 83.33";" 12.110";"imitator";"5.016168e-04"
"  6";"  8";" 75.00";" 11.985";"imago";"5.364393e-04"
"  6";"  8";" 75.00";" 11.985";"timotheus";"5.364393e-04"
"  6";"  8";" 75.00";" 11.985";"audistis";"5.364393e-04"
" 13";" 25";" 52.00";" 11.628";"scientia";"6.496172e-04"
" 11";" 20";" 55.00";" 11.323";"minister";"7.655957e-04"
" 11";" 20";" 55.00";" 11.323";"patientia";"7.655957e-04"
" 22";" 52";" 42.31";" 10.743";"do";"1.046898e-03"
"  7";" 11";" 63.64";" 10.042";"eligo";"1.530000e-03"
"  7";" 11";" 63.64";" 10.042";"confirmo";"1.530000e-03"
"  3";"  3";"100.00";"  9.871";"carissimus";"1.678995e-03"
"  3";"  3";"100.00";"  9.871";"signo";"1.678995e-03"
"  3";"  3";"100.00";"  9.871";"senex";"1.678995e-03"
"  3";"  3";"100.00";"  9.871";"prodigium";"1.678995e-03"
"  3";"  3";"100.00";"  9.871";"carissimo";"1.678995e-03"
"  3";"  3";"100.00";"  9.871";"altitudo";"1.678995e-03"
"  9";" 16";" 56.25";"  9.768";"sapio";"1.775959e-03"
"  6";"  9";" 66.67";"  9.489";"expecto";"2.067333e-03"
" 18";" 42";" 42.86";"  9.140";"ago";"2.501263e-03"
"  5";"  7";" 71.43";"  9.082";"sentio";"2.581064e-03"
"  5";"  7";" 71.43";"  9.082";"cresco";"2.581064e-03"
"  5";"  7";" 71.43";"  9.082";"agens";"2.581064e-03"
"  5";"  7";" 71.43";"  9.082";"absconditus";"2.581064e-03"
"  8";" 14";" 57.14";"  9.008";"mysterium";"2.688454e-03"
"  4";"  5";" 80.00";"  8.997";"fidelibus";"2.704667e-03"
"  4";"  5";" 80.00";"  8.997";"primitia";"2.704667e-03"
"  4";"  5";" 80.00";"  8.997";"mansuetudo";"2.704667e-03"
"  4";"  5";" 80.00";"  8.997";"benignitas";"2.704667e-03"
"  4";"  5";" 80.00";"  8.997";"benedictus";"2.704667e-03"
" 13";" 28";" 46.43";"  8.466";"apostolus";"3.618880e-03"
"  7";" 12";" 58.33";"  8.266";"perfectus";"4.039733e-03"
"  7";" 12";" 58.33";"  8.266";"notus";"4.039733e-03"
" 19";" 47";" 40.43";"  7.859";"virtus";"5.057844e-03"
" 15";" 35";" 42.86";"  7.589";"voluntas";"5.871844e-03"
"  6";" 10";" 60.00";"  7.552";"cuius";"5.993393e-03"
"  9";" 18";" 50.00";"  7.219";"salus";"7.213197e-03"
"  5";"  8";" 62.50";"  6.887";"benedictio";"8.682917e-03"
"  5";"  8";" 62.50";"  6.887";"dives";"8.682917e-03"
"  5";"  8";" 62.50";"  6.887";"venia";"8.682917e-03"
" 12";" 27";" 44.44";"  6.817";"sapientia";"9.026965e-03"
" 13";" 30";" 43.33";"  6.809";"semper";"9.070421e-03"
"  4";"  6";" 66.67";"  6.316";"bonitas";"1.196320e-02"
"  4";"  6";" 66.67";"  6.316";"propositum";"1.196320e-02"
"  4";"  6";" 66.67";"  6.316";"praedicatio";"1.196320e-02"
"  4";"  6";" 66.67";"  6.316";"dilectus";"1.196320e-02"
"  6";" 11";" 54.55";"  6.023";"dono";"1.412353e-02"
"  3";"  4";" 75.00";"  5.980";"sensum";"1.446703e-02"
"  3";"  4";" 75.00";"  5.980";"timotheum";"1.446703e-02"
"  3";"  4";" 75.00";"  5.980";"remissio";"1.446703e-02"
"  3";"  4";" 75.00";"  5.980";"plenus";"1.446703e-02"
"  3";"  4";" 75.00";"  5.980";"intermissio";"1.446703e-02"
"  3";"  4";" 75.00";"  5.980";"glorifico";"1.446703e-02"
"  3";"  4";" 75.00";"  5.980";"generatio";"1.446703e-02"
"  3";"  4";" 75.00";"  5.980";"fideli";"1.446703e-02"
"  3";"  4";" 75.00";"  5.980";"falsus";"1.446703e-02"
"  3";"  4";" 75.00";"  5.980";"donatio";"1.446703e-02"
"  3";"  4";" 75.00";"  5.980";"confessio";"1.446703e-02"
"  3";"  4";" 75.00";"  5.980";"civitas";"1.446703e-02"
" 42";"131";" 32.06";"  5.967";"frater";"1.457450e-02"
"  7";" 14";" 50.00";"  5.604";"os";"1.792435e-02"
" 12";" 29";" 41.38";"  5.356";"abundo";"2.065315e-02"
" 19";" 52";" 36.54";"  5.203";"verbum";"2.255129e-02"
"  6";" 12";" 50.00";"  4.798";"caelestis";"2.848975e-02"
"  6";" 12";" 50.00";"  4.798";"sto";"2.848975e-02"
"  6";" 12";" 50.00";"  4.798";"revelatio";"2.848975e-02"
" 37";"118";" 31.36";"  4.510";"deus";"3.369700e-02"
"  4";"  7";" 57.14";"  4.488";"servo";"3.413350e-02"
"  4";"  7";" 57.14";"  4.488";"benedico";"3.413350e-02"
"  4";"  7";" 57.14";"  4.488";"praecipio";"3.413350e-02"
"  4";"  7";" 57.14";"  4.488";"cetero";"3.413350e-02"
"  5";" 10";" 50.00";"  3.994";"vinculum";"4.565002e-02"
"  5";" 10";" 50.00";"  3.994";"sanctificatio";"4.565002e-02"
"  5";" 10";" 50.00";"  3.994";"fiducia";"4.565002e-02"
"  5";" 10";" 50.00";"  3.994";"consolatio";"4.565002e-02"
"  3";"  5";" 60.00";"  3.767";"prudentia";"5.228376e-02"
"  3";"  5";" 60.00";"  3.767";"abundantia";"5.228376e-02"
"  3";"  5";" 60.00";"  3.767";"societas";"5.228376e-02"
"  3";"  5";" 60.00";"  3.767";"regula";"5.228376e-02"
"  3";"  5";" 60.00";"  3.767";"potentia";"5.228376e-02"
"  3";"  5";" 60.00";"  3.767";"instruo";"5.228376e-02"
"  3";"  5";" 60.00";"  3.767";"hereditas";"5.228376e-02"
"  3";"  5";" 60.00";"  3.767";"eandem";"5.228376e-02"
" 13";" 36";" 36.11";"  3.345";"cognosco";"6.740977e-02"
"  4";"  8";" 50.00";"  3.192";"repleo";"7.398329e-02"
"  2";"  3";" 66.67";"  3.153";"frango";"7.576864e-02"
"  2";"  3";" 66.67";"  3.153";"lumen";"7.576864e-02"
"  2";"  3";" 66.67";"  3.153";"transfero";"7.576864e-02"
"  2";"  3";" 66.67";"  3.153";"tito";"7.576864e-02"
"  2";"  3";" 66.67";"  3.153";"titi";"7.576864e-02"
"  2";"  3";" 66.67";"  3.153";"timotheo";"7.576864e-02"
"  2";"  3";" 66.67";"  3.153";"testa";"7.576864e-02"
"  2";"  3";" 66.67";"  3.153";"silvanus";"7.576864e-02"
"  2";"  3";" 66.67";"  3.153";"signaculum";"7.576864e-02"
"  2";"  3";" 66.67";"  3.153";"sempiternus";"7.576864e-02"
"  2";"  3";" 66.67";"  3.153";"quoque";"7.576864e-02"
"  2";"  3";" 66.67";"  3.153";"primogenitus";"7.576864e-02"
"  2";"  3";" 66.67";"  3.153";"postulo";"7.576864e-02"
"  2";"  3";" 66.67";"  3.153";"pignus";"7.576864e-02"
"  2";"  3";" 66.67";"  3.153";"ostium";"7.576864e-02"
"  2";"  3";" 66.67";"  3.153";"ordo";"7.576864e-02"
"  2";"  3";" 66.67";"  3.153";"numquam";"7.576864e-02"
"  2";"  3";" 66.67";"  3.153";"inluminatio";"7.576864e-02"
"  2";"  3";" 66.67";"  3.153";"hospes";"7.576864e-02"
"  2";"  3";" 66.67";"  3.153";"fruor";"7.576864e-02"
"  2";"  3";" 66.67";"  3.153";"flecto";"7.576864e-02"
"  2";"  3";" 66.67";"  3.153";"divisio";"7.576864e-02"
"  2";"  3";" 66.67";"  3.153";"differo";"7.576864e-02"
"  2";"  3";" 66.67";"  3.153";"depositum";"7.576864e-02"
"  2";"  3";" 66.67";"  3.153";"custos";"7.576864e-02"
"  2";"  3";" 66.67";"  3.153";"corinthi";"7.576864e-02"
"  2";"  3";" 66.67";"  3.153";"concaptivus";"7.576864e-02"
"  2";"  3";" 66.67";"  3.153";"apostolatus";"7.576864e-02"
"  2";"  3";" 66.67";"  3.153";"alieno";"7.576864e-02"
"  2";"  3";" 66.67";"  3.153";"affectio";"7.576864e-02"
"  2";"  3";" 66.67";"  3.153";"adquisitio";"7.576864e-02"
"  2";"  3";" 66.67";"  3.153";"accessa";"7.576864e-02"
"  8";" 20";" 40.00";"  3.136";"promissio";"7.657094e-02"
"  7";" 17";" 41.18";"  3.051";"impleo";"8.069590e-02"
"  6";" 14";" 42.86";"  3.004";"habito";"8.308285e-02"
"  7";" 18";" 38.89";"  2.456";"fidelis";"1.170558e-01"
"  3";"  6";" 50.00";"  2.392";"templum";"1.219683e-01"
"  3";"  6";" 50.00";"  2.392";"paenitentia";"1.219683e-01"
"  3";"  6";" 50.00";"  2.392";"invoco";"1.219683e-01"
"  3";"  6";" 50.00";"  2.392";"humilitas";"1.219683e-01"
"  9";" 25";" 36.00";"  2.270";"edo";"1.319041e-01"
"  5";" 12";" 41.67";"  2.268";"tenebra";"1.320905e-01"
"  4";"  9";" 44.44";"  2.252";"unicuique";"1.334488e-01"
"  4";"  9";" 44.44";"  2.252";"sollicitus";"1.334488e-01"
"*****";"*";"*";"*";"*";"*"
" 87";" 174";"50.00";"75.756";"noster";"3.209254e-18"
"293";" 951";"30.81";"56.703";"in";"5.068580e-14"
"137";" 434";"31.57";"21.004";"vos";"4.584027e-06"
" 38";"  90";"42.22";"18.793";"pro";"1.456849e-05"
" 64";" 190";"33.68";"12.571";"per";"3.917004e-04"
"109";" 360";"30.28";"11.833";"omnis";"5.819165e-04"
" 43";" 122";"35.25";"10.304";"vester";"1.327168e-03"
" 10";"  22";"45.45";" 6.084";"ante";"1.364205e-02"
" 39";" 122";"31.97";" 5.412";"a";"1.999623e-02"
"221";" 856";"25.82";" 5.162";"qui";"2.308460e-02"
" 39";" 124";"31.45";" 4.869";"meus";"2.734927e-02"
"253";"1008";"25.10";" 3.541";"et";"5.986673e-02"
"  4";"   8";"50.00";" 3.192";"o";"7.398329e-02"
" 52";" 183";"28.42";" 2.906";"nos";"8.822499e-02"
" 12";"  35";"34.29";" 2.388";"super";"1.222732e-01"
"*";"*";"*";"*";"*";"*"
"68";"154";"44.16";"40.436";"*L_Efesoarrei";"2.031935e-10"
"20";" 28";"71.43";"36.716";"*K_Kol_1";"1.366292e-09"
"17";" 23";"73.91";"33.272";"*K_Ef_1";"8.013164e-09"
"14";" 21";"66.67";"22.275";"*K_Ef_3";"2.362723e-06"
"39";" 93";"41.94";"18.864";"*L_Kolosarrei";"1.403653e-05"
"14";" 24";"58.33";"16.632";"*L_Filemoni";"4.537210e-05"
"14";" 24";"58.33";"16.632";"*K_Flm_1";"4.537210e-05"
" 8";" 12";"66.67";"12.671";"*K_2Ts_1";"3.714075e-04"
"39";"104";"37.50";"12.305";"*L_Filipostarrei";"4.516971e-04"
"12";" 22";"54.55";"12.112";"*K_Ef_2";"5.008869e-04"
"20";" 47";"42.55";" 9.937";"*L_Tesalonikarrei2";"1.619773e-03"
"11";" 23";"47.83";" 7.801";"*K_Flp_4";"5.220719e-03"
"10";" 24";"41.67";" 4.563";"*K_2Ko_8";"3.266768e-02"
"12";" 31";"38.71";" 4.161";"*K_Ef_4";"4.137306e-02"
"12";" 31";"38.71";" 4.161";"*K_1Ko_1";"4.137306e-02"
"14";" 38";"36.84";" 3.950";"*K_Erm_8";"4.685881e-02"
"12";" 32";"37.50";" 3.647";"*K_Erm_1";"5.615395e-02"
"26";" 82";"31.71";" 3.350";"*L_Timoteori2";"6.718472e-02"
" 7";" 17";"41.18";" 3.051";"*K_Kol_4";"8.069590e-02"
"11";" 30";"36.67";" 3.026";"*K_Flp_2";"8.194339e-02"
" 9";" 24";"37.50";" 2.725";"*K_Ef_6";"9.881773e-02"
" 9";" 24";"37.50";" 2.725";"*K_2Ko_1";"9.881773e-02"
" 7";" 18";"38.89";" 2.456";"*K_2Ts_3";"1.170558e-01"
" 7";" 18";"38.89";" 2.456";"*K_2Tm_1";"1.170558e-01"
"11";" 32";"34.38";" 2.216";"*K_Erm_15";"1.366187e-01"
"**";"classe";"9";"**";"";""
"****";"112";"1997";"5.61";"****";""
"32";" 37";" 86.49";"465.813";"iesum";"2.610902e-103"
"29";" 48";" 60.42";"279.078";"christum";" 1.192450e-62"
"23";" 37";" 62.16";"227.758";"vita";" 1.837964e-51"
"10";" 15";" 66.67";"106.434";"semen";" 5.922682e-25"
"11";" 18";" 61.11";"105.696";"iesus";" 8.594833e-25"
" 6";"  6";"100.00";"101.286";"sacramentum";" 7.959807e-24"
" 8";" 11";" 72.73";" 94.126";"suscito";" 2.961361e-22"
" 8";" 12";" 66.67";" 85.019";"abrahae";" 2.955608e-20"
"10";" 20";" 50.00";" 75.202";"promissio";" 4.249326e-18"
" 6";"  8";" 75.00";" 73.059";"futurus";" 1.258321e-17"
" 4";"  4";"100.00";" 67.457";"rex";" 2.153824e-16"
" 4";"  4";"100.00";" 67.457";"reconciliatio";" 2.153824e-16"
" 6";" 10";" 60.00";" 56.166";"baptizo";" 6.661687e-14"
" 5";"  8";" 62.50";" 49.108";"heres";" 2.421961e-12"
" 5";"  8";" 62.50";" 49.108";"aeternam";" 2.421961e-12"
"15";" 61";" 24.59";" 42.825";"christus";" 5.984869e-11"
" 4";"  6";" 66.67";" 42.381";"appareo";" 7.510735e-11"
"14";" 58";" 24.14";" 38.742";"mortuus";" 4.836614e-10"
" 3";"  4";" 75.00";" 36.456";"incorruptio";" 1.561373e-09"
"11";" 41";" 26.83";" 35.608";"mors";" 2.413146e-09"
" 4";" 10";" 40.00";" 22.455";"solus";" 2.151344e-06"
" 4";" 10";" 40.00";" 22.455";"salvator";" 2.151344e-06"
" 3";"  6";" 50.00";" 22.402";"confiteor";" 2.211474e-06"
" 3";"  7";" 42.86";" 18.411";"testis";" 1.780457e-05"
" 3";"  7";" 42.86";" 18.411";"crucifigo";" 1.780457e-05"
" 2";"  4";" 50.00";" 14.920";"solacium";" 1.121879e-04"
" 2";"  4";" 50.00";" 14.920";"david";" 1.121879e-04"
" 2";"  4";" 50.00";" 14.920";"adprehendo";" 1.121879e-04"
" 4";" 14";" 28.57";" 14.043";"angelus";" 1.786528e-04"
" 5";" 21";" 23.81";" 13.281";"resurgo";" 2.680998e-04"
"10";" 63";" 15.87";" 12.947";"pater";" 3.204137e-04"
" 6";" 29";" 20.69";" 12.643";"saeculum";" 3.769638e-04"
" 2";"  5";" 40.00";" 11.199";"iustificati";" 8.182927e-04"
" 2";"  5";" 40.00";" 11.199";"inlumino";" 8.182927e-04"
" 2";"  5";" 40.00";" 11.199";"excipio";" 8.182927e-04"
" 2";"  5";" 40.00";" 11.199";"certus";" 8.182927e-04"
" 2";"  5";" 40.00";" 11.199";"adduco";" 8.182927e-04"
"11";" 78";" 14.10";" 11.063";"caro";" 8.807777e-04"
" 3";" 11";" 27.27";"  9.806";"delictum";" 1.739087e-03"
" 3";" 11";" 27.27";"  9.806";"pietas";" 1.739087e-03"
" 3";" 11";" 27.27";"  9.806";"mecum";" 1.739087e-03"
" 4";" 18";" 22.22";"  9.470";"honor";" 2.088097e-03"
" 7";" 43";" 16.28";"  9.452";"mundus";" 2.109006e-03"
"14";"118";" 11.86";"  9.272";"deus";" 2.327397e-03"
" 2";"  6";" 33.33";"  8.738";"regno";" 3.116001e-03"
" 2";"  6";" 33.33";"  8.738";"eripio";" 3.116001e-03"
" 2";"  6";" 33.33";"  8.738";"constituo";" 3.116001e-03"
" 2";"  6";" 33.33";"  8.738";"principatus";" 3.116001e-03"
" 2";"  6";" 33.33";"  8.738";"mortalis";" 3.116001e-03"
" 2";"  6";" 33.33";"  8.738";"magnum";" 3.116001e-03"
" 3";" 12";" 25.00";"  8.575";"notus";" 3.407429e-03"
" 2";"  7";" 28.57";"  6.997";"fundamentum";" 8.164955e-03"
" 2";"  7";" 28.57";"  6.997";"absconditus";" 8.164955e-03"
" 4";" 22";" 18.18";"  6.643";"nomen";" 9.954446e-03"
" 4";" 23";" 17.39";"  6.102";"solum";" 1.350106e-02"
" 4";" 23";" 17.39";"  6.102";"dedo";" 1.350106e-02"
" 3";" 15";" 20.00";"  5.913";"manifesto";" 1.502933e-02"
" 6";" 43";" 13.95";"  5.781";"peccatum";" 1.619955e-02"
" 2";"  8";" 25.00";"  5.705";"reconcilio";" 1.691272e-02"
" 2";"  8";" 25.00";"  5.705";"reputo";" 1.691272e-02"
" 7";" 56";" 12.50";"  5.169";"quidem";" 2.299356e-02"
" 2";"  9";" 22.22";"  4.714";"utilis";" 2.992177e-02"
" 2";"  9";" 22.22";"  4.714";"expecto";" 2.992177e-02"
" 6";" 48";" 12.50";"  4.412";"gens";" 3.567906e-02"
" 1";"  3";" 33.33";"  4.363";"unde";" 3.673703e-02"
" 1";"  3";" 33.33";"  4.363";"terrester";" 3.673703e-02"
" 1";"  3";" 33.33";"  4.363";"temptatio";" 3.673703e-02"
" 1";"  3";" 33.33";"  4.363";"victoria";" 3.673703e-02"
" 1";"  3";" 33.33";"  4.363";"thesaurizo";" 3.673703e-02"
" 1";"  3";" 33.33";"  4.363";"stipendium";" 3.673703e-02"
" 1";"  3";" 33.33";"  4.363";"stimulus";" 3.673703e-02"
" 1";"  3";" 33.33";"  4.363";"silvanus";" 3.673703e-02"
" 1";"  3";" 33.33";"  4.363";"repromissio";" 3.673703e-02"
" 1";"  3";" 33.33";"  4.363";"recipeo";" 3.673703e-02"
" 1";"  3";" 33.33";"  4.363";"provideo";" 3.673703e-02"
" 1";"  3";" 33.33";"  4.363";"presbyter";" 3.673703e-02"
" 1";"  3";" 33.33";"  4.363";"occulo";" 3.673703e-02"
" 1";"  3";" 33.33";"  4.363";"nubes";" 3.673703e-02"
" 1";"  3";" 33.33";"  4.363";"mediator";" 3.673703e-02"
" 1";"  3";" 33.33";"  4.363";"iustificat";" 3.673703e-02"
" 1";"  3";" 33.33";"  4.363";"isaac";" 3.673703e-02"
" 1";"  3";" 33.33";"  4.363";"instans";" 3.673703e-02"
" 1";"  3";" 33.33";"  4.363";"inluminatio";" 3.673703e-02"
" 1";"  3";" 33.33";"  4.363";"immo";" 3.673703e-02"
" 1";"  3";" 33.33";"  4.363";"idoneus";" 3.673703e-02"
" 1";"  3";" 33.33";"  4.363";"firmus";" 3.673703e-02"
" 1";"  3";" 33.33";"  4.363";"dictum";" 3.673703e-02"
" 1";"  3";" 33.33";"  4.363";"condemno";" 3.673703e-02"
" 1";"  3";" 33.33";"  4.363";"certamen";" 3.673703e-02"
" 1";"  3";" 33.33";"  4.363";"aestimo";" 3.673703e-02"
" 1";"  3";" 33.33";"  4.363";"adquisitio";" 3.673703e-02"
"13";"139";"  9.35";"  3.956";"gratia";" 4.670109e-02"
" 2";" 10";" 20.00";"  3.932";"vobiscum";" 4.737281e-02"
" 2";" 10";" 20.00";"  3.932";"ostendeo";" 4.737281e-02"
" 8";" 75";" 10.67";"  3.766";"gloria";" 5.229545e-02"
"18";"215";"  8.37";"  3.476";"dei";" 6.225561e-02"
"20";"245";"  8.16";"  3.443";"dominus";" 6.351065e-02"
" 4";" 30";" 13.33";"  3.433";"Spes";" 6.389492e-02"
" 3";" 20";" 15.00";"  3.366";"pono";" 6.655766e-02"
" 3";" 20";" 15.00";"  3.366";"patientia";" 6.655766e-02"
" 2";" 11";" 18.18";"  3.303";"induo";" 6.914851e-02"
" 2";" 11";" 18.18";"  3.303";"confirmo";" 6.914851e-02"
" 2";" 11";" 18.18";"  3.303";"caela";" 6.914851e-02"
" 1";"  4";" 25.00";"  2.847";"adiutores";" 9.154582e-02"
" 1";"  4";" 25.00";"  2.847";"timotheum";" 9.154582e-02"
" 1";"  4";" 25.00";"  2.847";"tam";" 9.154582e-02"
" 1";"  4";" 25.00";"  2.847";"satanae";" 9.154582e-02"
" 1";"  4";" 25.00";"  2.847";"salvo";" 9.154582e-02"
" 1";"  4";" 25.00";"  2.847";"propono";" 9.154582e-02"
" 1";"  4";" 25.00";"  2.847";"praesentia";" 9.154582e-02"
" 1";"  4";" 25.00";"  2.847";"iudicabit";" 9.154582e-02"
" 1";"  4";" 25.00";"  2.847";"invisibilis";" 9.154582e-02"
" 1";"  4";" 25.00";"  2.847";"inhabito";" 9.154582e-02"
" 1";"  4";" 25.00";"  2.847";"falsus";" 9.154582e-02"
" 1";"  4";" 25.00";"  2.847";"extollo";" 9.154582e-02"
" 1";"  4";" 25.00";"  2.847";"dormierunt";" 9.154582e-02"
" 1";"  4";" 25.00";"  2.847";"donatio";" 9.154582e-02"
" 1";"  4";" 25.00";"  2.847";"creditum";" 9.154582e-02"
" 1";"  4";" 25.00";"  2.847";"confessio";" 9.154582e-02"
" 1";"  4";" 25.00";"  2.847";"civitas";" 9.154582e-02"
" 1";"  4";" 25.00";"  2.847";"cephas";" 9.154582e-02"
" 2";" 12";" 16.67";"  2.789";"caelestis";" 9.493240e-02"
" 2";" 12";" 16.67";"  2.789";"revelatio";" 9.493240e-02"
" 2";" 13";" 15.38";"  2.362";"quicumque";" 1.242937e-01"
" 3";" 24";" 12.50";"  2.179";"amen";" 1.398733e-01"
" 2";" 14";" 14.29";"  2.005";"divitia";" 1.567502e-01"
"*****";"*";"*";"*";"*";"*"
"23";" 190";"12.11";"16.742";"per";"4.282359e-05"
"15";" 132";"11.36";" 8.844";"duo";"2.941340e-03"
"18";" 174";"10.34";" 8.077";"noster";"4.482287e-03"
"18";" 183";" 9.84";" 6.802";"nos";"9.107127e-03"
"14";" 134";"10.45";" 6.354";"ex";"1.170944e-02"
" 1";"   3";"33.33";" 4.363";"alteruter";"3.673703e-02"
"63";" 951";" 6.62";" 3.542";"in";"5.984577e-02"
"66";"1008";" 6.55";" 3.391";"et";"6.553351e-02"
" 1";"   4";"25.00";" 2.847";"praeter";"9.154582e-02"
" 4";"  34";"11.76";" 2.476";"nisi";"1.155744e-01"
"56";" 856";" 6.54";" 2.467";"qui";"1.162656e-01"
"*";"*";"*";"*";"*";"*"
" 6";" 29";"20.69";"12.643";"*K_Ga_3";"0.0003769638"
" 5";" 25";"20.00";" 9.905";"*K_Erm_4";"0.0016482863"
" 6";" 38";"15.79";" 7.585";"*K_Erm_8";"0.0058864816"
" 4";" 21";"19.05";" 7.241";"*K_Erm_5";"0.0071266629"
" 4";" 23";"17.39";" 6.102";"*K_Ef_1";"0.0135010645"
" 3";" 15";"20.00";" 5.913";"*K_Tt_3";"0.0150293296"
" 3";" 18";"16.67";" 4.196";"*K_2Ko_4";"0.0405265663"
"32";"426";" 7.51";" 3.706";"*L_Erromatarrei";"0.0542286856"
" 3";" 20";"15.00";" 3.366";"*K_1Tm_6";"0.0665576589"
"10";"111";" 9.01";" 2.567";"*L_Timoteori1";"0.1090857705"
" 3";" 23";"13.04";" 2.430";"*K_1Ko_3";"0.1190546335"
" 3";" 23";"13.04";" 2.430";"*K_Kol_2";"0.1190546335"
"**";"classe";"10";"**";"";""
"****";"557";"1997";"27.89";"****";""
" 61";" 85";" 71.76";"84.965";"lex";"3.037075e-20"
" 36";" 39";" 92.31";"82.064";"vivo";"1.317344e-19"
" 36";" 43";" 83.72";"68.105";"peccatum";"1.549857e-16"
"156";"352";" 44.32";"57.329";"enim";"3.686607e-14"
" 69";"124";" 55.65";"50.633";"dico";"1.113783e-12"
" 24";" 28";" 85.71";"47.209";"manduco";"6.381752e-12"
"206";"534";" 38.58";"41.377";"non";"1.255335e-10"
" 17";" 18";" 94.44";"40.001";"adhuc";"2.538028e-10"
" 37";" 58";" 63.79";"38.281";"mortuus";"6.124805e-10"
" 13";" 13";"100.00";"33.829";"bibo";"6.018023e-09"
" 37";" 61";" 60.66";"33.584";"christus";"6.825252e-09"
" 27";" 41";" 65.85";"29.993";"mors";"4.335212e-08"
" 13";" 14";" 92.86";"29.586";"idolon";"5.349263e-08"
" 13";" 14";" 92.86";"29.586";"absum";"5.349263e-08"
" 21";" 29";" 72.41";"29.003";"pecco";"7.227888e-08"
" 15";" 18";" 83.33";"27.760";"morior";"1.373654e-07"
" 23";" 34";" 67.65";"27.181";"scriptum";"1.852823e-07"
" 20";" 28";" 71.43";"26.763";"jam";"2.299573e-07"
" 13";" 15";" 86.67";"25.959";"ubi";"3.487576e-07"
" 13";" 15";" 86.67";"25.959";"israhel";"3.487576e-07"
" 29";" 48";" 60.42";"25.869";"gens";"3.654319e-07"
" 16";" 21";" 76.19";"24.616";"quaero";"6.996600e-07"
" 19";" 27";" 70.37";"24.556";"usque";"7.219091e-07"
" 12";" 14";" 85.71";"23.438";"propheta";"1.290258e-06"
" 12";" 14";" 85.71";"23.438";"iniquitas";"1.290258e-06"
"  9";"  9";"100.00";"23.373";"semino";"1.334495e-06"
" 10";" 11";" 90.91";"21.840";"deinde";"2.963862e-06"
"  8";"  8";"100.00";"20.765";"surgo";"5.191209e-06"
" 16";" 23";" 69.57";"20.092";"numquid";"7.381998e-06"
" 16";" 23";" 69.57";"20.092";"salvus";"7.381998e-06"
" 15";" 21";" 71.43";"20.001";"resurgo";"7.738520e-06"
" 10";" 12";" 83.33";"18.450";"destruo";"1.743791e-05"
"  7";"  7";"100.00";"18.161";"populus";"2.030355e-05"
" 12";" 16";" 75.00";"17.797";"ignoro";"2.457835e-05"
" 51";"113";" 45.13";"17.702";"homo";"2.582891e-05"
" 31";" 60";" 51.67";"17.385";"nunc";"3.052366e-05"
"  8";"  9";" 88.89";"16.725";"resurrectio";"4.321296e-05"
"  6";"  6";"100.00";"15.558";"duco";"7.999480e-05"
"  6";"  6";"100.00";"15.558";"occido";"7.999480e-05"
" 12";" 17";" 70.59";"15.541";"sapiens";"8.072936e-05"
"  7";"  8";" 87.50";"14.190";"esca";"1.652441e-04"
" 14";" 22";" 63.64";"14.132";"iustitiam";"1.704566e-04"
" 20";" 36";" 55.56";"13.950";"sic";"1.877752e-04"
"  8";" 10";" 80.00";"13.568";"novus";"2.300196e-04"
"  8";" 10";" 80.00";"13.568";"prior";"2.300196e-04"
"  8";" 10";" 80.00";"13.568";"peccator";"2.300196e-04"
" 25";" 49";" 51.02";"13.360";"dies";"2.569861e-04"
"  9";" 12";" 75.00";"13.321";"revelo";"2.624814e-04"
"  9";" 12";" 75.00";"13.321";"finis";"2.624814e-04"
" 10";" 14";" 71.43";"13.287";"mandatum";"2.672241e-04"
" 10";" 14";" 71.43";"13.287";"iustitia";"2.672241e-04"
"  5";"  5";"100.00";"12.959";"adam";"3.184149e-04"
"  5";"  5";"100.00";"12.959";"velamen";"3.184149e-04"
"  5";"  5";"100.00";"12.959";"stultitia";"3.184149e-04"
"  5";"  5";"100.00";"12.959";"redimo";"3.184149e-04"
"  5";"  5";"100.00";"12.959";"carnalis";"3.184149e-04"
"  5";"  5";"100.00";"12.959";"Lucas";"3.184149e-04"
" 37";" 82";" 45.12";"12.622";"ergo";"3.811758e-04"
" 22";" 43";" 51.16";"11.833";"mundus";"5.819538e-04"
"  6";"  7";" 85.71";"11.678";"infirmo";"6.325633e-04"
"  6";"  7";" 85.71";"11.678";"pereo";"6.325633e-04"
"  6";"  7";" 85.71";"11.678";"iudaeus";"6.325633e-04"
"  6";"  7";" 85.71";"11.678";"incredulitas";"6.325633e-04"
"  6";"  7";" 85.71";"11.678";"abraham";"6.325633e-04"
" 10";" 15";" 66.67";"11.298";"evacuo";"7.758810e-04"
"  7";"  9";" 77.78";"11.187";"testamentum";"8.238921e-04"
"  7";"  9";" 77.78";"11.187";"stultus";"8.238921e-04"
"  8";" 11";" 72.73";"11.055";"filia";"8.843138e-04"
"  4";"  4";"100.00";"10.362";"meto";"1.286450e-03"
"  4";"  4";"100.00";"10.362";"immolo";"1.286450e-03"
"  4";"  4";"100.00";"10.362";"ignis";"1.286450e-03"
"  4";"  4";"100.00";"10.362";"esaias";"1.286450e-03"
"  4";"  4";"100.00";"10.362";"ancilla";"1.286450e-03"
"  4";"  4";"100.00";"10.362";"solvo";"1.286450e-03"
"  4";"  4";"100.00";"10.362";"reputatum";"1.286450e-03"
"  4";"  4";"100.00";"10.362";"praevaricatio";"1.286450e-03"
"  4";"  4";"100.00";"10.362";"moses";"1.286450e-03"
"  4";"  4";"100.00";"10.362";"mortifico";"1.286450e-03"
"  4";"  4";"100.00";"10.362";"iusti";"1.286450e-03"
"  4";"  4";"100.00";"10.362";"inimicitia";"1.286450e-03"
"  4";"  4";"100.00";"10.362";"hierosolyma";"1.286450e-03"
"  4";"  4";"100.00";"10.362";"elementum";"1.286450e-03"
"  4";"  4";"100.00";"10.362";"debitor";"1.286450e-03"
"  4";"  4";"100.00";"10.362";"converro";"1.286450e-03"
"  4";"  4";"100.00";"10.362";"avarus";"1.286450e-03"
"  4";"  4";"100.00";"10.362";"aufero";"1.286450e-03"
"  4";"  4";"100.00";"10.362";"alligo";"1.286450e-03"
" 12";" 20";" 60.00";"10.355";"iustitiae";"1.290901e-03"
" 34";" 78";" 43.59";" 9.945";"caro";"1.612572e-03"
" 10";" 16";" 62.50";" 9.605";"invenio";"1.940209e-03"
"  5";"  6";" 83.33";" 9.197";"calix";"2.423555e-03"
"  5";"  6";" 83.33";" 9.197";"deficio";"2.423555e-03"
"  5";"  6";" 83.33";" 9.197";"panis";"2.423555e-03"
"  5";"  6";" 83.33";" 9.197";"iudaei";"2.423555e-03"
"  5";"  6";" 83.33";" 9.197";"doctor";"2.423555e-03"
" 12";" 21";" 57.14";" 9.029";"misericordia";"2.657563e-03"
" 12";" 21";" 57.14";" 9.029";"ira";"2.657563e-03"
"  8";" 12";" 66.67";" 9.025";"vivus";"2.663428e-03"
"  6";"  8";" 75.00";" 8.863";"circumcido";"2.910633e-03"
"  6";"  8";" 75.00";" 8.863";"vivifico";"2.910633e-03"
"  6";"  8";" 75.00";" 8.863";"modo";"2.910633e-03"
"  7";" 10";" 70.00";" 8.860";"infirmus";"2.914306e-03"
"  7";" 10";" 70.00";" 8.860";"efficio";"2.914306e-03"
"  7";" 10";" 70.00";" 8.860";"annus";"2.914306e-03"
" 25";" 56";" 44.64";" 8.038";"Deus";"4.579978e-03"
" 14";" 27";" 51.85";" 7.812";"ambulo";"5.188703e-03"
" 14";" 27";" 51.85";" 7.812";"servio";"5.188703e-03"
"  3";"  3";"100.00";" 7.768";"scandalizo";"5.319452e-03"
"  3";"  3";"100.00";" 7.768";"plebes";"5.319452e-03"
"  3";"  3";"100.00";" 7.768";"revelatum";"5.319452e-03"
"  3";"  3";"100.00";" 7.768";"rapax";"5.319452e-03"
"  3";"  3";"100.00";" 7.768";"impius";"5.319452e-03"
"  3";"  3";"100.00";" 7.768";"ibi";"5.319452e-03"
"  3";"  3";"100.00";" 7.768";"hodiernus";"5.319452e-03"
"  3";"  3";"100.00";" 7.768";"fur";"5.319452e-03"
"  3";"  3";"100.00";" 7.768";"figura";"5.319452e-03"
"  3";"  3";"100.00";" 7.768";"damno";"5.319452e-03"
"  9";" 15";" 60.00";" 7.747";"lego";"5.380107e-03"
"  9";" 15";" 60.00";" 7.747";"liber";"5.380107e-03"
"  8";" 13";" 61.54";" 7.365";"nonne";"6.648777e-03"
"  8";" 13";" 61.54";" 7.365";"libero";"6.648777e-03"
"  8";" 13";" 61.54";" 7.365";"fructus";"6.648777e-03"
"  8";" 13";" 61.54";" 7.365";"Servius";"6.648777e-03"
"  7";" 11";" 63.64";" 7.027";"consequor";"8.030493e-03"
"  7";" 11";" 63.64";" 7.027";"nox";"8.030493e-03"
"  7";" 11";" 63.64";" 7.027";"nescitis";"8.030493e-03"
"  7";" 11";" 63.64";" 7.027";"insipio";"8.030493e-03"
"  7";" 11";" 63.64";" 7.027";"simul";"8.030493e-03"
"  7";" 11";" 63.64";" 7.027";"crux";"8.030493e-03"
"  4";"  5";" 80.00";" 6.767";"quosdam";"9.284865e-03"
"  4";"  5";" 80.00";" 6.767";"cibus";"9.284865e-03"
"  4";"  5";" 80.00";" 6.767";"armum";"9.284865e-03"
"  4";"  5";" 80.00";" 6.767";"similitudo";"9.284865e-03"
"  4";"  5";" 80.00";" 6.767";"prosum";"9.284865e-03"
"  4";"  5";" 80.00";" 6.767";"potus";"9.284865e-03"
"  4";"  5";" 80.00";" 6.767";"gentil";"9.284865e-03"
"  4";"  5";" 80.00";" 6.767";"ambulate";"9.284865e-03"
"  6";"  9";" 66.67";" 6.758";"inimicus";"9.330859e-03"
"  6";"  9";" 66.67";" 6.758";"graecus";"9.330859e-03"
"  5";"  7";" 71.43";" 6.620";"particeps";"1.008267e-02"
"  5";"  7";" 71.43";" 6.620";"foris";"1.008267e-02"
"  5";"  7";" 71.43";" 6.620";"alioquin";"1.008267e-02"
"  8";" 14";" 57.14";" 5.998";"scriptura";"1.432240e-02"
"  7";" 12";" 58.33";" 5.562";"sanguis";"1.834930e-02"
" 17";" 38";" 44.74";" 5.465";"tempus";"1.939857e-02"
" 10";" 20";" 50.00";" 4.910";"spiritalis";"2.670800e-02"
"  5";"  8";" 62.50";" 4.783";"excido";"2.873679e-02"
" 53";"149";" 35.57";" 4.720";"facio";"2.980875e-02"
" 23";" 57";" 40.35";" 4.529";"venio";"3.333393e-02"
"  4";"  6";" 66.67";" 4.499";"misereo";"3.391873e-02"
"  4";"  6";" 66.67";" 4.499";"vult";"3.391873e-02"
"  4";"  6";" 66.67";" 4.499";"nosco";"3.391873e-02"
"  4";"  6";" 66.67";" 4.499";"obsequium";"3.391873e-02"
"  4";"  6";" 66.67";" 4.499";"erubesco";"3.391873e-02"
"  4";"  6";" 66.67";" 4.499";"cogitatio";"3.391873e-02"
"  3";"  4";" 75.00";" 4.422";"transfiguro";"3.546937e-02"
"  3";"  4";" 75.00";" 4.422";"sedeo";"3.546937e-02"
"  3";"  4";" 75.00";" 4.422";"novum";"3.546937e-02"
"  3";"  4";" 75.00";" 4.422";"mosi";"3.546937e-02"
"  3";"  4";" 75.00";" 4.422";"iustificationem";"3.546937e-02"
"  3";"  4";" 75.00";" 4.422";"intendo";"3.546937e-02"
"  3";"  4";" 75.00";" 4.422";"impietas";"3.546937e-02"
"  3";"  4";" 75.00";" 4.422";"hostia";"3.546937e-02"
"  3";"  4";" 75.00";" 4.422";"gratis";"3.546937e-02"
"  3";"  4";" 75.00";" 4.422";"detineo";"3.546937e-02"
"  3";"  4";" 75.00";" 4.422";"corruptio";"3.546937e-02"
"  3";"  4";" 75.00";" 4.422";"concupisco";"3.546937e-02"
"  3";"  4";" 75.00";" 4.422";"aer";"3.546937e-02"
" 14";" 32";" 43.75";" 4.066";"vero";"4.374452e-02"
" 18";" 44";" 40.91";" 3.791";"veritas";"5.154179e-02"
"  7";" 14";" 50.00";" 3.426";"regnum";"6.416518e-02"
"  4";"  7";" 57.14";" 2.988";"conprehendo";"8.386130e-02"
"  4";"  7";" 57.14";" 2.988";"aedifico";"8.386130e-02"
"  4";"  7";" 57.14";" 2.988";"medius";"8.386130e-02"
"  4";"  7";" 57.14";" 2.988";"domino";"8.386130e-02"
"  4";"  7";" 57.14";" 2.988";"cado";"8.386130e-02"
" 20";" 52";" 38.46";" 2.966";"credo";"8.504821e-02"
"  9";" 20";" 45.00";" 2.940";"trado";"8.641101e-02"
"  6";" 12";" 50.00";" 2.934";"tenebra";"8.673874e-02"
"  6";" 12";" 50.00";" 2.934";"intellego";"8.673874e-02"
"  7";" 15";" 46.67";" 2.649";"servus";"1.036253e-01"
"  7";" 15";" 46.67";" 2.649";"factum";"1.036253e-01"
" 21";" 56";" 37.50";" 2.645";"quidem";"1.039024e-01"
"  3";"  5";" 60.00";" 2.569";"vetus";"1.089505e-01"
"  3";"  5";" 60.00";" 2.569";"saepe";"1.089505e-01"
"  3";"  5";" 60.00";" 2.569";"relinquo";"1.089505e-01"
"  3";"  5";" 60.00";" 2.569";"mare";"1.089505e-01"
"  3";"  5";" 60.00";" 2.569";"ephesi";"1.089505e-01"
"  3";"  5";" 60.00";" 2.569";"electio";"1.089505e-01"
"  3";"  5";" 60.00";" 2.569";"concupiscentia";"1.089505e-01"
"  3";"  5";" 60.00";" 2.569";"adsumo";"1.089505e-01"
"  5";" 10";" 50.00";" 2.442";"seduco";"1.180924e-01"
"  5";" 10";" 50.00";" 2.442";"infirmis";"1.180924e-01"
" 18";" 48";" 37.50";" 2.257";"nolo";"1.329691e-01"
"  2";"  3";" 66.67";" 2.246";"daemonion";"1.339591e-01"
"  2";"  3";" 66.67";" 2.246";"licet_est";"1.339591e-01"
"  2";"  3";" 66.67";" 2.246";"vindicta";"1.339591e-01"
"  2";"  3";" 66.67";" 2.246";"vanus";"1.339591e-01"
"  2";"  3";" 66.67";" 2.246";"trituro";"1.339591e-01"
"  2";"  3";" 66.67";" 2.246";"thesaurizo";"1.339591e-01"
"  2";"  3";" 66.67";" 2.246";"subiecti";"1.339591e-01"
"  2";"  3";" 66.67";" 2.246";"stimulus";"1.339591e-01"
"  2";"  3";" 66.67";" 2.246";"simulacrum";"1.339591e-01"
"  2";"  3";" 66.67";" 2.246";"repello";"1.339591e-01"
"  2";"  3";" 66.67";" 2.246";"praevaricator";"1.339591e-01"
"  2";"  3";" 66.67";" 2.246";"offendo";"1.339591e-01"
"  2";"  3";" 66.67";" 2.246";"oblatio";"1.339591e-01"
"  2";"  3";" 66.67";" 2.246";"nubes";"1.339591e-01"
"  2";"  3";" 66.67";" 2.246";"nosti";"1.339591e-01"
"  2";"  3";" 66.67";" 2.246";"mons";"1.339591e-01"
"  2";"  3";" 66.67";" 2.246";"milito";"1.339591e-01"
"  2";"  3";" 66.67";" 2.246";"iustificatus";"1.339591e-01"
"  2";"  3";" 66.67";" 2.246";"iudicare";"1.339591e-01"
"  2";"  3";" 66.67";" 2.246";"intus";"1.339591e-01"
"  2";"  3";" 66.67";" 2.246";"inmundus";"1.339591e-01"
"  2";"  3";" 66.67";" 2.246";"immo";"1.339591e-01"
"  2";"  3";" 66.67";" 2.246";"humanus";"1.339591e-01"
"  2";"  3";" 66.67";" 2.246";"fortis";"1.339591e-01"
"  2";"  3";" 66.67";" 2.246";"emo";"1.339591e-01"
"  2";"  3";" 66.67";" 2.246";"dormeo";"1.339591e-01"
"  2";"  3";" 66.67";" 2.246";"digni";"1.339591e-01"
"  2";"  3";" 66.67";" 2.246";"diffidentia";"1.339591e-01"
"  2";"  3";" 66.67";" 2.246";"dictum";"1.339591e-01"
"  2";"  3";" 66.67";" 2.246";"condemnatio";"1.339591e-01"
"  2";"  3";" 66.67";" 2.246";"concludo";"1.339591e-01"
"  2";"  3";" 66.67";" 2.246";"audierunt";"1.339591e-01"
"  2";"  3";" 66.67";" 2.246";"adquiesco";"1.339591e-01"
"*****";"*";"*";"*";"*";"*"
"306";"964";"31.74";"13.741";"sum";"0.0002098254"
" 16";" 27";"59.26";"13.390";"sub";"0.0002530064"
" 75";"213";"35.21";" 6.351";"si";"0.0117301948"
" 47";"127";"37.01";" 5.604";"quis";"0.0179204983"
" 21";" 49";"42.86";" 5.594";"neque";"0.0180257638"
" 13";" 27";"48.15";" 5.584";"tamquam";"0.0181266997"
"  7";" 12";"58.33";" 5.562";"tres";"0.0183493019"
"  6";" 10";"60.00";" 5.152";"ecce";"0.0232237889"
"  3";"  4";"75.00";" 4.422";"post";"0.0354693721"
"  8";" 16";"50.00";" 3.920";"nec";"0.0477222501"
"  4";"  7";"57.14";" 2.988";"donec";"0.0838612980"
" 92";"290";"31.72";" 2.477";"sed";"0.1154914018"
"  2";"  3";"66.67";" 2.246";"extra";"0.1339591015"
" 36";"106";"33.96";" 2.051";"quoniam";"0.1521045660"
"*";"*";"*";"*";"*";"*"
"188";"426";"44.13";"71.007";"*L_Erromatarrei";"3.559492e-17"
" 21";" 23";"91.30";"46.521";"*K_Erm_6";"9.065153e-12"
" 19";" 25";"76.00";"29.133";"*K_Erm_7";"6.757158e-08"
" 30";" 52";"57.69";"23.575";"*K_1Ko_15";"1.201560e-06"
" 20";" 32";"62.50";"19.367";"*K_Erm_11";"1.078582e-05"
" 62";"146";"42.47";"16.635";"*L_Galaziarrei";"4.531392e-05"
" 18";" 31";"58.06";"14.254";"*K_Ga_4";"1.597609e-04"
" 13";" 20";"65.00";"13.832";"*K_Ga_2";"1.999237e-04"
"148";"424";"34.91";"13.166";"*L_Korintoarrei1";"2.850315e-04"
" 15";" 26";"57.69";"11.632";"*K_1Ko_9";"6.483142e-04"
" 17";" 31";"54.84";"11.369";"*K_1Ko_10";"7.469151e-04"
" 16";" 31";"51.61";" 8.810";"*K_Erm_3";"2.996268e-03"
" 13";" 25";"52.00";" 7.316";"*K_Erm_4";"6.834072e-03"
" 11";" 21";"52.38";" 6.328";"*K_Erm_10";"1.188184e-02"
" 11";" 23";"47.83";" 4.597";"*K_Erm_14";"3.202351e-02"
"  7";" 13";"53.85";" 4.383";"*K_1Ko_8";"3.630638e-02"
" 13";" 29";"44.83";" 4.197";"*K_Erm_2";"4.050497e-02"
" 13";" 29";"44.83";" 4.197";"*K_Ga_3";"4.050497e-02"
" 10";" 21";"47.62";" 4.107";"*K_Erm_5";"4.271668e-02"
" 14";" 33";"42.42";" 3.523";"*K_Erm_9";"6.050761e-02"
