"";"X";"V1"
"1";1;8
"2";2;10
"3";3;9
"4";4;8
"5";5;8
"6";6;8
"7";7;8
"8";8;9
"9";9;8
"10";10;8
"11";11;8
"12";12;5
"13";13;10
"14";14;10
"15";15;4
"16";16;10
"17";17;10
"18";18;10
"19";19;8
"20";20;8
"21";21;10
"22";22;10
"23";23;8
"24";24;5
"25";25;8
"26";26;5
"27";27;5
"28";28;4
"29";29;5
"30";30;2
"31";31;10
"32";32;10
"33";33;10
"34";34;4
"35";35;4
"36";36;8
"37";37;10
"38";38;5
"39";39;9
"40";40;10
"41";41;4
"42";42;5
"43";43;5
"44";44;10
"45";45;10
"46";46;10
"47";47;5
"48";48;9
"49";49;10
"50";50;10
"51";51;8
"52";52;4
"53";53;4
"54";54;10
"55";55;10
"56";56;10
"57";57;10
"58";58;7
"59";59;7
"60";60;10
"61";61;8
"62";62;4
"63";63;4
"64";64;10
"65";65;4
"66";66;10
"67";67;10
"68";68;10
"69";69;5
"70";70;10
"71";71;10
"72";72;10
"73";73;10
"74";74;3
"75";75;8
"76";76;10
"77";77;8
"78";78;8
"79";79;5
"80";80;5
"81";81;10
"82";82;10
"83";83;8
"84";84;10
"85";85;8
"86";86;8
"87";87;8
"88";88;10
"89";89;10
"90";90;10
"91";91;7
"92";92;10
"93";93;10
"94";94;10
"95";95;10
"96";96;4
"97";97;10
"98";98;10
"99";99;10
"100";100;10
"101";101;7
"102";102;7
"103";103;7
"104";104;7
"105";105;9
"106";106;9
"107";107;10
"108";108;9
"109";109;10
"110";110;9
"111";111;10
"112";112;8
"113";113;5
"114";114;10
"115";115;10
"116";116;9
"117";117;10
"118";118;9
"119";119;8
"120";120;4
"121";121;8
"122";122;8
"123";123;10
"124";124;10
"125";125;10
"126";126;10
"127";127;10
"128";128;9
"129";129;10
"130";130;10
"131";131;10
"132";132;4
"133";133;4
"134";134;9
"135";135;10
"136";136;10
"137";137;8
"138";138;9
"139";139;10
"140";140;10
"141";141;9
"142";142;10
"143";143;10
"144";144;10
"145";145;10
"146";146;10
"147";147;10
"148";148;10
"149";149;10
"150";150;10
"151";151;10
"152";152;10
"153";153;10
"154";154;10
"155";155;10
"156";156;10
"157";157;10
"158";158;10
"159";159;10
"160";160;10
"161";161;9
"162";162;10
"163";163;10
"164";164;10
"165";165;10
"166";166;10
"167";167;10
"168";168;10
"169";169;10
"170";170;10
"171";171;10
"172";172;10
"173";173;10
"174";174;10
"175";175;10
"176";176;4
"177";177;5
"178";178;10
"179";179;4
"180";180;5
"181";181;10
"182";182;5
"183";183;10
"184";184;10
"185";185;10
"186";186;9
"187";187;10
"188";188;9
"189";189;10
"190";190;10
"191";191;8
"192";192;9
"193";193;10
"194";194;4
"195";195;8
"196";196;10
"197";197;9
"198";198;10
"199";199;10
"200";200;8
"201";201;4
"202";202;8
"203";203;9
"204";204;10
"205";205;8
"206";206;0
"207";207;8
"208";208;10
"209";209;8
"210";210;10
"211";211;8
"212";212;4
"213";213;8
"214";214;8
"215";215;8
"216";216;8
"217";217;10
"218";218;5
"219";219;8
"220";220;9
"221";221;4
"222";222;10
"223";223;4
"224";224;9
"225";225;8
"226";226;5
"227";227;4
"228";228;8
"229";229;8
"230";230;9
"231";231;10
"232";232;9
"233";233;9
"234";234;8
"235";235;4
"236";236;5
"237";237;10
"238";238;4
"239";239;10
"240";240;10
"241";241;4
"242";242;6
"243";243;10
"244";244;10
"245";245;10
"246";246;4
"247";247;5
"248";248;8
"249";249;10
"250";250;10
"251";251;10
"252";252;10
"253";253;6
"254";254;10
"255";255;10
"256";256;10
"257";257;4
"258";258;4
"259";259;8
"260";260;5
"261";261;10
"262";262;10
"263";263;10
"264";264;10
"265";265;6
"266";266;8
"267";267;9
"268";268;8
"269";269;10
"270";270;10
"271";271;8
"272";272;4
"273";273;4
"274";274;10
"275";275;4
"276";276;10
"277";277;10
"278";278;10
"279";279;10
"280";280;10
"281";281;10
"282";282;10
"283";283;3
"284";284;10
"285";285;10
"286";286;10
"287";287;10
"288";288;5
"289";289;4
"290";290;10
"291";291;9
"292";292;10
"293";293;10
"294";294;9
"295";295;0
"296";296;0
"297";297;0
"298";298;0
"299";299;5
"300";300;5
"301";301;10
"302";302;10
"303";303;5
"304";304;10
"305";305;10
"306";306;10
"307";307;10
"308";308;8
"309";309;10
"310";310;10
"311";311;10
"312";312;8
"313";313;8
"314";314;10
"315";315;8
"316";316;10
"317";317;5
"318";318;4
"319";319;4
"320";320;4
"321";321;8
"322";322;5
"323";323;5
"324";324;5
"325";325;5
"326";326;5
"327";327;4
"328";328;5
"329";329;5
"330";330;4
"331";331;5
"332";332;5
"333";333;4
"334";334;10
"335";335;10
"336";336;5
"337";337;4
"338";338;5
"339";339;5
"340";340;5
"341";341;4
"342";342;10
"343";343;5
"344";344;5
"345";345;10
"346";346;5
"347";347;10
"348";348;10
"349";349;4
"350";350;9
"351";351;10
"352";352;10
"353";353;10
"354";354;4
"355";355;5
"356";356;8
"357";357;10
"358";358;10
"359";359;10
"360";360;4
"361";361;10
"362";362;5
"363";363;4
"364";364;8
"365";365;10
"366";366;5
"367";367;8
"368";368;4
"369";369;5
"370";370;10
"371";371;10
"372";372;5
"373";373;10
"374";374;4
"375";375;5
"376";376;10
"377";377;5
"378";378;9
"379";379;8
"380";380;5
"381";381;9
"382";382;10
"383";383;10
"384";384;10
"385";385;0
"386";386;8
"387";387;8
"388";388;8
"389";389;8
"390";390;8
"391";391;10
"392";392;8
"393";393;10
"394";394;10
"395";395;4
"396";396;10
"397";397;4
"398";398;4
"399";399;4
"400";400;10
"401";401;6
"402";402;8
"403";403;8
"404";404;10
"405";405;8
"406";406;8
"407";407;3
"408";408;8
"409";409;1
"410";410;8
"411";411;1
"412";412;1
"413";413;1
"414";414;1
"415";415;1
"416";416;1
"417";417;1
"418";418;1
"419";419;1
"420";420;1
"421";421;1
"422";422;1
"423";423;4
"424";424;5
"425";425;4
"426";426;8
"427";427;1
"428";428;8
"429";429;8
"430";430;8
"431";431;10
"432";432;9
"433";433;8
"434";434;8
"435";435;8
"436";436;8
"437";437;8
"438";438;8
"439";439;8
"440";440;8
"441";441;8
"442";442;8
"443";443;4
"444";444;4
"445";445;9
"446";446;9
"447";447;9
"448";448;10
"449";449;10
"450";450;10
"451";451;10
"452";452;10
"453";453;10
"454";454;10
"455";455;10
"456";456;8
"457";457;10
"458";458;4
"459";459;10
"460";460;10
"461";461;4
"462";462;8
"463";463;4
"464";464;5
"465";465;9
"466";466;4
"467";467;8
"468";468;10
"469";469;10
"470";470;8
"471";471;8
"472";472;4
"473";473;10
"474";474;4
"475";475;4
"476";476;5
"477";477;10
"478";478;5
"479";479;8
"480";480;5
"481";481;10
"482";482;10
"483";483;10
"484";484;8
"485";485;4
"486";486;5
"487";487;4
"488";488;5
"489";489;4
"490";490;9
"491";491;4
"492";492;10
"493";493;4
"494";494;10
"495";495;8
"496";496;8
"497";497;10
"498";498;10
"499";499;10
"500";500;4
"501";501;9
"502";502;9
"503";503;8
"504";504;10
"505";505;10
"506";506;5
"507";507;8
"508";508;4
"509";509;4
"510";510;8
"511";511;10
"512";512;10
"513";513;0
"514";514;4
"515";515;10
"516";516;4
"517";517;8
"518";518;8
"519";519;8
"520";520;4
"521";521;4
"522";522;10
"523";523;8
"524";524;4
"525";525;4
"526";526;4
"527";527;8
"528";528;8
"529";529;0
"530";530;10
"531";531;5
"532";532;4
"533";533;10
"534";534;10
"535";535;10
"536";536;10
"537";537;4
"538";538;8
"539";539;5
"540";540;5
"541";541;10
"542";542;3
"543";543;4
"544";544;4
"545";545;10
"546";546;10
"547";547;8
"548";548;4
"549";549;10
"550";550;8
"551";551;10
"552";552;10
"553";553;4
"554";554;10
"555";555;4
"556";556;10
"557";557;4
"558";558;3
"559";559;3
"560";560;3
"561";561;5
"562";562;10
"563";563;4
"564";564;4
"565";565;4
"566";566;3
"567";567;3
"568";568;3
"569";569;3
"570";570;3
"571";571;3
"572";572;3
"573";573;4
"574";574;7
"575";575;7
"576";576;8
"577";577;4
"578";578;10
"579";579;10
"580";580;4
"581";581;4
"582";582;4
"583";583;10
"584";584;4
"585";585;4
"586";586;4
"587";587;10
"588";588;4
"589";589;4
"590";590;3
"591";591;5
"592";592;4
"593";593;4
"594";594;4
"595";595;10
"596";596;4
"597";597;4
"598";598;4
"599";599;4
"600";600;10
"601";601;6
"602";602;9
"603";603;10
"604";604;10
"605";605;4
"606";606;10
"607";607;10
"608";608;10
"609";609;10
"610";610;10
"611";611;8
"612";612;0
"613";613;10
"614";614;3
"615";615;4
"616";616;10
"617";617;10
"618";618;10
"619";619;10
"620";620;10
"621";621;4
"622";622;10
"623";623;10
"624";624;4
"625";625;4
"626";626;4
"627";627;4
"628";628;4
"629";629;10
"630";630;10
"631";631;10
"632";632;10
"633";633;10
"634";634;4
"635";635;10
"636";636;4
"637";637;10
"638";638;9
"639";639;10
"640";640;10
"641";641;4
"642";642;10
"643";643;10
"644";644;10
"645";645;5
"646";646;5
"647";647;10
"648";648;4
"649";649;4
"650";650;10
"651";651;3
"652";652;8
"653";653;4
"654";654;10
"655";655;10
"656";656;10
"657";657;10
"658";658;10
"659";659;10
"660";660;10
"661";661;0
"662";662;6
"663";663;0
"664";664;10
"665";665;10
"666";666;8
"667";667;8
"668";668;4
"669";669;4
"670";670;8
"671";671;5
"672";672;3
"673";673;3
"674";674;3
"675";675;3
"676";676;3
"677";677;3
"678";678;3
"679";679;3
"680";680;3
"681";681;3
"682";682;3
"683";683;3
"684";684;10
"685";685;4
"686";686;4
"687";687;4
"688";688;4
"689";689;10
"690";690;10
"691";691;10
"692";692;10
"693";693;8
"694";694;10
"695";695;10
"696";696;10
"697";697;10
"698";698;10
"699";699;4
"700";700;4
"701";701;10
"702";702;5
"703";703;4
"704";704;10
"705";705;10
"706";706;8
"707";707;8
"708";708;8
"709";709;4
"710";710;8
"711";711;5
"712";712;8
"713";713;4
"714";714;4
"715";715;4
"716";716;10
"717";717;4
"718";718;4
"719";719;4
"720";720;10
"721";721;4
"722";722;10
"723";723;4
"724";724;5
"725";725;4
"726";726;4
"727";727;4
"728";728;4
"729";729;4
"730";730;4
"731";731;10
"732";732;10
"733";733;3
"734";734;10
"735";735;4
"736";736;4
"737";737;10
"738";738;4
"739";739;5
"740";740;10
"741";741;4
"742";742;10
"743";743;3
"744";744;4
"745";745;3
"746";746;4
"747";747;4
"748";748;3
"749";749;4
"750";750;3
"751";751;3
"752";752;3
"753";753;5
"754";754;4
"755";755;4
"756";756;4
"757";757;4
"758";758;4
"759";759;5
"760";760;3
"761";761;3
"762";762;3
"763";763;8
"764";764;4
"765";765;3
"766";766;5
"767";767;5
"768";768;10
"769";769;3
"770";770;3
"771";771;3
"772";772;4
"773";773;5
"774";774;3
"775";775;4
"776";776;10
"777";777;10
"778";778;3
"779";779;10
"780";780;5
"781";781;3
"782";782;3
"783";783;8
"784";784;10
"785";785;10
"786";786;3
"787";787;4
"788";788;4
"789";789;5
"790";790;10
"791";791;10
"792";792;0
"793";793;10
"794";794;0
"795";795;0
"796";796;4
"797";797;4
"798";798;10
"799";799;10
"800";800;10
"801";801;10
"802";802;9
"803";803;10
"804";804;10
"805";805;8
"806";806;9
"807";807;10
"808";808;10
"809";809;10
"810";810;8
"811";811;10
"812";812;4
"813";813;10
"814";814;0
"815";815;0
"816";816;10
"817";817;0
"818";818;8
"819";819;10
"820";820;5
"821";821;5
"822";822;10
"823";823;10
"824";824;10
"825";825;4
"826";826;10
"827";827;9
"828";828;8
"829";829;10
"830";830;10
"831";831;10
"832";832;10
"833";833;10
"834";834;6
"835";835;6
"836";836;6
"837";837;10
"838";838;10
"839";839;10
"840";840;4
"841";841;4
"842";842;10
"843";843;10
"844";844;9
"845";845;4
"846";846;4
"847";847;4
"848";848;4
"849";849;9
"850";850;4
"851";851;4
"852";852;10
"853";853;10
"854";854;4
"855";855;4
"856";856;4
"857";857;4
"858";858;8
"859";859;8
"860";860;8
"861";861;4
"862";862;4
"863";863;10
"864";864;8
"865";865;1
"866";866;9
"867";867;8
"868";868;8
"869";869;8
"870";870;8
"871";871;5
"872";872;8
"873";873;5
"874";874;4
"875";875;4
"876";876;10
"877";877;10
"878";878;8
"879";879;5
"880";880;10
"881";881;8
"882";882;4
"883";883;4
"884";884;5
"885";885;4
"886";886;9
"887";887;8
"888";888;9
"889";889;8
"890";890;4
"891";891;8
"892";892;4
"893";893;4
"894";894;4
"895";895;4
"896";896;4
"897";897;4
"898";898;4
"899";899;8
"900";900;4
"901";901;8
"902";902;10
"903";903;8
"904";904;4
"905";905;8
"906";906;10
"907";907;9
"908";908;4
"909";909;4
"910";910;4
"911";911;5
"912";912;4
"913";913;4
"914";914;10
"915";915;10
"916";916;4
"917";917;5
"918";918;8
"919";919;4
"920";920;4
"921";921;10
"922";922;10
"923";923;10
"924";924;10
"925";925;10
"926";926;8
"927";927;10
"928";928;4
"929";929;10
"930";930;8
"931";931;4
"932";932;8
"933";933;4
"934";934;4
"935";935;4
"936";936;9
"937";937;9
"938";938;10
"939";939;4
"940";940;9
"941";941;8
"942";942;10
"943";943;4
"944";944;4
"945";945;4
"946";946;6
"947";947;10
"948";948;5
"949";949;10
"950";950;4
"951";951;10
"952";952;4
"953";953;4
"954";954;5
"955";955;4
"956";956;4
"957";957;2
"958";958;8
"959";959;10
"960";960;10
"961";961;10
"962";962;9
"963";963;9
"964";964;8
"965";965;10
"966";966;5
"967";967;10
"968";968;5
"969";969;4
"970";970;4
"971";971;8
"972";972;10
"973";973;4
"974";974;10
"975";975;4
"976";976;8
"977";977;8
"978";978;10
"979";979;10
"980";980;8
"981";981;10
"982";982;10
"983";983;8
"984";984;4
"985";985;3
"986";986;10
"987";987;8
"988";988;4
"989";989;8
"990";990;4
"991";991;4
"992";992;4
"993";993;10
"994";994;5
"995";995;4
"996";996;4
"997";997;4
"998";998;4
"999";999;8
"1000";1000;8
"1001";1001;8
"1002";1002;5
"1003";1003;8
"1004";1004;10
"1005";1005;4
"1006";1006;8
"1007";1007;5
"1008";1008;8
"1009";1009;4
"1010";1010;4
"1011";1011;4
"1012";1012;4
"1013";1013;4
"1014";1014;4
"1015";1015;8
"1016";1016;5
"1017";1017;8
"1018";1018;8
"1019";1019;4
"1020";1020;4
"1021";1021;4
"1022";1022;8
"1023";1023;8
"1024";1024;5
"1025";1025;4
"1026";1026;4
"1027";1027;10
"1028";1028;4
"1029";1029;10
"1030";1030;4
"1031";1031;4
"1032";1032;10
"1033";1033;10
"1034";1034;8
"1035";1035;8
"1036";1036;8
"1037";1037;8
"1038";1038;8
"1039";1039;8
"1040";1040;4
"1041";1041;10
"1042";1042;10
"1043";1043;8
"1044";1044;4
"1045";1045;4
"1046";1046;4
"1047";1047;4
"1048";1048;4
"1049";1049;4
"1050";1050;4
"1051";1051;10
"1052";1052;8
"1053";1053;8
"1054";1054;4
"1055";1055;4
"1056";1056;4
"1057";1057;4
"1058";1058;3
"1059";1059;5
"1060";1060;4
"1061";1061;4
"1062";1062;5
"1063";1063;10
"1064";1064;5
"1065";1065;4
"1066";1066;8
"1067";1067;4
"1068";1068;4
"1069";1069;10
"1070";1070;10
"1071";1071;10
"1072";1072;4
"1073";1073;4
"1074";1074;4
"1075";1075;10
"1076";1076;4
"1077";1077;4
"1078";1078;9
"1079";1079;4
"1080";1080;4
"1081";1081;10
"1082";1082;8
"1083";1083;4
"1084";1084;5
"1085";1085;10
"1086";1086;4
"1087";1087;8
"1088";1088;9
"1089";1089;3
"1090";1090;4
"1091";1091;10
"1092";1092;4
"1093";1093;4
"1094";1094;4
"1095";1095;4
"1096";1096;9
"1097";1097;3
"1098";1098;4
"1099";1099;4
"1100";1100;4
"1101";1101;8
"1102";1102;4
"1103";1103;10
"1104";1104;4
"1105";1105;4
"1106";1106;4
"1107";1107;4
"1108";1108;4
"1109";1109;4
"1110";1110;5
"1111";1111;8
"1112";1112;4
"1113";1113;10
"1114";1114;10
"1115";1115;4
"1116";1116;4
"1117";1117;4
"1118";1118;10
"1119";1119;4
"1120";1120;4
"1121";1121;8
"1122";1122;1
"1123";1123;8
"1124";1124;9
"1125";1125;8
"1126";1126;8
"1127";1127;9
"1128";1128;8
"1129";1129;8
"1130";1130;4
"1131";1131;6
"1132";1132;4
"1133";1133;10
"1134";1134;10
"1135";1135;8
"1136";1136;4
"1137";1137;4
"1138";1138;4
"1139";1139;10
"1140";1140;10
"1141";1141;10
"1142";1142;4
"1143";1143;4
"1144";1144;10
"1145";1145;8
"1146";1146;4
"1147";1147;10
"1148";1148;10
"1149";1149;4
"1150";1150;10
"1151";1151;8
"1152";1152;0
"1153";1153;4
"1154";1154;7
"1155";1155;10
"1156";1156;8
"1157";1157;4
"1158";1158;4
"1159";1159;10
"1160";1160;10
"1161";1161;10
"1162";1162;10
"1163";1163;10
"1164";1164;10
"1165";1165;10
"1166";1166;10
"1167";1167;10
"1168";1168;10
"1169";1169;9
"1170";1170;4
"1171";1171;10
"1172";1172;4
"1173";1173;4
"1174";1174;10
"1175";1175;8
"1176";1176;9
"1177";1177;8
"1178";1178;10
"1179";1179;10
"1180";1180;10
"1181";1181;10
"1182";1182;8
"1183";1183;10
"1184";1184;9
"1185";1185;10
"1186";1186;9
"1187";1187;5
"1188";1188;4
"1189";1189;10
"1190";1190;8
"1191";1191;10
"1192";1192;10
"1193";1193;10
"1194";1194;8
"1195";1195;9
"1196";1196;10
"1197";1197;9
"1198";1198;10
"1199";1199;8
"1200";1200;10
"1201";1201;10
"1202";1202;10
"1203";1203;8
"1204";1204;10
"1205";1205;10
"1206";1206;10
"1207";1207;10
"1208";1208;4
"1209";1209;8
"1210";1210;10
"1211";1211;9
"1212";1212;5
"1213";1213;10
"1214";1214;4
"1215";1215;4
"1216";1216;10
"1217";1217;4
"1218";1218;10
"1219";1219;10
"1220";1220;10
"1221";1221;10
"1222";1222;10
"1223";1223;4
"1224";1224;4
"1225";1225;8
"1226";1226;4
"1227";1227;10
"1228";1228;10
"1229";1229;5
"1230";1230;10
"1231";1231;10
"1232";1232;10
"1233";1233;8
"1234";1234;7
"1235";1235;4
"1236";1236;4
"1237";1237;0
"1238";1238;8
"1239";1239;4
"1240";1240;0
"1241";1241;4
"1242";1242;5
"1243";1243;5
"1244";1244;10
"1245";1245;5
"1246";1246;10
"1247";1247;5
"1248";1248;10
"1249";1249;4
"1250";1250;8
"1251";1251;8
"1252";1252;9
"1253";1253;10
"1254";1254;5
"1255";1255;5
"1256";1256;10
"1257";1257;5
"1258";1258;4
"1259";1259;5
"1260";1260;5
"1261";1261;5
"1262";1262;10
"1263";1263;10
"1264";1264;4
"1265";1265;4
"1266";1266;4
"1267";1267;10
"1268";1268;8
"1269";1269;7
"1270";1270;8
"1271";1271;8
"1272";1272;8
"1273";1273;8
"1274";1274;8
"1275";1275;8
"1276";1276;8
"1277";1277;9
"1278";1278;8
"1279";1279;8
"1280";1280;8
"1281";1281;9
"1282";1282;6
"1283";1283;8
"1284";1284;8
"1285";1285;8
"1286";1286;8
"1287";1287;8
"1288";1288;8
"1289";1289;8
"1290";1290;8
"1291";1291;8
"1292";1292;9
"1293";1293;9
"1294";1294;3
"1295";1295;8
"1296";1296;10
"1297";1297;10
"1298";1298;5
"1299";1299;8
"1300";1300;9
"1301";1301;8
"1302";1302;8
"1303";1303;8
"1304";1304;4
"1305";1305;8
"1306";1306;7
"1307";1307;8
"1308";1308;8
"1309";1309;10
"1310";1310;10
"1311";1311;10
"1312";1312;8
"1313";1313;8
"1314";1314;10
"1315";1315;8
"1316";1316;8
"1317";1317;8
"1318";1318;8
"1319";1319;8
"1320";1320;9
"1321";1321;8
"1322";1322;10
"1323";1323;8
"1324";1324;8
"1325";1325;8
"1326";1326;9
"1327";1327;8
"1328";1328;8
"1329";1329;4
"1330";1330;4
"1331";1331;8
"1332";1332;6
"1333";1333;8
"1334";1334;8
"1335";1335;8
"1336";1336;8
"1337";1337;4
"1338";1338;8
"1339";1339;8
"1340";1340;8
"1341";1341;8
"1342";1342;8
"1343";1343;8
"1344";1344;8
"1345";1345;8
"1346";1346;10
"1347";1347;6
"1348";1348;6
"1349";1349;10
"1350";1350;5
"1351";1351;8
"1352";1352;5
"1353";1353;10
"1354";1354;4
"1355";1355;10
"1356";1356;8
"1357";1357;5
"1358";1358;4
"1359";1359;8
"1360";1360;5
"1361";1361;3
"1362";1362;10
"1363";1363;5
"1364";1364;10
"1365";1365;4
"1366";1366;5
"1367";1367;8
"1368";1368;5
"1369";1369;8
"1370";1370;8
"1371";1371;10
"1372";1372;5
"1373";1373;8
"1374";1374;10
"1375";1375;10
"1376";1376;10
"1377";1377;10
"1378";1378;10
"1379";1379;4
"1380";1380;5
"1381";1381;3
"1382";1382;5
"1383";1383;10
"1384";1384;10
"1385";1385;10
"1386";1386;5
"1387";1387;5
"1388";1388;3
"1389";1389;8
"1390";1390;5
"1391";1391;3
"1392";1392;3
"1393";1393;3
"1394";1394;3
"1395";1395;8
"1396";1396;4
"1397";1397;3
"1398";1398;4
"1399";1399;5
"1400";1400;3
"1401";1401;9
"1402";1402;3
"1403";1403;2
"1404";1404;9
"1405";1405;6
"1406";1406;8
"1407";1407;5
"1408";1408;5
"1409";1409;5
"1410";1410;4
"1411";1411;5
"1412";1412;8
"1413";1413;5
"1414";1414;10
"1415";1415;5
"1416";1416;10
"1417";1417;8
"1418";1418;8
"1419";1419;8
"1420";1420;8
"1421";1421;8
"1422";1422;4
"1423";1423;8
"1424";1424;4
"1425";1425;8
"1426";1426;9
"1427";1427;8
"1428";1428;8
"1429";1429;8
"1430";1430;8
"1431";1431;8
"1432";1432;4
"1433";1433;8
"1434";1434;8
"1435";1435;5
"1436";1436;4
"1437";1437;9
"1438";1438;4
"1439";1439;4
"1440";1440;4
"1441";1441;5
"1442";1442;4
"1443";1443;4
"1444";1444;10
"1445";1445;8
"1446";1446;4
"1447";1447;10
"1448";1448;10
"1449";1449;4
"1450";1450;4
"1451";1451;4
"1452";1452;8
"1453";1453;8
"1454";1454;4
"1455";1455;4
"1456";1456;4
"1457";1457;8
"1458";1458;8
"1459";1459;5
"1460";1460;3
"1461";1461;8
"1462";1462;10
"1463";1463;10
"1464";1464;10
"1465";1465;8
"1466";1466;8
"1467";1467;9
"1468";1468;4
"1469";1469;4
"1470";1470;4
"1471";1471;8
"1472";1472;4
"1473";1473;10
"1474";1474;4
"1475";1475;8
"1476";1476;8
"1477";1477;8
"1478";1478;8
"1479";1479;4
"1480";1480;8
"1481";1481;4
"1482";1482;5
"1483";1483;10
"1484";1484;4
"1485";1485;9
"1486";1486;10
"1487";1487;4
"1488";1488;5
"1489";1489;8
"1490";1490;4
"1491";1491;10
"1492";1492;4
"1493";1493;10
"1494";1494;8
"1495";1495;10
"1496";1496;10
"1497";1497;10
"1498";1498;8
"1499";1499;10
"1500";1500;8
"1501";1501;8
"1502";1502;8
"1503";1503;4
"1504";1504;10
"1505";1505;6
"1506";1506;9
"1507";1507;8
"1508";1508;4
"1509";1509;8
"1510";1510;9
"1511";1511;4
"1512";1512;8
"1513";1513;8
"1514";1514;8
"1515";1515;8
"1516";1516;8
"1517";1517;4
"1518";1518;4
"1519";1519;4
"1520";1520;8
"1521";1521;5
"1522";1522;4
"1523";1523;5
"1524";1524;10
"1525";1525;4
"1526";1526;8
"1527";1527;8
"1528";1528;1
"1529";1529;8
"1530";1530;8
"1531";1531;8
"1532";1532;8
"1533";1533;8
"1534";1534;8
"1535";1535;8
"1536";1536;8
"1537";1537;8
"1538";1538;8
"1539";1539;8
"1540";1540;8
"1541";1541;8
"1542";1542;8
"1543";1543;8
"1544";1544;8
"1545";1545;8
"1546";1546;6
"1547";1547;0
"1548";1548;3
"1549";1549;8
"1550";1550;6
"1551";1551;5
"1552";1552;10
"1553";1553;8
"1554";1554;4
"1555";1555;8
"1556";1556;8
"1557";1557;9
"1558";1558;8
"1559";1559;4
"1560";1560;4
"1561";1561;8
"1562";1562;8
"1563";1563;4
"1564";1564;8
"1565";1565;9
"1566";1566;8
"1567";1567;10
"1568";1568;6
"1569";1569;3
"1570";1570;10
"1571";1571;9
"1572";1572;7
"1573";1573;10
"1574";1574;5
"1575";1575;10
"1576";1576;9
"1577";1577;5
"1578";1578;3
"1579";1579;10
"1580";1580;4
"1581";1581;5
"1582";1582;5
"1583";1583;10
"1584";1584;6
"1585";1585;9
"1586";1586;9
"1587";1587;5
"1588";1588;10
"1589";1589;10
"1590";1590;5
"1591";1591;5
"1592";1592;8
"1593";1593;10
"1594";1594;8
"1595";1595;8
"1596";1596;8
"1597";1597;8
"1598";1598;8
"1599";1599;8
"1600";1600;3
"1601";1601;3
"1602";1602;2
"1603";1603;5
"1604";1604;5
"1605";1605;4
"1606";1606;8
"1607";1607;5
"1608";1608;4
"1609";1609;8
"1610";1610;8
"1611";1611;4
"1612";1612;10
"1613";1613;4
"1614";1614;8
"1615";1615;4
"1616";1616;8
"1617";1617;8
"1618";1618;9
"1619";1619;8
"1620";1620;5
"1621";1621;0
"1622";1622;1
"1623";1623;4
"1624";1624;5
"1625";1625;8
"1626";1626;8
"1627";1627;8
"1628";1628;8
"1629";1629;4
"1630";1630;4
"1631";1631;8
"1632";1632;4
"1633";1633;4
"1634";1634;10
"1635";1635;9
"1636";1636;4
"1637";1637;4
"1638";1638;5
"1639";1639;4
"1640";1640;4
"1641";1641;10
"1642";1642;8
"1643";1643;4
"1644";1644;4
"1645";1645;8
"1646";1646;8
"1647";1647;8
"1648";1648;4
"1649";1649;8
"1650";1650;10
"1651";1651;10
"1652";1652;4
"1653";1653;4
"1654";1654;8
"1655";1655;8
"1656";1656;4
"1657";1657;8
"1658";1658;4
"1659";1659;4
"1660";1660;4
"1661";1661;4
"1662";1662;4
"1663";1663;10
"1664";1664;8
"1665";1665;4
"1666";1666;8
"1667";1667;4
"1668";1668;8
"1669";1669;4
"1670";1670;9
"1671";1671;8
"1672";1672;5
"1673";1673;10
"1674";1674;4
"1675";1675;5
"1676";1676;10
"1677";1677;4
"1678";1678;4
"1679";1679;5
"1680";1680;10
"1681";1681;4
"1682";1682;9
"1683";1683;10
"1684";1684;6
"1685";1685;10
"1686";1686;5
"1687";1687;4
"1688";1688;10
"1689";1689;4
"1690";1690;10
"1691";1691;10
"1692";1692;2
"1693";1693;10
"1694";1694;8
"1695";1695;9
"1696";1696;10
"1697";1697;5
"1698";1698;4
"1699";1699;4
"1700";1700;4
"1701";1701;5
"1702";1702;8
"1703";1703;5
"1704";1704;5
"1705";1705;8
"1706";1706;8
"1707";1707;1
"1708";1708;4
"1709";1709;8
"1710";1710;8
"1711";1711;8
"1712";1712;8
"1713";1713;4
"1714";1714;10
"1715";1715;4
"1716";1716;8
"1717";1717;10
"1718";1718;8
"1719";1719;8
"1720";1720;8
"1721";1721;8
"1722";1722;8
"1723";1723;5
"1724";1724;10
"1725";1725;4
"1726";1726;10
"1727";1727;10
"1728";1728;10
"1729";1729;8
"1730";1730;8
"1731";1731;10
"1732";1732;4
"1733";1733;10
"1734";1734;8
"1735";1735;8
"1736";1736;5
"1737";1737;9
"1738";1738;5
"1739";1739;4
"1740";1740;10
"1741";1741;8
"1742";1742;8
"1743";1743;8
"1744";1744;8
"1745";1745;4
"1746";1746;10
"1747";1747;4
"1748";1748;10
"1749";1749;10
"1750";1750;8
"1751";1751;10
"1752";1752;4
"1753";1753;5
"1754";1754;8
"1755";1755;4
"1756";1756;8
"1757";1757;8
"1758";1758;8
"1759";1759;4
"1760";1760;5
"1761";1761;5
"1762";1762;10
"1763";1763;10
"1764";1764;4
"1765";1765;10
"1766";1766;5
"1767";1767;8
"1768";1768;8
"1769";1769;10
"1770";1770;8
"1771";1771;10
"1772";1772;9
"1773";1773;9
"1774";1774;5
"1775";1775;5
"1776";1776;5
"1777";1777;8
"1778";1778;9
"1779";1779;8
"1780";1780;10
"1781";1781;9
"1782";1782;8
"1783";1783;10
"1784";1784;3
"1785";1785;3
"1786";1786;3
"1787";1787;3
"1788";1788;3
"1789";1789;10
"1790";1790;10
"1791";1791;8
"1792";1792;5
"1793";1793;2
"1794";1794;4
"1795";1795;3
"1796";1796;4
"1797";1797;4
"1798";1798;5
"1799";1799;3
"1800";1800;5
"1801";1801;4
"1802";1802;2
"1803";1803;3
"1804";1804;8
"1805";1805;4
"1806";1806;4
"1807";1807;9
"1808";1808;5
"1809";1809;5
"1810";1810;8
"1811";1811;8
"1812";1812;8
"1813";1813;8
"1814";1814;4
"1815";1815;9
"1816";1816;5
"1817";1817;4
"1818";1818;8
"1819";1819;5
"1820";1820;5
"1821";1821;4
"1822";1822;4
"1823";1823;8
"1824";1824;3
"1825";1825;4
"1826";1826;4
"1827";1827;4
"1828";1828;10
"1829";1829;8
"1830";1830;4
"1831";1831;3
"1832";1832;5
"1833";1833;4
"1834";1834;5
"1835";1835;4
"1836";1836;4
"1837";1837;10
"1838";1838;4
"1839";1839;5
"1840";1840;5
"1841";1841;9
"1842";1842;5
"1843";1843;8
"1844";1844;5
"1845";1845;10
"1846";1846;10
"1847";1847;4
"1848";1848;5
"1849";1849;5
"1850";1850;8
"1851";1851;5
"1852";1852;3
"1853";1853;4
"1854";1854;10
"1855";1855;4
"1856";1856;5
"1857";1857;0
"1858";1858;8
"1859";1859;9
"1860";1860;8
"1861";1861;8
"1862";1862;9
"1863";1863;4
"1864";1864;8
"1865";1865;5
"1866";1866;9
"1867";1867;8
"1868";1868;5
"1869";1869;8
"1870";1870;8
"1871";1871;8
"1872";1872;8
"1873";1873;4
"1874";1874;5
"1875";1875;4
"1876";1876;5
"1877";1877;8
"1878";1878;9
"1879";1879;10
"1880";1880;4
"1881";1881;8
"1882";1882;8
"1883";1883;4
"1884";1884;10
"1885";1885;10
"1886";1886;10
"1887";1887;8
"1888";1888;8
"1889";1889;8
"1890";1890;5
"1891";1891;4
"1892";1892;4
"1893";1893;8
"1894";1894;9
"1895";1895;4
"1896";1896;8
"1897";1897;5
"1898";1898;4
"1899";1899;4
"1900";1900;5
"1901";1901;4
"1902";1902;4
"1903";1903;5
"1904";1904;10
"1905";1905;8
"1906";1906;4
"1907";1907;5
"1908";1908;8
"1909";1909;4
"1910";1910;4
"1911";1911;8
"1912";1912;5
"1913";1913;10
"1914";1914;2
"1915";1915;8
"1916";1916;4
"1917";1917;4
"1918";1918;10
"1919";1919;8
"1920";1920;4
"1921";1921;4
"1922";1922;8
"1923";1923;4
"1924";1924;4
"1925";1925;5
"1926";1926;4
"1927";1927;8
"1928";1928;5
"1929";1929;5
"1930";1930;8
"1931";1931;5
"1932";1932;5
"1933";1933;4
"1934";1934;5
"1935";1935;10
"1936";1936;8
"1937";1937;4
"1938";1938;4
"1939";1939;8
"1940";1940;9
"1941";1941;4
"1942";1942;5
"1943";1943;4
"1944";1944;7
"1945";1945;8
"1946";1946;8
"1947";1947;1
"1948";1948;4
"1949";1949;8
"1950";1950;8
"1951";1951;8
"1952";1952;5
"1953";1953;8
"1954";1954;8
"1955";1955;8
"1956";1956;3
"1957";1957;4
"1958";1958;2
"1959";1959;5
"1960";1960;4
"1961";1961;4
"1962";1962;5
"1963";1963;5
"1964";1964;10
"1965";1965;3
"1966";1966;4
"1967";1967;5
"1968";1968;8
"1969";1969;5
"1970";1970;8
"1971";1971;3
"1972";1972;2
"1973";1973;5
"1974";1974;5
"1975";1975;4
"1976";1976;5
"1977";1977;9
"1978";1978;10
"1979";1979;8
"1980";1980;10
"1981";1981;5
"1982";1982;4
"1983";1983;5
"1984";1984;5
"1985";1985;9
"1986";1986;10
"1987";1987;9
"1988";1988;9
"1989";1989;5
"1990";1990;4
"1991";1991;4
"1992";1992;4
"1993";1993;10
"1994";1994;4
"1995";1995;5
"1996";1996;8
"1997";1997;8
"1998";1998;3
"1999";1999;8
"2000";2000;8
"2001";2001;8
"2002";2002;8
"2003";2003;8
"2004";2004;8
"2005";2005;8
"2006";2006;8
"2007";2007;5
"2008";2008;8
"2009";2009;4
"2010";2010;4
"2011";2011;3
"2012";2012;4
"2013";2013;4
"2014";2014;3
"2015";2015;5
"2016";2016;8
"2017";2017;4
"2018";2018;8
"2019";2019;8
"2020";2020;0
"2021";2021;8
