"";"Valeurs propres";"Pourcentages";"Pourcentage cumules"
"facteur 1";0,00495334770037743;37,2211358682893;37,2211358682893
"facteur 2";0,00387895146216583;29,1477578666187;66,368893734908
"facteur 3";0,00177543209563022;13,3411993774107;79,7100931123187
"facteur 4";0,00106617073098527;8,01156874849959;87,7216618608183
"facteur 5";0,000477610682594813;3,58892877793605;91,3105906387544
"facteur 6";0,000457058582100093;3,4344933190979;94,7450839578523
"facteur 7";0,000341659457560302;2,56734512894563;97,3124290867979
"facteur 8";0,000208159506977718;1,56418118818984;98,8766102749878
"facteur 9";0,000101524411144555;0,76288888439461;99,6394991593824
"facteur 10";4,50270086071511e-05;0,338348225581196;99,9778473849636
"facteur 11";2,94804557110569e-06;0,0221526150364273;100
