"";"Coord. facteur 1";"Coord. facteur 2";"Coord. facteur 3";"Coord. facteur 4";"Coord. facteur 5";"Coord. facteur 6";"Corr. facteur 1";"Corr. facteur 2";"Corr. facteur 3";"Corr. facteur 4";"Corr. facteur 5";"Corr. facteur 6";"COR -facteur 1";"COR -facteur 2";"COR -facteur 3";"COR -facteur 4";"COR -facteur 5";"COR -facteur 6";"CTR -facteur 1";"CTR -facteur 2";"CTR -facteur 3";"CTR -facteur 4";"CTR -facteur 5";"CTR -facteur 6";"mass";"chi.distance";"inertie"
"classe 1";1,23469988300994;-1,5275375946369;-2,06986214572247;1,41108677378178;1,03862568817796;-0,406382395391879;0,366052136561369;-0,452869889994272;-0,613653140536589;0,418345652675623;0,307921914852893;-0,120480406729679;0,277635703711699;0,332775885182948;0,279666596890749;0,0780526918133687;0,0189428725970193;0,00277520664529252;0,0968009034021346;0,148163221270024;0,27204418087869;0,126434046837338;0,0684974991883816;0,0104863987577869;0,0634974955666864;0,164919935600824;0,00172704204052707
"classe 2";0,210670606305121;-0,304420055322019;0,669565181988356;-1,09167549091835;-0,612827700417483;-0,0780633368794024;0,143383747584591;-0,207190215747334;0,455710299265016;-0,743001246255566;-0,41709441032434;-0,0531304009944127;0,0756615793627748;0,123717052390543;0,273941915525405;0,437303118104665;0,0617333016976029;0,000958594182661982;0,00987250867003442;0,0206141843041461;0,099725301324001;0,265098184641242;0,0835403727515387;0,00135554474187044;0,222443455806863;0,0539033368917751;0,000646324971399299
"classe 3";-4,21596362543163;0,307635413394474;2,72164878274805;5,86338457939222;-1,71784733795782;1,88908500952949;-0,518261511271723;0,037817118085358;0,334567832319342;0,720776274005928;-0,211172162903322;0,232222129729423;0,601153657709533;0,00250657076395067;0,0897968695942001;0,250274432924593;0,00962356831456314;0,0111369902819427;0,179164644565594;0,000953962399716956;0,0746659788852754;0,346541589371772;0,0297459425192211;0,0359717532316899;0,0100799552001991;0,382695640917043;0,00147626945085766
"classe 4";-1,43332560824255;-0,488969085298252;-1,84676248432869;-0,198551355396144;-1,41936911507134;0,250209351382883;-0,512533881778396;-0,174847377257726;-0,6603721718028;-0,070998729338496;-0,507543267238394;0,0894707869475411;0,527194770979653;0,0480462734444942;0,313695806525152;0,00217748427500452;0,0498479489074046;0,00148238667151373;0,0989405381958594;0,0115145601329132;0,164250475394798;0,00189858593938002;0,0970231230469741;0,00301502989192353;0,0481597859565069;0,138934057851248;0,000929612572666203
"classe 5";-0,268518673719005;-0,127674866296069;1,18334144309125;1,2262805375891;-0,235097195780124;-2,44238485801138;-0,0894417574986709;-0,0425276360551306;0,394163046186698;0,40846576869049;-0,0783092888191007;-0,813541908140366;0,0464844147272343;0,00822971384650219;0,323581573109304;0,208672871876451;0,00343580490897911;0,354862110937511;0,00538585601232268;0,00121763346397067;0,104598607075271;0,11232732664793;0,0041285794793358;0,445588474969308;0,0746974457891298;0,0876536927184361;0,000573913163148257
"classe 6";0,292091583019548;-1,73874024654423;-0,208777182010263;-0,707572378403817;-0,725655011864068;-0,0623463012372822;0,142811258121012;-0,850115842393178;-0,102076655963927;-0,345950747799409;-0,354791822944072;-0,0304827466332434;0,0281596878504963;0,781402319536279;0,00515657176749876;0,0355679991485739;0,0167581227572169;0,000118381596427864;0,00371072566448277;0,131489228374572;0,00189577514842887;0,0217752176713651;0,0229024087467981;0,000169060500469837;0,0434931400304888;0,122505202189113;0,000652724367346753
"classe 7";1,06920401716307;1,16113297039956;0,265934196386665;0,401267371326692;0,202596722782594;0,424717854314263;0,623085803236787;0,676658016536225;0,154974934347298;0,233841248594629;0,118064597328276;0,247507174642467;0,501226677508428;0,462905626314327;0,0111139039740939;0,0151952779942428;0,00173521408337735;0,00729771845982255;0,243698081141665;0,287405357867963;0,0150757636227854;0,0343240590036058;0,00874975268728984;0,0384531553544701;0,213172385900507;0,106290120638108;0,00240833416092296
"classe 8";-0,723197849833565;1,16611183451304;-1,21311703201836;-0,249997625623768;-0,324259567297257;-0,324806252715436;-0,37970455767932;0,612250131039928;-0,63692952925923;-0,131257632859665;-0,170247789871372;-0,17053481913307;0,239464001250713;0,487553096587686;0,241510843717884;0,00615921964539579;0,00464180399221078;0,00445705299813482;0,0744909705117076;0,193673314839538;0,209601690227475;0,0089014580181879;0,0149752809088092;0,0150258186247187;0,142426033662073;0,104012710984949;0,00154085656113604
"classe 9";-2,25407929138056;0,197813095934372;0,46887214658454;-1,18109816462183;3,42417842717411;-0,523387189644489;-0,520782764945408;0,0457027627364511;0,108328280126575;-0,272881069532818;0,791122617464782;-0,12092344257913;0,761000387990265;0,00458957119349407;0,0118021361576331;0,0449724379055648;0,169330227273927;0,0037858702971324;0,224618771584837;0,00172988705882412;0,00971888711901847;0,0616708108958783;0,518346825669601;0,0121102705893508;0,0442086924058115;0,181855381442888;0,00146204245523405
"classe 10";-1,09885620393719;-0,0279781929264968;-0,144615890877522;0,390589314119421;0,763168133683583;3,2714268267295;-0,308755181786262;-0,00786127612704948;-0,0406339842438782;0,109747275624069;0,214433985998068;0,919201239405349;0,381997763328821;0,000193925063859201;0,00237146313594386;0,0103883780924018;0,017766208912966;0,312411179249123;0,0292639386942551;1,89710063988347e-05;0,000506854240166108;0,00369736022104452;0,0141153452574556;0,259373421366419;0,024235447842454;0,125129543921837;0,000379464167988854
"classe 11";0,46861641036045;-1,26479117550504;0,804260278527669;0,0680585567513495;1,2442508684609;1,22019973859944;0,199676947684541;-0,538926157513206;0,342694438371885;0,028999677722493;0,530173954806682;0,519925794279383;0,0806066295300529;0,459821168407626;0,0851009225638383;0,000365956266316432;0,0547932295475488;0,0504278770115833;0,0116690753452063;0,0850039508982147;0,0343712002400064;0,000246131347018229;0,0822654283054168;0,0791158162819109;0,0531375416109262;0,116166664374704;0,00071707485927269
"classe 12";-0,765069062297233;-1,28995692691982;0,592192641607896;0,556879988075009;-1,10320329822006;1,41987913226032;-0,308675282865994;-0,520446896789078;0,238926444902383;0,224679177753345;-0,445099151067851;0,572865397889666;0,231188097530943;0,514671522926419;0,0496472795371133;0,0263642459667217;0,0463500824555188;0,0734750680427129;0,0223621336796068;0,0635714879265395;0,0133979382516608;0,011847730900458;0,0464967996492564;0,0770219857910087;0,0382042746476682;0,111986923017998;0,000479122518072487
"classe 13";-0,0313430365128717;-1,56733697851385;-0,081388249038705;0,485235022630932;0,643549972036663;-1,00154805656181;-0,0154474939249853;-0,772465949304385;-0,0401124020665409;0,239149294332192;0,31717521304543;-0,493615464250428;0,000343510970383454;0,672664897819322;0,00083020842617703;0,0177211007242663;0,0139636271252041;0,0323649628486937;2,185253229508e-05;0,0546442404571789;0,000147347592425541;0,00523749850478061;0,00921264178992312;0,0223132698990745;0,0222443455806863;0,119020061452044;0,000315108395142165
