"";"V1"
"1";5
"2";5
"3";5
"4";5
"5";5
"6";5
"7";5
"8";5
"9";5
"10";8
"11";8
"12";9
"13";8
"14";2
"15";9
"16";5
"17";5
"18";5
"19";5
"20";5
"21";5
"22";7
"23";9
"24";5
"25";9
"26";5
"27";9
"28";9
"29";3
"30";9
"31";3
"32";9
"33";9
"34";3
"35";9
"36";9
"37";3
"38";9
"39";5
"40";9
"41";9
"42";9
"43";9
"44";9
"45";9
"46";5
"47";9
"48";5
"49";9
"50";9
"51";5
"52";5
"53";5
"54";5
"55";5
"56";5
"57";5
"58";5
"59";5
"60";9
"61";5
"62";9
"63";9
"64";9
"65";9
"66";9
"67";3
"68";9
"69";5
"70";5
"71";9
"72";5
"73";5
"74";5
"75";5
"76";5
"77";5
"78";9
"79";9
"80";5
"81";5
"82";5
"83";8
"84";8
"85";9
"86";5
"87";9
"88";7
"89";7
"90";5
"91";9
"92";9
"93";9
"94";9
"95";9
"96";5
"97";9
"98";5
"99";5
"100";5
"101";5
"102";5
"103";5
"104";5
"105";5
"106";9
"107";5
"108";5
"109";8
"110";5
"111";5
"112";5
"113";5
"114";5
"115";5
"116";5
"117";5
"118";5
"119";5
"120";9
"121";5
"122";5
"123";5
"124";5
"125";5
"126";5
"127";5
"128";5
"129";5
"130";5
"131";5
"132";5
"133";5
"134";5
"135";5
"136";5
"137";5
"138";5
"139";5
"140";5
"141";5
"142";5
"143";5
"144";5
"145";5
"146";5
"147";5
"148";9
"149";5
"150";5
"151";9
"152";9
"153";5
"154";5
"155";5
"156";5
"157";5
"158";5
"159";5
"160";5
"161";5
"162";5
"163";9
"164";5
"165";5
"166";5
"167";5
"168";5
"169";5
"170";5
"171";5
"172";9
"173";5
"174";9
"175";5
"176";5
"177";5
"178";5
"179";9
"180";5
"181";5
"182";9
"183";5
"184";5
"185";5
"186";9
"187";9
"188";9
"189";5
"190";5
"191";5
"192";5
"193";5
"194";9
"195";5
"196";5
"197";9
"198";9
"199";5
"200";5
"201";9
"202";9
"203";9
"204";3
"205";3
"206";5
"207";5
"208";5
"209";5
"210";5
"211";5
"212";9
"213";9
"214";9
"215";5
"216";5
"217";5
"218";5
"219";5
"220";5
"221";9
"222";5
"223";9
"224";9
"225";9
"226";9
"227";9
"228";9
"229";9
"230";9
"231";5
"232";5
"233";5
"234";5
"235";5
"236";5
"237";9
"238";5
"239";9
"240";9
"241";5
"242";9
"243";9
"244";9
"245";5
"246";9
"247";9
"248";9
"249";5
"250";5
"251";5
"252";9
"253";5
"254";5
"255";5
"256";9
"257";5
"258";5
"259";5
"260";5
"261";5
"262";9
"263";5
"264";9
"265";5
"266";5
"267";5
"268";9
"269";5
"270";9
"271";9
"272";5
"273";5
"274";5
"275";5
"276";5
"277";5
"278";5
"279";5
"280";9
"281";5
"282";5
"283";5
"284";5
"285";5
"286";5
"287";9
"288";5
"289";5
"290";9
"291";5
"292";9
"293";5
"294";5
"295";5
"296";5
"297";5
"298";5
"299";5
"300";5
"301";5
"302";5
"303";5
"304";9
"305";5
"306";5
"307";5
"308";5
"309";5
"310";7
"311";5
"312";9
"313";9
"314";5
"315";5
"316";5
"317";9
"318";5
"319";9
"320";9
"321";9
"322";9
"323";5
"324";5
"325";5
"326";3
"327";5
"328";3
"329";5
"330";5
"331";5
"332";0
"333";5
"334";5
"335";9
"336";9
"337";5
"338";5
"339";5
"340";5
"341";9
"342";5
"343";5
"344";9
"345";5
"346";9
"347";5
"348";5
"349";9
"350";5
"351";5
"352";5
"353";9
"354";9
"355";9
"356";5
"357";5
"358";5
"359";9
"360";9
"361";5
"362";5
"363";3
"364";3
"365";8
"366";5
"367";5
"368";5
"369";9
"370";5
"371";5
"372";5
"373";9
"374";5
"375";5
"376";5
"377";5
"378";5
"379";8
"380";9
"381";9
"382";5
"383";5
"384";5
"385";5
"386";5
"387";5
"388";5
"389";9
"390";0
"391";0
"392";0
"393";0
"394";5
"395";0
"396";9
"397";9
"398";0
"399";9
"400";9
"401";5
"402";9
"403";0
"404";9
"405";5
"406";5
"407";5
"408";5
"409";5
"410";5
"411";5
"412";5
"413";5
"414";5
"415";8
"416";5
"417";5
"418";5
"419";9
"420";9
"421";9
"422";9
"423";6
"424";5
"425";6
"426";6
"427";6
"428";6
"429";6
"430";5
"431";9
"432";5
"433";9
"434";9
"435";3
"436";5
"437";5
"438";9
"439";5
"440";9
"441";5
"442";9
"443";5
"444";5
"445";9
"446";9
"447";9
"448";9
"449";9
"450";9
"451";5
"452";5
"453";9
"454";9
"455";9
"456";9
"457";9
"458";9
"459";9
"460";9
"461";7
"462";9
"463";9
"464";9
"465";9
"466";9
"467";9
"468";5
"469";9
"470";5
"471";9
"472";9
"473";9
"474";9
"475";5
"476";3
"477";9
"478";5
"479";9
"480";5
"481";5
"482";3
"483";5
"484";8
"485";9
"486";5
"487";3
"488";9
"489";9
"490";9
"491";9
"492";9
"493";9
"494";9
"495";9
"496";9
"497";9
"498";9
"499";5
"500";5
"501";5
"502";5
"503";5
"504";5
"505";5
"506";5
"507";9
"508";3
"509";9
"510";5
"511";5
"512";9
"513";3
"514";5
"515";3
"516";9
"517";9
"518";9
"519";5
"520";9
"521";9
"522";9
"523";9
"524";9
"525";9
"526";5
"527";9
"528";9
"529";5
"530";9
"531";9
"532";9
"533";5
"534";9
"535";5
"536";5
"537";5
"538";5
"539";5
"540";5
"541";9
"542";5
"543";9
"544";9
"545";5
"546";5
"547";9
"548";5
"549";9
"550";8
"551";9
"552";9
"553";8
"554";8
"555";8
"556";8
"557";9
"558";8
"559";5
"560";5
"561";8
"562";5
"563";9
"564";9
"565";1
"566";5
"567";1
"568";1
"569";8
"570";1
"571";5
"572";5
"573";8
"574";5
"575";5
"576";5
"577";8
"578";8
"579";5
"580";8
"581";5
"582";0
"583";1
"584";9
"585";9
"586";9
"587";9
"588";5
"589";5
"590";1
"591";5
"592";5
"593";9
"594";5
"595";5
"596";5
"597";5
"598";5
"599";5
"600";5
"601";5
"602";5
"603";5
"604";8
"605";5
"606";5
"607";5
"608";9
"609";3
"610";9
"611";5
"612";5
"613";5
"614";5
"615";5
"616";5
"617";5
"618";9
"619";9
"620";9
"621";9
"622";9
"623";9
"624";5
"625";9
"626";5
"627";9
"628";9
"629";9
"630";9
"631";9
"632";9
"633";9
"634";5
"635";5
"636";5
"637";9
"638";5
"639";9
"640";9
"641";5
"642";9
"643";5
"644";5
"645";5
"646";5
"647";9
"648";5
"649";5
"650";9
"651";9
"652";9
"653";9
"654";9
"655";9
"656";9
"657";9
"658";9
"659";9
"660";3
"661";5
"662";9
"663";5
"664";5
"665";8
"666";9
"667";9
"668";9
"669";0
"670";0
"671";0
"672";0
"673";8
"674";0
"675";0
"676";9
"677";5
"678";9
"679";9
"680";9
"681";9
"682";9
"683";9
"684";5
"685";5
"686";5
"687";9
"688";9
"689";9
"690";9
"691";9
"692";9
"693";9
"694";9
"695";9
"696";9
"697";5
"698";5
"699";9
"700";5
"701";9
"702";9
"703";5
"704";9
"705";3
"706";8
"707";9
"708";5
"709";9
"710";9
"711";5
"712";8
"713";5
"714";5
"715";5
"716";9
"717";5
"718";5
"719";9
"720";8
"721";9
"722";9
"723";8
"724";9
"725";3
"726";9
"727";9
"728";5
"729";5
"730";5
"731";9
"732";9
"733";9
"734";9
"735";5
"736";9
"737";3
"738";3
"739";3
"740";9
"741";9
"742";9
"743";8
"744";5
"745";8
"746";5
"747";9
"748";9
"749";5
"750";8
"751";9
"752";9
"753";8
"754";8
"755";9
"756";9
"757";3
"758";5
"759";3
"760";0
"761";5
"762";5
"763";9
"764";3
"765";9
"766";9
"767";8
"768";3
"769";5
"770";5
"771";5
"772";5
"773";9
"774";5
"775";3
"776";3
"777";5
"778";9
"779";5
"780";9
"781";3
"782";9
"783";9
"784";5
"785";9
"786";5
"787";6
"788";9
"789";9
"790";5
"791";9
"792";9
"793";9
"794";5
"795";9
"796";9
"797";9
"798";3
"799";5
"800";9
"801";9
"802";9
"803";9
"804";6
"805";9
"806";5
"807";5
"808";5
"809";9
"810";9
"811";5
"812";5
"813";5
"814";9
"815";9
"816";5
"817";5
"818";9
"819";9
"820";9
"821";3
"822";9
"823";9
"824";9
"825";9
"826";9
"827";9
"828";9
"829";9
"830";9
"831";9
"832";9
"833";9
"834";9
"835";9
"836";9
"837";9
"838";9
"839";9
"840";5
"841";9
"842";9
"843";9
"844";5
"845";9
"846";5
"847";5
"848";9
"849";9
"850";9
"851";9
"852";9
"853";9
"854";9
"855";9
"856";8
"857";9
"858";9
"859";8
"860";8
"861";0
"862";9
"863";5
"864";5
"865";5
"866";9
"867";5
"868";2
"869";5
"870";8
"871";9
"872";9
"873";9
"874";9
"875";5
"876";9
"877";5
"878";9
"879";5
"880";5
"881";8
"882";9
"883";5
"884";9
"885";9
"886";9
"887";9
"888";5
"889";0
"890";0
"891";9
"892";5
"893";8
"894";5
"895";9
"896";9
"897";5
"898";9
"899";8
"900";9
"901";9
"902";9
"903";9
"904";3
"905";9
"906";5
"907";5
"908";9
"909";9
"910";9
"911";8
"912";3
"913";9
"914";5
"915";9
"916";5
"917";5
"918";9
"919";9
"920";9
"921";9
"922";9
"923";9
"924";9
"925";9
"926";9
"927";3
"928";9
"929";9
"930";9
"931";9
"932";9
"933";9
"934";9
"935";9
"936";5
"937";9
"938";9
"939";5
"940";9
"941";9
"942";5
"943";9
"944";9
"945";9
"946";9
"947";9
"948";9
"949";9
"950";9
"951";9
"952";9
"953";5
"954";5
"955";5
"956";9
"957";9
"958";9
"959";9
"960";9
"961";9
"962";9
"963";9
"964";3
"965";8
"966";9
"967";9
"968";9
"969";5
"970";5
"971";5
"972";9
"973";5
"974";5
"975";9
"976";9
"977";9
"978";9
"979";9
"980";9
"981";9
"982";9
"983";9
"984";8
"985";9
"986";9
"987";9
"988";9
"989";9
"990";9
"991";6
"992";5
"993";9
"994";5
"995";6
"996";6
"997";6
"998";9
"999";9
"1000";9
"1001";5
"1002";5
"1003";5
"1004";5
"1005";9
"1006";9
"1007";9
"1008";9
"1009";9
"1010";5
"1011";5
"1012";9
"1013";9
"1014";9
"1015";9
"1016";9
"1017";5
"1018";5
"1019";5
"1020";9
"1021";9
"1022";5
"1023";9
"1024";9
"1025";6
"1026";8
"1027";9
"1028";9
"1029";9
"1030";9
"1031";5
"1032";9
"1033";9
"1034";6
"1035";9
"1036";9
"1037";9
"1038";8
"1039";9
"1040";9
"1041";5
"1042";9
"1043";6
"1044";9
"1045";5
"1046";9
"1047";9
"1048";9
"1049";9
"1050";9
"1051";9
"1052";5
"1053";5
"1054";9
"1055";9
"1056";9
"1057";9
"1058";9
"1059";6
"1060";9
"1061";5
"1062";5
"1063";9
"1064";9
"1065";9
"1066";9
"1067";9
"1068";9
"1069";5
"1070";9
"1071";9
"1072";9
"1073";9
"1074";9
"1075";9
"1076";9
"1077";9
"1078";9
"1079";9
"1080";9
"1081";8
"1082";9
"1083";9
"1084";9
"1085";9
"1086";9
"1087";9
"1088";5
"1089";9
"1090";9
"1091";5
"1092";9
"1093";5
"1094";5
"1095";5
"1096";5
"1097";5
"1098";8
"1099";8
"1100";8
"1101";5
"1102";9
"1103";9
"1104";8
"1105";5
"1106";9
"1107";5
"1108";5
"1109";5
"1110";5
"1111";5
"1112";5
"1113";9
"1114";5
"1115";5
"1116";5
"1117";2
"1118";5
"1119";5
"1120";5
"1121";5
"1122";5
"1123";5
"1124";5
"1125";5
"1126";5
"1127";9
"1128";5
"1129";5
"1130";5
"1131";5
"1132";3
"1133";8
"1134";5
"1135";8
"1136";5
"1137";9
"1138";9
"1139";9
"1140";9
"1141";2
"1142";2
"1143";5
"1144";9
"1145";5
"1146";5
"1147";6
"1148";6
"1149";5
"1150";0
"1151";0
"1152";0
"1153";0
"1154";5
"1155";5
"1156";5
"1157";8
"1158";5
"1159";5
"1160";5
"1161";5
"1162";9
"1163";0
"1164";5
"1165";5
"1166";5
"1167";0
"1168";0
"1169";5
"1170";5
"1171";8
"1172";9
"1173";5
"1174";9
"1175";8
"1176";5
"1177";8
"1178";9
"1179";8
"1180";8
"1181";8
"1182";8
"1183";3
"1184";8
"1185";8
"1186";9
"1187";5
"1188";5
"1189";5
"1190";8
"1191";8
"1192";5
"1193";9
"1194";1
"1195";1
"1196";1
"1197";0
"1198";1
"1199";5
"1200";4
"1201";5
"1202";5
"1203";5
"1204";5
"1205";5
"1206";5
"1207";5
"1208";5
"1209";5
"1210";1
"1211";9
"1212";9
"1213";5
"1214";5
"1215";9
"1216";5
"1217";9
"1218";9
"1219";9
"1220";8
"1221";5
"1222";8
"1223";8
"1224";8
"1225";9
"1226";5
"1227";9
"1228";5
"1229";5
"1230";5
"1231";5
"1232";5
"1233";9
"1234";5
"1235";5
"1236";9
"1237";9
"1238";9
"1239";5
"1240";9
"1241";9
"1242";9
"1243";9
"1244";9
"1245";9
"1246";5
"1247";9
"1248";5
"1249";5
"1250";9
"1251";5
"1252";9
"1253";8
"1254";5
"1255";9
"1256";9
"1257";5
"1258";9
"1259";9
"1260";5
"1261";9
"1262";9
"1263";9
"1264";8
"1265";8
"1266";9
"1267";9
"1268";5
"1269";9
"1270";9
"1271";5
"1272";9
"1273";8
"1274";5
"1275";5
"1276";5
"1277";8
"1278";9
"1279";8
"1280";8
"1281";8
"1282";8
"1283";8
"1284";8
"1285";9
"1286";8
"1287";9
"1288";9
"1289";9
"1290";5
"1291";5
"1292";5
"1293";5
"1294";9
"1295";9
"1296";9
"1297";9
"1298";9
"1299";5
"1300";5
"1301";5
"1302";9
"1303";9
"1304";5
"1305";5
"1306";8
"1307";5
"1308";9
"1309";9
"1310";9
"1311";9
"1312";9
"1313";9
"1314";5
"1315";5
"1316";9
"1317";9
"1318";5
"1319";5
"1320";5
"1321";5
"1322";5
"1323";5
"1324";5
"1325";5
"1326";5
"1327";9
"1328";8
"1329";5
"1330";5
"1331";9
"1332";9
"1333";9
"1334";9
"1335";5
"1336";7
"1337";9
"1338";8
"1339";9
"1340";9
"1341";5
"1342";9
"1343";9
"1344";5
"1345";5
"1346";9
"1347";9
"1348";9
"1349";9
"1350";5
"1351";9
"1352";9
"1353";9
"1354";5
"1355";7
"1356";5
"1357";9
"1358";9
"1359";8
"1360";1
"1361";8
"1362";9
"1363";5
"1364";9
"1365";9
"1366";9
"1367";9
"1368";9
"1369";9
"1370";3
"1371";9
"1372";8
"1373";9
"1374";9
"1375";5
"1376";9
"1377";9
"1378";9
"1379";9
"1380";5
"1381";9
"1382";8
"1383";9
"1384";9
"1385";5
"1386";5
"1387";8
"1388";8
"1389";0
"1390";9
"1391";5
"1392";9
"1393";5
"1394";9
"1395";8
"1396";8
"1397";5
"1398";8
"1399";9
"1400";9
"1401";7
"1402";2
"1403";9
"1404";9
"1405";9
"1406";9
"1407";9
"1408";9
"1409";8
"1410";9
"1411";9
"1412";9
"1413";8
"1414";9
"1415";9
"1416";9
"1417";9
"1418";8
"1419";9
"1420";2
"1421";2
"1422";5
"1423";9
"1424";2
"1425";9
"1426";5
"1427";5
"1428";5
"1429";5
"1430";9
"1431";5
"1432";9
"1433";9
"1434";9
"1435";9
"1436";9
"1437";9
"1438";9
"1439";9
"1440";5
"1441";9
"1442";9
"1443";9
"1444";9
"1445";9
"1446";3
"1447";8
"1448";8
"1449";8
"1450";5
"1451";8
"1452";8
"1453";8
"1454";8
"1455";5
"1456";5
"1457";9
"1458";9
"1459";5
"1460";9
"1461";9
"1462";9
"1463";9
"1464";9
"1465";7
"1466";9
"1467";9
"1468";9
"1469";9
"1470";8
"1471";9
"1472";9
"1473";9
"1474";8
"1475";9
"1476";5
"1477";8
"1478";9
"1479";9
"1480";9
"1481";9
"1482";9
"1483";9
"1484";9
"1485";9
"1486";5
"1487";5
"1488";9
"1489";8
"1490";7
"1491";8
"1492";7
"1493";3
"1494";8
"1495";8
"1496";9
"1497";8
"1498";9
"1499";9
"1500";9
"1501";9
"1502";9
"1503";5
"1504";5
"1505";5
"1506";9
"1507";9
"1508";5
"1509";5
"1510";9
"1511";9
"1512";9
"1513";9
"1514";5
"1515";8
"1516";9
"1517";9
"1518";9
"1519";9
"1520";9
"1521";9
"1522";9
"1523";9
"1524";9
"1525";9
"1526";9
"1527";9
"1528";9
"1529";9
"1530";9
"1531";9
"1532";8
"1533";9
"1534";9
"1535";5
"1536";9
"1537";9
"1538";3
"1539";3
"1540";8
"1541";5
"1542";9
"1543";9
"1544";9
"1545";9
"1546";9
"1547";5
"1548";5
"1549";5
"1550";9
"1551";9
"1552";9
"1553";9
"1554";9
"1555";9
"1556";9
"1557";9
"1558";8
"1559";5
"1560";0
"1561";1
"1562";5
"1563";5
"1564";5
"1565";5
"1566";5
"1567";5
"1568";5
"1569";5
"1570";9
"1571";5
"1572";9
"1573";9
"1574";9
"1575";8
"1576";5
"1577";9
"1578";5
"1579";5
"1580";5
"1581";8
"1582";8
"1583";8
"1584";8
"1585";9
"1586";8
"1587";9
"1588";9
"1589";5
"1590";8
"1591";9
"1592";8
"1593";9
"1594";9
"1595";5
"1596";9
"1597";9
"1598";5
"1599";5
"1600";8
"1601";8
"1602";8
"1603";8
"1604";8
"1605";8
"1606";9
"1607";9
"1608";5
"1609";5
"1610";5
"1611";5
"1612";5
"1613";8
"1614";5
"1615";5
"1616";5
"1617";9
"1618";5
"1619";5
"1620";9
"1621";5
"1622";8
"1623";9
"1624";9
"1625";5
"1626";5
"1627";5
"1628";5
"1629";5
"1630";5
"1631";5
"1632";5
"1633";5
"1634";5
"1635";5
"1636";5
"1637";5
"1638";5
"1639";5
"1640";5
"1641";5
"1642";9
"1643";9
"1644";5
"1645";5
"1646";5
"1647";9
"1648";5
"1649";5
"1650";5
"1651";5
"1652";5
"1653";5
"1654";5
"1655";9
"1656";5
"1657";5
"1658";5
"1659";5
"1660";5
"1661";5
"1662";5
"1663";5
"1664";5
"1665";5
"1666";9
"1667";5
"1668";5
"1669";8
"1670";9
"1671";5
"1672";5
"1673";5
"1674";5
"1675";5
"1676";9
"1677";8
"1678";8
"1679";9
"1680";9
"1681";9
"1682";9
"1683";5
"1684";9
"1685";9
"1686";9
"1687";8
"1688";9
"1689";9
"1690";9
"1691";5
"1692";9
"1693";9
"1694";5
"1695";9
"1696";5
"1697";5
"1698";9
"1699";9
"1700";0
"1701";5
"1702";8
"1703";5
"1704";8
"1705";5
"1706";5
"1707";5
"1708";5
"1709";5
"1710";5
"1711";9
"1712";5
"1713";5
"1714";5
"1715";5
"1716";5
"1717";5
"1718";9
"1719";9
"1720";5
"1721";9
"1722";7
"1723";9
"1724";9
"1725";5
"1726";9
"1727";9
"1728";5
"1729";5
"1730";9
"1731";9
"1732";9
"1733";9
"1734";5
"1735";9
"1736";3
"1737";3
"1738";2
"1739";0
"1740";5
"1741";5
"1742";5
"1743";9
"1744";9
"1745";5
"1746";5
"1747";2
"1748";9
"1749";9
"1750";5
"1751";9
"1752";9
"1753";9
"1754";9
"1755";2
"1756";2
"1757";2
"1758";9
"1759";9
"1760";9
"1761";9
"1762";5
"1763";9
"1764";5
"1765";5
"1766";9
"1767";9
"1768";5
"1769";9
"1770";4
"1771";5
"1772";5
"1773";5
"1774";5
"1775";5
"1776";5
"1777";5
"1778";5
"1779";5
"1780";5
"1781";5
"1782";5
"1783";5
"1784";5
"1785";5
"1786";5
"1787";5
"1788";5
"1789";9
"1790";5
"1791";5
"1792";9
"1793";9
"1794";5
"1795";5
"1796";5
"1797";5
"1798";5
"1799";5
"1800";9
"1801";5
"1802";5
"1803";5
"1804";5
"1805";5
"1806";5
"1807";5
"1808";5
"1809";5
"1810";5
"1811";5
"1812";5
"1813";0
"1814";0
"1815";5
"1816";5
"1817";5
"1818";5
"1819";5
"1820";5
"1821";5
"1822";5
"1823";9
"1824";5
"1825";5
"1826";5
"1827";5
"1828";9
"1829";5
"1830";5
"1831";5
"1832";9
"1833";9
"1834";9
"1835";5
"1836";9
"1837";5
"1838";5
"1839";5
"1840";5
"1841";5
"1842";5
"1843";5
"1844";9
"1845";5
"1846";5
"1847";5
"1848";5
"1849";5
"1850";5
"1851";9
"1852";9
"1853";5
"1854";9
"1855";9
"1856";5
"1857";3
"1858";9
"1859";5
"1860";9
"1861";9
"1862";5
"1863";9
"1864";3
"1865";9
"1866";9
"1867";9
"1868";5
"1869";3
"1870";5
"1871";5
"1872";5
"1873";3
"1874";3
"1875";5
"1876";3
"1877";9
"1878";5
"1879";5
"1880";5
"1881";9
"1882";9
"1883";9
"1884";9
"1885";9
"1886";9
"1887";9
"1888";9
"1889";9
"1890";5
"1891";5
"1892";5
"1893";5
"1894";9
"1895";5
"1896";9
"1897";5
"1898";9
"1899";9
"1900";9
"1901";5
"1902";5
"1903";9
"1904";5
"1905";9
"1906";5
"1907";5
"1908";5
"1909";5
"1910";5
"1911";9
"1912";9
"1913";9
"1914";5
"1915";5
"1916";5
"1917";9
"1918";9
"1919";9
"1920";9
"1921";5
"1922";5
"1923";5
"1924";5
"1925";5
"1926";5
"1927";5
"1928";9
"1929";9
"1930";8
"1931";9
"1932";5
"1933";5
"1934";5
"1935";0
"1936";5
"1937";5
"1938";8
"1939";8
"1940";9
"1941";5
"1942";5
"1943";5
"1944";5
"1945";8
"1946";9
"1947";9
"1948";5
"1949";5
"1950";9
"1951";5
"1952";5
"1953";9
"1954";5
"1955";9
"1956";9
"1957";8
"1958";8
"1959";9
"1960";5
"1961";5
"1962";5
"1963";9
"1964";5
"1965";5
"1966";1
"1967";5
"1968";5
"1969";9
"1970";9
"1971";9
"1972";5
"1973";9
"1974";5
"1975";9
"1976";5
"1977";5
"1978";9
"1979";5
"1980";5
"1981";5
"1982";9
"1983";9
"1984";5
"1985";8
"1986";5
"1987";8
"1988";9
"1989";5
"1990";5
"1991";9
"1992";5
"1993";9
"1994";5
"1995";9
"1996";9
"1997";5
"1998";5
"1999";5
"2000";5
"2001";5
"2002";5
"2003";5
"2004";5
"2005";5
"2006";5
"2007";9
"2008";5
"2009";5
"2010";5
"2011";9
"2012";9
"2013";5
"2014";9
"2015";9
"2016";9
"2017";9
"2018";5
"2019";9
"2020";8
"2021";5
"2022";5
"2023";8
"2024";5
"2025";5
"2026";9
"2027";5
"2028";5
"2029";9
"2030";5
"2031";9
"2032";9
"2033";9
"2034";5
"2035";9
"2036";9
"2037";9
"2038";5
"2039";8
"2040";5
"2041";9
"2042";8
"2043";9
"2044";9
"2045";5
"2046";5
"2047";5
"2048";5
"2049";5
"2050";5
"2051";5
"2052";1
"2053";5
"2054";4
"2055";5
"2056";4
"2057";5
"2058";5
"2059";9
"2060";8
"2061";5
"2062";9
"2063";9
"2064";9
"2065";5
"2066";5
"2067";5
"2068";5
"2069";5
"2070";5
"2071";5
"2072";9
"2073";5
"2074";5
"2075";5
"2076";5
"2077";9
"2078";5
"2079";9
"2080";5
"2081";5
"2082";5
"2083";5
"2084";8
"2085";8
"2086";5
"2087";9
"2088";9
"2089";5
"2090";5
"2091";9
"2092";9
"2093";5
"2094";5
"2095";5
"2096";5
"2097";5
"2098";9
"2099";5
"2100";5
"2101";9
"2102";5
"2103";9
"2104";5
"2105";9
"2106";9
"2107";9
"2108";9
"2109";9
"2110";5
"2111";5
"2112";5
"2113";5
"2114";5
"2115";3
"2116";5
"2117";9
"2118";3
"2119";5
"2120";9
"2121";5
"2122";9
"2123";5
"2124";5
"2125";5
"2126";5
"2127";5
"2128";5
"2129";5
"2130";5
"2131";5
"2132";5
"2133";9
"2134";9
"2135";5
"2136";5
"2137";5
"2138";9
"2139";9
"2140";5
"2141";9
"2142";5
"2143";5
"2144";5
"2145";5
"2146";9
"2147";9
"2148";9
"2149";5
"2150";9
"2151";8
"2152";5
"2153";1
"2154";8
"2155";5
"2156";8
"2157";5
"2158";5
"2159";1
"2160";5
"2161";8
"2162";5
"2163";8
"2164";8
"2165";8
"2166";8
"2167";9
"2168";1
"2169";4
"2170";5
"2171";4
"2172";5
"2173";5
"2174";5
"2175";5
"2176";9
"2177";5
"2178";8
"2179";8
"2180";9
"2181";9
"2182";5
"2183";5
"2184";9
"2185";5
"2186";9
"2187";9
"2188";9
"2189";9
"2190";5
"2191";9
"2192";0
"2193";9
"2194";9
"2195";5
"2196";8
"2197";8
"2198";8
"2199";9
"2200";5
"2201";5
"2202";9
"2203";9
"2204";5
"2205";5
"2206";9
"2207";9
"2208";5
"2209";9
"2210";7
"2211";5
"2212";5
"2213";5
"2214";8
"2215";8
"2216";9
"2217";9
"2218";5
"2219";9
"2220";5
"2221";5
"2222";5
"2223";5
"2224";5
"2225";8
"2226";8
"2227";5
"2228";5
"2229";5
"2230";9
"2231";5
"2232";3
"2233";9
"2234";5
"2235";5
"2236";9
"2237";5
"2238";9
"2239";9
"2240";9
"2241";5
"2242";5
"2243";5
"2244";5
"2245";5
"2246";5
"2247";9
"2248";8
"2249";9
"2250";9
"2251";8
"2252";8
"2253";9
"2254";8
"2255";8
"2256";5
"2257";5
"2258";5
"2259";5
"2260";5
"2261";8
"2262";8
"2263";5
"2264";8
"2265";9
"2266";9
"2267";5
"2268";9
"2269";6
"2270";9
"2271";9
"2272";5
"2273";5
"2274";9
"2275";5
"2276";8
"2277";4
"2278";5
"2279";5
"2280";5
"2281";5
"2282";5
"2283";5
"2284";9
"2285";7
"2286";9
"2287";5
"2288";9
"2289";5
"2290";9
"2291";8
"2292";9
"2293";9
"2294";9
"2295";5
"2296";9
"2297";5
"2298";5
"2299";5
"2300";9
"2301";9
"2302";9
"2303";5
"2304";5
"2305";5
"2306";9
"2307";5
"2308";5
"2309";5
"2310";5
"2311";9
"2312";5
"2313";9
"2314";9
"2315";9
"2316";8
"2317";8
"2318";5
"2319";9
"2320";9
"2321";5
"2322";9
"2323";9
"2324";9
"2325";5
"2326";5
"2327";1
"2328";9
"2329";4
"2330";5
"2331";5
"2332";8
"2333";5
"2334";5
"2335";9
"2336";9
"2337";5
"2338";5
"2339";5
"2340";3
"2341";9
"2342";9
"2343";5
"2344";9
"2345";9
"2346";5
"2347";9
"2348";5
"2349";5
"2350";5
"2351";5
"2352";5
"2353";9
"2354";9
"2355";5
"2356";9
"2357";9
"2358";9
"2359";5
"2360";5
"2361";9
"2362";9
"2363";9
"2364";9
"2365";9
"2366";9
"2367";5
"2368";9
"2369";9
"2370";9
"2371";8
"2372";0
"2373";3
"2374";9
"2375";0
"2376";9
"2377";9
"2378";9
"2379";9
"2380";9
"2381";9
"2382";8
"2383";3
"2384";9
"2385";9
"2386";8
"2387";9
"2388";9
"2389";9
"2390";9
"2391";9
"2392";9
"2393";9
"2394";9
"2395";5
"2396";5
"2397";9
"2398";5
"2399";9
"2400";3
"2401";9
"2402";8
"2403";6
"2404";9
"2405";9
"2406";9
"2407";5
"2408";3
"2409";9
"2410";3
"2411";9
"2412";5
"2413";9
"2414";8
"2415";5
"2416";5
"2417";5
"2418";9
"2419";9
"2420";9
"2421";9
"2422";9
"2423";3
"2424";3
"2425";9
"2426";9
"2427";9
"2428";9
"2429";9
"2430";9
"2431";8
"2432";9
"2433";9
"2434";5
"2435";9
"2436";9
"2437";8
"2438";8
"2439";8
"2440";9
"2441";9
"2442";9
"2443";9
"2444";9
"2445";9
"2446";9
"2447";3
"2448";5
"2449";5
"2450";9
"2451";9
"2452";9
"2453";3
"2454";5
"2455";3
"2456";5
"2457";5
"2458";5
"2459";5
"2460";9
"2461";9
"2462";9
"2463";9
"2464";5
"2465";9
"2466";5
"2467";5
"2468";9
"2469";4
"2470";5
"2471";5
"2472";5
"2473";5
"2474";5
"2475";5
"2476";6
"2477";9
"2478";5
"2479";5
"2480";5
"2481";5
"2482";5
"2483";9
"2484";9
"2485";9
"2486";5
"2487";5
"2488";1
"2489";0
"2490";5
"2491";9
"2492";8
"2493";6
"2494";8
"2495";5
"2496";9
"2497";5
"2498";9
"2499";9
"2500";8
"2501";9
"2502";5
"2503";9
"2504";5
"2505";9
"2506";9
"2507";5
"2508";9
"2509";9
"2510";9
"2511";3
"2512";9
"2513";9
"2514";5
"2515";5
"2516";5
"2517";9
"2518";9
"2519";9
"2520";9
"2521";5
"2522";9
"2523";5
"2524";3
"2525";9
"2526";9
"2527";8
"2528";6
"2529";9
"2530";9
"2531";9
"2532";5
"2533";9
"2534";9
"2535";5
"2536";9
"2537";9
"2538";9
"2539";9
"2540";5
"2541";5
"2542";5
"2543";5
"2544";9
"2545";9
"2546";9
"2547";5
"2548";5
"2549";9
"2550";5
"2551";8
"2552";9
"2553";9
"2554";9
"2555";8
"2556";9
"2557";3
"2558";8
"2559";8
"2560";5
"2561";9
"2562";8
"2563";8
"2564";1
"2565";9
"2566";5
"2567";9
"2568";9
"2569";9
"2570";9
"2571";5
"2572";9
"2573";5
"2574";5
"2575";1
"2576";9
"2577";5
"2578";1
"2579";4
"2580";5
"2581";5
"2582";5
"2583";5
"2584";9
"2585";9
"2586";9
"2587";8
"2588";9
"2589";0
"2590";9
"2591";9
"2592";9
"2593";5
"2594";5
"2595";3
"2596";9
"2597";9
"2598";9
"2599";5
"2600";8
"2601";9
"2602";3
"2603";5
"2604";3
"2605";9
"2606";3
"2607";9
"2608";9
"2609";5
"2610";9
"2611";5
"2612";5
"2613";5
"2614";5
"2615";8
"2616";9
"2617";9
"2618";5
"2619";9
"2620";5
"2621";5
"2622";5
"2623";5
"2624";9
"2625";9
"2626";3
"2627";9
"2628";9
"2629";9
"2630";8
"2631";8
"2632";9
"2633";1
"2634";5
"2635";4
"2636";5
"2637";0
"2638";5
"2639";5
"2640";8
"2641";8
"2642";9
"2643";5
"2644";5
"2645";5
"2646";5
"2647";8
"2648";9
"2649";9
"2650";5
"2651";5
"2652";9
"2653";5
"2654";5
"2655";9
"2656";5
"2657";9
"2658";9
"2659";8
"2660";8
"2661";9
"2662";5
"2663";5
"2664";5
"2665";9
"2666";5
"2667";5
"2668";1
"2669";5
