"";"";"";"";"*zein_Juan13-31-33a34-35";""
"1";"*zein_Juan13-31-33a34-35";"0.650945694719487";"-0.727044277933854";"0.994823897730237";"22"
"2";"*zein_Juan11-1-45";"-0.534934290058289";"0.351479952134079";"0.924017740673102";"37"
"3";"*zein_Juan5-31-47";"0.782391099394681";"-0.417686117219197";"0.904377771980172";"41"
"4";"*zein_Juan16-16-20";"0.329518949470174";"-1.07548215316027";"0.902092355857031";"42"
"5";"*zein_Juan3-16-21";"0.729883482748837";"-0.617086669159552";"0.901466214453431";"43"
"6";"*zein_Juan6-16-21";"-1.64335673144127";"0.1703020863359";"0.889287764153405";"46"
"7";"*zein_Juan3-14-21";"0.745525078884169";"-0.587115975317859";"0.884362118445082";"49"
"8";"*zein_Juan8-31-42";"0.75119606552269";"-0.400047043404555";"0.882441951474041";"50"
"9";"*egutegia_NavidadYOct";"0.228566095376588";"-0.392160233757741";"0.881617531959301";"51"
"10";"*zein_Juan17-1-11a";"0.712857230516568";"-0.376134653680764";"0.88035481346204";"52"
"11";"*zein_Juan3-31-36";"0.619256390026018";"-0.295585173492295";"0.88027132794156";"53"
"12";"*zein_Juan20-11-18";"-0.957716391602701";"0.0291241288122042";"0.863532481085312";"58"
"13";"*zein_Juan14-6-14";"0.757172028374067";"-0.437782029400592";"0.861351421862771";"59"
"14";"*zein_Juan1-35-42";"-0.869813783931089";"0.0110243906681406";"0.861226193582051";"60"
"15";"*egutegia_SemanaSanta";"-0.387010093790636";"0.242505581299383";"0.857646751891469";"62"
"16";"*zein_Juan16-29-33";"0.556406025540815";"-0.28264386071929";"0.856957996347509";"63"
"17";"*zein_Juan17-20-26";"0.556406025540815";"-0.28264386071929";"0.856957996347509";"64"
"18";"*zein_Juan9-1-41";"-0.139817618309638";"-0.170339204115229";"0.854432559352987";"66"
"19";"*zein_Juan21-20-25";"-1.01485308658925";"0.0408889586058454";"0.852136707539786";"67"
"20";"*zein_Juan15-26-16-4a";"0.511512908051385";"-0.273400065881429";"0.845551787111923";"68"
"21";"*egutegia_TiempoDeNav";"-0.411958278928682";"0.0346001885819766";"0.843088964257762";"69"
"22";"*zein_Juan19-25-27";"-1.14055381555965";"0.0667715841518563";"0.841607096269241";"71"
"23";"*zein_Juan14-7-14";"0.738257725108607";"-0.452853963536638";"0.841471432298461";"72"
"24";"*zein_Juan11-45-57";"-0.637750899678033";"-0.036758918032187";"0.836055309157318";"73"
"25";"*zein_Juan2-1-11";"-0.60525780819897";"-0.166002339275573";"0.835502217584138";"74"
"26";"*zein_Juan1-43-51";"-0.687114470515171";"-0.0990122348327275";"0.835324810853118";"75"
"27";"*zein_Juan16-12-15";"0.451655418065478";"-0.261075006097614";"0.834427341507957";"76"
"28";"*zein_Juan15-1-8";"0.455619429215784";"-0.334308830705553";"0.832173232454996";"77"
"29";"*zein_Juan14-1-6";"0.614231844610156";"-0.394124796866044";"0.827550221758414";"80"
"30";"*zein_Juan10-22-30";"0.519039698202829";"0.183036412910262";"0.826767545003913";"81"
"31";"*zein_Juan19-31-37";"-0.728250779546119";"-0.150889998833178";"0.823793373336812";"82"
"32";"*zein_Juan3-16-18";"0.367854932085207";"-0.243819922400274";"0.823720323506392";"83"
"33";"*zein_Juan3-13-17";"0.367854932085207";"-0.243819922400274";"0.823720323506392";"84"
"34";"*zein_Juan17-11b-19";"0.711777700536962";"-0.473954671327102";"0.823469866944952";"85"
"35";"*zein_Juan15-18-21";"0.577599558416345";"-0.400806850049148";"0.818439864336029";"86"
"36";"*zein_Juan21-15-19";"0.0405810104647405";"-0.321267236826789";"0.816905817897209";"87"
"37";"*zein_Juan7-1-21025-30";"-0.500622831710319";"-0.0649945095369261";"0.815340464388208";"89"
"38";"*zein_Juan8-12-20";"0.227072649269593";"-0.287249511530988";"0.813764675189147";"90"
"39";"*zein_Juan8-51-59";"0.132700019883929";"-0.256676381929945";"0.812554135142186";"91"
"40";"*zein_Juan6-60-69";"0.169288185520548";"0.236686616772584";"0.812554135142186";"92"
"41";"*zein_Juan4-43-54";"-0.3277086476228";"0.256592799248219";"0.812303678580746";"93"
"42";"*zein_Juan13-21-3336-38";"-0.116731300424759";"0.446711552421538";"0.811969736498826";"94"
"43";"*zein_Juan1-47-51";"-0.637750899678033";"-0.036758918032187";"0.811907122358466";"95"
"44";"*zein_Juan12-20-33";"0.0973515752811809";"-0.0435439413756873";"0.808964257761545";"96"
"45";"*zein_Juan13-16-20";"0.359435791343648";"0.472296639890593";"0.808703365510044";"97"
"46";"*zein_Juan6-22-29";"-0.134947983796413";"-0.14028942021623";"0.807774589094704";"98"
"47";"*zein_Juan13-1-17";"-0.24668196510344";"-0.11728264195311";"0.806365770936603";"99"
"48";"*zein_Juan1-45-51";"-0.328523622667883";"-0.200005105270963";"0.806115314375163";"100"
"49";"*zein_Juan1-19-28";"-0.206776971779502";"-0.125499348475653";"0.803381163579442";"101"
"50";"*zein_Juan1-6-819-28";"0.0840537162257632";"-0.273893753074693";"0.803151578398122";"102"
"51";"*egutegia_SemanaDeAdv";"0.0840537162257632";"-0.273893753074693";"0.803151578398122";"103"
"52";"*zein_Juan18-33-37";"-0.00147413067659802";"-0.240190192356423";"0.803057657187582";"104"
"53";"*ebanjelaria_Juan";"0.0307560791873761";"-0.00235318627079462";"0.8";"105"
