decir;143;0;0;0;0;0;51;1
jesús;168;0;0;0;0;0;14;0
padre;3;0;10;0;14;0;122;0
os;1;0;2;5;4;4;99;2
ver;49;2;2;0;4;1;56;1
dar;7;0;12;1;5;0;86;0
dios;1;0;2;0;5;0;79;1
discípulo;88;0;1;0;0;0;5;0
mundo;0;0;5;0;12;0;52;2
hijo;8;0;2;0;3;0;68;0
hacer;13;0;0;0;12;0;49;0
ir;16;0;1;0;1;1;60;1
tiempo;74;0;0;0;0;0;1;0
venir;4;0;0;0;4;0;59;0
vida;0;0;15;0;9;0;34;0
crear|creer;4;2;4;0;3;0;48;1
enviar;4;0;2;0;0;1;52;0
saber;11;0;0;0;2;0;40;0
conocer;0;0;1;0;7;0;38;0
señor;19;0;3;0;0;0;28;0
judío;45;0;0;0;0;0;5;0
pan;7;0;29;0;0;0;8;0
hombre;7;0;4;0;5;0;31;0
hablar;4;0;0;0;0;2;35;0
palabra;6;0;0;0;13;0;23;0
ya;12;0;0;0;1;0;29;0
mismo;2;0;2;0;7;0;26;0
llegar;26;0;0;0;0;2;9;0
testimonio;2;0;0;0;1;0;26;0
querer;19;0;0;0;0;0;16;0
día;19;0;5;0;3;0;7;0
verdad;1;0;0;0;3;0;23;0
nadie;3;0;2;0;0;1;28;0
ahora;0;0;0;0;1;1;32;0
cielo;4;0;12;0;1;0;11;0
asegurar;0;0;2;0;2;0;28;1
uno;13;0;1;0;1;0;15;0
obra;0;0;0;0;15;0;12;0
más;12;0;0;0;1;0;14;0
quedar;18;0;0;0;1;0;6;2
luz;0;0;0;0;17;0;4;0
creer;8;0;0;0;0;0;20;0
preguntar;26;0;0;0;0;0;1;0
pedro;27;0;0;0;0;0;0;0
nombre;1;0;0;0;2;1;22;0
llamar;15;0;0;0;1;0;8;0
juan;15;0;0;0;4;0;5;0
eterno;0;0;2;0;4;0;19;0
echar;23;0;0;0;0;0;2;0
comer;3;1;18;0;0;0;0;0
así;2;0;0;0;1;0;22;0
morir;4;0;6;0;0;0;9;0
mano;7;6;2;1;0;0;6;0
allí;23;0;0;0;0;0;1;0
seguir;12;0;0;0;7;0;4;0
salir;13;0;0;0;2;0;8;0
oír;13;0;0;0;2;0;8;0
cómo;1;0;2;0;0;0;20;0
simón;20;0;0;0;2;0;0;0
poner;10;0;0;0;1;0;10;0
dónde;4;0;0;0;0;0;14;0
agua;8;0;0;0;0;0;11;0
oveja;5;0;0;0;14;0;0;0
hora;5;0;0;0;1;0;15;0
vuestro;0;0;0;0;0;4;13;2
templo;19;0;0;0;0;0;0;0
tanto;11;0;0;0;0;0;8;0
siempre;0;0;12;0;0;0;5;0
mis;0;2;0;0;15;0;2;0
espíritu;0;0;2;0;0;0;14;0
nacer;0;0;1;2;0;0;13;0
llevar;14;0;0;0;0;0;4;0
escribir;5;0;2;0;0;0;11;0
encontrar;14;0;0;0;0;0;4;0
casa;11;0;0;0;1;0;6;0
carne;0;0;15;0;0;0;2;0
voz;1;0;0;0;11;0;5;0
vivir;1;0;10;0;1;0;5;0
vez;13;0;0;0;0;0;4;0
subir;9;0;0;0;0;0;7;0
sepulcro;15;0;0;0;0;0;1;0
ojo;12;0;0;0;0;0;5;0
gente;14;0;0;0;0;0;3;0
bajar;2;0;6;0;0;0;9;0
amar;2;0;0;2;0;0;9;0
signo;6;0;2;0;0;0;8;0
recibir;3;0;0;0;2;0;9;0
pie;13;0;0;0;0;0;2;0
muerto;13;0;1;0;0;0;2;0
maría;15;0;0;0;0;0;0;0
hecho;5;0;1;0;0;0;10;0
guardar;1;0;0;0;12;0;3;0
volver;6;0;0;0;0;1;8;0
profeta;1;0;0;0;0;0;11;0
hermano;14;0;0;0;0;0;1;0
galilea;14;0;0;0;0;0;1;0
ciego;9;0;0;0;0;0;5;1
ama;0;0;0;0;12;0;2;0
ése;1;0;0;0;3;0;10;0
tierra;4;0;0;0;0;0;8;0
pasar;5;0;0;0;0;0;6;0
mujer;8;0;0;0;0;0;6;0
mesías;1;0;0;0;0;0;10;0
medio;7;0;0;0;0;0;6;0
junto;11;0;0;0;0;0;3;0
jerusalén;12;0;0;0;0;0;2;0
grande;5;0;0;0;1;0;8;0
gloria;1;0;0;0;0;0;11;0
fruto;0;0;0;0;0;0;11;0
felipe;11;0;0;0;0;0;3;0
escuchar;0;0;1;0;5;0;8;0
entregar;4;0;0;0;1;0;9;0
entrar;8;0;1;0;3;0;2;0
camino;3;0;0;0;0;0;11;0
alegría;3;0;0;0;0;7;2;0
vino;4;0;0;0;7;0;2;0
tomar;10;0;0;0;0;0;3;0
saber|ser;0;0;3;0;0;0;10;0
primero;11;0;0;0;1;0;1;0
glorificado;0;0;0;0;0;0;11;0
dejar;2;0;0;0;1;0;9;1
aquí;3;2;0;0;0;0;8;0
pecado;1;0;0;0;0;0;0;10
moisés;0;0;0;0;0;0;12;0
único;0;0;0;0;0;0;11;0
vuestra;0;0;0;0;1;6;4;0
vengar|venir;3;0;0;0;0;0;7;1
todavía;11;0;0;0;0;0;0;0
sitio;6;0;0;0;0;0;4;0
poco;1;0;0;0;0;0;8;0
pedir;3;0;0;0;0;1;7;0
maestro;0;0;0;0;0;0;11;0
levantar;10;0;0;0;0;0;1;0
fiesta;9;0;0;0;0;0;1;0
escritura;4;0;1;0;2;0;3;0
amor;0;0;0;0;3;0;6;0
acercar;11;0;0;0;0;0;0;0
sangre;1;0;8;0;0;0;1;0
madre;6;0;0;0;0;0;2;0
lázaro;10;0;0;0;0;0;0;0
juzgar;0;0;0;0;2;0;7;0
fariseos;10;0;0;0;0;0;0;0
dos;9;0;0;0;0;0;1;0
desierto;1;0;4;0;0;0;5;0
cuenta;0;0;0;0;0;0;10;0
condenar;1;0;0;0;0;0;9;0
bueno;0;0;0;0;8;0;2;0
beber;0;0;6;0;0;0;4;0
andar;9;0;0;0;0;0;1;0
acerca;1;0;0;0;4;0;5;0
abrahán;1;0;0;0;0;0;7;0
traer;1;6;0;0;1;0;1;0
solo;3;0;0;0;1;0;4;0
sacerdote;9;0;0;0;0;0;0;0
puerta;6;0;0;0;3;0;0;0
pez;9;0;0;0;0;0;0;0
orilla;8;0;0;0;0;0;1;0
mandamiento;0;0;0;2;6;0;0;0
lago;9;0;0;0;0;0;0;0
enseñar;6;0;0;0;0;0;3;0
costado;5;4;0;0;0;0;0;0
amigo;2;0;0;0;3;0;4;0
abierto;1;0;0;0;0;0;8;0
último;0;0;5;0;1;0;2;0
voluntad;0;0;0;0;0;0;6;0
vivo;0;0;6;0;0;0;2;0
tres;7;0;0;0;0;0;1;0
tomás;8;0;0;0;0;0;0;0
sólo;5;0;0;0;0;0;3;0
sábado;6;0;0;0;0;0;1;0
suelo;6;0;0;0;0;0;0;0
sacar;3;0;0;0;2;0;3;0
resucitar;7;0;1;0;0;0;0;0
red;8;0;0;0;0;0;0;0
pueblo;3;0;1;0;0;0;4;0
podar|poder;0;0;0;0;0;0;8;0
oído;0;0;0;0;0;0;8;0
nuevo;3;0;0;4;0;0;1;0
nicodemo;8;0;0;0;0;0;0;0
mandar;2;0;0;0;0;0;6;0
ley;0;0;0;0;0;0;8;0
fe;3;0;0;0;0;0;4;0
erar|ser;4;0;0;0;3;0;1;0
entender;1;0;0;0;0;0;7;0
enfermo;8;0;0;0;0;0;0;0
dar|distar;0;0;0;0;2;0;6;0
culto;0;0;0;0;0;0;6;0
creed;0;0;0;0;6;0;0;0
conmigo;0;0;0;0;0;0;8;0
cambio;0;0;0;0;5;0;3;0
barca;8;0;0;0;0;0;0;0
acudir;6;0;0;0;0;0;2;0
vendar|vender;5;0;0;0;0;0;0;0
suceder;0;0;0;0;0;0;4;0
propio;1;0;0;0;0;0;6;0
permanecer;1;0;0;0;4;0;2;0
pascua;6;0;0;0;0;0;0;0
natanael;7;0;0;0;0;0;0;0
muerte;1;0;0;0;0;0;6;0
matar;3;0;0;0;2;0;2;0
marta;7;0;0;0;0;0;0;0
llenar;6;0;0;0;0;1;0;0
lado;2;0;0;0;0;0;5;0
judas;7;0;0;0;0;0;0;0
gracia;2;0;0;0;0;0;4;0
elevar;0;0;0;0;0;0;4;0
crear;0;0;0;0;0;0;6;1
cosa;5;0;0;0;0;0;2;0
correr;5;0;0;0;0;0;0;0
cerca;5;0;0;0;0;0;1;0
aparecer;7;0;0;0;0;0;0;0
adonde;1;0;0;0;0;1;5;0
acordar;5;0;0;0;0;0;2;0
vuestros;0;0;4;0;0;0;0;1
vi;6;0;0;0;0;0;0;0
tiniebla;0;0;0;0;5;0;0;0
testigo;0;0;0;0;2;0;4;0
sentar;6;0;0;0;0;0;0;0
sed;0;0;0;0;0;0;6;0
santo;0;0;0;0;0;0;6;0
salvar;1;0;0;0;1;0;4;0
rey;3;0;0;0;0;0;3;0
rabí;0;0;0;0;0;0;6;0
quitar;2;0;0;0;0;1;2;1
pensar;1;0;0;0;0;0;5;0
pastor;0;0;0;0;6;0;0;0
nunca;0;0;0;0;0;0;6;0
noche;4;0;0;0;1;0;1;0
muéstranos;0;0;0;0;0;0;6;0
modo;0;0;2;0;0;0;4;0
meter;2;2;0;0;0;0;0;0
higuera;6;0;0;0;0;0;0;0
guardará;0;0;0;0;6;0;0;0
detrás;2;0;1;0;0;0;3;0
debajo;6;0;0;0;0;0;0;0
cinco;5;0;0;0;0;0;1;0
bautizar;3;0;0;0;0;0;2;0
bajo;1;0;5;0;0;0;0;0
año;6;0;0;0;0;0;0;0
alimento;0;0;1;0;0;0;3;0
ahí;1;0;0;0;0;0;2;0
aceptar;0;0;0;0;2;0;4;0
sumos;5;0;0;0;0;0;0;0
servir;1;0;3;0;0;0;1;0
seis;5;0;0;0;0;0;0;0
saltar;0;0;0;0;1;0;4;0
resucitaré;0;0;4;0;0;0;1;0
reino;0;0;0;0;0;0;5;0
pescado;1;0;0;0;0;0;4;0
perezca;0;0;0;0;0;0;5;0
paz;0;0;0;0;0;0;3;0
paloma;4;0;1;0;0;0;0;0
mirar;3;0;0;0;0;0;2;0
mesa;4;0;0;0;0;0;1;0
mellizo;5;0;0;0;0;0;0;0
marchar;5;0;0;0;0;0;0;0
llorar;4;0;0;0;0;0;0;0
juicio;0;0;0;0;1;0;4;0
judea;5;0;0;0;0;0;0;0
israel;0;0;0;0;0;0;5;0
gritar;1;0;0;0;1;0;3;0
glorificará;0;0;0;0;0;0;3;0
existir;0;0;0;0;0;0;5;0
empezar;5;0;0;0;0;0;0;0
embargo;0;0;0;0;1;0;4;0
elegir;0;0;1;0;0;0;2;0
doce;4;0;0;0;1;0;0;0
después;5;0;0;0;0;0;0;0
delante;1;0;0;0;1;0;3;0
dedo;1;4;0;0;0;0;0;0
curar;3;0;0;0;0;0;2;0
corazón;0;0;0;0;0;5;0;0
convertir;1;0;0;0;0;2;2;0
coma;0;0;5;0;0;0;0;0
coger;5;0;0;0;0;0;0;0
cerrado;5;0;0;0;0;0;0;0
caná;5;0;0;0;0;0;0;0
caminar;1;0;0;0;4;0;0;0
cama;5;0;0;0;0;0;0;0
caer;1;0;0;0;0;0;4;0
cabeza;4;0;0;0;0;0;1;0
buscar;4;0;0;0;0;0;1;0
betania;5;0;0;0;0;0;0;0
aún;2;0;0;0;0;0;3;0
andrés;5;0;0;0;0;0;0;0
améis;0;0;0;5;0;0;0;0
acusar;1;0;0;0;2;0;1;0
ángeles;1;0;0;0;0;0;3;0
válido;0;0;0;0;0;0;4;0
vista;4;0;0;0;0;0;0;0
tristeza;0;0;0;0;0;3;1;0
trabajo;0;0;0;0;0;0;4;0
tiberíades;4;0;0;0;0;0;0;0
tampoco;0;0;0;0;0;0;4;0
significar;0;0;0;0;0;0;4;0
semana;4;0;0;0;0;0;0;0
sano;4;0;0;0;0;0;0;0
resurrección;0;0;3;0;0;0;1;0
realizar;0;0;0;0;4;0;0;0
razón;0;0;0;0;0;0;3;1
principio;0;0;0;0;0;0;4;0
pobre;2;0;1;0;0;0;0;0
piedra;4;0;0;0;0;0;0;0
pidáis;0;0;0;0;0;0;4;0
perfume;4;0;0;0;0;0;0;0
perder;0;0;0;0;3;0;1;0
pecador;0;0;0;0;0;0;4;0
nazaret;0;0;0;0;2;0;2;0
nación;1;0;0;0;0;0;3;0
maná;0;0;4;0;0;0;0;0
manifestar;1;0;0;0;0;0;3;0
mando;0;0;0;2;2;0;0;0
malo;1;0;0;0;3;0;0;0
magdalena;4;0;0;0;0;0;0;0
ladrón;1;0;0;0;2;0;1;0
josé;1;0;0;0;0;0;3;0
jordán;3;0;0;0;0;0;1;0
jamás;2;0;0;0;0;0;2;0
iscariote;4;0;0;0;0;0;0;0
haz;0;0;2;0;1;0;1;0
estado;4;0;0;0;0;0;0;0
embarcar;4;0;0;0;0;0;0;0
dichosos;0;0;0;0;0;0;4;0
cumplir;0;0;0;0;3;0;1;0
cuerpo;4;0;0;0;0;0;0;0
cuatro;4;0;0;0;0;0;0;0
comunicar;0;0;0;0;0;0;4;0
comparación;0;0;0;0;0;0;4;0
comida;0;0;4;0;0;0;0;0
causa;1;0;0;0;1;0;2;0
cambista;4;0;0;0;0;0;0;0
cafarnaún;4;0;0;0;0;0;0;0
buey;4;0;0;0;0;0;0;0
bautizando;3;0;0;0;0;0;1;0
bastar;0;0;1;0;0;0;3;0
barro;4;0;0;0;0;0;0;0
amo;0;0;0;0;0;0;4;0
amará;0;0;0;0;4;0;0;0
amanecer;4;0;0;0;0;0;0;0
acabar;3;0;0;0;0;0;1;0
abundante;1;0;0;0;0;0;3;0
abrir;2;0;0;0;1;0;1;0
viento;1;0;0;0;0;0;2;0
viejo;2;0;0;0;0;0;1;0
vid;0;0;0;0;0;0;3;0
vender;3;0;0;0;0;0;0;0
tiemble;0;0;0;0;0;3;0;0
tercero;3;0;0;0;0;0;0;0
tarde;2;0;0;0;0;0;1;0
surgir;0;0;0;0;0;0;3;0
sudario;3;0;0;0;0;0;0;0
sorprender;1;0;0;0;0;0;2;0
soplar;1;0;0;0;0;0;2;0
siervo;0;0;0;0;0;0;3;0
señal;0;2;0;0;0;0;1;0
serpiente;0;0;0;0;0;0;3;0
segundo;2;0;0;0;0;0;1;0
sarmiento;1;0;0;0;0;0;2;0
samaría;3;0;0;0;0;0;0;0
samaritanos;2;0;0;0;0;0;1;0
rogar;0;0;0;0;1;0;2;0
retirar;3;0;0;0;0;0;0;0
recordar;0;0;0;0;0;0;3;0
recoger;3;0;0;0;0;0;0;0
príncipe;0;0;0;0;0;0;3;0
proceder;0;0;0;0;0;0;3;0
presentar;3;0;0;0;0;0;0;0
pregunta;2;0;0;0;0;1;0;0
plenitud;0;0;0;0;0;2;1;0
piscina;1;0;0;0;0;0;2;0
pierna;3;0;0;0;0;0;0;0
paráclito;0;0;0;0;0;0;3;0
parte;1;0;0;0;1;0;1;0
ocho;3;0;0;0;0;0;0;0
necesitar;1;0;0;0;0;0;2;0
monte;1;0;0;0;0;0;2;0
miedo;2;0;0;0;0;0;1;0
mal;1;0;1;0;1;0;0;0
lugar;2;0;0;0;0;0;1;0
linaje;0;0;0;0;0;0;3;0
lavar;1;0;0;0;0;0;2;0
juzgo;0;0;0;0;1;0;2;0
jacob;2;0;0;0;0;0;1;0
intentar;0;0;0;1;0;0;2;0
igual;1;0;0;0;1;0;1;0
hambre;0;0;0;0;0;0;3;0
habitar;0;0;2;0;0;0;1;0
fariseo;2;0;0;0;0;0;1;0
esclavo;0;0;0;0;0;0;2;1
envío;0;0;0;0;0;0;3;0
enterar;3;0;0;0;0;0;0;0
derecha;3;0;0;0;0;0;0;0
cuándo;0;0;0;0;0;0;3;0
conocierais;0;0;0;0;0;0;3;0
conoceríais;0;0;0;0;0;0;3;0
condena;0;0;1;0;0;0;1;1
conceder;0;0;0;0;1;0;2;0
comprender;1;0;0;0;0;0;2;0
cien;3;0;0;0;0;0;0;0
celebrar;3;0;0;0;0;0;0;0
buscáis;0;0;0;0;0;0;3;0
asomar;3;0;0;0;0;0;0;0
aprender;0;0;0;0;0;0;3;0
apodar;3;0;0;0;0;0;0;0
anunciar;2;0;0;0;0;0;1;0
además;0;0;0;0;1;0;2;0
adelantar;3;0;0;0;0;0;0;0
acaso;1;0;0;0;0;0;2;0
