"";"V1"
"1";7
"2";7
"3";7
"4";5
"5";5
"6";7
"7";5
"8";5
"9";5
"10";7
"11";5
"12";7
"13";7
"14";7
"15";7
"16";7
"17";7
"18";7
"19";7
"20";1
"21";7
"22";0
"23";7
"24";7
"25";1
"26";0
"27";7
"28";1
"29";1
"30";8
"31";7
"32";7
"33";3
"34";7
"35";7
"36";1
"37";7
"38";1
"39";1
"40";7
"41";7
"42";1
"43";1
"44";1
"45";7
"46";1
"47";1
"48";1
"49";1
"50";1
"51";1
"52";1
"53";7
"54";5
"55";1
"56";0
"57";1
"58";7
"59";1
"60";7
"61";1
"62";7
"63";5
"64";1
"65";0
"66";1
"67";7
"68";1
"69";7
"70";1
"71";0
"72";1
"73";7
"74";1
"75";7
"76";7
"77";5
"78";1
"79";7
"80";0
"81";7
"82";7
"83";1
"84";0
"85";7
"86";1
"87";5
"88";5
"89";5
"90";5
"91";5
"92";7
"93";5
"94";7
"95";5
"96";1
"97";5
"98";7
"99";5
"100";5
"101";5
"102";7
"103";5
"104";5
"105";5
"106";5
"107";5
"108";5
"109";7
"110";7
"111";1
"112";1
"113";7
"114";7
"115";5
"116";5
"117";3
"118";7
"119";7
"120";5
"121";3
"122";7
"123";7
"124";1
"125";7
"126";5
"127";7
"128";7
"129";5
"130";4
"131";1
"132";1
"133";7
"134";1
"135";1
"136";1
"137";1
"138";1
"139";1
"140";1
"141";7
"142";1
"143";1
"144";1
"145";1
"146";7
"147";5
"148";5
"149";1
"150";7
"151";1
"152";7
"153";1
"154";7
"155";1
"156";7
"157";1
"158";1
"159";1
"160";1
"161";1
"162";7
"163";3
"164";3
"165";3
"166";7
"167";1
"168";7
"169";1
"170";1
"171";1
"172";1
"173";1
"174";7
"175";1
"176";0
"177";1
"178";1
"179";7
"180";1
"181";7
"182";3
"183";7
"184";5
"185";1
"186";1
"187";1
"188";1
"189";1
"190";7
"191";7
"192";1
"193";7
"194";1
"195";7
"196";7
"197";1
"198";1
"199";1
"200";7
"201";1
"202";1
"203";1
"204";1
"205";1
"206";1
"207";1
"208";1
"209";5
"210";3
"211";1
"212";1
"213";1
"214";1
"215";1
"216";1
"217";1
"218";7
"219";7
"220";7
"221";5
"222";1
"223";3
"224";7
"225";7
"226";5
"227";7
"228";1
"229";7
"230";1
"231";5
"232";7
"233";7
"234";7
"235";7
"236";1
"237";7
"238";7
"239";5
"240";1
"241";3
"242";7
"243";7
"244";5
"245";5
"246";5
"247";7
"248";7
"249";7
"250";7
"251";7
"252";7
"253";1
"254";7
"255";1
"256";1
"257";1
"258";7
"259";1
"260";7
"261";1
"262";1
"263";0
"264";7
"265";1
"266";7
"267";7
"268";7
"269";7
"270";1
"271";7
"272";7
"273";1
"274";3
"275";7
"276";7
"277";7
"278";1
"279";7
"280";1
"281";1
"282";1
"283";1
"284";3
"285";1
"286";3
"287";5
"288";7
"289";1
"290";1
"291";7
"292";7
"293";7
"294";7
"295";7
"296";1
"297";7
"298";7
"299";7
"300";4
"301";7
"302";7
"303";1
"304";6
"305";5
"306";7
"307";7
"308";7
"309";7
"310";7
"311";7
"312";7
"313";7
"314";7
"315";7
"316";7
"317";5
"318";7
"319";5
"320";7
"321";7
"322";1
"323";5
"324";7
"325";7
"326";7
"327";7
"328";7
"329";7
"330";1
"331";5
"332";7
"333";7
"334";5
"335";7
"336";7
"337";5
"338";5
"339";1
"340";5
"341";1
"342";7
"343";5
"344";5
"345";7
"346";7
"347";7
"348";1
"349";5
"350";5
"351";7
"352";7
"353";7
"354";7
"355";6
"356";7
"357";7
"358";7
"359";1
"360";7
"361";6
"362";7
"363";7
"364";7
"365";7
"366";7
"367";1
"368";7
"369";7
"370";7
"371";7
"372";7
"373";7
"374";7
"375";5
"376";7
"377";5
"378";7
"379";7
"380";7
"381";1
"382";7
"383";7
"384";7
"385";7
"386";7
"387";5
"388";7
"389";5
"390";7
"391";7
"392";7
"393";1
"394";7
"395";7
"396";7
"397";7
"398";0
"399";7
"400";7
"401";7
"402";1
"403";5
"404";7
"405";1
"406";4
"407";7
"408";5
"409";7
"410";7
"411";7
"412";7
"413";4
"414";1
"415";7
"416";7
"417";7
"418";7
"419";5
"420";7
"421";1
"422";7
"423";7
"424";7
"425";7
"426";7
"427";7
"428";1
"429";7
"430";5
"431";6
"432";1
"433";7
"434";5
"435";5
"436";6
"437";4
"438";7
"439";5
"440";7
"441";7
"442";7
"443";4
"444";1
"445";7
"446";7
"447";7
"448";7
"449";7
"450";1
"451";7
"452";7
"453";7
"454";7
"455";1
"456";7
"457";7
"458";6
"459";1
"460";6
"461";7
"462";7
"463";6
"464";1
"465";7
"466";6
"467";7
"468";7
"469";7
"470";7
"471";1
"472";7
"473";7
"474";7
"475";7
"476";7
"477";7
"478";7
"479";1
"480";6
"481";7
"482";7
"483";7
"484";8
"485";8
"486";7
"487";7
"488";1
"489";7
"490";7
"491";7
"492";7
"493";7
"494";5
"495";7
"496";7
"497";7
"498";0
"499";7
"500";7
"501";7
"502";1
"503";7
"504";5
"505";7
"506";7
"507";5
"508";7
"509";7
"510";7
"511";7
"512";1
"513";7
"514";7
"515";7
"516";7
"517";7
"518";7
"519";7
"520";1
"521";1
"522";7
"523";1
"524";7
"525";7
"526";7
"527";1
"528";7
"529";7
"530";5
"531";1
"532";1
"533";7
"534";1
"535";1
"536";1
"537";1
"538";1
"539";7
"540";5
"541";1
"542";1
"543";1
"544";1
"545";1
"546";1
"547";1
"548";1
"549";7
"550";7
"551";7
"552";5
"553";5
"554";1
"555";1
"556";1
"557";1
"558";1
"559";1
"560";7
"561";1
"562";1
"563";7
"564";1
"565";1
"566";1
"567";1
"568";1
"569";1
"570";1
"571";1
"572";1
"573";7
"574";1
"575";1
"576";7
"577";1
"578";1
"579";1
"580";1
"581";1
"582";7
"583";1
"584";1
"585";1
"586";1
"587";1
"588";1
"589";1
"590";1
"591";1
"592";1
"593";1
"594";1
"595";7
"596";1
"597";1
"598";0
"599";1
"600";1
"601";1
"602";7
"603";1
"604";7
"605";1
"606";1
"607";1
"608";1
"609";7
"610";1
"611";8
"612";1
"613";1
"614";1
"615";1
"616";1
"617";7
"618";1
"619";8
"620";1
"621";1
"622";2
"623";1
"624";1
"625";2
"626";2
"627";0
"628";7
"629";7
"630";1
"631";7
"632";1
"633";1
"634";1
"635";1
"636";1
"637";1
"638";1
"639";1
"640";1
"641";1
"642";2
"643";1
"644";1
"645";2
"646";2
"647";0
"648";7
"649";7
"650";1
"651";1
"652";1
"653";1
"654";1
"655";1
"656";1
"657";1
"658";1
"659";1
"660";1
"661";7
"662";1
"663";1
"664";1
"665";1
"666";7
"667";1
"668";1
"669";1
"670";1
"671";1
"672";1
"673";1
"674";1
"675";1
"676";1
"677";1
"678";1
"679";7
"680";1
"681";1
"682";1
"683";1
"684";7
"685";1
"686";1
"687";5
"688";7
"689";5
"690";7
"691";1
"692";1
"693";7
"694";7
"695";1
"696";7
"697";1
"698";1
"699";1
"700";1
"701";1
"702";1
"703";7
"704";7
"705";1
"706";1
"707";7
"708";7
"709";7
"710";7
"711";7
"712";3
"713";4
"714";7
"715";7
"716";1
"717";7
"718";7
"719";7
"720";7
"721";1
"722";7
"723";7
"724";7
"725";7
"726";7
"727";5
"728";5
"729";5
"730";1
"731";7
"732";7
"733";7
"734";7
"735";1
"736";7
"737";7
"738";7
"739";7
"740";5
"741";5
"742";5
"743";1
"744";1
"745";1
"746";1
"747";1
"748";7
"749";7
"750";7
"751";1
"752";5
"753";6
"754";0
"755";1
"756";7
"757";7
"758";7
"759";7
"760";7
"761";7
"762";7
"763";7
"764";7
"765";1
"766";4
"767";7
"768";7
"769";7
"770";7
"771";7
"772";7
"773";1
"774";7
"775";1
"776";1
"777";1
"778";1
"779";7
"780";3
"781";1
"782";7
"783";7
"784";1
"785";7
"786";7
"787";7
"788";1
"789";1
"790";1
"791";1
"792";1
"793";3
"794";7
"795";1
"796";7
"797";7
"798";7
"799";7
"800";7
"801";7
"802";1
"803";7
"804";7
"805";7
"806";7
"807";7
"808";7
"809";7
"810";7
"811";7
"812";7
"813";1
"814";7
"815";1
"816";1
"817";7
"818";7
"819";1
"820";3
"821";2
"822";7
"823";1
"824";7
"825";7
"826";7
"827";7
"828";7
"829";1
"830";1
"831";7
"832";7
"833";1
"834";1
"835";1
"836";1
"837";1
"838";7
"839";1
"840";1
"841";1
"842";1
"843";1
"844";1
"845";1
"846";1
"847";1
"848";1
"849";1
"850";1
"851";1
"852";5
"853";1
"854";1
"855";7
"856";7
"857";7
"858";7
"859";7
"860";7
"861";7
"862";7
"863";7
"864";7
"865";3
"866";7
"867";7
"868";1
"869";7
"870";7
"871";7
"872";7
"873";7
"874";5
"875";5
"876";7
"877";7
"878";7
"879";7
"880";7
"881";7
"882";7
"883";7
"884";7
"885";7
"886";1
"887";1
"888";1
"889";1
"890";1
"891";3
"892";7
"893";3
"894";1
"895";1
"896";1
"897";1
"898";1
"899";1
"900";1
"901";1
"902";0
"903";1
"904";1
"905";7
"906";1
"907";1
"908";1
"909";1
"910";1
"911";1
"912";1
"913";1
"914";1
"915";1
"916";7
"917";7
"918";7
"919";7
"920";7
"921";7
"922";1
"923";1
"924";7
"925";7
"926";7
"927";7
"928";7
"929";7
"930";3
"931";7
"932";3
"933";3
"934";3
"935";7
"936";1
"937";3
"938";7
"939";3
"940";3
"941";3
"942";7
"943";1
"944";3
"945";7
"946";7
"947";7
"948";7
"949";7
"950";7
"951";1
"952";7
"953";1
"954";7
"955";3
"956";7
"957";7
"958";7
"959";7
"960";3
"961";3
"962";3
"963";3
"964";3
"965";1
"966";7
"967";3
"968";7
"969";7
"970";7
"971";7
"972";3
"973";3
"974";3
"975";3
"976";1
"977";3
"978";3
"979";3
"980";3
"981";3
"982";3
"983";3
"984";3
"985";3
"986";3
"987";3
"988";3
"989";3
"990";1
"991";3
"992";3
"993";3
"994";3
"995";3
"996";3
"997";3
"998";3
"999";1
"1000";1
"1001";7
"1002";1
"1003";7
"1004";3
"1005";7
"1006";7
"1007";7
"1008";7
"1009";1
"1010";1
"1011";7
"1012";7
"1013";1
"1014";1
"1015";1
"1016";1
"1017";7
"1018";7
"1019";1
"1020";7
"1021";7
"1022";7
"1023";1
"1024";1
"1025";7
"1026";7
"1027";7
"1028";7
"1029";1
"1030";2
"1031";7
"1032";7
"1033";1
"1034";7
"1035";1
"1036";1
"1037";1
"1038";1
"1039";1
"1040";7
"1041";7
"1042";1
"1043";1
"1044";1
"1045";1
"1046";1
"1047";1
"1048";1
"1049";1
"1050";7
"1051";1
"1052";1
"1053";5
"1054";7
"1055";7
"1056";7
"1057";7
"1058";7
"1059";7
"1060";7
"1061";1
"1062";1
"1063";1
"1064";8
"1065";7
"1066";7
"1067";7
"1068";8
"1069";1
"1070";7
"1071";7
"1072";7
"1073";7
"1074";7
"1075";1
"1076";7
"1077";7
"1078";7
"1079";8
"1080";7
"1081";7
"1082";7
"1083";5
"1084";7
"1085";7
"1086";7
"1087";7
"1088";7
"1089";7
"1090";7
"1091";1
"1092";7
"1093";7
"1094";7
"1095";7
"1096";7
"1097";7
"1098";5
"1099";7
"1100";1
"1101";1
"1102";7
"1103";1
"1104";1
"1105";7
"1106";7
"1107";7
"1108";7
"1109";5
"1110";1
"1111";7
"1112";1
"1113";1
"1114";7
"1115";0
"1116";7
"1117";1
"1118";1
"1119";1
"1120";1
"1121";1
"1122";1
"1123";7
"1124";7
"1125";1
"1126";1
"1127";1
"1128";7
"1129";7
"1130";7
"1131";7
"1132";7
"1133";1
"1134";7
"1135";1
"1136";7
"1137";7
"1138";7
"1139";7
"1140";7
"1141";1
"1142";1
"1143";1
"1144";7
"1145";7
"1146";7
"1147";1
"1148";7
"1149";7
"1150";1
"1151";7
"1152";7
"1153";7
"1154";7
"1155";1
"1156";1
"1157";8
"1158";8
