izan;2094;aux
ni;341;pro
gu;273;pro
zuek;179;pro
zu;127;pro
neu;101;pro
ari;76;aux
inor;71;pro
nor;54;pro
elkar;48;pro
zeu;44;pro
ezer;42;pro
zaitezte;38;aux
geu;33;pro
gaitu;25;aux
norbait;22;pro
nau;21;pro
zaituzte;19;aux
ezazue;19;aux
akikan;18;aux
zerbait;17;pro
dezata;17;aux
daiteu;16;aux
kristoria;15;pro
gaitezen;14;aux
ikan;13;aux
beraiek;13;pro
itzazue;12;aux
natzaizue;11;aux
diotsuet;11;pro_per
badakizue;11;aux
ukrenentzan;10;pro_per
egizue;10;aux
baitugu;10;aux
zaituztet;9;pro_per
nitu;9;aux
baitut;9;aux
izi;8;aux
gaituzte;8;aux
duten;8;aux
did;8;pro_per
zinetu;7;aux
zigun;7;aux
bazarete;7;aux
zedin;6;aux
zaitzatu;6;aux
testigu;6;aux
norbera;6;pro
nadin;6;aux
ezagut;6;pro_per
dezake;6;aux
dezada;6;aux
ukzkion;5;aux
ezakekan;5;aux
zid;4;aux
niregandik;4;pro
nauzue;4;aux
izkikan;4;aux
iokan;4;aux
iitakn;4;aux
ditzala;4;aux
dagokia;4;aux
bazaio;4;aux
zuten;3;aux
zaudetu;3;pro_per
zakan;3;aux
zaiteu;3;aux
nindun;3;aux
izaizkn;3;aux
guregandik;3;pro
daitezke;3;aux
baituzue;3;aux
baitiote;3;aux
baitakit;3;pro
baduzue;3;aux
zutenek;2;aux
zuk;2;pro
zizkida;2;aux
zidatu;2;aux
zeintzuk;2;pro
zaituda;2;aux
za;2;aux
uztenekan;2;aux
nintzaiek;2;aux
nazazue;2;aux
natzaio;2;aux
natzain;2;aux
nagusio;2;pro_per
jutenentz;2;pro_per
jizun;2;aux
izatozkn;2;pro
iezaiozue;2;aux
iezadazue;2;aux
idn;2;aux
egiozue;2;aux
dizkio;2;aux
dizkia;2;aux
ditudala;2;aux
dirau;2;aux
diezaia;2;aux
bezan;2;aux
bazaituzte;2;aux
baza;2;aux
baitituzue;2;aux
baitie;2;aux
badizuet;2;aux
zutenentzat;1;pro_per
zizuetu;1;aux
zirenentzat;1;pro_per
zintuztetu;1;aux
zidan;1;aux
zidal;1;aux
zertxobait;1;pro
zenidan;1;aux
zaituztetu;1;pro_per
zaituztegul;1;aux
zaitezke;1;aux
zaidal;1;aux
zabiltzate;1;aux
ukzkien;1;aux
uenentzakan;1;pro_per
ona;1;pro_per
nuela;1;aux
nornahi;1;pro
norbaitzu;1;pro
nerau;1;pro
nendin;1;aux
naukazue;1;aux
lezake;1;aux
jien;1;aux
jidan;1;aux
jakizue;1;aux
izkidakan;1;aux
izak;1;pro_per
iudenentzi;1;pro_per
iterri;1;aux
iezakan;1;aux
iezadazu;1;aux
idakan;1;aux
heura;1;pro
harkaitz;1;pro_per
gatzaizkio;1;aux
gaituzue;1;aux
etsaiek;1;pro
esadazue;1;aux
eramatzadan;1;aux
emaiozue;1;aux
egiezue;1;aux
edozer;1;pro
edonoren;1;pro_per
edbiltzi;1;aux
dizuegun;1;aux
dizkizud;1;aux
dizkigun;1;aux
diezad;1;aux
beren;1;pro_per
bazenute;1;aux
bazaizkio;1;aux
bazait;1;aux
banaute;1;aux
bakoitza;1;pro_per
baitzineta;1;pro_per
baitzarete;1;aux
baitzait;1;aux
baititut;1;aux
baititugu;1;aux
baitauzkate;1;aux
baikaitezke;1;aux
badituzue;1;aux
badituzte;1;aux
badiozue;1;aux
badiezue;1;aux
badaukazula;1;aux
aukatu;1;aux
atorkikan;1;aux
arkan;1;aux
aitukan;1;aux
agikan;1;aux