"";"";"";"";"geu";""
"1";"geu";"-0.190027571095494";"-0.296232624109285";"0.917486040555859";"16"
"2";"nau";"-0.200090919604534";"-0.237530115491734";"0.912369117091398";"18"
"3";"zuek";"0.0495792691224191";"0.20389112846264";"0.908600696922625";"20"
"4";"natzaizue";"-0.225249290877133";"-0.0907738439478579";"0.899087283261262";"22"
"5";"gaituzte";"-0.225249290877133";"-0.0907738439478579";"0.878582644107645";"25"
"6";"zaitezte";"-0.0365928146463626";"-0.121417902693893";"0.862086569545321";"27"
"7";"ari";"0.0405562596252187";"-0.0312738413408559";"0.859352617658172";"28"
"8";"zinetu";"-0.225249290877133";"-0.0907738439478579";"0.858114950249801";"29"
"9";"nadin";"-0.225249290877133";"-0.0907738439478579";"0.858114950249801";"30"
"10";"dezada";"-0.225249290877133";"-0.0907738439478579";"0.858114950249801";"31"
"11";"elkar";"0.0283128872110708";"0.00757564221825871";"0.855454888954196";"33"
"12";"zaituztet";"0.53878752203788";"0.534137302613824";"0.85179730467274";"37"
"13";"gaitezen";"-0.0294506987900723";"0.032192121628875";"0.848121247743398";"38"
"14";"ukzkion";"-0.225249290877133";"-0.0907738439478579";"0.847881103320878";"39"
"15";"ezakekan";"-0.225249290877133";"-0.0907738439478579";"0.847881103320878";"40"
"16";"baitut";"0.119967521982751";"0.44463799001102";"0.84030731768756";"41"
"17";"nauzue";"-0.225249290877133";"-0.0907738439478579";"0.837665729039842";"42"
"18";"dagokia";"-0.225249290877133";"-0.0907738439478579";"0.837665729039842";"43"
"19";"badakizue";"0.387680566232186";"0.505183547764723";"0.8339896721105";"44"
"20";"niregandik";"0.61752926264818";"0.728667569656941";"0.832179352617658";"45"
"21";"izkikan";"0.61752926264818";"0.728667569656941";"0.832179352617658";"46"
"22";"did";"-0.192228928581846";"-0.283391450349196";"0.831200302279693";"48"
"23";"zaudetu";"-0.225249290877133";"-0.0907738439478579";"0.827450354758806";"49"
"24";"zakan";"-0.225249290877133";"-0.0907738439478579";"0.827450354758806";"50"
"25";"guregandik";"-0.225249290877133";"-0.0907738439478579";"0.827450354758806";"51"
"26";"daitezke";"-0.225249290877133";"-0.0907738439478579";"0.827450354758806";"52"
"27";"baitakit";"-0.225249290877133";"-0.0907738439478579";"0.827450354758806";"53"
"28";"baduzue";"-0.225249290877133";"-0.0907738439478579";"0.827450354758806";"54"
"29";"dezake";"-0.0931678416959863";"-0.861244269553209";"0.826360468533524";"55"
"30";"zerbait";"-0.172416711204674";"-0.398962014189998";"0.826231159998321";"56"
"31";"duten";"-0.187511733968234";"-0.310908251263672";"0.822425794533776";"57"
"32";"akikan";"0.035413415006907";"-0.336714877371986";"0.815683278055334";"58"
"33";"ezazue";"0.199847869235027";"0.139782710804326";"0.813909903858264";"59"
"34";"kristoria";"0.0279395013007352";"-0.386923169732428";"0.813909903858264";"60"
"35";"beraiek";"0.0543874100816013";"0.0428280639912571";"0.813226415886477";"61"
"36";"daiteu";"0.224232604336367";"0.346261576641368";"0.812746127041438";"62"
"37";"dezata";"0.196139985885524";"0.318946862854542";"0.811286787858432";"63"
"38";"nor";"0.245627678858414";"0.29028729057368";"0.811120534027457";"64"
"39";"ikan";"-0.14396839907335";"-0.564909490474228";"0.804378017549016";"65"
"40";"zedin";"-0.137194991423035";"-0.604420794351425";"0.803121877492758";"66"
"41";"testigu";"-0.137194991423035";"-0.604420794351425";"0.803121877492758";"67"
"42";"ezagut";"-0.137194991423035";"-0.604420794351425";"0.803121877492758";"68"
"43";"norbait";"0.138278420369222";"0.0829086363729916";"0.801847264788614";"69"
"44";"baitugu";"-0.146000421368445";"-0.553056099311068";"0.801514757126664";"70"
"45";"zid";"-0.15920856628656";"-0.476009056750533";"0.800461816197154";"71"
"46";"iitakn";"-0.15920856628656";"-0.476009056750533";"0.800461816197154";"72"
"47";"iokan";"-0.137194991423035";"-0.604420794351425";"0.8";"73"
"48";"baituzue";"-0.137194991423035";"-0.604420794351425";"0.8";"74"
"49";"baitiote";"-0.137194991423035";"-0.604420794351425";"0.8";"75"
