"";"V1"
"1";2
"2";6
"3";5
"4";5
"5";6
"6";5
"7";2
"8";2
"9";3
"10";5
"11";5
"12";5
"13";5
"14";5
"15";5
"16";5
"17";5
"18";6
"19";5
"20";5
"21";6
"22";5
"23";5
"24";5
"25";5
"26";5
"27";5
"28";5
"29";0
"30";5
"31";5
"32";5
"33";5
"34";5
"35";5
"36";5
"37";5
"38";1
"39";5
"40";5
"41";5
"42";5
"43";5
"44";5
"45";5
"46";5
"47";5
"48";5
"49";5
"50";5
"51";6
"52";5
"53";5
"54";5
"55";6
"56";5
"57";5
"58";6
"59";6
"60";6
"61";5
"62";5
"63";5
"64";5
"65";6
"66";5
"67";5
"68";5
"69";5
"70";5
"71";5
"72";6
"73";6
"74";6
"75";6
"76";6
"77";6
"78";6
"79";6
"80";6
"81";6
"82";5
"83";4
"84";5
"85";5
"86";2
"87";5
"88";5
"89";6
"90";5
"91";5
"92";5
"93";5
"94";5
"95";5
"96";5
"97";5
"98";5
"99";6
"100";5
"101";5
"102";5
"103";6
"104";5
"105";5
"106";5
"107";6
"108";6
"109";5
"110";6
"111";5
"112";5
"113";6
"114";5
"115";6
"116";6
"117";5
"118";6
"119";6
"120";6
"121";6
"122";6
"123";6
"124";6
"125";5
"126";6
"127";6
"128";5
"129";5
"130";6
"131";6
"132";6
"133";5
"134";6
"135";6
"136";6
"137";6
"138";5
"139";6
"140";6
"141";6
"142";6
"143";6
"144";6
"145";5
"146";6
"147";6
"148";6
"149";6
"150";6
"151";6
"152";6
"153";6
"154";6
"155";6
"156";6
"157";5
"158";6
"159";6
"160";6
"161";6
"162";6
"163";6
"164";6
"165";5
"166";5
"167";5
"168";5
"169";6
"170";5
"171";6
"172";5
"173";6
"174";6
"175";6
"176";5
"177";5
"178";6
"179";6
"180";6
"181";6
"182";6
"183";5
"184";0
"185";6
"186";6
"187";6
"188";6
"189";6
"190";6
"191";6
"192";6
"193";6
"194";6
"195";6
"196";6
"197";5
"198";6
"199";6
"200";6
"201";5
"202";6
"203";6
"204";6
"205";6
"206";5
"207";6
"208";6
"209";6
"210";5
"211";5
"212";6
"213";6
"214";6
"215";6
"216";6
"217";6
"218";5
"219";5
"220";5
"221";6
"222";6
"223";5
"224";6
"225";6
"226";5
"227";5
"228";4
"229";4
"230";4
"231";4
"232";6
"233";6
"234";6
"235";6
"236";5
"237";6
"238";6
"239";6
"240";6
"241";6
"242";6
"243";6
"244";6
"245";6
"246";5
"247";6
"248";6
"249";6
"250";0
"251";5
"252";5
"253";6
"254";5
"255";5
"256";5
"257";6
"258";5
"259";6
"260";6
"261";6
"262";6
"263";6
"264";0
"265";6
"266";6
"267";5
"268";5
"269";6
"270";5
"271";5
"272";5
"273";5
"274";0
"275";5
"276";5
"277";5
"278";5
"279";6
"280";6
"281";5
"282";6
"283";5
"284";6
"285";6
"286";6
"287";6
"288";6
"289";6
"290";6
"291";5
"292";5
"293";5
"294";5
"295";0
"296";5
"297";5
"298";6
"299";5
"300";5
"301";5
"302";5
"303";5
"304";5
"305";6
"306";6
"307";6
"308";5
"309";5
"310";6
"311";6
"312";6
"313";5
"314";5
"315";5
"316";5
"317";5
"318";6
"319";5
"320";5
"321";6
"322";6
"323";5
"324";3
"325";5
"326";6
"327";6
"328";6
"329";2
"330";5
"331";5
"332";5
"333";6
"334";5
"335";5
"336";6
"337";2
"338";5
"339";6
"340";5
"341";5
"342";5
"343";5
"344";5
"345";5
"346";5
"347";5
"348";5
"349";5
"350";6
"351";6
"352";6
"353";5
"354";5
"355";5
"356";6
"357";5
"358";5
"359";5
"360";6
"361";0
"362";5
"363";5
"364";5
"365";5
"366";6
"367";6
"368";6
"369";6
"370";6
"371";6
"372";6
"373";5
"374";5
"375";6
"376";6
"377";5
"378";5
"379";5
"380";5
"381";5
"382";5
"383";5
"384";5
"385";5
"386";5
"387";5
"388";5
"389";5
"390";5
"391";5
"392";5
"393";5
"394";0
"395";5
"396";6
"397";5
"398";6
"399";6
"400";6
"401";6
"402";6
"403";6
"404";6
"405";6
"406";6
"407";5
"408";5
"409";6
"410";6
"411";5
"412";5
"413";5
"414";5
"415";5
"416";6
"417";6
"418";6
"419";6
"420";5
"421";6
"422";6
"423";6
"424";5
"425";5
"426";6
"427";5
"428";6
"429";2
"430";4
"431";2
"432";4
"433";2
"434";4
"435";4
"436";5
"437";5
"438";5
"439";5
"440";4
"441";5
"442";4
"443";5
"444";5
"445";6
"446";6
"447";2
"448";5
"449";5
"450";5
"451";5
"452";5
"453";5
"454";6
"455";5
"456";0
"457";5
"458";6
"459";5
"460";5
"461";5
"462";5
"463";5
"464";5
"465";5
"466";6
"467";6
"468";5
"469";5
"470";5
"471";5
"472";5
"473";5
"474";5
"475";5
"476";5
"477";5
"478";5
"479";1
"480";5
"481";5
"482";5
"483";5
"484";5
"485";5
"486";5
"487";6
"488";4
"489";5
"490";5
"491";3
"492";4
"493";5
"494";5
"495";5
"496";5
"497";5
"498";5
"499";5
"500";2
"501";5
"502";5
"503";5
"504";6
"505";2
"506";4
"507";2
"508";4
"509";4
"510";6
"511";4
"512";5
"513";5
"514";5
"515";5
"516";1
"517";5
"518";5
"519";5
"520";5
"521";5
"522";5
"523";6
"524";5
"525";5
"526";4
"527";5
"528";5
"529";5
"530";5
"531";6
"532";5
"533";6
"534";6
"535";6
"536";6
"537";5
"538";6
"539";6
"540";6
"541";5
"542";5
"543";5
"544";5
"545";5
"546";6
"547";5
"548";6
"549";6
"550";5
"551";5
"552";5
"553";4
"554";5
"555";5
"556";5
"557";5
"558";5
"559";4
"560";6
"561";1
"562";5
"563";5
"564";6
"565";1
"566";5
"567";5
"568";5
"569";6
"570";6
"571";6
"572";6
"573";6
"574";2
"575";5
"576";5
"577";5
"578";5
"579";5
"580";5
"581";6
"582";6
"583";5
"584";5
"585";5
"586";5
"587";6
"588";5
"589";5
"590";5
"591";2
"592";5
"593";5
"594";5
"595";5
"596";5
"597";5
"598";5
"599";5
"600";5
"601";5
"602";2
"603";4
"604";2
"605";2
"606";5
"607";2
"608";2
"609";2
"610";5
"611";2
"612";6
"613";2
"614";2
"615";2
"616";2
"617";2
"618";5
"619";2
"620";2
"621";2
"622";0
"623";2
"624";5
"625";5
"626";5
"627";5
"628";5
"629";3
"630";2
"631";2
"632";2
"633";2
"634";5
"635";5
"636";5
"637";6
"638";2
"639";6
"640";3
"641";5
"642";5
"643";5
"644";5
"645";6
"646";5
"647";5
"648";5
"649";5
"650";6
"651";5
"652";5
"653";5
"654";6
"655";6
"656";6
"657";2
"658";5
"659";6
"660";5
"661";6
"662";5
"663";5
"664";5
"665";5
"666";5
"667";6
"668";5
"669";6
"670";0
"671";5
"672";5
"673";5
"674";6
"675";5
"676";5
"677";6
"678";6
"679";5
"680";5
"681";5
"682";5
"683";0
"684";5
"685";5
"686";5
"687";5
"688";5
"689";6
"690";5
"691";5
"692";5
"693";5
"694";6
"695";5
"696";5
"697";5
"698";5
"699";0
"700";5
"701";5
"702";5
"703";5
"704";5
"705";5
"706";5
"707";0
"708";5
"709";5
"710";5
"711";6
"712";5
"713";2
"714";2
"715";5
"716";5
"717";5
"718";5
"719";5
"720";5
"721";5
"722";5
"723";5
"724";5
"725";6
"726";6
"727";1
"728";5
"729";6
"730";5
"731";5
"732";5
"733";5
"734";5
"735";3
"736";5
"737";2
"738";6
"739";5
"740";5
"741";5
"742";5
"743";5
"744";5
"745";5
"746";6
"747";5
"748";5
"749";5
"750";5
"751";5
"752";5
"753";5
"754";2
"755";5
"756";5
"757";1
"758";5
"759";5
"760";5
"761";6
"762";5
"763";5
"764";6
"765";2
"766";2
"767";5
"768";5
"769";5
"770";5
"771";5
"772";5
"773";4
"774";5
"775";5
"776";5
"777";5
"778";6
"779";6
"780";5
"781";6
"782";6
"783";2
"784";5
"785";6
"786";2
"787";5
"788";4
"789";5
"790";5
"791";5
"792";5
"793";5
"794";2
"795";2
"796";5
"797";5
"798";5
"799";5
"800";5
"801";5
"802";5
"803";0
"804";6
"805";6
"806";0
"807";5
"808";6
"809";5
"810";6
"811";6
"812";6
"813";6
"814";6
"815";6
"816";6
"817";6
"818";6
"819";6
"820";6
"821";5
"822";4
"823";4
"824";4
"825";5
"826";5
"827";6
"828";5
"829";5
"830";5
"831";5
"832";4
"833";4
"834";4
"835";4
"836";6
"837";4
"838";4
"839";4
"840";4
"841";2
"842";6
"843";6
"844";6
"845";2
"846";2
"847";5
"848";2
"849";0
"850";6
"851";0
"852";6
"853";5
"854";6
"855";5
"856";6
"857";6
"858";6
"859";5
"860";6
"861";5
"862";5
"863";6
"864";6
"865";5
"866";5
"867";6
"868";5
"869";5
"870";5
"871";5
"872";6
"873";5
"874";5
"875";5
"876";4
"877";5
"878";5
"879";5
"880";5
"881";5
"882";4
"883";6
"884";6
"885";5
"886";5
"887";5
"888";5
"889";5
"890";6
"891";5
"892";5
"893";5
"894";6
"895";5
"896";5
"897";6
"898";5
"899";5
"900";5
"901";5
"902";5
"903";5
"904";5
"905";5
"906";5
"907";5
"908";5
"909";5
"910";5
"911";6
"912";5
"913";5
"914";5
"915";5
"916";6
"917";0
"918";5
"919";6
"920";6
"921";5
"922";5
"923";5
"924";0
"925";5
"926";5
"927";5
"928";5
"929";5
"930";5
"931";6
"932";5
"933";5
"934";5
"935";5
"936";5
"937";6
"938";5
"939";6
"940";5
"941";6
"942";0
"943";5
"944";5
"945";5
"946";5
"947";5
"948";5
"949";5
"950";5
"951";5
"952";5
"953";6
"954";5
"955";5
"956";6
"957";5
"958";6
"959";6
"960";6
"961";6
"962";6
"963";5
"964";5
"965";5
"966";5
"967";5
"968";5
"969";5
"970";6
"971";6
"972";6
"973";6
"974";5
"975";5
"976";5
"977";5
"978";5
"979";5
"980";5
"981";0
"982";0
"983";2
"984";5
"985";5
"986";5
"987";5
"988";5
"989";5
"990";5
"991";5
"992";5
"993";2
"994";5
"995";6
"996";5
"997";5
"998";5
"999";5
"1000";5
"1001";4
"1002";4
"1003";5
"1004";4
"1005";4
"1006";5
"1007";5
"1008";4
"1009";5
"1010";4
"1011";4
"1012";2
"1013";5
"1014";5
"1015";5
"1016";5
"1017";2
"1018";5
"1019";5
"1020";2
"1021";5
"1022";5
"1023";5
"1024";0
"1025";6
"1026";6
"1027";5
"1028";5
"1029";5
"1030";5
"1031";5
"1032";6
"1033";5
"1034";5
"1035";2
"1036";2
"1037";5
"1038";5
"1039";5
"1040";5
"1041";5
"1042";6
"1043";6
"1044";5
"1045";5
"1046";6
"1047";5
"1048";5
"1049";5
"1050";5
"1051";6
"1052";0
"1053";5
"1054";6
"1055";6
"1056";6
"1057";6
"1058";6
"1059";6
"1060";6
"1061";6
"1062";6
"1063";6
"1064";6
"1065";6
"1066";2
"1067";2
"1068";5
"1069";6
"1070";6
"1071";6
"1072";6
"1073";6
"1074";2
"1075";5
"1076";0
"1077";5
"1078";0
"1079";0
"1080";5
"1081";5
"1082";5
"1083";5
"1084";5
"1085";5
"1086";5
"1087";0
"1088";5
"1089";5
"1090";5
"1091";0
"1092";2
"1093";0
"1094";5
"1095";0
"1096";5
"1097";5
"1098";5
"1099";5
"1100";5
"1101";5
"1102";5
"1103";0
"1104";2
"1105";0
"1106";5
"1107";5
"1108";5
"1109";5
"1110";5
"1111";0
"1112";2
"1113";5
"1114";4
"1115";5
"1116";6
"1117";6
"1118";0
"1119";5
"1120";0
"1121";5
"1122";5
"1123";6
"1124";0
"1125";2
"1126";0
"1127";0
"1128";0
"1129";5
"1130";6
"1131";5
"1132";5
"1133";2
"1134";6
"1135";2
"1136";5
"1137";5
"1138";5
"1139";5
"1140";0
"1141";5
"1142";5
"1143";5
"1144";2
"1145";6
"1146";6
"1147";5
"1148";5
"1149";6
"1150";5
"1151";5
"1152";5
"1153";5
"1154";5
"1155";6
"1156";5
"1157";6
"1158";6
"1159";6
"1160";6
"1161";6
"1162";6
"1163";6
"1164";6
"1165";5
"1166";6
"1167";6
"1168";6
"1169";6
"1170";3
"1171";5
"1172";5
"1173";6
"1174";5
"1175";6
"1176";5
"1177";5
"1178";6
"1179";6
"1180";5
"1181";5
"1182";5
"1183";6
"1184";5
"1185";5
"1186";6
"1187";5
"1188";5
"1189";5
"1190";5
"1191";4
"1192";5
"1193";6
"1194";6
"1195";4
"1196";6
"1197";6
"1198";6
"1199";0
"1200";6
"1201";6
"1202";6
"1203";0
"1204";0
"1205";5
"1206";5
"1207";0
"1208";5
"1209";0
"1210";5
"1211";2
"1212";6
"1213";6
"1214";5
"1215";6
"1216";5
"1217";5
"1218";6
"1219";5
"1220";5
"1221";2
"1222";5
"1223";5
"1224";5
"1225";5
"1226";2
"1227";6
"1228";5
"1229";5
"1230";5
"1231";5
"1232";5
"1233";5
"1234";5
"1235";0
"1236";5
"1237";5
"1238";5
"1239";2
"1240";5
"1241";5
"1242";5
"1243";2
"1244";2
"1245";2
"1246";0
"1247";2
"1248";5
"1249";3
"1250";2
"1251";2
"1252";3
"1253";5
"1254";5
"1255";5
"1256";5
"1257";5
"1258";5
"1259";2
"1260";5
"1261";5
"1262";6
"1263";5
"1264";5
"1265";4
"1266";5
"1267";1
"1268";5
"1269";5
"1270";2
"1271";5
"1272";5
"1273";5
"1274";2
"1275";5
"1276";5
"1277";5
"1278";2
"1279";6
"1280";6
"1281";5
"1282";6
"1283";6
"1284";5
"1285";5
"1286";5
"1287";5
"1288";6
"1289";5
"1290";5
"1291";5
"1292";5
"1293";5
"1294";5
"1295";5
"1296";5
"1297";6
"1298";5
"1299";6
"1300";6
"1301";5
"1302";5
"1303";2
"1304";5
"1305";5
"1306";5
"1307";5
"1308";5
"1309";5
"1310";5
"1311";5
"1312";5
"1313";5
"1314";5
"1315";5
"1316";5
"1317";5
"1318";5
"1319";6
"1320";6
"1321";6
"1322";6
"1323";5
"1324";5
"1325";5
"1326";6
"1327";6
"1328";6
"1329";6
"1330";5
"1331";5
"1332";5
"1333";5
"1334";5
"1335";5
"1336";5
"1337";5
"1338";5
"1339";6
"1340";5
"1341";5
"1342";5
"1343";5
"1344";5
"1345";5
"1346";5
"1347";6
"1348";5
"1349";6
"1350";5
"1351";5
"1352";5
"1353";6
"1354";5
"1355";6
"1356";5
"1357";5
"1358";5
"1359";5
"1360";5
"1361";5
"1362";5
"1363";5
"1364";5
"1365";5
"1366";5
"1367";5
"1368";5
"1369";5
"1370";5
"1371";6
"1372";6
"1373";5
"1374";5
"1375";5
"1376";5
"1377";5
"1378";5
"1379";5
"1380";6
"1381";5
"1382";2
"1383";1
"1384";5
"1385";5
"1386";5
"1387";5
"1388";5
"1389";5
"1390";5
"1391";5
"1392";5
"1393";5
"1394";5
"1395";5
"1396";5
"1397";5
"1398";5
"1399";5
"1400";6
"1401";5
"1402";5
"1403";6
"1404";6
"1405";6
"1406";5
"1407";0
"1408";5
"1409";5
"1410";6
"1411";5
"1412";5
"1413";5
"1414";5
"1415";5
"1416";6
"1417";5
"1418";5
"1419";5
"1420";5
"1421";5
"1422";5
"1423";5
"1424";5
"1425";5
"1426";5
"1427";5
"1428";5
"1429";5
"1430";5
"1431";5
"1432";5
"1433";5
"1434";5
"1435";5
"1436";5
"1437";5
"1438";5
"1439";2
"1440";5
"1441";5
"1442";5
"1443";5
"1444";5
"1445";5
"1446";5
"1447";5
"1448";2
"1449";5
"1450";5
"1451";5
"1452";5
"1453";5
"1454";6
"1455";5
"1456";5
"1457";5
"1458";6
"1459";2
"1460";5
"1461";5
"1462";2
"1463";5
"1464";6
"1465";5
"1466";2
"1467";5
"1468";2
"1469";2
"1470";2
"1471";5
"1472";5
"1473";6
"1474";5
"1475";5
"1476";5
"1477";2
"1478";5
"1479";5
"1480";5
"1481";6
"1482";5
"1483";5
"1484";5
"1485";5
"1486";5
"1487";5
"1488";5
"1489";5
"1490";5
"1491";5
"1492";5
"1493";5
"1494";5
"1495";5
"1496";0
"1497";5
"1498";2
"1499";5
"1500";5
"1501";5
"1502";0
"1503";5
"1504";5
"1505";5
"1506";5
"1507";5
"1508";5
"1509";5
"1510";5
"1511";5
"1512";5
"1513";5
"1514";5
"1515";5
"1516";5
"1517";6
"1518";5
"1519";4
"1520";5
"1521";5
"1522";5
"1523";5
"1524";5
"1525";5
"1526";2
"1527";2
"1528";1
"1529";0
"1530";6
"1531";5
"1532";0
"1533";5
"1534";5
"1535";5
"1536";5
"1537";5
"1538";5
"1539";5
"1540";5
"1541";5
"1542";5
"1543";0
"1544";5
"1545";5
"1546";5
"1547";5
"1548";5
"1549";5
"1550";5
"1551";5
"1552";5
"1553";5
"1554";5
"1555";5
"1556";5
"1557";5
"1558";5
"1559";5
"1560";5
"1561";5
"1562";5
"1563";5
"1564";5
"1565";5
"1566";5
"1567";6
"1568";5
"1569";5
"1570";5
"1571";0
"1572";5
"1573";5
"1574";5
"1575";6
"1576";2
"1577";0
"1578";5
"1579";5
"1580";5
"1581";2
"1582";0
"1583";2
"1584";5
"1585";2
"1586";5
"1587";6
"1588";5
"1589";5
"1590";5
"1591";5
"1592";5
"1593";5
"1594";1
"1595";6
"1596";5
"1597";5
"1598";0
"1599";0
"1600";0
"1601";5
"1602";5
"1603";1
"1604";5
"1605";6
"1606";5
"1607";5
"1608";5
"1609";6
"1610";5
"1611";0
"1612";5
"1613";5
"1614";5
"1615";5
"1616";5
"1617";0
"1618";3
"1619";2
"1620";3
"1621";5
"1622";5
"1623";5
"1624";5
"1625";5
"1626";5
"1627";5
"1628";5
"1629";5
"1630";5
"1631";5
"1632";5
"1633";5
"1634";5
"1635";5
"1636";5
"1637";5
"1638";2
"1639";5
"1640";5
"1641";2
"1642";5
"1643";6
"1644";2
"1645";5
"1646";5
"1647";2
"1648";2
"1649";6
"1650";5
"1651";6
"1652";5
"1653";5
"1654";5
"1655";5
"1656";1
"1657";5
"1658";5
"1659";5
"1660";5
"1661";5
"1662";6
"1663";5
"1664";6
"1665";6
"1666";6
"1667";6
"1668";6
"1669";6
"1670";5
"1671";6
"1672";6
"1673";5
"1674";5
"1675";6
"1676";0
"1677";6
"1678";5
"1679";6
"1680";5
"1681";5
"1682";6
"1683";6
"1684";6
"1685";5
"1686";6
"1687";6
"1688";6
"1689";6
"1690";6
"1691";6
"1692";6
"1693";6
"1694";5
"1695";6
"1696";6
"1697";6
"1698";5
"1699";6
"1700";6
"1701";6
"1702";5
"1703";5
"1704";6
"1705";6
"1706";5
"1707";6
"1708";6
"1709";5
"1710";6
"1711";6
"1712";6
"1713";5
"1714";6
"1715";5
"1716";6
"1717";5
"1718";6
"1719";6
"1720";6
"1721";3
"1722";6
"1723";5
"1724";5
"1725";5
"1726";2
"1727";5
"1728";6
"1729";5
"1730";5
"1731";5
"1732";5
"1733";5
"1734";5
"1735";5
"1736";5
"1737";0
"1738";5
"1739";5
"1740";5
"1741";5
"1742";6
"1743";2
"1744";5
"1745";5
"1746";5
"1747";6
"1748";6
"1749";6
"1750";6
"1751";5
"1752";4
"1753";5
"1754";6
"1755";5
"1756";5
"1757";6
"1758";6
"1759";4
"1760";5
"1761";2
"1762";6
"1763";5
"1764";5
"1765";6
"1766";2
"1767";6
"1768";2
"1769";6
"1770";5
"1771";2
"1772";5
"1773";5
"1774";6
"1775";5
"1776";3
"1777";5
"1778";5
"1779";5
"1780";6
"1781";5
"1782";5
"1783";5
"1784";6
"1785";4
"1786";5
"1787";5
"1788";5
"1789";6
"1790";4
"1791";5
"1792";4
"1793";5
"1794";0
"1795";0
"1796";5
"1797";6
"1798";5
"1799";1
"1800";6
"1801";5
"1802";6
"1803";5
"1804";6
"1805";3
"1806";5
"1807";0
"1808";5
"1809";5
"1810";6
"1811";5
"1812";5
"1813";5
"1814";5
"1815";2
"1816";5
"1817";5
"1818";5
"1819";5
"1820";5
"1821";2
"1822";6
"1823";6
"1824";6
"1825";6
"1826";0
"1827";5
"1828";6
"1829";5
"1830";3
"1831";5
"1832";3
"1833";5
"1834";5
"1835";5
"1836";6
"1837";5
"1838";5
"1839";5
"1840";5
"1841";5
"1842";6
"1843";5
"1844";5
"1845";6
"1846";6
"1847";5
"1848";6
"1849";5
"1850";5
"1851";5
"1852";5
"1853";6
"1854";6
"1855";6
"1856";5
"1857";3
"1858";6
"1859";6
"1860";6
"1861";5
"1862";5
"1863";6
"1864";6
"1865";5
"1866";5
"1867";5
"1868";5
"1869";5
"1870";5
"1871";6
"1872";5
"1873";6
"1874";5
"1875";5
"1876";5
"1877";5
"1878";5
"1879";5
"1880";5
"1881";5
"1882";5
"1883";5
"1884";5
"1885";5
"1886";5
"1887";5
"1888";5
"1889";6
"1890";6
"1891";5
"1892";5
"1893";5
"1894";5
"1895";5
"1896";5
"1897";5
"1898";5
"1899";5
"1900";2
"1901";6
"1902";6
"1903";5
"1904";5
"1905";5
"1906";5
"1907";5
"1908";5
"1909";4
"1910";6
"1911";5
"1912";5
"1913";5
"1914";5
"1915";4
"1916";6
"1917";1
"1918";6
"1919";6
"1920";5
"1921";5
"1922";0
"1923";0
"1924";5
"1925";1
"1926";5
"1927";5
"1928";5
"1929";5
"1930";5
"1931";5
"1932";5
"1933";5
"1934";0
"1935";5
"1936";0
"1937";5
"1938";5
"1939";5
"1940";4
"1941";4
"1942";4
"1943";5
"1944";6
"1945";4
"1946";4
"1947";5
"1948";6
"1949";4
"1950";5
"1951";4
"1952";4
"1953";6
"1954";6
"1955";6
"1956";5
"1957";6
"1958";6
"1959";5
"1960";5
"1961";6
"1962";5
"1963";5
"1964";5
"1965";5
"1966";5
"1967";5
"1968";5
"1969";5
"1970";5
"1971";5
"1972";5
"1973";5
"1974";5
"1975";5
"1976";2
"1977";5
"1978";5
"1979";3
"1980";2
"1981";3
"1982";5
"1983";5
"1984";5
"1985";2
"1986";5
"1987";5
"1988";5
"1989";5
"1990";5
"1991";5
"1992";5
"1993";5
"1994";5
"1995";5
"1996";5
"1997";0
"1998";5
"1999";5
"2000";5
"2001";5
"2002";6
"2003";5
"2004";6
"2005";0
"2006";5
"2007";5
"2008";5
"2009";5
"2010";5
"2011";5
"2012";6
"2013";5
"2014";5
"2015";5
"2016";4
"2017";6
"2018";5
"2019";5
"2020";5
"2021";5
"2022";5
"2023";5
"2024";5
"2025";5
"2026";5
"2027";5
"2028";5
"2029";5
"2030";6
"2031";5
"2032";5
"2033";5
"2034";2
"2035";2
"2036";5
"2037";5
"2038";5
"2039";5
"2040";5
"2041";5
"2042";5
"2043";0
"2044";0
"2045";5
"2046";5
"2047";5
"2048";6
"2049";6
"2050";6
"2051";6
"2052";6
"2053";5
"2054";5
"2055";6
"2056";5
"2057";5
"2058";6
"2059";5
"2060";5
"2061";6
"2062";6
"2063";5
"2064";5
"2065";6
"2066";5
"2067";5
"2068";5
"2069";5
"2070";5
"2071";5
"2072";5
"2073";5
"2074";2
"2075";6
"2076";5
"2077";5
"2078";5
"2079";5
"2080";5
"2081";5
"2082";5
"2083";5
"2084";5
"2085";5
"2086";5
"2087";5
"2088";6
"2089";5
"2090";2
"2091";2
"2092";2
"2093";5
"2094";5
"2095";5
"2096";5
"2097";5
"2098";3
"2099";2
"2100";2
"2101";2
"2102";3
"2103";2
"2104";3
"2105";5
"2106";5
"2107";5
"2108";2
"2109";5
"2110";5
"2111";5
"2112";5
"2113";5
"2114";5
"2115";6
"2116";5
"2117";5
"2118";5
"2119";5
"2120";5
"2121";5
"2122";5
"2123";5
"2124";5
"2125";5
"2126";5
"2127";5
"2128";5
"2129";5
"2130";5
"2131";1
"2132";5
"2133";5
"2134";5
"2135";1
"2136";6
"2137";5
"2138";5
"2139";6
"2140";6
"2141";6
"2142";6
"2143";6
"2144";6
"2145";5
"2146";1
"2147";5
"2148";5
"2149";0
"2150";6
"2151";6
"2152";6
"2153";5
"2154";5
"2155";5
"2156";6
"2157";5
"2158";5
"2159";5
"2160";0
"2161";5
"2162";5
"2163";1
"2164";5
"2165";5
"2166";6
"2167";6
"2168";6
"2169";6
"2170";6
"2171";5
"2172";6
"2173";5
"2174";5
"2175";5
"2176";5
"2177";5
"2178";4
"2179";4
"2180";5
"2181";2
"2182";6
"2183";5
"2184";5
"2185";6
"2186";5
"2187";6
"2188";5
"2189";5
"2190";5
"2191";5
"2192";5
"2193";2
"2194";5
"2195";2
"2196";5
"2197";2
"2198";2
"2199";5
"2200";2
"2201";5
"2202";5
"2203";2
"2204";2
"2205";2
"2206";2
"2207";5
"2208";2
"2209";2
"2210";5
"2211";5
"2212";5
"2213";5
"2214";5
"2215";5
"2216";5
"2217";5
"2218";5
"2219";5
"2220";6
"2221";5
"2222";1
"2223";5
"2224";5
"2225";5
"2226";5
"2227";5
"2228";5
"2229";5
"2230";5
"2231";5
"2232";5
"2233";5
"2234";5
"2235";5
"2236";5
"2237";5
"2238";2
"2239";5
"2240";5
"2241";5
"2242";6
"2243";5
"2244";5
"2245";5
"2246";5
"2247";5
"2248";5
"2249";5
"2250";2
"2251";5
"2252";5
"2253";5
"2254";5
"2255";5
"2256";5
"2257";5
"2258";5
"2259";5
"2260";5
"2261";5
"2262";5
"2263";5
"2264";5
"2265";5
"2266";5
"2267";5
"2268";5
"2269";5
"2270";5
"2271";5
"2272";6
"2273";5
"2274";5
"2275";5
"2276";5
"2277";5
"2278";6
"2279";5
"2280";6
"2281";6
"2282";5
"2283";5
"2284";5
"2285";5
"2286";5
"2287";3
"2288";5
"2289";5
"2290";5
"2291";5
"2292";5
"2293";5
"2294";5
"2295";5
"2296";5
"2297";6
"2298";5
"2299";5
"2300";5
"2301";0
"2302";5
"2303";5
"2304";5
"2305";5
"2306";5
"2307";5
"2308";5
"2309";5
"2310";0
"2311";2
"2312";3
"2313";2
"2314";3
"2315";5
"2316";2
"2317";5
"2318";6
"2319";5
"2320";5
"2321";5
"2322";5
"2323";6
"2324";1
"2325";5
"2326";6
"2327";5
"2328";5
"2329";1
"2330";5
"2331";5
"2332";5
"2333";5
"2334";5
"2335";5
"2336";5
"2337";5
"2338";5
"2339";5
"2340";6
"2341";6
"2342";6
"2343";5
"2344";5
"2345";5
"2346";5
"2347";2
"2348";5
"2349";5
"2350";5
"2351";5
"2352";5
"2353";5
"2354";5
"2355";5
"2356";5
"2357";5
"2358";5
"2359";5
"2360";5
"2361";5
"2362";5
"2363";5
"2364";5
"2365";5
"2366";2
"2367";6
"2368";3
"2369";2
"2370";3
"2371";5
"2372";0
"2373";5
"2374";5
"2375";5
"2376";5
"2377";5
"2378";5
"2379";5
"2380";5
"2381";5
"2382";5
"2383";5
"2384";6
"2385";0
"2386";5
"2387";0
"2388";6
"2389";3
"2390";2
"2391";5
"2392";5
"2393";5
"2394";5
"2395";5
"2396";5
"2397";6
"2398";5
"2399";5
"2400";5
"2401";5
"2402";5
"2403";5
"2404";5
"2405";4
"2406";5
"2407";0
"2408";6
"2409";5
"2410";5
"2411";5
"2412";2
"2413";2
"2414";2
"2415";5
"2416";5
"2417";5
"2418";5
"2419";5
"2420";5
"2421";5
"2422";2
"2423";5
"2424";5
"2425";5
"2426";5
"2427";5
"2428";5
"2429";5
"2430";5
"2431";5
"2432";1
"2433";5
"2434";5
"2435";5
"2436";5
"2437";5
"2438";2
"2439";5
"2440";5
"2441";5
"2442";2
"2443";5
"2444";5
"2445";5
"2446";2
"2447";2
"2448";5
"2449";5
"2450";6
"2451";5
"2452";5
"2453";5
"2454";2
"2455";2
"2456";5
"2457";5
"2458";2
"2459";5
"2460";2
"2461";5
"2462";2
"2463";2
"2464";0
"2465";0
"2466";1
"2467";0
"2468";5
"2469";6
"2470";5
"2471";1
"2472";5
"2473";5
"2474";5
"2475";5
"2476";5
"2477";5
"2478";5
"2479";5
"2480";1
"2481";5
"2482";5
"2483";5
"2484";5
"2485";5
"2486";5
"2487";2
"2488";5
"2489";5
"2490";6
"2491";5
"2492";5
"2493";5
"2494";5
"2495";6
"2496";2
"2497";1
"2498";2
"2499";3
"2500";5
"2501";5
"2502";5
"2503";5
"2504";5
"2505";5
"2506";2
"2507";5
"2508";6
"2509";5
"2510";5
"2511";5
"2512";1
"2513";5
"2514";5
"2515";5
"2516";2
"2517";2
"2518";5
"2519";5
"2520";5
"2521";5
"2522";5
"2523";5
"2524";5
"2525";6
"2526";5
"2527";6
"2528";5
"2529";6
"2530";5
"2531";5
"2532";5
"2533";5
"2534";5
"2535";0
"2536";6
"2537";5
"2538";5
"2539";5
"2540";6
"2541";5
"2542";5
"2543";5
"2544";5
"2545";5
"2546";5
"2547";2
"2548";0
"2549";5
"2550";5
"2551";5
"2552";5
"2553";5
"2554";5
"2555";5
"2556";5
"2557";5
"2558";5
"2559";5
"2560";5
"2561";5
"2562";6
"2563";6
"2564";5
"2565";5
"2566";5
"2567";5
"2568";5
"2569";5
"2570";6
"2571";5
"2572";5
"2573";5
"2574";5
"2575";5
"2576";5
"2577";5
"2578";5
"2579";2
"2580";5
"2581";2
"2582";5
"2583";6
"2584";5
"2585";5
"2586";5
"2587";5
"2588";5
"2589";5
"2590";2
"2591";5
"2592";5
"2593";2
"2594";5
"2595";5
"2596";2
"2597";3
"2598";5
"2599";5
"2600";5
"2601";5
"2602";5
"2603";5
"2604";5
"2605";5
"2606";5
"2607";5
"2608";6
"2609";5
"2610";5
"2611";5
"2612";5
"2613";5
"2614";5
"2615";0
"2616";4
"2617";6
"2618";4
"2619";5
"2620";5
"2621";5
"2622";6
"2623";5
"2624";5
"2625";5
"2626";5
"2627";5
"2628";5
"2629";5
"2630";5
"2631";5
"2632";5
"2633";6
"2634";6
"2635";5
"2636";5
"2637";5
"2638";5
"2639";5
"2640";5
"2641";5
"2642";2
"2643";5
"2644";2
"2645";2
"2646";3
"2647";5
"2648";5
"2649";5
"2650";5
"2651";2
"2652";5
"2653";5
"2654";2
"2655";5
"2656";5
"2657";6
"2658";5
"2659";5
"2660";5
"2661";2
"2662";5
"2663";2
"2664";5
"2665";5
"2666";5
"2667";2
"2668";2
"2669";3
