"V1";"V2";"V3";"V4";"V5";"V6"
"***";"nb classes";"6";"***";"";""
"**";"classe";"1";"**";"";""
"****";"29";"2578";"1.12";"****";""
"5";" 5";"100.00";"440.337";"aitorpen";"9.144260e-98"
"7";"11";" 63.64";"388.121";"irain";"2.123073e-86"
"4";" 5";" 80.00";"280.215";"kontrako";"6.742273e-63"
"4";" 5";" 80.00";"280.215";"engain";"6.742273e-63"
"3";" 4";" 75.00";"196.575";"gorroto";"1.167496e-44"
"3";" 4";" 75.00";"196.575";"argudio";"1.167496e-44"
"5";"15";" 33.33";"140.722";"haserre";"1.850477e-32"
"4";"12";" 33.33";"112.446";"auzi";"2.853087e-26"
"3";" 7";" 42.86";"109.906";"hutsal";"1.027644e-25"
"3";" 7";" 42.86";"109.906";"gaiztakeria";"1.027644e-25"
"3";" 8";" 37.50";" 95.465";"lekuko";"1.504972e-22"
"2";" 4";" 50.00";" 86.041";"igukan";"1.762051e-20"
"2";" 5";" 40.00";" 68.070";"bedeinka";"1.578140e-16"
"3";"11";" 27.27";" 67.908";"aitzakan";"1.713333e-16"
"2";" 6";" 33.33";" 56.092";"jokaera";"6.916074e-14"
"2";" 6";" 33.33";" 56.092";"bazter";"6.916074e-14"
"2";" 8";" 25.00";" 41.127";"sufrimendu";"1.426450e-10"
"2";" 9";" 22.22";" 36.142";"begira";"1.834369e-09"
"2";"10";" 20.00";" 32.156";"arrazoi";"1.422644e-08"
"1";" 3";" 33.33";" 28.013";"lizunkeria";"1.204854e-07"
"1";" 3";" 33.33";" 28.013";"pentsaera";"1.204854e-07"
"1";" 3";" 33.33";" 28.013";"ikusezin";"1.204854e-07"
"1";" 3";" 33.33";" 28.013";"hutsegite";"1.204854e-07"
"1";" 3";" 33.33";" 28.013";"bekaizkeria";"1.204854e-07"
"1";" 4";" 25.00";" 20.532";"zatiketa";"5.865511e-06"
"1";" 4";" 25.00";" 20.532";"sesio";"5.865511e-06"
"1";" 4";" 25.00";" 20.532";"nabari";"5.865511e-06"
"1";" 4";" 25.00";" 20.532";"jarraitzaile";"5.865511e-06"
"1";" 4";" 25.00";" 20.532";"hizkera";"5.865511e-06"
"1";" 4";" 25.00";" 20.532";"berritu";"5.865511e-06"
"1";" 4";" 25.00";" 20.532";"bekaizkeri";"5.865511e-06"
"1";" 4";" 25.00";" 20.532";"arduradun";"5.865511e-06"
"1";" 5";" 20.00";" 16.047";"maltzur";"6.179469e-05"
"2";"19";" 10.53";" 15.211";"erabaki";"9.615479e-05"
"1";" 6";" 16.67";" 13.061";"itzazu";"3.015793e-04"
"1";" 6";" 16.67";" 13.061";"horrexega";"3.015793e-04"
"1";" 8";" 12.50";"  9.336";"zaitez";"2.247293e-03"
"1";" 8";" 12.50";"  9.336";"madarikatu";"2.247293e-03"
"1";" 8";" 12.50";"  9.336";"aldendu";"2.247293e-03"
"1";" 9";" 11.11";"  8.098";"errebelde";"4.432199e-03"
"2";"33";"  6.06";"  7.322";"fede";"6.813130e-03"
"1";"10";" 10.00";"  7.109";"inolako";"7.668137e-03"
"1";"13";"  7.69";"  5.067";"txar";"2.438990e-02"
"1";"16";"  6.25";"  3.802";"enukan";"5.118770e-02"
"1";"18";"  5.56";"  3.199";"beza";"7.367183e-02"
"1";"19";"  5.26";"  2.947";"aurka";"8.603043e-02"
"1";"19";"  5.26";"  2.947";"horrelako";"8.603043e-02"
"1";"21";"  4.76";"  2.518";"kontzientzia";"1.125529e-01"
"1";"22";"  4.55";"  2.334";"bedi";"1.265613e-01"
"1";"24";"  4.17";"  2.015";"hain";"1.557288e-01"
"*****";"*";"*";"*";"*";"*"
"2";" 6";"33.33";"56.092";"zaitzatu";"6.916074e-14"
"6";"65";" 9.23";"39.391";"inor";"3.468337e-10"
"2";"12";"16.67";"26.182";"itzazue";"3.106734e-07"
"1";"11";" 9.09";" 6.303";"diotsuet";"1.205519e-02"
"*";"*";"*";"*";"*";"*"
"1";"  2";"50.00";"42.987";"*Tx_1Tm_5_24";"5.509598e-11"
"1";"  2";"50.00";"42.987";"*Tx_2Ts_2_3";"5.509598e-11"
"1";"  2";"50.00";"42.987";"*Tx_2Ko_6_2";"5.509598e-11"
"1";"  2";"50.00";"42.987";"*Tx_1Ts_2_2";"5.509598e-11"
"1";"  2";"50.00";"42.987";"*Tx_1Ko_3_18";"5.509598e-11"
"1";"  2";"50.00";"42.987";"*Tx_Kol_2_8";"5.509598e-11"
"1";"  2";"50.00";"42.987";"*Tx_2Ko_13_1";"5.509598e-11"
"1";"  2";"50.00";"42.987";"*Tx_2Ko_11_9";"5.509598e-11"
"1";"  2";"50.00";"42.987";"*Tx_2Tm_1_12";"5.509598e-11"
"1";"  2";"50.00";"42.987";"*Tx_Erm_1_29";"5.509598e-11"
"1";"  2";"50.00";"42.987";"*Tx_Erm_15_6";"5.509598e-11"
"1";"  2";"50.00";"42.987";"*Tx_Ga_2_10";"5.509598e-11"
"1";"  2";"50.00";"42.987";"*Tx_Erm_15_3";"5.509598e-11"
"1";"  3";"33.33";"28.013";"*Tx_1Tm_6_5";"1.204854e-07"
"1";"  3";"33.33";"28.013";"*Tx_2Ko_1_12";"1.204854e-07"
"1";"  3";"33.33";"28.013";"*Tx_1Ko_4_12";"1.204854e-07"
"1";"  3";"33.33";"28.013";"*Tx_2Ko_13_4";"1.204854e-07"
"1";"  3";"33.33";"28.013";"*Tx_2Ts_1_10";"1.204854e-07"
"3";" 27";"11.11";"24.464";"*K_Kol_2";"7.569372e-07"
"2";" 21";" 9.52";"13.428";"*K_2Ko_13";"2.478814e-04"
"2";" 23";" 8.70";"11.959";"*K_1Tm_6";"5.438350e-04"
"2";" 26";" 7.69";"10.185";"*K_1Tm_5";"1.415875e-03"
"5";"122";" 4.10";"10.180";"*L_Timoteori1";"1.419937e-03"
"4";"104";" 3.85";" 7.215";"*L_Kolosarrei";"7.228654e-03"
"2";" 44";" 4.55";" 4.709";"*K_Erm_15";"3.000689e-02"
"1";" 14";" 7.14";" 4.583";"*K_2Ts_1";"3.228292e-02"
"1";" 18";" 5.56";" 3.199";"*K_2Ts_2";"7.367183e-02"
"2";" 56";" 3.57";" 3.081";"*L_Tesalonikarrei2";"7.923542e-02"
"1";" 19";" 5.26";" 2.947";"*K_1Tm_4";"8.603043e-02"
"1";" 23";" 4.35";" 2.167";"*K_Erm_13";"1.409742e-01"
"1";" 23";" 4.35";" 2.167";"*K_2Tm_1";"1.409742e-01"
"**";"classe";"2";"**";"";""
"****";"185";"2578";"7.18";"****";""
"45";" 49";" 91.84";"537.458";"elkarte";"6.736553e-119"
"37";" 38";" 97.37";"471.003";"eli";"1.939123e-104"
"22";" 26";" 84.62";"236.456";"etxe";" 2.331137e-53"
"18";" 18";"100.00";"234.470";"agur";" 6.319042e-53"
"17";" 17";"100.00";"221.357";"goraintzi";" 4.575042e-50"
"19";" 23";" 82.61";"198.239";"anaia";" 5.059543e-45"
" 9";"  9";"100.00";"116.824";"zuri";" 3.136974e-27"
"10";" 12";" 83.33";"104.974";"paulok";" 1.237579e-24"
" 7";"  7";"100.00";" 90.792";"semealaba";" 1.595592e-21"
" 8";" 10";" 80.00";" 79.926";"lankide";" 3.887336e-19"
" 6";"  6";"100.00";" 77.792";"zaituztete";" 1.144909e-18"
" 6";"  6";"100.00";" 77.792";"iruditu";" 1.144909e-18"
" 9";" 13";" 69.23";" 75.533";"timoteo";" 3.592742e-18"
"10";" 17";" 58.82";" 68.528";"bildu";" 1.250595e-16"
"10";" 17";" 58.82";" 68.528";"lagundu";" 1.250595e-16"
" 5";"  5";"100.00";" 64.801";"sustrai";" 8.284207e-16"
" 5";"  5";"100.00";" 64.801";"hona";" 8.284207e-16"
" 5";"  5";"100.00";" 64.801";"tito";" 8.284207e-16"
" 5";"  5";"100.00";" 64.801";"hara";" 8.284207e-16"
"13";" 29";" 44.83";" 62.420";"bidali";" 2.774335e-15"
"16";" 44";" 36.36";" 57.250";"maite";" 3.837994e-14"
" 5";"  6";" 83.33";" 52.364";"nu";" 4.609853e-13"
" 4";"  4";"100.00";" 51.821";"timoteok";" 6.079974e-13"
" 4";"  4";"100.00";" 51.821";"probintzia";" 6.079974e-13"
" 4";"  4";"100.00";" 51.821";"mazedoniatik";" 6.079974e-13"
" 4";"  4";"100.00";" 51.821";"gobernatu";" 6.079974e-13"
" 4";"  4";"100.00";" 51.821";"diruzale";" 6.079974e-13"
" 4";"  4";"100.00";" 51.821";"arreba";" 6.079974e-13"
" 7";" 12";" 58.33";" 47.367";"leial";" 5.887511e-12"
" 9";" 19";" 47.37";" 46.420";"izukan";" 9.544397e-12"
"15";" 48";" 31.25";" 42.555";"idatzi";" 6.873222e-11"
" 4";"  5";" 80.00";" 39.885";"mesede";" 2.693292e-10"
" 3";"  3";"100.00";" 38.851";"priska";" 4.575096e-10"
" 3";"  3";"100.00";" 38.851";"korinton";" 4.575096e-10"
" 3";"  3";"100.00";" 38.851";"asia";" 4.575096e-10"
" 3";"  4";" 75.00";" 27.666";"zareten";" 1.441516e-07"
" 3";"  4";" 75.00";" 27.666";"batzar";" 1.441516e-07"
" 3";"  4";" 75.00";" 27.666";"laguntzaile";" 1.441516e-07"
" 3";"  4";" 75.00";" 27.666";"jesusengatik";" 1.441516e-07"
" 9";" 30";" 30.00";" 23.738";"seme";" 1.104080e-06"
"10";" 36";" 27.78";" 23.263";"fededun";" 1.412902e-06"
" 4";"  8";" 50.00";" 22.093";"irakurri";" 2.596946e-06"
" 9";" 32";" 28.12";" 21.348";"kristau";" 3.831093e-06"
" 3";"  5";" 60.00";" 20.986";"kartzela";" 4.627021e-06"
" 3";"  5";" 60.00";" 20.986";"bidaia";" 4.627021e-06"
" 4";"  9";" 44.44";" 18.832";"ukzuen";" 1.427638e-05"
" 3";"  6";" 50.00";" 16.557";"itzazu";" 4.720440e-05"
" 3";"  6";" 50.00";" 16.557";"beharrezko";" 4.720440e-05"
" 3";"  6";" 50.00";" 16.557";"gazte";" 4.720440e-05"
" 4";" 10";" 40.00";" 16.238";"zaindu";" 5.587666e-05"
" 4";" 10";" 40.00";" 16.238";"hemen";" 5.587666e-05"
" 2";"  3";" 66.67";" 15.958";"zenidaten";" 6.476852e-05"
" 2";"  3";" 66.67";" 15.958";"tikiko";" 6.476852e-05"
" 2";"  3";" 66.67";" 15.958";"mazedoniara";" 6.476852e-05"
" 2";"  3";" 66.67";" 15.958";"herritar";" 6.476852e-05"
" 2";"  3";" 66.67";" 15.958";"gogoratu";" 6.476852e-05"
" 2";"  3";" 66.67";" 15.958";"duzula";" 6.476852e-05"
" 2";"  3";" 66.67";" 15.958";"barren";" 6.476852e-05"
" 2";"  3";" 66.67";" 15.958";"argibide";" 6.476852e-05"
" 3";"  7";" 42.86";" 13.415";"haia";" 2.495604e-04"
" 3";"  7";" 42.86";" 13.415";"sentitu";" 2.495604e-04"
" 3";"  7";" 42.86";" 13.415";"lotsatu";" 2.495604e-04"
" 3";"  7";" 42.86";" 13.415";"gorabehera";" 2.495604e-04"
"16";"100";" 16.00";" 12.161";"kristo";" 4.881068e-04"
" 9";" 44";" 20.45";" 11.849";"izen";" 5.769842e-04"
" 6";" 24";" 25.00";" 11.554";"zerbitz";" 6.760607e-04"
" 2";"  4";" 50.00";" 11.030";"titori";" 8.967056e-04"
" 2";"  4";" 50.00";" 11.030";"profetek";" 8.967056e-04"
" 2";"  4";" 50.00";" 11.030";"itxaron";" 8.967056e-04"
" 2";"  4";" 50.00";" 11.030";"arduradun";" 8.967056e-04"
" 4";" 14";" 28.57";"  9.673";"dizue";" 1.869485e-03"
" 3";"  9";" 33.33";"  9.277";"paulo";" 2.320801e-03"
" 6";" 27";" 22.22";"  9.273";"apostolu";" 2.325125e-03"
" 2";"  5";" 40.00";"  8.103";"juzun";" 4.419255e-03"
" 2";"  5";" 40.00";"  8.103";"errespetu";" 4.419255e-03"
" 2";"  5";" 40.00";"  8.103";"begirune";" 4.419255e-03"
" 3";" 10";" 30.00";"  7.851";"zintzo";" 5.079574e-03"
" 4";" 16";" 25.00";"  7.679";"gutun";" 5.588042e-03"
" 5";" 23";" 21.74";"  7.389";"lagun";" 6.563094e-03"
" 8";" 47";" 17.02";"  6.966";"agindu";" 8.307069e-03"
" 3";" 11";" 27.27";"  6.698";"zaretu";" 9.651937e-03"
" 2";"  6";" 33.33";"  6.177";"gutxietsi";" 1.294003e-02"
" 2";"  6";" 33.33";"  6.177";"dudan";" 1.294003e-02"
" 2";"  6";" 33.33";"  6.177";"zertan";" 1.294003e-02"
" 2";"  6";" 33.33";"  6.177";"zama";" 1.294003e-02"
" 2";"  6";" 33.33";"  6.177";"lapur";" 1.294003e-02"
" 2";"  6";" 33.33";"  6.177";"ezazu";" 1.294003e-02"
"15";"116";" 12.93";"  6.039";"jesu";" 1.399110e-02"
" 3";" 12";" 25.00";"  5.750";"dizued";" 1.648912e-02"
" 6";" 34";" 17.65";"  5.671";"zerbitzu";" 1.724648e-02"
" 8";" 53";" 15.09";"  5.093";"hala";" 2.401744e-02"
" 3";" 13";" 23.08";"  4.959";"hasi";" 2.594920e-02"
"13";"102";" 12.75";"  4.945";"senide";" 2.617127e-02"
" 2";"  7";" 28.57";"  4.824";"nago";" 2.807325e-02"
" 6";" 38";" 15.79";"  4.296";"esku";" 3.820969e-02"
" 2";"  8";" 25.00";"  3.827";"oinordeko";" 5.042307e-02"
" 2";"  8";" 25.00";"  3.827";"ditudan";" 5.042307e-02"
" 6";" 41";" 14.63";"  3.479";"eskatu";" 6.215446e-02"
" 1";"  3";" 33.33";"  3.085";"nazio";" 7.901499e-02"
" 1";"  3";" 33.33";"  3.085";"eskas";" 7.901499e-02"
" 1";"  3";" 33.33";"  3.085";"zizun";" 7.901499e-02"
" 1";"  3";" 33.33";"  3.085";"zinez";" 7.901499e-02"
" 1";"  3";" 33.33";"  3.085";"zerbitzari";" 7.901499e-02"
" 1";"  3";" 33.33";"  3.085";"zerbitzadu";" 7.901499e-02"
" 1";"  3";" 33.33";"  3.085";"uttu";" 7.901499e-02"
" 1";"  3";" 33.33";"  3.085";"sinestedun";" 7.901499e-02"
" 1";"  3";" 33.33";"  3.085";"sesiozale";" 7.901499e-02"
" 1";"  3";" 33.33";"  3.085";"nolatan";" 7.901499e-02"
" 1";"  3";" 33.33";"  3.085";"mozkor";" 7.901499e-02"
" 1";"  3";" 33.33";"  3.085";"landu";" 7.901499e-02"
" 1";"  3";" 33.33";"  3.085";"kate";" 7.901499e-02"
" 1";"  3";" 33.33";"  3.085";"inguratu";" 7.901499e-02"
" 1";"  3";" 33.33";"  3.085";"indarberritu";" 7.901499e-02"
" 1";"  3";" 33.33";"  3.085";"gutxiets";" 7.901499e-02"
" 1";"  3";" 33.33";"  3.085";"goraipatu";" 7.901499e-02"
" 1";"  3";" 33.33";"  3.085";"ezinik";" 7.901499e-02"
" 1";"  3";" 33.33";"  3.085";"erorbide";" 7.901499e-02"
" 1";"  3";" 33.33";"  3.085";"egunero";" 7.901499e-02"
" 1";"  3";" 33.33";"  3.085";"direlaeta";" 7.901499e-02"
" 1";"  3";" 33.33";"  3.085";"diezaioten";" 7.901499e-02"
" 1";"  3";" 33.33";"  3.085";"bultzatu";" 7.901499e-02"
" 1";"  3";" 33.33";"  3.085";"baketsu";" 7.901499e-02"
" 1";"  3";" 33.33";"  3.085";"arreta";" 7.901499e-02"
" 1";"  3";" 33.33";"  3.085";"ardozale";" 7.901499e-02"
" 1";"  3";" 33.33";"  3.085";"apaltasun";" 7.901499e-02"
" 1";"  3";" 33.33";"  3.085";"agian";" 7.901499e-02"
" 1";"  3";" 33.33";"  3.085";"adulteriorik";" 7.901499e-02"
" 2";"  9";" 22.22";"  3.069";"balu";" 7.977611e-02"
" 4";" 25";" 16.00";"  2.951";"harro";" 8.583349e-02"
" 6";" 45";" 13.33";"  2.607";"oso";" 1.064166e-01"
" 2";" 10";" 20.00";"  2.478";"arrazoi";" 1.154164e-01"
" 2";" 11";" 18.18";"  2.009";"han";" 1.563886e-01"
" 2";" 11";" 18.18";"  2.009";"eraiki";" 1.563886e-01"
"*****";"*";"*";"*";"*";"*"
"46";"286";"16.08";"38.320";"ni";"6.003818e-10"
"16";" 91";"17.58";"15.335";"neu";"9.001638e-05"
" 4";" 18";"22.22";" 6.160";"zaituzte";"1.306345e-02"
" 2";"  8";"25.00";" 3.827";"nitu";"5.042307e-02"
" 1";"  3";"33.33";" 3.085";"zuten";"7.901499e-02"
" 1";"  3";"33.33";" 3.085";"nindun";"7.901499e-02"
" 1";"  3";"33.33";" 3.085";"izaizkn";"7.901499e-02"
" 2";" 11";"18.18";" 2.009";"badakizue";"1.563886e-01"
"*";"*";"*";"*";"*";"*"
"20";" 35";" 57.14";"132.990";"*K_Erm_16";"9.087895e-31"
"10";" 22";" 45.45";" 48.810";"*K_Kol_4";"2.820663e-12"
" 2";"  2";"100.00";" 25.890";"*Tx_1Ko_7_16";"3.613701e-07"
" 2";"  2";"100.00";" 25.890";"*Tx_1Ko_16_19";"3.613701e-07"
" 2";"  2";"100.00";" 25.890";"*Tx_Kol_4_16";"3.613701e-07"
" 2";"  2";"100.00";" 25.890";"*Tx_Flp_4_21";"3.613701e-07"
" 2";"  2";"100.00";" 25.890";"*Tx_Erm_16_23";"3.613701e-07"
" 2";"  2";"100.00";" 25.890";"*Tx_Flp_2_25";"3.613701e-07"
" 2";"  2";"100.00";" 25.890";"*Tx_2Ko_8_23";"3.613701e-07"
" 2";"  2";"100.00";" 25.890";"*Tx_1Ko_4_17";"3.613701e-07"
" 2";"  2";"100.00";" 25.890";"*Tx_1Ko_3_9";"3.613701e-07"
" 2";"  2";"100.00";" 25.890";"*Tx_Erm_16_5";"3.613701e-07"
" 8";" 26";" 30.77";" 21.948";"*L_Filemoni";"2.801167e-06"
" 8";" 26";" 30.77";" 21.948";"*K_1Tm_5";"2.801167e-06"
" 8";" 26";" 30.77";" 21.948";"*K_Flm_1";"2.801167e-06"
" 8";" 28";" 28.57";" 19.453";"*K_1Ko_16";"1.030979e-05"
" 8";" 32";" 25.00";" 15.454";"*K_2Ko_8";"8.455345e-05"
" 1";"  1";"100.00";" 12.940";"*Tx_1Ko_10_23";"3.216085e-04"
" 1";"  1";"100.00";" 12.940";"*Tx_2Tm_3_2";"3.216085e-04"
" 1";"  1";"100.00";" 12.940";"*Tx_1Ko_14_4";"3.216085e-04"
" 1";"  1";"100.00";" 12.940";"*Tx_1Ko_16_20";"3.216085e-04"
" 1";"  1";"100.00";" 12.940";"*Tx_1Ko_14_26";"3.216085e-04"
" 1";"  1";"100.00";" 12.940";"*Tx_Erm_16_16";"3.216085e-04"
"18";"122";" 14.75";" 11.040";"*L_Timoteori1";"8.916064e-04"
" 7";" 32";" 21.88";" 10.510";"*K_Flp_4";"1.187419e-03"
" 4";" 17";" 23.53";"  6.870";"*K_1Tm_3";"8.763288e-03"
" 1";"  2";" 50.00";"  5.510";"*Tx_Tt_1_4";"1.890267e-02"
" 1";"  2";" 50.00";"  5.510";"*Tx_Ga_5_2";"1.890267e-02"
" 1";"  2";" 50.00";"  5.510";"*Tx_2Ko_1_8";"1.890267e-02"
" 1";"  2";" 50.00";"  5.510";"*Tx_Erm_15_24";"1.890267e-02"
" 1";"  2";" 50.00";"  5.510";"*Tx_Kol_4_11";"1.890267e-02"
" 1";"  2";" 50.00";"  5.510";"*Tx_Erm_9_15";"1.890267e-02"
" 1";"  2";" 50.00";"  5.510";"*Tx_Erm_1_7";"1.890267e-02"
" 1";"  2";" 50.00";"  5.510";"*Tx_Erm_9_9";"1.890267e-02"
" 1";"  2";" 50.00";"  5.510";"*Tx_Erm_3_3";"1.890267e-02"
" 1";"  2";" 50.00";"  5.510";"*Tx_2Ko_6_2";"1.890267e-02"
" 1";"  2";" 50.00";"  5.510";"*Tx_1Ko_5_10";"1.890267e-02"
" 1";"  2";" 50.00";"  5.510";"*Tx_2Ko_9_5";"1.890267e-02"
" 1";"  2";" 50.00";"  5.510";"*Tx_1Tm_5_11";"1.890267e-02"
" 1";"  2";" 50.00";"  5.510";"*Tx_2Tm_4_21";"1.890267e-02"
" 1";"  2";" 50.00";"  5.510";"*Tx_1Ko_6_3";"1.890267e-02"
" 1";"  2";" 50.00";"  5.510";"*Tx_1Ko_11_34";"1.890267e-02"
" 1";"  2";" 50.00";"  5.510";"*Tx_1Ko_12_28";"1.890267e-02"
" 1";"  2";" 50.00";"  5.510";"*Tx_Erm_15_12";"1.890267e-02"
" 1";"  2";" 50.00";"  5.510";"*Tx_1Tm_4_12";"1.890267e-02"
" 1";"  2";" 50.00";"  5.510";"*Tx_1Tm_4_14";"1.890267e-02"
" 1";"  2";" 50.00";"  5.510";"*Tx_2Ko_10_8";"1.890267e-02"
" 1";"  2";" 50.00";"  5.510";"*Tx_2Ko_8_22";"1.890267e-02"
" 1";"  2";" 50.00";"  5.510";"*Tx_2Tm_4_10";"1.890267e-02"
" 1";"  2";" 50.00";"  5.510";"*Tx_1Ts_2_14";"1.890267e-02"
" 1";"  2";" 50.00";"  5.510";"*Tx_Ga_4_31";"1.890267e-02"
" 1";"  2";" 50.00";"  5.510";"*Tx_Ga_4_30";"1.890267e-02"
" 1";"  2";" 50.00";"  5.510";"*Tx_1Tm_6_10";"1.890267e-02"
" 1";"  2";" 50.00";"  5.510";"*Tx_1Ko_7_17";"1.890267e-02"
" 1";"  2";" 50.00";"  5.510";"*Tx_Kol_4_9";"1.890267e-02"
" 1";"  2";" 50.00";"  5.510";"*Tx_1Ko_16_15";"1.890267e-02"
" 1";"  2";" 50.00";"  5.510";"*Tx_1Ko_4_10";"1.890267e-02"
" 1";"  2";" 50.00";"  5.510";"*Tx_Erm_16_2";"1.890267e-02"
" 1";"  2";" 50.00";"  5.510";"*Tx_Erm_16_4";"1.890267e-02"
" 1";"  2";" 50.00";"  5.510";"*Tx_Flm_1_19";"1.890267e-02"
" 1";"  2";" 50.00";"  5.510";"*Tx_Erm_16_7";"1.890267e-02"
" 1";"  2";" 50.00";"  5.510";"*Tx_Flp_1_7";"1.890267e-02"
" 1";"  2";" 50.00";"  5.510";"*Tx_2Ko_11_9";"1.890267e-02"
" 1";"  2";" 50.00";"  5.510";"*Tx_Flp_4_17";"1.890267e-02"
" 1";"  2";" 50.00";"  5.510";"*Tx_Erm_13_9";"1.890267e-02"
" 1";"  2";" 50.00";"  5.510";"*Tx_2Ko_8_15";"1.890267e-02"
" 1";"  2";" 50.00";"  5.510";"*Tx_1Ko_15_3";"1.890267e-02"
" 1";"  2";" 50.00";"  5.510";"*Tx_Flp_4_3";"1.890267e-02"
" 1";"  2";" 50.00";"  5.510";"*Tx_1Ko_14_34";"1.890267e-02"
" 1";"  2";" 50.00";"  5.510";"*Tx_Ef_4_17";"1.890267e-02"
" 1";"  2";" 50.00";"  5.510";"*Tx_Kol_4_12";"1.890267e-02"
" 1";"  2";" 50.00";"  5.510";"*Tx_Ga_4_6";"1.890267e-02"
" 1";"  2";" 50.00";"  5.510";"*Tx_Ga_6_7";"1.890267e-02"
" 1";"  2";" 50.00";"  5.510";"*Tx_Ga_2_4";"1.890267e-02"
" 1";"  2";" 50.00";"  5.510";"*Tx_Flm_1_20";"1.890267e-02"
" 1";"  2";" 50.00";"  5.510";"*Tx_1Tm_5_13";"1.890267e-02"
" 1";"  2";" 50.00";"  5.510";"*Tx_Erm_11_17";"1.890267e-02"
" 1";"  2";" 50.00";"  5.510";"*Tx_Ga_4_17";"1.890267e-02"
" 1";"  2";" 50.00";"  5.510";"*Tx_Erm_11_18";"1.890267e-02"
" 1";"  2";" 50.00";"  5.510";"*Tx_2Ko_12_15";"1.890267e-02"
" 1";"  2";" 50.00";"  5.510";"*Tx_2Ko_12_17";"1.890267e-02"
" 1";"  2";" 50.00";"  5.510";"*Tx_2Ts_3_17";"1.890267e-02"
" 1";"  2";" 50.00";"  5.510";"*Tx_Tt_3_15";"1.890267e-02"
" 1";"  2";" 50.00";"  5.510";"*Tx_Erm_16_12";"1.890267e-02"
"13";"104";" 12.50";"  4.611";"*L_Kolosarrei";"3.176127e-02"
" 4";" 23";" 17.39";"  3.636";"*K_2Tm_1";"5.655940e-02"
" 1";"  3";" 33.33";"  3.085";"*Tx_1Ko_11_22";"7.901499e-02"
" 1";"  3";" 33.33";"  3.085";"*Tx_2Tm_1_8";"7.901499e-02"
" 1";"  3";" 33.33";"  3.085";"*Tx_1Ko_5_11";"7.901499e-02"
" 1";"  3";" 33.33";"  3.085";"*Tx_Erm_11_26";"7.901499e-02"
" 1";"  3";" 33.33";"  3.085";"*Tx_Erm_13_4";"7.901499e-02"
" 1";"  3";" 33.33";"  3.085";"*Tx_2Ko_12_18";"7.901499e-02"
" 6";" 43";" 13.95";"  3.015";"*K_1Ko_14";"8.247572e-02"
" 5";" 35";" 14.29";"  2.692";"*K_2Ko_1";"1.008248e-01"
" 4";" 28";" 14.29";"  2.148";"*K_2Tm_4";"1.427515e-01"
"**";"classe";"3";"**";"";""
"****";"32";"2578";"1.24";"****";""
"21";" 21";"100.00";"1684.534";"grazia";" 0.000000e+00"
" 8";"  8";"100.00";" 638.481";"biezazkizuete";"7.148760e-141"
" 5";"  6";" 83.33";" 330.615";"kristoren";" 7.059460e-74"
"14";" 46";" 30.43";" 325.617";"bake";" 8.658050e-73"
"13";" 48";" 27.08";" 266.450";"aita";" 6.740342e-60"
"20";"116";" 17.24";" 253.662";"jesu";" 4.130749e-57"
" 3";"  3";"100.00";" 238.966";"biezazkizute";" 6.610841e-54"
" 4";"  6";" 66.67";" 209.997";"mende";" 1.375604e-47"
" 3";"  4";" 75.00";" 177.795";"menda";" 1.468783e-40"
"21";"180";" 11.67";" 171.573";"kristu";" 3.354596e-39"
"19";"214";"  8.88";" 111.040";"jaun";" 5.799462e-26"
" 2";"  4";" 50.00";"  77.696";"guztiokin";" 1.202076e-18"
"12";"251";"  4.78";"  28.420";"eman";" 9.764128e-08"
" 3";" 22";" 13.64";"  27.810";"bedi";" 1.338296e-07"
" 1";"  3";" 33.33";"  25.234";"gizaldi";" 5.078902e-07"
" 1";"  3";" 33.33";"  25.234";"iraunkor";" 5.078902e-07"
" 1";"  3";" 33.33";"  25.234";"ikusezin";" 5.078902e-07"
" 1";"  3";" 33.33";"  25.234";"elkartasun";" 5.078902e-07"
" 1";"  3";" 33.33";"  25.234";"bedeinkatu";" 5.078902e-07"
" 2";" 14";" 14.29";"  19.539";"erruki";" 9.856885e-06"
" 1";"  4";" 25.00";"  18.448";"ohore";" 1.746473e-05"
" 1";"  4";" 25.00";"  18.448";"etortu";" 1.746473e-05"
" 1";"  6";" 16.67";"  11.673";"agintzariaren";" 6.340386e-04"
"16";"629";"  2.54";"  11.513";"jainko";" 6.909994e-04"
" 1";"  7";" 14.29";"   9.743";"abrahamen";" 1.800187e-03"
" 1";"  7";" 14.29";"   9.743";"errege";" 1.800187e-03"
" 1";"  7";" 14.29";"   9.743";"gurutu";" 1.800187e-03"
" 1";"  7";" 14.29";"   9.743";"bit";" 1.800187e-03"
" 1";"  8";" 12.50";"   8.298";"gaitz";" 3.968775e-03"
" 1";"  8";" 12.50";"   8.298";"oinordeko";" 3.968775e-03"
" 1";"  8";" 12.50";"   8.298";"salbatzaile";" 3.968775e-03"
" 2";" 31";"  6.45";"   6.949";"aintza";" 8.387883e-03"
" 1";" 10";" 10.00";"   6.282";"izaera";" 1.219410e-02"
" 1";" 11";"  9.09";"   5.553";"jende";" 1.845192e-02"
" 1";" 12";"  8.33";"   4.947";"ondorengo";" 2.614150e-02"
" 1";" 17";"  5.88";"   3.007";"balio";" 8.291109e-02"
"*****";"*";"*";"*";"*";"*"
"21";"244";" 8.61";"119.264";"gu";"9.169035e-28"
" 7";"117";" 5.98";" 22.479";"zu";"2.124901e-06"
" 1";"  7";"14.29";"  9.743";"bazarete";"1.800187e-03"
"*";"*";"*";"*";"*";"*"
"1";"  2";"50.00";"38.818";"*Tx_1Ko_15_23";"4.653018e-10"
"1";"  2";"50.00";"38.818";"*Tx_Tt_1_4";"4.653018e-10"
"1";"  2";"50.00";"38.818";"*Tx_Ga_5_6";"4.653018e-10"
"1";"  2";"50.00";"38.818";"*Tx_Erm_1_7";"4.653018e-10"
"1";"  2";"50.00";"38.818";"*Tx_Erm_9_5";"4.653018e-10"
"1";"  2";"50.00";"38.818";"*Tx_Ef_2_14";"4.653018e-10"
"1";"  2";"50.00";"38.818";"*Tx_Erm_16_20";"4.653018e-10"
"1";"  2";"50.00";"38.818";"*Tx_1Ts_5_3";"4.653018e-10"
"1";"  4";"25.00";"18.448";"*Tx_Erm_12_21";"1.746473e-05"
"2";" 22";" 9.09";"11.153";"*K_1Tm_1";"8.388472e-04"
"2";" 26";" 7.69";" 8.916";"*L_Filemoni";"2.826136e-03"
"2";" 26";" 7.69";" 8.916";"*K_Flm_1";"2.826136e-03"
"2";" 26";" 7.69";" 8.916";"*K_1Ts_5";"2.826136e-03"
"1";"  9";"11.11";" 7.177";"*K_Ef_1";"7.384684e-03"
"2";" 32";" 6.25";" 6.631";"*K_Flp_4";"1.002123e-02"
"2";" 36";" 5.56";" 5.544";"*K_Ga_5";"1.854937e-02"
"1";" 14";" 7.14";" 3.999";"*K_2Ts_1";"4.551824e-02"
"5";"206";" 2.43";" 2.569";"*L_Galaziarrei";"1.090036e-01"
"2";" 56";" 3.57";" 2.535";"*L_Tesalonikarrei2";"1.113158e-01"
"1";" 21";" 4.76";" 2.141";"*K_Tt_1";"1.434297e-01"
"1";" 21";" 4.76";" 2.141";"*K_2Ko_13";"1.434297e-01"
"**";"classe";"4";"**";"";""
"****";"69";"2578";"2.68";"****";""
"22";" 25";" 88.00";"705.546";"senar";"1.860427e-155"
"11";" 13";" 84.62";"336.771";"emazte";" 3.221241e-75"
"10";" 11";" 90.91";"330.160";"emaztu";" 8.872086e-74"
" 9";"  9";"100.00";"328.407";"hurko";" 2.136327e-73"
" 8";"  8";"100.00";"291.804";"moztu";" 2.011266e-65"
" 5";"  5";"100.00";"182.165";"hobe";" 1.632112e-41"
" 5";"  5";"100.00";"182.165";"jagokin";" 1.632112e-41"
" 5";"  5";"100.00";"182.165";"gizaseme";" 1.632112e-41"
"11";" 23";" 47.83";"181.612";"lagun";" 2.155504e-41"
" 8";" 14";" 57.14";"160.312";"maitatu";" 9.671681e-37"
" 4";"  4";"100.00";"145.675";"ile";" 1.528710e-33"
"12";" 34";" 35.29";"140.723";"emakume";" 1.849641e-32"
" 3";"  3";"100.00";"109.214";"zapuztu";" 1.456741e-25"
" 4";"  6";" 66.67";" 94.538";"berdin";" 2.404472e-22"
" 3";"  4";" 75.00";" 80.447";"txertatu";" 2.986207e-19"
" 3";"  4";" 75.00";" 80.447";"emazn";" 2.986207e-19"
" 2";"  3";" 66.67";" 47.214";"biezaio";" 6.364852e-12"
" 2";"  3";" 66.67";" 47.214";"banandu";" 6.364852e-12"
" 2";"  3";" 66.67";" 47.214";"mendeku";" 6.364852e-12"
" 2";"  3";" 66.67";" 47.214";"mait";" 6.364852e-12"
" 2";"  3";" 66.67";" 47.214";"luze";" 6.364852e-12"
" 2";"  3";" 66.67";" 47.214";"emakumeagandik";" 6.364852e-12"
" 2";"  3";" 66.67";" 47.214";"ardo";" 6.364852e-12"
" 3";"  7";" 42.86";" 43.504";"haur";" 4.231009e-11"
"12";" 86";" 13.95";" 43.435";"buru";" 4.383602e-11"
" 2";"  4";" 50.00";" 34.443";"adar";" 4.388595e-09"
" 5";" 23";" 21.74";" 32.374";"dezala";" 1.271498e-08"
" 4";" 16";" 25.00";" 30.801";"elkartu";" 2.858920e-08"
" 2";"  5";" 40.00";" 26.791";"batasun";" 2.266533e-07"
" 5";" 28";" 17.86";" 25.044";"gizon";" 5.604717e-07"
" 4";" 19";" 21.05";" 24.814";"ezkondu";" 6.314843e-07"
" 2";"  6";" 33.33";" 21.699";"zentzudun";" 3.190046e-06"
" 2";"  6";" 33.33";" 21.699";"lotsagarri";" 3.190046e-06"
" 3";" 13";" 23.08";" 20.875";"bitarte";" 4.901640e-06"
" 3";" 14";" 21.43";" 19.002";"eitezi";" 1.305561e-05"
" 3";" 15";" 20.00";" 17.383";"erabat";" 3.056205e-05"
" 3";" 17";" 17.65";" 14.724";"eliza";" 1.244768e-04"
" 4";" 32";" 12.50";" 12.004";"kristau";" 5.308833e-04"
" 2";" 10";" 20.00";" 11.566";"merezi";" 6.717608e-04"
"12";"184";"  6.52";" 11.247";"bezala";" 7.974718e-04"
" 1";"  3";" 33.33";" 10.837";"su";" 9.950694e-04"
" 1";"  3";" 33.33";" 10.837";"lizunkeria";" 9.950694e-04"
" 1";"  3";" 33.33";" 10.837";"iezaiekan";" 9.950694e-04"
" 1";"  3";" 33.33";" 10.837";"ohoragarri";" 9.950694e-04"
" 1";"  3";" 33.33";" 10.837";"neskatxa";" 9.950694e-04"
" 1";"  3";" 33.33";" 10.837";"jatorriz";" 9.950694e-04"
" 1";"  3";" 33.33";" 10.837";"izar";" 9.950694e-04"
" 1";"  3";" 33.33";" 10.837";"israeli";" 9.950694e-04"
" 1";"  3";" 33.33";" 10.837";"haserretu";" 9.950694e-04"
" 1";"  3";" 33.33";" 10.837";"egiteraino";" 9.950694e-04"
" 1";"  3";" 33.33";" 10.837";"deus";" 9.950694e-04"
" 1";"  3";" 33.33";" 10.837";"berezko";" 9.950694e-04"
" 1";"  3";" 33.33";" 10.837";"apaltasun";" 9.950694e-04"
" 1";"  3";" 33.33";" 10.837";"adulteriorik";" 9.950694e-04"
" 1";"  3";" 33.33";" 10.837";"adibidez";" 9.950694e-04"
" 4";" 35";" 11.43";" 10.434";"bakoitz";" 1.237291e-03"
" 2";" 12";" 16.67";"  9.059";"prest";" 2.614362e-03"
" 2";" 12";" 16.67";"  9.059";"lotu";" 2.614362e-03"
" 3";" 25";" 12.00";"  8.425";"duenak";" 3.701881e-03"
" 1";"  4";" 25.00";"  7.664";"aurkeztu";" 5.632258e-03"
" 1";"  4";" 25.00";"  7.664";"oztopo";" 5.632258e-03"
" 1";"  4";" 25.00";"  7.664";"ostu";" 5.632258e-03"
" 1";"  4";" 25.00";"  7.664";"jarraitzaile";" 5.632258e-03"
" 1";"  4";" 25.00";"  7.664";"ezkon";" 5.632258e-03"
" 1";"  4";" 25.00";"  7.664";"bezalaxe";" 5.632258e-03"
" 1";"  4";" 25.00";"  7.664";"aintzaren";" 5.632258e-03"
" 1";"  4";" 25.00";"  7.664";"agurgarri";" 5.632258e-03"
" 4";" 44";"  9.09";"  7.071";"menpe";" 7.835688e-03"
" 2";" 15";" 13.33";"  6.578";"zor";" 1.032427e-02"
" 1";"  5";" 20.00";"  5.772";"lagungarri";" 1.628663e-02"
" 1";"  5";" 20.00";"  5.772";"sinesmenaga";" 1.628663e-02"
" 1";"  5";" 20.00";"  5.772";"neurritsu";" 1.628663e-02"
" 1";"  5";" 20.00";"  5.772";"hartzazue";" 1.628663e-02"
" 1";"  5";" 20.00";"  5.772";"estali";" 1.628663e-02"
" 1";"  5";" 20.00";"  5.772";"begirune";" 1.628663e-02"
" 2";" 17";" 11.76";"  5.426";"askatu";" 1.983687e-02"
" 2";" 18";" 11.11";"  4.951";"beza";" 2.608084e-02"
" 1";"  6";" 16.67";"  4.519";"distira";" 3.352386e-02"
" 1";"  6";" 16.67";"  4.519";"pentsatu";" 3.352386e-02"
" 1";"  6";" 16.67";"  4.519";"gazte";" 3.352386e-02"
" 1";"  6";" 16.67";"  4.519";"diet";" 3.352386e-02"
" 1";"  6";" 16.67";"  4.519";"bazter";" 3.352386e-02"
" 1";"  6";" 16.67";"  4.519";"baikara";" 3.352386e-02"
" 1";"  6";" 16.67";"  4.519";"agintzariaren";" 3.352386e-02"
" 2";" 20";" 10.00";"  4.150";"heldu";" 4.163018e-02"
" 1";"  7";" 14.29";"  3.632";"nahasi";" 5.669141e-02"
" 1";"  7";" 14.29";"  3.632";"bit";" 5.669141e-02"
" 2";" 23";"  8.70";"  3.228";"bizitu";" 7.239759e-02"
" 1";"  8";" 12.50";"  2.973";"gaitz";" 8.466685e-02"
" 1";"  8";" 12.50";"  2.973";"jabe";" 8.466685e-02"
" 1";"  8";" 12.50";"  2.973";"salbatzaile";" 8.466685e-02"
" 1";"  8";" 12.50";"  2.973";"indarrez";" 8.466685e-02"
" 1";"  8";" 12.50";"  2.973";"gezur";" 8.466685e-02"
" 1";"  8";" 12.50";"  2.973";"dia";" 8.466685e-02"
" 1";"  8";" 12.50";"  2.973";"askoz";" 8.466685e-02"
" 3";" 44";"  6.82";"  2.948";"maite";" 8.599387e-02"
" 3";" 47";"  6.38";"  2.525";"agindu";" 1.120680e-01"
" 1";"  9";" 11.11";"  2.467";"sagaratu";" 1.162853e-01"
" 2";" 27";"  7.41";"  2.344";"atsegin";" 1.257293e-01"
" 1";" 10";" 10.00";"  2.067";"zahar";" 1.505166e-01"
" 3";" 51";"  5.88";"  2.053";"horregatik";" 1.519236e-01"
"*****";"*";"*";"*";"*";"*"
"5";"40";"12.50";"15.052";"zeu";"0.0001045774"
"1";" 4";"25.00";" 7.664";"ditzala";"0.0056322582"
"1";" 4";"25.00";" 7.664";"bazaio";"0.0056322582"
"1";" 5";"20.00";" 5.772";"norbera";"0.0162866336"
"1";" 7";"14.29";" 3.632";"bazarete";"0.0566914091"
"1";" 8";"12.50";" 2.973";"zaituztet";"0.0846668539"
"*";"*";"*";"*";"*";"*"
"13";" 63";" 20.63";"79.954";"*K_1Ko_7";"3.833018e-19"
" 2";"  2";"100.00";"72.781";"*Tx_Ef_5_28";"1.448574e-17"
" 2";"  2";"100.00";"72.781";"*Tx_1Ko_7_11";"1.448574e-17"
" 2";"  2";"100.00";"72.781";"*Tx_1Ko_11_6";"1.448574e-17"
" 2";"  2";"100.00";"72.781";"*Tx_Erm_7_3";"1.448574e-17"
" 2";"  2";"100.00";"72.781";"*Tx_Erm_7_2";"1.448574e-17"
" 2";"  2";"100.00";"72.781";"*Tx_Ef_5_33";"1.448574e-17"
" 8";" 30";" 26.67";"67.064";"*K_Ef_5";"2.628729e-16"
" 2";"  3";" 66.67";"47.214";"*Tx_Erm_13_10";"6.364852e-12"
" 2";"  4";" 50.00";"34.443";"*Tx_1Ko_7_14";"4.388595e-09"
" 7";" 42";" 16.67";"32.081";"*K_1Ko_11";"1.478916e-08"
" 4";" 23";" 17.39";"19.291";"*K_Erm_13";"1.122588e-05"
" 1";"  2";" 50.00";"17.208";"*Tx_1Ko_7_12";"3.349767e-05"
" 1";"  2";" 50.00";"17.208";"*Tx_Ef_4_29";"3.349767e-05"
" 1";"  2";" 50.00";"17.208";"*Tx_Erm_3_1";"3.349767e-05"
" 1";"  2";" 50.00";"17.208";"*Tx_1Ko_7_34";"3.349767e-05"
" 1";"  2";" 50.00";"17.208";"*Tx_1Ko_15_39";"3.349767e-05"
" 1";"  2";" 50.00";"17.208";"*Tx_1Ko_7_39";"3.349767e-05"
" 1";"  2";" 50.00";"17.208";"*Tx_Ga_5_14";"3.349767e-05"
" 1";"  2";" 50.00";"17.208";"*Tx_Ga_5_15";"3.349767e-05"
" 1";"  2";" 50.00";"17.208";"*Tx_2Ko_1_11";"3.349767e-05"
" 1";"  2";" 50.00";"17.208";"*Tx_1Ko_7_9";"3.349767e-05"
" 1";"  2";" 50.00";"17.208";"*Tx_1Ko_5_1";"3.349767e-05"
" 1";"  2";" 50.00";"17.208";"*Tx_Erm_16_2";"3.349767e-05"
" 1";"  2";" 50.00";"17.208";"*Tx_1Ko_15_41";"3.349767e-05"
" 1";"  2";" 50.00";"17.208";"*Tx_Erm_11_20";"3.349767e-05"
" 1";"  2";" 50.00";"17.208";"*Tx_2Ko_11_2";"3.349767e-05"
" 1";"  2";" 50.00";"17.208";"*Tx_Erm_13_9";"3.349767e-05"
" 1";"  2";" 50.00";"17.208";"*Tx_Ga_4_23";"3.349767e-05"
" 1";"  2";" 50.00";"17.208";"*Tx_Erm_11_17";"3.349767e-05"
" 1";"  2";" 50.00";"17.208";"*Tx_Erm_11_18";"3.349767e-05"
" 6";" 57";" 10.53";"13.789";"*K_Erm_11";"2.045721e-04"
" 1";"  3";" 33.33";"10.837";"*Tx_Erm_11_22";"9.950694e-04"
" 1";"  3";" 33.33";"10.837";"*Tx_1Ko_14_20";"9.950694e-04"
" 1";"  3";" 33.33";"10.837";"*Tx_Erm_12_19";"9.950694e-04"
" 1";"  3";" 33.33";"10.837";"*Tx_Erm_14_5";"9.950694e-04"
"10";"145";"  6.90";"10.504";"*L_Efesoarrei";"1.191054e-03"
" 4";" 36";" 11.11";" 9.971";"*K_Erm_7";"1.589893e-03"
" 2";" 13";" 15.38";" 8.101";"*K_Tt_2";"4.425037e-03"
"25";"574";"  4.36";" 7.990";"*L_Korintoarrei1";"4.702695e-03"
" 1";"  4";" 25.00";" 7.664";"*Tx_Erm_12_21";"5.632258e-03"
" 1";"  4";" 25.00";" 7.664";"*Tx_Ga_4_27";"5.632258e-03"
" 2";" 18";" 11.11";" 4.951";"*K_1Ko_5";"2.608084e-02"
" 3";" 36";"  8.33";" 4.485";"*K_Ga_5";"3.419122e-02"
"**";"classe";"5";"**";"";""
"****";"1662";"2578";"64.47";"****";""
"818";"1136";" 72.01";"50.385";"ukan";"1.263597e-12"
"173";" 199";" 86.93";"47.516";"on";"5.456867e-12"
"108";" 122";" 88.52";"32.352";"behar";"1.286259e-08"
"398";" 544";" 73.16";"22.747";"egin";"1.847730e-06"
" 93";" 110";" 84.55";"20.219";"berri";"6.905970e-06"
" 39";"  40";" 97.50";"19.353";"handi";"1.086565e-05"
" 74";"  86";" 86.05";"18.084";"agertu";"2.113804e-05"
" 40";"  42";" 95.24";"17.647";"lan";"2.659759e-05"
" 70";"  81";" 86.42";"17.592";"gabe";"2.738018e-05"
" 68";"  79";" 86.08";"16.611";"orain";"4.589238e-05"
"191";" 251";" 76.10";"16.411";"eman";"5.098576e-05"
" 61";"  70";" 87.14";"16.150";"maitasun";"5.853337e-05"
" 33";"  34";" 97.06";"15.976";"beti";"6.416157e-05"
" 75";"  89";" 84.27";"15.778";"jakin";"7.120777e-05"
" 32";"  33";" 96.97";"15.415";"argi";"8.629820e-05"
" 27";"  27";"100.00";"15.038";"adore";"1.053476e-04"
" 35";"  37";" 94.59";"14.873";"jarraitu";"1.149887e-04"
" 31";"  32";" 96.88";"14.855";"poz";"1.160930e-04"
" 70";"  83";" 84.34";"14.780";"gauza";"1.208160e-04"
" 34";"  36";" 94.44";"14.322";"ezagutu";"1.540837e-04"
" 30";"  31";" 96.77";"14.296";"jokatu";"1.562062e-04"
" 30";"  31";" 96.77";"14.296";"otoitz";"1.562062e-04"
" 25";"  25";"100.00";"13.914";"eragin";"1.914181e-04"
" 53";"  61";" 86.89";"13.706";"giza";"2.137698e-04"
" 59";"  69";" 85.51";"13.700";"hitz";"2.145031e-04"
" 24";"  24";"100.00";"13.352";"sendo";"2.581836e-04"
" 32";"  34";" 94.12";"13.222";"mezu";"2.766420e-04"
" 34";"  37";" 91.89";"12.324";"saiatu";"4.471210e-04"
"118";" 152";" 77.63";"12.218";"nahi";"4.734164e-04"
" 26";"  27";" 96.30";"12.067";"ezin";"5.133202e-04"
" 40";"  45";" 88.89";"11.923";"joan";"5.543179e-04"
" 82";" 102";" 80.39";"11.756";"senide";"6.065320e-04"
" 36";"  40";" 90.00";"11.562";"irakatsi";"6.730610e-04"
" 25";"  26";" 96.15";"11.511";"asmo";"6.916919e-04"
" 28";"  30";" 93.33";"11.040";"garbi";"8.915379e-04"
" 47";"  55";" 85.45";"10.805";"jarri";"1.012252e-03"
" 34";"  38";" 89.47";"10.528";"indar";"1.176047e-03"
" 23";"  24";" 95.83";"10.404";"iritsi";"1.257492e-03"
" 54";"  65";" 83.08";"10.080";"alde";"1.498912e-03"
" 33";"  37";" 89.19";"10.015";"huts";"1.552963e-03"
" 18";"  18";"100.00";" 9.990";"irakaspen";"1.573643e-03"
" 18";"  18";"100.00";" 9.990";"eskaini";"1.573643e-03"
" 22";"  23";" 95.65";" 9.852";"gai";"1.696742e-03"
" 29";"  32";" 90.62";" 9.678";"jan";"1.865219e-03"
" 69";"  86";" 80.23";" 9.652";"buru";"1.891753e-03"
" 55";"  67";" 82.09";" 9.324";"ote";"2.261511e-03"
" 16";"  16";"100.00";" 8.873";"lur";"2.893617e-03"
" 27";"  30";" 90.00";" 8.638";"duzu";"3.292916e-03"
" 23";"  25";" 92.00";" 8.354";"jasan";"3.849444e-03"
" 26";"  29";" 89.66";" 8.122";"uste";"4.371945e-03"
" 35";"  41";" 85.37";" 7.943";"itxaropen";"4.828334e-03"
" 54";"  67";" 80.60";" 7.812";"mundu";"5.191462e-03"
" 14";"  14";"100.00";" 7.758";"gaizki";"5.347112e-03"
" 18";"  19";" 94.74";" 7.656";"grina";"5.659565e-03"
" 37";"  44";" 84.09";" 7.524";"etorri";"6.087027e-03"
" 34";"  40";" 85.00";" 7.477";"gizaki";"6.249139e-03"
" 21";"  23";" 91.30";" 7.296";"garai";"6.910675e-03"
" 21";"  23";" 91.30";" 7.296";"iraun";"6.910675e-03"
" 21";"  23";" 91.30";" 7.296";"ahal";"6.910675e-03"
" 13";"  13";"100.00";" 7.201";"bezalako";"7.285587e-03"
" 13";"  13";"100.00";" 7.201";"zoro";"7.285587e-03"
" 13";"  13";"100.00";" 7.201";"oker";"7.285587e-03"
" 65";"  83";" 78.31";" 7.176";"esker";"7.387658e-03"
" 41";"  50";" 82.00";" 6.841";"gogo";"8.906557e-03"
" 20";"  22";" 90.91";" 6.772";"zuengan";"9.259350e-03"
" 20";"  22";" 90.91";" 6.772";"atera";"9.259350e-03"
" 12";"  12";"100.00";" 6.645";"erreinu";"9.945414e-03"
" 35";"  42";" 83.33";" 6.633";"egun";"1.000940e-02"
" 16";"  17";" 94.12";" 6.567";"irrika";"1.038722e-02"
" 16";"  17";" 94.12";" 6.567";"atsekabe";"1.038722e-02"
" 43";"  53";" 81.13";" 6.559";"zeuen";"1.043273e-02"
" 26";"  30";" 86.67";" 6.529";"galdu";"1.061041e-02"
" 19";"  21";" 90.48";" 6.252";"kontzientzia";"1.240605e-02"
" 19";"  21";" 90.48";" 6.252";"adierazi";"1.240605e-02"
" 19";"  21";" 90.48";" 6.252";"kontu";"1.240605e-02"
" 19";"  21";" 90.48";" 6.252";"ahalmen";"1.240605e-02"
" 22";"  25";" 88.00";" 6.102";"egintza";"1.349909e-02"
" 11";"  11";"100.00";" 6.089";"gau";"1.360604e-02"
" 11";"  11";"100.00";" 6.089";"aztertu";"1.360604e-02"
" 11";"  11";"100.00";" 6.089";"aberats";"1.360604e-02"
" 11";"  11";"100.00";" 6.089";"nahigabe";"1.360604e-02"
" 11";"  11";"100.00";" 6.089";"gorde";"1.360604e-02"
" 11";"  11";"100.00";" 6.089";"gogor";"1.360604e-02"
" 11";"  11";"100.00";" 6.089";"gaizto";"1.360604e-02"
" 11";"  11";"100.00";" 6.089";"eztabaida";"1.360604e-02"
" 11";"  11";"100.00";" 6.089";"erantzun";"1.360604e-02"
" 47";"  59";" 79.66";" 6.084";"ikusi";"1.363988e-02"
" 15";"  16";" 93.75";" 6.026";"bizitza";"1.409462e-02"
" 96";" 129";" 74.42";" 5.869";"hartu";"1.540893e-02"
" 18";"  20";" 90.00";" 5.736";"epai";"1.662154e-02"
" 10";"  10";"100.00";" 5.533";"maiteo";"1.866221e-02"
" 10";"  10";"100.00";" 5.533";"jaso";"1.866221e-02"
" 10";"  10";"100.00";" 5.533";"eskuzabaltasun";"1.866221e-02"
" 10";"  10";"100.00";" 5.533";"eder";"1.866221e-02"
" 14";"  15";" 93.33";" 5.488";"beldur";"1.914930e-02"
" 14";"  15";" 93.33";" 5.488";"aukera";"1.914930e-02"
" 17";"  19";" 89.47";" 5.225";"ulertu";"2.226805e-02"
" 42";"  53";" 79.25";" 5.158";"ongi";"2.313787e-02"
" 26";"  31";" 83.87";" 5.157";"gain";"2.315789e-02"
"  9";"   9";"100.00";" 4.978";"pozik";"2.567660e-02"
"  9";"   9";"100.00";" 4.978";"erabili";"2.567660e-02"
"  9";"   9";"100.00";" 4.978";"ahulezia";"2.567660e-02"
"  9";"   9";"100.00";" 4.978";"jai";"2.567660e-02"
"  9";"   9";"100.00";" 4.978";"ihes";"2.567660e-02"
"  9";"   9";"100.00";" 4.978";"errudun";"2.567660e-02"
"  9";"   9";"100.00";" 4.978";"egoera";"2.567660e-02"
"  9";"   9";"100.00";" 4.978";"di";"2.567660e-02"
"  9";"   9";"100.00";" 4.978";"akats";"2.567660e-02"
" 13";"  14";" 92.86";" 4.952";"eutsi";"2.605390e-02"
" 13";"  14";" 92.86";" 4.952";"zigor";"2.605390e-02"
" 13";"  14";" 92.86";" 4.952";"etengabe";"2.605390e-02"
" 13";"  14";" 92.86";" 4.952";"barru";"2.605390e-02"
" 30";"  37";" 81.08";" 4.523";"nola";"3.344973e-02"
" 57";"  75";" 76.00";" 4.484";"egia";"3.420888e-02"
"  8";"   8";"100.00";" 4.423";"tinko";"3.546033e-02"
"  8";"   8";"100.00";" 4.423";"otoitu";"3.546033e-02"
"  8";"   8";"100.00";" 4.423";"neke";"3.546033e-02"
"  8";"   8";"100.00";" 4.423";"laster";"3.546033e-02"
"  8";"   8";"100.00";" 4.423";"laguntza";"3.546033e-02"
"  8";"   8";"100.00";" 4.423";"ezkutu";"3.546033e-02"
"  8";"   8";"100.00";" 4.423";"duen";"3.546033e-02"
" 12";"  13";" 92.31";" 4.421";"nolako";"3.550590e-02"
" 12";"  13";" 92.31";" 4.421";"urruti";"3.550590e-02"
" 12";"  13";" 92.31";" 4.421";"sari";"3.550590e-02"
" 12";"  13";" 92.31";" 4.421";"jokabide";"3.550590e-02"
" 12";"  13";" 92.31";" 4.421";"edan";"3.550590e-02"
" 12";"  13";" 92.31";" 4.421";"askatasun";"3.550590e-02"
" 21";"  25";" 84.00";" 4.204";"harro";"4.032498e-02"
" 44";"  57";" 77.19";" 4.120";"utzi";"4.237865e-02"
" 26";"  32";" 81.25";" 3.984";"bihurtu";"4.594639e-02"
"  7";"   7";"100.00";" 3.869";"mintzatu";"4.920028e-02"
"  7";"   7";"100.00";" 3.869";"predikatu";"4.920028e-02"
"  7";"   7";"100.00";" 3.869";"zorrotz";"4.920028e-02"
"  7";"   7";"100.00";" 3.869";"kondenatu";"4.920028e-02"
"  7";"   7";"100.00";" 3.869";"ezagutza";"4.920028e-02"
"  7";"   7";"100.00";" 3.869";"eskuzabal";"4.920028e-02"
"  7";"   7";"100.00";" 3.869";"erregutu";"4.920028e-02"
"  7";"   7";"100.00";" 3.869";"dagoeneko";"4.920028e-02"
"  7";"   7";"100.00";" 3.869";"aldeko";"4.920028e-02"
"  7";"   7";"100.00";" 3.869";"aipatu";"4.920028e-02"
"  7";"   7";"100.00";" 3.869";"aholkatu";"4.920028e-02"
"  7";"   7";"100.00";" 3.869";"ahalegin";"4.920028e-02"
" 14";"  16";" 87.50";" 3.728";"irabazi";"5.349956e-02"
" 30";"  38";" 78.95";" 3.530";"bihotz";"6.027906e-02"
" 10";"  11";" 90.91";" 3.372";"baliatu";"6.633159e-02"
" 10";"  11";" 90.91";" 3.372";"aldi";"6.633159e-02"
" 10";"  11";" 90.91";" 3.372";"misterio";"6.633159e-02"
" 10";"  11";" 90.91";" 3.372";"aurkitu";"6.633159e-02"
" 10";"  11";" 90.91";" 3.372";"zuen";"6.633159e-02"
" 10";"  11";" 90.91";" 3.372";"ziur";"6.633159e-02"
" 10";"  11";" 90.91";" 3.372";"zaiteztu";"6.633159e-02"
" 10";"  11";" 90.91";" 3.372";"uzukan";"6.633159e-02"
" 10";"  11";" 90.91";" 3.372";"kontra";"6.633159e-02"
" 10";"  11";" 90.91";" 3.372";"burutu";"6.633159e-02"
"167";" 239";" 69.87";" 3.361";"egon";"6.677104e-02"
"  6";"   6";"100.00";" 3.315";"arrisku";"6.866814e-02"
"  6";"   6";"100.00";" 3.315";"ondasuna";"6.866814e-02"
"  6";"   6";"100.00";" 3.315";"zentza+araz";"6.866814e-02"
"  6";"   6";"100.00";" 3.315";"noiz";"6.866814e-02"
"  6";"   6";"100.00";" 3.315";"erlijio";"6.866814e-02"
"  6";"   6";"100.00";" 3.315";"agerian";"6.866814e-02"
"  6";"   6";"100.00";" 3.315";"uko";"6.866814e-02"
"  6";"   6";"100.00";" 3.315";"sasijainkoei";"6.866814e-02"
"  6";"   6";"100.00";" 3.315";"maila";"6.866814e-02"
"  6";"   6";"100.00";" 3.315";"leialtasun";"6.866814e-02"
"  6";"   6";"100.00";" 3.315";"larri";"6.866814e-02"
"  6";"   6";"100.00";" 3.315";"kalte";"6.866814e-02"
"  6";"   6";"100.00";" 3.315";"irizpide";"6.866814e-02"
"  6";"   6";"100.00";" 3.315";"irakasle";"6.866814e-02"
"  6";"   6";"100.00";" 3.315";"hobeki";"6.866814e-02"
"  6";"   6";"100.00";" 3.315";"ezazukan";"6.866814e-02"
"  6";"   6";"100.00";" 3.315";"etorrera";"6.866814e-02"
"  6";"   6";"100.00";" 3.315";"erne";"6.866814e-02"
"  6";"   6";"100.00";" 3.315";"botere";"6.866814e-02"
"  6";"   6";"100.00";" 3.315";"bain";"6.866814e-02"
" 16";"  19";" 84.21";" 3.257";"hazi";"7.112963e-02"
" 16";"  19";" 84.21";" 3.257";"horrelako";"7.112963e-02"
" 16";"  19";" 84.21";" 3.257";"parte";"7.112963e-02"
" 21";"  26";" 80.77";" 3.047";"entzun";"8.090308e-02"
" 26";"  33";" 78.79";" 2.992";"fede";"8.366598e-02"
" 38";"  50";" 76.00";" 2.960";"dohain";"8.535189e-02"
" 18";"  22";" 81.82";" 2.916";"behin";"8.771395e-02"
"  9";"  10";" 90.00";" 2.857";"dudala";"9.098934e-02"
"  9";"  10";" 90.00";" 2.857";"zergatik";"9.098934e-02"
"  9";"  10";" 90.00";" 2.857";"zain";"9.098934e-02"
"  9";"  10";" 90.00";" 2.857";"egoki";"9.098934e-02"
"  9";"  10";" 90.00";" 2.857";"aginte";"9.098934e-02"
" 12";"  14";" 85.71";" 2.774";"mintzo";"9.581866e-02"
" 12";"  14";" 85.71";" 2.774";"jantzi";"9.581866e-02"
" 12";"  14";" 85.71";" 2.774";"aurrez";"9.581866e-02"
"  5";"   5";"100.00";" 2.761";"ontzi";"9.658355e-02"
"  5";"   5";"100.00";" 2.761";"harrera";"9.658355e-02"
"  5";"   5";"100.00";" 2.761";"ezertan";"9.658355e-02"
"  5";"   5";"100.00";" 2.761";"dituzun";"9.658355e-02"
"  5";"   5";"100.00";" 2.761";"ausartu";"9.658355e-02"
"  5";"   5";"100.00";" 2.761";"zigortu";"9.658355e-02"
"  5";"   5";"100.00";" 2.761";"ukatu";"9.658355e-02"
"  5";"   5";"100.00";" 2.761";"trebe";"9.658355e-02"
"  5";"   5";"100.00";" 2.761";"semea";"9.658355e-02"
"  5";"   5";"100.00";" 2.761";"satanasen";"9.658355e-02"
"  5";"   5";"100.00";" 2.761";"sakon";"9.658355e-02"
"  5";"   5";"100.00";" 2.761";"pertsegitu";"9.658355e-02"
"  5";"   5";"100.00";" 2.761";"pedro";"9.658355e-02"
"  5";"   5";"100.00";" 2.761";"lots";"9.658355e-02"
"  5";"   5";"100.00";" 2.761";"garaipen";"9.658355e-02"
"  5";"   5";"100.00";" 2.761";"gaituen";"9.658355e-02"
"  5";"   5";"100.00";" 2.761";"ezjakin";"9.658355e-02"
"  5";"   5";"100.00";" 2.761";"ezaguera";"9.658355e-02"
"  5";"   5";"100.00";" 2.761";"erasoaldi";"9.658355e-02"
"  5";"   5";"100.00";" 2.761";"entzule";"9.658355e-02"
"  5";"   5";"100.00";" 2.761";"egokitu";"9.658355e-02"
"  5";"   5";"100.00";" 2.761";"egita";"9.658355e-02"
"  5";"   5";"100.00";" 2.761";"efeson";"9.658355e-02"
"  5";"   5";"100.00";" 2.761";"dion";"9.658355e-02"
"  5";"   5";"100.00";" 2.761";"berezi";"9.658355e-02"
"  5";"   5";"100.00";" 2.761";"aurrera";"9.658355e-02"
"  5";"   5";"100.00";" 2.761";"arma";"9.658355e-02"
"  5";"   5";"100.00";" 2.761";"aholku";"9.658355e-02"
"  5";"   5";"100.00";" 2.761";"abiatu";"9.658355e-02"
" 17";"  21";" 80.95";" 2.511";"buruz";"1.130215e-01"
" 69";"  96";" 71.88";" 2.388";"arte";"1.222811e-01"
"  8";"   9";" 88.89";" 2.351";"jakintsu";"1.251808e-01"
"  8";"   9";" 88.89";" 2.351";"zentzu";"1.251808e-01"
"  8";"   9";" 88.89";" 2.351";"errebelde";"1.251808e-01"
"  8";"   9";" 88.89";" 2.351";"une";"1.251808e-01"
"  8";"   9";" 88.89";" 2.351";"opari";"1.251808e-01"
"  8";"   9";" 88.89";" 2.351";"konfiantza";"1.251808e-01"
"  8";"   9";" 88.89";" 2.351";"gose";"1.251808e-01"
"  8";"   9";" 88.89";" 2.351";"eskubide";"1.251808e-01"
"  8";"   9";" 88.89";" 2.351";"agintari";"1.251808e-01"
" 11";"  13";" 84.62";" 2.315";"txar";"1.281139e-01"
" 11";"  13";" 84.62";" 2.315";"jainkoar";"1.281139e-01"
" 11";"  13";" 84.62";" 2.315";"da";"1.281139e-01"
" 47";"  64";" 73.44";" 2.305";"jesus";"1.289819e-01"
" 31";"  41";" 75.61";" 2.258";"eskatu";"1.329597e-01"
"  4";"   4";"100.00";" 2.208";"kutsatu";"1.372967e-01"
"  4";"   4";"100.00";" 2.208";"sinesgarri";"1.372967e-01"
"  4";"   4";"100.00";" 2.208";"profezi";"1.372967e-01"
"  4";"   4";"100.00";" 2.208";"ordez";"1.372967e-01"
"  4";"   4";"100.00";" 2.208";"ilun";"1.372967e-01"
"  4";"   4";"100.00";" 2.208";"gainditu";"1.372967e-01"
"  4";"   4";"100.00";" 2.208";"zorion";"1.372967e-01"
"  4";"   4";"100.00";" 2.208";"ziren";"1.372967e-01"
"  4";"   4";"100.00";" 2.208";"zeuekin";"1.372967e-01"
"  4";"   4";"100.00";" 2.208";"zatkan";"1.372967e-01"
"  4";"   4";"100.00";" 2.208";"ur";"1.372967e-01"
"  4";"   4";"100.00";" 2.208";"tentaldi";"1.372967e-01"
"  4";"   4";"100.00";" 2.208";"satanasek";"1.372967e-01"
"  4";"   4";"100.00";" 2.208";"sare";"1.372967e-01"
"  4";"   4";"100.00";" 2.208";"osoosorik";"1.372967e-01"
"  4";"   4";"100.00";" 2.208";"nireganako";"1.372967e-01"
"  4";"   4";"100.00";" 2.208";"neurrigabe";"1.372967e-01"
"  4";"   4";"100.00";" 2.208";"nagoela";"1.372967e-01"
"  4";"   4";"100.00";" 2.208";"muga";"1.372967e-01"
"  4";"   4";"100.00";" 2.208";"mazedonia";"1.372967e-01"
"  4";"   4";"100.00";" 2.208";"justizia";"1.372967e-01"
"  4";"   4";"100.00";" 2.208";"jentilei";"1.372967e-01"
"  4";"   4";"100.00";" 2.208";"jaunarengandik";"1.372967e-01"
"  4";"   4";"100.00";" 2.208";"hondamendi";"1.372967e-01"
"  4";"   4";"100.00";" 2.208";"hilzori";"1.372967e-01"
"  4";"   4";"100.00";" 2.208";"haue";"1.372967e-01"
"  4";"   4";"100.00";" 2.208";"harreman";"1.372967e-01"
"  4";"   4";"100.00";" 2.208";"gorri";"1.372967e-01"
"  4";"   4";"100.00";" 2.208";"gezurti";"1.372967e-01"
"  4";"   4";"100.00";" 2.208";"genizuen";"1.372967e-01"
"  4";"   4";"100.00";" 2.208";"ezkongabe";"1.372967e-01"
"  4";"   4";"100.00";" 2.208";"etsi";"1.372967e-01"
"  4";"   4";"100.00";" 2.208";"eroapena";"1.372967e-01"
"  4";"   4";"100.00";" 2.208";"eran";"1.372967e-01"
"  4";"   4";"100.00";" 2.208";"epe";"1.372967e-01"
"  4";"   4";"100.00";" 2.208";"engainatu";"1.372967e-01"
"  4";"   4";"100.00";" 2.208";"egokizun";"1.372967e-01"
"  4";"   4";"100.00";" 2.208";"egile";"1.372967e-01"
"  4";"   4";"100.00";" 2.208";"ditzazuen";"1.372967e-01"
"  4";"   4";"100.00";" 2.208";"denei";"1.372967e-01"
"  4";"   4";"100.00";" 2.208";"deabrua";"1.372967e-01"
"  4";"   4";"100.00";" 2.208";"deabru";"1.372967e-01"
"  4";"   4";"100.00";" 2.208";"bukatu";"1.372967e-01"
"  4";"   4";"100.00";" 2.208";"bota";"1.372967e-01"
"  4";"   4";"100.00";" 2.208";"bihotu";"1.372967e-01"
"  4";"   4";"100.00";" 2.208";"betera";"1.372967e-01"
"  4";"   4";"100.00";" 2.208";"bereizkeriari";"1.372967e-01"
"  4";"   4";"100.00";" 2.208";"begiruneaga";"1.372967e-01"
"  4";"   4";"100.00";" 2.208";"arretaz";"1.372967e-01"
"  4";"   4";"100.00";" 2.208";"alferrika";"1.372967e-01"
"  4";"   4";"100.00";" 2.208";"aitzakia";"1.372967e-01"
"  4";"   4";"100.00";" 2.208";"aintzat";"1.372967e-01"
"  4";"   4";"100.00";" 2.208";"ahala";"1.372967e-01"
"  4";"   4";"100.00";" 2.208";"aberastasun";"1.372967e-01"
" 26";"  34";" 76.47";" 2.167";"eraman";"1.410317e-01"
" 21";"  27";" 77.78";" 2.110";"ezarri";"1.463408e-01"
" 21";"  27";" 77.78";" 2.110";"atsegin";"1.463408e-01"
" 46";"  63";" 73.02";" 2.060";"aurre";"1.512503e-01"
"*****";"*";"*";"*";"*";"*"
" 36";" 41";" 87.80";"9.905";"ezer";"0.001648404"
" 26";" 30";" 86.67";"6.529";"geu";"0.010610406"
" 19";" 21";" 90.48";"6.252";"nau";"0.012406048"
"121";"165";" 73.33";"6.048";"zuek";"0.013925312"
" 10";" 10";"100.00";"5.533";"natzaizue";"0.018662213"
" 10";" 10";"100.00";"5.533";"egizue";"0.018662213"
"  8";"  8";"100.00";"4.423";"gaituzte";"0.035460334"
" 30";" 38";" 78.95";"3.530";"zaitezte";"0.060279061"
" 51";" 68";" 75.00";"3.382";"ari";"0.065925208"
"  6";"  6";"100.00";"3.315";"zinetu";"0.068668137"
"  6";"  6";"100.00";"3.315";"nadin";"0.068668137"
"  6";"  6";"100.00";"3.315";"dezada";"0.068668137"
" 29";" 37";" 78.38";"3.171";"elkar";"0.074968363"
" 12";" 14";" 85.71";"2.774";"gaitezen";"0.095818663"
"  5";"  5";"100.00";"2.761";"ukzkion";"0.096583555"
"  5";"  5";"100.00";"2.761";"ezakekan";"0.096583555"
"197";"286";" 68.88";"2.734";"ni";"0.098212772"
"  8";"  9";" 88.89";"2.351";"baitut";"0.125180794"
"  4";"  4";"100.00";"2.208";"nauzue";"0.137296681"
"  4";"  4";"100.00";"2.208";"dagokia";"0.137296681"
"*";"*";"*";"*";"*";"*"
"278";"354";" 78.53";"35.425";"*L_Korintoarrei2";"2.650016e-09"
" 88";"102";" 86.27";"22.046";"*L_Tesalonikarrei1";"2.662559e-06"
" 29";" 31";" 93.55";"11.583";"*K_2Ko_7";"6.654128e-04"
" 24";" 25";" 96.00";"10.957";"*K_2Ko_10";"9.324200e-04"
" 26";" 29";" 89.66";" 8.122";"*K_1Ts_2";"4.371945e-03"
" 73";" 94";" 77.66";" 7.411";"*L_Timoteori2";"6.484058e-03"
" 33";" 39";" 84.62";" 7.017";"*K_2Ko_11";"8.075032e-03"
" 37";" 45";" 82.22";" 6.302";"*K_1Ko_9";"1.206057e-02"
" 21";" 24";" 87.50";" 5.610";"*K_2Ko_5";"1.785943e-02"
" 14";" 15";" 93.33";" 5.488";"*K_1Ts_3";"1.914930e-02"
" 17";" 19";" 89.47";" 5.225";"*K_Ef_3";"2.226805e-02"
" 39";" 49";" 79.59";" 4.987";"*L_Titori";"2.553493e-02"
" 16";" 18";" 88.89";" 4.719";"*K_1Ko_2";"2.982975e-02"
" 22";" 26";" 84.62";" 4.654";"*K_1Ts_5";"3.098110e-02"
" 27";" 33";" 81.82";" 4.393";"*K_Flp_1";"3.609400e-02"
" 21";" 25";" 84.00";" 4.204";"*K_Kol_1";"4.032498e-02"
" 18";" 21";" 85.71";" 4.172";"*K_Tt_1";"4.109520e-02"
" 29";" 36";" 80.56";" 4.125";"*K_Erm_12";"4.226018e-02"
" 34";" 43";" 79.07";" 4.070";"*K_Erm_1";"4.365257e-02"
" 87";"119";" 73.11";" 4.066";"*L_Filipostarrei";"4.374568e-02"
" 20";" 24";" 83.33";" 3.764";"*K_2Ts_3";"5.237660e-02"
" 22";" 27";" 81.48";" 3.448";"*K_Flp_2";"6.333899e-02"
" 88";"122";" 72.13";" 3.282";"*L_Timoteori1";"7.002297e-02"
" 16";" 19";" 84.21";" 3.257";"*K_1Tm_4";"7.112963e-02"
" 16";" 19";" 84.21";" 3.257";"*K_2Ko_9";"7.112963e-02"
" 16";" 19";" 84.21";" 3.257";"*K_2Tm_3";"7.112963e-02"
" 15";" 18";" 83.33";" 2.816";"*K_1Ko_8";"9.331952e-02"
" 20";" 25";" 80.00";" 2.658";"*K_2Ko_4";"1.029990e-01"
" 20";" 25";" 80.00";" 2.658";"*K_2Ko_2";"1.029990e-01"
" 20";" 25";" 80.00";" 2.658";"*K_Ga_1";"1.029990e-01"
" 22";" 28";" 78.57";" 2.458";"*K_2Tm_4";"1.169394e-01"
" 24";" 31";" 77.42";" 2.297";"*K_2Ko_12";"1.295864e-01"
" 19";" 24";" 79.17";" 2.285";"*K_2Tm_2";"1.306532e-01"
"  4";"  4";"100.00";" 2.208";"*Tx_2Ko_7_9";"1.372967e-01"
"  4";"  4";"100.00";" 2.208";"*Tx_2Ko_7_11";"1.372967e-01"
"  4";"  4";"100.00";" 2.208";"*Tx_1Ts_2_13";"1.372967e-01"
" 26";" 34";" 76.47";" 2.167";"*K_1Ko_3";"1.410317e-01"
" 16";" 20";" 80.00";" 2.123";"*K_1Ts_4";"1.451373e-01"
"**";"classe";"6";"**";"";""
"****";"601";"2578";"23.31";"****";""
" 81";"102";" 79.41";"186.952";"lege";"1.471485e-42"
" 56";" 68";" 82.35";"136.176";"hil";"1.826270e-31"
" 45";" 48";" 93.75";"135.736";"piztu";"2.279277e-31"
" 45";" 49";" 91.84";"131.190";"liburu";"2.249831e-30"
" 57";" 74";" 77.03";"122.955";"bekatu";"1.426486e-28"
" 54";" 70";" 77.14";"116.625";"santu";"3.468814e-27"
" 55";" 85";" 64.71";" 84.241";"bide";"4.380138e-20"
" 31";" 37";" 83.78";" 76.782";"herri";"1.908837e-18"
" 22";" 24";" 91.67";" 63.312";"esklabo";"1.764256e-15"
" 92";"201";" 45.77";" 61.503";"esan";"4.420812e-15"
" 20";" 21";" 95.24";" 61.266";"kristorekin";"4.985523e-15"
" 16";" 16";"100.00";" 52.961";"honela";"3.402417e-13"
" 20";" 23";" 86.96";" 52.580";"hildako";"4.131459e-13"
" 40";" 71";" 56.34";" 44.542";"gorputz";"2.489898e-11"
" 15";" 17";" 88.24";" 40.346";"atal";"2.127515e-10"
" 21";" 29";" 72.41";" 39.553";"bakar";"3.192813e-10"
" 11";" 12";" 91.67";" 31.508";"libre";"1.986240e-08"
" 30";" 56";" 53.57";" 29.317";"onartu";"6.146718e-08"
" 10";" 11";" 90.91";" 28.235";"kendu";"1.074645e-07"
" 12";" 15";" 80.00";" 27.120";"begi";"1.912531e-07"
"  8";"  8";"100.00";" 26.398";"betetu";"2.778197e-07"
" 10";" 12";" 83.33";" 24.294";"ondorengo";"8.270802e-07"
" 12";" 16";" 75.00";" 24.059";"semealabak";"9.342992e-07"
" 11";" 14";" 78.57";" 24.043";"nagusi";"9.423091e-07"
" 25";" 47";" 53.19";" 23.906";"agindu";"1.011734e-06"
"  7";"  7";"100.00";" 23.089";"ordaindu";"1.546476e-06"
" 16";" 26";" 61.54";" 21.467";"deitu";"3.599477e-06"
"  6";"  6";"100.00";" 19.783";"zuzentzat";"8.674413e-06"
"  6";"  6";"100.00";" 19.783";"eskuratu";"8.674413e-06"
"  6";"  6";"100.00";" 19.783";"isuri";"8.674413e-06"
"  6";"  6";"100.00";" 19.783";"bataio";"8.674413e-06"
"  6";"  6";"100.00";" 19.783";"abraham";"8.674413e-06"
"187";"629";" 29.73";" 19.164";"jainko";"1.199663e-05"
" 22";" 43";" 51.16";" 18.972";"heriotza";"1.326512e-05"
"  7";"  8";" 87.50";" 18.494";"israel";"1.704683e-05"
"  8";" 10";" 80.00";" 18.045";"barkatu";"2.158007e-05"
"  5";"  5";"100.00";" 16.480";"begiratu";"4.917767e-05"
"  5";"  5";"100.00";" 16.480";"ospetsu";"4.917767e-05"
"  5";"  5";"100.00";" 16.480";"odol";"4.917767e-05"
"  5";"  5";"100.00";" 16.480";"erdaindu";"4.917767e-05"
"  5";"  5";"100.00";" 16.480";"baitzaituzte";"4.917767e-05"
"  5";"  5";"100.00";" 16.480";"atzerritar";"4.917767e-05"
"  5";"  5";"100.00";" 16.480";"agintzari";"4.917767e-05"
"  5";"  5";"100.00";" 16.480";"abrahamek";"4.917767e-05"
" 18";" 35";" 51.43";" 15.689";"zuzen";"7.465880e-05"
"  6";"  7";" 85.71";" 15.288";"abrahamen";"9.229258e-05"
"  6";"  7";" 85.71";" 15.288";"erdainkuntza";"9.229258e-05"
"  6";"  7";" 85.71";" 15.288";"goretsi";"9.229258e-05"
"  8";" 11";" 72.73";" 15.088";"ondorio";"1.025875e-04"
"  8";" 11";" 72.73";" 15.088";"moisesen";"1.025875e-04"
"  7";"  9";" 77.78";" 14.986";"balu";"1.083169e-04"
"  4";"  4";"100.00";" 13.179";"legami";"2.831767e-04"
"  4";"  4";"100.00";" 13.179";"zuzenetsi";"2.831767e-04"
"  4";"  4";"100.00";" 13.179";"zerikusi";"2.831767e-04"
"  4";"  4";"100.00";" 13.179";"kristogan";"2.831767e-04"
"  4";"  4";"100.00";" 13.179";"jesusekin";"2.831767e-04"
"  4";"  4";"100.00";" 13.179";"hilda";"2.831767e-04"
"  4";"  4";"100.00";" 13.179";"gintu";"2.831767e-04"
"  4";"  4";"100.00";" 13.179";"belarri";"2.831767e-04"
"  4";"  4";"100.00";" 13.179";"baliogabe";"2.831767e-04"
"  5";"  6";" 83.33";" 12.119";"ipini";"4.992333e-04"
"  5";"  6";" 83.33";" 12.119";"distira";"4.992333e-04"
"  5";"  6";" 83.33";" 12.119";"bere";"4.992333e-04"
"  5";"  6";" 83.33";" 12.119";"antzeko";"4.992333e-04"
"  5";"  6";" 83.33";" 12.119";"axola";"4.992333e-04"
" 10";" 17";" 58.82";" 12.071";"askatu";"5.122241e-04"
" 57";"166";" 34.34";" 12.062";"bizi";"5.145014e-04"
"  6";"  8";" 75.00";" 11.992";"gaituela";"5.342827e-04"
"  6";"  8";" 75.00";" 11.992";"bataiatu";"5.342827e-04"
"  6";"  8";" 75.00";" 11.992";"gurega";"5.342827e-04"
" 20";" 45";" 44.44";" 11.440";"sinetsi";"7.188811e-04"
" 34";" 89";" 38.20";" 11.431";"horrela";"7.221382e-04"
"  8";" 13";" 61.54";" 10.679";"israeldar";"1.083492e-03"
"  7";" 11";" 63.64";" 10.047";"itun";"1.525595e-03"
"  3";"  3";"100.00";"  9.880";"obeditu";"1.670804e-03"
"  3";"  3";"100.00";"  9.880";"sinesgogor";"1.670804e-03"
"  3";"  3";"100.00";"  9.880";"osatu";"1.670804e-03"
"  3";"  3";"100.00";"  9.880";"ore";"1.670804e-03"
"  3";"  3";"100.00";"  9.880";"israelen";"1.670804e-03"
"  3";"  3";"100.00";"  9.880";"eskuinalde";"1.670804e-03"
"  3";"  3";"100.00";"  9.880";"eseri";"1.670804e-03"
"  3";"  3";"100.00";"  9.880";"bekatuarentzat";"1.670804e-03"
" 59";"180";" 32.78";"  9.697";"kristu";"1.845536e-03"
" 14";" 30";" 46.67";"  9.260";"aldu";"2.342082e-03"
"  5";"  7";" 71.43";"  9.090";"zoriontsu";"2.570774e-03"
"  5";"  7";" 71.43";"  9.090";"gurutu";"2.570774e-03"
"  5";"  7";" 71.43";"  9.090";"bekata";"2.570774e-03"
"  8";" 14";" 57.14";"  9.011";"benetako";"2.683167e-03"
"  4";"  5";" 80.00";"  9.005";"jatorri";"2.692833e-03"
"  4";"  5";" 80.00";"  9.005";"zia";"2.692833e-03"
"  4";"  5";" 80.00";"  9.005";"zaitu";"2.692833e-03"
"  4";"  5";" 80.00";"  9.005";"jadanik";"2.692833e-03"
"  4";"  5";" 80.00";"  9.005";"erdainduak";"2.692833e-03"
"  4";"  5";" 80.00";"  9.005";"abrahami";"2.692833e-03"
" 16";" 37";" 43.24";"  8.341";"bitart";"3.876551e-03"
"  7";" 12";" 58.33";"  8.271";"lotu";"4.029028e-03"
"  6";" 10";" 60.00";"  7.558";"zahar";"5.974513e-03"
"  6";" 10";" 60.00";"  7.558";"kristorengan";"5.974513e-03"
"  9";" 18";" 50.00";"  7.221";"orduan";"7.204632e-03"
"  5";"  8";" 62.50";"  6.893";"legepe";"8.652772e-03"
"  5";"  8";" 62.50";"  6.893";"tenplu";"8.652772e-03"
"  5";"  8";" 62.50";"  6.893";"oinordeko";"8.652772e-03"
"  5";"  8";" 62.50";"  6.893";"dit";"8.652772e-03"
" 11";" 24";" 45.83";"  6.873";"hain";"8.752708e-03"
" 13";" 30";" 43.33";"  6.805";"gelditu";"9.088757e-03"
"  8";" 16";" 50.00";"  6.414";"elkartu";"1.132330e-02"
"  4";"  6";" 66.67";"  6.323";"zaudete";"1.191980e-02"
"  4";"  6";" 66.67";"  6.323";"horrexega";"1.191980e-02"
"  4";"  6";" 66.67";"  6.323";"hilik";"1.191980e-02"
"  4";"  6";" 66.67";"  6.323";"barruti";"1.191980e-02"
"  4";"  6";" 66.67";"  6.323";"baikara";"1.191980e-02"
"  4";"  6";" 66.67";"  6.323";"ahaltsu";"1.191980e-02"
"  4";"  6";" 66.67";"  6.323";"agintzariaren";"1.191980e-02"
" 10";" 22";" 45.45";"  6.085";"ezakan";"1.363359e-02"
"  3";"  4";" 75.00";"  5.987";"onginahiaren";"1.441413e-02"
"  3";"  4";" 75.00";"  5.987";"nizuena";"1.441413e-02"
"  3";"  4";" 75.00";"  5.987";"badabiltza";"1.441413e-02"
"  3";"  4";" 75.00";"  5.987";"aurpegi";"1.441413e-02"
"  3";"  4";" 75.00";"  5.987";"ahoz";"1.441413e-02"
" 30";" 89";" 33.71";"  5.572";"sinesmen";"1.825138e-02"
"  5";"  9";" 55.56";"  5.252";"sagaratu";"2.192312e-02"
"  6";" 12";" 50.00";"  4.803";"bila";"2.841193e-02"
"  6";" 12";" 50.00";"  4.803";"noski";"2.841193e-02"
"  4";"  7";" 57.14";"  4.493";"arau";"3.402637e-02"
"  4";"  7";" 57.14";"  4.493";"zaiteztela";"3.402637e-02"
"  4";"  7";" 57.14";"  4.493";"baliotsu";"3.402637e-02"
"  5";" 10";" 50.00";"  3.999";"gaitzetsi";"4.551925e-02"
"  6";" 13";" 46.15";"  3.813";"adimen";"5.085772e-02"
"  3";"  5";" 60.00";"  3.772";"seinale";"5.212840e-02"
"  3";"  5";" 60.00";"  3.772";"bedeinka";"5.212840e-02"
"  3";"  5";" 60.00";"  3.772";"zaretenez";"5.212840e-02"
"  3";"  5";" 60.00";"  3.772";"kanpo";"5.212840e-02"
"  3";"  5";" 60.00";"  3.772";"janari";"5.212840e-02"
"  3";"  5";" 60.00";"  3.772";"gaitzespen";"5.212840e-02"
" 37";"121";" 30.58";"  3.749";"espiritu";"5.283714e-02"
"  4";"  8";" 50.00";"  3.197";"bereizi";"7.377585e-02"
"  2";"  3";" 66.67";"  3.158";"zorakeri";"7.556974e-02"
"  2";"  3";" 66.67";"  3.158";"neuregan";"7.556974e-02"
"  2";"  3";" 66.67";"  3.158";"gisa";"7.556974e-02"
"  2";"  3";" 66.67";"  3.158";"gidatu";"7.556974e-02"
"  2";"  3";" 66.67";"  3.158";"faltsu";"7.556974e-02"
"  2";"  3";" 66.67";"  3.158";"aldare";"7.556974e-02"
"  2";"  3";" 66.67";"  3.158";"ustelkor";"7.556974e-02"
"  2";"  3";" 66.67";"  3.158";"ustelezin";"7.556974e-02"
"  2";"  3";" 66.67";"  3.158";"ukaikan";"7.556974e-02"
"  2";"  3";" 66.67";"  3.158";"sabela";"7.556974e-02"
"  2";"  3";" 66.67";"  3.158";"moisesek";"7.556974e-02"
"  2";"  3";" 66.67";"  3.158";"luzatu";"7.556974e-02"
"  2";"  3";" 66.67";"  3.158";"luzaroan";"7.556974e-02"
"  2";"  3";" 66.67";"  3.158";"lurralde";"7.556974e-02"
"  2";"  3";" 66.67";"  3.158";"joko";"7.556974e-02"
"  2";"  3";" 66.67";"  3.158";"izkitu";"7.556974e-02"
"  2";"  3";" 66.67";"  3.158";"israeli";"7.556974e-02"
"  2";"  3";" 66.67";"  3.158";"iragankor";"7.556974e-02"
"  2";"  3";" 66.67";"  3.158";"ilundu";"7.556974e-02"
"  2";"  3";" 66.67";"  3.158";"gizonemakumeek";"7.556974e-02"
"  2";"  3";" 66.67";"  3.158";"espirituzkoa";"7.556974e-02"
"  2";"  3";" 66.67";"  3.158";"eraginpe";"7.556974e-02"
"  2";"  3";" 66.67";"  3.158";"egintzengatik";"7.556974e-02"
"  2";"  3";" 66.67";"  3.158";"bizkar";"7.556974e-02"
"  2";"  3";" 66.67";"  3.158";"bedeinkazio";"7.556974e-02"
"  2";"  3";" 66.67";"  3.158";"batu";"7.556974e-02"
"  2";"  3";" 66.67";"  3.158";"altxatu";"7.556974e-02"
"  8";" 20";" 40.00";"  3.140";"aukeratu";"7.641332e-02"
"  8";" 20";" 40.00";"  3.140";"betiko";"7.641332e-02"
"  5";" 11";" 45.45";"  3.029";"digu";"8.176559e-02"
" 12";" 34";" 35.29";"  2.767";"salbatu";"9.624910e-02"
" 52";"184";" 28.26";"  2.714";"bezala";"9.949071e-02"
" 34";"116";" 29.31";"  2.444";"jesu";"1.179726e-01"
"  3";"  6";" 50.00";"  2.396";"diet";"1.216579e-01"
" 28";" 94";" 29.79";"  2.288";"bete";"1.304167e-01"
"  4";"  9";" 44.44";"  2.256";"direneitu";"1.331065e-01"
"  4";"  9";" 44.44";"  2.256";"bizirik";"1.331065e-01"
"*****";"*";"*";"*";"*";"*"
"  3";"   3";"100.00";"9.880";"zaiteu";"0.001670804"
" 12";"  24";" 50.00";"9.651";"gaitu";"0.001892561"
"353";"1374";" 25.69";"9.312";"izan";"0.002276885"
"  4";"   7";" 57.14";"4.493";"zigun";"0.034026371"
"  4";"   7";" 57.14";"4.493";"bazarete";"0.034026371"
"  4";"   8";" 50.00";"3.197";"ukrenentzan";"0.073775847"
"  7";"  18";" 38.89";"2.460";"zaituzte";"0.116782790"
"*";"*";"*";"*";"*";"*"
"231";"627";" 36.84";"84.828";"*L_Erromatarrei";"3.254966e-20"
" 33";" 40";" 82.50";"79.615";"*K_Erm_4";"4.550035e-19"
" 31";" 45";" 68.89";"53.214";"*K_Ga_3";"2.991927e-13"
" 23";" 32";" 71.88";"42.742";"*K_Erm_5";"6.244483e-11"
" 21";" 31";" 67.74";"34.645";"*K_Erm_6";"3.956774e-09"
" 23";" 36";" 63.89";"33.623";"*K_Erm_7";"6.689232e-09"
" 34";" 74";" 45.95";"21.830";"*K_1Ko_15";"2.978507e-06"
" 21";" 40";" 52.50";"19.361";"*K_1Ko_12";"1.082001e-05"
" 72";"206";" 34.95";"16.964";"*L_Galaziarrei";"3.808823e-05"
"  5";"  5";"100.00";"16.480";"*Tx_Erm_4_17";"4.917767e-05"
" 14";" 29";" 48.28";"10.223";"*K_1Ko_6";"1.386673e-03"
"  3";"  3";"100.00";" 9.880";"*Tx_Ga_3_9";"1.670804e-03"
"  3";"  3";"100.00";" 9.880";"*Tx_Erm_4_18";"1.670804e-03"
"  3";"  3";"100.00";" 9.880";"*Tx_Erm_10_21";"1.670804e-03"
"  3";"  3";"100.00";" 9.880";"*Tx_Ga_3_10";"1.670804e-03"
"  3";"  3";"100.00";" 9.880";"*Tx_Erm_4_11";"1.670804e-03"
"  3";"  3";"100.00";" 9.880";"*Tx_Erm_4_6";"1.670804e-03"
"  3";"  3";"100.00";" 9.880";"*Tx_Erm_5_16";"1.670804e-03"
"  3";"  3";"100.00";" 9.880";"*Tx_Erm_11_8";"1.670804e-03"
"  3";"  3";"100.00";" 9.880";"*Tx_Ga_2_16";"1.670804e-03"
"  3";"  3";"100.00";" 9.880";"*Tx_Erm_14_11";"1.670804e-03"
"  3";"  3";"100.00";" 9.880";"*Tx_Erm_8_15";"1.670804e-03"
"  3";"  3";"100.00";" 9.880";"*Tx_Flp_3_5";"1.670804e-03"
"  3";"  3";"100.00";" 9.880";"*Tx_Erm_6_16";"1.670804e-03"
"  4";"  5";" 80.00";" 9.005";"*Tx_Ga_3_12";"2.692833e-03"
" 20";" 50";" 40.00";" 7.942";"*K_Erm_8";"4.829767e-03"
" 16";" 38";" 42.11";" 7.619";"*K_Erm_2";"5.775984e-03"
" 12";" 27";" 44.44";" 6.815";"*K_Ef_2";"9.037308e-03"
"  2";"  2";"100.00";" 6.584";"*Tx_1Ko_15_29";"1.028911e-02"
"  2";"  2";"100.00";" 6.584";"*Tx_Erm_2_12";"1.028911e-02"
"  2";"  2";"100.00";" 6.584";"*Tx_Erm_4_13";"1.028911e-02"
"  2";"  2";"100.00";" 6.584";"*Tx_1Ko_7_15";"1.028911e-02"
"  2";"  2";"100.00";" 6.584";"*Tx_2Ko_2_10";"1.028911e-02"
"  2";"  2";"100.00";" 6.584";"*Tx_1Ko_12_12";"1.028911e-02"
"  2";"  2";"100.00";" 6.584";"*Tx_1Ko_12_17";"1.028911e-02"
"  2";"  2";"100.00";" 6.584";"*Tx_Erm_5_8";"1.028911e-02"
"  2";"  2";"100.00";" 6.584";"*Tx_Kol_2_11";"1.028911e-02"
"  2";"  2";"100.00";" 6.584";"*Tx_Erm_7_8";"1.028911e-02"
"  2";"  2";"100.00";" 6.584";"*Tx_Erm_7_6";"1.028911e-02"
"  2";"  2";"100.00";" 6.584";"*Tx_Erm_9_7";"1.028911e-02"
"  2";"  2";"100.00";" 6.584";"*Tx_Erm_9_4";"1.028911e-02"
"  2";"  2";"100.00";" 6.584";"*Tx_Ga_3_16";"1.028911e-02"
"  2";"  2";"100.00";" 6.584";"*Tx_Ga_3_18";"1.028911e-02"
"  2";"  2";"100.00";" 6.584";"*Tx_Ef_2_12";"1.028911e-02"
"  2";"  2";"100.00";" 6.584";"*Tx_1Ko_6_18";"1.028911e-02"
"  2";"  2";"100.00";" 6.584";"*Tx_Erm_4_22";"1.028911e-02"
"  2";"  2";"100.00";" 6.584";"*Tx_Erm_4_3";"1.028911e-02"
"  2";"  2";"100.00";" 6.584";"*Tx_1Ko_10_16";"1.028911e-02"
"  2";"  2";"100.00";" 6.584";"*Tx_Erm_15_11";"1.028911e-02"
"  2";"  2";"100.00";" 6.584";"*Tx_1Ko_12_26";"1.028911e-02"
"  2";"  2";"100.00";" 6.584";"*Tx_Erm_7_10";"1.028911e-02"
"  2";"  2";"100.00";" 6.584";"*Tx_Erm_8_30";"1.028911e-02"
"  2";"  2";"100.00";" 6.584";"*Tx_Erm_5_13";"1.028911e-02"
"  2";"  2";"100.00";" 6.584";"*Tx_Erm_5_12";"1.028911e-02"
"  2";"  2";"100.00";" 6.584";"*Tx_1Ko_6_15";"1.028911e-02"
"  2";"  2";"100.00";" 6.584";"*Tx_Ga_4_21";"1.028911e-02"
"  2";"  2";"100.00";" 6.584";"*Tx_2Ts_2_14";"1.028911e-02"
"  2";"  2";"100.00";" 6.584";"*Tx_1Ko_10_7";"1.028911e-02"
"  2";"  2";"100.00";" 6.584";"*Tx_Erm_7_25";"1.028911e-02"
"  2";"  2";"100.00";" 6.584";"*Tx_1Ko_15_42";"1.028911e-02"
"  2";"  2";"100.00";" 6.584";"*Tx_1Ko_15_44";"1.028911e-02"
"  2";"  2";"100.00";" 6.584";"*Tx_1Ko_6_20";"1.028911e-02"
"  2";"  2";"100.00";" 6.584";"*Tx_Erm_11_2";"1.028911e-02"
"  2";"  2";"100.00";" 6.584";"*Tx_Erm_11_1";"1.028911e-02"
"  2";"  2";"100.00";" 6.584";"*Tx_Kol_2_13";"1.028911e-02"
"  2";"  2";"100.00";" 6.584";"*Tx_Erm_3_20";"1.028911e-02"
"  2";"  2";"100.00";" 6.584";"*Tx_2Tm_3_15";"1.028911e-02"
"  2";"  2";"100.00";" 6.584";"*Tx_2Ko_1_20";"1.028911e-02"
"  2";"  2";"100.00";" 6.584";"*Tx_1Ko_15_15";"1.028911e-02"
"  2";"  2";"100.00";" 6.584";"*Tx_Erm_2_25";"1.028911e-02"
"  2";"  2";"100.00";" 6.584";"*Tx_Erm_2_24";"1.028911e-02"
"  2";"  2";"100.00";" 6.584";"*Tx_Erm_2_28";"1.028911e-02"
"  2";"  2";"100.00";" 6.584";"*Tx_1Ko_14_21";"1.028911e-02"
"  2";"  2";"100.00";" 6.584";"*Tx_Ga_4_22";"1.028911e-02"
"  2";"  2";"100.00";" 6.584";"*Tx_Ga_2_17";"1.028911e-02"
"  2";"  2";"100.00";" 6.584";"*Tx_1Ko_7_23";"1.028911e-02"
"  2";"  2";"100.00";" 6.584";"*Tx_Erm_8_34";"1.028911e-02"
"  2";"  2";"100.00";" 6.584";"*Tx_Erm_5_20";"1.028911e-02"
"  2";"  2";"100.00";" 6.584";"*Tx_Kol_3_11";"1.028911e-02"
"  2";"  2";"100.00";" 6.584";"*Tx_Kol_3_13";"1.028911e-02"
"  2";"  2";"100.00";" 6.584";"*Tx_Erm_5_15";"1.028911e-02"
"  2";"  2";"100.00";" 6.584";"*Tx_Erm_10_5";"1.028911e-02"
"  2";"  2";"100.00";" 6.584";"*Tx_Erm_8_17";"1.028911e-02"
"  2";"  2";"100.00";" 6.584";"*Tx_Erm_14_9";"1.028911e-02"
"  2";"  2";"100.00";" 6.584";"*Tx_Ga_6_14";"1.028911e-02"
"  2";"  2";"100.00";" 6.584";"*Tx_Ga_6_13";"1.028911e-02"
"  2";"  2";"100.00";" 6.584";"*Tx_1Ko_15_52";"1.028911e-02"
"  2";"  2";"100.00";" 6.584";"*Tx_Erm_11_11";"1.028911e-02"
"  2";"  2";"100.00";" 6.584";"*Tx_Erm_11_3";"1.028911e-02"
"  2";"  2";"100.00";" 6.584";"*Tx_Erm_3_31";"1.028911e-02"
"  3";"  4";" 75.00";" 5.987";"*Tx_2Ko_6_16";"1.441413e-02"
" 21";" 57";" 36.84";" 5.968";"*K_Erm_11";"1.456760e-02"
" 12";" 32";" 37.50";" 3.648";"*K_Ga_2";"5.613455e-02"
"  1";"  1";"100.00";" 3.291";"*Tx_Ga_3_1";"6.966933e-02"
"  1";"  1";"100.00";" 3.291";"*Tx_1Tm_2_14";"6.966933e-02"
"  1";"  1";"100.00";" 3.291";"*Tx_Erm_7_14";"6.966933e-02"
"  1";"  1";"100.00";" 3.291";"*Tx_1Ko_7_18";"6.966933e-02"
"  1";"  1";"100.00";" 3.291";"*Tx_1Ko_6_11";"6.966933e-02"
"  1";"  1";"100.00";" 3.291";"*Tx_1Ko_15_43";"6.966933e-02"
"  1";"  1";"100.00";" 3.291";"*Tx_1Ko_15_45";"6.966933e-02"
"  1";"  1";"100.00";" 3.291";"*Tx_1Ko_7_19";"6.966933e-02"
"  2";"  3";" 66.67";" 3.158";"*Tx_Ga_3_8";"7.556974e-02"
"  2";"  3";" 66.67";" 3.158";"*Tx_Erm_4_12";"7.556974e-02"
"  2";"  3";" 66.67";" 3.158";"*Tx_1Ko_11_25";"7.556974e-02"
"  2";"  3";" 66.67";" 3.158";"*Tx_Erm_7_7";"7.556974e-02"
"  2";"  3";" 66.67";" 3.158";"*Tx_1Ko_9_10";"7.556974e-02"
"  2";"  3";" 66.67";" 3.158";"*Tx_Erm_7_13";"7.556974e-02"
"  2";"  3";" 66.67";" 3.158";"*Tx_Erm_9_27";"7.556974e-02"
"  2";"  3";" 66.67";" 3.158";"*Tx_1Ko_6_13";"7.556974e-02"
"  2";"  3";" 66.67";" 3.158";"*Tx_Erm_11_26";"7.556974e-02"
"  2";"  3";" 66.67";" 3.158";"*Tx_Erm_3_29";"7.556974e-02"
"  2";"  3";" 66.67";" 3.158";"*Tx_Erm_15_9";"7.556974e-02"
"  2";"  3";" 66.67";" 3.158";"*Tx_1Ko_7_28";"7.556974e-02"
"  2";"  3";" 66.67";" 3.158";"*Tx_Erm_14_8";"7.556974e-02"
" 14";" 40";" 35.00";" 3.104";"*K_Erm_3";"7.808417e-02"
" 13";" 37";" 35.14";" 2.935";"*K_Erm_10";"8.668794e-02"
" 10";" 27";" 37.04";" 2.875";"*K_Flp_3";"8.997635e-02"
" 10";" 27";" 37.04";" 2.875";"*K_Kol_2";"8.997635e-02"
"  8";" 21";" 38.10";" 2.588";"*K_2Ko_3";"1.076790e-01"
"147";"574";" 25.61";" 2.179";"*L_Korintoarrei1";"1.398650e-01"
