"";"X";"V1"
"1";1;2
"2";2;6
"3";3;5
"4";4;5
"5";5;6
"6";6;5
"7";7;2
"8";8;2
"9";9;3
"10";10;5
"11";11;5
"12";12;5
"13";13;5
"14";14;5
"15";15;5
"16";16;5
"17";17;5
"18";18;6
"19";19;5
"20";20;5
"21";21;6
"22";22;5
"23";23;5
"24";24;5
"25";25;5
"26";26;5
"27";27;5
"28";28;5
"29";29;0
"30";30;5
"31";31;5
"32";32;5
"33";33;5
"34";34;5
"35";35;5
"36";36;5
"37";37;5
"38";38;1
"39";39;5
"40";40;5
"41";41;5
"42";42;5
"43";43;5
"44";44;5
"45";45;5
"46";46;5
"47";47;5
"48";48;5
"49";49;5
"50";50;5
"51";51;6
"52";52;5
"53";53;5
"54";54;5
"55";55;6
"56";56;5
"57";57;5
"58";58;6
"59";59;6
"60";60;6
"61";61;5
"62";62;5
"63";63;5
"64";64;5
"65";65;6
"66";66;5
"67";67;5
"68";68;5
"69";69;5
"70";70;5
"71";71;5
"72";72;6
"73";73;6
"74";74;6
"75";75;6
"76";76;6
"77";77;6
"78";78;6
"79";79;6
"80";80;6
"81";81;6
"82";82;5
"83";83;4
"84";84;5
"85";85;5
"86";86;2
"87";87;5
"88";88;5
"89";89;6
"90";90;5
"91";91;5
"92";92;5
"93";93;5
"94";94;5
"95";95;5
"96";96;5
"97";97;5
"98";98;5
"99";99;6
"100";100;5
"101";101;5
"102";102;5
"103";103;6
"104";104;5
"105";105;5
"106";106;5
"107";107;6
"108";108;6
"109";109;5
"110";110;6
"111";111;5
"112";112;5
"113";113;6
"114";114;5
"115";115;6
"116";116;6
"117";117;5
"118";118;6
"119";119;6
"120";120;6
"121";121;6
"122";122;6
"123";123;6
"124";124;6
"125";125;5
"126";126;6
"127";127;6
"128";128;5
"129";129;5
"130";130;6
"131";131;6
"132";132;6
"133";133;5
"134";134;6
"135";135;6
"136";136;6
"137";137;6
"138";138;5
"139";139;6
"140";140;6
"141";141;6
"142";142;6
"143";143;6
"144";144;6
"145";145;5
"146";146;6
"147";147;6
"148";148;6
"149";149;6
"150";150;6
"151";151;6
"152";152;6
"153";153;6
"154";154;6
"155";155;6
"156";156;6
"157";157;5
"158";158;6
"159";159;6
"160";160;6
"161";161;6
"162";162;6
"163";163;6
"164";164;6
"165";165;5
"166";166;5
"167";167;5
"168";168;5
"169";169;6
"170";170;5
"171";171;6
"172";172;5
"173";173;6
"174";174;6
"175";175;6
"176";176;5
"177";177;5
"178";178;6
"179";179;6
"180";180;6
"181";181;6
"182";182;6
"183";183;5
"184";184;0
"185";185;6
"186";186;6
"187";187;6
"188";188;6
"189";189;6
"190";190;6
"191";191;6
"192";192;6
"193";193;6
"194";194;6
"195";195;6
"196";196;6
"197";197;5
"198";198;6
"199";199;6
"200";200;6
"201";201;5
"202";202;6
"203";203;6
"204";204;6
"205";205;6
"206";206;5
"207";207;6
"208";208;6
"209";209;6
"210";210;5
"211";211;5
"212";212;6
"213";213;6
"214";214;6
"215";215;6
"216";216;6
"217";217;6
"218";218;5
"219";219;5
"220";220;5
"221";221;6
"222";222;6
"223";223;5
"224";224;6
"225";225;6
"226";226;5
"227";227;5
"228";228;4
"229";229;4
"230";230;4
"231";231;4
"232";232;6
"233";233;6
"234";234;6
"235";235;6
"236";236;5
"237";237;6
"238";238;6
"239";239;6
"240";240;6
"241";241;6
"242";242;6
"243";243;6
"244";244;6
"245";245;6
"246";246;5
"247";247;6
"248";248;6
"249";249;6
"250";250;0
"251";251;5
"252";252;5
"253";253;6
"254";254;5
"255";255;5
"256";256;5
"257";257;6
"258";258;5
"259";259;6
"260";260;6
"261";261;6
"262";262;6
"263";263;6
"264";264;0
"265";265;6
"266";266;6
"267";267;5
"268";268;5
"269";269;6
"270";270;5
"271";271;5
"272";272;5
"273";273;5
"274";274;0
"275";275;5
"276";276;5
"277";277;5
"278";278;5
"279";279;6
"280";280;6
"281";281;5
"282";282;6
"283";283;5
"284";284;6
"285";285;6
"286";286;6
"287";287;6
"288";288;6
"289";289;6
"290";290;6
"291";291;5
"292";292;5
"293";293;5
"294";294;5
"295";295;0
"296";296;5
"297";297;5
"298";298;6
"299";299;5
"300";300;5
"301";301;5
"302";302;5
"303";303;5
"304";304;5
"305";305;6
"306";306;6
"307";307;6
"308";308;5
"309";309;5
"310";310;6
"311";311;6
"312";312;6
"313";313;5
"314";314;5
"315";315;5
"316";316;5
"317";317;5
"318";318;6
"319";319;5
"320";320;5
"321";321;6
"322";322;6
"323";323;5
"324";324;3
"325";325;5
"326";326;6
"327";327;6
"328";328;6
"329";329;2
"330";330;5
"331";331;5
"332";332;5
"333";333;6
"334";334;5
"335";335;5
"336";336;6
"337";337;2
"338";338;5
"339";339;6
"340";340;5
"341";341;5
"342";342;5
"343";343;5
"344";344;5
"345";345;5
"346";346;5
"347";347;5
"348";348;5
"349";349;5
"350";350;6
"351";351;6
"352";352;6
"353";353;5
"354";354;5
"355";355;5
"356";356;6
"357";357;5
"358";358;5
"359";359;5
"360";360;6
"361";361;0
"362";362;5
"363";363;5
"364";364;5
"365";365;5
"366";366;6
"367";367;6
"368";368;6
"369";369;6
"370";370;6
"371";371;6
"372";372;6
"373";373;5
"374";374;5
"375";375;6
"376";376;6
"377";377;5
"378";378;5
"379";379;5
"380";380;5
"381";381;5
"382";382;5
"383";383;5
"384";384;5
"385";385;5
"386";386;5
"387";387;5
"388";388;5
"389";389;5
"390";390;5
"391";391;5
"392";392;5
"393";393;5
"394";394;0
"395";395;5
"396";396;6
"397";397;5
"398";398;6
"399";399;6
"400";400;6
"401";401;6
"402";402;6
"403";403;6
"404";404;6
"405";405;6
"406";406;6
"407";407;5
"408";408;5
"409";409;6
"410";410;6
"411";411;5
"412";412;5
"413";413;5
"414";414;5
"415";415;5
"416";416;6
"417";417;6
"418";418;6
"419";419;6
"420";420;5
"421";421;6
"422";422;6
"423";423;6
"424";424;5
"425";425;5
"426";426;6
"427";427;5
"428";428;6
"429";429;2
"430";430;4
"431";431;2
"432";432;4
"433";433;2
"434";434;4
"435";435;4
"436";436;5
"437";437;5
"438";438;5
"439";439;5
"440";440;4
"441";441;5
"442";442;4
"443";443;5
"444";444;5
"445";445;6
"446";446;6
"447";447;2
"448";448;5
"449";449;5
"450";450;5
"451";451;5
"452";452;5
"453";453;5
"454";454;6
"455";455;5
"456";456;0
"457";457;5
"458";458;6
"459";459;5
"460";460;5
"461";461;5
"462";462;5
"463";463;5
"464";464;5
"465";465;5
"466";466;6
"467";467;6
"468";468;5
"469";469;5
"470";470;5
"471";471;5
"472";472;5
"473";473;5
"474";474;5
"475";475;5
"476";476;5
"477";477;5
"478";478;5
"479";479;1
"480";480;5
"481";481;5
"482";482;5
"483";483;5
"484";484;5
"485";485;5
"486";486;5
"487";487;6
"488";488;4
"489";489;5
"490";490;5
"491";491;3
"492";492;4
"493";493;5
"494";494;5
"495";495;5
"496";496;5
"497";497;5
"498";498;5
"499";499;5
"500";500;2
"501";501;5
"502";502;5
"503";503;5
"504";504;6
"505";505;2
"506";506;4
"507";507;2
"508";508;4
"509";509;4
"510";510;6
"511";511;4
"512";512;5
"513";513;5
"514";514;5
"515";515;5
"516";516;1
"517";517;5
"518";518;5
"519";519;5
"520";520;5
"521";521;5
"522";522;5
"523";523;6
"524";524;5
"525";525;5
"526";526;4
"527";527;5
"528";528;5
"529";529;5
"530";530;5
"531";531;6
"532";532;5
"533";533;6
"534";534;6
"535";535;6
"536";536;6
"537";537;5
"538";538;6
"539";539;6
"540";540;6
"541";541;5
"542";542;5
"543";543;5
"544";544;5
"545";545;5
"546";546;6
"547";547;5
"548";548;6
"549";549;6
"550";550;5
"551";551;5
"552";552;5
"553";553;4
"554";554;5
"555";555;5
"556";556;5
"557";557;5
"558";558;5
"559";559;4
"560";560;6
"561";561;1
"562";562;5
"563";563;5
"564";564;6
"565";565;1
"566";566;5
"567";567;5
"568";568;5
"569";569;6
"570";570;6
"571";571;6
"572";572;6
"573";573;6
"574";574;2
"575";575;5
"576";576;5
"577";577;5
"578";578;5
"579";579;5
"580";580;5
"581";581;6
"582";582;6
"583";583;5
"584";584;5
"585";585;5
"586";586;5
"587";587;6
"588";588;5
"589";589;5
"590";590;5
"591";591;2
"592";592;5
"593";593;5
"594";594;5
"595";595;5
"596";596;5
"597";597;5
"598";598;5
"599";599;5
"600";600;5
"601";601;5
"602";602;2
"603";603;4
"604";604;2
"605";605;2
"606";606;5
"607";607;2
"608";608;2
"609";609;2
"610";610;5
"611";611;2
"612";612;6
"613";613;2
"614";614;2
"615";615;2
"616";616;2
"617";617;2
"618";618;5
"619";619;2
"620";620;2
"621";621;2
"622";622;0
"623";623;2
"624";624;5
"625";625;5
"626";626;5
"627";627;5
"628";628;5
"629";629;3
"630";630;2
"631";631;2
"632";632;2
"633";633;2
"634";634;5
"635";635;5
"636";636;5
"637";637;6
"638";638;2
"639";639;6
"640";640;3
"641";641;5
"642";642;5
"643";643;5
"644";644;5
"645";645;6
"646";646;5
"647";647;5
"648";648;5
"649";649;5
"650";650;6
"651";651;5
"652";652;5
"653";653;5
"654";654;6
"655";655;6
"656";656;6
"657";657;2
"658";658;5
"659";659;6
"660";660;5
"661";661;6
"662";662;5
"663";663;5
"664";664;5
"665";665;5
"666";666;5
"667";667;6
"668";668;5
"669";669;6
"670";670;0
"671";671;5
"672";672;5
"673";673;5
"674";674;6
"675";675;5
"676";676;5
"677";677;6
"678";678;6
"679";679;5
"680";680;5
"681";681;5
"682";682;5
"683";683;0
"684";684;5
"685";685;5
"686";686;5
"687";687;5
"688";688;5
"689";689;6
"690";690;5
"691";691;5
"692";692;5
"693";693;5
"694";694;6
"695";695;5
"696";696;5
"697";697;5
"698";698;5
"699";699;0
"700";700;5
"701";701;5
"702";702;5
"703";703;5
"704";704;5
"705";705;5
"706";706;5
"707";707;0
"708";708;5
"709";709;5
"710";710;5
"711";711;6
"712";712;5
"713";713;2
"714";714;2
"715";715;5
"716";716;5
"717";717;5
"718";718;5
"719";719;5
"720";720;5
"721";721;5
"722";722;5
"723";723;5
"724";724;5
"725";725;6
"726";726;6
"727";727;1
"728";728;5
"729";729;6
"730";730;5
"731";731;5
"732";732;5
"733";733;5
"734";734;5
"735";735;3
"736";736;5
"737";737;2
"738";738;6
"739";739;5
"740";740;5
"741";741;5
"742";742;5
"743";743;5
"744";744;5
"745";745;5
"746";746;6
"747";747;5
"748";748;5
"749";749;5
"750";750;5
"751";751;5
"752";752;5
"753";753;5
"754";754;2
"755";755;5
"756";756;5
"757";757;1
"758";758;5
"759";759;5
"760";760;5
"761";761;6
"762";762;5
"763";763;5
"764";764;6
"765";765;2
"766";766;2
"767";767;5
"768";768;5
"769";769;5
"770";770;5
"771";771;5
"772";772;5
"773";773;4
"774";774;5
"775";775;5
"776";776;5
"777";777;5
"778";778;6
"779";779;6
"780";780;5
"781";781;6
"782";782;6
"783";783;2
"784";784;5
"785";785;6
"786";786;2
"787";787;5
"788";788;4
"789";789;5
"790";790;5
"791";791;5
"792";792;5
"793";793;5
"794";794;2
"795";795;2
"796";796;5
"797";797;5
"798";798;5
"799";799;5
"800";800;5
"801";801;5
"802";802;5
"803";803;0
"804";804;6
"805";805;6
"806";806;0
"807";807;5
"808";808;6
"809";809;5
"810";810;6
"811";811;6
"812";812;6
"813";813;6
"814";814;6
"815";815;6
"816";816;6
"817";817;6
"818";818;6
"819";819;6
"820";820;6
"821";821;5
"822";822;4
"823";823;4
"824";824;4
"825";825;5
"826";826;5
"827";827;6
"828";828;5
"829";829;5
"830";830;5
"831";831;5
"832";832;4
"833";833;4
"834";834;4
"835";835;4
"836";836;6
"837";837;4
"838";838;4
"839";839;4
"840";840;4
"841";841;2
"842";842;6
"843";843;6
"844";844;6
"845";845;2
"846";846;2
"847";847;5
"848";848;2
"849";849;0
"850";850;6
"851";851;0
"852";852;6
"853";853;5
"854";854;6
"855";855;5
"856";856;6
"857";857;6
"858";858;6
"859";859;5
"860";860;6
"861";861;5
"862";862;5
"863";863;6
"864";864;6
"865";865;5
"866";866;5
"867";867;6
"868";868;5
"869";869;5
"870";870;5
"871";871;5
"872";872;6
"873";873;5
"874";874;5
"875";875;5
"876";876;4
"877";877;5
"878";878;5
"879";879;5
"880";880;5
"881";881;5
"882";882;4
"883";883;6
"884";884;6
"885";885;5
"886";886;5
"887";887;5
"888";888;5
"889";889;5
"890";890;6
"891";891;5
"892";892;5
"893";893;5
"894";894;6
"895";895;5
"896";896;5
"897";897;6
"898";898;5
"899";899;5
"900";900;5
"901";901;5
"902";902;5
"903";903;5
"904";904;5
"905";905;5
"906";906;5
"907";907;5
"908";908;5
"909";909;5
"910";910;5
"911";911;6
"912";912;5
"913";913;5
"914";914;5
"915";915;5
"916";916;6
"917";917;0
"918";918;5
"919";919;6
"920";920;6
"921";921;5
"922";922;5
"923";923;5
"924";924;0
"925";925;5
"926";926;5
"927";927;5
"928";928;5
"929";929;5
"930";930;5
"931";931;6
"932";932;5
"933";933;5
"934";934;5
"935";935;5
"936";936;5
"937";937;6
"938";938;5
"939";939;6
"940";940;5
"941";941;6
"942";942;0
"943";943;5
"944";944;5
"945";945;5
"946";946;5
"947";947;5
"948";948;5
"949";949;5
"950";950;5
"951";951;5
"952";952;5
"953";953;6
"954";954;5
"955";955;5
"956";956;6
"957";957;5
"958";958;6
"959";959;6
"960";960;6
"961";961;6
"962";962;6
"963";963;5
"964";964;5
"965";965;5
"966";966;5
"967";967;5
"968";968;5
"969";969;5
"970";970;6
"971";971;6
"972";972;6
"973";973;6
"974";974;5
"975";975;5
"976";976;5
"977";977;5
"978";978;5
"979";979;5
"980";980;5
"981";981;0
"982";982;0
"983";983;2
"984";984;5
"985";985;5
"986";986;5
"987";987;5
"988";988;5
"989";989;5
"990";990;5
"991";991;5
"992";992;5
"993";993;2
"994";994;5
"995";995;6
"996";996;5
"997";997;5
"998";998;5
"999";999;5
"1000";1000;5
"1001";1001;4
"1002";1002;4
"1003";1003;5
"1004";1004;4
"1005";1005;4
"1006";1006;5
"1007";1007;5
"1008";1008;4
"1009";1009;5
"1010";1010;4
"1011";1011;4
"1012";1012;2
"1013";1013;5
"1014";1014;5
"1015";1015;5
"1016";1016;5
"1017";1017;2
"1018";1018;5
"1019";1019;5
"1020";1020;2
"1021";1021;5
"1022";1022;5
"1023";1023;5
"1024";1024;0
"1025";1025;6
"1026";1026;6
"1027";1027;5
"1028";1028;5
"1029";1029;5
"1030";1030;5
"1031";1031;5
"1032";1032;6
"1033";1033;5
"1034";1034;5
"1035";1035;2
"1036";1036;2
"1037";1037;5
"1038";1038;5
"1039";1039;5
"1040";1040;5
"1041";1041;5
"1042";1042;6
"1043";1043;6
"1044";1044;5
"1045";1045;5
"1046";1046;6
"1047";1047;5
"1048";1048;5
"1049";1049;5
"1050";1050;5
"1051";1051;6
"1052";1052;0
"1053";1053;5
"1054";1054;6
"1055";1055;6
"1056";1056;6
"1057";1057;6
"1058";1058;6
"1059";1059;6
"1060";1060;6
"1061";1061;6
"1062";1062;6
"1063";1063;6
"1064";1064;6
"1065";1065;6
"1066";1066;2
"1067";1067;2
"1068";1068;5
"1069";1069;6
"1070";1070;6
"1071";1071;6
"1072";1072;6
"1073";1073;6
"1074";1074;2
"1075";1075;5
"1076";1076;0
"1077";1077;5
"1078";1078;0
"1079";1079;0
"1080";1080;5
"1081";1081;5
"1082";1082;5
"1083";1083;5
"1084";1084;5
"1085";1085;5
"1086";1086;5
"1087";1087;0
"1088";1088;5
"1089";1089;5
"1090";1090;5
"1091";1091;0
"1092";1092;2
"1093";1093;0
"1094";1094;5
"1095";1095;0
"1096";1096;5
"1097";1097;5
"1098";1098;5
"1099";1099;5
"1100";1100;5
"1101";1101;5
"1102";1102;5
"1103";1103;0
"1104";1104;2
"1105";1105;0
"1106";1106;5
"1107";1107;5
"1108";1108;5
"1109";1109;5
"1110";1110;5
"1111";1111;0
"1112";1112;2
"1113";1113;5
"1114";1114;4
"1115";1115;5
"1116";1116;6
"1117";1117;6
"1118";1118;0
"1119";1119;5
"1120";1120;0
"1121";1121;5
"1122";1122;5
"1123";1123;6
"1124";1124;0
"1125";1125;2
"1126";1126;0
"1127";1127;0
"1128";1128;0
"1129";1129;5
"1130";1130;6
"1131";1131;5
"1132";1132;5
"1133";1133;2
"1134";1134;6
"1135";1135;2
"1136";1136;5
"1137";1137;5
"1138";1138;5
"1139";1139;5
"1140";1140;0
"1141";1141;5
"1142";1142;5
"1143";1143;5
"1144";1144;2
"1145";1145;6
"1146";1146;6
"1147";1147;5
"1148";1148;5
"1149";1149;6
"1150";1150;5
"1151";1151;5
"1152";1152;5
"1153";1153;5
"1154";1154;5
"1155";1155;6
"1156";1156;5
"1157";1157;6
"1158";1158;6
"1159";1159;6
"1160";1160;6
"1161";1161;6
"1162";1162;6
"1163";1163;6
"1164";1164;6
"1165";1165;5
"1166";1166;6
"1167";1167;6
"1168";1168;6
"1169";1169;6
"1170";1170;3
"1171";1171;5
"1172";1172;5
"1173";1173;6
"1174";1174;5
"1175";1175;6
"1176";1176;5
"1177";1177;5
"1178";1178;6
"1179";1179;6
"1180";1180;5
"1181";1181;5
"1182";1182;5
"1183";1183;6
"1184";1184;5
"1185";1185;5
"1186";1186;6
"1187";1187;5
"1188";1188;5
"1189";1189;5
"1190";1190;5
"1191";1191;4
"1192";1192;5
"1193";1193;6
"1194";1194;6
"1195";1195;4
"1196";1196;6
"1197";1197;6
"1198";1198;6
"1199";1199;0
"1200";1200;6
"1201";1201;6
"1202";1202;6
"1203";1203;0
"1204";1204;0
"1205";1205;5
"1206";1206;5
"1207";1207;0
"1208";1208;5
"1209";1209;0
"1210";1210;5
"1211";1211;2
"1212";1212;6
"1213";1213;6
"1214";1214;5
"1215";1215;6
"1216";1216;5
"1217";1217;5
"1218";1218;6
"1219";1219;5
"1220";1220;5
"1221";1221;2
"1222";1222;5
"1223";1223;5
"1224";1224;5
"1225";1225;5
"1226";1226;2
"1227";1227;6
"1228";1228;5
"1229";1229;5
"1230";1230;5
"1231";1231;5
"1232";1232;5
"1233";1233;5
"1234";1234;5
"1235";1235;0
"1236";1236;5
"1237";1237;5
"1238";1238;5
"1239";1239;2
"1240";1240;5
"1241";1241;5
"1242";1242;5
"1243";1243;2
"1244";1244;2
"1245";1245;2
"1246";1246;0
"1247";1247;2
"1248";1248;5
"1249";1249;3
"1250";1250;2
"1251";1251;2
"1252";1252;3
"1253";1253;5
"1254";1254;5
"1255";1255;5
"1256";1256;5
"1257";1257;5
"1258";1258;5
"1259";1259;2
"1260";1260;5
"1261";1261;5
"1262";1262;6
"1263";1263;5
"1264";1264;5
"1265";1265;4
"1266";1266;5
"1267";1267;1
"1268";1268;5
"1269";1269;5
"1270";1270;2
"1271";1271;5
"1272";1272;5
"1273";1273;5
"1274";1274;2
"1275";1275;5
"1276";1276;5
"1277";1277;5
"1278";1278;2
"1279";1279;6
"1280";1280;6
"1281";1281;5
"1282";1282;6
"1283";1283;6
"1284";1284;5
"1285";1285;5
"1286";1286;5
"1287";1287;5
"1288";1288;6
"1289";1289;5
"1290";1290;5
"1291";1291;5
"1292";1292;5
"1293";1293;5
"1294";1294;5
"1295";1295;5
"1296";1296;5
"1297";1297;6
"1298";1298;5
"1299";1299;6
"1300";1300;6
"1301";1301;5
"1302";1302;5
"1303";1303;2
"1304";1304;5
"1305";1305;5
"1306";1306;5
"1307";1307;5
"1308";1308;5
"1309";1309;5
"1310";1310;5
"1311";1311;5
"1312";1312;5
"1313";1313;5
"1314";1314;5
"1315";1315;5
"1316";1316;5
"1317";1317;5
"1318";1318;5
"1319";1319;6
"1320";1320;6
"1321";1321;6
"1322";1322;6
"1323";1323;5
"1324";1324;5
"1325";1325;5
"1326";1326;6
"1327";1327;6
"1328";1328;6
"1329";1329;6
"1330";1330;5
"1331";1331;5
"1332";1332;5
"1333";1333;5
"1334";1334;5
"1335";1335;5
"1336";1336;5
"1337";1337;5
"1338";1338;5
"1339";1339;6
"1340";1340;5
"1341";1341;5
"1342";1342;5
"1343";1343;5
"1344";1344;5
"1345";1345;5
"1346";1346;5
"1347";1347;6
"1348";1348;5
"1349";1349;6
"1350";1350;5
"1351";1351;5
"1352";1352;5
"1353";1353;6
"1354";1354;5
"1355";1355;6
"1356";1356;5
"1357";1357;5
"1358";1358;5
"1359";1359;5
"1360";1360;5
"1361";1361;5
"1362";1362;5
"1363";1363;5
"1364";1364;5
"1365";1365;5
"1366";1366;5
"1367";1367;5
"1368";1368;5
"1369";1369;5
"1370";1370;5
"1371";1371;6
"1372";1372;6
"1373";1373;5
"1374";1374;5
"1375";1375;5
"1376";1376;5
"1377";1377;5
"1378";1378;5
"1379";1379;5
"1380";1380;6
"1381";1381;5
"1382";1382;2
"1383";1383;1
"1384";1384;5
"1385";1385;5
"1386";1386;5
"1387";1387;5
"1388";1388;5
"1389";1389;5
"1390";1390;5
"1391";1391;5
"1392";1392;5
"1393";1393;5
"1394";1394;5
"1395";1395;5
"1396";1396;5
"1397";1397;5
"1398";1398;5
"1399";1399;5
"1400";1400;6
"1401";1401;5
"1402";1402;5
"1403";1403;6
"1404";1404;6
"1405";1405;6
"1406";1406;5
"1407";1407;0
"1408";1408;5
"1409";1409;5
"1410";1410;6
"1411";1411;5
"1412";1412;5
"1413";1413;5
"1414";1414;5
"1415";1415;5
"1416";1416;6
"1417";1417;5
"1418";1418;5
"1419";1419;5
"1420";1420;5
"1421";1421;5
"1422";1422;5
"1423";1423;5
"1424";1424;5
"1425";1425;5
"1426";1426;5
"1427";1427;5
"1428";1428;5
"1429";1429;5
"1430";1430;5
"1431";1431;5
"1432";1432;5
"1433";1433;5
"1434";1434;5
"1435";1435;5
"1436";1436;5
"1437";1437;5
"1438";1438;5
"1439";1439;2
"1440";1440;5
"1441";1441;5
"1442";1442;5
"1443";1443;5
"1444";1444;5
"1445";1445;5
"1446";1446;5
"1447";1447;5
"1448";1448;2
"1449";1449;5
"1450";1450;5
"1451";1451;5
"1452";1452;5
"1453";1453;5
"1454";1454;6
"1455";1455;5
"1456";1456;5
"1457";1457;5
"1458";1458;6
"1459";1459;2
"1460";1460;5
"1461";1461;5
"1462";1462;2
"1463";1463;5
"1464";1464;6
"1465";1465;5
"1466";1466;2
"1467";1467;5
"1468";1468;2
"1469";1469;2
"1470";1470;2
"1471";1471;5
"1472";1472;5
"1473";1473;6
"1474";1474;5
"1475";1475;5
"1476";1476;5
"1477";1477;2
"1478";1478;5
"1479";1479;5
"1480";1480;5
"1481";1481;6
"1482";1482;5
"1483";1483;5
"1484";1484;5
"1485";1485;5
"1486";1486;5
"1487";1487;5
"1488";1488;5
"1489";1489;5
"1490";1490;5
"1491";1491;5
"1492";1492;5
"1493";1493;5
"1494";1494;5
"1495";1495;5
"1496";1496;0
"1497";1497;5
"1498";1498;2
"1499";1499;5
"1500";1500;5
"1501";1501;5
"1502";1502;0
"1503";1503;5
"1504";1504;5
"1505";1505;5
"1506";1506;5
"1507";1507;5
"1508";1508;5
"1509";1509;5
"1510";1510;5
"1511";1511;5
"1512";1512;5
"1513";1513;5
"1514";1514;5
"1515";1515;5
"1516";1516;5
"1517";1517;6
"1518";1518;5
"1519";1519;4
"1520";1520;5
"1521";1521;5
"1522";1522;5
"1523";1523;5
"1524";1524;5
"1525";1525;5
"1526";1526;2
"1527";1527;2
"1528";1528;1
"1529";1529;0
"1530";1530;6
"1531";1531;5
"1532";1532;0
"1533";1533;5
"1534";1534;5
"1535";1535;5
"1536";1536;5
"1537";1537;5
"1538";1538;5
"1539";1539;5
"1540";1540;5
"1541";1541;5
"1542";1542;5
"1543";1543;0
"1544";1544;5
"1545";1545;5
"1546";1546;5
"1547";1547;5
"1548";1548;5
"1549";1549;5
"1550";1550;5
"1551";1551;5
"1552";1552;5
"1553";1553;5
"1554";1554;5
"1555";1555;5
"1556";1556;5
"1557";1557;5
"1558";1558;5
"1559";1559;5
"1560";1560;5
"1561";1561;5
"1562";1562;5
"1563";1563;5
"1564";1564;5
"1565";1565;5
"1566";1566;5
"1567";1567;6
"1568";1568;5
"1569";1569;5
"1570";1570;5
"1571";1571;0
"1572";1572;5
"1573";1573;5
"1574";1574;5
"1575";1575;6
"1576";1576;2
"1577";1577;0
"1578";1578;5
"1579";1579;5
"1580";1580;5
"1581";1581;2
"1582";1582;0
"1583";1583;2
"1584";1584;5
"1585";1585;2
"1586";1586;5
"1587";1587;6
"1588";1588;5
"1589";1589;5
"1590";1590;5
"1591";1591;5
"1592";1592;5
"1593";1593;5
"1594";1594;1
"1595";1595;6
"1596";1596;5
"1597";1597;5
"1598";1598;0
"1599";1599;0
"1600";1600;0
"1601";1601;5
"1602";1602;5
"1603";1603;1
"1604";1604;5
"1605";1605;6
"1606";1606;5
"1607";1607;5
"1608";1608;5
"1609";1609;6
"1610";1610;5
"1611";1611;0
"1612";1612;5
"1613";1613;5
"1614";1614;5
"1615";1615;5
"1616";1616;5
"1617";1617;0
"1618";1618;3
"1619";1619;2
"1620";1620;3
"1621";1621;5
"1622";1622;5
"1623";1623;5
"1624";1624;5
"1625";1625;5
"1626";1626;5
"1627";1627;5
"1628";1628;5
"1629";1629;5
"1630";1630;5
"1631";1631;5
"1632";1632;5
"1633";1633;5
"1634";1634;5
"1635";1635;5
"1636";1636;5
"1637";1637;5
"1638";1638;2
"1639";1639;5
"1640";1640;5
"1641";1641;2
"1642";1642;5
"1643";1643;6
"1644";1644;2
"1645";1645;5
"1646";1646;5
"1647";1647;2
"1648";1648;2
"1649";1649;6
"1650";1650;5
"1651";1651;6
"1652";1652;5
"1653";1653;5
"1654";1654;5
"1655";1655;5
"1656";1656;1
"1657";1657;5
"1658";1658;5
"1659";1659;5
"1660";1660;5
"1661";1661;5
"1662";1662;6
"1663";1663;5
"1664";1664;6
"1665";1665;6
"1666";1666;6
"1667";1667;6
"1668";1668;6
"1669";1669;6
"1670";1670;5
"1671";1671;6
"1672";1672;6
"1673";1673;5
"1674";1674;5
"1675";1675;6
"1676";1676;0
"1677";1677;6
"1678";1678;5
"1679";1679;6
"1680";1680;5
"1681";1681;5
"1682";1682;6
"1683";1683;6
"1684";1684;6
"1685";1685;5
"1686";1686;6
"1687";1687;6
"1688";1688;6
"1689";1689;6
"1690";1690;6
"1691";1691;6
"1692";1692;6
"1693";1693;6
"1694";1694;5
"1695";1695;6
"1696";1696;6
"1697";1697;6
"1698";1698;5
"1699";1699;6
"1700";1700;6
"1701";1701;6
"1702";1702;5
"1703";1703;5
"1704";1704;6
"1705";1705;6
"1706";1706;5
"1707";1707;6
"1708";1708;6
"1709";1709;5
"1710";1710;6
"1711";1711;6
"1712";1712;6
"1713";1713;5
"1714";1714;6
"1715";1715;5
"1716";1716;6
"1717";1717;5
"1718";1718;6
"1719";1719;6
"1720";1720;6
"1721";1721;3
"1722";1722;6
"1723";1723;5
"1724";1724;5
"1725";1725;5
"1726";1726;2
"1727";1727;5
"1728";1728;6
"1729";1729;5
"1730";1730;5
"1731";1731;5
"1732";1732;5
"1733";1733;5
"1734";1734;5
"1735";1735;5
"1736";1736;5
"1737";1737;0
"1738";1738;5
"1739";1739;5
"1740";1740;5
"1741";1741;5
"1742";1742;6
"1743";1743;2
"1744";1744;5
"1745";1745;5
"1746";1746;5
"1747";1747;6
"1748";1748;6
"1749";1749;6
"1750";1750;6
"1751";1751;5
"1752";1752;4
"1753";1753;5
"1754";1754;6
"1755";1755;5
"1756";1756;5
"1757";1757;6
"1758";1758;6
"1759";1759;4
"1760";1760;5
"1761";1761;2
"1762";1762;6
"1763";1763;5
"1764";1764;5
"1765";1765;6
"1766";1766;2
"1767";1767;6
"1768";1768;2
"1769";1769;6
"1770";1770;5
"1771";1771;2
"1772";1772;5
"1773";1773;5
"1774";1774;6
"1775";1775;5
"1776";1776;3
"1777";1777;5
"1778";1778;5
"1779";1779;5
"1780";1780;6
"1781";1781;5
"1782";1782;5
"1783";1783;5
"1784";1784;6
"1785";1785;4
"1786";1786;5
"1787";1787;5
"1788";1788;5
"1789";1789;6
"1790";1790;4
"1791";1791;5
"1792";1792;4
"1793";1793;5
"1794";1794;0
"1795";1795;0
"1796";1796;5
"1797";1797;6
"1798";1798;5
"1799";1799;1
"1800";1800;6
"1801";1801;5
"1802";1802;6
"1803";1803;5
"1804";1804;6
"1805";1805;3
"1806";1806;5
"1807";1807;0
"1808";1808;5
"1809";1809;5
"1810";1810;6
"1811";1811;5
"1812";1812;5
"1813";1813;5
"1814";1814;5
"1815";1815;2
"1816";1816;5
"1817";1817;5
"1818";1818;5
"1819";1819;5
"1820";1820;5
"1821";1821;2
"1822";1822;6
"1823";1823;6
"1824";1824;6
"1825";1825;6
"1826";1826;0
"1827";1827;5
"1828";1828;6
"1829";1829;5
"1830";1830;3
"1831";1831;5
"1832";1832;3
"1833";1833;5
"1834";1834;5
"1835";1835;5
"1836";1836;6
"1837";1837;5
"1838";1838;5
"1839";1839;5
"1840";1840;5
"1841";1841;5
"1842";1842;6
"1843";1843;5
"1844";1844;5
"1845";1845;6
"1846";1846;6
"1847";1847;5
"1848";1848;6
"1849";1849;5
"1850";1850;5
"1851";1851;5
"1852";1852;5
"1853";1853;6
"1854";1854;6
"1855";1855;6
"1856";1856;5
"1857";1857;3
"1858";1858;6
"1859";1859;6
"1860";1860;6
"1861";1861;5
"1862";1862;5
"1863";1863;6
"1864";1864;6
"1865";1865;5
"1866";1866;5
"1867";1867;5
"1868";1868;5
"1869";1869;5
"1870";1870;5
"1871";1871;6
"1872";1872;5
"1873";1873;6
"1874";1874;5
"1875";1875;5
"1876";1876;5
"1877";1877;5
"1878";1878;5
"1879";1879;5
"1880";1880;5
"1881";1881;5
"1882";1882;5
"1883";1883;5
"1884";1884;5
"1885";1885;5
"1886";1886;5
"1887";1887;5
"1888";1888;5
"1889";1889;6
"1890";1890;6
"1891";1891;5
"1892";1892;5
"1893";1893;5
"1894";1894;5
"1895";1895;5
"1896";1896;5
"1897";1897;5
"1898";1898;5
"1899";1899;5
"1900";1900;2
"1901";1901;6
"1902";1902;6
"1903";1903;5
"1904";1904;5
"1905";1905;5
"1906";1906;5
"1907";1907;5
"1908";1908;5
"1909";1909;4
"1910";1910;6
"1911";1911;5
"1912";1912;5
"1913";1913;5
"1914";1914;5
"1915";1915;4
"1916";1916;6
"1917";1917;1
"1918";1918;6
"1919";1919;6
"1920";1920;5
"1921";1921;5
"1922";1922;0
"1923";1923;0
"1924";1924;5
"1925";1925;1
"1926";1926;5
"1927";1927;5
"1928";1928;5
"1929";1929;5
"1930";1930;5
"1931";1931;5
"1932";1932;5
"1933";1933;5
"1934";1934;0
"1935";1935;5
"1936";1936;0
"1937";1937;5
"1938";1938;5
"1939";1939;5
"1940";1940;4
"1941";1941;4
"1942";1942;4
"1943";1943;5
"1944";1944;6
"1945";1945;4
"1946";1946;4
"1947";1947;5
"1948";1948;6
"1949";1949;4
"1950";1950;5
"1951";1951;4
"1952";1952;4
"1953";1953;6
"1954";1954;6
"1955";1955;6
"1956";1956;5
"1957";1957;6
"1958";1958;6
"1959";1959;5
"1960";1960;5
"1961";1961;6
"1962";1962;5
"1963";1963;5
"1964";1964;5
"1965";1965;5
"1966";1966;5
"1967";1967;5
"1968";1968;5
"1969";1969;5
"1970";1970;5
"1971";1971;5
"1972";1972;5
"1973";1973;5
"1974";1974;5
"1975";1975;5
"1976";1976;2
"1977";1977;5
"1978";1978;5
"1979";1979;3
"1980";1980;2
"1981";1981;3
"1982";1982;5
"1983";1983;5
"1984";1984;5
"1985";1985;2
"1986";1986;5
"1987";1987;5
"1988";1988;5
"1989";1989;5
"1990";1990;5
"1991";1991;5
"1992";1992;5
"1993";1993;5
"1994";1994;5
"1995";1995;5
"1996";1996;5
"1997";1997;0
"1998";1998;5
"1999";1999;5
"2000";2000;5
"2001";2001;5
"2002";2002;6
"2003";2003;5
"2004";2004;6
"2005";2005;0
"2006";2006;5
"2007";2007;5
"2008";2008;5
"2009";2009;5
"2010";2010;5
"2011";2011;5
"2012";2012;6
"2013";2013;5
"2014";2014;5
"2015";2015;5
"2016";2016;4
"2017";2017;6
"2018";2018;5
"2019";2019;5
"2020";2020;5
"2021";2021;5
"2022";2022;5
"2023";2023;5
"2024";2024;5
"2025";2025;5
"2026";2026;5
"2027";2027;5
"2028";2028;5
"2029";2029;5
"2030";2030;6
"2031";2031;5
"2032";2032;5
"2033";2033;5
"2034";2034;2
"2035";2035;2
"2036";2036;5
"2037";2037;5
"2038";2038;5
"2039";2039;5
"2040";2040;5
"2041";2041;5
"2042";2042;5
"2043";2043;0
"2044";2044;0
"2045";2045;5
"2046";2046;5
"2047";2047;5
"2048";2048;6
"2049";2049;6
"2050";2050;6
"2051";2051;6
"2052";2052;6
"2053";2053;5
"2054";2054;5
"2055";2055;6
"2056";2056;5
"2057";2057;5
"2058";2058;6
"2059";2059;5
"2060";2060;5
"2061";2061;6
"2062";2062;6
"2063";2063;5
"2064";2064;5
"2065";2065;6
"2066";2066;5
"2067";2067;5
"2068";2068;5
"2069";2069;5
"2070";2070;5
"2071";2071;5
"2072";2072;5
"2073";2073;5
"2074";2074;2
"2075";2075;6
"2076";2076;5
"2077";2077;5
"2078";2078;5
"2079";2079;5
"2080";2080;5
"2081";2081;5
"2082";2082;5
"2083";2083;5
"2084";2084;5
"2085";2085;5
"2086";2086;5
"2087";2087;5
"2088";2088;6
"2089";2089;5
"2090";2090;2
"2091";2091;2
"2092";2092;2
"2093";2093;5
"2094";2094;5
"2095";2095;5
"2096";2096;5
"2097";2097;5
"2098";2098;3
"2099";2099;2
"2100";2100;2
"2101";2101;2
"2102";2102;3
"2103";2103;2
"2104";2104;3
"2105";2105;5
"2106";2106;5
"2107";2107;5
"2108";2108;2
"2109";2109;5
"2110";2110;5
"2111";2111;5
"2112";2112;5
"2113";2113;5
"2114";2114;5
"2115";2115;6
"2116";2116;5
"2117";2117;5
"2118";2118;5
"2119";2119;5
"2120";2120;5
"2121";2121;5
"2122";2122;5
"2123";2123;5
"2124";2124;5
"2125";2125;5
"2126";2126;5
"2127";2127;5
"2128";2128;5
"2129";2129;5
"2130";2130;5
"2131";2131;1
"2132";2132;5
"2133";2133;5
"2134";2134;5
"2135";2135;1
"2136";2136;6
"2137";2137;5
"2138";2138;5
"2139";2139;6
"2140";2140;6
"2141";2141;6
"2142";2142;6
"2143";2143;6
"2144";2144;6
"2145";2145;5
"2146";2146;1
"2147";2147;5
"2148";2148;5
"2149";2149;0
"2150";2150;6
"2151";2151;6
"2152";2152;6
"2153";2153;5
"2154";2154;5
"2155";2155;5
"2156";2156;6
"2157";2157;5
"2158";2158;5
"2159";2159;5
"2160";2160;0
"2161";2161;5
"2162";2162;5
"2163";2163;1
"2164";2164;5
"2165";2165;5
"2166";2166;6
"2167";2167;6
"2168";2168;6
"2169";2169;6
"2170";2170;6
"2171";2171;5
"2172";2172;6
"2173";2173;5
"2174";2174;5
"2175";2175;5
"2176";2176;5
"2177";2177;5
"2178";2178;4
"2179";2179;4
"2180";2180;5
"2181";2181;2
"2182";2182;6
"2183";2183;5
"2184";2184;5
"2185";2185;6
"2186";2186;5
"2187";2187;6
"2188";2188;5
"2189";2189;5
"2190";2190;5
"2191";2191;5
"2192";2192;5
"2193";2193;2
"2194";2194;5
"2195";2195;2
"2196";2196;5
"2197";2197;2
"2198";2198;2
"2199";2199;5
"2200";2200;2
"2201";2201;5
"2202";2202;5
"2203";2203;2
"2204";2204;2
"2205";2205;2
"2206";2206;2
"2207";2207;5
"2208";2208;2
"2209";2209;2
"2210";2210;5
"2211";2211;5
"2212";2212;5
"2213";2213;5
"2214";2214;5
"2215";2215;5
"2216";2216;5
"2217";2217;5
"2218";2218;5
"2219";2219;5
"2220";2220;6
"2221";2221;5
"2222";2222;1
"2223";2223;5
"2224";2224;5
"2225";2225;5
"2226";2226;5
"2227";2227;5
"2228";2228;5
"2229";2229;5
"2230";2230;5
"2231";2231;5
"2232";2232;5
"2233";2233;5
"2234";2234;5
"2235";2235;5
"2236";2236;5
"2237";2237;5
"2238";2238;2
"2239";2239;5
"2240";2240;5
"2241";2241;5
"2242";2242;6
"2243";2243;5
"2244";2244;5
"2245";2245;5
"2246";2246;5
"2247";2247;5
"2248";2248;5
"2249";2249;5
"2250";2250;2
"2251";2251;5
"2252";2252;5
"2253";2253;5
"2254";2254;5
"2255";2255;5
"2256";2256;5
"2257";2257;5
"2258";2258;5
"2259";2259;5
"2260";2260;5
"2261";2261;5
"2262";2262;5
"2263";2263;5
"2264";2264;5
"2265";2265;5
"2266";2266;5
"2267";2267;5
"2268";2268;5
"2269";2269;5
"2270";2270;5
"2271";2271;5
"2272";2272;6
"2273";2273;5
"2274";2274;5
"2275";2275;5
"2276";2276;5
"2277";2277;5
"2278";2278;6
"2279";2279;5
"2280";2280;6
"2281";2281;6
"2282";2282;5
"2283";2283;5
"2284";2284;5
"2285";2285;5
"2286";2286;5
"2287";2287;3
"2288";2288;5
"2289";2289;5
"2290";2290;5
"2291";2291;5
"2292";2292;5
"2293";2293;5
"2294";2294;5
"2295";2295;5
"2296";2296;5
"2297";2297;6
"2298";2298;5
"2299";2299;5
"2300";2300;5
"2301";2301;0
"2302";2302;5
"2303";2303;5
"2304";2304;5
"2305";2305;5
"2306";2306;5
"2307";2307;5
"2308";2308;5
"2309";2309;5
"2310";2310;0
"2311";2311;2
"2312";2312;3
"2313";2313;2
"2314";2314;3
"2315";2315;5
"2316";2316;2
"2317";2317;5
"2318";2318;6
"2319";2319;5
"2320";2320;5
"2321";2321;5
"2322";2322;5
"2323";2323;6
"2324";2324;1
"2325";2325;5
"2326";2326;6
"2327";2327;5
"2328";2328;5
"2329";2329;1
"2330";2330;5
"2331";2331;5
"2332";2332;5
"2333";2333;5
"2334";2334;5
"2335";2335;5
"2336";2336;5
"2337";2337;5
"2338";2338;5
"2339";2339;5
"2340";2340;6
"2341";2341;6
"2342";2342;6
"2343";2343;5
"2344";2344;5
"2345";2345;5
"2346";2346;5
"2347";2347;2
"2348";2348;5
"2349";2349;5
"2350";2350;5
"2351";2351;5
"2352";2352;5
"2353";2353;5
"2354";2354;5
"2355";2355;5
"2356";2356;5
"2357";2357;5
"2358";2358;5
"2359";2359;5
"2360";2360;5
"2361";2361;5
"2362";2362;5
"2363";2363;5
"2364";2364;5
"2365";2365;5
"2366";2366;2
"2367";2367;6
"2368";2368;3
"2369";2369;2
"2370";2370;3
"2371";2371;5
"2372";2372;0
"2373";2373;5
"2374";2374;5
"2375";2375;5
"2376";2376;5
"2377";2377;5
"2378";2378;5
"2379";2379;5
"2380";2380;5
"2381";2381;5
"2382";2382;5
"2383";2383;5
"2384";2384;6
"2385";2385;0
"2386";2386;5
"2387";2387;0
"2388";2388;6
"2389";2389;3
"2390";2390;2
"2391";2391;5
"2392";2392;5
"2393";2393;5
"2394";2394;5
"2395";2395;5
"2396";2396;5
"2397";2397;6
"2398";2398;5
"2399";2399;5
"2400";2400;5
"2401";2401;5
"2402";2402;5
"2403";2403;5
"2404";2404;5
"2405";2405;4
"2406";2406;5
"2407";2407;0
"2408";2408;6
"2409";2409;5
"2410";2410;5
"2411";2411;5
"2412";2412;2
"2413";2413;2
"2414";2414;2
"2415";2415;5
"2416";2416;5
"2417";2417;5
"2418";2418;5
"2419";2419;5
"2420";2420;5
"2421";2421;5
"2422";2422;2
"2423";2423;5
"2424";2424;5
"2425";2425;5
"2426";2426;5
"2427";2427;5
"2428";2428;5
"2429";2429;5
"2430";2430;5
"2431";2431;5
"2432";2432;1
"2433";2433;5
"2434";2434;5
"2435";2435;5
"2436";2436;5
"2437";2437;5
"2438";2438;2
"2439";2439;5
"2440";2440;5
"2441";2441;5
"2442";2442;2
"2443";2443;5
"2444";2444;5
"2445";2445;5
"2446";2446;2
"2447";2447;2
"2448";2448;5
"2449";2449;5
"2450";2450;6
"2451";2451;5
"2452";2452;5
"2453";2453;5
"2454";2454;2
"2455";2455;2
"2456";2456;5
"2457";2457;5
"2458";2458;2
"2459";2459;5
"2460";2460;2
"2461";2461;5
"2462";2462;2
"2463";2463;2
"2464";2464;0
"2465";2465;0
"2466";2466;1
"2467";2467;0
"2468";2468;5
"2469";2469;6
"2470";2470;5
"2471";2471;1
"2472";2472;5
"2473";2473;5
"2474";2474;5
"2475";2475;5
"2476";2476;5
"2477";2477;5
"2478";2478;5
"2479";2479;5
"2480";2480;1
"2481";2481;5
"2482";2482;5
"2483";2483;5
"2484";2484;5
"2485";2485;5
"2486";2486;5
"2487";2487;2
"2488";2488;5
"2489";2489;5
"2490";2490;6
"2491";2491;5
"2492";2492;5
"2493";2493;5
"2494";2494;5
"2495";2495;6
"2496";2496;2
"2497";2497;1
"2498";2498;2
"2499";2499;3
"2500";2500;5
"2501";2501;5
"2502";2502;5
"2503";2503;5
"2504";2504;5
"2505";2505;5
"2506";2506;2
"2507";2507;5
"2508";2508;6
"2509";2509;5
"2510";2510;5
"2511";2511;5
"2512";2512;1
"2513";2513;5
"2514";2514;5
"2515";2515;5
"2516";2516;2
"2517";2517;2
"2518";2518;5
"2519";2519;5
"2520";2520;5
"2521";2521;5
"2522";2522;5
"2523";2523;5
"2524";2524;5
"2525";2525;6
"2526";2526;5
"2527";2527;6
"2528";2528;5
"2529";2529;6
"2530";2530;5
"2531";2531;5
"2532";2532;5
"2533";2533;5
"2534";2534;5
"2535";2535;0
"2536";2536;6
"2537";2537;5
"2538";2538;5
"2539";2539;5
"2540";2540;6
"2541";2541;5
"2542";2542;5
"2543";2543;5
"2544";2544;5
"2545";2545;5
"2546";2546;5
"2547";2547;2
"2548";2548;0
"2549";2549;5
"2550";2550;5
"2551";2551;5
"2552";2552;5
"2553";2553;5
"2554";2554;5
"2555";2555;5
"2556";2556;5
"2557";2557;5
"2558";2558;5
"2559";2559;5
"2560";2560;5
"2561";2561;5
"2562";2562;6
"2563";2563;6
"2564";2564;5
"2565";2565;5
"2566";2566;5
"2567";2567;5
"2568";2568;5
"2569";2569;5
"2570";2570;6
"2571";2571;5
"2572";2572;5
"2573";2573;5
"2574";2574;5
"2575";2575;5
"2576";2576;5
"2577";2577;5
"2578";2578;5
"2579";2579;2
"2580";2580;5
"2581";2581;2
"2582";2582;5
"2583";2583;6
"2584";2584;5
"2585";2585;5
"2586";2586;5
"2587";2587;5
"2588";2588;5
"2589";2589;5
"2590";2590;2
"2591";2591;5
"2592";2592;5
"2593";2593;2
"2594";2594;5
"2595";2595;5
"2596";2596;2
"2597";2597;3
"2598";2598;5
"2599";2599;5
"2600";2600;5
"2601";2601;5
"2602";2602;5
"2603";2603;5
"2604";2604;5
"2605";2605;5
"2606";2606;5
"2607";2607;5
"2608";2608;6
"2609";2609;5
"2610";2610;5
"2611";2611;5
"2612";2612;5
"2613";2613;5
"2614";2614;5
"2615";2615;0
"2616";2616;4
"2617";2617;6
"2618";2618;4
"2619";2619;5
"2620";2620;5
"2621";2621;5
"2622";2622;6
"2623";2623;5
"2624";2624;5
"2625";2625;5
"2626";2626;5
"2627";2627;5
"2628";2628;5
"2629";2629;5
"2630";2630;5
"2631";2631;5
"2632";2632;5
"2633";2633;6
"2634";2634;6
"2635";2635;5
"2636";2636;5
"2637";2637;5
"2638";2638;5
"2639";2639;5
"2640";2640;5
"2641";2641;5
"2642";2642;2
"2643";2643;5
"2644";2644;2
"2645";2645;2
"2646";2646;3
"2647";2647;5
"2648";2648;5
"2649";2649;5
"2650";2650;5
"2651";2651;2
"2652";2652;5
"2653";2653;5
"2654";2654;2
"2655";2655;5
"2656";2656;5
"2657";2657;6
"2658";2658;5
"2659";2659;5
"2660";2660;5
"2661";2661;2
"2662";2662;5
"2663";2663;2
"2664";2664;5
"2665";2665;5
"2666";2666;5
"2667";2667;2
"2668";2668;2
"2669";2669;3
