izan;15;94;9;36;867;353
ni;3;46;0;3;197;37
gu;2;12;21;0;156;53
zuek;1;16;2;2;121;23
zu;2;5;7;5;77;21
neu;1;16;0;2;58;14
ari;0;4;0;1;51;12
inor;6;6;0;2;37;14
nor;0;5;0;2;33;8
elkar;0;1;0;2;29;5
zeu;0;2;0;5;30;3
ezer;0;1;1;0;36;3
zaitezte;0;1;0;1;30;6
geu;0;0;0;0;26;4
gaitu;0;0;0;0;12;12
norbait;0;2;0;0;14;4
nau;0;0;0;0;19;2
zaituzte;0;4;0;1;6;7
ezazue;0;1;0;1;10;3
akikan;0;1;0;0;11;6
zerbait;0;0;0;0;12;3
dezata;0;2;0;0;12;2
daiteu;0;2;0;0;11;2
kristoria;0;0;0;1;9;5
gaitezen;0;0;0;1;12;1
ikan;0;0;0;0;9;4
beraiek;0;1;0;0;10;2
itzazue;2;2;0;1;6;1
natzaizue;0;0;0;0;10;0
diotsuet;1;0;0;0;8;2
badakizue;0;2;0;0;7;2
ukrenentzan;0;0;0;0;4;4
egizue;0;0;0;0;10;0
baitugu;0;0;0;0;7;3
zaituztet;0;1;0;1;4;2
nitu;0;2;0;0;3;3
baitut;0;1;0;0;8;0
izi;0;1;0;0;7;0
gaituzte;0;0;0;0;8;0
duten;0;0;0;0;6;1
did;0;0;0;0;7;1
zinetu;0;0;0;0;6;0
zigun;0;0;0;0;3;4
bazarete;0;0;1;1;1;4
zedin;0;0;0;0;4;2
zaitzatu;2;0;0;0;4;0
testigu;0;0;0;0;4;2
norbera;0;0;0;1;4;0
nadin;0;0;0;0;6;0
ezagut;0;0;0;0;4;2
dezake;0;0;0;0;2;2
dezada;0;0;0;0;6;0
ukzkion;0;0;0;0;5;0
ezakekan;0;0;0;0;5;0
zid;0;0;0;0;3;1
niregandik;0;1;0;0;2;1
nauzue;0;0;0;0;4;0
izkikan;0;1;0;0;2;1
iokan;0;0;0;0;2;1
iitakn;0;0;0;0;3;1
ditzala;0;1;0;1;2;0
dagokia;0;0;0;0;4;0
bazaio;0;0;0;1;2;1
zuten;0;1;0;0;2;0
zaudetu;0;0;0;0;3;0
zakan;0;0;0;0;3;0
zaiteu;0;0;0;0;0;3
nindun;0;1;0;0;1;1
izaizkn;0;1;0;0;2;0
guregandik;0;0;0;0;3;0
daitezke;0;0;0;0;3;0
baituzue;0;0;0;0;2;1
baitiote;0;0;0;0;2;1
baitakit;0;0;0;0;3;0
baduzue;0;0;0;0;3;0
