"";"";"";"";"permanecer";""
"1";"permanecer";"0.775859509511228";"-0.783027202552302";"0.849434814500251";"94"
"2";"testimonio";"0.713229482233674";"-0.342403613113063";"0.846912326757518";"97"
"3";"asegurar";"0.959801424467378";"-0.0809535431691781";"0.842268656140216";"102"
"4";"verdad";"0.828946924939276";"-0.427272274828832";"0.834917770142455";"112"
"5";"fruto";"0.870657847966828";"-0.347350424584319";"0.826687835385863";"139"
"6";"glorificado";"0.870657847966828";"-0.347350424584319";"0.826687835385863";"140"
"7";"maestro";"0.870657847966828";"-0.347350424584319";"0.826687835385863";"142"
"8";"fiesta";"-1.39195527350046";"0.118536835243878";"0.825331042736363";"145"
"9";"dos";"-1.39195527350046";"0.118536835243878";"0.825331042736363";"146"
"10";"judas";"-1.64335673144127";"0.1703020863359";"0.824978573910358";"150"
"11";"orilla";"-1.36402177817371";"0.112785140678098";"0.821763888352701";"157"
"12";"pascua";"-1.64335673144127";"0.1703020863359";"0.821320117360923";"159"
"13";"sentar";"-1.64335673144127";"0.1703020863359";"0.821320117360923";"161"
"14";"higuera";"-1.64335673144127";"0.1703020863359";"0.821320117360923";"162"
"15";"año";"-1.64335673144127";"0.1703020863359";"0.821320117360923";"164"
"16";"gloria";"0.661156633016153";"-0.304212715340967";"0.820664015751071";"166"
"17";"nazaret";"1.10196112424419";"-0.793274169171332";"0.820303053700344";"168"
"18";"ladrón";"0.473457479392165";"-0.663861041441277";"0.820303053700344";"169"
"19";"podar|poder";"0.870657847966828";"-0.347350424584319";"0.819220167548161";"171"
"20";"oído";"0.870657847966828";"-0.347350424584319";"0.819220167548161";"172"
"21";"conmigo";"0.870657847966828";"-0.347350424584319";"0.819220167548161";"174"
"22";"tres";"-1.32910490901526";"0.105595522470872";"0.81822858356175";"180"
"23";"vendar|vender";"-1.64335673144127";"0.1703020863359";"0.817665907423851";"184"
"24";"correr";"-1.64335673144127";"0.1703020863359";"0.817665907423851";"185"
"25";"sumos";"-1.64335673144127";"0.1703020863359";"0.817665907423851";"186"
"26";"marchar";"-1.64335673144127";"0.1703020863359";"0.817665907423851";"189"
"27";"judea";"-1.64335673144127";"0.1703020863359";"0.817665907423851";"190"
"28";"empezar";"-1.64335673144127";"0.1703020863359";"0.817665907423851";"191"
"29";"después";"-1.64335673144127";"0.1703020863359";"0.817665907423851";"192"
"30";"cerrado";"-1.64335673144127";"0.1703020863359";"0.817665907423851";"194"
"31";"caná";"-1.64335673144127";"0.1703020863359";"0.817665907423851";"195"
"32";"cama";"-1.64335673144127";"0.1703020863359";"0.817665907423851";"196"
"33";"betania";"-1.64335673144127";"0.1703020863359";"0.817665907423851";"197"
"34";"amigo";"0.466190125616602";"-0.529599029660057";"0.816663706906536";"202"
"35";"condenar";"0.619256390026018";"-0.295585173492297";"0.815831370883682";"204"
"36";"sábado";"-1.28421179152583";"0.0963517276330113";"0.814735744894414";"209"
"37";"dejar";"0.530242225004189";"-0.372388377676901";"0.814429988804386";"210"
"38";"voluntad";"0.870657847966828";"-0.347350424584319";"0.814264370922287";"211"
"39";"culto";"0.870657847966828";"-0.347350424584319";"0.814264370922287";"212"
"40";"sed";"0.870657847966828";"-0.347350424584319";"0.814264370922287";"213"
"41";"santo";"0.870657847966828";"-0.347350424584319";"0.814264370922287";"214"
"42";"rabí";"0.870657847966828";"-0.347350424584319";"0.814264370922287";"215"
"43";"nunca";"0.870657847966828";"-0.347350424584319";"0.814264370922287";"216"
"44";"muéstranos";"0.870657847966828";"-0.347350424584319";"0.814264370922287";"217"
"45";"llorar";"-1.64335673144128";"0.1703020863359";"0.814020190711501";"220"
"46";"vista";"-1.64335673144128";"0.1703020863359";"0.814020190711501";"221"
"47";"poco";"0.591322894699261";"-0.289833478926517";"0.813444774736517";"222"
"48";"abierto";"0.591322894699261";"-0.289833478926517";"0.813444774736517";"223"
"49";"reino";"0.870657847966828";"-0.347350424584319";"0.811792842527893";"227"
"50";"perezca";"0.870657847966828";"-0.347350424584319";"0.811792842527893";"228"
"51";"israel";"0.870657847966828";"-0.347350424584319";"0.811792842527893";"229"
"52";"existir";"0.870657847966828";"-0.347350424584319";"0.811792842527893";"230"
"53";"abrahán";"0.556406025540815";"-0.282643860719291";"0.811087904875883";"231"
"54";"entender";"0.556406025540815";"-0.282643860719291";"0.811087904875883";"232"
"55";"testigo";"1.02486003215174";"-0.644632920975661";"0.810911670462881";"233"
"56";"aceptar";"1.02486003215174";"-0.644632920975661";"0.810911670462881";"234"
"57";"vender";"-1.64335673144128";"0.1703020863359";"0.810380843917693";"237"
"58";"tercero";"-1.64335673144128";"0.1703020863359";"0.810380843917693";"238"
"59";"sudario";"-1.64335673144128";"0.1703020863359";"0.810380843917693";"239"
"60";"samaría";"-1.64335673144128";"0.1703020863359";"0.810380843917693";"240"
"61";"retirar";"-1.64335673144128";"0.1703020863359";"0.810380843917693";"241"
"62";"recoger";"-1.64335673144128";"0.1703020863359";"0.810380843917693";"242"
"63";"presentar";"-1.64335673144128";"0.1703020863359";"0.810380843917693";"243"
"64";"pierna";"-1.64335673144128";"0.1703020863359";"0.810380843917693";"244"
"65";"ocho";"-1.64335673144128";"0.1703020863359";"0.810380843917693";"245"
"66";"enterar";"-1.64335673144128";"0.1703020863359";"0.810380843917693";"246"
"67";"derecha";"-1.64335673144128";"0.1703020863359";"0.810380843917693";"247"
"68";"cien";"-1.64335673144128";"0.1703020863359";"0.810380843917693";"248"
"69";"celebrar";"-1.64335673144128";"0.1703020863359";"0.810380843917693";"249"
"70";"apodar";"-1.64335673144128";"0.1703020863359";"0.810380843917693";"251"
"71";"adelantar";"-1.64335673144128";"0.1703020863359";"0.810380843917693";"252"
"72";"suceder";"0.870657847966828";"-0.347350424584319";"0.80932556074586";"253"
"73";"elevar";"0.870657847966828";"-0.347350424584319";"0.80932556074586";"254"
"74";"válido";"0.870657847966828";"-0.347350424584319";"0.80932556074586";"255"
"75";"trabajo";"0.870657847966828";"-0.347350424584319";"0.80932556074586";"256"
"76";"tampoco";"0.870657847966828";"-0.347350424584319";"0.80932556074586";"257"
"77";"significar";"0.870657847966828";"-0.347350424584319";"0.80932556074586";"258"
"78";"principio";"0.870657847966828";"-0.347350424584319";"0.80932556074586";"259"
"79";"pidáis";"0.870657847966828";"-0.347350424584319";"0.80932556074586";"260"
"80";"pecador";"0.870657847966828";"-0.347350424584319";"0.80932556074586";"261"
"81";"dichosos";"0.870657847966828";"-0.347350424584319";"0.80932556074586";"262"
"82";"comunicar";"0.870657847966828";"-0.347350424584319";"0.80932556074586";"263"
"83";"comparación";"0.870657847966828";"-0.347350424584319";"0.80932556074586";"264"
"84";"amo";"0.870657847966828";"-0.347350424584319";"0.80932556074586";"265"
"85";"propio";"0.511512908051385";"-0.273400065881431";"0.808767131220322";"269"
"86";"muerte";"0.511512908051385";"-0.273400065881431";"0.808767131220322";"270"
"87";"juzgar";"0.9734593040901";"-0.54553875551188";"0.807098212562252";"276"
"88";"ése";"0.790215353556548";"-0.501485421484452";"0.80709396594989";"278"
"89";"paz";"0.870657847966829";"-0.347350424584319";"0.806862525576188";"279"
"90";"glorificará";"0.870657847966829";"-0.347350424584319";"0.806862525576188";"280"
"91";"vid";"0.870657847966829";"-0.347350424584319";"0.806862525576188";"281"
"92";"surgir";"0.870657847966829";"-0.347350424584319";"0.806862525576188";"282"
"93";"siervo";"0.870657847966829";"-0.347350424584319";"0.806862525576188";"283"
"94";"serpiente";"0.870657847966829";"-0.347350424584319";"0.806862525576188";"284"
"95";"recordar";"0.870657847966829";"-0.347350424584319";"0.806862525576188";"285"
"96";"príncipe";"0.870657847966829";"-0.347350424584319";"0.806862525576188";"286"
"97";"proceder";"0.870657847966829";"-0.347350424584319";"0.806862525576188";"287"
"98";"paráclito";"0.870657847966829";"-0.347350424584319";"0.806862525576188";"288"
"99";"linaje";"0.870657847966829";"-0.347350424584319";"0.806862525576188";"289"
"100";"hambre";"0.870657847966829";"-0.347350424584319";"0.806862525576188";"290"
"101";"envío";"0.870657847966829";"-0.347350424584319";"0.806862525576188";"291"
"102";"cuándo";"0.870657847966829";"-0.347350424584319";"0.806862525576188";"292"
"103";"conocierais";"0.870657847966829";"-0.347350424584319";"0.806862525576188";"293"
"104";"conoceríais";"0.870657847966829";"-0.347350424584319";"0.806862525576188";"294"
"105";"buscáis";"0.870657847966829";"-0.347350424584319";"0.806862525576188";"295"
"106";"aprender";"0.870657847966829";"-0.347350424584319";"0.806862525576188";"296"
"107";"dar|distar";"0.986309486105509";"-0.570312296877825";"0.806393274910242";"298"
"108";"rogar";"1.02486003215174";"-0.644632920975661";"0.805189360305756";"301"
"109";"conceder";"1.02486003215174";"-0.644632920975661";"0.805189360305756";"305"
"110";"además";"1.02486003215174";"-0.644632920975661";"0.805189360305756";"306"
"111";"saltar";"0.963179158477773";"-0.525719922419124";"0.80432517469019";"308"
"112";"juicio";"0.963179158477773";"-0.525719922419124";"0.80432517469019";"309"
"113";"embargo";"0.963179158477773";"-0.525719922419124";"0.80432517469019";"310"
"114";"recibir";"0.398027088458624";"-0.363831670697704";"0.803348453847045";"314"
"115";"viejo";"-0.805351871638574";"-0.00224875063750651";"0.801913098868857";"321"
"116";"segundo";"-0.805351871638574";"-0.00224875063750651";"0.801913098868857";"323"
"117";"miedo";"-0.805351871638574";"-0.00224875063750651";"0.801913098868857";"325"
"118";"fariseo";"-0.805351871638574";"-0.00224875063750651";"0.801913098868857";"328"
"119";"anunciar";"-0.805351871638574";"-0.00224875063750651";"0.801913098868857";"329"
"120";"gritar";"0.460376242596153";"-0.42218942023508";"0.801651932208625";"330"
"121";"delante";"0.460376242596153";"-0.42218942023508";"0.801651932208625";"331"
"122";"salvar";"0.528756510157932";"-0.409716254293287";"0.801603096166467";"332"
"123";"sorprender";"0.0326529881641271";"-0.174799587610913";"0.800547812994634";"336"
"124";"soplar";"0.0326529881641271";"-0.174799587610913";"0.800547812994634";"337"
"125";"sarmiento";"0.0326529881641271";"-0.174799587610913";"0.800547812994634";"338"
"126";"piscina";"0.0326529881641271";"-0.174799587610913";"0.800547812994634";"339"
"127";"necesitar";"0.0326529881641271";"-0.174799587610913";"0.800547812994634";"340"
"128";"monte";"0.0326529881641271";"-0.174799587610913";"0.800547812994634";"341"
"129";"lavar";"0.0326529881641271";"-0.174799587610913";"0.800547812994634";"342"
"130";"comprender";"0.0326529881641271";"-0.174799587610913";"0.800547812994634";"343"
"131";"solo";"-0.0142718002418699";"-0.26471166913599";"0.8";"345"
