"";"classe 1";"classe 2";"classe 3";"classe 4";"classe 5";"classe 6";"classe 7";"classe 8"
"decir";133,329;-1,661;-13,514;-1,661;-20,14;-2,29;-0,358;-38,952
"jesús";284,363;-1,529;-12,443;-1,529;-18,543;-2,108;-1,915;-130,773
"padre";-89,934;-1,21;0,544;-1,21;0,537;-1,668;-1,515;86,482
"os";-73,021;-0,921;-3,519;23,897;-3,584;8,228;1,041;76,34
"ver";1,735;1,979;-3,397;-0,903;-3,423;-0,012;0;0,259
"dar";-49,657;-0,868;6,918;0,07;-1,937;-1,197;-1,087;47,589
"dios";-52,58;-0,673;-1,854;-0,673;-0,639;-0,928;0,074;71,948
"discípulo";140,968;-0,723;-3,807;-0,723;-8,772;-0,997;-0,906;-69,673
"mundo";-44,437;-0,535;0,381;-0,535;8,466;-0,737;3,282;21,844
"hijo";-27,492;-0,616;-1,491;-0,616;-2,101;-0,849;-0,771;49,293
"hacer";-12,802;-0,559;-4,547;-0,559;7,554;-0,77;-0,7;12,429
"ir";-10,649;-0,607;-2,931;-0,607;-5,217;0,074;0,138;28,191
"tiempo";131,048;-0,567;-4,613;-0,567;-6,874;-0,781;-0,71;-65,694
"venir";-29,378;-0,503;-4,09;-0,503;-0,36;-0,693;-0,629;49,544
"vida";-35,865;-0,431;49,626;-0,431;4,895;-0,595;-0,54;3,639
"crear|creer";-26,226;6,002;0,132;-0,463;-0,839;-0,638;0,409;25,279
"enviar";-24,356;-0,439;-0,506;-0,439;-5,328;0,348;-0,55;43,464
"saber";-6,282;-0,392;-3,194;-0,392;-1,295;-0,541;-0,491;18,82
"conocer";-28,133;-0,338;-0,991;-0,338;3,544;-0,467;-0,424;25,194
"señor";0,023;-0,369;0,033;-0,369;-4,478;-0,509;-0,462;1,917
"judío";63,06;-0,369;-3,005;-0,369;-4,478;-0,509;-0,462;-27,931
"pan";-8,722;-0,323;325,721;-0,323;-3,919;-0,445;-0,405;-14,703
"hombre";-10,265;-0,346;0,903;-0,346;0,51;-0,477;-0,433;7,499
"hablar";-13,529;-0,3;-2,444;-0,3;-3,642;6,824;-0,376;25,892
"palabra";-9,64;-0,308;-2,506;-0,308;31,927;-0,424;-0,386;1,211
"ya";-1,324;-0,308;-2,506;-0,308;-1,82;-0,424;-0,386;8,952
"mismo";-16,363;-0,27;0;-0,27;6,404;-0,372;-0,338;8,723
"llegar";18,178;-0,27;-2,197;-0,27;-3,275;7,9;-0,338;-7,526
"testimonio";-11,559;-0,21;-1,71;-0,21;-0,807;-0,29;-0,263;22,33
"querer";4,637;-0,255;-2,075;-0,255;-3,092;-0,351;-0,319;-0,008
"día";5,37;-0,247;5,863;-0,247;0,042;-0,341;-0,31;-9,423
"verdad";-13,143;-0,195;-1,589;-0,195;0,395;-0,269;-0,245;16,681
"nadie";-11,925;-0,247;0,014;-0,247;-3,001;1,435;-0,31;18,16
"ahora";-20,568;-0,247;-2,014;-0,247;-1,18;1,435;-0,31;32,012
"cielo";-6,346;-0,203;78,233;-0,203;-0,736;-0,279;-0,254;-0,592
"asegurar";-19,945;-0,24;0,026;-0,24;-0,156;-0,331;1,815;20,143
"uno";0,533;-0,218;-0,265;-0,218;-0,88;-0,3;-0,272;0,156
"obra";-16,231;-0,195;-1,589;-0,195;86,485;-0,269;-0,245;-0,045
"más";0,66;-0,195;-1,589;-0,195;-0,666;-0,269;-0,245;0,324
"quedar";10,454;-0,195;-1,589;-0,195;-0,666;-0,269;13,578;-6,526
"luz";-12,557;-0,151;-1,229;-0,151;157,191;-0,208;-0,189;-6,459
"creer";-0,872;-0,203;-1,649;-0,203;-2,458;-0,279;-0,254;7,2
"preguntar";41,741;-0,195;-1,589;-0,195;-2,368;-0,269;-0,245;-20,315
"pedro";47,117;-0,195;-1,589;-0,195;-2,368;-0,269;-0,245;-23,988
"nombre";-12,537;-0,188;-1,529;-0,188;-0,001;2,315;-0,235;15,58
"llamar";6,848;-0,173;-1,409;-0,173;-0,467;-0,239;-0,217;-1,696
"juan";6,848;-0,173;-1,409;-0,173;2,6;-0,239;-0,217;-6,468
"eterno";-15,002;-0,18;0,328;-0,18;2,315;-0,249;-0,226;8,973
"echar";33,193;-0,18;-1,469;-0,18;-2,189;-0,249;-0,226;-15,192
"comer";-5,247;4,762;254,71;-0,158;-1,921;-0,218;-0,198;-19,459
"así";-9,214;-0,18;-1,469;-0,18;-0,532;-0,249;-0,226;17,74
"morir";-2,104;-0,136;25,703;-0,136;-1,655;-0,188;-0,171;0,007
"mano";-0,257;227,491;0,584;4,762;-1,921;-0,218;-0,198;-3,317
"allí";36,428;-0,173;-1,409;-0,173;-2,099;-0,239;-0,217;-17,622
"seguir";2,324;-0,166;-1,349;-0,166;16,424;-0,228;-0,208;-7,969
"salir";3,844;-0,166;-1,349;-0,166;0,021;-0,228;-0,208;-1,285
"oír";3,844;-0,166;-1,349;-0,166;0,021;-0,228;-0,208;-1,285
"cómo";-10,728;-0,166;0,486;-0,166;-2,01;-0,228;-0,208;15,483
"simón";27,988;-0,158;-1,289;-0,158;0,045;-0,218;-0,198;-19,459
"poner";1,038;-0,151;-1,229;-0,151;-0,288;-0,208;-0,189;0,012
"dónde";-1,71;-0,129;-1,051;-0,129;-1,566;-0,178;-0,162;7,216
"agua";0,217;-0,136;-1,11;-0,136;-1,655;-0,188;-0,171;1,017
"oveja";-0,944;-0,136;-1,11;-0,136;115,127;-0,188;-0,171;-16,76
"hora";-1,594;-0,151;-1,229;-0,151;-0,288;-0,208;-0,189;5,366
"vuestro";-11,34;-0,136;-1,11;-0,136;-1,655;81,667;20,711;3,75
"templo";32,92;-0,136;-1,11;-0,136;-1,655;-0,188;-0,171;-16,76
"tanto";3,625;-0,136;-1,11;-0,136;-1,655;-0,188;-0,171;-0,147
"siempre";-10,129;-0,122;142,565;-0,122;-1,478;-0,168;-0,153;-2,014
"mis";-11,34;26,79;-1,11;-0,136;134,282;-0,188;-0,171;-10,025
"espíritu";-9,524;-0,115;1,577;-0,115;-1,39;-0,158;-0,143;10,993
"nacer";-9,524;-0,115;0,021;32,448;-1,39;-0,158;-0,143;7,9
"llevar";13,058;-0,129;-1,051;-0,129;-1,566;-0,178;-0,162;-4,316
"escribir";-0,665;-0,129;1,147;-0,129;-1,566;-0,178;-0,162;1,58
"encontrar";13,058;-0,129;-1,051;-0,129;-1,566;-0,178;-0,162;-4,316
"casa";4,568;-0,129;-1,051;-0,129;-0,137;-0,178;-0,162;-1,265
"carne";-10,129;-0,122;230,251;-0,122;-1,478;-0,168;-0,153;-8,347
"voz";-7,163;-0,122;-0,992;-0,122;76,677;-0,168;-0,153;-2,014
"vivir";-7,163;-0,122;95,729;-0,122;-0,096;-0,168;-0,153;-2,014
"vez";11,544;-0,122;-0,992;-0,122;-1,478;-0,168;-0,153;-3,645
"subir";2,584;-0,115;-0,932;-0,115;-1,39;-0,158;-0,143;-0,048
"sepulcro";22,436;-0,115;-0,932;-0,115;-1,39;-0,158;-0,143;-10,543
"ojo";8,361;-0,122;-0,992;-0,122;-1,478;-0,168;-0,153;-2,014
"gente";15,24;-0,122;-0,992;-0,122;-1,478;-0,168;-0,153;-5,756
"bajar";-4,71;-0,122;29,944;-0,122;-1,478;-0,168;-0,153;0,292
"amar";-2,633;-0,093;-0,756;40,722;-1,126;-0,128;-0,116;2,743
"signo";0,002;-0,115;1,577;-0,115;-1,39;-0,158;-0,143;0,082
"recibir";-1,472;-0,1;-0,814;-0,1;0,799;-0,138;-0,125;1,813
"pie";16,098;-0,107;-0,873;-0,107;-1,302;-0,148;-0,134;-6,702
"muerto";13,643;-0,115;0,021;-0,115;-1,39;-0,158;-0,143;-7,52
"maría";25,897;-0,107;-0,873;-0,107;-1,302;-0,148;-0,134;-13,185
"hecho";-0,229;-0,115;0,021;-0,115;-1,39;-0,158;-0,143;1,68
"guardar";-6,577;-0,115;-0,932;-0,115;100,596;-0,158;-0,143;-5,006
"volver";0,059;-0,107;-0,873;-0,107;-1,302;5,177;-0,134;0,289
"profeta";-4,272;-0,086;-0,697;-0,086;-1,039;-0,118;-0,107;9,968
"hermano";20,708;-0,107;-0,873;-0,107;-1,302;-0,148;-0,134;-9,672
"galilea";20,708;-0,107;-0,873;-0,107;-1,302;-0,148;-0,134;-9,672
"ciego";3,455;-0,107;-0,873;-0,107;-1,302;-0,148;5,866;-1,051
"ama";-8,319;-0,1;-0,814;-0,1;118,16;-0,138;-0,125;-5,895
"ése";-5,416;-0,1;-0,814;-0,1;3,577;-0,138;-0,125;3,555
"tierra";-0,069;-0,086;-0,697;-0,086;-1,039;-0,118;-0,107;1,993
"pasar";0,342;-0,078;-0,638;-0,078;-0,951;-0,108;-0,098;0,293
"mujer";2,471;-0,1;-0,814;-0,1;-1,214;-0,138;-0,125;-0,074
"mesías";-3,708;-0,078;-0,638;-0,078;-0,951;-0,108;-0,098;8,826
"medio";1,604;-0,093;-0,756;-0,093;-1,126;-0,128;-0,116;0
"junto";10,518;-0,1;-0,814;-0,1;-1,214;-0,138;-0,125;-3,568
"jerusalén";14,441;-0,1;-0,814;-0,1;-1,214;-0,138;-0,125;-5,895
"grande";-0,01;-0,1;-0,814;-0,1;-0,011;-0,138;-0,125;0,651
"gloria";-4,272;-0,086;-0,697;-0,086;-1,039;-0,118;-0,107;9,968
"fruto";-6,519;-0,078;-0,638;-0,078;-0,951;-0,108;-0,098;12,805
"felipe";10,518;-0,1;-0,814;-0,1;-1,214;-0,138;-0,125;-3,568
"escuchar";-8,319;-0,1;0,081;-0,1;15,105;-0,138;-0,125;0,651
"entregar";-0,431;-0,1;-0,814;-0,1;-0,011;-0,138;-0,125;1,813
"entrar";2,471;-0,1;0,081;-0,1;3,577;-0,138;-0,125;-5,895
"camino";-1,472;-0,1;-0,814;-0,1;-1,214;-0,138;-0,125;5,879
"alegría";-0,747;-0,086;-0,697;-0,086;-1,039;418,053;-0,107;-4,325
"vino";-0,218;-0,093;-0,756;-0,093;38,227;-0,128;-0,116;-5,102
"tomar";9;-0,093;-0,756;-0,093;-1,126;-0,128;-0,116;-2,888
"saber|ser";-7,718;-0,093;7,966;-0,093;-1,126;-0,128;-0,116;4,909
"primero";12,8;-0,093;-0,756;-0,093;-0,001;-0,128;-0,116;-7,941
"glorificado";-6,519;-0,078;-0,638;-0,078;-0,951;-0,108;-0,098;12,805
"dejar";-2,633;-0,093;-0,756;-0,093;-0,001;-0,128;7,032;2,743
"aquí";-1,091;40,722;-0,756;-0,093;-1,126;-0,128;-0,116;1,203
"pecado";-3,708;-0,078;-0,638;-0,078;-0,951;-0,108;1036,356;-9,635
"moisés";-7,118;-0,086;-0,697;-0,086;-1,039;-0,118;-0,107;13,981
"único";-6,519;-0,078;-0,638;-0,078;-0,951;-0,108;-0,098;12,805
"vuestra";-6,519;-0,078;-0,638;-0,078;0,022;333,986;-0,098;-0,454
"vengar|venir";-0,45;-0,078;-0,638;-0,078;-0,951;-0,108;8,627;1,319
"todavía";18,924;-0,078;-0,638;-0,078;-0,951;-0,108;-0,098;-9,635
"sitio";2,293;-0,071;-0,58;-0,071;-0,864;-0,098;-0,089;-0,169
"poco";-2,606;-0,064;-0,521;-0,064;-0,777;-0,088;-0,08;6,568
"pedir";-0,45;-0,078;-0,638;-0,078;-0,951;7,683;-0,098;1,319
"maestro";-6,519;-0,078;-0,638;-0,078;-0,951;-0,108;-0,098;12,805
"levantar";13,858;-0,078;-0,638;-0,078;-0,951;-0,108;-0,098;-6,232
"fiesta";12,166;-0,071;-0,58;-0,071;-0,864;-0,098;-0,089;-5,389
"escritura";0,039;-0,071;0,409;-0,071;2,037;-0,098;-0,089;-1,098
"amor";-5,324;-0,064;-0,521;-0,064;8,084;-0,088;-0,08;1,491
"acercar";18,924;-0,078;-0,638;-0,078;-0,951;-0,108;-0,098;-9,635
"sangre";-3,152;-0,071;109,16;-0,071;-0,864;-0,098;-0,089;-5,389
"madre";4,996;-0,057;-0,463;-0,057;-0,69;-0,078;-0,071;-1,49
"lázaro";17,189;-0,071;-0,58;-0,071;-0,864;-0,098;-0,089;-8,751
"juzgar";-5,324;-0,064;-0,521;-0,064;2,565;-0,088;-0,08;3,579
"fariseos";17,189;-0,071;-0,58;-0,071;-0,864;-0,098;-0,089;-8,751
"dos";12,166;-0,071;-0,58;-0,071;-0,864;-0,098;-0,089;-5,389
"desierto";-3,152;-0,071;23,458;-0,071;-0,864;-0,098;-0,089;0,051
"cuenta";-5,921;-0,071;-0,58;-0,071;-0,864;-0,098;-0,089;11,63
"condenar";-3,152;-0,071;-0,58;-0,071;-0,864;-0,098;-0,089;7,692
"bueno";-5,921;-0,071;-0,58;-0,071;72,205;-0,098;-0,089;-2,838
"beber";-5,921;-0,071;58,456;-0,071;-0,864;-0,098;-0,089;-0,169
"andar";12,166;-0,071;-0,58;-0,071;-0,864;-0,098;-0,089;-5,389
"acerca";-3,152;-0,071;-0,58;-0,071;14,318;-0,098;-0,089;0,051
"abrahán";-2,072;-0,057;-0,463;-0,057;-0,69;-0,078;-0,071;5,458
"traer";-2,606;566,979;-0,521;-0,064;0,13;-0,088;-0,08;-4,555
"solo";0,001;-0,057;-0,463;-0,057;0,236;-0,078;-0,071;0,041
"sacerdote";15,456;-0,064;-0,521;-0,064;-0,777;-0,088;-0,08;-7,869
"puerta";3,429;-0,064;-0,521;-0,064;8,084;-0,088;-0,08;-7,869
"pez";15,456;-0,064;-0,521;-0,064;-0,777;-0,088;-0,08;-7,869
"orilla";10,486;-0,064;-0,521;-0,064;-0,777;-0,088;-0,08;-4,555
"mandamiento";-4,729;-0,057;-0,463;68,323;49,943;-0,078;-0,071;-6,988
"lago";15,456;-0,064;-0,521;-0,064;-0,777;-0,088;-0,08;-7,869
"enseñar";3,429;-0,064;-0,521;-0,064;-0,777;-0,088;-0,08;-0,628
"costado";1,342;249,32;-0,521;-0,064;-0,777;-0,088;-0,08;-7,869
"amigo";-0,848;-0,064;-0,521;-0,064;8,084;-0,088;-0,08;-0,015
"abierto";-2,606;-0,064;-0,521;-0,064;-0,777;-0,088;-0,08;6,568
"último";-4,729;-0,057;51,058;-0,057;0,236;-0,078;-0,071;-1,49
"voluntad";-3,54;-0,043;-0,347;-0,043;-0,517;-0,059;-0,053;6,954
"vivo";-4,729;-0,057;75,875;-0,057;-0,69;-0,078;-0,071;-1,49
"tres";8,821;-0,057;-0,463;-0,057;-0,69;-0,078;-0,071;-3,733
"tomás";13,727;-0,057;-0,463;-0,057;-0,69;-0,078;-0,071;-6,988
"sólo";2,25;-0,057;-0,463;-0,057;-0,69;-0,078;-0,071;-0,259
"sábado";7,176;-0,05;-0,405;-0,05;-0,603;-0,069;-0,062;-2,929
"suelo";10,277;-0,043;-0,347;-0,043;-0,517;-0,059;-0,053;-5,232
"sacar";0,001;-0,057;-0,463;-0,057;3,247;-0,078;-0,071;-0,259
"resucitar";8,821;-0,057;0,783;-0,057;-0,69;-0,078;-0,071;-6,988
"red";13,727;-0,057;-0,463;-0,057;-0,69;-0,078;-0,071;-6,988
"pueblo";0,001;-0,057;0,783;-0,057;-0,69;-0,078;-0,071;0,041
"podar|poder";-4,729;-0,057;-0,463;-0,057;-0,69;-0,078;-0,071;9,288
"oído";-4,729;-0,057;-0,463;-0,057;-0,69;-0,078;-0,071;9,288
"nuevo";0,001;-0,057;-0,463;281,236;-0,69;-0,078;-0,071;-3,733
"nicodemo";13,727;-0,057;-0,463;-0,057;-0,69;-0,078;-0,071;-6,988
"mandar";-0,497;-0,057;-0,463;-0,057;-0,69;-0,078;-0,071;2,64
"ley";-4,729;-0,057;-0,463;-0,057;-0,69;-0,078;-0,071;9,288
"fe";0,104;-0,05;-0,405;-0,05;-0,603;-0,069;-0,062;0,324
"erar|ser";0,586;-0,057;-0,463;-0,057;9,723;-0,078;-0,071;-3,733
"entender";-2,072;-0,057;-0,463;-0,057;-0,69;-0,078;-0,071;5,458
"enfermo";13,727;-0,057;-0,463;-0,057;-0,69;-0,078;-0,071;-6,988
"dar|distar";-4,729;-0,057;-0,463;-0,057;3,247;-0,078;-0,071;2,64
"culto";-3,54;-0,043;-0,347;-0,043;-0,517;-0,059;-0,053;6,954
"creed";-3,54;-0,043;-0,347;-0,043;70,437;-0,059;-0,053;-5,232
"conmigo";-4,729;-0,057;-0,463;-0,057;-0,69;-0,078;-0,071;9,288
"cambio";-4,729;-0,057;-0,463;-0,057;33,071;-0,078;-0,071;-0,259
"barca";13,727;-0,057;-0,463;-0,057;-0,69;-0,078;-0,071;-6,988
"acudir";4,996;-0,057;-0,463;-0,057;-0,69;-0,078;-0,071;-1,49
"vendar|vender";8,556;-0,035;-0,289;-0,035;-0,43;-0,049;-0,044;-4,356
"suceder";-2,356;-0,028;-0,231;-0,028;-0,344;-0,039;-0,035;4,628
"propio";-1,557;-0,05;-0,405;-0,05;-0,603;-0,069;-0,062;4,365
"permanecer";-1,557;-0,05;-0,405;-0,05;23,518;-0,069;-0,062;-0,905
"pascua";10,277;-0,043;-0,347;-0,043;-0,517;-0,059;-0,053;-5,232
"natanael";12;-0,05;-0,405;-0,05;-0,603;-0,069;-0,062;-6,109
"muerte";-1,557;-0,05;-0,405;-0,05;-0,603;-0,069;-0,062;4,365
"matar";0,104;-0,05;-0,405;-0,05;4,147;-0,069;-0,062;-0,905
"marta";12;-0,05;-0,405;-0,05;-0,603;-0,069;-0,062;-6,109
"llenar";7,176;-0,05;-0,405;-0,05;-0,603;13,091;-0,062;-6,109
"lado";-0,214;-0,05;-0,405;-0,05;-0,603;-0,069;-0,062;1,767
"judas";12;-0,05;-0,405;-0,05;-0,603;-0,069;-0,062;-6,109
"gracia";-0,035;-0,043;-0,347;-0,043;-0,517;-0,059;-0,053;0,991
"elevar";-2,356;-0,028;-0,231;-0,028;-0,344;-0,039;-0,035;4,628
"crear";-4,134;-0,05;-0,405;-0,05;-0,603;-0,069;14,578;4,365
"cosa";3,585;-0,05;-0,405;-0,05;-0,603;-0,069;-0,062;-0,905
"correr";8,556;-0,035;-0,289;-0,035;-0,43;-0,049;-0,044;-4,356
"cerca";5,56;-0,043;-0,347;-0,043;-0,517;-0,059;-0,053;-2,151
"aparecer";12;-0,05;-0,405;-0,05;-0,603;-0,069;-0,062;-6,109
"adonde";-1,557;-0,05;-0,405;-0,05;-0,603;13,091;-0,062;1,767
"acordar";3,585;-0,05;-0,405;-0,05;-0,603;-0,069;-0,062;-0,905
"vuestros";-2,948;-0,035;54,34;-0,035;-0,43;-0,049;21,141;-4,356
"vi";10,277;-0,043;-0,347;-0,043;-0,517;-0,059;-0,053;-5,232
"tiniebla";-2,948;-0,035;-0,289;-0,035;58,646;-0,049;-0,044;-4,356
"testigo";-3,54;-0,043;-0,347;-0,043;5,375;-0,059;-0,053;0,991
"sentar";10,277;-0,043;-0,347;-0,043;-0,517;-0,059;-0,053;-5,232
"sed";-3,54;-0,043;-0,347;-0,043;-0,517;-0,059;-0,053;6,954
"santo";-3,54;-0,043;-0,347;-0,043;-0,517;-0,059;-0,053;6,954
"salvar";-1,068;-0,043;-0,347;-0,043;0,64;-0,059;-0,053;0,991
"rey";0,438;-0,043;-0,347;-0,043;-0,517;-0,059;-0,053;0,031
"rabí";-3,54;-0,043;-0,347;-0,043;-0,517;-0,059;-0,053;6,954
"quitar";-0,035;-0,043;-0,347;-0,043;-0,517;15,577;17,311;-0,417
"pensar";-1,068;-0,043;-0,347;-0,043;-0,517;-0,059;-0,053;3,299
"pastor";-3,54;-0,043;-0,347;-0,043;70,437;-0,059;-0,053;-5,232
"nunca";-3,54;-0,043;-0,347;-0,043;-0,517;-0,059;-0,053;6,954
"noche";2,28;-0,043;-0,347;-0,043;0,64;-0,059;-0,053;-2,151
"muéstranos";-3,54;-0,043;-0,347;-0,043;-0,517;-0,059;-0,053;6,954
"modo";-3,54;-0,043;9,137;-0,043;-0,517;-0,059;-0,053;0,991
"meter";0,292;140,123;-0,231;-0,028;-0,344;-0,039;-0,035;-3,482
"higuera";10,277;-0,043;-0,347;-0,043;-0,517;-0,059;-0,053;-5,232
"guardará";-3,54;-0,043;-0,347;-0,043;70,437;-0,059;-0,053;-5,232
"detrás";-0,035;-0,043;1,481;-0,043;-0,517;-0,059;-0,053;0,031
"debajo";10,277;-0,043;-0,347;-0,043;-0,517;-0,059;-0,053;-5,232
"cinco";5,56;-0,043;-0,347;-0,043;-0,517;-0,059;-0,053;-2,151
"bautizar";1,141;-0,035;-0,289;-0,035;-0,43;-0,049;-0,044;-0,084
"bajo";-1,068;-0,043;71,231;-0,043;-0,517;-0,059;-0,053;-5,232
"año";10,277;-0,043;-0,347;-0,043;-0,517;-0,059;-0,053;-5,232
"alimento";-2,356;-0,028;2,991;-0,028;-0,344;-0,039;-0,035;1,315
"ahí";-0,017;-0,021;-0,173;-0,021;-0,258;-0,029;-0,027;0,494
"aceptar";-3,54;-0,043;-0,347;-0,043;5,375;-0,059;-0,053;0,991
"sumos";8,556;-0,035;-0,289;-0,035;-0,43;-0,049;-0,044;-4,356
"servir";-0,622;-0,035;29,099;-0,035;-0,43;-0,049;-0,044;-1,413
"seis";8,556;-0,035;-0,289;-0,035;-0,43;-0,049;-0,044;-4,356
"saltar";-2,948;-0,035;-0,289;-0,035;1,014;-0,049;-0,044;2,273
"resucitaré";-2,948;-0,035;54,34;-0,035;-0,43;-0,049;-0,044;-1,413
"reino";-2,948;-0,035;-0,289;-0,035;-0,43;-0,049;-0,044;5,79
"pescado";-0,622;-0,035;-0,289;-0,035;-0,43;-0,049;-0,044;2,273
"perezca";-2,948;-0,035;-0,289;-0,035;-0,43;-0,049;-0,044;5,79
"paz";-1,765;-0,021;-0,173;-0,021;-0,258;-0,029;-0,027;3,468
"paloma";3,987;-0,035;2,074;-0,035;-0,43;-0,049;-0,044;-4,356
"mirar";1,141;-0,035;-0,289;-0,035;-0,43;-0,049;-0,044;-0,084
"mesa";3,987;-0,035;-0,289;-0,035;-0,43;-0,049;-0,044;-1,413
"mellizo";8,556;-0,035;-0,289;-0,035;-0,43;-0,049;-0,044;-4,356
"marchar";8,556;-0,035;-0,289;-0,035;-0,43;-0,049;-0,044;-4,356
"llorar";6,839;-0,028;-0,231;-0,028;-0,344;-0,039;-0,035;-3,482
"juicio";-2,948;-0,035;-0,289;-0,035;1,014;-0,049;-0,044;2,273
"judea";8,556;-0,035;-0,289;-0,035;-0,43;-0,049;-0,044;-4,356
"israel";-2,948;-0,035;-0,289;-0,035;-0,43;-0,049;-0,044;5,79
"gritar";-0,622;-0,035;-0,289;-0,035;1,014;-0,049;-0,044;0,371
"glorificará";-1,765;-0,021;-0,173;-0,021;-0,258;-0,029;-0,027;3,468
"existir";-2,948;-0,035;-0,289;-0,035;-0,43;-0,049;-0,044;5,79
"empezar";8,556;-0,035;-0,289;-0,035;-0,43;-0,049;-0,044;-4,356
"embargo";-2,948;-0,035;-0,289;-0,035;1,014;-0,049;-0,044;2,273
"elegir";-1,765;-0,021;4,556;-0,021;-0,258;-0,029;-0,027;0,494
"doce";3,987;-0,035;-0,289;-0,035;1,014;-0,049;-0,044;-4,356
"después";8,556;-0,035;-0,289;-0,035;-0,43;-0,049;-0,044;-4,356
"delante";-0,622;-0,035;-0,289;-0,035;1,014;-0,049;-0,044;0,371
"dedo";-0,622;453,589;-0,289;-0,035;-0,43;-0,049;-0,044;-4,356
"curar";1,141;-0,035;-0,289;-0,035;-0,43;-0,049;-0,044;-0,084
"corazón";-2,948;-0,035;-0,289;-0,035;-0,43;515,897;-0,044;-4,356
"convertir";-0,622;-0,035;-0,289;-0,035;-0,43;80,151;-0,044;-0,084
"coma";-2,948;-0,035;87,399;-0,035;-0,43;-0,049;-0,044;-4,356
"coger";8,556;-0,035;-0,289;-0,035;-0,43;-0,049;-0,044;-4,356
"cerrado";8,556;-0,035;-0,289;-0,035;-0,43;-0,049;-0,044;-4,356
"caná";8,556;-0,035;-0,289;-0,035;-0,43;-0,049;-0,044;-4,356
"caminar";-0,622;-0,035;-0,289;-0,035;35,944;-0,049;-0,044;-4,356
"cama";8,556;-0,035;-0,289;-0,035;-0,43;-0,049;-0,044;-4,356
"caer";-0,622;-0,035;-0,289;-0,035;-0,43;-0,049;-0,044;2,273
"cabeza";3,987;-0,035;-0,289;-0,035;-0,43;-0,049;-0,044;-1,413
"buscar";3,987;-0,035;-0,289;-0,035;-0,43;-0,049;-0,044;-1,413
"betania";8,556;-0,035;-0,289;-0,035;-0,43;-0,049;-0,044;-4,356
"aún";0,02;-0,035;-0,289;-0,035;-0,43;-0,049;-0,044;0,371
"andrés";8,556;-0,035;-0,289;-0,035;-0,43;-0,049;-0,044;-4,356
"améis";-2,948;-0,035;-0,289;711,242;-0,43;-0,049;-0,044;-4,356
"acusar";-0,247;-0,028;-0,231;-0,028;9,798;-0,039;-0,035;-0,743
"ángeles";-0,247;-0,028;-0,231;-0,028;-0,344;-0,039;-0,035;1,315
"válido";-2,356;-0,028;-0,231;-0,028;-0,344;-0,039;-0,035;4,628
"vista";6,839;-0,028;-0,231;-0,028;-0,344;-0,039;-0,035;-3,482
"tristeza";-2,356;-0,028;-0,231;-0,028;-0,344;230,447;-0,035;-0,743
"trabajo";-2,356;-0,028;-0,231;-0,028;-0,344;-0,039;-0,035;4,628
"tiberíades";6,839;-0,028;-0,231;-0,028;-0,344;-0,039;-0,035;-3,482
"tampoco";-2,356;-0,028;-0,231;-0,028;-0,344;-0,039;-0,035;4,628
"significar";-2,356;-0,028;-0,231;-0,028;-0,344;-0,039;-0,035;4,628
"semana";6,839;-0,028;-0,231;-0,028;-0,344;-0,039;-0,035;-3,482
"sano";6,839;-0,028;-0,231;-0,028;-0,344;-0,039;-0,035;-3,482
"resurrección";-2,356;-0,028;37,804;-0,028;-0,344;-0,039;-0,035;-0,743
"realizar";-2,356;-0,028;-0,231;-0,028;46,875;-0,039;-0,035;-3,482
"razón";-2,356;-0,028;-0,231;-0,028;-0,344;-0,039;26,889;1,315
"principio";-2,356;-0,028;-0,231;-0,028;-0,344;-0,039;-0,035;4,628
"pobre";1,137;-0,021;4,556;-0,021;-0,258;-0,029;-0,027;-2,609
"piedra";6,839;-0,028;-0,231;-0,028;-0,344;-0,039;-0,035;-3,482
"pidáis";-2,356;-0,028;-0,231;-0,028;-0,344;-0,039;-0,035;4,628
"perfume";6,839;-0,028;-0,231;-0,028;-0,344;-0,039;-0,035;-3,482
"perder";-2,356;-0,028;-0,231;-0,028;24,884;-0,039;-0,035;-0,743
"pecador";-2,356;-0,028;-0,231;-0,028;-0,344;-0,039;-0,035;4,628
"nazaret";-2,356;-0,028;-0,231;-0,028;9,798;-0,039;-0,035;0,02
"nación";-0,247;-0,028;-0,231;-0,028;-0,344;-0,039;-0,035;1,315
"maná";-2,356;-0,028;69,858;-0,028;-0,344;-0,039;-0,035;-3,482
"manifestar";-0,247;-0,028;-0,231;-0,028;-0,344;-0,039;-0,035;1,315
"mando";-2,356;-0,028;-0,231;140,123;9,798;-0,039;-0,035;-3,482
"malo";-0,247;-0,028;-0,231;-0,028;24,884;-0,039;-0,035;-3,482
"magdalena";6,839;-0,028;-0,231;-0,028;-0,344;-0,039;-0,035;-3,482
"ladrón";-0,247;-0,028;-0,231;-0,028;9,798;-0,039;-0,035;-0,743
"josé";-0,247;-0,028;-0,231;-0,028;-0,344;-0,039;-0,035;1,315
"jordán";2,489;-0,028;-0,231;-0,028;-0,344;-0,039;-0,035;-0,743
"jamás";0,292;-0,028;-0,231;-0,028;-0,344;-0,039;-0,035;0,02
"iscariote";6,839;-0,028;-0,231;-0,028;-0,344;-0,039;-0,035;-3,482
"haz";-2,356;-0,028;15,515;-0,028;1,618;-0,039;-0,035;-0,743
"estado";6,839;-0,028;-0,231;-0,028;-0,344;-0,039;-0,035;-3,482
"embarcar";6,839;-0,028;-0,231;-0,028;-0,344;-0,039;-0,035;-3,482
"dichosos";-2,356;-0,028;-0,231;-0,028;-0,344;-0,039;-0,035;4,628
"cumplir";-2,356;-0,028;-0,231;-0,028;24,884;-0,039;-0,035;-0,743
"cuerpo";6,839;-0,028;-0,231;-0,028;-0,344;-0,039;-0,035;-3,482
"cuatro";6,839;-0,028;-0,231;-0,028;-0,344;-0,039;-0,035;-3,482
"comunicar";-2,356;-0,028;-0,231;-0,028;-0,344;-0,039;-0,035;4,628
"comparación";-2,356;-0,028;-0,231;-0,028;-0,344;-0,039;-0,035;4,628
"comida";-2,356;-0,028;69,858;-0,028;-0,344;-0,039;-0,035;-3,482
"causa";-0,247;-0,028;-0,231;-0,028;1,618;-0,039;-0,035;0,02
"cambista";6,839;-0,028;-0,231;-0,028;-0,344;-0,039;-0,035;-3,482
"cafarnaún";6,839;-0,028;-0,231;-0,028;-0,344;-0,039;-0,035;-3,482
"buey";6,839;-0,028;-0,231;-0,028;-0,344;-0,039;-0,035;-3,482
"bautizando";2,489;-0,028;-0,231;-0,028;-0,344;-0,039;-0,035;-0,743
"bastar";-2,356;-0,028;2,991;-0,028;-0,344;-0,039;-0,035;1,315
"barro";6,839;-0,028;-0,231;-0,028;-0,344;-0,039;-0,035;-3,482
"amo";-2,356;-0,028;-0,231;-0,028;-0,344;-0,039;-0,035;4,628
"amará";-2,356;-0,028;-0,231;-0,028;46,875;-0,039;-0,035;-3,482
"amanecer";6,839;-0,028;-0,231;-0,028;-0,344;-0,039;-0,035;-3,482
"acabar";2,489;-0,028;-0,231;-0,028;-0,344;-0,039;-0,035;-0,743
"abundante";-0,247;-0,028;-0,231;-0,028;-0,344;-0,039;-0,035;1,315
"abrir";0,292;-0,028;-0,231;-0,028;1,618;-0,039;-0,035;-0,743
"viento";-0,017;-0,021;-0,173;-0,021;-0,258;-0,029;-0,027;0,494
"viejo";1,137;-0,021;-0,173;-0,021;-0,258;-0,029;-0,027;-0,208
"vid";-1,765;-0,021;-0,173;-0,021;-0,258;-0,029;-0,027;3,468
"vender";5,125;-0,021;-0,173;-0,021;-0,258;-0,029;-0,027;-2,609
"tiemble";-1,765;-0,021;-0,173;-0,021;-0,258;308,994;-0,027;-2,609
"tercero";5,125;-0,021;-0,173;-0,021;-0,258;-0,029;-0,027;-2,609
"tarde";1,137;-0,021;-0,173;-0,021;-0,258;-0,029;-0,027;-0,208
"surgir";-1,765;-0,021;-0,173;-0,021;-0,258;-0,029;-0,027;3,468
"sudario";5,125;-0,021;-0,173;-0,021;-0,258;-0,029;-0,027;-2,609
"sorprender";-0,017;-0,021;-0,173;-0,021;-0,258;-0,029;-0,027;0,494
"soplar";-0,017;-0,021;-0,173;-0,021;-0,258;-0,029;-0,027;0,494
"siervo";-1,765;-0,021;-0,173;-0,021;-0,258;-0,029;-0,027;3,468
"señal";-1,765;187,997;-0,173;-0,021;-0,258;-0,029;-0,027;-0,208
"serpiente";-1,765;-0,021;-0,173;-0,021;-0,258;-0,029;-0,027;3,468
"segundo";1,137;-0,021;-0,173;-0,021;-0,258;-0,029;-0,027;-0,208
"sarmiento";-0,017;-0,021;-0,173;-0,021;-0,258;-0,029;-0,027;0,494
"samaría";5,125;-0,021;-0,173;-0,021;-0,258;-0,029;-0,027;-2,609
"samaritanos";1,137;-0,021;-0,173;-0,021;-0,258;-0,029;-0,027;-0,208
"rogar";-1,765;-0,021;-0,173;-0,021;2,68;-0,029;-0,027;0,494
"retirar";5,125;-0,021;-0,173;-0,021;-0,258;-0,029;-0,027;-2,609
"recordar";-1,765;-0,021;-0,173;-0,021;-0,258;-0,029;-0,027;3,468
"recoger";5,125;-0,021;-0,173;-0,021;-0,258;-0,029;-0,027;-2,609
"príncipe";-1,765;-0,021;-0,173;-0,021;-0,258;-0,029;-0,027;3,468
"proceder";-1,765;-0,021;-0,173;-0,021;-0,258;-0,029;-0,027;3,468
"presentar";5,125;-0,021;-0,173;-0,021;-0,258;-0,029;-0,027;-2,609
"pregunta";1,137;-0,021;-0,173;-0,021;-0,258;33,009;-0,027;-2,609
"plenitud";-1,765;-0,021;-0,173;-0,021;-0,258;135,997;-0,027;-0,208
"piscina";-0,017;-0,021;-0,173;-0,021;-0,258;-0,029;-0,027;0,494
"pierna";5,125;-0,021;-0,173;-0,021;-0,258;-0,029;-0,027;-2,609
"paráclito";-1,765;-0,021;-0,173;-0,021;-0,258;-0,029;-0,027;3,468
"parte";-0,017;-0,021;-0,173;-0,021;2,68;-0,029;-0,027;-0,208
"ocho";5,125;-0,021;-0,173;-0,021;-0,258;-0,029;-0,027;-2,609
"necesitar";-0,017;-0,021;-0,173;-0,021;-0,258;-0,029;-0,027;0,494
"monte";-0,017;-0,021;-0,173;-0,021;-0,258;-0,029;-0,027;0,494
"miedo";1,137;-0,021;-0,173;-0,021;-0,258;-0,029;-0,027;-0,208
"mal";-0,017;-0,021;4,556;-0,021;2,68;-0,029;-0,027;-2,609
"lugar";1,137;-0,021;-0,173;-0,021;-0,258;-0,029;-0,027;-0,208
"linaje";-1,765;-0,021;-0,173;-0,021;-0,258;-0,029;-0,027;3,468
"lavar";-0,017;-0,021;-0,173;-0,021;-0,258;-0,029;-0,027;0,494
"juzgo";-1,765;-0,021;-0,173;-0,021;2,68;-0,029;-0,027;0,494
"jacob";1,137;-0,021;-0,173;-0,021;-0,258;-0,029;-0,027;-0,208
"intentar";-1,765;-0,021;-0,173;46,005;-0,258;-0,029;-0,027;0,494
"igual";-0,017;-0,021;-0,173;-0,021;2,68;-0,029;-0,027;-0,208
"hambre";-1,765;-0,021;-0,173;-0,021;-0,258;-0,029;-0,027;3,468
"habitar";-1,765;-0,021;21,948;-0,021;-0,258;-0,029;-0,027;-0,208
"fariseo";1,137;-0,021;-0,173;-0,021;-0,258;-0,029;-0,027;-0,208
"esclavo";-1,765;-0,021;-0,173;-0,021;-0,258;-0,029;36,474;0,494
"envío";-1,765;-0,021;-0,173;-0,021;-0,258;-0,029;-0,027;3,468
"enterar";5,125;-0,021;-0,173;-0,021;-0,258;-0,029;-0,027;-2,609
"derecha";5,125;-0,021;-0,173;-0,021;-0,258;-0,029;-0,027;-2,609
"cuándo";-1,765;-0,021;-0,173;-0,021;-0,258;-0,029;-0,027;3,468
"conocierais";-1,765;-0,021;-0,173;-0,021;-0,258;-0,029;-0,027;3,468
"conoceríais";-1,765;-0,021;-0,173;-0,021;-0,258;-0,029;-0,027;3,468
"condena";-1,765;-0,021;4,556;-0,021;-0,258;-0,029;36,474;-0,208
"conceder";-1,765;-0,021;-0,173;-0,021;2,68;-0,029;-0,027;0,494
"comprender";-0,017;-0,021;-0,173;-0,021;-0,258;-0,029;-0,027;0,494
"cien";5,125;-0,021;-0,173;-0,021;-0,258;-0,029;-0,027;-2,609
"celebrar";5,125;-0,021;-0,173;-0,021;-0,258;-0,029;-0,027;-2,609
"buscáis";-1,765;-0,021;-0,173;-0,021;-0,258;-0,029;-0,027;3,468
"asomar";5,125;-0,021;-0,173;-0,021;-0,258;-0,029;-0,027;-2,609
"aprender";-1,765;-0,021;-0,173;-0,021;-0,258;-0,029;-0,027;3,468
"apodar";5,125;-0,021;-0,173;-0,021;-0,258;-0,029;-0,027;-2,609
"anunciar";1,137;-0,021;-0,173;-0,021;-0,258;-0,029;-0,027;-0,208
"además";-1,765;-0,021;-0,173;-0,021;2,68;-0,029;-0,027;0,494
"adelantar";5,125;-0,021;-0,173;-0,021;-0,258;-0,029;-0,027;-2,609
"acaso";-0,017;-0,021;-0,173;-0,021;-0,258;-0,029;-0,027;0,494
"el";-3,504;-3,948;1,166;-12,465;8,626;-19,295;-4,205;3,613
"que";-59,005;-7,367;7,373;5,098;0,778;1,121;-0,244;32,327
"y";6,398;0,077;0;-6,628;0,275;0;-2,574;-4,219
"de";-0,622;0,013;0,28;0,013;-1,91;-0,335;-0,137;2,002
"yo";-159,569;-2,861;16,682;-0,006;12,962;-1,682;0,075;79,64
"a";48,99;-4,332;-7,029;2,685;-2,222;-0,289;-0,994;-19,348
"en";7,733;1,724;-1,316;-3,292;0,49;1,459;-1,77;-6,016
"haber";-14,798;-0,006;-1,591;0,531;-6,988;0,593;-1,37;32,314
"no";-56,358;0,495;-1,05;-0,816;3,118;0,548;0,061;43,828
"él";12,532;-0,623;-2,459;-0,623;0;-3,595;-0,108;-4,064
"ser";-23,731;-2,758;2,416;-0,717;0;-1,575;0,107;21,223
"se";74,518;-1,411;-5,234;-0,037;-1,106;8,179;-1,766;-46,635
"al";0,819;-1,257;-2,787;-1,257;-1,023;-0,185;-0,106;0,902
"tú";-2,777;14,878;-1,785;0,07;-3,106;-1,197;-1,087;8,366
"estar";1,55;-1,164;-3,6;-1,164;-1,234;10,858;-0,063;0
"este";-7,275;-1,145;6,181;4,641;0,071;5,832;-0,055;0,528
"para";-23,705;-1,009;17,586;-1,009;1,085;2,926;-1,264;6,027
"mío";-59,856;1,904;8,177;0,044;10,084;8,228;-1,153;14,788
"por";-4,615;0,066;-0,227;-0,877;0,185;-0,007;1,182;3,961
"del";-7,245;-0,894;47,379;-0,894;-1,201;-1,233;0;0,364
"un";0,912;-0,765;-0,41;29,455;-0,1;-1,055;1,632;-1,593
"porque";-12,922;-0,791;-1,354;-0,791;2,317;-1,09;0,014;13,439
"aquel";124,426;-0,74;-3,935;-0,74;-8,976;-1,02;-0,927;-57,925
"si";-34,648;3,675;-1,645;-0,64;7,186;-0,883;2,363;20,627
"vosotros";-33,582;-0,591;-0,015;-0,591;0,136;26,01;-0,74;23,863
"tener";-16,487;4,979;3,026;4,979;1,287;-0,726;0,262;3,428
"con";5,42;-0,527;-0,964;-0,527;-0,485;-0,726;3,368;-1,861
"todo";-16,386;-0,495;-4,025;-0,495;0,14;-0,682;-0,619;26,755
"sino";-11,903;-0,487;-3,961;-0,487;7,745;0,238;-0,609;9,143
"pero";-2,02;-0,495;-0,788;0,667;0,712;9,411;0,329;0,355
"otro";15,418;-0,439;-3,575;53,999;-1,732;-0,606;-0,55;-9,348
"también";-0,449;-0,408;-3,32;-0,408;0,726;-0,563;-0,511;2,283
"cuando";9,179;-0,392;-3,194;-0,392;-0,38;-0,541;0,653;-2,511
"quien";-3,614;-0,316;0,207;-0,316;-1,903;-0,435;19,141;3,528
"como";-11,769;-0,308;3,553;10,328;-1,82;-0,424;1,136;7,165
"poder";-10,663;-0,293;-0,015;-0,293;-0,009;-0,404;-0,367;13,583
"dicho";-0,056;-0,27;-2,197;2,2;-1,415;1,211;1,468;0,889
"qué";-0,289;3,397;1,558;-0,203;-2,458;-0,279;-0,254;0,585
"ni";-6,922;-0,151;-1,229;-0,151;-0,288;16,418;-0,189;7,607
"nosotros";-13,143;-0,195;-1,589;-0,195;-2,368;-0,269;-0,245;27,623
"entonces";24,242;-0,18;-1,469;-0,18;-0,532;-0,249;-0,226;-12,196
"mucho";9,18;-0,203;-1,649;-0,203;-2,458;-0,279;-0,254;-1,33
"donde";5,809;-0,18;-1,469;-0,18;-2,189;-0,249;-0,226;-0,428
"pues";-6,306;-0,173;-1,409;-0,173;0,007;2,634;3,055;5,86
"ese";-1,957;-0,158;-1,289;-0,158;-1,921;-0,218;-0,198;8,568
"quién";0,217;-0,136;-0,001;-0,136;-1,655;-0,188;-0,171;0,297
"antes";-0,034;-0,144;-0,007;-0,144;-1,743;-0,198;-0,18;1,502
"entre";15,24;-0,122;-0,992;-0,122;-1,478;-0,168;-0,153;-5,756
"sobre";-0,694;-0,107;0,045;-0,107;-1,302;-0,148;-0,134;2,497
"hasta";0,21;-0,1;-0,814;-0,1;-0,011;5,668;-0,125;-0,074
"verdadero";-6,519;-0,078;3,513;-0,078;0,022;-0,108;-0,098;3,083
"nada";-2,633;-0,093;0,131;-0,093;-1,126;6,235;-0,116;2,743
"sin";-4,272;-0,086;-0,697;-0,086;0,003;-0,118;-0,107;6,632
"dentro";-0,848;-0,064;-0,521;-0,064;-0,777;-0,088;-0,08;3,579
"nuestro";-3,152;-0,071;4,166;-0,071;-0,864;-0,098;-0,089;2,249
"ninguno";-0,211;-0,071;-0,58;-0,071;0,062;8,627;-0,089;0,051
"mientras";0,733;-0,071;-0,58;-0,071;0,062;-0,098;-0,089;-0,169
"o";0,586;-0,057;-0,463;-0,057;-0,69;-0,078;-0,071;0,041
"desde";0,586;-0,057;-0,463;-0,057;-0,69;-0,078;-0,071;0,041
"aunque";0,104;-0,05;1,074;-0,05;0,397;-0,069;-0,062;-0,905
"algo";-0,497;-0,057;-0,463;-0,057;3,247;-0,078;-0,071;0,041
"alguno";1,228;-0,05;-0,405;-0,05;-0,603;-0,069;-0,062;-0,037
"bien";0,438;-0,043;1,481;-0,043;-0,517;-0,059;-0,053;-0,417
"encima";-2,948;-0,035;-0,289;-0,035;-0,43;-0,049;-0,044;5,79
"cada";0,02;-0,035;2,074;-0,035;-0,43;-0,049;-0,044;-0,084
"según";-1,765;-0,021;-0,173;-0,021;14,303;-0,029;-0,027;-0,208
"hacia";1,137;-0,021;-0,173;-0,021;-0,258;-0,029;-0,027;-0,208
"demás";5,125;-0,021;-0,173;-0,021;-0,258;-0,029;-0,027;-2,609
"deber";-1,765;-0,021;-0,173;-0,021;-0,258;-0,029;-0,027;3,468
"cincuenta";5,125;-0,021;-0,173;-0,021;-0,258;-0,029;-0,027;-2,609
"ante";-0,017;-0,021;-0,173;-0,021;-0,258;-0,029;-0,027;0,494
"*zein_Juan14-7-14";-4,272;-0,086;-0,697;-0,086;1,286;-0,118;-0,107;3,974
"*zein_Juan5-1-3a5-16";25,908;-0,129;-1,051;-0,129;-1,566;-0,178;-0,162;-12,296
"*egutegia_SemanaDeCua";7,247;-0,26;-10,586;-1,592;-7,971;-5,59;1,236;0,904
"*zein_Juan8-31-42";-6,577;-0,115;-0,932;-0,115;-0,06;-0,158;5,394;7,9
"*zein_Juan16-5-11";-2,606;-0,064;-0,521;-0,064;-0,777;9,783;47,579;0,302
"*egutegia_SemanaDePas";-56,919;-0,015;0,014;7,723;18,875;12,217;-0,39;15,124
"*zein_Juan6-44-51";-3,708;-0,078;34,62;-0,078;-0,951;-0,108;-0,098;-0,004
"*zein_Juan17-11b-19";-3,152;-0,071;-0,58;-0,071;2,037;-0,098;-0,089;2,249
"*zein_Juan15-18-21";-1,557;-0,05;-0,405;-0,05;0,397;-0,069;-0,062;1,767
"*zein_Juan20-24-29";0,217;138,748;-0,521;-0,064;-0,777;-0,088;-0,08;-2,141
"*zein_Juan3-16-18";-0,622;-0,035;-0,289;-0,035;-0,43;-0,049;-0,044;2,273
"*zein_Juan21-15-19";-0,002;-0,078;-0,638;-0,078;1,62;-0,108;-0,098;-0,004
"*zein_Juan1-19-28";0,104;-0,05;-0,405;-0,05;-0,603;-0,069;-0,062;0,324
"*zein_Juan16-29-33";-2,072;-0,057;-0,463;-0,057;-0,69;-0,078;-0,071;5,458
"*egutegia_SemanaSanta";5,524;-0,346;0,086;-0,346;-0,89;-0,477;-0,433;-2,083
"*zein_Juan6-16-21";8,556;-0,035;-0,289;-0,035;-0,43;-0,049;-0,044;-4,356
"*zein_Juan14-6-14";-5,416;-0,1;-0,814;-0,1;0,799;-0,138;-0,125;5,879
"*zein_Juan7-40-53";0,012;9,231;-0,756;-0,093;-1,126;-0,128;-0,116;0,289
"*zein_Juan11-1-45";11,884;-0,369;0,67;-0,369;-0,256;-0,509;-0,462;-8,792
"*zein_Juan15-26-16-4a";-1,557;-0,05;-0,405;-0,05;-0,603;-0,069;-0,062;4,365
"*egutegia_SemanaDelTi";0,506;5,587;49,751;-1,018;-2,032;-1,403;-1,275;-8,452
"*zein_Juan1-35-42";5,867;-0,093;-0,756;-0,093;-1,126;-0,128;-0,116;-1,3
"*zein_Juan6-30-35";-1,557;-0,05;36,649;-0,05;-0,603;-0,069;-0,062;-0,905
"*zein_Juan6-35-40";-2,072;-0,057;0,783;-0,057;-0,69;-0,078;-0,071;2,64
"*zein_Juan12-44-50";-5,324;-0,064;-0,521;-0,064;8,084;-0,088;-0,08;1,491
"*zein_Juan6-1-15";16,161;-0,144;0,826;-0,144;-1,743;-0,198;-0,18;-10,874
"*zein_Juan3-5a7b-15";-2,072;-0,057;-0,463;16,109;-0,69;-0,078;-0,071;2,64
"*zein_Juan21-1-19";21,14;-0,129;-1,051;-0,129;-1,566;-0,178;-0,162;-9,182
"*zein_Juan14-21-26";-0,848;-0,064;-0,521;-0,064;8,084;-0,088;-0,08;-0,015
"*zein_Juan21-1-14";21,14;-0,129;-1,051;-0,129;-1,566;-0,178;-0,162;-9,182
"*zein_Juan3-1-8";-1,685;-0,078;0,289;11,229;-0,951;-0,108;-0,098;1,319
"*zein_Juan8-51-59";-0,218;-0,093;-0,756;-0,093;-0,001;-0,128;-0,116;1,203
"*zein_Juan13-31-33a34-35";-1,557;-0,05;-0,405;18,669;-0,603;-0,069;-0,062;1,767
"*zein_Juan6-41-51";-3,134;-0,1;38,631;-0,1;-1,214;-0,138;-0,125;-0,074
"*zein_Juan1-29-34";-1,557;-0,05;1,074;-0,05;-0,603;-0,069;14,578;0,324
"*zein_Juan4-5-42";-1,087;1,624;-0,07;-0,323;-3,919;-0,445;-0,405;5,434
"*zein_Juan16-23b-28";-1,557;-0,05;-0,405;-0,05;-0,603;13,091;-0,062;1,767
"*zein_Juan4-43-54";1,179;-0,115;0,021;-0,115;-1,39;-0,158;-0,143;-0,048
"*zein_Juan6-22-29";0,039;-0,071;-0,58;-0,071;-0,864;-0,098;-0,089;0,745
"*zein_Juan20-11-18";6,088;-0,078;-0,638;-0,078;-0,951;-0,108;-0,098;-1,642
"*zein_Juan5-31-47";-7,751;-0,129;-1,051;-0,129;0,262;-0,178;-0,162;10,002
"*zein_Juan14-1-6";-2,072;-0,057;-0,463;-0,057;0,236;-0,078;-0,071;2,64
"*zein_Juan19-25-27";3,987;-0,035;-0,289;-0,035;-0,43;-0,049;-0,044;-1,413
"*zein_Juan15-1-8";-1,685;-0,078;-0,638;-0,078;0,022;-0,108;-0,098;3,083
"*zein_Juan3-31-36";-3,152;-0,071;-0,58;-0,071;-0,864;-0,098;-0,089;7,692
"*zein_Juan6-51-58";-5,416;-0,1;210,815;-0,1;-1,214;-0,138;-0,125;-12,295
"*zein_Juan3-16-21";-2,072;-0,057;-0,463;-0,057;9,723;-0,078;-0,071;0,041
"*zein_Juan10-27-30";-2,356;-0,028;2,991;-0,028;1,618;-0,039;-0,035;0,02
"*zein_Juan3-13-17";-0,622;-0,035;-0,289;-0,035;-0,43;-0,049;-0,044;2,273
"*zein_Juan16-20-23a";-0,622;-0,035;-0,289;-0,035;-0,43;80,151;-0,044;-0,084
"*egutegia_SemanaDeNav";1,47;-0,078;-0,638;-0,078;0,022;7,683;-0,098;-1,642
"*zein_Juan17-20-26";-2,072;-0,057;-0,463;-0,057;-0,69;-0,078;-0,071;5,458
"*zein_Juan5-17-30";-2,769;-0,122;0,007;-0,122;-0,096;-0,168;-0,153;4,042
"*zein_Juan8-12-20";-0,45;-0,078;-0,638;-0,078;0,022;-0,108;-0,098;1,319
"*zein_Juan10-11-18";-7,118;-0,086;-0,697;-0,086;75,18;-0,118;-0,107;-2,243
"*zein_Juan17-1-11a";-4,841;-0,093;-0,756;-0,093;-0,001;-0,128;-0,116;7,7
"*zein_Juan1-45-51";0,586;-0,057;-0,463;-0,057;0,236;-0,078;-0,071;-0,259
"*zein_Juan1-6-819-28";-0,052;-0,064;-0,521;-0,064;0,13;-0,088;-0,08;0,302
"*zein_Juan7-1-21025-30";1,47;-0,078;-0,638;-0,078;-0,951;-0,108;-0,098;-0,004
"*zein_Juan11-45-57";3,455;-0,107;-0,873;-0,107;-1,302;-0,148;-0,134;-0,254
"*zein_Juan20-19-31";2,706;66,957;-1,051;-0,129;-1,566;-0,178;4,609;-4,316
"*zein_Juan12-1-11";9,579;-0,078;0,289;-0,078;0,022;-0,108;-0,098;-9,635
"*zein_Juan21-20-25";4,996;-0,057;-0,463;-0,057;-0,69;-0,078;-0,071;-1,49
"*zein_Juan13-16-20";-0,497;-0,057;0,783;-0,057;-0,69;-0,078;-0,071;0,834
"*zein_Juan8-1-11";12,067;-0,107;-0,873;-0,107;-1,302;-0,148;-0,134;-4,275
"*zein_Juan19-31-37";2,28;-0,043;-0,347;-0,043;0,64;-0,059;-0,053;-2,151
"*zein_Juan6-52-59";-1,249;-0,071;109,16;-0,071;-0,864;-0,098;-0,089;-8,751
"*egutegia_FinDelTiemp";4,996;-0,057;-0,463;-0,057;-0,69;-0,078;12,53;-3,733
"*zein_Juan10-1-10";-4,272;-0,086;-0,697;-0,086;57,669;-0,118;-0,107;-2,243
"*egutegia_OctavaDePas";43,652;-0,285;-2,32;-0,285;-3,458;-0,393;-0,357;-18,36
"*zein_Juan1-1-18";-11,34;-0,136;-1,11;-0,136;14,926;-0,188;-0,171;3,75
"*zein_Juan1-43-51";3,385;-0,078;-0,638;-0,078;0,022;-0,108;-0,098;-1,642
"*egutegia_NavidadYOct";-0,642;-0,195;-1,589;-0,195;7,821;-0,269;-0,245;0,032
"*zein_Juan10-31-42";0,114;-0,086;-0,697;10,147;1,286;-0,118;-0,107;-0,839
"*zein_Juan2-1-11";3,402;-0,093;-0,756;-0,093;1,017;-0,128;-0,116;-2,888
"*egutegia_TiempoDeNav";4,129;-0,278;-0,601;-0,278;-1,495;-0,383;1,394;-0,769
"*zein_Juan20-19-23";4,996;-0,057;-0,463;-0,057;-0,69;-0,078;12,53;-3,733
"*zein_Juan10-22-30";-0,848;-0,064;0,569;-0,064;2,565;-0,088;-0,08;-0,015
"*zein_Juan3-14-21";-2,606;-0,064;-0,521;-0,064;8,084;-0,088;-0,08;0,302
"*zein_Juan13-1-17";0,437;-0,129;-1,051;-0,129;-1,566;-0,178;-0,162;0,61
"*zein_Juan8-21-30";-2,148;-0,086;-0,697;-0,086;-1,039;-0,118;34,806;1,993
"*zein_Juan1-47-51";1,141;-0,035;-0,289;-0,035;-0,43;-0,049;-0,044;-0,084
"*zein_Juan15-9-11";-0,247;-0,028;-0,231;-0,028;1,618;24,289;-0,035;-0,743
"*zein_Juan15-9-17";-4,272;-0,086;-0,697;44,401;4,888;6,898;-0,107;-0,112
"*zein_Juan2-13-25";12,067;-0,107;-0,873;-0,107;-1,302;-0,148;-0,134;-4,275
"*zein_Juan2-13-22";12,8;-0,093;-0,756;-0,093;-1,126;-0,128;-0,116;-5,102
"*ebanjelaria_Juan";0;0;0;0;0;0;0;0
"*zein_Juan16-12-15";-1,068;-0,043;-0,347;-0,043;-0,517;-0,059;-0,053;3,299
"*zein_Juan20-1-9";17,189;-0,071;-0,58;-0,071;-0,864;-0,098;-0,089;-8,751
"*zein_Juan13-21-3336-38";0,437;-0,129;1,147;-0,129;-0,137;-0,178;-0,162;-0,42
"*zein_Juan12-20-33";-0,049;-0,166;-0,054;-0,166;0,859;-0,228;-0,208;0,018
"*zein_Juan3-22-30";1,47;-0,078;-0,638;-0,078;0,022;7,683;-0,098;-1,642
"*zein_Juan14-15-21";-2,606;-0,064;-0,521;-0,064;16,686;-0,088;-0,08;-0,015
"*zein_Juan6-24-35";-3,134;-0,1;14,767;-0,1;-1,214;-0,138;-0,125;0,651
"*zein_Juan16-16-20";-0,848;-0,064;-0,521;-0,064;-0,777;9,783;-0,08;1,491
"*zein_Juan14-27-31a";-2,072;-0,057;-0,463;-0,057;-0,69;11,229;-0,071;2,64
"*zein_Juan12-24-26";-0,035;-0,043;1,481;-0,043;0,64;-0,059;-0,053;-0,417
"*zein_Juan15-12-17";-2,606;-0,064;-0,521;60,348;0,13;-0,088;-0,08;0,302
"*zein_Juan14-1-12";-8,342;-0,136;-1,11;-0,136;1,66;3,74;-0,171;5,761
"*zein_Juan18-33-37";-0,002;-0,078;-0,638;-0,078;0,022;-0,108;-0,098;0,293
"*zein_Juan9-1-41";0,343;-0,4;-3,257;-0,4;-2,842;-0,552;5,216;1,199
"*zein_Juan6-60-69";-0,218;-0,093;0,131;-0,093;-1,126;-0,128;-0,116;1,203
"*zein_Juan20-2-8";13,727;-0,057;-0,463;-0,057;-0,69;-0,078;-0,071;-6,988
"*zein_Juan14-23-29";-3,708;-0,078;-0,638;-0,078;1,62;7,683;-0,098;1,319
"*egutegia_SemanaDeAdv";-0,052;-0,064;-0,521;-0,064;0,13;-0,088;-0,08;0,302
