"";"";"";"";"ahul";""
"1";"ahul";"0.0384050539814541";"1.41550315995532";"2.98123060518495";"2"
"2";"indartsu";"-0.0111090774891491";"1.1567815164174";"1.87567036660805";"6"
"3";"ergel";"-0.491267138256367";"1.56628030971805";"1.69384871449614";"9"
"4";"irain";"-0.556915347882046";"1.4636126606061";"1.30688342254924";"17"
"5";"langile";"-0.399641321247516";"1.211424886551";"1.30076862786959";"18"
"6";"kristoren";"1.3094670003336";"0.716925026712743";"1.23169608074625";"20"
"7";"hurko";"0.0476171481636876";"-0.881347840939482";"1.22889585959677";"22"
"8";"moztu";"0.0476171481636876";"-0.881347840939482";"1.18106874604417";"24"
"9";"kontrako";"-0.668040013566325";"1.80220655752056";"1.16584876554849";"25"
"10";"engain";"-0.668040013566325";"1.80220655752056";"1.16584876554849";"26"
"11";"aita";"0.404348767750566";"0.429461133076725";"1.14825485098807";"29"
"12";"jesu";"0.241873370260682";"0.239451267968189";"1.13176366708998";"32"
"13";"biezazkizute";"1.62164576736671";"1.18697814486481";"1.11193110718034";"33"
"14";"agur";"-0.251426834831963";"-1.6333405640476";"1.10646722990554";"35"
"15";"goraintzi";"-0.251426834831963";"-1.6333405640476";"1.08931747075078";"36"
"16";"mende";"1.08608604313789";"0.921846854547521";"1.0741600293783";"37"
"17";"anaia";"-0.217248017951683";"-1.3024602145643";"1.05927188912823";"39"
"18";"gorroto";"-0.63408525460724";"1.69874731124114";"1.05658908837335";"40"
"19";"argudio";"-0.63408525460724";"1.69874731124114";"1.05658908837335";"41"
"20";"lege";"0.0998248392393033";"0.524875193376702";"1.04239015478723";"42"
"21";"jagokin";"0.0476171481636875";"-0.881347840939482";"1.03780565416329";"43"
"22";"gizaseme";"0.0476171481636875";"-0.881347840939482";"1.03780565416329";"44"
"23";"lagun";"-0.0577057263523285";"-0.710611627717271";"1.03738702493037";"45"
"24";"menda";"1.18504335796979";"0.926948262911069";"1.03206226529699";"46"
"25";"kristu";"0.160841888241546";"0.347057100921188";"1.02173820473267";"47"
"26";"egokiera";"-0.308015504238663";"0.856569463383946";"1.02073119721811";"48"
"27";"maitatu";"0.0136625588277549";"-0.37076631412603";"1.00943841839834";"51"
"28";"txar";"-0.234507830310426";"0.631348205872631";"1.00338999176781";"52"
"29";"ile";"0.0476171481636876";"-0.881347840939481";"0.990124039795303";"55"
"30";"zorakeri";"0.0476363911569707";"0.881264688869682";"0.988438036085886";"56"
"31";"emakume";"-0.0459472795920948";"-0.367890470166538";"0.984059021152495";"57"
"32";"haserre";"-0.351128929948195";"0.836586925579307";"0.983762917548722";"58"
"33";"hil";"0.111122779183129";"0.478394720191041";"0.979459204824911";"59"
"34";"lehia";"-0.21547299147464";"0.812517556862364";"0.975588160729028";"60"
"35";"piztu";"0.118532526125127";"0.62973328496807";"0.972484178123954";"61"
"36";"liburu";"0.129298963993276";"0.560024125959666";"0.972484178123954";"62"
"37";"bekatu";"0.112400342113036";"0.526116071033633";"0.954562252243838";"63"
"38";"santu";"0.113959513811996";"0.513862778306014";"0.953921545308086";"64"
"39";"zuri";"-0.251426834831963";"-1.6333405640476";"0.952587802782469";"65"
"40";"auzi";"-0.361684176999112";"0.688236993821187";"0.946793361570695";"66"
"41";"jaun";"0.0780238582485288";"0.218907200457126";"0.945509395081919";"67"
"42";"hutsal";"-0.415804661298834";"1.03365215658773";"0.943425183077772";"68"
"43";"gaiztakeria";"-0.415804661298834";"1.03365215658773";"0.943425183077772";"69"
"44";"zapuztu";"0.0476171481636876";"-0.881347840939481";"0.942478162069152";"70"
"45";"paulok";"-0.230316340730129";"-1.33664070053136";"0.937186586460338";"71"
"46";"lekuko";"-0.344491946188798";"0.983984378361265";"0.924571551892679";"72"
"47";"semealaba";"-0.251426834831963";"-1.6333405640476";"0.918534612039884";"73"
"48";"igukan";"-0.464311459811813";"1.18145107984404";"0.912213055361047";"74"
"49";"bide";"0.0388573712057096";"0.459045018340568";"0.909082270274598";"76"
"50";"txertatu";"0.00452189356752586";"-0.624296226442151";"0.904929161969948";"78"
"51";"emazn";"0.00452189356752586";"-0.624296226442151";"0.904929161969948";"79"
"52";"lankide";"-0.226094241909762";"-1.27730072782811";"0.904417362206529";"80"
"53";"zaituztete";"-0.251426834831963";"-1.6333405640476";"0.901527799452464";"82"
"54";"iruditu";"-0.251426834831963";"-1.6333405640476";"0.901527799452464";"83"
"55";"guztiokin";"0.748440948572876";"0.666918380957326";"0.901313379601455";"84"
"56";"timoteo";"-0.212453614951654";"-1.08558696986377";"0.898739065080718";"85"
"57";"herri";"0.0902393558639973";"0.536653702236232";"0.89645830154648";"86"
"58";"bedeinka";"-0.228725384012195";"1.26820337552092";"0.888748121070637";"87"
"59";"aitzakan";"-0.309971646361425";"0.711181778573949";"0.888587306182381";"88"
"60";"grina";"-0.162038819052951";"0.362663907583059";"0.885279114195395";"89"
"61";"hona";"-0.251426834831963";"-1.6333405640476";"0.884533749951413";"91"
"62";"tito";"-0.251426834831963";"-1.6333405640476";"0.884533749951413";"92"
"63";"hara";"-0.251426834831963";"-1.6333405640476";"0.884533749951413";"93"
"64";"lagundu";"-0.237240014586799";"-1.79826636165039";"0.883342953993135";"94"
"65";"esklabo";"0.131408648764585";"0.595522321298854";"0.883137468302585";"95"
"66";"bidali";"-0.181543819874168";"-0.651161705511083";"0.881821594097885";"96"
"67";"kristorekin";"0.141389396257528";"0.613002725360504";"0.880383194264037";"98"
"68";"saldu";"-0.0742506290068215";"0.595713238990977";"0.877893116113339";"99"
"69";"bildu";"-0.30062878657175";"-2.65321559609154";"0.877706775052343";"100"
"70";"ukan";"-0.0400592892017193";"0.0461652596307636";"0.875542155604068";"101"
"71";"maite";"-0.0685676725531218";"-0.457961297357035";"0.875202657506638";"102"
"72";"jokaera";"-0.351128929948195";"0.836586925579307";"0.873108235033396";"103"
"73";"bazter";"-0.275821938583685";"0.746794401535453";"0.873108235033396";"104"
"74";"iekan";"-0.246931626232762";"0.619999181272577";"0.872542830307225";"105"
"75";"harropuztu";"-0.246931626232762";"0.619999181272577";"0.872542830307225";"106"
"76";"honela";"0.154697059581452";"0.636309930776038";"0.869394176899858";"107"
"77";"hildako";"0.112738548537181";"0.49506849067708";"0.869082757592441";"108"
"78";"nu";"-0.230316340730129";"-1.33664070053136";"0.868315696101631";"109"
"79";"timoteok";"-0.251426834831963";"-1.6333405640476";"0.867552463536733";"110"
"80";"probintzia";"-0.251426834831963";"-1.6333405640476";"0.867552463536733";"111"
"81";"mazedoniatik";"-0.251426834831963";"-1.6333405640476";"0.867552463536733";"112"
"82";"gobernatu";"-0.251426834831963";"-1.6333405640476";"0.867552463536733";"113"
"83";"diruzale";"-0.251426834831963";"-1.6333405640476";"0.867552463536733";"114"
"84";"arreba";"-0.251426834831963";"-1.6333405640476";"0.867552463536733";"115"
"85";"on";"-0.104151422081686";"0.108090814929081";"0.867258912550233";"116"
"86";"leial";"-0.17536218876051";"-0.850803295779819";"0.861898416275024";"118"
"87";"banandu";"0.0833104519696092";"-0.375461917034309";"0.861496379054383";"119"
"88";"mendeku";"-0.00984319129786142";"-0.538612354943041";"0.861496379054383";"120"
"89";"mait";"-0.00984319129786142";"-0.538612354943041";"0.861496379054383";"121"
"90";"luze";"-0.00984319129786142";"-0.538612354943041";"0.861496379054383";"122"
"91";"emakumeagandik";"-0.00984319129786142";"-0.538612354943041";"0.861496379054383";"123"
"92";"ardo";"-0.00984319129786142";"-0.538612354943041";"0.861496379054383";"124"
"93";"izukan";"-0.170053646626045";"-0.670633031168623";"0.860758672662223";"125"
"94";"gorputz";"0.0399626121346802";"0.379160492755191";"0.859362391013395";"126"
"95";"haur";"-0.0508862909132535";"-0.293801293517012";"0.856707669048529";"127"
"96";"idatzi";"-0.111947122323946";"-0.317681505719449";"0.855967410039096";"128"
"97";"buru";"-0.133148522589201";"-0.379329976782401";"0.854263538008761";"129"
"98";"lizunkeria";"-0.343068227429077";"0.761958657116663";"0.853737698850336";"130"
"99";"nazio";"-0.178190195931959";"0.179027073374081";"0.853737698850336";"131"
"100";"faltsu";"-0.0766592223286055";"0.746439697079992";"0.853737698850336";"132"
"101";"duenean";"-0.146524454779208";"0.624076868648442";"0.853737698850336";"133"
"102";"sufrimendu";"-0.294537665016386";"0.66415484844694";"0.853567949801621";"134"
"103";"atal";"0.131959363039089";"0.518244690455937";"0.852938729643603";"135"
"104";"bakar";"0.14376958432466";"0.501699674224868";"0.85216018137506";"136"
"105";"mesede";"-0.226094241909762";"-1.27730072782811";"0.851987879709071";"137"
"106";"priska";"-0.251426834831963";"-1.6333405640476";"0.850585216517058";"142"
"107";"korinton";"-0.251426834831963";"-1.6333405640476";"0.850585216517058";"143"
"108";"asia";"-0.251426834831963";"-1.6333405640476";"0.850585216517058";"144"
"109";"begira";"-0.244622695616626";"0.661060968705729";"0.847058775753153";"145"
"110";"aurkeztu";"-0.0599797218155473";"0.210530098616657";"0.845667599338872";"146"
"111";"direnekin";"-0.00800414649371262";"0.255912079485512";"0.845667599338872";"147"
"112";"behar";"-0.130190015571218";"-0.0140552749387571";"0.845380429895557";"148"
"113";"adar";"-0.0702391021813868";"-0.812294407219182";"0.844826511947119";"150"
"114";"gezurrezko";"-0.223397116750242";"0.0747031193639933";"0.842456406808294";"151"
"115";"arrazoi";"-0.285915498979502";"0.204655765948031";"0.841852712823015";"152"
"116";"libre";"0.120853401713668";"0.447172389540734";"0.841256676689557";"153"
"117";"elkartu";"0.0501454139882206";"0.0232702105970181";"0.840173090656783";"154"
"118";"dezala";"-0.172234417103013";"-1.59759728603524";"0.837976563492584";"156"
"119";"hizkuntza";"-0.31424910833973";"-4.15570583435757";"0.837686841431995";"158"
"120";"goiagerpen";"-0.31424910833973";"-4.15570583435757";"0.837686841431995";"159"
"121";"gidatu";"-0.244383875889127";"-4.03334300592603";"0.837686841431995";"160"
"122";"gurutziltzatu";"-0.00635360634641984";"0.534436365929141";"0.837614091839689";"161"
"123";"onartu";"-0.0100153111332024";"0.0990132843642438";"0.837416264000961";"162"
"124";"kendu";"0.117776705543869";"0.429978067610252";"0.836951687657109";"163"
"125";"egin";"-0.0721628441917597";"0.146821893571657";"0.836642820966966";"164"
"126";"eman";"-0.01810636433739";"-0.039782912376188";"0.836437335276417";"165"
"127";"pentsaera";"-0.351128929948195";"0.836586925579307";"0.836391388165486";"166"
"128";"ikusezin";"0.231007615914362";"1.18329343485096";"0.836391388165486";"167"
"129";"hutsegite";"-0.351128929948195";"0.836586925579307";"0.836391388165486";"168"
"130";"bekaizkeria";"-0.351128929948195";"0.836586925579307";"0.836391388165486";"169"
"131";"bedi";"0.120623244460338";"0.449490319332199";"0.836225468042682";"170"
"132";"laguntzaile";"-0.219761093679212";"-1.18829076877324";"0.835999561413941";"171"
"133";"jesusengatik";"-0.219761093679212";"-1.18829076877324";"0.835999561413941";"172"
"134";"begi";"0.0903606759802365";"0.419739722624302";"0.835588590032842";"173"
"135";"batasun";"8.07230933817331e-05";"-0.166533703400649";"0.834838120554313";"174"
"136";"betetu";"0.154697059581452";"0.636309930776038";"0.834469267358233";"175"
"137";"gizaldi";"0.457372675641597";"0.493565126321497";"0.83276029009335";"176"
"138";"iraunkor";"0.457372675641597";"0.493565126321497";"0.83276029009335";"177"
"139";"elkartasun";"0.457372675641597";"0.493565126321497";"0.83276029009335";"178"
"140";"bedeinkatu";"0.457372675641597";"0.493565126321497";"0.83276029009335";"179"
"141";"ezkondu";"-0.0576806631828638";"-0.179713501527717";"0.832353147638162";"180"
"142";"zentza+araz";"-0.103115338272043";"0.339224883596041";"0.831863045121571";"181"
"143";"agindu";"0.0133289507008749";"0.0385622345053173";"0.831860492504297";"182"
"144";"ondorengo";"0.253654374413356";"0.641411339139586";"0.831823479553826";"183"
"145";"semealabak";"0.0769153918426618";"0.402684653525898";"0.831602678159633";"184"
"146";"nagusi";"0.0948125746237928";"0.531427506406138";"0.831538862727785";"185"
"147";"seme";"-0.125501302297272";"-0.3219409621159";"0.831140654433055";"186"
"148";"fededun";"-0.136659616240482";"-0.306853546000045";"0.830558657694604";"187"
"149";"ordaindu";"0.154697059581452";"0.636309930776038";"0.830119607523491";"188"
"150";"gizon";"-0.0300388662868749";"0.163152061185086";"0.829776280500151";"189"
"151";"zareten";"-0.40824202544306";"-4.4612027154798";"0.829615465611894";"190"
"152";"profezi";"-0.332244246676458";"-3.39308320682133";"0.829615465611894";"192"
"153";"batzar";"-0.40824202544306";"-4.4612027154798";"0.829615465611894";"193"
"154";"guraso";"-0.155293199198674";"0.165240592092263";"0.829569518500964";"194"
"155";"erlijio";"-0.177121479940303";"0.34963314457387";"0.829569518500964";"195"
"156";"berri";"-0.11244081266481";"0.113063189561346";"0.828927535256576";"196"
"157";"irakurri";"-0.118230120075858";"-0.620878145067333";"0.828779483454689";"197"
"158";"zentzudun";"-0.0673035307594104";"-0.195876868946601";"0.828189828864416";"198"
"159";"lotsagarri";"-0.0673035307594104";"-0.195876868946601";"0.828189828864416";"199"
"160";"kristau";"-0.0951744314380964";"-0.405871442112763";"0.82801625088979";"200"
"161";"kartzela";"-0.200761648987561";"-0.921260891608626";"0.827284926040815";"201"
"162";"bidaia";"-0.200761648987561";"-0.921260891608626";"0.827284926040815";"202"
"163";"bitarte";"-0.0732299455790094";"-0.189708093822407";"0.827163676720305";"203"
"164";"irakatsi";"-0.192524094124853";"-1.18333396119494";"0.826745047487383";"204"
"165";"zatiketa";"-0.224672432565783";"0.786517676878489";"0.826621245549599";"205"
"166";"sesio";"-0.294537665016386";"0.66415484844694";"0.826621245549599";"206"
"167";"nabari";"-0.294537665016386";"0.66415484844694";"0.826621245549599";"207"
"168";"jarraitzaile";"-0.283108151572975";"-0.0379465613247511";"0.826621245549599";"208"
"169";"hizkera";"-0.326203406169137";"0.219105053172579";"0.826621245549599";"209"
"170";"berritu";"-0.294537665016386";"0.66415484844694";"0.826621245549599";"210"
"171";"bekaizkeri";"-0.294537665016386";"0.66415484844694";"0.826621245549599";"211"
"172";"arduradun";"-0.357869147321888";"-0.225944742101782";"0.826621245549599";"212"
"173";"jainko";"0.0511179071170662";"0.134339755687973";"0.826404273081317";"213"
"174";"ibili";"-0.0869515596025089";"0.301507010164404";"0.826262602822615";"214"
"175";"handi";"-0.117777346975899";"0.159094899892995";"0.826224313563506";"215"
"176";"gizaki";"1.65912273910738";"-0.361008460193144";"0.826008617403861";"217"
"177";"zuzentzat";"0.154697059581452";"0.636309930776038";"0.825771223997387";"218"
"178";"eskuratu";"0.154697059581452";"0.636309930776038";"0.825771223997387";"219"
"179";"isuri";"0.154697059581452";"0.636309930776038";"0.825771223997387";"220"
"180";"bataio";"0.154697059581452";"0.636309930776038";"0.825771223997387";"221"
"181";"abraham";"0.154697059581452";"0.636309930776038";"0.825771223997387";"222"
"182";"predikatu";"-0.170576778725385";"0.324286328633366";"0.825545317368646";"223"
"183";"erdainkuntza";"0.0390189186264235";"0.691374813928015";"0.825545317368646";"224"
"184";"erruki";"0.135637361233808";"0.203250844782604";"0.825375568319931";"225"
"185";"heriotza";"0.0182161403756234";"0.397275568258592";"0.825301542418988";"226"
"186";"giza";"-0.0904357069758826";"0.247716324972955";"0.824877807951519";"227"
"187";"ukzuen";"-0.181058521159183";"-0.644341018993469";"0.824522994150445";"228"
"188";"seinale";"-0.179044213134503";"-2.85506710949594";"0.824237101015768";"229"
"189";"lagungarri";"-0.290044508304935";"-3.27116050935726";"0.824237101015768";"230"
"190";"eroapen";"-0.121999785884136";"0.0986769153527247";"0.824200088065296";"231"
"191";"israel";"0.119764443356151";"0.575128516560263";"0.824141377867996";"232"
"192";"lan";"-0.130795439964341";"0.0620872274737709";"0.824041825794314";"233"
"193";"ohore";"0.35003803047381";"0.0842015321607713";"0.823900155535612";"234"
"194";"agertu";"-0.0938118806526315";"0.177671015220995";"0.823720196017801";"235"
"195";"barkatu";"0.0861385771598698";"0.360399749921054";"0.823600223005927";"236"
"196";"orain";"-0.108266828068863";"0.177547187596714";"0.823498118314971";"237"
"197";"gabe";"-0.102538156529331";"-0.0403494343135593";"0.8229327135888";"238"
"198";"maitasun";"-0.054251841964373";"0.171417045409471";"0.822702978034148";"239"
"199";"eitezi";"-0.140817063375702";"-1.20613319492334";"0.822602149651829";"240"
"200";"erabat";"-0.0530262092370418";"0.00647750061546854";"0.822602149651829";"241"
"201";"jakin";"-0.103619673084255";"0.0963425037694864";"0.822568965627268";"242"
"202";"beti";"-0.116544431109124";"0.16125424392414";"0.821632155087743";"243"
"203";"jakintsu";"-0.0816638048764769";"0.3304601350048";"0.821519839927691";"244"
"204";"pozik";"-0.109609897856718";"0.281515003632181";"0.821519839927691";"245"
"205";"ahulezia";"-0.109609897856718";"0.281515003632181";"0.821519839927691";"246"
"206";"itzazu";"-0.301277882390079";"-0.398376819234148";"0.821507076841322";"247"
"207";"beharrezko";"-0.188095352526461";"-0.743240973498882";"0.821507076841322";"248"
"208";"gazte";"-0.159365182795687";"-0.914608716497102";"0.821507076841322";"249"
"209";"begiratu";"0.154697059581452";"0.636309930776038";"0.821427945705831";"250"
"210";"ospetsu";"0.154697059581452";"0.636309930776038";"0.821427945705831";"251"
"211";"odol";"0.154697059581452";"0.636309930776038";"0.821427945705831";"252"
"212";"erdaindu";"0.154697059581452";"0.636309930776038";"0.821427945705831";"253"
"213";"baitzaituzte";"0.154697059581452";"0.636309930776038";"0.821427945705831";"254"
"214";"atzerritar";"0.154697059581452";"0.636309930776038";"0.821427945705831";"255"
"215";"agintzari";"0.154697059581452";"0.636309930776038";"0.821427945705831";"256"
"216";"abrahamek";"0.154697059581452";"0.636309930776038";"0.821427945705831";"257"
"217";"zaindu";"-0.175429056065361";"-0.565221055389138";"0.821135671027968";"258"
"218";"hemen";"-0.175429056065361";"-0.565221055389138";"0.821135671027968";"259"
"219";"gauza";"-0.0835731200451061";"0.186949599399352";"0.821116526398414";"260"
"220";"zuzen";"-0.000443825727767811";"0.457696004840124";"0.820875304066029";"261"
"221";"maltzur";"-0.260582906057301";"0.56069560216752";"0.820765541523251";"262"
"222";"zenidaten";"-0.209205846628295";"-1.03994083701512";"0.820676199918664";"263"
"223";"tikiko";"-0.209205846628295";"-1.03994083701512";"0.820676199918664";"264"
"224";"mazedoniara";"-0.209205846628295";"-1.03994083701512";"0.820676199918664";"265"
"225";"herritar";"-0.209205846628295";"-1.03994083701512";"0.820676199918664";"266"
"226";"gogoratu";"-0.209205846628295";"-1.03994083701512";"0.820676199918664";"267"
"227";"duzula";"-0.209205846628295";"-1.03994083701512";"0.820676199918664";"268"
"228";"barren";"-0.209205846628295";"-1.03994083701512";"0.820676199918664";"269"
"229";"argibide";"-0.209205846628295";"-1.03994083701512";"0.820676199918664";"270"
"230";"dohain";"-0.12787327368543";"-0.787016139330855";"0.820440082820828";"271"
"231";"poz";"-0.116030716164634";"0.162153970603783";"0.82010824257522";"272"
"232";"abrahamen";"0.364261160693632";"0.714976818503005";"0.819924454131498";"273"
"233";"goretsi";"0.114774069609679";"0.566388314529438";"0.819924454131498";"274"
"234";"errebelde";"-0.229323714942671";"0.495719278875501";"0.819914243662403";"275"
"235";"zentzu";"-0.133468104044259";"0.337745917689281";"0.819914243662403";"276"
"236";"grin";"-0.105522011064018";"0.3866910490619";"0.819914243662403";"277"
"237";"ondorio";"0.0784804423626128";"0.502823208850711";"0.819748323539598";"278"
"238";"moisesen";"0.0784804423626128";"0.502823208850711";"0.819748323539598";"279"
"239";"erabaki";"-0.173497105135149";"0.322494053762037";"0.819722797366859";"280"
"240";"balu";"0.0644473052673601";"0.131943154148562";"0.819573469256336";"281"
"241";"ezagutu";"-0.120519482298976";"0.111004509622861";"0.819514759059036";"282"
"242";"hitz";"-0.101919846818295";"0.119113133756956";"0.819406272824895";"283"
"243";"otoitz";"-0.119203192208551";"0.11369066679212";"0.819347562627595";"284"
"244";"eliza";"-0.0614659340586791";"0.0229929260783358";"0.819128037542038";"285"
"245";"eragin";"-0.124763870220959";"0.14685861704984";"0.81867494797592";"286"
"246";"argi";"-0.147056251176109";"-0.359325436056915";"0.818016372719251";"287"
"247";"mezu";"-0.108324991997288";"0.17564987079844";"0.818016372719251";"288"
"248";"sendo";"-0.124763870220959";"0.14685861704984";"0.817910439102384";"289"
"249";"nahi";"-0.10800324678056";"-0.0875778987908606";"0.8174930861781";"290"
"250";"haia";"-0.139125007939616";"-0.546162272888179";"0.817406297190787";"291"
"251";"sentitu";"-0.179047997911389";"-0.616083889134779";"0.817406297190787";"292"
"252";"lotsatu";"-0.179047997911389";"-0.616083889134779";"0.817406297190787";"293"
"253";"gorabehera";"-0.139125007939616";"-0.546162272888179";"0.817406297190787";"294"
"254";"legami";"0.154697059581452";"0.636309930776038";"0.817087220031548";"295"
"255";"zuzenetsi";"0.154697059581452";"0.636309930776038";"0.817087220031548";"296"
"256";"zerikusi";"0.154697059581452";"0.636309930776038";"0.817087220031548";"297"
"257";"kristogan";"0.154697059581452";"0.636309930776038";"0.817087220031548";"298"
"258";"jesusekin";"0.154697059581452";"0.636309930776038";"0.817087220031548";"299"
"259";"hilda";"0.154697059581452";"0.636309930776038";"0.817087220031548";"300"
"260";"gintu";"0.154697059581452";"0.636309930776038";"0.817087220031548";"301"
"261";"belarri";"0.154697059581452";"0.636309930776038";"0.817087220031548";"302"
"262";"baliogabe";"0.154697059581452";"0.636309930776038";"0.817087220031548";"303"
"263";"adore";"-0.11935173723373";"0.19495018368639";"0.817071904327905";"304"
"264";"bizi";"-0.029716434234377";"0.198160419120124";"0.816917470982833";"305"
"265";"saiatu";"-0.141882170907664";"0.126879678847181";"0.816907260513738";"306"
"266";"horrexega";"-0.0516391135496361";"0.818023647132039";"0.816865142328718";"307"
"267";"jokatu";"-0.14017531499116";"0.135584320536426";"0.816525644231288";"308"
"268";"ezin";"-0.114413465413463";"0.164986443484143";"0.816315053306191";"309"
"269";"baliatu";"-0.132017398407042";"0.305931367582707";"0.81616444888703";"310"
"270";"senide";"-0.118627220873738";"-0.225793119213908";"0.815948752727385";"311"
"271";"askatu";"0.0599050318257119";"0.313805688890036";"0.815882384678263";"312"
"272";"kristo";"-0.0858786150504025";"-0.0246665588006935";"0.81577900367867";"313"
"273";"distira";"0.136850407678492";"0.383366968823451";"0.815753477505931";"314"
"274";"ipini";"0.108120237947717";"0.554734711821671";"0.815753477505931";"315"
"275";"bere";"0.108120237947717";"0.554734711821671";"0.815753477505931";"316"
"276";"antzeko";"0.108120237947717";"0.554734711821671";"0.815753477505931";"317"
"277";"axola";"0.108120237947717";"0.554734711821671";"0.815753477505931";"318"
"278";"horrela";"-0.0222730531484988";"0.273833303829597";"0.815646267580426";"319"
"279";"gaituela";"0.0848318271308495";"0.513947102344488";"0.815630951876783";"320"
"280";"bataiatu";"0.0689989565544741";"0.291422204707308";"0.815630951876783";"321"
"281";"gurega";"0.0848318271308495";"0.513947102344488";"0.815630951876783";"322"
"282";"izen";"-0.102294760095903";"-0.162774107763409";"0.815581175839942";"323"
"283";"asmo";"-0.114015372920867";"0.16568366757777";"0.815559478593113";"324"
"284";"sinetsi";"-0.0184647490597255";"0.370814439694616";"0.815342506124831";"325"
"285";"bertan";"-0.17792831718459";"-1.71100877093943";"0.815286348544805";"326"
"286";"jarri";"-0.0841150077042449";"0.218051535410014";"0.815262098680703";"327"
"287";"jarraitu";"-0.156843541634331";"-0.303680749464491";"0.815256993446155";"328"
"288";"zerbitz";"-0.15642961137371";"-0.298191178224521";"0.815094902249262";"329"
"289";"agintzariaren";"0.381341858976035";"0.475145004504914";"0.815054060372879";"330"
"290";"garbi";"-0.11327180232865";"0.0783115198505516";"0.815043849903784";"331"
"291";"merezi";"-0.10295396300513";"-0.236802592657769";"0.814958337225108";"332"
"292";"bezala";"-0.0430002866012708";"0.0911545785550448";"0.814511629202174";"333"
"293";"joan";"-0.14649904611423";"-0.0157843006201387";"0.81446695839988";"334"
"294";"titori";"-0.188095352526461";"-0.743240973498882";"0.814246157005687";"335"
"295";"profetek";"-0.188095352526461";"-0.743240973498882";"0.814246157005687";"336"
"296";"itxaron";"-0.118230120075858";"-0.620878145067332";"0.814246157005687";"337"
"297";"iritsi";"-0.113119664812526";"0.167252421788431";"0.81405215809287";"338"
"298";"israeldar";"0.0472120865805248";"0.448059425496731";"0.813994724204207";"339"
"299";"su";"-0.0673035307594104";"-0.195876868946601";"0.813957711253735";"340"
"300";"iezaiekan";"-0.0673035307594104";"-0.195876868946601";"0.813957711253735";"341"
"301";"ohoragarri";"-0.0673035307594104";"-0.195876868946601";"0.813957711253735";"342"
"302";"neskatxa";"0.0258501125080602";"-0.0327264310378681";"0.813957711253735";"343"
"303";"jatorriz";"0.0258501125080602";"-0.0327264310378681";"0.813957711253735";"344"
"304";"izar";"0.0258501125080602";"-0.0327264310378681";"0.813957711253735";"345"
"305";"israeli";"0.119003755775531";"0.130424006870865";"0.813957711253735";"346"
"306";"haserretu";"0.0258501125080602";"-0.0327264310378681";"0.813957711253735";"347"
"307";"egiteraino";"0.0258501125080602";"-0.0327264310378681";"0.813957711253735";"348"
"308";"deus";"0.0258501125080602";"-0.0327264310378681";"0.813957711253735";"349"
"309";"berezko";"-0.0673035307594104";"-0.195876868946601";"0.813957711253735";"350"
"310";"apaltasun";"-0.0163708756956076";"-0.626126158070349";"0.813957711253735";"351"
"311";"adulteriorik";"-0.109524518963078";"-0.789276595979082";"0.813957711253735";"352"
"312";"adibidez";"-0.0673035307594104";"-0.195876868946601";"0.813957711253735";"353"
"313";"huts";"-0.0945518778098878";"0.199772272587807";"0.813847948710957";"354"
"314";"bakoitz";"-0.08036267412021";"-0.0164390669286569";"0.813562055576279";"355"
"315";"eutsi";"-0.123105419618865";"0.117949596031571";"0.813489305983973";"356"
"316";"irakaspen";"-0.124763870220959";"0.14685861704984";"0.813341254182086";"357"
"317";"eskaini";"-0.124763870220959";"0.14685861704984";"0.813341254182086";"358"
"318";"gai";"-0.130270955638829";"0.0694586526542987";"0.813300412305704";"359"
"319";"jan";"-0.123947151452822";"0.0508915217851931";"0.813291478145245";"360"
"320";"itun";"0.0415600883250296";"0.296491345684925";"0.813133215874263";"361"
"321";"alde";"-0.0981903848171163";"0.215388217991273";"0.812880506764146";"362"
"322";"obeditu";"0.154697059581452";"0.636309930776038";"0.812750323283176";"363"
"323";"sinesgogor";"0.154697059581452";"0.636309930776038";"0.812750323283176";"364"
"324";"osatu";"0.154697059581452";"0.636309930776038";"0.812750323283176";"365"
"325";"ore";"0.154697059581452";"0.636309930776038";"0.812750323283176";"366"
"326";"israelen";"0.154697059581452";"0.636309930776038";"0.812750323283176";"367"
"327";"dizue";"-0.148640358796628";"-0.435213038834381";"0.81256015329627";"368"
"328";"errege";"0.124723220862993";"0.295447121023407";"0.812532074506257";"369"
"329";"gurutu";"0.306243461491716";"0.390741033528199";"0.812532074506257";"370"
"330";"bit";"0.251023341317405";"0.104011164179383";"0.812532074506257";"371"
"331";"beldur";"-0.0978263293806578";"0.26160956577169";"0.812488680012601";"372"
"332";"indar";"-0.105498730447261";"0.233454179808122";"0.812427417198027";"373"
"333";"apostolu";"-0.101159171652588";"-0.158102068800296";"0.812108340038788";"374"
"334";"paulo";"-0.166984858424627";"-0.446541109982642";"0.812002406421921";"375"
"335";"zaitez";"-0.209650767618673";"0.40550673274839";"0.812001130113284";"376"
"336";"madarikatu";"-0.13978553516807";"0.527869561179939";"0.812001130113284";"377"
"337";"aldendu";"-0.209650767618673";"0.40550673274839";"0.812001130113284";"378"
"338";"duzu";"-0.110355240387832";"0.120148731928338";"0.811868394015041";"379"
"339";"lur";"-0.124763870220959";"0.14685861704984";"0.81182244690411";"380"
"340";"prest";"-0.0960337004901849";"-0.0245091259483806";"0.811683329262682";"381"
"341";"lotu";"0.0669851752278887";"0.261004140391902";"0.811683329262682";"382"
"342";"irabazi";"-0.0829720123828866";"0.283650763713122";"0.811605474435828";"383"
"343";"zor";"-0.134039132463279";"-0.00421578322565239";"0.811486777732591";"384"
"344";"mundu";"-0.0781998660179717";"0.185299793346876";"0.811410199214374";"385"
"345";"jasan";"-0.156994195972668";"0.158418046829478";"0.81137829149845";"386"
"346";"itxaropen";"-0.103678070465163";"0.107770980286667";"0.811162595338805";"387"
"347";"uste";"-0.123862663304394";"0.0409638912405745";"0.811162595338805";"388"
"348";"duenak";"-0.0593643992464159";"0.101786052287313";"0.810894570525044";"389"
"349";"etorri";"-0.0987643538620946";"0.121559939923387";"0.81065334819266";"390"
"350";"gaitz";"0.0992520911992048";"-0.0741771468591344";"0.810645690340838";"391"
"351";"oinordeko";"0.236534674451256";"0.137730833831224";"0.810645690340838";"392"
"352";"salbatzaile";"0.11508496177558";"0.148347750778046";"0.810645690340838";"393"
"353";"juzun";"-0.175429056065361";"-0.565221055389138";"0.810426165255282";"394"
"354";"errespetu";"-0.175429056065361";"-0.565221055389138";"0.810426165255282";"395"
"355";"begirune";"-0.140952852388431";"-0.770862346987002";"0.810426165255282";"396"
"356";"gaizki";"-0.124763870220959";"0.14685861704984";"0.810306192243408";"397"
"357";"zintzo";"-0.16276275960426";"-0.387201137279393";"0.810138995811967";"398"
"358";"orduan";"0.0155881346139943";"0.44957575859506";"0.810119851182413";"399"
"359";"gutun";"-0.104030687035758";"-0.206419056900859";"0.809951378442335";"400"
"360";"iraun";"-0.10511856812587";"0.123434480342747";"0.809933510121418";"401"
"361";"ahal";"-0.118120480430029";"0.0907391445554377";"0.809933510121418";"402"
"362";"gogo";"-0.0907058586330619";"0.14417383372761";"0.809828852813187";"403"
"363";"oztopo";"-0.0816686156247977";"-0.110192997447491";"0.809814813418181";"404"
"364";"ostu";"-0.113334356777548";"-0.555242792721852";"0.809814813418181";"405"
"365";"ezkon";"-0.0118033831741947";"0.0121698309840589";"0.809814813418181";"406"
"366";"bezalaxe";"-0.0816686156247977";"-0.110192997447491";"0.809814813418181";"407"
"367";"aintzaren";"-0.0816686156247977";"-0.110192997447491";"0.809814813418181";"408"
"368";"agurgarri";"-0.113334356777548";"-0.555242792721852";"0.809814813418181";"409"
"369";"bezalako";"-0.124763870220959";"0.14685861704984";"0.809549341221694";"410"
"370";"zoro";"-0.124763870220959";"0.14685861704984";"0.809549341221694";"411"
"371";"oker";"-0.124763870220959";"0.14685861704984";"0.809549341221694";"412"
"372";"zeuen";"-0.106727004229734";"0.0106434399656204";"0.809491907333031";"413"
"373";"hartu";"-0.0690151011402422";"0.184096143242447";"0.809437026061642";"414"
"374";"egun";"-0.0807365702876471";"0.192299127153837";"0.809416605123451";"415"
"375";"fede";"-0.142375064966423";"0.185666507399934";"0.809414052506177";"416"
"376";"bakarrik";"-0.113629138524856";"-0.654743754748669";"0.809301737346125";"417"
"377";"ote";"-0.104331482839297";"-0.255704791638359";"0.809301737346125";"418"
"378";"zuengan";"-0.136278685185596";"-0.014977672140837";"0.809217500976086";"419"
"379";"atera";"-0.117818508166804";"0.0881882594420558";"0.809217500976086";"420"
"380";"menpe";"-0.0519304056354982";"0.153500344131169";"0.809158790778786";"421"
"381";"hain";"-0.0249732431940918";"0.45740650774053";"0.809093699038302";"422"
"382";"inolako";"-0.177393591619989";"0.224702322871555";"0.809092422729665";"423"
"383";"galdu";"-0.0875024129139712";"0.212118792213333";"0.809061791322378";"424"
"384";"ikusi";"-0.0954581824247682";"0.0925334269722093";"0.808927778915497";"425"
"385";"aintza";"0.0379110294364215";"0.251269835014023";"0.80892650260686";"426"
"386";"hasi";"-0.226006068514567";"-1.49887757313932";"0.808920121063676";"427"
"387";"atsekabe";"-0.132214632845136";"0.0421410181617548";"0.808828226841815";"428"
"388";"erreinu";"-0.124763870220959";"0.14685861704984";"0.80879249019998";"429"
"389";"aurka";"-0.121151606621333";"0.41917921070791";"0.808691661817661";"430"
"390";"horrelako";"-0.169403894322245";"0.256751554594108";"0.808691661817661";"431"
"391";"kontzientzia";"-0.143794072572354";"0.268698437969582";"0.808506597065302";"432"
"392";"kontu";"-0.117487776640416";"0.0853944328893042";"0.808506597065302";"433"
"393";"ahalmen";"-0.0981485435731106";"0.193473027880906";"0.808506597065302";"434"
"394";"esker";"-0.0868783679654642";"0.0322725667623135";"0.808481070892563";"435"
"395";"egintza";"-0.107473514421207";"0.114806754904038";"0.808393005596613";"436"
"396";"bizitza";"-0.107297562108309";"0.177449324157727";"0.808090520449655";"437"
"397";"gau";"-0.124763870220959";"0.14685861704984";"0.808036915486903";"438"
"398";"aztertu";"-0.124763870220959";"0.14685861704984";"0.808036915486903";"439"
"399";"aberats";"-0.124763870220959";"0.14685861704984";"0.808036915486903";"440"
"400";"nahigabe";"-0.124763870220959";"0.14685861704984";"0.808036915486903";"441"
"401";"gorde";"-0.124763870220959";"0.14685861704984";"0.808036915486903";"442"
"402";"izaera";"0.133715372478531";"0.397705963949196";"0.808012665622801";"443"
"403";"garai";"-0.116746428905567";"0.246788797054865";"0.807716562019028";"444"
"404";"eduki";"-0.101236707714347";"0.150466344084387";"0.807678272759919";"445"
"405";"ongi";"-0.0870809332829682";"-0.0267437994705455";"0.807571062834415";"446"
"406";"sinesmenaga";"-0.00383588754526595";"-0.219041985277034";"0.807343879897037";"447"
"407";"neurritsu";"-0.09028766654403";"-0.0587826745480247";"0.807343879897037";"448"
"408";"hartzazue";"-0.09028766654403";"-0.0587826745480247";"0.807343879897037";"449"
"409";"estali";"0.0214967053769347";"0.136997850942455";"0.807343879897037";"450"
"410";"jende";"0.0848117204329037";"0.33040608571051";"0.807059263070996";"451"
"411";"ezakan";"-0.0483635477971931";"-0.409889034345546";"0.806967368849135";"452"
"412";"irrika";"-0.189434139492543";"-0.935358510753122";"0.806407069357512";"453"
"413";"adierazi";"-0.164973139179418";"-0.716343973255938";"0.806386648419321";"454"
"414";"beza";"-0.134849157844349";"0.0758599582853126";"0.80631134620974";"455"
"415";"utzi";"-0.119104628604699";"0.0072336153136644";"0.806181162728771";"456"
"416";"profeta";"-0.127196561151425";"-0.775357332715872";"0.805929729927291";"457"
"417";"egia";"-0.0754309102997745";"0.150969412905011";"0.80592590100138";"458"
"418";"pentsatu";"-0.0960337004901849";"-0.0245091259483806";"0.805706375915824";"459"
"419";"ulertu";"-0.168994066075264";"-0.802664232286516";"0.805513653311644";"460"
"420";"enukan";"-0.0973420864692131";"0.398545503330664";"0.804770841684936";"461"
"421";"espiritu";"0.286995588721895";"0.272541616081619";"0.80474403920356";"462"
"422";"bihurtu";"-0.0883037975130413";"0.232872914119836";"0.80432923889655";"463"
"423";"eskatu";"-0.163766062119007";"-0.444650081501911";"0.804176081860115";"464"
"424";"neuregan";"0.0615434163139818";"0.473159492867305";"0.803954004157285";"465"
"425";"gisa";"0.0615434163139818";"0.473159492867305";"0.803954004157285";"466"
"426";"aldare";"0.0615434163139818";"0.473159492867305";"0.803954004157285";"467"
"427";"ustelkor";"0.0615434163139818";"0.473159492867305";"0.803954004157285";"468"
"428";"ustelezin";"0.0615434163139818";"0.473159492867305";"0.803954004157285";"469"
"429";"ukaikan";"0.0615434163139818";"0.473159492867305";"0.803954004157285";"470"
"430";"sabela";"0.0615434163139818";"0.473159492867305";"0.803954004157285";"471"
"431";"eskas";"-0.166984858424627";"-0.446541109982642";"0.803830202219501";"472"
"432";"zizun";"-0.0738312151571566";"-0.283390672073909";"0.803830202219501";"473"
"433";"zinez";"-0.166984858424627";"-0.446541109982642";"0.803830202219501";"474"
"434";"zerbitzari";"-0.166984858424627";"-0.446541109982642";"0.803830202219501";"475"
"435";"zerbitzadu";"-0.166984858424627";"-0.446541109982642";"0.803830202219501";"476"
"436";"uttu";"-0.166984858424627";"-0.446541109982642";"0.803830202219501";"477"
"437";"sinestedun";"-0.0738312151571566";"-0.283390672073909";"0.803830202219501";"478"
"438";"sesiozale";"-0.166984858424627";"-0.446541109982642";"0.803830202219501";"479"
"439";"nolatan";"-0.166984858424627";"-0.446541109982642";"0.803830202219501";"480"
"440";"balio";"0.0272827431316821";"0.294415879931814";"0.803730650145818";"481"
"441";"jesus";"-0.0300726570247429";"0.152224348022158";"0.803668111022607";"482"
"442";"arte";"-0.0731468266101141";"0.204025866506364";"0.803403915134758";"483"
"443";"oso";"-0.121310678075886";"-0.395635839686185";"0.803089943210067";"484"
"444";"aurre";"-0.0735469959611195";"0.156056026735374";"0.802584524989833";"485"
"445";"horregatik";"-0.0654695782404313";"0.10485592639263";"0.802400736546112";"486"
"446";"sortu";"-0.124850610602599";"-0.0411304087368743";"0.802252684744225";"487"
"447";"konpondu";"-0.124763870220959";"0.14685861704984";"0.802008909794567";"488"
"448";"itsatsi";"-0.124763870220959";"0.14685861704984";"0.802008909794567";"489"
"449";"irudiko";"-0.124763870220959";"0.14685861704984";"0.802008909794567";"490"
"450";"harrapatu";"-0.124763870220959";"0.14685861704984";"0.802008909794567";"491"
"451";"enuttu";"-0.124763870220959";"0.14685861704984";"0.802008909794567";"492"
"452";"bizileku";"-0.124763870220959";"0.14685861704984";"0.802008909794567";"493"
"453";"zuritu";"-0.124763870220959";"0.14685861704984";"0.802008909794567";"494"
"454";"zuenetik";"-0.124763870220959";"0.14685861704984";"0.802008909794567";"495"
"455";"zori";"-0.124763870220959";"0.14685861704984";"0.802008909794567";"496"
"456";"zabarkeri";"-0.124763870220959";"0.14685861704984";"0.802008909794567";"497"
"457";"zabal";"-0.124763870220959";"0.14685861704984";"0.802008909794567";"498"
"458";"txiki";"-0.124763870220959";"0.14685861704984";"0.802008909794567";"499"
"459";"titoren";"-0.124763870220959";"0.14685861704984";"0.802008909794567";"500"
"460";"sinestedunak";"-0.124763870220959";"0.14685861704984";"0.802008909794567";"501"
"461";"semealaben";"-0.124763870220959";"0.14685861704984";"0.802008909794567";"502"
"462";"sasijainkoak";"-0.124763870220959";"0.14685861704984";"0.802008909794567";"503"
"463";"paregabe";"-0.124763870220959";"0.14685861704984";"0.802008909794567";"504"
"464";"oroitu";"-0.124763870220959";"0.14685861704984";"0.802008909794567";"505"
"465";"orduko";"-0.124763870220959";"0.14685861704984";"0.802008909794567";"506"
"466";"ordu";"-0.124763870220959";"0.14685861704984";"0.802008909794567";"507"
"467";"ondasun";"-0.124763870220959";"0.14685861704984";"0.802008909794567";"508"
"468";"nolanahi";"-0.124763870220959";"0.14685861704984";"0.802008909794567";"509"
"469";"negar";"-0.124763870220959";"0.14685861704984";"0.802008909794567";"510"
"470";"nabarmen";"-0.124763870220959";"0.14685861704984";"0.802008909794567";"511"
"471";"berriro";"-0.0442594616952335";"0.0447107619419037";"0.801488175870689";"512"
"472";"gero";"-0.0564850768444926";"0.0528050742947192";"0.801232914143298";"513"
"473";"harrotu";"-0.0802552504150919";"0.235091666947374";"0.800964889329538";"514"
"474";"zineten";"-0.0316102269534888";"0.310009054958572";"0.8";"515"
"475";"zeundetu";"-0.0316102269534888";"0.310009054958572";"0.8";"516"
"476";"sinesgabe";"-0.0316102269534888";"0.310009054958572";"0.8";"517"
"477";"semealabok";"-0.0316102269534888";"0.310009054958572";"0.8";"518"
"478";"santuetan";"-0.0316102269534888";"0.310009054958572";"0.8";"519"
"479";"pertsegitzaile";"-0.0316102269534888";"0.310009054958572";"0.8";"520"
"480";"pedrori";"-0.0316102269534888";"0.310009054958572";"0.8";"521"
"481";"negu";"-0.0316102269534888";"0.310009054958572";"0.8";"522"
"482";"nahikoa";"-0.0316102269534888";"0.310009054958572";"0.8";"523"
