"";"";"";"";"*Tx_1Tm_5_18";""
"1";"*Tx_1Tm_5_18";"-0.491267138256368";"1.56628030971805";"1.72367210281888";"6"
"2";"*Tx_1Ko_7_18";"19.5415244158505";"-1.27343160926016";"1.48906457380807";"12"
"3";"*Tx_1Ko_15_49";"19.4017939509493";"-1.51815726612326";"1.48906457380807";"13"
"4";"*Tx_1Ko_7_19";"19.5415244158505";"-1.27343160926016";"1.48906457380807";"14"
"5";"*Tx_Ga_6_15";"19.4017939509493";"-1.51815726612326";"1.48906457380807";"15"
"6";"*Tx_1Ko_10_22";"-0.0489940083997532";"0.820140549961546";"1.28992907801418";"17"
"7";"*Tx_Erm_7_14";"0.0907364565014528";"1.06486620682465";"1.28992907801418";"18"
"8";"*Tx_1Ko_9_22";"-0.0489940083997532";"0.820140549961546";"1.28992907801418";"19"
"9";"*Tx_1Ko_15_43";"0.0907364565014528";"1.06486620682465";"1.28992907801418";"20"
"10";"*Tx_2Ko_13_9";"-0.0489940083997532";"0.820140549961546";"1.28992907801418";"21"
"11";"*Tx_2Ko_12_10";"-0.0489940083997532";"0.820140549961546";"1.28992907801418";"22"
"12";"*Tx_1Ko_16_12";"-0.308015504238664";"0.856569463383946";"1.25674334881377";"25"
"13";"*Tx_Erm_10_19";"-0.308015504238664";"0.856569463383946";"1.25674334881377";"26"
"14";"*Tx_Flp_1_17";"-0.308015504238664";"0.856569463383946";"1.25674334881377";"27"
"15";"*Tx_Kol_2_18";"-0.308015504238664";"0.856569463383946";"1.25674334881377";"28"
"16";"*Tx_Erm_8_7";"-0.308015504238664";"0.856569463383946";"1.25674334881377";"29"
"17";"*Tx_Kol_3_5";"-0.308015504238664";"0.856569463383946";"1.25674334881377";"30"
"18";"*K_Erm_4";"0.10579139686603";"0.550655950873953";"1.23474097274724";"32"
"19";"*K_1Ko_7";"1.18094119749721";"-0.135255545471265";"1.21749072974043";"33"
"20";"*Tx_1Ko_7_11";"0.0476171481636883";"-0.881347840939482";"1.19347661734529";"35"
"21";"*Tx_1Ko_11_6";"0.0476171481636883";"-0.881347840939482";"1.19347661734529";"36"
"22";"*Tx_Erm_7_3";"0.0476171481636883";"-0.881347840939482";"1.19347661734529";"37"
"23";"*Tx_Erm_7_2";"0.0476171481636883";"-0.881347840939482";"1.19347661734529";"38"
"24";"*Tx_Ef_5_33";"0.0476171481636883";"-0.881347840939482";"1.19347661734529";"39"
"25";"*K_Ef_5";"-0.0869628221800787";"0.0414169685182471";"1.14970947186521";"40"
"26";"*Tx_1Tm_1_15";"-0.643464811359706";"-8.70299594262807";"1.12398987171641";"45"
"27";"*Tx_1Ko_14_23";"-0.643464811359706";"-8.70299594262807";"1.12398987171641";"46"
"28";"*Tx_2Ko_11_23";"-0.0742506290068219";"0.595713238990977";"1.12325065101823";"48"
"29";"*Tx_Erm_7_25";"0.112056657528119";"0.922014114808443";"1.12325065101823";"49"
"30";"*K_Ga_3";"0.950514697253019";"0.426925540679859";"1.0796207893821";"50"
"31";"*K_Kol_4";"-0.16963517550767";"-0.640075041915989";"1.06545415271628";"51"
"32";"*Tx_Erm_13_10";"0.0833104519696097";"-0.375461917034309";"1.05541659166457";"52"
"33";"*K_1Ko_15";"1.99806549245526";"0.148011651439343";"1.049846035689";"53"
"34";"*L_Korintoarrei1";"0.308571462795797";"-0.433684511593099";"1.049846035689";"54"
"35";"*Tx_2Ko_13_4";"-0.256652734105783";"1.00079581490279";"1.03991935774202";"55"
"36";"*Tx_1Tm_5_24";"-0.464311459811813";"1.18145107984404";"1.03244266839472";"56"
"37";"*Tx_2Ts_2_3";"-0.464311459811813";"1.18145107984404";"1.03244266839472";"57"
"38";"*Tx_2Ko_6_2";"-0.527642942117315";"0.291351489295319";"1.03244266839472";"58"
"39";"*Tx_1Ts_2_2";"-0.464311459811813";"1.18145107984404";"1.03244266839472";"59"
"40";"*Tx_1Ko_3_18";"-0.464311459811813";"1.18145107984404";"1.03244266839472";"60"
"41";"*Tx_Kol_2_8";"-0.324580994910607";"1.42617673670714";"1.03244266839472";"61"
"42";"*Tx_2Ko_13_1";"-0.464311459811813";"1.18145107984404";"1.03244266839472";"62"
"43";"*Tx_2Ko_11_9";"-0.527642942117315";"0.291351489295319";"1.03244266839472";"63"
"44";"*Tx_2Tm_1_12";"-0.464311459811813";"1.18145107984404";"1.03244266839472";"64"
"45";"*Tx_Erm_1_29";"-0.464311459811813";"1.18145107984404";"1.03244266839472";"65"
"46";"*Tx_Erm_15_6";"-0.324580994910607";"1.42617673670714";"1.03244266839472";"66"
"47";"*Tx_Ga_2_10";"-0.464311459811813";"1.18145107984404";"1.03244266839472";"67"
"48";"*Tx_Erm_15_3";"-0.324580994910607";"1.42617673670714";"1.03244266839472";"68"
"49";"*K_Erm_5";"1.25343967607589";"0.387081297333366";"1.02076298136348";"69"
"50";"*Tx_1Ko_15_23";"0.888171413474082";"0.911644037820421";"1.00991227754377";"72"
"51";"*Tx_Tt_1_4";"0.685109466267374";"-0.2231812095914";"1.00991227754377";"73"
"52";"*Tx_Ga_5_6";"0.748440948572876";"0.666918380957321";"1.00991227754377";"74"
"53";"*Tx_Erm_1_7";"0.685109466267374";"-0.2231812095914";"1.00991227754377";"75"
"54";"*Tx_Erm_9_5";"0.748440948572876";"0.666918380957321";"1.00991227754377";"76"
"55";"*Tx_Ef_2_14";"0.888171413474082";"0.911644037820421";"1.00991227754377";"77"
"56";"*Tx_Erm_16_20";"0.748440948572876";"0.666918380957321";"1.00991227754377";"78"
"57";"*Tx_1Ts_5_3";"0.748440948572876";"0.666918380957321";"1.00991227754377";"79"
"58";"*K_Erm_6";"0.0645483725484164";"0.478422410219199";"0.990312368746325";"81"
"59";"*K_Ga_5";"-0.00630636379398362";"0.350651753657361";"0.987608933050125";"82"
"60";"*Tx_1Ko_7_14";"-0.00037386973078371";"-0.689931578787632";"0.986452580672259";"83"
"61";"*L_Korintoarrei2";"-0.0960439998189977";"0.14813239071719";"0.985850643818027";"84"
"62";"*K_1Ko_11";"-0.084497298200789";"-0.189823189057486";"0.974672570831983";"85"
"63";"*K_Erm_7";"0.0705046799442746";"0.405744988507526";"0.964856775989728";"86"
"64";"*Tx_1Tm_6_5";"-0.351128929948195";"0.836586925579307";"0.95155608357034";"87"
"65";"*Tx_2Ko_1_12";"-0.351128929948195";"0.836586925579307";"0.95155608357034";"88"
"66";"*Tx_1Ko_4_12";"-0.351128929948195";"0.836586925579307";"0.95155608357034";"89"
"67";"*Tx_2Ts_1_10";"-0.257975286680724";"0.99973736348804";"0.95155608357034";"90"
"68";"*Tx_1Ko_16_19";"-0.251426834831964";"-1.6333405640476";"0.940129843635622";"92"
"69";"*Tx_Kol_4_16";"-0.251426834831964";"-1.6333405640476";"0.940129843635622";"93"
"70";"*Tx_Erm_16_23";"-0.251426834831964";"-1.6333405640476";"0.940129843635622";"95"
"71";"*Tx_Flp_2_25";"-0.251426834831964";"-1.6333405640476";"0.940129843635622";"96"
"72";"*Tx_2Ko_8_23";"-0.251426834831964";"-1.6333405640476";"0.940129843635622";"97"
"73";"*Tx_1Ko_4_17";"-0.251426834831964";"-1.6333405640476";"0.940129843635622";"98"
"74";"*Tx_1Ko_3_9";"-0.251426834831964";"-1.6333405640476";"0.940129843635622";"99"
"75";"*Tx_Erm_16_5";"-0.251426834831964";"-1.6333405640476";"0.940129843635622";"100"
"76";"*K_Kol_2";"-0.110805995490831";"0.594054674431818";"0.927061477721376";"101"
"77";"*L_Tesalonikarrei1";"-0.0819013608053389";"0.164347455095814";"0.922203741704768";"102"
"78";"*L_Filemoni";"-0.0186493899098164";"-0.302060732158754";"0.919996639905917";"103"
"79";"*K_Flm_1";"-0.0186493899098164";"-0.302060732158754";"0.919996639905917";"104"
"80";"*K_1Tm_5";"-0.20547036961659";"-0.138508022856906";"0.9129846035689";"105"
"81";"*K_Erm_13";"-0.116530745867538";"-0.131634244785327";"0.905006300176405";"106"
"82";"*K_1Ko_16";"-0.102485815653144";"-0.242541414487063";"0.900491773769666";"107"
"83";"*Tx_Erm_12_21";"0.35493379377212";"0.14983688450625";"0.899879276619745";"108"
"84";"*Tx_1Ko_7_12";"0.10115710387257";"-0.122518955081722";"0.893157648414156";"109"
"85";"*Tx_Erm_16_2";"-0.101904843334138";"-1.25734420249354";"0.893157648414156";"110"
"86";"*Tx_Erm_13_9";"-0.101904843334138";"-1.25734420249354";"0.893157648414156";"111"
"87";"*Tx_Erm_11_17";"-0.101904843334138";"-1.25734420249354";"0.893157648414156";"112"
"88";"*Tx_Erm_11_18";"-0.101904843334138";"-1.25734420249354";"0.893157648414156";"113"
"89";"*Tx_Ef_4_29";"-0.0385733610286356";"-0.367244611944821";"0.893157648414156";"114"
"90";"*Tx_Erm_3_1";"-0.0385733610286356";"-0.367244611944821";"0.893157648414156";"115"
"91";"*Tx_1Ko_7_34";"-0.0385733610286356";"-0.367244611944821";"0.893157648414156";"116"
"92";"*Tx_1Ko_15_39";"-0.0385733610286356";"-0.367244611944821";"0.893157648414156";"117"
"93";"*Tx_1Ko_7_39";"0.10115710387257";"-0.122518955081722";"0.893157648414156";"118"
"94";"*Tx_Ga_5_14";"0.10115710387257";"-0.122518955081722";"0.893157648414156";"119"
"95";"*Tx_Ga_5_15";"-0.0385733610286356";"-0.367244611944821";"0.893157648414156";"120"
"96";"*Tx_2Ko_1_11";"-0.0385733610286356";"-0.367244611944821";"0.893157648414156";"121"
"97";"*Tx_1Ko_7_9";"-0.0385733610286356";"-0.367244611944821";"0.893157648414156";"122"
"98";"*Tx_1Ko_5_1";"-0.0385733610286356";"-0.367244611944821";"0.893157648414156";"123"
"99";"*Tx_1Ko_15_41";"0.10115710387257";"-0.122518955081722";"0.893157648414156";"124"
"100";"*Tx_Erm_11_20";"-0.0385733610286356";"-0.367244611944821";"0.893157648414156";"125"
"101";"*Tx_2Ko_11_2";"-0.0385733610286356";"-0.367244611944821";"0.893157648414156";"126"
"102";"*Tx_Ga_4_23";"-0.0385733610286356";"-0.367244611944821";"0.893157648414156";"127"
"103";"*K_1Tm_1";"-0.0529467268458273";"-1.3490028378595";"0.892001296036289";"128"
"104";"*Tx_Erm_4_17";"0.154697059581453";"0.636309930776038";"0.889651630245647";"129"
"105";"*L_Galaziarrei";"0.366185844676162";"0.204270194294102";"0.888532238902689";"130"
"106";"*K_2Ko_8";"-0.130230149204734";"-0.25230511756269";"0.884857256003168";"131"
"107";"*K_1Tm_2";"2.36176228729967";"-0.0643498577553554";"0.877581212273944";"132"
"108";"*K_Erm_11";"-0.0125478390329854";"0.0940242682064089";"0.875574756093171";"133"
"109";"*Tx_1Ko_10_23";"-0.251426834831964";"-1.6333405640476";"0.870035881004668";"134"
"110";"*Tx_1Ko_16_20";"-0.251426834831964";"-1.6333405640476";"0.870035881004668";"135"
"111";"*Tx_Erm_16_16";"-0.251426834831964";"-1.6333405640476";"0.870035881004668";"136"
"112";"*K_2Ko_7";"-0.106734132814352";"0.178436121161207";"0.866302816478861";"137"
"113";"*K_1Tm_6";"-0.170528845350551";"0.214548796025244";"0.865019740552736";"138"
"114";"*K_2Ko_10";"-0.1298303888054";"0.0756506498059416";"0.862252943082406";"139"
"115";"*Tx_Erm_11_22";"-0.0673035307594102";"-0.195876868946601";"0.858746924913898";"140"
"116";"*Tx_1Ko_14_20";"-0.0673035307594102";"-0.195876868946601";"0.858746924913898";"141"
"117";"*Tx_Erm_12_19";"0.0258501125080605";"-0.0327264310378684";"0.858746924913898";"142"
"118";"*Tx_Erm_14_5";"-0.0673035307594102";"-0.195876868946601";"0.858746924913898";"143"
"119";"*K_Flp_4";"-0.0258544832677365";"-0.146961776218904";"0.8579337821459";"144"
"120";"*L_Efesoarrei";"-0.0312823060780592";"0.215411205479387";"0.857426887952863";"145"
"121";"*K_1Ko_6";"0.00141292591737707";"0.260373100841974";"0.857199841595565";"146"
"122";"*L_Timoteori1";"0.167595551071285";"-0.282030635622791";"0.856671826811151";"147"
"123";"*Tx_Ga_3_9";"0.154697059581453";"0.636309930776038";"0.853751905053342";"148"
"124";"*Tx_Erm_4_18";"0.154697059581453";"0.636309930776038";"0.853751905053342";"149"
"125";"*Tx_Erm_10_21";"0.154697059581453";"0.636309930776038";"0.853751905053342";"150"
"126";"*Tx_Ga_3_10";"0.154697059581453";"0.636309930776038";"0.853751905053342";"151"
"127";"*Tx_Erm_4_11";"0.154697059581453";"0.636309930776038";"0.853751905053342";"152"
"128";"*Tx_Erm_4_6";"0.154697059581453";"0.636309930776038";"0.853751905053342";"153"
"129";"*Tx_Erm_5_16";"0.154697059581453";"0.636309930776038";"0.853751905053342";"154"
"130";"*Tx_Erm_11_8";"0.154697059581453";"0.636309930776038";"0.853751905053342";"155"
"131";"*Tx_Ga_2_16";"0.154697059581453";"0.636309930776038";"0.853751905053342";"156"
"132";"*Tx_Erm_14_11";"0.154697059581453";"0.636309930776038";"0.853751905053342";"157"
"133";"*Tx_Erm_8_15";"0.154697059581453";"0.636309930776038";"0.853751905053342";"158"
"134";"*Tx_Flp_3_5";"0.154697059581453";"0.636309930776038";"0.853751905053342";"159"
"135";"*Tx_Erm_6_16";"0.154697059581453";"0.636309930776038";"0.853751905053342";"160"
"136";"*K_Ga_6";"1.71101721367125";"0.020180237990321";"0.851095990687739";"161"
"137";"*Tx_Ga_3_12";"0.0988048736209702";"0.538419668030798";"0.849226818350914";"162"
"138";"*K_1Ts_2";"-0.142912050013728";"0.173701274229741";"0.847183401135232";"163"
"139";"*K_1Ts_5";"0.015871572890491";"0.225971767201028";"0.84612209141856";"164"
"140";"*K_Erm_2";"-0.0070961103041544";"0.352943380724028";"0.843207449808595";"165"
"141";"*K_1Ko_2";"-0.0873711553132101";"0.269251590380145";"0.84286952034657";"166"
"142";"*L_Timoteori2";"-0.099969619622058";"0.0774001607704349";"0.842758637241843";"167"
"143";"*K_Erm_8";"-0.0223576873187471";"0.366632106602627";"0.842151420239767";"168"
"144";"*Tx_Ga_4_27";"-0.0434691243269456";"-0.432879964290302";"0.84160756501182";"169"
"145";"*K_Tt_2";"-0.134315154928343";"-1.19437134065602";"0.839733112527151";"170"
"146";"*K_Ef_1";"0.10033285948905";"0.316810932776635";"0.838983331533283";"171"
"147";"*K_Ef_2";"0.0641228258981744";"0.402915479736111";"0.83841835571396";"172"
"148";"*L_Kolosarrei";"-0.0977464607165546";"0.120775390007479";"0.83835499393983";"173"
"149";"*K_1Tm_3";"-0.154566920717666";"-0.2720117785025";"0.837795298268352";"174"
"150";"*K_2Tm_3";"-0.121476088873039";"0.177764874000998";"0.836961034908978";"175"
"151";"*Tx_1Ko_15_29";"0.154697059581453";"0.636309930776038";"0.835820522974643";"176"
"152";"*Tx_Erm_2_12";"0.154697059581453";"0.636309930776038";"0.835820522974643";"177"
"153";"*Tx_Erm_4_13";"0.154697059581453";"0.636309930776038";"0.835820522974643";"178"
"154";"*Tx_1Ko_7_15";"0.154697059581453";"0.636309930776038";"0.835820522974643";"179"
"155";"*Tx_2Ko_2_10";"0.154697059581453";"0.636309930776038";"0.835820522974643";"180"
"156";"*Tx_1Ko_12_12";"0.154697059581453";"0.636309930776038";"0.835820522974643";"181"
"157";"*Tx_1Ko_12_17";"0.154697059581453";"0.636309930776038";"0.835820522974643";"182"
"158";"*Tx_Erm_5_8";"0.154697059581453";"0.636309930776038";"0.835820522974643";"183"
"159";"*Tx_Kol_2_11";"0.154697059581453";"0.636309930776038";"0.835820522974643";"184"
"160";"*Tx_Erm_7_8";"0.154697059581453";"0.636309930776038";"0.835820522974643";"185"
"161";"*Tx_Erm_7_6";"0.154697059581453";"0.636309930776038";"0.835820522974643";"186"
"162";"*Tx_Erm_9_7";"0.154697059581453";"0.636309930776038";"0.835820522974643";"187"
"163";"*Tx_Erm_9_4";"0.154697059581453";"0.636309930776038";"0.835820522974643";"188"
"164";"*Tx_Ga_3_16";"0.154697059581453";"0.636309930776038";"0.835820522974643";"189"
"165";"*Tx_Ga_3_18";"0.154697059581453";"0.636309930776038";"0.835820522974643";"190"
"166";"*Tx_Ef_2_12";"0.154697059581453";"0.636309930776038";"0.835820522974643";"191"
"167";"*Tx_1Ko_6_18";"0.154697059581453";"0.636309930776038";"0.835820522974643";"192"
"168";"*Tx_Erm_4_22";"0.154697059581453";"0.636309930776038";"0.835820522974643";"193"
"169";"*Tx_Erm_4_3";"0.154697059581453";"0.636309930776038";"0.835820522974643";"194"
"170";"*Tx_1Ko_10_16";"0.154697059581453";"0.636309930776038";"0.835820522974643";"195"
"171";"*Tx_Erm_15_11";"0.154697059581453";"0.636309930776038";"0.835820522974643";"196"
"172";"*Tx_1Ko_12_26";"0.154697059581453";"0.636309930776038";"0.835820522974643";"197"
"173";"*Tx_Erm_7_10";"0.154697059581453";"0.636309930776038";"0.835820522974643";"198"
"174";"*Tx_Erm_8_30";"0.154697059581453";"0.636309930776038";"0.835820522974643";"199"
"175";"*Tx_Erm_5_13";"0.154697059581453";"0.636309930776038";"0.835820522974643";"200"
"176";"*Tx_Erm_5_12";"0.154697059581453";"0.636309930776038";"0.835820522974643";"201"
"177";"*Tx_1Ko_6_15";"0.154697059581453";"0.636309930776038";"0.835820522974643";"202"
"178";"*Tx_Ga_4_21";"0.154697059581453";"0.636309930776038";"0.835820522974643";"203"
"179";"*Tx_2Ts_2_14";"0.154697059581453";"0.636309930776038";"0.835820522974643";"204"
"180";"*Tx_1Ko_10_7";"0.154697059581453";"0.636309930776038";"0.835820522974643";"205"
"181";"*Tx_1Ko_15_42";"0.154697059581453";"0.636309930776038";"0.835820522974643";"206"
"182";"*Tx_1Ko_15_44";"0.154697059581453";"0.636309930776038";"0.835820522974643";"207"
"183";"*Tx_1Ko_6_20";"0.154697059581453";"0.636309930776038";"0.835820522974643";"208"
"184";"*Tx_Erm_11_2";"0.154697059581453";"0.636309930776038";"0.835820522974643";"209"
"185";"*Tx_Erm_11_1";"0.154697059581453";"0.636309930776038";"0.835820522974643";"210"
"186";"*Tx_Kol_2_13";"0.154697059581453";"0.636309930776038";"0.835820522974643";"211"
"187";"*Tx_Erm_3_20";"0.154697059581453";"0.636309930776038";"0.835820522974643";"212"
"188";"*Tx_2Tm_3_15";"0.154697059581453";"0.636309930776038";"0.835820522974643";"213"
"189";"*Tx_2Ko_1_20";"0.154697059581453";"0.636309930776038";"0.835820522974643";"214"
"190";"*Tx_1Ko_15_15";"0.154697059581453";"0.636309930776038";"0.835820522974643";"215"
"191";"*Tx_Erm_2_25";"0.154697059581453";"0.636309930776038";"0.835820522974643";"216"
"192";"*Tx_Erm_2_24";"0.154697059581453";"0.636309930776038";"0.835820522974643";"217"
"193";"*Tx_Erm_2_28";"0.154697059581453";"0.636309930776038";"0.835820522974643";"218"
"194";"*Tx_1Ko_14_21";"0.154697059581453";"0.636309930776038";"0.835820522974643";"219"
"195";"*Tx_Ga_4_22";"0.154697059581453";"0.636309930776038";"0.835820522974643";"220"
"196";"*Tx_Ga_2_17";"0.154697059581453";"0.636309930776038";"0.835820522974643";"221"
"197";"*Tx_1Ko_7_23";"0.154697059581453";"0.636309930776038";"0.835820522974643";"222"
"198";"*Tx_Erm_8_34";"0.154697059581453";"0.636309930776038";"0.835820522974643";"223"
"199";"*Tx_Erm_5_20";"0.154697059581453";"0.636309930776038";"0.835820522974643";"224"
"200";"*Tx_Kol_3_11";"0.154697059581453";"0.636309930776038";"0.835820522974643";"225"
"201";"*Tx_Kol_3_13";"0.154697059581453";"0.636309930776038";"0.835820522974643";"226"
"202";"*Tx_Erm_5_15";"0.154697059581453";"0.636309930776038";"0.835820522974643";"227"
"203";"*K_2Ko_5";"-0.0898312539956579";"0.208040031265614";"0.832927001956055";"228"
"204";"*K_1Ko_9";"-0.072867627567444";"0.261253712172296";"0.832230022440628";"229"
"205";"*K_1Ts_3";"-0.133208067861693";"0.0281786716433432";"0.831438000264007";"230"
"206";"*K_Ef_3";"-0.0953469302417582";"0.198379807968387";"0.830376690547335";"231"
"207";"*Tx_Ga_5_2";"-0.188095352526462";"-0.743240973498882";"0.82994899857196";"232"
"208";"*Tx_2Ko_1_8";"-0.188095352526462";"-0.743240973498882";"0.82994899857196";"233"
"209";"*Tx_Erm_15_24";"-0.188095352526462";"-0.743240973498882";"0.82994899857196";"234"
"210";"*Tx_Kol_4_11";"-0.188095352526462";"-0.743240973498882";"0.82994899857196";"235"
"211";"*Tx_Erm_9_15";"-0.0483648876252557";"-0.498515316635783";"0.82994899857196";"236"
"212";"*Tx_Erm_9_9";"-0.188095352526462";"-0.743240973498882";"0.82994899857196";"237"
"213";"*Tx_Erm_3_3";"-0.188095352526462";"-0.743240973498882";"0.82994899857196";"238"
"214";"*Tx_1Ko_5_10";"-0.188095352526462";"-0.743240973498882";"0.82994899857196";"239"
"215";"*Tx_2Ko_9_5";"-0.188095352526462";"-0.743240973498882";"0.82994899857196";"240"
"216";"*Tx_1Tm_5_11";"-0.188095352526462";"-0.743240973498882";"0.82994899857196";"241"
"217";"*Tx_2Tm_4_21";"-0.188095352526462";"-0.743240973498882";"0.82994899857196";"242"
"218";"*Tx_1Ko_6_3";"-0.188095352526462";"-0.743240973498882";"0.82994899857196";"243"
"219";"*Tx_1Ko_11_34";"-0.188095352526462";"-0.743240973498882";"0.82994899857196";"244"
"220";"*Tx_Erm_15_12";"-0.188095352526462";"-0.743240973498882";"0.82994899857196";"245"
"221";"*Tx_1Tm_4_12";"-0.188095352526462";"-0.743240973498882";"0.82994899857196";"246"
"222";"*Tx_1Tm_4_14";"-0.188095352526462";"-0.743240973498882";"0.82994899857196";"247"
"223";"*Tx_2Ko_10_8";"-0.188095352526462";"-0.743240973498882";"0.82994899857196";"248"
"224";"*Tx_2Ko_8_22";"-0.188095352526462";"-0.743240973498882";"0.82994899857196";"249"
"225";"*Tx_2Tm_4_10";"-0.188095352526462";"-0.743240973498882";"0.82994899857196";"250"
"226";"*Tx_1Ts_2_14";"-0.188095352526462";"-0.743240973498882";"0.82994899857196";"251"
"227";"*Tx_Ga_4_31";"-0.0483648876252557";"-0.498515316635783";"0.82994899857196";"252"
"228";"*Tx_Ga_4_30";"-0.0483648876252557";"-0.498515316635783";"0.82994899857196";"253"
"229";"*Tx_1Tm_6_10";"-0.188095352526462";"-0.743240973498882";"0.82994899857196";"254"
"230";"*Tx_1Ko_7_17";"-0.188095352526462";"-0.743240973498882";"0.82994899857196";"255"
"231";"*Tx_Kol_4_9";"-0.188095352526462";"-0.743240973498882";"0.82994899857196";"256"
"232";"*Tx_1Ko_16_15";"-0.188095352526462";"-0.743240973498882";"0.82994899857196";"257"
"233";"*Tx_1Ko_4_10";"-0.188095352526462";"-0.743240973498882";"0.82994899857196";"258"
"234";"*Tx_Erm_16_4";"-0.188095352526462";"-0.743240973498882";"0.82994899857196";"259"
"235";"*Tx_Flm_1_19";"-0.188095352526462";"-0.743240973498882";"0.82994899857196";"260"
"236";"*Tx_Erm_16_7";"-0.0483648876252557";"-0.498515316635783";"0.82994899857196";"261"
"237";"*Tx_Flp_1_7";"-0.188095352526462";"-0.743240973498882";"0.82994899857196";"262"
"238";"*Tx_Flp_4_17";"-0.188095352526462";"-0.743240973498882";"0.82994899857196";"263"
"239";"*Tx_2Ko_8_15";"-0.0483648876252557";"-0.498515316635783";"0.82994899857196";"264"
"240";"*Tx_1Ko_15_3";"-0.0483648876252557";"-0.498515316635783";"0.82994899857196";"265"
"241";"*Tx_Flp_4_3";"-0.0483648876252557";"-0.498515316635783";"0.82994899857196";"266"
"242";"*Tx_1Ko_14_34";"-0.0483648876252557";"-0.498515316635783";"0.82994899857196";"267"
"243";"*Tx_Ef_4_17";"-0.0483648876252557";"-0.498515316635783";"0.82994899857196";"268"
"244";"*Tx_Kol_4_12";"-0.188095352526462";"-0.743240973498882";"0.82994899857196";"269"
"245";"*Tx_Ga_4_6";"-0.188095352526462";"-0.743240973498882";"0.82994899857196";"270"
"246";"*Tx_Ga_6_7";"-0.188095352526462";"-0.743240973498882";"0.82994899857196";"271"
"247";"*Tx_Ga_2_4";"-0.0483648876252557";"-0.498515316635783";"0.82994899857196";"272"
"248";"*Tx_Flm_1_20";"-0.188095352526462";"-0.743240973498882";"0.82994899857196";"273"
"249";"*Tx_1Tm_5_13";"-0.188095352526462";"-0.743240973498882";"0.82994899857196";"274"
"250";"*Tx_Ga_4_17";"-0.0483648876252557";"-0.498515316635783";"0.82994899857196";"275"
"251";"*Tx_2Ko_12_15";"-0.188095352526462";"-0.743240973498882";"0.82994899857196";"276"
"252";"*Tx_2Ko_12_17";"-0.188095352526462";"-0.743240973498882";"0.82994899857196";"277"
"253";"*K_2Ko_11";"-0.134912206191868";"0.176748087570528";"0.828845447672535";"278"
"254";"*K_1Ko_5";"-0.0420560504121069";"-0.0292277557025238";"0.827113559179657";"279"
"255";"*L_Titori";"-0.080808899983569";"-0.249724268971829";"0.825967767097479";"280"
"256";"*K_Erm_15";"-0.0939576422931561";"0.247864939055625";"0.825809362662155";"281"
"257";"*K_Erm_12";"-0.0622511123158901";"0.216893213677709";"0.825476713347974";"282"
"258";"*K_Kol_1";"-0.0538620846942365";"0.0656255162236904";"0.825207425807923";"283"
"259";"*K_2Ts_1";"-0.00673734746444573";"0.21952004793463";"0.824964539007092";"284"
"260";"*K_Tt_1";"-0.0343254129457652";"0.134923934213826";"0.824737492649794";"285"
"261";"*K_Flp_3";"-0.0380457977213626";"0.372356289547346";"0.823829307220602";"286"
"262";"*L_Filipostarrei";"-0.0583494355846223";"0.0945402439264138";"0.822746876912554";"287"
"263";"*K_2Ts_3";"-0.050907843630623";"0.0622408036892676";"0.82267823499058";"288"
"264";"*K_2Ko_12";"-0.109661662264533";"0.0122999008814718";"0.821807010596297";"289"
"265";"*K_Flp_2";"-0.107061020266609";"0.0131659432449575";"0.821099470785182";"290"
"266";"*K_Ga_2";"-0.0530623988267649";"0.228171215393916";"0.821057229602429";"291"
"267";"*K_Flp_1";"-0.0669708340522097";"0.157667346445924";"0.821009708271832";"292"
"268";"*K_Kol_3";"-0.0703235801189309";"0.277731402363269";"0.820682339105495";"293"
"269";"*K_Erm_1";"-0.0920669153176142";"0.17290256836084";"0.820640097922742";"294"
"270";"*K_2Tm_1";"-0.0882367602312047";"-0.0062735984832131";"0.820233526538743";"295"
"271";"*K_1Tm_4";"-0.173838665400102";"0.0683736993337087";"0.819499585988408";"296"
"272";"*K_2Ko_9";"-0.10201340206339";"0.104685114226416";"0.819499585988408";"297"
"273";"*K_Erm_3";"-0.0258095934457742";"0.24795643587684";"0.818195389470905";"298"
"274";"*Tx_1Ko_6_11";"0.154697059581453";"0.636309930776038";"0.817904981339478";"299"
"275";"*K_2Ts_2";"-0.115914558541763";"0.34338855409245";"0.817477289364102";"300"
"276";"*L_Tesalonikarrei2";"-0.0607602350962309";"0.19192953452306";"0.816980955466753";"301"
"277";"*K_1Ko_8";"-0.0781870485872241";"0.228433836004206";"0.816970395171065";"302"
"278";"*K_Ga_1";"-0.0589286032786767";"-0.00558245102020724";"0.816516302456469";"303"
"279";"*K_2Ko_4";"-0.068871684260477";"0.244748879795079";"0.816516302456469";"304"
"280";"*K_2Ko_2";"-0.0851166400370137";"0.153962860002133";"0.816516302456469";"305"
"281";"*K_2Tm_4";"-0.122897084465216";"-0.0724947435550669";"0.815539475105303";"306"
"282";"*K_Erm_10";"-0.0388036381315924";"0.351655689973755";"0.815322989043693";"307"
"283";"*K_2Ko_1";"-0.0675157187138837";"0.0219260072943486";"0.81519098534759";"308"
"284";"*K_1Ko_10";"-0.0539952030246038";"0.222337901683571";"0.814615449232579";"309"
"285";"*K_2Tm_2";"-0.0665428431787903";"0.248827640742797";"0.814335601396839";"310"
"286";"*K_1Ko_3";"-0.0679452746799711";"0.191173656641406";"0.814150796222294";"311"
"287";"*K_1Ko_1";"-0.00202862558283314";"0.267536573093655";"0.814087434448165";"312"
"288";"*K_1Ts_4";"-0.068871684260477";"0.244748879795079";"0.813189809314661";"313"
"289";"*Tx_2Ko_7_9";"-0.124763870220959";"0.146858617049839";"0.812424187877261";"314"
"290";"*Tx_2Ko_7_11";"-0.124763870220959";"0.146858617049839";"0.812424187877261";"315"
"291";"*Tx_1Ts_2_13";"-0.124763870220959";"0.146858617049839";"0.812424187877261";"316"
"292";"*K_1Ko_4";"-0.126650073510295";"0.0609195463860456";"0.811901453240691";"317"
"293";"*K_2Ko_6";"-0.11276057885877";"0.233273655488138";"0.811526562743757";"318"
"294";"*K_1Ts_1";"-0.112030706455009";"0.0392962947689024";"0.811288956090771";"319"
"295";"*K_Tt_3";"-0.0959466105547048";"0.0934388468068363";"0.809873876468541";"320"
"296";"*K_Erm_9";"-0.00464083187430543";"0.243126162778436";"0.809530666858672";"321"
"297";"*Tx_2Ko_6_10";"-0.124763870220959";"0.146858617049839";"0.809314180797062";"322"
"298";"*Tx_2Ko_7_7";"-0.124763870220959";"0.146858617049839";"0.809314180797062";"323"
"299";"*Tx_2Ko_2_16";"-0.124763870220959";"0.146858617049839";"0.809314180797062";"324"
"300";"*Tx_Erm_3_8";"-0.124763870220959";"0.146858617049839";"0.809314180797062";"325"
"301";"*Tx_2Ko_4_2";"-0.124763870220959";"0.146858617049839";"0.809314180797062";"326"
"302";"*Tx_Flp_4_18";"-0.124763870220959";"0.146858617049839";"0.809314180797062";"327"
"303";"*Tx_1Ko_3_10";"-0.124763870220959";"0.146858617049839";"0.809314180797062";"328"
"304";"*Tx_Flp_4_12";"-0.124763870220959";"0.146858617049839";"0.809314180797062";"329"
"305";"*Tx_1Ko_1_10";"-0.124763870220959";"0.146858617049839";"0.809314180797062";"330"
"306";"*Tx_2Ko_5_12";"-0.124763870220959";"0.146858617049839";"0.809314180797062";"331"
"307";"*Tx_1Ko_8_1";"-0.124763870220959";"0.146858617049839";"0.809314180797062";"332"
"308";"*Tx_1Ko_4_5";"-0.124763870220959";"0.146858617049839";"0.809314180797062";"333"
"309";"*K_1Ko_13";"-0.124763870220959";"0.146858617049839";"0.809314180797062";"334"
"310";"*Tx_1Ko_10_13";"-0.124763870220959";"0.146858617049839";"0.809314180797062";"335"
"311";"*Tx_Ga_1_10";"-0.124763870220959";"0.146858617049839";"0.809314180797062";"336"
"312";"*Tx_1Ko_9_12";"-0.124763870220959";"0.146858617049839";"0.809314180797062";"337"
"313";"*Tx_Erm_1_13";"-0.124763870220959";"0.146858617049839";"0.809314180797062";"338"
"314";"*Tx_Flp_1_27";"-0.124763870220959";"0.146858617049839";"0.809314180797062";"339"
"315";"*Tx_2Ko_13_11";"-0.124763870220959";"0.146858617049839";"0.809314180797062";"340"
"316";"*Tx_Erm_10_18";"-0.124763870220959";"0.146858617049839";"0.809314180797062";"341"
"317";"*Tx_Erm_10_13";"-0.124763870220959";"0.146858617049839";"0.809314180797062";"342"
"318";"*Tx_Erm_10_14";"-0.124763870220959";"0.146858617049839";"0.809314180797062";"343"
"319";"*Tx_Ga_5_13";"-0.124763870220959";"0.146858617049839";"0.809314180797062";"344"
"320";"*Tx_1Ko_3_3";"-0.124763870220959";"0.146858617049839";"0.809314180797062";"345"
"321";"*Tx_Flp_2_12";"-0.124763870220959";"0.146858617049839";"0.809314180797062";"346"
"322";"*Tx_Ef_5_8";"-0.124763870220959";"0.146858617049839";"0.809314180797062";"347"
"323";"*Tx_Erm_12_16";"-0.124763870220959";"0.146858617049839";"0.809314180797062";"348"
"324";"*Tx_Tt_1_16";"-0.124763870220959";"0.146858617049839";"0.809314180797062";"349"
"325";"*Tx_Kol_3_16";"-0.124763870220959";"0.146858617049839";"0.809314180797062";"350"
"326";"*Tx_Erm_14_6";"-0.124763870220959";"0.146858617049839";"0.809314180797062";"351"
"327";"*Tx_Erm_12_3";"-0.124763870220959";"0.146858617049839";"0.809314180797062";"352"
"328";"*Tx_Erm_6_19";"-0.124763870220959";"0.146858617049839";"0.809314180797062";"353"
"329";"*Tx_2Ko_10_12";"-0.124763870220959";"0.146858617049839";"0.809314180797062";"354"
"330";"*Tx_2Ko_10_15";"-0.124763870220959";"0.146858617049839";"0.809314180797062";"355"
"331";"*Tx_Erm_1_32";"-0.124763870220959";"0.146858617049839";"0.809314180797062";"356"
"332";"*K_Ef_4";"-0.0794538580514604";"0.19712322385577";"0.808221190193326";"357"
"333";"*K_Ef_6";"-0.00267082385832467";"0.22821521812668";"0.807455568755925";"358"
"334";"*K_Erm_14";"-0.0323065403610035";"0.242283688268233";"0.8063520178565";"359"
"335";"*Tx_1Ko_15_28";"-0.124763870220959";"0.146858617049839";"0.806204173716864";"360"
"336";"*Tx_Erm_12_20";"-0.124763870220959";"0.146858617049839";"0.806204173716864";"361"
"337";"*Tx_2Ko_4_15";"-0.124763870220959";"0.146858617049839";"0.806204173716864";"362"
"338";"*Tx_1Ko_3_20";"-0.124763870220959";"0.146858617049839";"0.806204173716864";"363"
"339";"*Tx_Tt_1_6";"-0.124763870220959";"0.146858617049839";"0.806204173716864";"364"
"340";"*Tx_Tt_1_7";"-0.124763870220959";"0.146858617049839";"0.806204173716864";"365"
"341";"*Tx_Tt_1_5";"-0.124763870220959";"0.146858617049839";"0.806204173716864";"366"
"342";"*Tx_Tt_3_8";"-0.124763870220959";"0.146858617049839";"0.806204173716864";"367"
"343";"*Tx_Ga_2_12";"-0.124763870220959";"0.146858617049839";"0.806204173716864";"368"
"344";"*Tx_2Ko_6_13";"-0.124763870220959";"0.146858617049839";"0.806204173716864";"369"
"345";"*Tx_Flp_2_27";"-0.124763870220959";"0.146858617049839";"0.806204173716864";"370"
"346";"*Tx_Ga_1_9";"-0.124763870220959";"0.146858617049839";"0.806204173716864";"371"
"347";"*Tx_2Ko_11_29";"-0.124763870220959";"0.146858617049839";"0.806204173716864";"372"
"348";"*Tx_1Tm_5_25";"-0.124763870220959";"0.146858617049839";"0.806204173716864";"373"
"349";"*Tx_Ga_1_7";"-0.124763870220959";"0.146858617049839";"0.806204173716864";"374"
"350";"*Tx_2Ko_3_3";"-0.124763870220959";"0.146858617049839";"0.806204173716864";"375"
"351";"*Tx_2Ko_3_1";"-0.124763870220959";"0.146858617049839";"0.806204173716864";"376"
"352";"*Tx_1Ts_4_17";"-0.124763870220959";"0.146858617049839";"0.806204173716864";"377"
"353";"*Tx_2Tm_4_17";"-0.124763870220959";"0.146858617049839";"0.806204173716864";"378"
"354";"*Tx_2Tm_4_16";"-0.124763870220959";"0.146858617049839";"0.806204173716864";"379"
"355";"*Tx_2Ko_1_6";"-0.124763870220959";"0.146858617049839";"0.806204173716864";"380"
"356";"*Tx_2Ko_7_4";"-0.124763870220959";"0.146858617049839";"0.806204173716864";"381"
"357";"*K_Ga_4";"-0.0520586680221414";"0.0469772748101594";"0.805639197897541";"382"
"358";"*Tx_1Ko_15_27";"0.0149665946802466";"0.391584273912939";"0.80445116463261";"383"
"359";"*Tx_Ga_3_2";"0.0149665946802466";"0.391584273912939";"0.80445116463261";"384"
"360";"*Tx_2Ko_4_18";"0.0149665946802466";"0.391584273912939";"0.80445116463261";"385"
"361";"*Tx_2Ko_4_16";"0.0149665946802466";"0.391584273912939";"0.80445116463261";"386"
"362";"*Tx_Erm_2_17";"0.0149665946802466";"0.391584273912939";"0.80445116463261";"387"
"363";"*Tx_2Ko_6_14";"0.0149665946802466";"0.391584273912939";"0.80445116463261";"388"
"364";"*Tx_Ga_5_1";"0.0149665946802466";"0.391584273912939";"0.80445116463261";"389"
"365";"*Tx_Erm_4_16";"0.0149665946802466";"0.391584273912939";"0.80445116463261";"390"
"366";"*Tx_2Ko_3_6";"0.0149665946802466";"0.391584273912939";"0.80445116463261";"391"
"367";"*Tx_1Ts_4_15";"0.0149665946802466";"0.391584273912939";"0.80445116463261";"392"
"368";"*Tx_2Ko_1_9";"0.0149665946802466";"0.391584273912939";"0.80445116463261";"393"
"369";"*Tx_2Tm_4_14";"0.0149665946802466";"0.391584273912939";"0.80445116463261";"394"
"370";"*Tx_2Ko_7_3";"0.0149665946802466";"0.391584273912939";"0.80445116463261";"395"
"371";"*Tx_2Tm_2_17";"-0.124763870220959";"0.146858617049839";"0.80309944678451";"396"
"372";"*Tx_1Ko_11_24";"-0.124763870220959";"0.146858617049839";"0.80309944678451";"397"
"373";"*Tx_2Ko_10_7";"-0.124763870220959";"0.146858617049839";"0.80309944678451";"398"
"374";"*Tx_1Ko_3_5";"-0.124763870220959";"0.146858617049839";"0.80309944678451";"399"
"375";"*Tx_Erm_8_23";"-0.124763870220959";"0.146858617049839";"0.80309944678451";"400"
"376";"*Tx_Ga_4_14";"-0.124763870220959";"0.146858617049839";"0.80309944678451";"401"
"377";"*Tx_Flp_3_1";"-0.124763870220959";"0.146858617049839";"0.80309944678451";"402"
"378";"*Tx_2Ko_10_10";"-0.124763870220959";"0.146858617049839";"0.80309944678451";"403"
