"";"Coord. facteur 1";"Coord. facteur 2";"Coord. facteur 3";"Coord. facteur 4";"Coord. facteur 5";"Coord. facteur 6";"Coord. facteur 7";"Coord. facteur 8";"Coord. facteur 9";"Corr. facteur 1";"Corr. facteur 2";"Corr. facteur 3";"Corr. facteur 4";"Corr. facteur 5";"Corr. facteur 6";"Corr. facteur 7";"Corr. facteur 8";"Corr. facteur 9";"COR -facteur 1";"COR -facteur 2";"COR -facteur 3";"COR -facteur 4";"COR -facteur 5";"COR -facteur 6";"COR -facteur 7";"COR -facteur 8";"COR -facteur 9";"CTR -facteur 1";"CTR -facteur 2";"CTR -facteur 3";"CTR -facteur 4";"CTR -facteur 5";"CTR -facteur 6";"CTR -facteur 7";"CTR -facteur 8";"CTR -facteur 9";"mass";"chi.distance";"inertie"
"classe 1";24,6016516701078;-1,92466546193793;1,92496262815871;-0,91071802292425;0,544828644213625;-2,54402582944532;-0,267706110187842;-0,157303609734243;-0,576857256419156;0,98748586814449;-0,0772541604139041;0,0772660883709146;-0,0365553170803937;0,0218688807538474;-0,102114670529388;-0,0107454574258374;-0,0063140106893482;-0,023154477442775;0,979830211515716;0,00548941777327383;0,00496045405591084;0,00106978685089522;0,000370225371818971;0,00782627311601305;8,28414223226896e-05;2,66112038675473e-05;0,000344178690178823;0,973559798766293;0,00595860515485433;0,00596044530100623;0,00133414171791886;0,000477478660513494;0,0104106329513861;0,00011527912449551;3,98026034234416e-05;0,000535267434936302;0,00160854828517263;15,7067778431942;0,396833478832238
"classe 2";-0,734456911848309;-10,6131094778228;1,16782272594781;3,8044596996056;0,173769855029454;0,757670692077196;0,0228796586288899;0,0686395308186613;0,504935911995707;-0,0644459581743901;-0,931262268043381;0,1024722530858;0,333827685084914;0,0152476811485314;0,0664828840791862;0,00200760793350161;0,00602287249379556;0,0443063141489555;0,00461355913479716;0,88182461544831;0,00964521299869291;0,0986271583153186;0,000198964842262828;0,00366736465207919;3,19676867735354e-06;2,67680606945105e-05;0,00139315977917037;0,00412154794410946;0,860623102248383;0,0104203320077523;0,110589447325086;0,000230715402697498;0,00438620260384638;3,99969423815782e-06;3,59978302064567e-05;0,00194805058911073;0,00764060435457;6,83355234575151;0,356796645548501
"classe 3";-0,508016893215398;1,33990275383204;11,1015315515434;-0,7413276355045;-0,0644530446794981;2,45902711792432;1,82297952045153;3,3526017184907;1,14744350393142;-0,0417901171369898;0,110222108324801;0,913226135065315;-0,0609825561676454;-0,00530198960499887;0,202282704912966;0,149960618860172;0,275789290475416;0,094390165125947;0,00216056569551026;0,01375787025565;0,853161980683997;0,00366554575896256;2,67930441948369e-05;0,03781181069872;0,0198647649572558;0,0625086246111279;0,00704204429457911;0,00173467548478718;0,0120672550467067;0,82837641905095;0,00369387600333401;2,79221469127083e-05;0,0406432631069342;0,0223370343449374;0,0755485022744146;0,00884961863512302;0,00672143390589993;6,90705103818725;0,320661827032944
"classe 4";-0,158894870434349;-0,987578753577874;-0,385438773307678;-2,95574252750241;-1,46072546440246;-0,266765212694814;0,76899854336185;0,0855251147183183;1,04890544860349;-0,04278966128625;-0,265950437818281;-0,103796897353194;-0,795967933108631;-0,393366681272485;-0,071838650693773;0,207087787731126;0,0230315219129529;0,282465436073278;0,00233161514733769;0,0824468508836119;0,0113449463235702;0,642802284237069;0,151809283812263;0,00490891118624633;0,0389939141666924;0,000448734326977685;0,0649134599162384;0,00170715238029875;0,0659471466736479;0,0100453097868345;0,590725521182237;0,144274551877428;0,0048118371824402;0,0399855954591972;0,000494583774137039;0,0743918255534885;0,0676164761302924;2,07959944202372;0,292423262412553
"classe 5";1,02483569133881;0,717691351474691;-1,44604550244298;1,22509532840354;-3,76155534549345;7,6759901627683;1,38592600035561;-1,34958781167522;-1,39377837438595;0,11187722890878;0,0783475051594794;-0,157859025653159;0,133738775541501;-0,410634008941528;0,837957260660693;0,151296019159773;-0,147329123893063;-0,152153231544445;0,0166235568361811;0,00746250055884538;0,0273674238105828;0,0189261524279193;0,172533883731628;0,696584743966372;0,021707221452713;0,0191506100158684;0,0196439071998976;0,0123691089687819;0,00606604122342859;0,0246259985639565;0,0176754182543584;0,166634469841335;0,693902977002224;0,0226209071111995;0,0214502434992573;0,0228779641618727;0,0117768713735853;5,02331618083703;0,297174103394905
"classe 6";0,0300927329136488;-0,532895846330182;-0,592355993547299;-2,2979631126261;5,19680315671905;2,63929459131801;-0,0775245979697138;-0,370413955655529;-0,148277058396897;0,00475485583739252;-0,0842011569011085;-0,0935962633176246;-0,363093752619161;0,821130134521548;0,417026440574131;-0,0122494121173891;-0,0585279165024428;-0,0234287805860964;2,93281944312138e-05;0,00841860665134358;0,00939684732220228;0,136255884970491;0,673842838186155;0,168510695870895;0,000138979195855593;0,00295189969255529;0,000454919916079263;2,20579520575615e-05;0,00691714050710906;0,00854687793363341;0,128625783535581;0,657831190501893;0,169674923792638;0,000146393223135237;0,00334207820892834;0,000535537455268504;0,024358016889757;3,51169845277806;0,300383698159096
"classe 7";0,0169216056950098;0,902979052051605;-1,23627382404451;3,13249534724925;2,76343028330214;-3,0607375055597;16,4181637743873;-2,32673007771572;-0,504947273265671;0,000969905136332525;0,0517565552803184;-0,070860198108022;0,179546987537404;0,158393078882697;-0,175434003197664;0,941049074239031;-0,133362488992481;-0,0289423452327521;1,30787409993328e-06;0,00340903633785056;0,00577253634769635;0,0357084306555422;0,0268722381594163;0,0319613149739814;0,879104793219633;0,016426296371169;0,000744046060600647;9,37635556957035e-07;0,00266996935723036;0,00500472563778973;0,0321315588401608;0,0250062144567281;0,0306763085220067;0,882673510552564;0,0177273138800011;0,000834916394575219;0,00327454472338714;9,35097401785975;0,286328532183215
"classe 8";-0,31046737049396;0,947031617332585;4,13730126268492;0,667433406129239;0,081721967326123;-0,633089277378864;-1,97016561909223;-14,7557596090328;5,89271793148921;-0,0187116293314835;0,0570768662759277;0,249351961002758;0,0402256974028218;0,00492532003737819;-0,0381558032111478;-0,118740364655498;-0,889318268355898;0,355149571800678;0,000520106810172793;0,00442978912638405;0,0763746856700294;0,00191506531559212;2,7762735585473e-05;0,00161540045299568;0,0149545988924635;0,780456325801764;0,119706265195014;0,000348857887798605;0,00324597803793514;0,061951369535675;0,00161225042522482;2,41709792870725e-05;0,00145059620194874;0,0140482456310187;0,788024577657983;0,125674720001491;0,00361923364163842;8,60335695594396;0,267887534176913
"classe 9";-0,0788473474078314;0,0887962089295314;0,0798614525328411;0,081881073202648;-0,0385279834586999;-0,250367202308188;-0,15088187341114;-0,115278238275049;-0,618945264414625;-0,110354307024583;0,124278678040287;0,111773642893191;0,114600292701919;-0,0539235504480286;-0,350412537906881;-0,211173427264892;-0,161342778395032;-0,866272334912302;0,018185982056669;0,0211127553216355;0,0154273568165648;0,0156256011030522;0,00334533148852768;0,136964219603437;0,0475494395750711;0,0258239156192047;0,715965398415838;0,0041157927226419;0,00521997194716157;0,00422234513965364;0,00443860372005352;0,00098272471363559;0,0414986714291683;0,0150713951272485;0,00879779791238945;0,253620181633425;0,662032515654622;0,369502139372725;0,0903885115445372
"classe 10";0,0977643029042524;0,384736767185748;-0,439615279366446;0,718712977244557;0,146087269295422;0,109725038142934;-0,119093151786665;0,632449548425849;1,55451018087358;0,0506106093933757;0,199170470865814;-0,227579970668488;0,372063224272141;0,0756264352531265;0,0568024409846605;-0,0616521246247105;0,32740638561854;0,804738592973657;0,0037312673020019;0,0528952423862658;0,0623872487975795;0,160662239680552;0,00641866198952815;0,00351072569853115;0,00395346599632939;0,103731908628401;0,602709239520811;0,00202007025767461;0,0312847898035437;0,0408461770427483;0,109173398996046;0,00451056141957033;0,00254458720740667;0,00299763973196588;0,0845391023592598;0,51073191814071;0,211351755041075;1,01146387389138;0,216225350707262
