
+-+-+-+-+-+-+-+-+
|i|R|a|M|u|T|e|Q| - Sat Jan 22 00:12:42 2022
+-+-+-+-+-+-+-+-+


Number of texts: 2669
Number of text segments: 2669
Number of forms: 6544
Number of occurrences: 32143
Number of lemmas: 3759
Number of active forms: 3453
Number of supplementary forms: 178
Number of active forms with a frequency >= 3: 1124
Mean of forms by segment: 12.043087
Number of clusters: 10
2638 segments classified on 2669 (98.84%)

###########################
time : 0h 0m 45s
###########################
