"";"classe 1";"classe 2";"classe 3";"classe 4";"classe 5";"classe 6";"classe 7";"classe 8";"classe 9";"classe 10"
"ukan";1;1;1;1;1;1;1;1;0;1
"jainko";1;1;1;1;0,001;1;1;1;1;0
"egin";1;1;1;1;1;1;1;1;0;1
"eman";1;0,472;1;1;0;0,336;1;1;0;1
"egon";1;1;1;1;1;0,768;1;1;0,034;1
"jaun";1;1;1;1;0;1;1;1;0,289;1
"esan";1;1;1;1;1;1;1;1;1;0
"on";1;1;1;1;1;1;1;1;0;1
"bezala";1;1;1;1;1;0,001;0,989;1;1;0,081
"kristu";1;1;1;1;0;1;0,971;1;1;0,001
"bizi";1;1;1;1;1;0,741;1;1;1;0
"nahi";1;1;1;0,286;1;1;1;1;0;1
"espiritu";0,423;1;1;1;1;1;1;0,712;0,389;0,048
"hartu";1;1;1;1;1;1;1;1;0,006;1
"behar";1;1;1;0,375;1;1;1;1;0;1
"lege";1;1;1;1;1;1;0,531;1;1;0
"jesu";1;1;1;0,011;0;1;1;1;1;0,086
"berri";1;1;1;1;1;1;1;1;0;1
"senide";1;0,839;1;0,023;1;1;1;1;0;1
"kristo";1;1;1;0;1;1;1;0,566;1;1
"arte";1;1;1;1;1;1;0,49;1;0,091;1
"bete";1;1;1;1;1;1;1;1;0,209;0,099
"buru";1;0,117;0,982;1;1;0;1;0,479;0,004;1
"jakin";1;1;1;1;1;1;1;1;0;1
"gabe";1;0,661;1;1;1;1;1;1;0;1
"bide";1;1;0,954;1;1;1;1;0,456;1;0
"agertu";1;1;1;1;1;1;0,419;1;0;1
"sinesmen";1;1;1;1;1;1;1;1;0,667;0,012
"horrela";1;1;1;1;1;1;1;1;1;0
"esker";1;0,688;1;1;1;1;1;0,449;0,009;1
"bekatu";1;1;1;1;0,934;1;0,011;1;1;0
"gauza";1;1;1;1;1;1;1;1;0;1
"gorputz";1;1;1;1;1;0,389;1;1;1;0
"egia";1;1;1;1;1;0,993;0,339;1;0,028;1
"orain";1;1;0,885;1;1;1;1;1;0;1
"gero";1;0,614;0,865;1;0,944;1;0,347;1;0,282;0,9
"santu";1;1;1;1;0,867;1;1;1;1;0
"mundu";1;1;1;1;1;1;1;1;0,003;1
"ote";1;0,049;1;1;1;1;0,295;1;0,006;1
"hil";1;1;1;1;1;0,347;1;1;1;0
"hitz";1;1;1;1;1;1;1;1;0;1
"maitasun";1;1;1;1;0,203;1;1;1;0;1
"aurre";1;1;1;1;1;1;0,25;1;0,137;1
"alde";1;1;0,743;1;1;1;0,265;1;0,001;1
"jesus";1;1;1;1;0,157;1;1;1;0,08;1
"giza";1;1;1;1;0,796;1;1;0;0,001;1
"ikusi";1;1;1;1;1;1;1;1;0,007;1
"piztu";1;1;0,523;1;1;1;0,142;1;1;0
"onartu";1;0,41;0,632;1;1;1;1;1;1;0
"utzi";1;1;0,632;0,599;1;0,205;1;1;0,025;1
"jarri";1;1;1;1;1;1;1;1;0;1
"gertatu";1;1;1;1;1;1;1;1;0,257;0,819
"zeuen";1;1;1;0,878;1;0,594;1;1;0,006;1
"dohain";1;0;1;1;1;1;1;1;0,185;1
"ongi";1;1;1;0,215;0,651;1;1;1;0,013;1
"hala";1;1;1;0,02;1;1;1;1;1;1
"horregatik";1;1;1;1;1;0,15;0,163;1;0,516;1
"elkarte";1;0;1;0;1;1;1;1;1;1
"menpe";1;1;1;1;1;0,007;1;1;0,302;1
"idatzi";1;1;1;0;1;1;1;1;1;1
"aita";1;1;1;1;0;1;1;1;1;0,982
"liburu";1;1;1;1;1;1;1;1;1;0
"gogo";1;1;1;1;1;1;1;1;0,005;1
"joan";1;1;1;0,301;1;1;1;0,144;0,001;1
"agindu";1;1;1;0,007;1;0,102;1;1;1;0
"bake";1;1;1;1;0;1;1;1;1;1
"oso";1;0,289;1;0,106;1;1;1;1;0,352;1
"sinetsi";1;1;0,466;1;1;1;1;1;1;0
"maite";1;1;1;0;0,517;0,078;1;1;1;1
"izen";1;1;1;0;1;1;1;1;1;1
"bakarrik";1;0,006;1;1;1;1;1;1;0,754;1
"irakatsi";1;0;1;1;1;1;1;1;0,005;1
"gizaki";0;0,266;1;1;1;1;0,109;1;0,048;1
"etorri";1;1;1;1;1;1;1;1;0,003;1
"arabera";1;1;1;1;1;1;1;1;0,254;0,367
"egun";1;1;1;1;1;1;1;1;0,006;1
"lan";1;1;1;1;1;1;1;1;0;1
"heriotza";1;1;1;1;1;1;1;1;1;0
"itxaropen";1;1;1;1;1;1;1;1;0,003;1
"eskatu";1;0,244;0,422;0,063;1;1;1;1;0,144;1
"judu";1;1;1;1;1;0,881;1;1;0,661;0,3
"handi";1;1;1;1;1;1;1;1;0;1
"jarraitu";1;0,211;1;1;1;1;1;0,095;0;1
"indar";1;1;1;1;1;1;1;0,095;0,002;1
"ezagutu";1;1;1;1;1;1;1;1;0;1
"eli";1;0,003;1;0;1;1;1;1;1;1
"nola";1;1;1;1;1;0,973;1;1;0,022;1
"jan";1;1;1;1;1;1;1;1;0,001;1
"esku";1;1;1;0,033;1;1;1;1;1;0,894
"bihotz";1;1;1;1;1;1;1;1;0,04;1
"bakar";1;1;1;1;0,269;0,778;1;1;1;0
"huts";1;1;1;1;1;1;1;1;0,001;1
"herri";1;1;1;1;1;1;1;0,088;1;0
"saiatu";1;1;0,346;1;1;0,973;1;1;0;1
"jokatu";1;1;1;1;1;1;1;0,053;0;1
"harrotu";1;1;0,331;1;1;0,951;1;1;0,42;1
"bitart";1;1;1;1;1;1;1;1;1;0,003
"zuzen";1;1;0,315;1;1;1;1;1;1;0
"fededun";1;1;1;0;1;1;1;1;0,912;1
"emakume";1;1;1;0,275;1;0;1;1;1;1
"bakoitz";1;1;1;1;1;0,001;1;1;0,299;1
"argi";1;0,157;1;1;1;1;1;1;0;1
"zerbitzu";1;1;1;0,015;1;1;1;1;1;0,917
"salbatu";1;1;1;1;1;1;1;1;1;0,08
"gizon";1;1;1;1;1;0;0;1;1;1
"fede";1;1;0,006;1;1;0,212;1;1;0,059;1
"eraman";1;1;1;1;1;0,905;1;1;0,102;1
"beti";1;1;1;1;1;1;1;1;0;1
"poz";1;1;1;1;1;1;1;1;0;1
"mezu";1;1;1;1;1;1;1;1;0;1
"bihurtu";1;1;1;1;1;0,881;1;0,058;0,059;1
"seme";1;1;1;0;1;1;1;1;1;1
"kristau";1;1;1;0;1;0;1;1;1;1
"berriro";1;1;1;0,638;0,337;0,881;1;1;0,244;1
"otoitz";1;1;1;1;1;0,83;1;1;0;1
"jo";1;1;1;0,327;1;1;1;1;0,349;1
"gain";1;1;1;1;1;1;1;1;0,015;1
"adore";1;1;1;1;1;1;0,026;1;0;1
"sortu";1;1;0,238;0,173;1;0,162;1;1;0,676;1
"senar";1;1;1;0,327;1;0;1;1;1;1
"gelditu";1;1;1;1;1;0,162;1;1;1;0,007
"galdu";1;1;1;1;1;1;1;1;0,007;1
"duzu";1;1;1;1;1;1;1;1;0,002;1
"aintza";1;1;1;1;0,007;1;1;1;0,355;1
"uste";1;1;1;1;1;1;1;1;0,003;1
"garbi";1;1;1;1;1;0,162;1;1;0,001;1
"aldu";1;1;1;1;1;0,804;1;1;1;0,002
"ibili";1;1;1;1;1;1;1;0;0,778;0,861
"era";1;1;1;1;1;0,778;1;1;0,149;1
"bidali";1;1;1;0;1;1;1;1;1;1
"apostolu";1;1;1;0,002;1;1;1;1;1;1
"krist";1;1;1;1;1;0,75;1;1;0,593;0,463
"ezarri";1;1;1;0,402;1;1;1;1;0,11;1
"jasan";1;1;0,162;1;1;1;1;1;0,003;1
"ezin";1;1;1;1;1;1;1;1;0;1
"etxe";1;1;1;0;1;1;1;1;1;1
"esklabo";1;1;1;1;1;1;1;1;1;0
"entzun";1;1;1;1;1;1;1;1;0,059;1
"deitu";0,005;1;1;0,936;1;1;1;1;1;0
"atsegin";1;1;1;1;1;0,117;1;1;0,11;1
"asmo";1;1;1;1;1;1;1;1;0;1
"eragin";1;1;1;1;1;1;1;1;0;1
"egintza";1;1;1;1;1;1;1;1;0,009;1
"duenak";1;1;1;1;1;0,003;1;1;0,349;1
"dezala";1;0;1;0,846;1;0;1;1;1;1
"bizitu";1;1;1;1;1;0,067;1;1;1;0,168
"iritsi";1;1;1;1;1;1;1;1;0,001;1
"harro";1;1;1;0,077;1;1;1;1;0,029;1
"hain";1;1;0,148;1;1;1;1;1;1;0,007
"aurka";1;1;0,093;1;1;1;1;0,008;0,515;1
"zerbitz";1;1;1;0,001;1;1;1;1;0,221;1
"sendo";1;1;1;1;1;1;1;1;0;1
"jakinduria";1;1;1;1;1;1;1;1;0,343;0,614
"hildako";1;1;1;1;1;1;1;1;1;0
"grina";1;1;1;1;1;1;1;0;0,066;1
"garai";1;1;1;1;1;1;1;0,019;0,013;1
"buruz";1;1;1;1;1;1;1;1;0,087;1
"zuengan";1;1;1;0,702;1;1;1;1;0,006;1
"lagun";1;1;1;0,005;1;0;1;1;1;1
"iraun";1;1;1;1;1;0,601;1;1;0,005;1
"gai";1;1;1;1;1;1;1;1;0,001;1
"ezakan";1;0,054;1;1;1;1;1;1;1;0,017
"atera";1;1;1;1;1;1;1;1;0,006;1
"anaia";1;1;1;0;1;1;1;1;1;1
"ahal";1;1;1;1;1;1;1;1;0,005;1
"zuenga";1;1;1;1;1;1;1;1;0,422;0,525
"kontzientzia";1;1;0,106;1;1;1;1;1;0,009;1
"hazi";1;1;1;0,547;1;0,468;1;1;0,055;1
"ekarri";1;1;1;1;1;1;1;1;0,515;0,812
"eduki";1;1;1;1;1;0,569;1;0,013;0,343;1
"bildu";1;0;1;0;1;1;1;1;1;1
"behin";1;1;1;0,702;1;1;1;1;0,066;1
"bedi";1;1;0,12;1;0;1;1;1;0,613;1
"adierazi";1;0,047;1;1;1;1;1;1;0,023;1
"zeru";1;1;1;1;1;1;1;1;0,422;0,525
"ulertu";1;0,034;1;1;1;1;1;1;0,041;1
"mintzo";1;0;1;0,547;1;1;1;1;0,989;1
"kristorekin";1;1;1;1;1;1;1;1;1;0
"kontu";1;1;1;1;1;1;1;1;0,009;1
"hizketa";1;0;1;1;1;1;1;1;1;1
"heldu";1;1;1;1;1;0,038;1;1;0,853;1
"grazia";1;1;1;1;0;1;1;1;1;1
"ezkondu";1;1;1;0,547;1;0;1;1;1;1
"aukeratu";1;1;1;1;1;1;1;1;1;0,065
"atal";1;1;1;1;1;0,397;1;1;1;0
"ahalmen";1;1;1;1;1;1;1;1;0,009;1
"agur";1;1;1;0;1;1;1;1;1;1
"horrelako";1;1;0,093;1;1;1;1;0,008;0,114;1
"erakutsi";1;1;1;0,599;1;0,502;1;1;0,515;1
"epai";1;1;1;1;1;0,502;1;1;0,012;1
"betiko";1;1;1;1;1;1;1;1;1;0,065
"arrotz";1;0;1;1;1;1;1;1;1;1
"profeta";1;0,028;1;1;1;1;1;1;0,623;1
"parte";1;1;1;0,547;1;1;1;1;0,055;1
"orduan";1;1;1;1;1;1;0,004;1;1;0,01
"onginahi";1;1;1;1;1;1;1;1;0,416;1
"izukan";1;1;1;0;1;1;1;1;1;1
"irrika";1;0,023;1;1;1;1;1;1;0,022;1
"erabaki";1;1;0;1;1;1;1;1;0,333;1
"oraindik";1;1;1;1;1;1;1;1;0,747;0,612
"lagundu";1;0,023;1;0;1;1;1;1;1;1
"jentil";1;1;1;1;1;1;1;1;0,884;0,217
"irakaspen";1;1;1;1;1;1;1;1;0,001;1
"etsai";1;1;1;1;1;1;1;1;0,193;1
"eskaini";1;1;1;1;1;1;1;1;0,001;1
"eliza";1;1;1;1;1;0;1;1;0,516;1
"beza";1;1;0,069;1;1;0,023;1;1;0,416;1
"aitortu";1;1;1;1;1;1;1;1;0,249;0,941
"txar";1;1;0,058;1;1;1;1;0;0,884;1
"semealabak";1;1;1;1;1;1;1;1;1;0
"oinarritu";1;1;1;1;1;1;1;1;0,633;0,418
"neurri";1;1;1;1;1;1;1;1;0,171;1
"mintzatu";1;0;1;1;1;1;1;1;1;1
"irabazi";1;1;1;1;1;1;0,002;1;0,097;1
"goraintzi";1;1;1;0;1;1;1;1;1;1
"bezalako";1;1;1;1;1;1;1;1;0,006;1
"benetako";1;1;1;1;1;1;1;1;1;0,002
"begi";1;1;1;1;1;1;1;1;1;0
"balio";1;1;1;1;0,078;1;1;1;0,249;1
"atsekabe";1;1;1;1;1;1;1;1;0,008;1
"askatu";1;1;1;1;1;0,018;1;1;1;0
"zor";1;1;1;1;1;0,013;1;0,002;0,319;1
"zabaldu";1;1;1;1;1;1;1;1;0,319;1
"lur";1;1;1;1;1;1;1;1;0,002;1
"jantzi";1;1;1;1;1;1;1;1;0,078;1
"honela";1;1;1;1;1;1;1;1;1;0
"hondatu";1;1;1;1;1;1;1;1;0,406;0,719
"gutun";1;1;1;0,005;1;1;1;1;1;1
"fruitu";1;1;1;1;1;1;1;1;1;0,159
"erabat";1;1;1;1;1;0;1;1;0,768;1
"enukan";1;1;0,047;1;1;1;1;1;0,633;0,832
"elkartu";1;1;1;1;1;0;1;1;1;0,009
"borroka";1;1;1;0,389;1;1;1;1;0,633;1
"bizitza";1;1;1;1;1;1;1;1;0,011;1
"beldur";1;1;1;1;1;1;0,002;1;0,042;1
"ondoren";1;1;1;0,336;1;1;1;1;0,171;1
"nolako";1;1;1;0,923;1;1;1;1;0,028;1
"nizu";1;1;1;0,336;1;1;1;1;0,768;1
"nagusi";1;1;1;1;1;1;1;1;1;0
"lortu";1;1;1;1;1;1;1;1;0,768;0,329
"ikasi";1;1;1;1;1;1;1;1;0,171;1
"haserre";1;1;0;1;1;1;1;1;0,768;1
"eutsi";1;1;1;1;1;1;0,001;1;0,057;1
"erruki";1;1;1;0,985;0;1;1;1;0,513;1
"eitezi";1;0,01;1;1;1;0;1;1;0,768;1
"aukera";1;1;1;1;1;1;1;1;0,015;1
"zigor";1;1;1;1;1;1;1;1;0,02;1
"salbamen";1;1;1;1;1;1;1;1;0,226;1
"maitatu";1;1;1;1;1;0;1;1;1;1
"hasi";1;0,007;1;0,034;1;1;1;1;0,513;1
"halako";1;1;1;1;1;1;1;1;0,226;1
"gaizki";1;1;1;1;1;1;1;1;0,004;1
"etengabe";1;1;1;1;1;1;1;1;0,02;1
"emazte";1;1;1;0,923;1;0;1;1;1;1
"dizue";1;1;1;0,002;1;0,287;1;1;0,921;1
"bila";1;1;1;0,858;1;1;1;1;1;0,024
"barru";1;1;1;1;1;1;1;1;0,02;1
"aurrez";1;1;1;1;1;1;1;1;0,078;1
"arazo";1;1;1;0,285;1;1;1;1;0,226;1
"zoro";1;1;1;1;1;1;1;1;0,006;1
"urruti";1;1;1;1;1;1;1;1;0,028;1
"timoteo";1;1;1;0;1;1;1;1;1;1
"sari";1;1;1;1;1;1;1;1;0,028;1
"prestatu";1;1;1;0,236;1;1;1;1;0,641;1
"prest";1;1;1;1;1;0,002;1;1;0,144;1
"ondorengo";1;1;1;1;0,024;1;1;1;1;0
"oker";1;1;1;1;1;1;1;1;0,006;1
"lotu";1;1;1;1;1;0,002;1;1;1;0,003
"libre";1;1;1;0,858;1;1;1;1;1;0
"jokabide";1;1;1;1;1;1;1;1;0,028;1
"jainkoar";1;1;1;1;1;0,25;1;1;0,106;1
"israeldar";1;1;1;1;1;1;1;1;1;0,001
"emaztu";1;1;1;0,787;1;0;1;1;1;1
"edan";1;1;1;1;1;1;1;1;0,028;1
"da";1;1;1;1;1;1;1;1;0,106;1
"bitarte";1;1;1;0,923;1;0;1;1;1;1
"barkatu";1;1;1;0,711;1;1;1;1;1;0
"baliatu";1;1;1;1;1;1;1;0;0,144;1
"askatasun";1;1;1;1;1;1;1;1;0,028;1
"arrisku";1;1;1;1;1;1;1;1;0,06;1
"ardura";1;1;1;0,236;1;1;1;1;0,297;1
"aldi";1;1;1;1;1;1;1;1;0,055;1
"ahul";1;1;1;1;1;1;0;1;1;1
"adimen";1;1;1;1;1;1;1;1;1;0,044
"paulok";1;1;1;0;1;1;1;1;1;1
"noski";1;1;1;1;1;1;1;1;1;0,024
"misterio";1;1;1;0,787;1;1;1;1;0,055;1
"leial";1;1;1;0;1;1;1;1;1;1
"jesusengan";1;1;1;1;1;1;1;1;0,144;1
"jentila";1;1;1;0,858;1;1;1;1;0,144;1
"jaunarengan";1;1;1;0,189;1;1;1;1;0,144;1
"izaera";1;1;1;1;0,011;1;1;1;1;0,586
"itzuli";1;1;1;1;1;1;1;1;0,144;1
"irudi";0;1;1;1;1;1;1;1;0,792;1
"haragi";1;1;1;1;1;0,214;1;1;0,388;1
"gau";1;1;1;1;1;1;1;1;0,011;1
"erreinu";1;1;1;1;1;1;1;1;0,008;1
"dizued";1;1;1;0,014;1;1;1;1;0,388;1
"dezazu";1;1;1;0,189;1;1;1;1;0,388;1
"behartu";1;1;1;0,189;1;1;1;1;0,144;1
"aztertu";1;1;1;1;1;1;1;1;0,011;1
"azaldu";1;1;1;1;1;1;1;1;0,388;0,854
"auzi";1;1;0;0,858;1;1;1;1;1;1
"aurkitu";1;1;1;1;1;1;1;1;0,055;1
"aberats";1;1;1;1;1;1;1;1;0,011;1
"zuen";1;1;1;0,787;1;1;1;1;0,055;1
"ziur";1;1;1;1;1;1;1;1;0,055;1
"zaretu";1;1;1;0,008;1;1;1;1;0,965;1
"zaiteztu";1;1;1;0,787;1;1;1;1;0,055;1
"uzukan";1;1;1;0,787;1;1;1;1;0,055;1
"ondorio";1;1;1;1;1;1;1;1;1;0
"oinarri";1;1;1;1;1;1;1;1;0,195;1
"nindu";1;1;1;1;1;1;1;1;0,503;0,722
"nahigabe";1;1;1;1;1;1;1;1;0,011;1
"moisesen";1;1;1;1;1;1;1;1;1;0
"legepe";1;1;1;1;1;1;1;1;1;0,007
"kontra";1;1;1;1;1;1;1;1;0,055;1
"kendu";1;1;1;0,787;1;1;1;1;1;0
"jende";1;1;1;1;0,017;1;1;1;0,503;1
"jakintsu";1;1;1;1;1;1;0;1;0,265;1
"itun";1;1;1;0,787;1;1;1;1;1;0,001
"iritzi";1;1;1;0,787;1;1;1;1;0,195;1
"irain";1;1;0;1;1;1;1;1;1;1
"ipini";1;1;1;1;1;1;1;1;1;0
"inolako";1;1;0,007;0,711;1;1;1;1;0,646;1
"han";1;1;1;0,146;1;1;1;1;0,503;1
"gorde";1;1;1;1;1;1;1;1;0,011;1
"gogor";1;1;1;1;1;1;1;1;0,011;1
"gaizto";1;1;1;1;1;1;1;1;0,011;1
"gaitzetsi";1;1;1;1;1;1;1;1;1;0,04
"gaitz";1;1;1;0,543;0,003;0,079;1;1;1;1
"eztabaida";1;1;1;1;1;1;1;1;0,011;1
"erantzun";1;1;1;1;1;1;1;1;0,011;1
"eraiki";1;1;1;0,146;1;1;1;1;0,965;1
"eginkizun";1;1;1;1;1;1;1;1;0,195;1
"dudala";1;1;1;0,711;1;1;1;1;0,076;1
"digu";1;1;1;1;1;1;1;1;1;0,072
"burutu";1;1;1;0,787;1;1;1;1;0,055;1
"bilatu";1;1;1;1;1;0,178;1;1;0,965;0,722
"aitzakan";1;1;0;1;1;1;1;1;0,503;1
"zintzo";1;1;1;0,004;1;1;1;1;0,646;1
"zergatik";1;1;1;1;1;1;1;1;0,076;1
"zentzu";1;1;1;1;1;1;1;0;0,265;1
"zaindu";1;1;1;0;1;1;1;1;1;1
"zain";1;1;1;0,711;1;1;1;1;0,076;1
"zahar";1;1;1;1;1;0,143;1;1;1;0,005
"sartu";1;1;1;1;1;1;1;1;0,646;0,586
"sagaratu";1;1;1;0,63;1;0,11;1;1;1;0,019
"pozik";1;1;1;1;1;1;0;1;0,076;1
"partaide";1;1;1;0,711;1;1;1;1;0,646;1
"onespen";1;1;1;0,543;1;1;1;1;1;0,881
"merezi";1;1;1;0,711;1;0,001;1;1;0,646;1
"maiteo";1;1;1;1;1;1;1;1;0,015;1
"lankide";1;1;1;0;1;1;1;1;1;1
"kristorengan";1;1;1;0,711;1;1;1;1;1;0,005
"jaso";1;1;1;1;1;1;1;1;0,015;1
"jabe";1;1;1;1;1;0,079;1;1;0,481;1
"hemen";1;1;1;0;1;1;1;1;1;1
"helburu";1;1;1;1;1;1;1;1;0,265;1
"grin";1;1;1;1;1;1;1;0;0,646;1
"gizonemakume";1;1;1;1;1;1;1;1;0,82;0,45
"eskuzabaltasun";1;1;1;1;1;1;1;1;0,015;1
"errebelde";1;1;0,007;1;1;1;1;0;0,265;1
"erabili";1;1;1;1;1;1;1;1;0,021;1
"egoki";1;1;1;0,711;1;1;1;1;0,076;1
"eder";1;1;1;1;1;1;1;1;0,015;1
"bertan";1;0;1;1;1;1;1;1;0,82;1
"arrazoi";1;1;0;0,107;1;1;1;1;1;1
"ahulezia";1;1;1;1;1;1;0;1;0,076;1
"aginte";1;1;1;1;1;1;1;1;0,076;1
"zuri";1;1;1;0;1;1;1;1;1;1
"une";1;1;1;1;1;1;1;1;0,107;1
"ukzuen";1;1;1;0;1;1;1;1;1;1
"tenplu";1;1;1;1;1;1;1;1;1;0,007
"predikatu";1;1;1;1;1;1;1;0;0,151;1
"paulo";1;1;1;0,002;1;1;1;1;0,82;1
"ospe";1;1;1;1;1;1;1;1;0,852;0,537
"opari";1;1;1;1;1;1;1;1;0,107;1
"oinordeko";1;1;1;0,046;0,003;1;1;1;1;0,007
"moztu";1;1;1;1;1;0;1;1;1;1
"konfiantza";1;1;1;1;1;1;1;1;0,107;1
"jai";1;1;1;1;1;1;1;1;0,021;1
"irakurri";1;1;1;0;1;1;1;1;1;0,881
"ihes";1;1;1;1;1;1;1;1;0,021;1
"hurko";1;1;1;1;1;0;1;1;1;1
"gose";1;1;1;0,63;1;1;1;1;0,107;1
"gaituela";1;1;1;1;1;1;1;1;1;0
"gainerako";1;1;1;0,543;1;1;1;1;1;0,881
"eskubide";1;1;1;1;1;1;1;1;0,107;1
"errudun";1;1;1;1;1;1;1;1;0,021;1
"eroapen";1;1;1;0,63;1;1;0;1;0,358;1
"egoera";1;1;1;1;1;1;1;1;0,021;1
"direneitu";1;1;1;1;1;1;1;1;1;0,121
"di";1;1;1;1;1;1;1;1;0,021;1
"bizirik";1;1;1;1;1;1;1;1;1;0,121
"begira";1;1;0;1;1;1;1;1;0,82;1
"bataiatu";1;1;1;0,543;1;1;1;1;1;0
"balu";1;1;1;0,073;1;1;1;1;1;0
"arekan";1;1;1;1;1;1;1;1;0,481;0,881
"aldatu";1;1;1;1;1;1;1;1;0,358;1
"akats";1;1;1;1;1;1;1;1;0,021;1
"agintari";1;1;1;1;1;1;1;1;0,107;1
"abrahamen";1;1;1;1;0,002;1;1;1;1;0
"zuentzat";1;1;1;0,159;1;1;1;1;0,619;1
"zoriontsu";1;1;1;1;1;1;1;1;1;0,002
"zerbitzatu";1;1;1;0,543;1;1;1;1;1;0,32
"zaitez";1;1;0,002;1;1;1;1;1;0,151;1
"urte";1;1;1;0,543;1;1;1;1;0,481;1
"toki";1;1;1;0,543;1;1;1;1;1;0,881
"tinko";1;1;1;1;1;1;1;1;0,03;1
"suntsitu";1;1;1;1;1;1;1;1;0,481;0,881
"sufrimendu";1;1;0;1;1;1;1;1;0,481;1
"salbatzaile";1;1;1;1;0,003;0,079;1;1;0,481;1
"pazientzia";1;1;1;1;1;1;1;1;0,481;0,881
"otoitu";1;1;1;1;1;1;1;1;0,03;1
"oparo";1;1;1;1;1;1;1;1;1;0,205
"ondasuna";1;1;1;1;1;1;1;1;0,06;1
"non";1;1;1;1;1;1;1;1;1;0,32
"neke";1;1;1;1;1;1;1;1;0,03;1
"madarikatu";1;1;0,002;1;1;1;1;1;1;0,881
"lekuko";1;1;0;1;1;1;1;1;1;1
"laster";1;1;1;1;1;1;1;1;0,03;1
"laguntza";1;1;1;1;1;1;1;1;0,03;1
"jun";1;1;1;1;1;1;1;1;0,481;0,881
"jaunarengatik";1;1;1;0,543;1;1;1;1;0,151;1
"jardun";1;1;1;0,543;1;1;1;1;0,151;1
"jaio";1;1;1;1;1;1;1;1;0,151;1
"israel";1;1;1;1;1;1;1;1;1;0
"indartsu";1;1;1;1;1;1;0;1;1;1
"indarrez";1;1;1;1;1;0,079;1;1;0,151;1
"ilunpe";1;1;1;1;1;1;1;1;0,151;1
"hor";1;1;1;0,543;1;1;1;1;1;0,881
"haia";1;1;1;0;1;1;1;1;1;1
"gurega";1;1;1;1;1;1;1;1;1;0
"guraso";1;1;1;0,451;1;1;1;0;1;1
"gezur";1;1;1;1;1;0,079;1;1;0,151;1
"ezkutu";1;1;1;1;1;1;1;1;0,03;1
"ezagun";1;1;1;1;1;1;1;1;0,151;1
"errugabe";1;1;1;1;1;1;1;1;0,151;1
"errege";1;1;1;1;0,002;1;1;1;0,213;1
"erori";1;1;1;1;1;1;1;1;1;0,32
"eredu";0;1;1;1;1;1;1;1;1;0,881
"erdainkuntza";1;1;1;1;1;1;1;0;1;0
"duen";1;1;1;1;1;1;1;1;0,03;1
"ditudan";1;1;1;0,046;1;1;1;1;1;1
"dit";1;1;1;1;1;1;1;1;1;0,007
"dia";1;1;1;0,543;1;0,079;1;1;1;0,881
"biezazkizuete";1;1;1;1;0;1;1;1;1;1
"betetu";1;1;1;1;1;1;1;1;1;0
"bereizi";1;1;1;0,543;1;1;1;1;1;0,066
"benetan";1;1;1;0,543;1;1;1;1;0,481;1
"askoz";1;1;1;1;1;0,079;1;1;0,481;1
"arau";1;1;1;0,451;1;1;1;1;1;0,03
"aldendu";1;1;0,002;1;1;1;1;1;0,151;1
"aingeru";1;1;1;1;1;1;1;1;0,481;0,881
"aho";1;1;1;1;1;1;1;1;0,481;0,881
"zuzentzat";1;1;1;1;1;1;1;1;1;0
"zorrotz";1;1;1;1;1;1;1;1;0,042;1
"zentza+araz";1;1;1;1;1;1;0;1;0,213;1
"zaiteztela";1;1;1;1;1;1;1;1;1;0,03
"sentitu";1;1;1;0;1;1;1;1;1;1
"semealaba";1;1;1;0;1;1;1;1;1;1
"salatu";1;1;1;1;1;1;1;1;0,213;1
"ordaindu";1;1;1;1;1;1;1;1;1;0
"ogi";1;1;1;1;1;1;1;1;0,644;0,715
"noiz";1;1;1;1;1;1;1;1;0,06;1
"nahigabetu";1;1;1;1;1;1;1;1;0,431;1
"nahasi";1;1;1;1;1;0,053;1;1;0,213;1
"nago";1;1;1;0,025;1;1;1;1;0,644;1
"lotsatu";1;1;1;0;1;1;1;1;1;1
"lo";1;1;1;1;1;1;1;1;0,302;1
"legami";1;1;1;1;1;1;1;1;1;0
"kristorengatik";1;1;1;1;1;1;1;1;0,213;1
"kopa";1;1;1;1;1;1;1;1;1;0,205
"kondenatu";1;1;1;1;1;1;1;1;0,042;1
"jakinaraz";1;1;1;0,451;1;1;1;1;0,213;1
"itzazu";1;1;0;0;1;1;1;1;1;1
"iragarri";1;1;1;0,451;1;1;1;1;0,213;1
"inoiz";1;1;1;1;1;1;1;1;0,644;0,715
"igo";1;1;1;0,354;1;1;1;1;0,302;1
"hutsal";1;1;0;1;1;1;1;1;1;1
"hiri";1;1;1;0,451;1;1;1;1;0,213;1
"haur";1;1;1;1;1;0;1;1;1;1
"gutxietsi";1;1;1;0,011;1;1;1;1;0,852;1
"gurutu";1;1;1;0,451;0,002;1;1;1;1;0,002
"goretsi";1;1;1;1;1;1;1;1;1;0
"gorabehera";1;1;1;0;1;1;1;1;1;1
"gaiztakeria";1;1;0;1;1;1;1;1;1;1
"ezagutza";1;1;1;1;1;1;1;1;0,042;1
"eskuzabal";1;1;1;1;1;1;1;1;0,042;1
"eskuratu";1;1;1;1;1;1;1;1;1;0
"erregutu";1;1;1;1;1;1;1;1;0,042;1
"erlijio";1;1;1;1;1;1;1;0;0,213;1
"dudan";1;1;1;0,011;1;1;1;1;0,852;1
"distira";1;1;1;1;1;0,031;1;1;1;0
"dagoeneko";1;1;1;1;1;1;1;1;0,042;1
"borondate";1;1;1;1;1;1;1;1;0,213;1
"bit";1;1;1;0,451;0,002;0,053;1;1;1;0,205
"berez";1;1;1;1;1;1;1;1;0,644;0,715
"bere";1;1;1;1;1;1;1;1;1;0
"berdin";0;1;1;1;1;0;1;1;1;1
"bekata";1;1;1;1;1;1;1;1;1;0,002
"beharrezko";1;1;1;0;1;1;1;1;1;1
"baliotsu";1;1;1;1;1;1;1;1;1;0,03
"argitu";1;0;1;1;1;1;1;1;1;1
"are";1;1;1;1;1;1;1;1;0,644;0,715
"arduratu";1;1;1;0,451;1;1;1;1;0,644;1
"antzeko";1;1;1;1;1;1;1;1;1;0
"ama";1;1;1;0,354;1;1;1;1;1;0,537
"alferrik";1;1;1;1;1;1;1;1;0,213;1
"aldeko";1;1;1;1;1;1;1;1;0,042;1
"aipatu";1;1;1;1;1;1;1;1;0,042;1
"aholkatu";1;1;1;1;1;1;1;1;0,042;1
"ahalegin";1;1;1;1;1;1;1;1;0,042;1
"agerian";1;1;1;1;1;1;1;1;0,06;1
"zertan";1;1;1;0,011;1;1;1;1;1;1
"zentzudun";1;1;1;1;1;0;1;1;0,852;1
"zaudete";1;1;1;1;1;1;1;1;1;0,01
"zama";1;1;1;0,011;1;1;1;1;1;1
"zaituztu";1;1;1;1;1;1;1;1;0,852;0,537
"zaituztete";1;1;1;0;1;1;1;1;1;1
"uko";1;1;1;1;1;1;1;1;0,06;1
"uenakan";1;1;1;1;1;1;1;1;0,302;1
"txertatu";1;1;1;1;1;0;1;1;1;1
"sustrai";1;1;1;0;1;1;1;1;1;1
"sendotu";1;1;1;0,354;1;1;1;1;0,852;1
"seinale";1;0;1;0,354;1;1;1;1;1;0,112
"sasijainkoei";1;1;1;1;1;1;1;1;0,06;1
"preso";1;1;1;1;1;1;1;1;0,302;1
"pertsona";1;1;1;1;1;1;1;1;0,302;1
"pentsatu";1;1;1;1;1;0,031;1;1;0,302;1
"ontzi";1;1;1;1;1;1;1;1;0,086;1
"onginahiaz";1;1;1;1;1;1;1;1;0,852;0,537
"nu";1;1;1;0;1;1;1;1;1;1
"mesede";1;1;1;0;1;1;1;1;1;1
"mende";1;1;1;1;0;1;1;1;1;1
"maila";1;1;1;1;1;1;1;1;0,06;1
"lotsagarri";1;1;1;1;1;0;1;1;0,852;1
"lizun";1;1;1;0,354;1;1;1;1;0,302;1
"liluratu";0;1;1;1;1;1;1;1;1;0,537
"leialtasun";1;1;1;1;1;1;1;1;0,06;1
"larri";1;1;1;1;1;1;1;1;0,06;1
"lapur";1;1;1;0,011;1;1;1;1;0,852;1
"lagungarri";1;0;1;0,354;1;0,031;1;1;1;1
"kutsatu";1;1;1;1;1;1;1;1;0,125;1
"kristoren";1;1;1;0,354;0;1;1;1;1;1
"kartzela";1;1;1;0;1;1;1;1;1;1
"kalte";1;1;1;1;1;1;1;1;0,06;1
"jokaera";1;1;0;1;1;1;1;1;0,852;1
"jatorri";1;1;1;1;1;1;1;1;1;0,002
"isuri";1;1;1;1;1;1;1;1;1;0
"iruditu";1;1;1;0;1;1;1;1;1;1
"irizpide";1;1;1;1;1;1;1;1;0,06;1
"irakasle";1;1;1;1;1;1;1;1;0,06;1
"hurbil";1;1;1;1;1;1;1;1;0,852;0,537
"horrexega";1;1;0;1;1;1;1;1;1;0,01
"hona";1;1;1;0;1;1;1;1;1;1
"hobeki";1;1;1;1;1;1;1;1;0,06;1
"hobe";1;0;1;1;1;0;1;1;1;1
"hilkor";1;1;1;1;1;1;1;1;0,852;0,537
"hilik";1;1;1;1;1;1;1;1;1;0,01
"harrera";1;1;1;1;1;1;1;1;0,086;1
"gurutziltzatu";1;1;1;1;1;1;0;1;1;0,537
"gazte";1;1;1;0;1;0,031;1;1;1;1
"gaixo";1;1;1;1;1;1;1;1;0,431;1
"ezertan";1;1;1;1;1;1;1;1;0,086;1
"ezazukan";1;1;1;1;1;1;1;1;0,06;1
"ezazu";1;1;1;0,011;1;1;1;1;0,852;1
"etorrera";1;1;1;1;1;1;1;1;0,06;1
"erne";1;1;1;1;1;1;1;1;0,06;1
"dizuen";1;1;1;1;1;1;1;1;0,852;0,537
"dituzun";1;1;1;1;1;1;1;1;0,086;1
"diet";1;1;1;1;1;0,031;1;1;1;0,112
"botere";1;1;1;1;1;1;1;1;0,06;1
"bihozbera";1;1;1;0,354;1;1;1;1;0,852;1
"bezain";1;1;1;1;1;1;1;1;0,852;0,537
"begiratu";1;1;1;1;1;1;1;1;1;0
"bedeinka";1;1;0;1;1;1;1;1;1;0,047
"bazter";1;1;0;1;1;0,031;1;1;1;1
"batasun";1;1;1;1;1;0;1;1;1;1
"bataio";1;1;1;1;1;1;1;1;1;0
"barruti";1;1;1;1;1;1;1;1;1;0,01
"bain";1;1;1;1;1;1;1;1;0,06;1
"baikara";1;1;1;1;1;0,031;1;1;1;0,01
"badio";1;1;1;1;1;1;1;1;0,302;1
"axola";1;1;1;1;1;1;1;1;1;0
"ausartu";1;1;1;1;1;1;1;1;0,086;1
"aurkako";1;1;0;1;1;1;1;0;1;1
"ahaltsu";1;1;1;1;1;1;1;1;1;0,01
"agintzariaren";1;1;1;1;0,001;0,031;1;1;1;0,01
"agintzaria";1;1;1;0,354;1;1;1;1;0,852;1
"adam";0;1;1;1;1;1;1;1;1;1
"abraham";1;1;1;1;1;1;1;1;1;0
"zuzendari";1;1;1;1;1;1;1;1;0,619;0,916
"zorakeri";1;1;1;1;1;1;0;1;1;0,358
"zigortu";1;1;1;1;1;1;1;1;0,086;1
"zia";1;1;1;1;1;1;1;1;1;0,002
"zaretenez";1;1;1;1;1;1;1;1;1;0,047
"zareten";1;0;1;0;1;1;1;1;1;1
"zaizuen";1;1;1;1;1;1;1;1;1;0,358
"zaitu";1;1;1;0,255;1;1;1;1;1;0,002
"ukatu";1;1;1;1;1;1;1;1;0,086;1
"trebe";1;1;1;1;1;1;1;1;0,086;1
"tito";1;1;1;0;1;1;1;1;1;1
"sinesmene";1;1;1;1;1;1;1;1;1;0,358
"sinesmenaga";1;1;1;0,255;1;0,015;1;1;1;0,358
"sinesgarri";1;0;1;1;1;1;1;1;0,431;1
"semea";1;1;1;1;1;1;1;1;0,086;1
"satanasen";1;1;1;1;1;1;1;1;0,086;1
"salbatzailearen";1;1;1;0,255;1;1;1;1;1;1
"sakon";1;1;1;1;1;1;1;1;0,086;1
"profezi";1;0;1;1;1;1;1;1;0,431;1
"pertsegitu";1;1;1;1;1;1;1;1;0,086;1
"pedro";1;1;1;1;1;1;1;1;0,086;1
"ospetsu";1;1;1;1;1;1;1;1;1;0
"ordez";1;1;1;1;1;1;1;1;0,125;1
"ondare";1;1;1;1;1;1;1;1;1;0,358
"oin";1;1;1;1;1;1;1;1;1;0,358
"ohore";1;1;1;0,159;0;1;1;1;1;0,916
"odol";1;1;1;1;1;1;1;1;1;0
"neurritsu";1;1;1;1;1;0,015;1;1;0,431;1
"mirari";1;1;1;1;1;1;1;1;1;0,358
"min";1;1;1;1;1;1;1;1;0,619;0,916
"maltzur";1;1;0;1;1;1;1;1;0,431;1
"lots";1;1;1;1;1;1;1;1;0,086;1
"lehia";1;1;1;1;1;1;1;0;1;1
"kontrako";1;1;0;1;1;1;1;1;1;1
"kezkatu";1;1;1;0,255;1;1;1;1;0,431;1
"kanpo";1;1;1;1;1;1;1;1;1;0,047
"juzun";1;1;1;0,004;1;1;1;1;1;1
"jerusalemera";1;1;1;0,255;1;1;1;1;0,431;1
"jentilentzat";1;1;1;0,255;1;1;1;1;0,431;1
"janari";1;1;1;1;1;1;1;1;1;0,047
"jagokin";1;1;1;1;1;0;1;1;1;1
"jadanik";1;1;1;0,255;1;1;1;1;1;0,002
"izaki";0;1;1;1;1;1;1;1;1;1
"itxaro";1;1;1;1;1;1;1;1;1;0,358
"itsaso";1;1;1;1;1;1;1;1;1;0,358
"ilun";1;1;1;1;1;1;1;1;0,125;1
"igaro";1;1;1;0,255;1;1;1;1;0,431;1
"honelako";1;1;1;1;1;1;1;1;0,431;1
"hezi";1;1;1;0,255;1;1;1;1;0,431;1
"hartzazue";1;1;1;1;1;0,015;1;1;0,431;1
"harenga";1;1;1;0,255;1;1;1;1;1;0,358
"hara";1;1;1;0;1;1;1;1;1;1
"gomendatu";1;1;1;0,255;1;1;1;1;0,431;1
"gizonezko";1;1;1;1;1;1;1;1;0,619;0,916
"gizaseme";1;1;1;1;1;0;1;1;1;1
"gezurrezko";1;1;1;0,255;1;1;1;0;1;1
"garaipen";1;1;1;1;1;1;1;1;0,086;1
"gaitzespen";1;1;1;1;1;1;1;1;1;0,047
"gaituen";1;1;1;1;1;1;1;1;0,086;1
"gainditu";1;1;1;1;1;1;1;1;0,125;1
"ezjakin";1;1;1;1;1;1;1;1;0,086;1
"ezaguera";1;1;1;1;1;1;1;1;0,086;1
"etortu";0;1;1;0,255;0;1;1;1;1;0,358
"estali";1;1;1;1;1;0,015;1;1;1;0,358
"errespetu";1;1;1;0,004;1;1;1;1;1;1
"erdainduak";1;1;1;1;1;1;1;1;1;0,002
"erdaindu";1;1;1;1;1;1;1;1;1;0
"erasoaldi";1;1;1;1;1;1;1;1;0,086;1
"epaile";1;1;1;0,255;1;1;1;1;0,431;1
"entzule";1;1;1;1;1;1;1;1;0,086;1
"engain";1;1;0;1;1;1;1;1;1;1
"emaitza";1;1;1;0,255;1;1;1;1;0,431;1
"ekin";1;1;1;1;1;1;1;1;1;0,358
"egokitu";1;1;1;1;1;1;1;1;0,086;1
"egita";1;1;1;1;1;1;1;1;0,086;1
"egintz";1;1;1;1;1;1;1;1;0,431;1
"efeson";1;1;1;1;1;1;1;1;0,086;1
"dutena";1;1;1;0,255;1;1;1;1;0,431;1
"dugun";1;1;1;1;1;1;1;1;0,431;1
"direnekin";1;1;1;0,255;1;1;0;1;1;0,358
"direna";1;1;1;1;1;1;1;1;0,431;1
"dion";1;1;1;1;1;1;1;1;0,086;1
"dei";1;1;1;1;1;1;1;1;1;0,358
"dagokidanez";1;1;1;1;1;1;1;1;1;0,358
"bidaia";1;1;1;0;1;1;1;1;1;1
"betie";1;1;1;1;1;1;1;1;0,431;1
"betebetean";1;1;1;1;1;1;1;1;0,431;1
"berezi";1;1;1;1;1;1;1;1;0,086;1
"begirune";1;1;1;0,004;1;0,015;1;1;1;1
"baztertu";1;1;1;1;1;1;1;1;1;0,358
"batzar";1;0;1;0;1;1;1;1;1;1
"baitzaituzte";1;1;1;1;1;1;1;1;1;0
"azkenik";1;1;1;0,255;1;1;1;1;0,431;1
"aurrera";1;1;1;1;1;1;1;1;0,086;1
"aurkeztu";1;1;1;1;1;0,015;0;1;1;1
"atzerritar";1;1;1;1;1;1;1;1;1;0
"arma";1;1;1;1;1;1;1;1;0,086;1
"aitorpen";1;1;0;1;1;1;1;1;1;1
"aholku";1;1;1;1;1;1;1;1;0,086;1
"agintzari";1;1;1;1;1;1;1;1;1;0
"aditu";1;1;1;1;1;1;1;1;0,431;1
"adiskide";1;1;1;0,255;1;1;1;1;0,431;1
"abrahami";1;1;1;1;1;1;1;1;1;0,002
"abrahamek";1;1;1;1;1;1;1;1;1;0
"abiatu";1;1;1;1;1;1;1;1;0,086;1
"zuzenetsi";1;1;1;1;1;1;1;1;1;0
"zorion";1;1;1;1;1;1;1;1;0,125;1
"zizuen";1;1;1;0,159;1;1;1;1;1;0,916
"ziren";1;1;1;1;1;1;1;1;0,125;1
"zilegi";1;1;1;0,159;1;1;1;1;1;0,916
"zikin";1;1;1;1;1;1;1;1;0,619;0,916
"zeuekin";1;1;1;1;1;1;1;1;0,125;1
"zerikusi";1;1;1;1;1;1;1;1;1;0
"zatkan";1;1;1;1;1;1;1;1;0,125;1
"zatitu";1;1;1;1;1;1;1;1;0,619;0,916
"zatiketa";1;1;0;1;1;1;1;1;1;0,916
"zaintzaile";1;1;1;1;1;1;1;1;0,619;0,916
"ur";1;1;1;1;1;1;1;1;0,125;1
"titori";1;1;1;0,001;1;1;1;1;1;1
"timoteok";1;1;1;0;1;1;1;1;1;1
"tentaldi";1;1;1;1;1;1;1;1;0,125;1
"sutsu";1;1;1;1;1;1;1;1;0,619;0,916
"su";1;1;1;1;1;0,001;1;1;0,895;1
"sobera";1;1;1;0,159;1;1;1;1;1;0,916
"sesio";1;1;0;1;1;1;1;1;0,619;1
"satanasek";1;1;1;1;1;1;1;1;0,125;1
"sare";1;1;1;1;1;1;1;1;0,125;1
"salbamenerako";1;1;1;1;1;1;1;1;1;0,194
"salbamenera";1;1;1;1;1;1;1;1;1;0,194
"profetek";1;1;1;0,001;1;1;1;1;1;1
"probintzia";1;1;1;0;1;1;1;1;1;1
"prediku";1;1;1;0,159;1;1;1;1;1;0,916
"pareko";1;1;1;1;1;1;1;1;1;0,194
"oztopo";1;1;1;1;1;0,005;1;1;0,619;1
"otordu";1;1;1;1;1;1;1;1;0,619;0,916
"ostu";1;1;1;0,159;1;0,005;1;1;1;1
"osoosorik";1;1;1;1;1;1;1;1;0,125;1
"osasungarri";1;0;1;1;1;1;1;1;0,619;1
"onginahiaren";1;1;1;1;1;1;1;1;1;0,013
"okertu";1;1;1;1;1;1;1;1;0,619;0,916
"obeditu";1;1;1;1;1;1;1;1;1;0,001
"nizuena";1;1;1;1;1;1;1;1;1;0,013
"nireganako";1;1;1;1;1;1;1;1;0,125;1
"neurrigabe";1;1;1;1;1;1;1;1;0,125;1
"neuregan";1;1;1;1;1;1;1;1;1;0,07
"nazio";1;1;1;0,159;1;1;1;0;1;0,916
"nagoela";1;1;1;1;1;1;1;1;0,125;1
"nabari";1;1;0;1;1;1;1;1;0,619;1
"muga";1;1;1;1;1;1;1;1;0,125;1
"morroi";1;1;1;1;1;1;1;1;0,619;0,916
"menda";1;1;1;1;0;1;1;1;1;1
"mazedoniatik";1;1;1;0;1;1;1;1;1;1
"mazedonia";1;1;1;1;1;1;1;1;0,125;1
"makurtu";1;1;1;1;1;1;1;1;1;0,194
"lizunkeria";1;1;0;1;1;0,005;1;0;1;1
"leku";1;1;1;1;1;1;1;1;0,619;0,916
"langile";1;1;1;1;1;1;1;0;1;1
"laguntzaile";1;1;1;0;1;1;1;1;1;1
"kristogan";1;1;1;1;1;1;1;1;1;0
"konpondu";1;1;1;1;1;1;1;1;0,184;1
"justizia";1;1;1;1;1;1;1;1;0,125;1
"jesusengatik";1;1;1;0;1;1;1;1;1;1
"jesusekin";1;1;1;1;1;1;1;1;1;0
"jentilei";1;1;1;1;1;1;1;1;0,125;1
"jaunarengandik";1;1;1;1;1;1;1;1;0,125;1
"jarraitzaile";1;1;0;0,159;1;0,005;1;1;1;1
"jainkoaren";1;1;1;0,159;1;1;1;1;1;0,916
"izate";1;1;1;1;1;1;1;1;1;0,194
"itxaron";1;1;1;0,001;1;1;1;1;1;0,916
"itsutu";1;1;1;1;1;1;1;1;1;0,194
"itsatsi";1;1;1;1;1;1;1;1;0,184;1
"irudiko";1;1;1;1;1;1;1;1;0,184;1
"indartu";1;1;1;1;1;1;1;1;0,619;0,916
"ile";1;1;1;1;1;0;1;1;1;1
"ikasbide";1;1;1;1;1;1;1;1;0,619;0,916
"igukan";1;1;0;1;1;1;1;1;1;1
"iezaiekan";1;1;1;1;1;0,001;1;1;0,895;1
"hondamendi";1;1;1;1;1;1;1;1;0,125;1
"hizkuntza";1;0;1;1;1;1;1;1;1;0,916
"hizkera";1;1;0;0,159;1;1;1;1;1;1
"hilzori";1;1;1;1;1;1;1;1;0,125;1
"hilda";1;1;1;1;1;1;1;1;1;0
"hazaraztu";1;1;1;0,159;1;1;1;1;1;0,194
"haue";1;1;1;1;1;1;1;1;0,125;1
"harreman";1;1;1;1;1;1;1;1;0,125;1
"harrapatu";1;1;1;1;1;1;1;1;0,184;1
"handiago";1;1;1;0,159;1;1;1;1;0,619;1
"guztiz";1;1;1;0,159;1;1;1;1;1;0,916
"guztiokin";1;1;1;1;0;1;1;1;1;1
"gorroto";1;1;0;1;1;1;1;1;1;1
"gorri";1;1;1;1;1;1;1;1;0,125;1
"goiko";1;1;1;1;1;1;1;1;0,619;0,916
"goiagerpen";1;0;1;1;1;1;1;1;1;0,916
"gobernatu";1;1;1;0;1;1;1;1;1;1
"gizaldi";1;1;1;1;0;1;1;1;0,895;1
"gisa";1;1;1;1;1;1;1;1;1;0,07
"gintu";1;1;1;1;1;1;1;1;1;0
"gidatu";1;0;1;1;1;1;1;1;1;0,194
"gezurti";1;1;1;1;1;1;1;1;0,125;1
"genizuen";1;1;1;1;1;1;1;1;0,125;1
"galbide";1;1;1;1;1;1;1;1;0,619;0,916
"faltsu";1;1;1;1;1;1;1;0;1;0,194
"ezkongabe";1;1;1;1;1;1;1;1;0,125;1
"ezkon";1;1;1;1;1;0,005;1;1;1;0,916
"etsi";1;1;1;1;1;1;1;1;0,125;1
"eskas";1;1;1;0,074;1;1;1;1;0,895;1
"esanahi";1;0;1;1;1;1;1;1;1;1
"eroapena";1;1;1;1;1;1;1;1;0,125;1
"ergel";1;1;1;1;1;1;1;0;1;1
"erdaingabea";0;1;1;1;1;1;1;1;1;0,194
"erdaindua";0;1;1;1;0;1;1;1;1;1
"eran";1;1;1;1;1;1;1;1;0,125;1
"epe";1;1;1;1;1;1;1;1;0,125;1
"enuttu";1;1;1;1;1;1;1;1;0,184;1
"engainatu";1;1;1;1;1;1;1;1;0,125;1
"emazn";1;1;1;1;1;0;1;1;1;1
"egokizun";1;1;1;1;1;1;1;1;0,125;1
"egokiera";1;1;1;1;1;1;1;0;1;1
"egile";1;1;1;1;1;1;1;1;0,125;1
"duenean";1;1;1;1;1;1;1;0;1;0,916
"dudanik";1;1;1;0,159;1;1;1;1;0,619;1
"dudalako";1;1;1;1;1;1;1;1;0,619;0,916
"doktrin";1;0;1;1;1;1;1;1;1;1
"ditzazuen";1;1;1;1;1;1;1;1;0,125;1
"dituzuen";1;1;1;0,159;1;1;1;1;0,619;1
"diruzale";1;1;1;0;1;1;1;1;1;1
"denei";1;1;1;1;1;1;1;1;0,125;1
"deabrua";1;1;1;1;1;1;1;1;0,125;1
"deabru";1;1;1;1;1;1;1;1;0,125;1
"daiteke";1;1;1;1;1;1;1;1;0,619;0,916
"bukatu";1;1;1;1;1;1;1;1;0,125;1
"bota";1;1;1;1;1;1;1;1;0,125;1
"bizileku";1;1;1;1;1;1;1;1;0,184;1
"bilakatu";0;1;1;0,159;1;1;1;1;1;0,916
"bikain";1;1;1;1;1;1;1;1;0,619;0,916
"bihotzbihotzez";1;1;1;1;1;1;1;1;0,619;0,916
"bihotu";1;1;1;1;1;1;1;1;0,125;1
"biezaio";1;0;1;1;1;0;1;1;1;1
"bezalaxe";1;1;1;1;1;0,005;1;1;0,619;1
"betera";1;1;1;1;1;1;1;1;0,125;1
"berritu";1;1;0;1;1;1;1;1;0,619;1
"bereizkeriari";1;1;1;1;1;1;1;1;0,125;1
"belarri";1;1;1;1;1;1;1;1;1;0
"bekaizkeri";1;1;0;1;1;1;1;1;0,619;1
"behar_izan";1;1;1;1;1;1;1;1;0,619;0,916
"begiruneaga";1;1;1;1;1;1;1;1;0,125;1
"banandu";1;1;1;1;1;0;1;1;1;0,663
"banai";1;1;1;0,159;1;1;1;1;0,619;1
"balute";1;1;1;0,159;1;1;1;1;0,619;1
"baliogabe";1;1;1;1;1;1;1;1;1;0
"badabiltza";1;1;1;1;1;1;1;1;1;0,013
"azpikeria";1;1;1;1;1;1;1;1;1;0,194
"aurpegi";1;1;1;1;1;1;1;1;1;0,013
"audekan";1;1;1;1;1;1;1;1;0,619;0,916
"atsegingarri";1;1;1;1;1;1;1;1;0,619;0,916
"arretaz";1;1;1;1;1;1;1;1;0,125;1
"arreba";1;1;1;0;1;1;1;1;1;1
"arin";1;1;1;1;1;1;1;1;1;0,194
"argudio";1;1;0;1;1;1;1;1;1;1
"arduradun";1;1;0;0,001;1;1;1;1;1;1
"arbaso";1;1;1;1;1;1;1;1;0,619;0,916
"alferrika";1;1;1;1;1;1;1;1;0,125;1
"aldare";1;1;1;1;1;1;1;1;1;0,07
"aitzakia";1;1;1;1;1;1;1;1;0,125;1
"aintzat";1;1;1;1;1;1;1;1;0,125;1
"aintzaren";1;1;1;1;1;0,005;1;1;0,619;1
"ahoz";1;1;1;1;1;1;1;1;1;0,013
"ahala";1;1;1;1;1;1;1;1;0,125;1
"agurgarri";1;1;1;0,159;1;0,005;1;1;1;1
"agintzariak";1;1;1;1;1;1;1;1;1;0,194
"adiskidetu";1;1;1;1;1;1;1;1;0,619;0,916
"adar";1;1;1;0,159;1;0;1;1;1;1
"aberastasun";1;1;1;1;1;1;1;1;0,125;1
"zuritu";1;1;1;1;1;1;1;1;0,184;1
"zuenetik";1;1;1;1;1;1;1;1;0,184;1
"zori";1;1;1;1;1;1;1;1;0,184;1
"zizun";1;1;1;0,074;1;1;1;1;1;0,663
"zinez";1;1;1;0,074;1;1;1;1;0,895;1
"zineten";1;1;1;1;1;1;1;1;0,895;0,663
"zeundetu";1;1;1;1;1;1;1;1;0,895;0,663
"zerbitzari";1;1;1;0,074;1;1;1;1;0,895;1
"zerbitzadu";1;1;1;0,074;1;1;1;1;0,895;1
"zenidaten";1;1;1;0;1;1;1;1;1;1
"zapuztu";1;1;1;1;1;0;1;1;1;1
"zabarkeri";1;1;1;1;1;1;1;1;0,184;1
"zabal";1;1;1;1;1;1;1;1;0,184;1
"uttu";1;1;1;0,074;1;1;1;1;0,895;1
"ustelkor";1;1;1;1;1;1;1;1;1;0,07
"ustelezin";1;1;1;1;1;1;1;1;1;0,07
"ukaikan";1;1;1;1;1;1;1;1;1;0,07
"txiki";1;1;1;1;1;1;1;1;0,184;1
"titoren";1;1;1;1;1;1;1;1;0,184;1
"tikiko";1;1;1;0;1;1;1;1;1;1
"sinestedunentzat";1;0;1;1;1;1;1;1;0,895;1
"sinestedunak";1;1;1;1;1;1;1;1;0,184;1
"sinestedun";1;1;1;0,074;1;1;1;1;1;0,663
"sinesgogor";1;1;1;1;1;1;1;1;1;0,001
"sinesgabe";1;1;1;1;1;1;1;1;0,895;0,663
"sesiozale";1;1;1;0,074;1;1;1;1;0,895;1
"semealabok";1;1;1;1;1;1;1;1;0,895;0,663
"semealaben";1;1;1;1;1;1;1;1;0,184;1
"sasijainkoak";1;1;1;1;1;1;1;1;0,184;1
"santuetan";1;1;1;1;1;1;1;1;0,895;0,663
"saldu";1;1;1;1;1;1;0;1;0,895;1
"sabela";1;1;1;1;1;1;1;1;1;0,07
"priska";1;1;1;0;1;1;1;1;1;1
"pertsegitzaile";1;1;1;1;1;1;1;1;0,895;0,663
"pentsaera";1;1;0;1;1;1;1;1;0,895;1
"pedrori";1;1;1;1;1;1;1;1;0,895;0,663
"paregabe";1;1;1;1;1;1;1;1;0,184;1
"osatu";1;1;1;1;1;1;1;1;1;0,001
"oroitu";1;1;1;1;1;1;1;1;0,184;1
"ore";1;1;1;1;1;1;1;1;1;0,001
"orduko";1;1;1;1;1;1;1;1;0,184;1
"ordu";1;1;1;1;1;1;1;1;0,184;1
"ondasun";1;1;1;1;1;1;1;1;0,184;1
"ohoragarri";1;1;1;1;1;0,001;1;1;0,895;1
"nolatan";1;1;1;0,074;1;1;1;1;0,895;1
"nolanahi";1;1;1;1;1;1;1;1;0,184;1
"neskatxa";1;1;1;1;1;0,001;1;1;1;0,663
"negu";1;1;1;1;1;1;1;1;0,895;0,663
"negar";1;1;1;1;1;1;1;1;0,184;1
"nahikoa";1;1;1;1;1;1;1;1;0,895;0,663
"nabarmen";1;1;1;1;1;1;1;1;0,184;1
"mozkor";1;1;1;0,074;1;1;1;1;0,895;1
"moisesek";1;1;1;1;1;1;1;1;1;0,07
"misteriotsu";1;1;1;1;1;1;1;1;0,184;1
"mintxa";1;0;1;1;1;1;1;1;1;1
"mendi";1;1;1;1;1;1;1;1;0,184;1
"mendeku";1;1;1;1;1;0;1;1;1;1
"mazedoniara";1;1;1;0;1;1;1;1;1;1
"maitekiro";1;1;1;1;1;1;1;1;0,184;1
"mait";1;1;1;1;1;0;1;1;1;1
"luze";1;1;1;1;1;0;1;1;1;1
"luzatu";1;1;1;1;1;1;1;1;1;0,07
"luzaroan";1;1;1;1;1;1;1;1;1;0,07
"lurralde";1;1;1;1;1;1;1;1;1;0,07
"lotsa";1;1;1;1;1;1;1;1;0,184;1
"leialtasuna";1;1;1;1;1;1;1;1;0,895;0,663
"lehenik";1;1;1;1;1;1;1;1;0,184;1
"lehengo";1;1;1;1;1;1;1;1;0,184;1
"lehenago";1;1;1;1;1;1;1;1;0,895;0,663
"lasterka";1;1;1;1;1;1;1;1;0,184;1
"lapurreta";1;1;1;1;1;1;1;1;0,184;1
"landu";1;1;1;0,074;1;1;1;1;0,895;1
"landatu";1;1;1;1;1;1;1;1;0,184;1
"kultua";1;1;1;1;1;1;1;1;0,895;0,663
"kristorengandik";1;1;1;1;1;1;1;1;0,895;0,663
"kristorenganako";1;1;1;1;1;1;1;1;0,895;0,663
"koroa";1;1;1;1;1;1;1;1;0,184;1
"korinton";1;1;1;0;1;1;1;1;1;1
"kond";1;1;1;1;1;1;1;1;0,184;1
"kezka";1;1;1;1;1;1;1;1;0,895;0,663
"kate";1;1;1;0,074;1;1;1;1;0,895;1
"kartsu";1;1;1;1;1;1;1;1;0,184;1
"kantu";1;0;1;1;1;1;1;1;0,895;1
"kantatu";1;1;1;1;1;1;1;1;0,895;0,663
"joko";1;1;1;1;1;1;1;1;1;0,07
"jezan";1;1;1;1;1;1;1;1;0,184;1
"jatorriz";1;1;1;1;1;0,001;1;1;1;0,663
"jarrera";1;1;1;1;1;1;1;1;0,184;1
"jakinduriazko";1;1;1;1;1;1;1;1;0,184;1
"jaitsi";1;1;1;1;1;1;1;1;0,895;0,663
"jainkoarenganako";1;1;1;1;1;1;1;1;0,184;1
"izkitu";1;1;1;1;1;1;1;1;1;0,07
"izar";1;1;1;1;1;0,001;1;1;1;0,663
"itxurakeria";1;1;1;1;1;1;1;1;0,184;1
"itxi";1;1;1;1;1;1;1;1;0,184;1
"israeli";1;1;1;1;1;0,001;1;1;1;0,07
"israelen";1;1;1;1;1;1;1;1;1;0,001
"iraunkor";1;1;1;1;0;1;1;1;0,895;1
"irakatsiei";1;1;1;1;1;1;1;1;0,184;1
"iragankor";1;1;1;1;1;1;1;1;1;0,07
"inspiratu";1;1;1;1;1;1;1;1;0,184;1
"inguratu";1;1;1;0,074;1;1;1;1;0,895;1
"indargabetu";1;1;1;1;1;1;1;1;0,184;1
"indarberritu";1;1;1;0,074;1;1;1;1;1;0,663
"ilundu";1;1;1;1;1;1;1;1;1;0,07
"ikuspegi";1;1;1;1;1;1;1;1;0,184;1
"ikusezin";1;1;0;1;0;1;1;1;1;1
"iekan";1;1;1;1;1;1;1;0;0,895;1
"ia";1;1;1;1;1;1;1;1;0,895;0,663
"hutsik";1;1;1;1;1;1;1;1;0,184;1
"hutsegite";1;1;0;1;1;1;1;1;0,895;1
"hornitu";1;1;1;1;1;1;1;1;0,184;1
"hogeita";1;1;1;1;1;1;1;1;0,895;0,663
"hodei";1;1;1;1;1;1;1;1;0,895;0,663
"hilkorrean";1;1;1;1;1;1;1;1;0,895;0,663
"hezurmamizko";1;1;1;1;1;1;1;1;0,184;1
"herritar";1;1;1;0;1;1;1;1;1;1
"herio";1;1;1;1;1;1;1;1;0,184;1
"hazarazteko";1;0;1;1;1;1;1;1;0,895;1
"hautatu";1;1;1;1;1;1;1;1;0,184;1
"haserretu";1;1;1;1;1;0,001;1;1;1;0,663
"hartzazu";1;1;1;1;1;1;1;1;0,184;1
"harropuztu";1;1;1;1;1;1;1;0;0,895;1
"harrigarri";1;1;1;1;1;1;1;1;0,895;0,663
"gutxiets";1;1;1;0,074;1;1;1;1;0,895;1
"gurutze";1;1;1;1;1;1;1;1;0,895;0,663
"gurtu";1;1;1;1;1;1;1;1;0,895;0,663
"guk";1;1;1;1;1;1;1;1;0,895;0,663
"gorazarre";1;1;1;1;1;1;1;1;0,184;1
"goraipatu";1;1;1;0,074;1;1;1;1;0,895;1
"gogoratu";1;1;1;0;1;1;1;1;1;1
"gizonemakumeen";1;1;1;1;1;1;1;1;0,895;0,663
"gizonemakumeek";1;1;1;1;1;1;1;1;1;0,07
"gizonemakumeak";1;1;1;1;1;1;1;1;0,895;0,663
"ginela";1;1;1;1;1;1;1;1;0,184;1
"ginel";1;1;1;1;1;1;1;1;0,895;0,663
"geldi";1;1;1;1;1;1;1;1;0,895;0,663
"gatibu";1;1;1;1;1;1;1;1;0,895;0,663
"garrantzi";0;1;1;1;1;1;1;1;0,895;1
"galaraz";1;0;1;1;1;1;1;1;0,895;1
"gaitasun";1;1;1;1;1;1;1;1;0,184;1
"gainezka";1;1;1;1;1;1;1;1;0,895;0,663
"gabiltza";1;1;1;1;1;1;1;1;0,184;1
"finkatu";1;1;1;1;1;1;1;1;0,184;1
"familia";1;1;1;1;1;1;1;1;0,895;0,663
"ezkutua";1;1;1;1;1;1;1;1;0,184;1
"ezinik";1;1;1;0,074;1;1;1;1;0,895;1
"espirituzkoa";1;1;1;1;1;1;1;1;1;0,07
"espirituagan";1;1;1;1;1;1;1;1;0,895;0,663
"espero";1;1;1;1;1;1;1;1;0,184;1
"eskuinalde";1;1;1;1;1;1;1;1;1;0,001
"esklabotz";1;1;1;1;1;1;1;1;0,184;1
"eskabide";1;1;1;1;1;1;1;1;0,184;1
"eseri";1;1;1;1;1;1;1;1;1;0,001
"errukitu";1;1;1;1;1;1;1;1;0,895;0,663
"erregu";1;1;1;1;1;1;1;1;0,184;1
"erortu";1;1;1;1;1;1;1;1;0,184;1
"erorbide";1;1;1;0,074;1;1;1;1;0,895;1
"erdimin";1;1;1;1;1;1;1;1;0,184;1
"erantsi";1;1;1;1;1;1;1;1;0,184;1
"eraikin";1;1;1;1;1;1;1;1;0,184;1
"eraginpe";1;1;1;1;1;1;1;1;1;0,07
"epaitu";1;1;1;1;1;1;1;1;0,895;0,663
"emakumeagandik";1;1;1;1;1;0;1;1;1;1
"elkartasun";1;1;1;1;0;1;1;1;0,895;1
"egunero";1;1;1;0,074;1;1;1;1;0,895;1
"egiteraino";1;1;1;1;1;0,001;1;1;1;0,663
"egintzengatik";1;1;1;1;1;1;1;1;1;0,07
"eginahal";1;1;1;1;1;1;1;1;0,184;1
"egiaztatu";1;1;1;1;1;1;1;1;0,184;1
"edzi";1;1;1;1;1;1;1;1;0,895;0,663
"duzun";1;1;1;1;1;1;1;1;0,184;1
"duzula";1;1;1;0;1;1;1;1;1;1
"duzuenez";1;1;1;1;1;1;1;1;0,184;1
"duzuela";1;1;1;1;1;1;1;1;0,184;1
"dizuete";1;1;1;1;1;1;1;1;0,895;0,663
"dituztenen";1;1;1;1;1;1;1;1;0,184;1
"distiratsu";1;1;1;1;1;1;1;1;0,895;0,663
"dirubilketa";1;1;1;1;1;1;1;1;0,184;1
"direlaeta";1;1;1;0,074;1;1;1;1;0,895;1
"diozu";1;1;1;1;1;1;1;1;0,895;0,663
"diezazuela";1;1;1;1;1;1;1;1;0,184;1
"diezaioten";1;1;1;0,074;1;1;1;1;0,895;1
"dezakeela";1;1;1;1;1;1;1;1;0,184;1
"deus";1;1;1;1;1;0,001;1;1;1;0,663
"desohoratu";1;1;1;1;1;1;1;1;0,895;0,663
"defentsa";1;1;1;1;1;1;1;1;0,184;1
"buztin";1;1;1;1;1;1;1;1;0,184;1
"bultzatu";1;1;1;0,074;1;1;1;1;1;0,663
"bizkor";1;1;1;1;1;1;1;1;0,184;1
"bizkar";1;1;1;1;1;1;1;1;1;0,07
"biezazkizute";1;1;1;1;0;1;1;1;1;1
"betidanik";1;1;1;1;1;1;1;1;0,184;1
"berezko";1;1;1;1;1;0,001;1;1;0,895;1
"bekatupean";1;1;1;1;1;1;1;1;0,895;0,663
"bekatuarentzat";1;1;1;1;1;1;1;1;1;0,001
"bekaizkeria";1;1;0;1;1;1;1;1;0,895;1
"behe";1;1;1;1;1;1;1;1;0,184;1
"begirun";1;1;1;1;1;1;1;1;0,895;0,663
"bedeinkazio";1;1;1;1;1;1;1;1;1;0,07
"bedeinkatu";1;1;1;1;0;1;1;1;0,895;1
"batu";1;1;1;1;1;1;1;1;1;0,07
"barren";1;1;1;0;1;1;1;1;1;1
"baketsu";1;1;1;0,074;1;1;1;1;0,895;1
"baitzaudete";1;1;1;1;1;1;1;1;0,895;0,663
"baitit";1;1;1;1;1;1;1;1;0,895;0,663
"badaiteke";1;1;1;1;1;1;1;1;0,895;0,663
"auzitegi";1;1;1;1;1;1;1;1;0,895;0,663
"ausardia";1;1;1;1;1;1;1;1;0,184;1
"aurrerantzean";1;1;1;1;1;1;1;1;0,895;0,663
"atzera";1;1;1;1;1;1;1;1;0,184;1
"atxiki";1;1;1;1;1;1;1;1;0,184;1
"aski";1;1;1;1;1;1;1;1;0,184;1
"asia";1;1;1;0;1;1;1;1;1;1
"arreta";1;1;1;0,074;1;1;1;1;1;0,663
"argibide";1;1;1;0;1;1;1;1;1;1
"ardozale";1;1;1;0,074;1;1;1;1;0,895;1
"ardo";1;1;1;1;1;0;1;1;1;1
"arbaxo";1;1;1;1;1;1;1;1;0,184;1
"apaltasun";1;1;1;0,074;1;0,001;1;1;1;0,663
"apal";1;1;1;1;1;1;1;1;0,184;1
"altxatu";1;1;1;1;1;1;1;1;1;0,07
"alferrikako";1;1;1;1;1;1;1;1;0,895;0,663
"aituzkan";1;1;1;1;1;1;1;1;0,184;1
"ahaztu";1;1;1;1;1;1;1;1;0,895;0,663
"agian";1;1;1;0,074;1;1;1;1;1;0,663
"adulteriorik";1;1;1;0,074;1;0,001;1;1;1;1
"adoretu";1;1;1;1;1;1;1;1;0,184;1
"adina";1;1;1;1;1;1;1;1;0,184;1
"adibidez";1;1;1;1;1;0,001;1;1;0,895;1
"*Tx_1Ko_15_23";1;1;1;1;0;1;1;1;1;0,359
"*Tx_1Ko_15_27";1;1;1;1;1;1;1;1;1;0,359
"*Tx_Ga_3_1";0;1;1;1;1;1;1;1;1;0,359
"*Tx_Ga_3_2";1;1;1;1;1;1;1;1;1;0,359
"*Tx_1Ko_15_29";1;1;1;1;1;1;1;1;1;0,009
"*Tx_1Ko_15_28";1;1;1;1;1;1;1;1;0,278;1
"*Tx_Ga_3_8";1;1;1;1;1;1;1;1;1;0,07
"*Tx_Ga_3_9";1;1;1;1;1;1;1;1;1;0,001
"*Tx_Erm_12_21";1;1;1;1;0;0,005;1;1;1;1
"*Tx_Erm_12_20";1;1;1;1;1;1;1;1;0,278;1
"*Tx_2Ko_4_18";1;1;1;1;1;1;1;1;1;0,359
"*K_Tt_2";1;0,007;1;1;1;0,006;1;1;0,921;1
"*Tx_2Ko_4_16";1;1;1;1;1;1;1;1;1;0,359
"*Tx_2Ko_4_15";1;1;1;1;1;1;1;1;0,278;1
"*Tx_1Ko_3_20";1;1;1;1;1;1;1;1;0,278;1
"*Tx_Tt_1_6";1;1;1;1;1;1;1;1;0,278;1
"*Tx_Tt_1_7";1;1;1;1;1;1;1;1;0,278;1
"*Tx_Tt_1_4";1;1;1;0,017;0;1;1;1;1;1
"*Tx_Tt_1_5";1;1;1;1;1;1;1;1;0,278;1
"*Tx_Erm_2_17";1;1;1;1;1;1;1;1;1;0,359
"*K_1Ts_4";1;1;1;1;1;1;1;1;0,114;1
"*Tx_Erm_2_12";1;1;1;1;1;1;1;1;1;0,009
"*Tx_Tt_3_8";1;1;1;1;1;1;1;1;0,278;1
"*Tx_2Ko_6_14";1;1;1;1;1;1;1;1;1;0,359
"*Tx_2Ko_6_16";1;1;1;1;1;1;1;1;1;0,013
"*Tx_2Ko_6_10";1;1;1;1;1;1;1;1;0,184;1
"*Tx_Ga_2_12";1;1;1;1;1;1;1;1;0,278;1
"*Tx_2Ko_6_13";1;1;1;1;1;1;1;1;0,278;1
"*Tx_Ga_5_6";1;1;1;1;0;1;1;1;1;1
"*Tx_Flp_2_27";1;1;1;1;1;1;1;1;0,278;1
"*Tx_Ga_5_2";1;1;1;0,017;1;1;1;1;1;1
"*Tx_Ga_5_1";1;1;1;1;1;1;1;1;1;0,359
"*K_Erm_16";1;1;1;0;0,371;0,928;1;1;1;1
"*Tx_Erm_4_18";1;1;1;1;1;1;1;1;1;0,001
"*Tx_Ga_1_9";1;1;1;1;1;1;1;1;0,278;1
"*Tx_Ef_5_28";1;1;1;1;1;0;1;1;1;1
"*Tx_2Ko_11_29";1;1;1;1;1;1;1;1;0,278;1
"*Tx_1Tm_5_24";1;1;0;1;1;1;1;1;1;1
"*Tx_1Tm_5_25";1;1;1;1;1;1;1;1;0,278;1
"*Tx_Erm_4_12";1;1;1;1;1;1;1;1;1;0,07
"*Tx_Erm_4_13";1;1;1;1;1;1;1;1;1;0,009
"*Tx_Ga_1_7";1;1;1;1;1;1;1;1;0,278;1
"*Tx_Erm_4_16";1;1;1;1;1;1;1;1;1;0,359
"*Tx_Erm_4_17";1;1;1;1;1;1;1;1;1;0
"*K_Erm_11";1;1;1;0,999;1;0;1;1;1;0,011
"*Tx_2Ko_3_6";1;1;1;1;1;1;1;1;1;0,359
"*Tx_2Ko_3_3";1;1;1;1;1;1;1;1;0,278;1
"*Tx_1Ts_4_15";1;1;1;1;1;1;1;1;1;0,359
"*Tx_2Ko_3_1";1;1;1;1;1;1;1;1;0,278;1
"*Tx_1Ts_4_17";1;1;1;1;1;1;1;1;0,278;1
"*Tx_2Ko_1_9";1;1;1;1;1;1;1;1;1;0,359
"*Tx_2Ko_1_8";1;1;1;0,017;1;1;1;1;1;1
"*L_Korintoarrei1";0,005;0;1;1;1;0,008;0,252;1;1;0,299
"*L_Korintoarrei2";1;1;0,575;1;1;1;0,001;1;0;1
"*Tx_2Tm_4_17";1;1;1;1;1;1;1;1;0,278;1
"*Tx_2Tm_4_16";1;1;1;1;1;1;1;1;0,278;1
"*Tx_2Tm_4_14";1;1;1;1;1;1;1;1;1;0,359
"*Tx_2Ko_1_6";1;1;1;1;1;1;1;1;0,278;1
"*Tx_1Ko_7_16";1;1;1;0;1;1;1;1;1;1
"*Tx_Erm_10_21";1;1;1;1;1;1;1;1;1;0,001
"*Tx_2Ko_7_9";1;1;1;1;1;1;1;1;0,125;1
"*Tx_1Ko_7_15";1;1;1;1;1;1;1;1;1;0,009
"*Tx_1Ko_7_12";1;1;1;1;1;0;1;1;1;0,359
"*Tx_1Ko_7_11";1;1;1;1;1;0;1;1;1;1
"*Tx_2Ko_7_3";1;1;1;1;1;1;1;1;1;0,359
"*Tx_2Ko_7_7";1;1;1;1;1;1;1;1;0,184;1
"*Tx_2Ko_7_5";1;1;1;1;1;1;1;1;0,895;0,663
"*Tx_2Ko_7_4";1;1;1;1;1;1;1;1;0,278;1
"*Tx_2Ko_7_11";1;1;1;1;1;1;1;1;0,125;1
"*Tx_2Ko_7_10";1;1;1;1;1;1;1;1;0,278;1
"*Tx_2Tm_2_17";1;1;1;1;1;1;1;1;0,443;1
"*Tx_1Ko_16_12";1;1;1;1;1;1;1;0;1;1
"*Tx_Erm_10_19";1;1;1;1;1;1;1;0;1;1
"*Tx_1Ko_14_15";1;1;1;1;1;1;1;1;0,278;1
"*Tx_2Tm_2_19";1;1;1;1;1;1;1;1;0,278;1
"*Tx_1Ko_16_19";1;1;1;0;1;1;1;1;1;1
"*Tx_1Ko_11_25";1;1;1;1;1;1;1;1;1;0,07
"*Tx_1Ko_11_24";1;1;1;1;1;1;1;1;0,443;1
"*Tx_Erm_3_10";1;1;1;1;1;1;1;1;0,644;0,715
"*Tx_1Ko_11_22";1;1;1;0,074;1;1;1;1;0,895;1
"*Tx_Erm_13_11";1;1;1;1;1;1;1;1;0,278;1
"*Tx_Erm_13_10";1;1;1;1;1;0;1;1;1;0,663
"*Tx_Erm_13_12";1;1;1;1;1;1;1;1;0,278;1
"*Tx_2Ko_12_7";1;1;1;1;1;1;1;1;0,278;1
"*Tx_Ef_4_26";1;1;1;1;1;1;1;1;1;0,359
"*Tx_Ef_4_29";1;1;1;1;1;0;1;1;1;1
"*Tx_2Ko_12_20";1;1;1;1;1;1;1;1;0,278;1
"*Tx_2Ko_9_11";1;1;1;1;1;1;1;1;0,278;1
"*Tx_Erm_15_27";1;1;1;1;1;1;1;1;0,278;1
"*Tx_Erm_15_24";1;1;1;0,017;1;1;1;1;1;1
"*Tx_Erm_10_15";1;1;1;1;1;1;1;1;0,278;1
"*Tx_2Ts_2_3";1;1;0;1;1;1;1;1;1;1
"*Tx_2Ko_2_10";1;1;1;1;1;1;1;1;1;0,009
"*Tx_Erm_11_33";1;1;1;1;1;1;1;1;0,619;0,916
"*Tx_2Ko_2_16";1;1;1;1;1;1;1;1;0,184;1
"*Tx_2Ts_2_8";1;1;1;1;1;1;1;1;0,278;1
"*Tx_1Tm_1_5";1;1;1;1;1;1;1;1;0,278;1
"*Tx_1Tm_1_4";1;1;1;1;1;1;1;1;0,278;1
"*Tx_1Tm_1_3";1;0;1;1;1;1;1;1;1;1
"*Tx_1Ko_11_6";1;1;1;1;1;0;1;1;1;1
"*Tx_Erm_8_6";1;1;1;1;1;1;1;1;0,278;1
"*L_Filemoni";1;1;1;0;0,002;1;1;1;1;1
"*Tx_1Ts_1_8";1;1;1;1;1;1;1;1;0,278;1
"*Tx_1Ts_1_5";1;1;1;1;1;1;1;1;0,278;1
"*Tx_Kol_4_16";1;1;1;0;1;1;1;1;1;1
"*Tx_Flp_1_17";1;1;1;1;1;1;1;0;1;1
"*Tx_Kol_4_11";1;1;1;0,017;1;1;1;1;1;1
"*Tx_Flp_1_15";1;1;1;1;1;1;1;1;0,278;1
"*Tx_Kol_1_27";1;1;1;1;1;1;1;1;0,278;1
"*Tx_Kol_1_24";1;1;1;1;1;1;1;1;0,278;1
"*Tx_Kol_1_23";1;1;1;1;1;1;1;1;0,278;1
"*Tx_1Ko_12_12";1;1;1;1;1;1;1;1;1;0,009
"*Tx_1Ko_12_10";1;0;1;1;1;1;1;1;1;0,663
"*Tx_1Ko_12_17";1;1;1;1;1;1;1;1;1;0,009
"*K_1Tm_5";1;1;0,002;0;1;1;1;0,029;1;1
"*Tx_Kol_2_18";1;1;1;1;1;1;1;0;1;1
"*Tx_Erm_5_8";1;1;1;1;1;1;1;1;1;0,009
"*Tx_Erm_5_7";1;1;1;1;1;1;1;1;1;0,359
"*K_1Tm_4";1;1;0,081;0,547;1;1;1;1;0,055;1
"*Tx_Kol_2_11";1;1;1;1;1;1;1;1;1;0,009
"*Tx_Erm_5_3";1;1;1;1;1;1;1;1;0,278;1
"*Tx_Erm_5_2";1;1;1;1;1;1;1;1;1;0,359
"*K_1Tm_3";1;1;1;0,007;1;1;1;1;0,249;1
"*K_1Tm_2";0;1;1;1;1;0,361;1;1;0,319;1
"*Tx_1Tm_2_14";0;1;1;1;1;1;1;1;1;0,359
"*Tx_Erm_7_8";1;1;1;1;1;1;1;1;1;0,009
"*Tx_Erm_9_15";1;1;1;0,017;1;1;1;1;1;0,359
"*K_1Tm_6";1;1;0;0,751;1;1;1;1;0,276;1
"*Tx_Erm_9_13";1;1;1;1;1;1;1;1;0,895;0,663
"*Tx_2Ko_6_12";1;1;1;1;1;1;1;1;0,278;1
"*K_1Tm_1";1;0;1;0,799;0,001;1;1;1;0,709;1
"*Tx_Erm_7_3";1;1;1;1;1;0;1;1;1;1
"*Tx_1Ko_12_8";1;1;1;1;1;1;1;1;1;0,359
"*Tx_Erm_7_7";1;1;1;1;1;1;1;1;1;0,07
"*Tx_Erm_7_6";1;1;1;1;1;1;1;1;1;0,009
"*Tx_1Ts_5_8";1;1;1;1;1;1;1;1;0,278;1
"*Tx_1Ko_1_21";1;1;1;1;1;1;1;1;0,278;1
"*Tx_1Ko_1_20";1;1;1;1;1;1;1;1;0,278;1
"*Tx_1Ts_5_5";1;1;1;1;1;1;1;1;0,278;1
"*Tx_Erm_1_7";1;1;1;0,017;0;1;1;1;1;1
"*Tx_Erm_1_4";1;1;1;1;1;1;1;1;1;0,359
"*Tx_Erm_9_17";1;1;1;1;1;1;1;1;1;0,359
"*Tx_Erm_9_1";1;1;1;1;1;1;1;1;1;0,359
"*Tx_Erm_9_7";1;1;1;1;1;1;1;1;1;0,009
"*Tx_Erm_9_5";1;1;1;1;0;1;1;1;1;1
"*Tx_Erm_9_4";1;1;1;1;1;1;1;1;1;0,009
"*Tx_Erm_9_9";1;1;1;0,017;1;1;1;1;1;1
"*Tx_Ga_3_16";1;1;1;1;1;1;1;1;1;0,009
"*Tx_1Ko_10_29";1;1;1;1;1;1;1;1;0,278;1
"*Tx_Ga_3_15";1;1;1;1;1;1;1;1;0,278;1
"*Tx_Ga_3_12";1;1;1;1;1;1;1;1;1;0,002
"*Tx_Ga_3_10";1;1;1;1;1;1;1;1;1;0,001
"*Tx_Ga_3_11";1;1;1;1;1;1;1;1;1;0,359
"*Tx_1Ko_10_20";1;1;1;1;1;1;1;1;0,278;1
"*Tx_1Ko_10_21";1;1;1;1;1;1;1;1;0,278;1
"*Tx_1Ko_10_22";1;1;1;1;1;1;0;1;1;1
"*Tx_1Ko_10_23";1;1;1;0;1;1;1;1;1;1
"*Tx_2Ko_8_5";1;1;1;1;1;1;1;1;0,278;1
"*Tx_Ga_3_18";1;1;1;1;1;1;1;1;1;0,009
"*Tx_2Ko_8_7";1;1;1;1;1;1;1;1;0,278;1
"*Tx_Flp_4_21";1;1;1;0;1;1;1;1;1;1
"*Tx_Ef_2_17";1;1;1;1;1;1;1;1;0,278;1
"*Tx_Ef_2_14";1;1;1;1;0;1;1;1;1;0,359
"*Tx_Ef_2_12";1;1;1;1;1;1;1;1;1;0,009
"*Tx_1Ko_7_40";1;1;1;1;1;1;1;1;1;0,359
"*Tx_Ef_2_10";1;1;1;1;1;1;1;1;0,278;1
"*Tx_Erm_5_14";0;1;1;1;1;1;1;1;1;0,663
"*Tx_2Ko_2_4";1;1;1;1;1;1;1;1;0,278;1
"*Tx_Erm_7_2";1;1;1;1;1;0;1;1;1;1
"*Tx_2Ko_2_3";1;1;1;1;1;1;1;1;0,895;0,663
"*K_Erm_3";1;1;1;1;1;1;1;1;1;0,063
"*K_Erm_2";1;1;1;1;1;1;1;1;1;0,004
"*K_Erm_1";1;1;0,452;1;0,517;1;1;0,13;0,048;1
"*Tx_2Tm_2_20";1;1;1;1;1;1;1;1;1;0,359
"*K_Erm_6";1;1;1;1;1;1;1;1;1;0
"*K_Erm_5";0,013;1;1;1;1;1;1;1;1;0
"*Tx_2Ko_2_9";1;1;1;1;1;1;1;1;1;0,359
"*Tx_2Tm_2_9";1;1;1;1;1;1;1;1;1;0,359
"*Tx_Erm_3_4";1;1;1;1;1;1;1;1;0,895;0,663
"*Tx_Erm_3_1";1;1;1;1;1;0;1;1;1;1
"*Tx_Erm_3_3";1;1;1;0,017;1;1;1;1;1;1
"*Tx_Erm_9_18";1;1;1;1;1;1;1;1;0,278;1
"*Tx_Erm_3_9";1;1;1;1;1;1;1;1;0,278;1
"*Tx_Erm_3_8";1;1;1;1;1;1;1;1;0,184;1
"*Tx_2Ko_6_2";1;1;0;0,017;1;1;1;1;1;1
"*Tx_1Ko_9_20";1;1;1;1;1;1;1;1;1;0,359
"*Tx_Erm_16_25";1;1;1;1;1;1;1;1;0,278;1
"*Tx_2Tm_4_8";1;1;1;1;1;1;1;1;0,278;1
"*Tx_Erm_16_23";1;1;1;0;1;1;1;1;1;1
"*Tx_1Ko_9_24";1;1;1;1;1;1;1;1;0,278;1
"*Tx_Erm_16_20";1;1;1;1;0;1;1;1;1;1
"*Tx_2Tm_4_3";1;1;1;1;1;1;1;1;0,278;1
"*Tx_2Ko_6_8";1;1;1;1;1;1;1;1;0,278;1
"*Tx_2Ko_6_9";1;1;1;1;1;1;1;1;0,278;1
"*Tx_1Ko_5_10";1;1;1;0,017;1;1;1;1;1;1
"*Tx_2Tm_4_6";1;1;1;1;1;1;1;1;0,278;1
"*Tx_1Ts_2_2";1;1;0;1;1;1;1;1;1;1
"*Tx_2Ko_4_8";1;1;1;1;1;1;1;1;0,278;1
"*Tx_2Ko_4_9";1;1;1;1;1;1;1;1;0,278;1
"*Tx_2Ko_4_2";1;1;1;1;1;1;1;1;0,184;1
"*Tx_1Ko_3_18";1;1;0;1;1;1;1;1;1;1
"*Tx_1Ko_3_19";1;1;1;1;1;1;1;1;1;0,359
"*Tx_Flp_4_18";1;1;1;1;1;1;1;1;0,184;1
"*Tx_1Ko_3_10";1;1;1;1;1;1;1;1;0,184;1
"*Tx_1Ko_3_11";1;1;1;1;1;1;1;1;0,278;1
"*Tx_Flp_4_10";1;1;1;1;1;1;1;1;0,278;1
"*Tx_Flp_4_12";1;1;1;1;1;1;1;1;0,184;1
"*Tx_1Ko_3_15";1;1;1;1;1;1;1;1;0,278;1
"*Tx_1Ts_5_3";1;1;1;1;0;1;1;1;1;1
"*Tx_Erm_13_1";1;1;1;1;1;1;1;1;0,278;1
"*Tx_Erm_4_11";1;1;1;1;1;1;1;1;1;0,001
"*Tx_Erm_4_2";1;1;1;1;1;1;1;1;1;0,359
"*Tx_1Ko_1_26";1;1;1;1;1;1;1;1;0,278;1
"*Tx_1Ko_1_10";1;1;1;1;1;1;1;1;0,184;1
"*Tx_1Ko_1_12";1;1;1;1;1;1;1;1;1;0,359
"*Tx_1Ko_1_13";1;1;1;1;1;1;1;1;0,895;0,663
"*Tx_1Tm_2_6";1;1;1;1;1;1;1;1;0,278;1
"*Tx_1Ko_1_18";1;1;1;1;1;1;1;1;1;0,359
"*Tx_1Ko_1_19";1;1;1;1;1;1;1;1;1;0,359
"*Tx_Flp_2_25";1;1;1;0;1;1;1;1;1;1
"*Tx_1Ko_7_34";1;1;1;1;1;0;1;1;1;1
"*Tx_2Ko_5_11";1;1;1;1;1;1;1;1;0,278;1
"*Tx_2Ko_5_12";1;1;1;1;1;1;1;1;0,184;1
"*Tx_2Ko_5_17";1;1;1;1;1;1;1;1;0,278;1
"*Tx_2Ko_5_16";1;1;1;1;1;1;1;1;0,278;1
"*Tx_1Ko_8_7";1;1;1;1;1;1;1;1;0,278;1
"*Tx_1Ko_8_4";1;1;1;1;1;1;1;1;0,278;1
"*Tx_1Ko_8_1";1;1;1;1;1;1;1;1;0,184;1
"*Tx_2Ko_9_2";1;1;1;1;1;1;1;1;1;0,359
"*Tx_2Ko_9_5";1;1;1;0,017;1;1;1;1;1;1
"*Tx_2Ko_9_4";1;1;1;1;1;1;1;1;0,278;1
"*Tx_1Ko_6_18";1;1;1;1;1;1;1;1;1;0,009
"*L_Galaziarrei";0,161;1;1;1;0,11;1;1;0,086;1;0
"*L_Filipostarrei";1;1;1;0,359;0,193;1;1;0,104;0,038;1
"*Tx_1Ko_15_39";1;1;1;1;1;0;1;1;1;1
"*Tx_1Ko_14_22";1;0;1;1;1;1;1;1;1;1
"*Tx_1Ko_15_35";1;1;1;1;1;1;1;1;1;0,359
"*K_Erm_15";1;1;0,027;1;1;1;1;1;0,687;1
"*K_Erm_14";1;1;1;1;1;0,341;1;1;0,792;0,273
"*K_Erm_13";1;1;0,133;0,255;1;0;1;1;1;1
"*K_Erm_12";1;1;0,331;1;0,388;0,266;1;1;0,028;1
"*Tx_1Ko_15_32";1;1;1;1;1;1;1;1;1;0,359
"*K_Erm_10";1;1;1;1;1;1;1;0,088;0,984;0,091
"*Tx_1Ko_4_3";1;1;1;1;1;1;1;1;1;0,359
"*L_Kolosarrei";1;1;0,007;0,031;1;1;1;0,065;1;1
"*Tx_1Ko_4_7";1;1;1;1;1;1;1;1;0,895;0,663
"*Tx_1Ko_4_5";1;1;1;1;1;1;1;1;0,184;1
"*Tx_1Ko_4_4";1;1;1;1;1;1;1;1;0,278;1
"*Tx_1Ko_4_9";1;1;1;1;1;1;1;1;0,278;1
"*Tx_1Ko_4_8";1;1;1;1;1;1;1;1;0,278;1
"*K_1Ko_14";1;0;1;0,294;1;1;1;1;1;1
"*K_1Ko_15";0;1;1;1;0,965;1;0,361;1;1;0
"*K_1Ko_16";1;1;1;0;0,269;1;1;0,038;1;1
"*Tx_Erm_4_22";1;1;1;1;1;1;1;1;1;0,009
"*K_1Ko_10";1;1;1;1;1;1;0,096;1;0,62;0,596
"*K_1Ko_11";1;1;1;0,211;1;0;1;1;1;1
"*K_1Ko_12";1;0;1;1;1;1;1;1;1;0
"*K_1Ko_13";1;1;1;1;1;1;1;1;0,184;1
"*Tx_1Tm_5_11";1;1;1;0,017;1;1;1;1;1;1
"*Tx_1Ko_6_7";1;1;1;1;1;1;1;1;0,278;1
"*Tx_2Tm_4_21";1;1;1;0,017;1;1;1;1;1;1
"*Tx_1Ko_6_3";1;1;1;0,017;1;1;1;1;1;1
"*Tx_1Ko_6_2";1;1;1;1;1;1;1;1;0,278;1
"*Tx_1Tm_6_5";1;1;0;1;1;1;1;1;0,895;1
"*Tx_1Tm_6_2";1;1;1;1;1;1;1;1;0,278;1
"*Tx_2Ko_8_9";1;1;1;1;1;1;1;1;0,278;1
"*Tx_1Ko_10_18";1;1;1;1;1;1;1;1;1;0,359
"*Tx_1Tm_4_8";1;1;1;1;1;1;1;1;0,278;1
"*K_1Ko_6";1;1;1;1;1;1;1;1;1;0,001
"*K_1Ko_7";0;1;1;1;1;0;1;1;1;0,339
"*K_1Ko_4";1;1;0,331;0,332;1;1;1;1;0,133;1
"*K_1Ko_5";1;1;1;0,494;1;0,023;1;1;1;0,612
"*K_1Ko_2";1;1;1;1;1;1;0,004;1;0,055;1
"*K_1Ko_3";1;1;0,3;1;0,354;1;1;1;0,102;1
"*K_1Ko_1";1;1;1;1;0,502;1;0,102;1;1;0,24
"*K_1Ko_8";1;1;1;1;1;1;1;1;0,073;1
"*K_1Ko_9";1;1;1;1;1;1;0,122;1;0,013;1
"*Tx_Erm_4_6";1;1;1;1;1;1;1;1;1;0,001
"*Tx_1Ko_11_34";1;1;1;0,017;1;1;1;1;1;1
"*Tx_Erm_4_3";1;1;1;1;1;1;1;1;1;0,009
"*Tx_Erm_8_13";1;1;1;1;1;1;1;1;1;0,359
"*Tx_Ga_3_21";1;1;1;1;1;1;1;1;1;0,359
"*Tx_Erm_4_9";1;1;1;1;1;1;1;1;1;0,359
"*Tx_Erm_6_1";1;1;1;1;1;1;1;1;1;0,359
"*Tx_1Ko_10_13";1;1;1;1;1;1;1;1;0,184;1
"*Tx_1Ko_10_16";1;1;1;1;1;1;1;1;1;0,009
"*Tx_Erm_6_9";1;1;1;1;1;1;1;1;1;0,359
"*Tx_1Ts_4_3";1;1;1;1;1;1;1;1;0,278;1
"*Tx_1Ko_2_6";1;1;1;1;1;1;1;1;0,278;1
"*Tx_Ga_3_19";1;1;1;1;1;1;1;1;1;0,359
"*Tx_Erm_15_19";1;1;1;1;1;1;1;1;0,278;1
"*Tx_1Ko_12_28";1;0;1;0,074;1;1;1;1;1;1
"*L_Erromatarrei";1;1;1;1;1;0,204;1;1;1;0
"*Tx_Erm_15_12";1;1;1;0,017;1;1;1;1;1;1
"*Tx_Erm_15_11";1;1;1;1;1;1;1;1;1;0,009
"*Tx_1Ts_4_1";1;1;1;1;1;1;1;1;0,278;1
"*Tx_Erm_15_16";1;1;1;1;1;1;1;1;0,895;0,663
"*Tx_1Tm_4_12";1;1;1;0,017;1;1;1;1;1;1
"*Tx_1Ko_12_26";1;1;1;1;1;1;1;1;1;0,009
"*Tx_1Tm_4_16";1;1;1;1;1;1;1;1;0,278;1
"*Tx_1Tm_4_14";1;1;1;0,017;1;1;1;1;1;1
"*Tx_Ga_1_10";1;1;1;1;1;1;1;1;0,184;1
"*Tx_Ga_1_13";1;1;1;1;1;1;1;1;0,278;1
"*Tx_1Ko_9_18";1;1;1;1;1;1;1;1;0,278;1
"*Tx_1Ko_9_10";1;1;1;1;1;1;1;1;1;0,07
"*Tx_1Ko_9_12";1;1;1;1;1;1;1;1;0,184;1
"*Tx_Erm_1_13";1;1;1;1;1;1;1;1;0,184;1
"*Tx_1Ko_9_15";1;1;1;1;1;1;1;1;0,895;0,663
"*Tx_1Ko_9_16";1;1;1;1;1;1;1;1;0,278;1
"*Tx_Erm_1_10";1;1;1;1;1;1;1;1;0,278;1
"*K_Flp_3";1;1;1;1;1;1;1;0,034;1;0,101
"*K_Flp_2";1;1;1;0,936;1;0,722;1;1;0,046;1
"*K_Flp_1";1;1;1;1;0,354;1;1;0,064;0,046;1
"*K_Flp_4";1;1;1;0,001;0,009;1;1;1;0,757;1
"*Tx_2Tm_1_5";1;1;1;1;1;1;1;1;0,278;1
"*Tx_Erm_2_9";1;1;1;1;1;1;1;1;1;0,359
"*Tx_2Ko_10_7";1;1;1;1;1;1;1;1;0,443;1
"*Tx_2Ko_10_8";1;1;1;0,017;1;1;1;1;1;1
"*Tx_2Ko_8_23";1;1;1;0;1;1;1;1;1;1
"*Tx_2Ko_8_22";1;1;1;0,017;1;1;1;1;1;1
"*Tx_2Tm_1_8";1;1;1;0,074;1;1;1;1;0,895;1
"*Tx_Erm_7_14";1;1;1;1;1;1;0;1;1;0,359
"*Tx_2Tm_3_2";1;1;1;0,017;1;1;1;0;1;1
"*Tx_2Ko_12_5";1;1;1;1;1;1;1;1;0,278;1
"*K_2Ko_9";1;1;1;1;1;1;1;1;0,055;1
"*Tx_Erm_7_10";1;1;1;1;1;1;1;1;1;0,009
"*Tx_Erm_7_13";1;1;1;1;1;1;1;1;1;0,07
"*K_2Ko_5";1;1;1;1;1;1;1;1;0,013;1
"*K_2Ko_4";1;1;1;1;1;1;1;1;0,077;1
"*K_2Ko_7";1;1;1;1;1;1;1;1;0;1
"*K_2Ko_6";1;1;0,177;1;1;1;1;1;0,14;1
"*K_2Ko_1";1;1;0,315;0,09;0,371;0,928;1;1;1;1
"*K_2Ko_3";1;1;1;1;1;1;1;1;1;0,093
"*K_2Ko_2";1;1;1;1;1;1;1;1;0,077;1
"*Tx_Flp_1_27";1;1;1;1;1;1;1;1;0,184;1
"*Tx_Erm_2_22";1;1;1;1;1;1;1;1;0,278;1
"*Tx_Erm_8_30";1;1;1;1;1;1;1;1;1;0,009
"*Tx_Erm_8_31";1;1;1;1;1;1;1;1;1;0,359
"*Tx_Flp_1_28";1;1;1;1;1;1;1;1;1;0,359
"*Tx_Erm_8_35";1;1;1;1;1;1;1;1;0,278;1
"*Tx_1Ts_3_6";1;1;1;1;1;1;1;1;0,278;1
"*Tx_1Ts_3_3";1;1;1;1;1;1;1;1;0,278;1
"*Tx_Erm_8_3";1;1;1;1;1;1;1;1;0,278;1
"*Tx_2Ko_13_11";1;1;1;1;1;1;1;1;0,184;1
"*Tx_2Tm_4_10";1;1;1;0,017;1;1;1;1;1;1
"*Tx_1Ts_3_9";1;1;1;1;1;1;1;1;0,278;1
"*Tx_Erm_8_7";1;1;1;1;1;1;1;0;1;1
"*Tx_Erm_8_5";1;1;1;1;1;1;1;1;0,278;1
"*Tx_Erm_5_13";1;1;1;1;1;1;1;1;1;0,009
"*Tx_Erm_5_12";1;1;1;1;1;1;1;1;1;0,009
"*Tx_Erm_5_16";1;1;1;1;1;1;1;1;1;0,001
"*Tx_1Ts_2_18";1;1;1;1;1;1;1;1;0,278;1
"*Tx_1Ts_2_19";1;1;1;1;1;1;1;1;0,278;1
"*Tx_1Ts_2_16";1;1;1;1;1;1;1;1;0,895;0,663
"*Tx_1Ts_2_14";1;1;1;0,017;1;1;1;1;1;1
"*Tx_1Ts_2_13";1;1;1;1;1;1;1;1;0,125;1
"*Tx_Ga_4_31";1;1;1;0,017;1;1;1;1;1;0,359
"*Tx_Ga_4_30";1;1;1;0,017;1;1;1;1;1;0,359
"*Tx_Erm_12_2";1;1;1;1;1;1;1;1;0,278;1
"*Tx_Erm_2_29";1;1;1;1;1;1;1;1;1;0,359
"*Tx_Erm_9_20";1;1;1;1;1;1;1;1;0,278;1
"*Tx_Erm_9_27";1;1;1;1;1;1;1;1;1;0,07
"*Tx_Erm_9_29";1;1;1;1;1;1;1;1;0,278;1
"*Tx_1Tm_6_10";1;1;1;0,017;1;1;1;1;1;1
"*K_Erm_9";1;1;1;1;0,533;1;1;1;1;0,179
"*Tx_1Ko_9_7";1;1;1;1;1;1;1;1;0,895;0,663
"*K_Erm_8";1;1;1;1;1;1;1;0,182;1;0,005
"*Tx_1Ko_7_18";0;1;1;1;1;1;1;1;1;0,359
"*Tx_2Ko_11_23";1;1;1;1;1;1;0;1;0,895;1
"*Tx_1Ko_9_1";1;1;1;1;1;1;1;1;0,278;1
"*Tx_2Ko_11_21";1;1;1;1;1;1;1;1;0,278;1
"*Tx_2Ko_7_14";1;1;1;1;1;1;1;1;0,278;1
"*Tx_2Ko_7_13";1;1;1;1;1;1;1;1;0,278;1
"*Tx_1Ko_9_8";1;1;1;1;1;1;1;1;0,278;1
"*Tx_1Ko_9_9";1;1;1;1;1;1;1;1;1;0,359
"*Tx_Erm_10_18";1;1;1;1;1;1;1;1;0,184;1
"*Tx_1Ko_7_39";1;1;1;1;1;0;1;1;1;0,359
"*Tx_Ga_2_20";1;1;1;1;1;1;1;1;1;0,359
"*Tx_Ga_2_21";1;1;1;1;1;1;1;1;1;0,359
"*Tx_1Ko_7_30";1;1;1;1;1;1;1;1;0,278;1
"*Tx_1Ko_7_31";1;1;1;1;1;1;1;1;0,278;1
"*Tx_1Ko_7_32";1;1;1;1;1;1;1;1;1;0,359
"*Tx_Erm_10_13";1;1;1;1;1;1;1;1;0,184;1
"*Tx_Erm_10_14";1;1;1;1;1;1;1;1;0,184;1
"*Tx_1Ko_7_35";1;1;1;1;1;1;1;1;0,278;1
"*Tx_Erm_10_16";1;1;1;1;1;1;1;1;0,278;1
"*Tx_Ga_5_14";1;1;1;1;1;0;1;1;1;0,359
"*Tx_Ga_5_15";1;1;1;1;1;0;1;1;1;1
"*Tx_Ef_6_18";1;1;1;1;1;1;1;1;0,278;1
"*Tx_Ga_5_17";1;1;1;1;1;1;1;0;1;1
"*Tx_Ga_5_10";1;1;1;1;1;1;1;1;0,278;1
"*Tx_Ga_5_11";1;1;1;1;1;1;1;1;1;0,359
"*Tx_Ga_5_13";1;1;1;1;1;1;1;1;0,184;1
"*Tx_2Ko_1_14";1;1;1;1;1;1;1;1;0,278;1
"*Tx_2Ko_1_17";1;1;1;1;1;1;1;1;0,278;1
"*Tx_2Ko_1_11";1;1;1;1;1;0;1;1;1;1
"*Tx_2Ko_1_10";1;1;1;1;1;1;1;1;0,278;1
"*Tx_1Ko_12_9";1;1;1;1;1;1;1;1;0,278;1
"*Tx_2Ko_1_12";1;1;0;1;1;1;1;1;0,895;1
"*Tx_2Ko_11_27";1;1;1;1;1;1;1;1;0,278;1
"*K_Erm_7";1;1;1;1;1;0,002;0;1;1;0
"*Tx_1Ko_12_3";1;1;1;1;1;1;1;1;0,278;1
"*Tx_1Ko_7_5";1;1;1;1;1;1;1;1;0,278;1
"*Tx_1Ko_7_7";1;1;1;1;1;1;1;1;0,278;1
"*Tx_1Ko_14_9";1;1;1;1;1;1;1;1;0,278;1
"*Tx_1Ko_14_5";1;0;1;1;1;1;1;1;1;1
"*Tx_1Ko_14_4";1;0;1;0,017;1;1;1;1;1;1
"*Tx_1Ko_14_7";1;1;1;1;1;1;1;1;0,278;1
"*K_Erm_4";1;1;1;1;1;1;1;1;1;0
"*Tx_1Ko_14_1";1;1;1;1;1;1;1;1;0,278;1
"*Tx_1Ko_7_9";1;1;1;1;1;0;1;1;1;1
"*Tx_1Ko_14_3";1;1;1;1;1;1;1;1;0,278;1
"*Tx_1Ko_14_2";1;0;1;1;1;1;1;1;1;1
"*Tx_Kol_2_8";1;1;0;1;1;1;1;1;1;0,359
"*Tx_1Ko_5_1";1;1;1;1;1;0;1;1;1;1
"*Tx_1Ko_7_17";1;1;1;0,017;1;1;1;1;1;1
"*Tx_1Ko_16_2";1;1;1;1;1;1;1;1;0,278;1
"*Tx_Kol_4_9";1;1;1;0,017;1;1;1;1;1;1
"*Tx_1Ko_16_7";1;1;1;1;1;1;1;1;0,278;1
"*Tx_1Ko_16_6";1;1;1;1;1;1;1;1;1;0,359
"*K_Flm_1";1;1;1;0;0,002;1;1;1;1;1
"*Tx_1Ko_6_11";1;1;1;1;1;1;1;1;1;0,066
"*Tx_1Ko_6_13";1;1;1;1;1;1;1;1;1;0,07
"*Tx_1Ko_6_12";1;1;1;1;1;1;1;1;1;0,359
"*Tx_1Ko_6_15";1;1;1;1;1;1;1;1;1;0,009
"*L_Titori";1;0,333;1;1;0,608;0,536;1;1;0,027;1
"*Tx_1Ko_7_14";1;1;1;0,159;1;0;1;1;1;0,916
"*Tx_Ga_4_21";1;1;1;1;1;1;1;1;1;0,009
"*Tx_1Ko_16_15";1;1;1;0,017;1;1;1;1;1;1
"*Tx_1Ko_4_17";1;1;1;0;1;1;1;1;1;1
"*Tx_1Ko_3_9";1;1;1;0;1;1;1;1;1;1
"*Tx_1Ko_4_15";1;1;1;1;1;1;1;1;0,278;1
"*Tx_1Ko_4_13";1;1;1;1;1;1;1;1;0,278;1
"*Tx_1Ko_4_12";1;1;0;1;1;1;1;1;0,895;1
"*Tx_1Ko_4_10";1;1;1;0,017;1;1;1;1;1;1
"*Tx_2Ts_2_13";1;1;1;1;1;1;1;1;1;0,359
"*Tx_1Ko_3_3";1;1;1;1;1;1;1;1;0,184;1
"*Tx_1Ko_3_5";1;1;1;1;1;1;1;1;0,443;1
"*Tx_1Ko_4_19";1;1;1;1;1;1;1;1;0,278;1
"*Tx_2Ts_2_14";1;1;1;1;1;1;1;1;1;0,009
"*Tx_1Ko_9_22";1;1;1;1;1;1;0;1;1;1
"*K_2Ts_1";1;1;0,03;0,285;0,042;1;1;1;1;1
"*K_2Ts_2";1;1;0,069;1;1;1;1;1;0,193;1
"*K_2Ts_3";1;1;1;0,799;0,184;1;1;1;0,038;1
"*Tx_1Ko_5_6";1;1;1;1;1;1;1;1;1;0,359
"*Tx_1Ko_5_7";1;1;1;1;1;1;1;1;1;0,359
"*Tx_1Ko_10_7";1;1;1;1;1;1;1;1;1;0,009
"*Tx_1Ko_9_21";1;1;1;1;1;1;1;1;1;0,359
"*K_Tt_3";1;1;1;1;1;1;1;1;0,171;1
"*Tx_Flp_2_12";1;1;1;1;1;1;1;1;0,184;1
"*Tx_Flp_2_16";1;1;1;1;1;1;1;1;0,278;1
"*Tx_1Ko_9_25";1;1;1;1;1;1;1;1;0,278;1
"*Tx_Erm_16_2";1;1;1;0,017;1;0;1;1;1;1
"*K_Tt_1";1;1;1;1;0,136;1;1;1;0,03;1
"*Tx_Erm_16_4";1;1;1;0,017;1;1;1;1;1;1
"*Tx_Flm_1_19";1;1;1;0,017;1;1;1;1;1;1
"*Tx_Erm_16_7";1;1;1;0,017;1;1;1;1;1;0,359
"*Tx_Erm_7_25";1;1;1;1;1;1;0;1;1;0,07
"*Tx_Flm_1_11";1;1;1;1;1;1;1;1;0,278;1
"*Tx_1Ts_2_9";1;1;1;1;1;1;1;1;0,278;1
"*K_2Tm_2";1;1;1;1;1;1;1;1;0,099;1
"*K_2Tm_3";1;1;1;1;1;1;1;0,008;0,114;1
"*K_2Tm_1";1;1;0,133;0,05;0,168;1;1;1;0,513;1
"*K_2Tm_4";1;1;1;0,13;1;1;1;1;0,086;1
"*K_1Ts_3";1;1;1;1;1;1;1;1;0,015;1
"*Tx_1Ko_9_26";1;1;1;1;1;1;1;1;0,278;1
"*K_1Ts_2";1;1;0,223;1;1;1;1;1;0,003;1
"*Tx_1Ko_15_49";0;1;1;1;1;1;1;1;1;1
"*K_1Ts_1";1;1;1;0,858;1;1;1;1;0,144;1
"*Tx_1Ko_15_41";1;1;1;1;1;0;1;1;1;0,359
"*Tx_1Ko_15_43";1;1;1;1;1;1;0;1;1;0,359
"*Tx_1Ko_15_42";1;1;1;1;1;1;1;1;1;0,009
"*Tx_1Ko_15_45";0;1;1;1;1;1;1;1;1;0,663
"*Tx_1Ko_15_44";1;1;1;1;1;1;1;1;1;0,009
"*Tx_Erm_16_5";1;1;1;0;1;1;1;1;1;1
"*Tx_Ef_6_20";1;1;1;1;1;1;1;1;0,278;1
"*Tx_2Ko_13_9";1;1;1;1;1;1;0;1;1;1
"*Tx_2Ko_13_7";1;1;1;1;1;1;1;1;1;0,359
"*Tx_2Ko_13_5";1;1;1;1;1;1;1;1;0,895;0,663
"*Tx_2Ko_13_4";1;1;0;1;1;1;0;1;1;1
"*Tx_2Ko_13_3";1;1;1;1;1;1;0;1;1;1
"*Tx_2Ko_13_2";1;1;1;1;1;1;1;1;1;0,359
"*Tx_2Ko_13_1";1;1;0;1;1;1;1;1;1;1
"*Tx_1Ko_5_11";1;1;1;0,074;1;1;1;1;1;0,663
"*Tx_1Ko_14_27";1;0;1;1;1;1;1;1;1;1
"*Tx_Erm_11_22";1;1;1;1;1;0,001;1;1;0,895;1
"*Tx_1Ko_14_20";1;1;1;1;1;0,001;1;1;0,895;1
"*Tx_Erm_11_20";1;1;1;1;1;0;1;1;1;1
"*K_Kol_4";1;1;1;0;1;1;1;1;1;1
"*Tx_Erm_11_26";1;1;1;0,074;1;1;1;1;1;0,07
"*K_Kol_2";1;1;0;1;1;1;1;0,034;1;0,101
"*K_Kol_1";1;1;1;0,846;0,201;1;1;1;0,029;1
"*Tx_Erm_11_25";1;1;1;1;1;1;1;1;0,278;1
"*Tx_2Ts_3_8";1;1;1;1;1;1;1;1;0,278;1
"*Tx_2Ts_3_9";1;1;1;1;1;1;1;1;0,278;1
"*Tx_Erm_7_21";1;1;1;1;1;1;1;1;1;0,359
"*Tx_1Ko_6_20";1;1;1;1;1;1;1;1;1;0,009
"*Tx_Erm_11_2";1;1;1;1;1;1;1;1;1;0,009
"*Tx_Erm_11_1";1;1;1;1;1;1;1;1;1;0,009
"*Tx_Erm_11_7";1;1;1;1;1;1;1;1;1;0,359
"*Tx_Erm_11_6";1;1;1;1;1;1;1;1;0,278;1
"*Tx_Erm_11_4";1;1;1;1;1;1;1;1;1;0,358
"*Tx_Kol_2_13";1;1;1;1;1;1;1;1;1;0,009
"*Tx_Erm_11_9";1;1;1;1;1;1;1;1;1;0,359
"*Tx_Erm_11_8";1;1;1;1;1;1;1;1;1;0,001
"*Tx_1Ko_14_36";1;1;1;1;1;1;1;1;0,278;1
"*Tx_Erm_2_1";1;1;1;1;1;1;1;1;0,278;1
"*Tx_Flp_1_7";1;1;1;0,017;1;1;1;1;1;1
"*Tx_Erm_3_29";1;1;1;1;1;1;1;1;1;0,07
"*Tx_1Ko_1_31";1;1;1;1;1;1;1;1;0,895;0,663
"*Tx_2Ko_11_15";1;1;1;1;1;1;1;1;0,278;1
"*K_Ef_2";1;1;1;1;0,235;1;1;1;1;0,007
"*Tx_2Ko_11_16";1;1;1;1;1;1;1;1;0,278;1
"*Tx_Erm_3_20";1;1;1;1;1;1;1;1;1;0,009
"*Tx_2Ko_11_9";1;1;0;0,017;1;1;1;1;1;1
"*Tx_Erm_10_20";1;1;1;1;1;1;1;1;0,895;0,663
"*Tx_2Tm_3_11";1;1;1;1;1;1;1;1;0,278;1
"*Tx_1Tm_1_15";1;0;1;1;1;1;1;1;1;1
"*Tx_2Tm_3_15";1;1;1;1;1;1;1;1;1;0,009
"*Tx_2Ko_11_2";1;1;1;1;1;0;1;1;1;1
"*Tx_2Ko_11_7";1;1;1;1;1;1;1;1;0,278;1
"*K_2Ko_8";1;1;1;0;1;1;1;1;0,757;1
"*Tx_Erm_6_23";1;1;1;1;1;1;1;1;1;0,359
"*Tx_Erm_6_21";1;1;1;1;1;1;1;1;1;0,359
"*Tx_Ef_5_8";1;1;1;1;1;1;1;1;0,184;1
"*Tx_Ef_5_4";1;1;1;1;1;1;1;1;1;1
"*Tx_2Ko_1_20";1;1;1;1;1;1;1;1;1;0,009
"*Tx_2Ko_1_23";1;1;1;1;1;1;1;1;1;0,359
"*Tx_2Tm_1_18";1;1;1;1;1;1;1;1;0,278;1
"*Tx_2Tm_1_10";1;1;1;1;1;1;1;1;0,278;1
"*Tx_2Tm_1_12";1;1;0;1;1;1;1;1;1;1
"*Tx_Flp_4_17";1;1;1;0,017;1;1;1;1;1;1
"*Tx_Erm_1_29";1;1;0;1;1;1;1;1;1;1
"*Tx_Erm_13_9";1;1;1;0,017;1;0;1;1;1;1
"*Tx_Erm_13_4";1;1;1;0,074;1;1;1;1;0,895;1
"*Tx_Erm_1_21";1;1;1;1;1;1;1;1;0,278;1
"*Tx_Erm_1_26";1;1;1;1;1;1;1;1;0,278;1
"*Tx_Erm_1_27";1;1;1;1;1;1;1;1;0,278;1
"*Tx_Erm_13_3";1;1;1;1;1;1;1;1;0,278;1
"*Tx_2Ko_12_9";1;1;1;1;1;1;1;1;0,278;1
"*Tx_1Ko_15_15";1;1;1;1;1;1;1;1;1;0,009
"*Tx_1Ko_11_5";1;1;1;1;1;1;1;1;0,278;1
"*Tx_1Ko_15_10";1;1;1;1;1;1;1;1;0,895;0,663
"*Tx_2Ko_8_10";1;1;1;1;1;1;1;1;0,278;1
"*Tx_2Ko_8_11";1;1;1;1;1;1;1;1;1;0,359
"*Tx_2Ko_8_15";1;1;1;0,017;1;1;1;1;1;0,359
"*Tx_Erm_12_16";1;1;1;1;1;1;1;1;0,184;1
"*Tx_Erm_12_17";1;1;1;1;1;1;1;1;0,278;1
"*Tx_Erm_12_11";1;1;1;1;1;1;1;1;0,278;1
"*Tx_2Ko_11_26";1;1;1;1;1;1;1;1;0,278;1
"*Tx_2Ko_12_18";1;1;1;0,074;1;1;1;1;1;0,663
"*Tx_Erm_12_19";1;1;1;1;1;0,001;1;1;1;0,663
"*Tx_Erm_8_24";1;1;1;1;1;1;1;1;1;0,359
"*Tx_1Ko_15_6";1;1;1;1;1;1;1;1;1;0,359
"*Tx_Erm_8_26";1;1;1;1;1;1;1;1;0,278;1
"*Tx_Erm_8_23";1;1;1;1;1;1;1;1;0,443;1
"*Tx_1Ko_15_3";1;1;1;0,017;1;1;1;1;1;0,359
"*Tx_1Ko_12_31";1;1;1;1;1;1;1;1;0,278;1
"*Tx_Kol_1_9";1;1;1;1;1;1;1;1;0,278;1
"*Tx_1Ko_12_30";1;0;1;1;1;1;1;1;1;1
"*Tx_2Ko_12_14";1;1;1;1;1;1;1;1;0,278;1
"*Tx_Erm_2_21";1;1;1;1;1;1;1;1;0,278;1
"*Tx_Kol_3_5";1;1;1;1;1;1;1;0;1;1
"*Tx_Erm_2_25";1;1;1;1;1;1;1;1;1;0,009
"*Tx_Erm_2_24";1;1;1;1;1;1;1;1;1;0,009
"*Tx_Tt_1_16";1;1;1;1;1;1;1;1;0,184;1
"*Tx_Erm_2_28";1;1;1;1;1;1;1;1;1;0,009
"*K_1Ts_5";1;1;1;1;0,003;1;0,023;1;0,046;1
"*Tx_1Ko_14_21";1;1;1;1;1;1;1;1;1;0,009
"*Tx_Ef_2_8";1;1;1;1;1;1;1;1;1;0,359
"*Tx_1Ko_7_19";0;1;1;1;1;1;1;1;1;0,359
"*Tx_Ef_2_3";1;1;1;1;1;1;1;1;0,895;0,663
"*Tx_Ga_4_27";1;1;1;0,159;1;0,005;1;1;1;0,916
"*Tx_Ga_4_24";1;1;1;1;1;1;1;1;0,895;0,663
"*Tx_Ga_4_22";1;1;1;1;1;1;1;1;1;0,009
"*Tx_Ga_4_23";1;1;1;1;1;0;1;1;1;1
"*Tx_Erm_15_6";1;1;0;1;1;1;1;1;1;0,359
"*Tx_Erm_9_30";1;1;1;1;1;1;1;1;1;0,359
"*Tx_Erm_9_33";1;1;1;1;1;1;1;1;1;0,359
"*Tx_Ga_4_29";1;1;1;1;1;1;1;1;0,278;1
"*Tx_Flp_4_9";1;1;1;1;1;1;1;1;0,278;1
"*Tx_Flp_4_3";1;1;1;0,017;1;1;1;1;1;0,359
"*Tx_Ef_5_33";1;1;1;1;1;0;1;1;1;1
"*Tx_Flp_4_1";1;1;1;1;1;1;1;1;0,278;1
"*Tx_2Ts_3_12";1;1;1;1;1;1;1;1;0,278;1
"*K_Ef_6";1;1;1;1;0,235;1;1;1;0,425;1
"*Tx_1Ko_14_34";1;1;1;0,017;1;1;1;1;1;0,359
"*Tx_Erm_8_9";1;1;1;1;1;1;1;1;0,278;1
"*K_Ef_5";1;1;0,253;1;1;0;1;0,048;1;1
"*K_Ef_4";1;1;0,284;1;1;0,212;1;1;0,661;1
"*Tx_1Ko_2_15";1;1;1;1;1;1;1;1;0,278;1
"*Tx_1Ko_2_14";1;1;1;1;1;1;1;1;0,278;1
"*Tx_1Ko_2_11";1;1;1;1;1;1;1;1;0,278;1
"*Tx_1Ko_2_12";1;1;1;1;1;1;1;1;1;0,359
"*Tx_Erm_15_9";1;1;1;1;1;1;1;1;1;0,07
"*K_Ef_3";1;1;1;1;1;1;1;1;0,016;1
"*Tx_Ga_2_10";1;1;0;1;1;1;1;1;1;1
"*K_Ef_1";1;1;1;1;0,007;1;1;1;0,358;1
"*Tx_Erm_15_21";1;1;1;1;1;1;1;1;1;0,359
"*Tx_Erm_15_3";1;1;0;1;1;1;1;1;1;0,359
"*Tx_Ga_2_14";1;1;1;1;1;1;1;1;1;0,359
"*Tx_Ga_2_17";1;1;1;1;1;1;1;1;1;0,009
"*Tx_Ga_2_16";1;1;1;1;1;1;1;1;1;0,001
"*Tx_1Ko_7_29";1;1;1;1;1;1;1;1;1;0,359
"*Tx_1Ko_7_28";1;1;1;1;1;1;1;1;1;0,07
"*Tx_Ef_6_4";1;1;1;1;1;1;1;1;1;0,359
"*Tx_1Ko_7_23";1;1;1;1;1;1;1;1;1;0,009
"*Tx_Ef_6_9";1;1;1;1;1;1;1;1;0,278;1
"*Tx_1Ko_7_21";1;1;1;1;1;1;1;1;1;0,359
"*Tx_1Ko_7_25";1;1;1;1;1;1;1;1;1;0,359
"*Tx_Ga_5_21";1;1;1;1;1;1;1;1;1;0,359
"*Tx_Erm_8_34";1;1;1;1;1;1;1;1;1;0,009
"*Tx_Erm_14_14";1;1;1;1;1;1;1;1;0,278;1
"*Tx_Erm_14_15";1;1;1;1;1;1;1;1;1;0,359
"*Tx_Erm_14_11";1;1;1;1;1;1;1;1;1;0,001
"*Tx_Erm_5_20";1;1;1;1;1;1;1;1;1;0,009
"*Tx_Kol_3_15";1;1;1;1;1;1;1;1;1;0,359
"*Tx_1Ko_16_20";1;1;1;0;1;1;1;1;1;1
"*Tx_Kol_3_16";1;1;1;1;1;1;1;1;0,184;1
"*Tx_Kol_3_11";1;1;1;1;1;1;1;1;1;0,009
"*Tx_Kol_3_13";1;1;1;1;1;1;1;1;1;0,009
"*Tx_1Ko_11_18";1;1;1;1;1;1;1;1;0,278;1
"*L_Efesoarrei";1;1;0,747;1;0,339;0,001;1;0,847;0,376;1
"*Tx_Ef_4_18";1;1;1;1;1;1;1;1;1;0,359
"*Tx_Erm_5_15";1;1;1;1;1;1;1;1;1;0,009
"*K_Kol_3";1;1;0,253;1;1;0,178;1;0,048;1;0,404
"*Tx_Ef_4_16";1;1;1;1;1;1;1;1;0,278;1
"*Tx_Ef_4_17";1;1;1;0,017;1;1;1;1;1;0,359
"*Tx_Kol_4_12";1;1;1;0,017;1;1;1;1;1;1
"*Tx_1Tm_1_20";1;1;1;1;1;1;1;1;0,278;1
"*Tx_2Ko_2_17";1;1;1;1;1;1;1;1;0,278;1
"*Tx_Ga_4_6";1;1;1;0,017;1;1;1;1;1;1
"*Tx_Erm_10_8";1;1;1;1;1;1;1;1;1;0,194
"*Tx_Ga_4_9";1;1;1;1;1;1;1;1;0,278;1
"*Tx_Erm_10_5";1;1;1;1;1;1;1;1;1;0,009
"*Tx_Ga_6_1";1;1;1;1;1;1;1;1;0,278;1
"*Tx_Erm_1_17";1;1;1;1;1;1;1;1;0,895;0,663
"*Tx_Ga_6_7";1;1;1;0,017;1;1;1;1;1;1
"*Tx_Ga_6_8";1;1;1;1;1;1;1;1;0,278;1
"*Tx_Ga_2_9";1;1;1;1;1;1;1;1;0,278;1
"*Tx_Ga_2_4";1;1;1;0,017;1;1;1;1;1;0,359
"*Tx_Ga_2_2";1;1;1;1;1;1;1;1;0,278;1
"*Tx_2Ts_1_10";1;1;0;1;1;1;1;1;1;0,663
"*Tx_Flm_1_20";1;1;1;0,017;1;1;1;1;1;1
"*Tx_Erm_14_6";1;1;1;1;1;1;1;1;0,184;1
"*Tx_Erm_14_4";1;1;1;1;1;1;1;1;0,895;0,663
"*Tx_Erm_14_5";1;1;1;1;1;0,001;1;1;0,895;1
"*Tx_Erm_14_2";1;1;1;1;1;1;1;1;0,278;1
"*Tx_Ga_5_23";1;1;1;1;1;1;1;1;1;0,359
"*Tx_1Tm_5_13";1;1;1;0,017;1;1;1;1;1;1
"*Tx_Erm_8_15";1;1;1;1;1;1;1;1;1;0,001
"*Tx_Erm_8_17";1;1;1;1;1;1;1;1;1;0,009
"*Tx_1Ko_14_23";1;0;1;1;1;1;1;1;1;1
"*Tx_1Tm_5_18";1;1;1;1;1;1;1;0;1;1
"*Tx_Erm_14_8";1;1;1;1;1;1;1;1;1;0,07
"*Tx_Erm_14_9";1;1;1;1;1;1;1;1;1;0,009
"*Tx_Ga_6_15";0;1;1;1;1;1;1;1;1;1
"*Tx_Ga_6_14";1;1;1;1;1;1;1;1;1;0,009
"*Tx_Erm_12_6";1;1;1;1;1;1;1;1;0,278;1
"*Tx_Erm_12_1";1;1;1;1;1;1;1;1;0,278;1
"*Tx_Ga_6_13";1;1;1;1;1;1;1;1;1;0,009
"*Tx_Erm_12_3";1;1;1;1;1;1;1;1;0,184;1
"*Tx_1Ko_15_52";1;1;1;1;1;1;1;1;1;0,009
"*Tx_1Ko_12_24";1;1;1;1;1;1;1;1;1;0,359
"*Tx_Erm_12_8";1;1;1;1;1;1;1;1;0,278;1
"*Tx_Erm_12_9";1;1;1;1;1;1;1;1;0,278;1
"*Tx_1Ko_15_54";1;1;1;1;1;1;1;1;0,895;0,663
"*Tx_Erm_14_20";1;1;1;1;1;1;1;1;0,278;1
"*Tx_Erm_14_23";1;1;1;1;1;1;1;1;0,278;1
"*Tx_Erm_14_22";1;1;1;1;1;1;1;1;0,278;1
"*Tx_1Ko_3_7";1;1;1;1;1;1;1;1;1;0,359
"*Tx_Erm_11_17";1;1;1;0,017;1;0;1;1;1;1
"*Tx_Erm_11_15";1;1;1;1;1;1;1;1;1;0,359
"*Tx_Erm_11_11";1;1;1;1;1;1;1;1;1;0,009
"*Tx_Ga_4_17";1;1;1;0,017;1;1;1;1;1;0,359
"*Tx_Ga_4_15";1;1;1;1;1;1;1;1;0,278;1
"*Tx_Ga_4_14";1;1;1;1;1;1;1;1;0,443;1
"*Tx_Kol_2_23";1;1;1;1;1;1;1;1;0,278;1
"*Tx_Ga_4_12";1;1;1;1;1;1;1;1;0,278;1
"*Tx_Erm_11_18";1;1;1;0,017;1;0;1;1;1;1
"*L_Tesalonikarrei1";1;1;1;1;0,491;1;0,531;1;0;1
"*L_Tesalonikarrei2";1;1;0,073;0,969;0,103;1;1;1;0,11;1
"*K_Ga_6";0,002;1;1;0,751;0,168;1;1;1;1;0,704
"*K_Ga_4";1;1;1;0,301;1;0,458;1;1;1;0,371
"*K_Ga_5";1;1;0,377;1;0,024;0,045;1;0;1;0,965
"*K_Ga_2";1;1;0,269;0,599;1;1;1;1;1;0,046
"*K_Ga_3";0,046;1;1;1;0,548;1;1;1;1;0
"*Tx_1Ko_1_30";1;1;1;1;1;1;1;1;1;0,359
"*K_Ga_1";1;1;1;0,327;0,201;1;1;1;0,077;1
"*Tx_Ef_3_5";1;1;1;1;1;1;1;1;1;0,359
"*Tx_Erm_11_3";1;1;1;1;1;1;1;1;1;0,009
"*Tx_1Ko_14_26";1;0;1;0,017;1;1;1;1;1;1
"*Tx_Ef_3_6";1;1;1;1;1;1;1;1;1;0,359
"*K_2Ko_11";1;1;0,407;1;1;1;0,09;0,108;0,019;1
"*K_2Ko_10";1;1;1;1;1;1;1;1;0,001;1
"*K_2Ko_13";1;1;0,001;1;0,201;1;0;1;1;1
"*K_2Ko_12";1;1;1;0,221;1;1;0,042;1;0,157;1
"*Tx_2Ts_3_6";1;1;1;1;1;1;1;1;0,278;1
"*Tx_1Ko_8_8";1;1;1;1;1;1;1;1;1;0,359
"*Tx_Flp_3_4";1;1;1;1;1;1;1;1;0,278;1
"*Tx_Flp_3_1";1;1;1;1;1;1;1;1;0,443;1
"*Tx_Flp_3_5";1;1;1;1;1;1;1;1;1;0,001
"*Tx_2Ko_12_19";1;1;1;1;1;1;1;1;0,278;1
"*Tx_Flp_3_9";1;1;1;1;1;1;1;1;1;0,359
"*Tx_2Ko_12_15";1;1;1;0,017;1;1;1;1;1;1
"*Tx_Erm_3_31";1;1;1;1;1;1;1;1;1;0,009
"*Tx_2Ko_12_17";1;1;1;0,017;1;1;1;1;1;1
"*Tx_2Ko_12_10";1;1;1;1;1;1;0;1;1;1
"*Tx_2Ko_12_11";1;1;1;1;1;1;1;1;0,278;1
"*Tx_2Ko_12_12";1;1;1;1;1;1;1;1;1;0,359
"*Tx_2Ts_3_10";1;1;1;1;1;1;1;1;0,278;1
"*L_Timoteori1";0,438;0,306;0,002;0,001;0,694;1;1;0,731;0,103;1
"*L_Timoteori2";1;1;1;0,339;1;1;1;0,523;0,004;1
"*Tx_1Tm_3_11";1;1;1;1;1;1;1;1;0,278;1
"*Tx_2Ts_3_17";1;1;1;0,017;1;1;1;1;1;0,359
"*Tx_Erm_6_13";1;1;1;1;1;1;1;1;0,278;1
"*Tx_Erm_6_16";1;1;1;1;1;1;1;1;1;0,001
"*Tx_Erm_6_19";1;1;1;1;1;1;1;1;0,184;1
"*Tx_2Ko_10_18";1;1;1;1;1;1;1;1;0,278;1
"*Tx_Kol_3_22";1;1;1;1;1;1;1;1;1;0,359
"*Tx_2Ko_10_12";1;1;1;1;1;1;1;1;0,184;1
"*Tx_2Ko_10_13";1;1;1;1;1;1;1;1;0,278;1
"*Tx_2Ko_10_10";1;1;1;1;1;1;1;1;0,443;1
"*Tx_Tt_3_15";1;1;1;0,017;1;1;1;1;1;1
"*Tx_2Ko_10_15";1;1;1;1;1;1;1;1;0,184;1
"*Tx_Erm_16_19";1;1;1;1;1;1;1;1;0,278;1
"*Tx_Erm_1_32";1;1;1;1;1;1;1;1;0,184;1
"*Tx_Erm_16_12";1;1;1;0,017;1;1;1;1;1;1
"*Tx_Erm_16_16";1;1;1;0;1;1;1;1;1;1
"*Tx_Flp_3_18";1;1;1;1;1;1;1;1;0,278;1
"*Tx_Flp_3_15";1;1;1;1;1;1;1;1;1;0,359
"*Tx_Flp_3_14";1;1;1;1;1;1;1;1;1;0,359
"*Tx_Flp_3_12";1;1;1;1;1;1;1;1;1;0,359
