"";"V1"
"1";9
"2";4
"3";9
"4";9
"5";9
"6";9
"7";9
"8";9
"9";9
"10";3
"11";3
"12";7
"13";3
"14";0
"15";5
"16";9
"17";9
"18";9
"19";4
"20";4
"21";4
"22";0
"23";7
"24";4
"25";7
"26";9
"27";7
"28";7
"29";2
"30";7
"31";2
"32";7
"33";7
"34";2
"35";7
"36";8
"37";2
"38";7
"39";9
"40";7
"41";7
"42";7
"43";7
"44";7
"45";7
"46";9
"47";7
"48";9
"49";7
"50";7
"51";9
"52";9
"53";9
"54";9
"55";4
"56";4
"57";4
"58";4
"59";9
"60";8
"61";4
"62";7
"63";8
"64";7
"65";7
"66";7
"67";2
"68";0
"69";4
"70";4
"71";5
"72";4
"73";4
"74";4
"75";4
"76";9
"77";9
"78";7
"79";7
"80";4
"81";9
"82";9
"83";3
"84";3
"85";7
"86";4
"87";8
"88";0
"89";0
"90";9
"91";7
"92";7
"93";7
"94";7
"95";7
"96";4
"97";7
"98";4
"99";4
"100";9
"101";9
"102";9
"103";9
"104";9
"105";9
"106";7
"107";4
"108";9
"109";3
"110";4
"111";9
"112";9
"113";9
"114";4
"115";4
"116";4
"117";4
"118";4
"119";4
"120";7
"121";9
"122";4
"123";4
"124";4
"125";4
"126";4
"127";4
"128";4
"129";4
"130";4
"131";4
"132";9
"133";4
"134";4
"135";4
"136";9
"137";9
"138";9
"139";4
"140";9
"141";4
"142";4
"143";4
"144";4
"145";9
"146";9
"147";9
"148";7
"149";9
"150";9
"151";7
"152";7
"153";9
"154";9
"155";9
"156";9
"157";9
"158";4
"159";9
"160";9
"161";9
"162";9
"163";7
"164";9
"165";9
"166";9
"167";4
"168";4
"169";4
"170";9
"171";9
"172";7
"173";4
"174";7
"175";9
"176";9
"177";9
"178";9
"179";7
"180";9
"181";9
"182";7
"183";9
"184";9
"185";9
"186";7
"187";7
"188";7
"189";4
"190";4
"191";9
"192";9
"193";9
"194";7
"195";9
"196";9
"197";8
"198";7
"199";9
"200";9
"201";7
"202";7
"203";7
"204";2
"205";2
"206";9
"207";9
"208";9
"209";9
"210";9
"211";4
"212";7
"213";7
"214";7
"215";4
"216";4
"217";4
"218";4
"219";4
"220";4
"221";7
"222";4
"223";8
"224";7
"225";7
"226";7
"227";8
"228";7
"229";7
"230";7
"231";9
"232";4
"233";4
"234";4
"235";9
"236";9
"237";8
"238";9
"239";8
"240";8
"241";4
"242";8
"243";8
"244";8
"245";9
"246";8
"247";8
"248";7
"249";9
"250";9
"251";9
"252";8
"253";9
"254";9
"255";9
"256";7
"257";4
"258";9
"259";9
"260";9
"261";9
"262";7
"263";9
"264";8
"265";9
"266";9
"267";9
"268";7
"269";9
"270";8
"271";7
"272";9
"273";9
"274";9
"275";9
"276";4
"277";9
"278";9
"279";9
"280";8
"281";4
"282";9
"283";9
"284";9
"285";9
"286";9
"287";7
"288";9
"289";9
"290";7
"291";9
"292";8
"293";4
"294";4
"295";4
"296";9
"297";4
"298";4
"299";4
"300";9
"301";4
"302";4
"303";9
"304";7
"305";9
"306";9
"307";4
"308";9
"309";9
"310";0
"311";4
"312";7
"313";7
"314";4
"315";9
"316";9
"317";7
"318";9
"319";7
"320";7
"321";7
"322";7
"323";9
"324";9
"325";4
"326";2
"327";4
"328";2
"329";4
"330";4
"331";4
"332";0
"333";9
"334";9
"335";7
"336";7
"337";4
"338";4
"339";4
"340";4
"341";7
"342";9
"343";9
"344";7
"345";9
"346";7
"347";9
"348";9
"349";8
"350";9
"351";9
"352";9
"353";7
"354";6
"355";7
"356";9
"357";9
"358";9
"359";6
"360";7
"361";4
"362";4
"363";2
"364";2
"365";3
"366";9
"367";4
"368";4
"369";7
"370";4
"371";9
"372";9
"373";7
"374";9
"375";4
"376";9
"377";9
"378";4
"379";3
"380";7
"381";7
"382";9
"383";9
"384";9
"385";9
"386";9
"387";9
"388";9
"389";5
"390";0
"391";0
"392";0
"393";0
"394";9
"395";0
"396";7
"397";7
"398";0
"399";7
"400";7
"401";9
"402";7
"403";0
"404";7
"405";9
"406";4
"407";9
"408";9
"409";9
"410";9
"411";9
"412";9
"413";9
"414";9
"415";3
"416";9
"417";9
"418";9
"419";5
"420";8
"421";7
"422";7
"423";0
"424";9
"425";0
"426";0
"427";0
"428";0
"429";0
"430";9
"431";7
"432";9
"433";7
"434";7
"435";2
"436";9
"437";9
"438";7
"439";9
"440";7
"441";4
"442";7
"443";9
"444";9
"445";7
"446";8
"447";7
"448";7
"449";7
"450";7
"451";4
"452";4
"453";5
"454";5
"455";7
"456";7
"457";7
"458";7
"459";7
"460";7
"461";0
"462";7
"463";7
"464";7
"465";7
"466";7
"467";7
"468";9
"469";7
"470";4
"471";7
"472";7
"473";7
"474";7
"475";4
"476";2
"477";7
"478";0
"479";7
"480";4
"481";9
"482";2
"483";9
"484";3
"485";8
"486";9
"487";2
"488";7
"489";8
"490";8
"491";7
"492";5
"493";5
"494";7
"495";7
"496";7
"497";7
"498";7
"499";9
"500";9
"501";9
"502";9
"503";9
"504";9
"505";9
"506";9
"507";5
"508";2
"509";7
"510";9
"511";9
"512";7
"513";2
"514";9
"515";2
"516";5
"517";7
"518";7
"519";9
"520";7
"521";7
"522";7
"523";5
"524";5
"525";5
"526";9
"527";7
"528";7
"529";9
"530";8
"531";7
"532";7
"533";4
"534";7
"535";4
"536";9
"537";9
"538";4
"539";4
"540";4
"541";7
"542";9
"543";8
"544";7
"545";9
"546";9
"547";7
"548";9
"549";0
"550";3
"551";7
"552";7
"553";3
"554";3
"555";3
"556";3
"557";7
"558";3
"559";9
"560";9
"561";3
"562";9
"563";7
"564";7
"565";1
"566";9
"567";1
"568";1
"569";3
"570";1
"571";9
"572";0
"573";3
"574";0
"575";4
"576";4
"577";3
"578";3
"579";0
"580";3
"581";0
"582";0
"583";1
"584";7
"585";7
"586";7
"587";7
"588";9
"589";9
"590";1
"591";4
"592";9
"593";7
"594";0
"595";9
"596";9
"597";9
"598";9
"599";9
"600";9
"601";9
"602";9
"603";9
"604";3
"605";9
"606";4
"607";9
"608";7
"609";2
"610";7
"611";9
"612";9
"613";9
"614";9
"615";4
"616";4
"617";9
"618";8
"619";8
"620";8
"621";8
"622";8
"623";0
"624";9
"625";8
"626";9
"627";8
"628";8
"629";8
"630";8
"631";8
"632";7
"633";7
"634";9
"635";4
"636";9
"637";7
"638";9
"639";7
"640";7
"641";9
"642";8
"643";9
"644";9
"645";4
"646";9
"647";7
"648";9
"649";9
"650";7
"651";8
"652";8
"653";7
"654";7
"655";7
"656";7
"657";8
"658";7
"659";8
"660";2
"661";9
"662";8
"663";9
"664";9
"665";3
"666";7
"667";7
"668";7
"669";0
"670";0
"671";0
"672";0
"673";3
"674";0
"675";0
"676";0
"677";9
"678";0
"679";8
"680";8
"681";8
"682";8
"683";7
"684";9
"685";9
"686";9
"687";7
"688";8
"689";7
"690";7
"691";7
"692";7
"693";8
"694";7
"695";7
"696";7
"697";9
"698";9
"699";8
"700";9
"701";7
"702";7
"703";9
"704";8
"705";2
"706";3
"707";7
"708";9
"709";7
"710";7
"711";9
"712";3
"713";9
"714";9
"715";9
"716";7
"717";9
"718";9
"719";7
"720";3
"721";7
"722";5
"723";3
"724";7
"725";2
"726";8
"727";7
"728";9
"729";9
"730";9
"731";8
"732";7
"733";5
"734";5
"735";9
"736";5
"737";2
"738";2
"739";2
"740";5
"741";7
"742";7
"743";3
"744";9
"745";3
"746";9
"747";7
"748";7
"749";9
"750";3
"751";7
"752";7
"753";3
"754";3
"755";7
"756";7
"757";2
"758";9
"759";2
"760";0
"761";9
"762";9
"763";7
"764";2
"765";7
"766";7
"767";3
"768";2
"769";9
"770";9
"771";9
"772";9
"773";7
"774";9
"775";2
"776";2
"777";9
"778";7
"779";9
"780";7
"781";2
"782";7
"783";7
"784";9
"785";7
"786";4
"787";0
"788";7
"789";7
"790";9
"791";8
"792";7
"793";7
"794";9
"795";7
"796";7
"797";7
"798";2
"799";9
"800";7
"801";7
"802";7
"803";7
"804";0
"805";7
"806";4
"807";4
"808";9
"809";8
"810";7
"811";9
"812";4
"813";9
"814";7
"815";8
"816";9
"817";9
"818";7
"819";7
"820";7
"821";2
"822";7
"823";7
"824";7
"825";7
"826";7
"827";8
"828";8
"829";7
"830";8
"831";7
"832";7
"833";7
"834";7
"835";7
"836";7
"837";7
"838";7
"839";7
"840";9
"841";7
"842";6
"843";7
"844";9
"845";5
"846";9
"847";9
"848";7
"849";5
"850";0
"851";7
"852";5
"853";8
"854";8
"855";7
"856";3
"857";7
"858";5
"859";3
"860";3
"861";0
"862";5
"863";9
"864";4
"865";4
"866";7
"867";9
"868";0
"869";9
"870";3
"871";0
"872";5
"873";7
"874";7
"875";9
"876";7
"877";9
"878";7
"879";9
"880";9
"881";3
"882";7
"883";9
"884";7
"885";7
"886";8
"887";7
"888";9
"889";0
"890";0
"891";7
"892";9
"893";3
"894";9
"895";7
"896";7
"897";4
"898";5
"899";3
"900";7
"901";7
"902";7
"903";5
"904";2
"905";7
"906";9
"907";4
"908";7
"909";7
"910";8
"911";3
"912";2
"913";7
"914";9
"915";5
"916";9
"917";4
"918";5
"919";5
"920";5
"921";7
"922";5
"923";8
"924";7
"925";8
"926";7
"927";2
"928";7
"929";7
"930";5
"931";5
"932";7
"933";5
"934";7
"935";7
"936";9
"937";5
"938";7
"939";9
"940";7
"941";7
"942";9
"943";7
"944";6
"945";6
"946";7
"947";7
"948";6
"949";7
"950";7
"951";7
"952";7
"953";9
"954";9
"955";9
"956";7
"957";7
"958";6
"959";7
"960";7
"961";6
"962";7
"963";7
"964";2
"965";3
"966";5
"967";8
"968";7
"969";9
"970";4
"971";9
"972";7
"973";4
"974";4
"975";5
"976";5
"977";5
"978";5
"979";5
"980";8
"981";7
"982";5
"983";7
"984";3
"985";7
"986";7
"987";7
"988";7
"989";7
"990";7
"991";0
"992";9
"993";7
"994";9
"995";0
"996";0
"997";0
"998";6
"999";6
"1000";8
"1001";9
"1002";9
"1003";9
"1004";9
"1005";7
"1006";7
"1007";7
"1008";7
"1009";8
"1010";9
"1011";9
"1012";7
"1013";7
"1014";8
"1015";7
"1016";7
"1017";9
"1018";9
"1019";9
"1020";7
"1021";7
"1022";4
"1023";7
"1024";6
"1025";0
"1026";3
"1027";7
"1028";7
"1029";7
"1030";7
"1031";9
"1032";7
"1033";6
"1034";0
"1035";7
"1036";7
"1037";7
"1038";3
"1039";7
"1040";8
"1041";9
"1042";7
"1043";0
"1044";6
"1045";9
"1046";6
"1047";6
"1048";6
"1049";6
"1050";6
"1051";7
"1052";9
"1053";4
"1054";7
"1055";7
"1056";8
"1057";7
"1058";7
"1059";0
"1060";6
"1061";9
"1062";9
"1063";7
"1064";7
"1065";6
"1066";6
"1067";7
"1068";7
"1069";4
"1070";6
"1071";6
"1072";6
"1073";6
"1074";7
"1075";6
"1076";7
"1077";6
"1078";6
"1079";6
"1080";7
"1081";3
"1082";6
"1083";7
"1084";7
"1085";7
"1086";7
"1087";8
"1088";4
"1089";7
"1090";6
"1091";0
"1092";7
"1093";9
"1094";9
"1095";9
"1096";4
"1097";4
"1098";3
"1099";3
"1100";3
"1101";4
"1102";7
"1103";7
"1104";3
"1105";9
"1106";7
"1107";9
"1108";9
"1109";9
"1110";9
"1111";9
"1112";9
"1113";7
"1114";9
"1115";9
"1116";9
"1117";0
"1118";9
"1119";9
"1120";9
"1121";0
"1122";9
"1123";9
"1124";9
"1125";9
"1126";4
"1127";7
"1128";4
"1129";9
"1130";9
"1131";9
"1132";2
"1133";3
"1134";9
"1135";3
"1136";4
"1137";7
"1138";7
"1139";8
"1140";7
"1141";0
"1142";0
"1143";9
"1144";7
"1145";9
"1146";9
"1147";0
"1148";0
"1149";9
"1150";0
"1151";0
"1152";0
"1153";0
"1154";9
"1155";9
"1156";9
"1157";3
"1158";9
"1159";9
"1160";9
"1161";9
"1162";7
"1163";0
"1164";9
"1165";9
"1166";9
"1167";0
"1168";0
"1169";4
"1170";9
"1171";3
"1172";8
"1173";9
"1174";7
"1175";3
"1176";9
"1177";3
"1178";7
"1179";3
"1180";3
"1181";3
"1182";3
"1183";2
"1184";3
"1185";3
"1186";7
"1187";9
"1188";4
"1189";9
"1190";3
"1191";3
"1192";9
"1193";7
"1194";1
"1195";1
"1196";1
"1197";0
"1198";1
"1199";9
"1200";0
"1201";9
"1202";9
"1203";9
"1204";9
"1205";9
"1206";9
"1207";9
"1208";9
"1209";9
"1210";1
"1211";7
"1212";7
"1213";9
"1214";9
"1215";7
"1216";9
"1217";7
"1218";7
"1219";7
"1220";3
"1221";9
"1222";3
"1223";3
"1224";3
"1225";7
"1226";9
"1227";7
"1228";9
"1229";4
"1230";9
"1231";9
"1232";9
"1233";7
"1234";9
"1235";9
"1236";7
"1237";7
"1238";7
"1239";9
"1240";8
"1241";7
"1242";7
"1243";7
"1244";7
"1245";7
"1246";9
"1247";7
"1248";9
"1249";9
"1250";7
"1251";9
"1252";8
"1253";3
"1254";9
"1255";5
"1256";7
"1257";9
"1258";7
"1259";7
"1260";9
"1261";7
"1262";7
"1263";8
"1264";3
"1265";3
"1266";8
"1267";8
"1268";9
"1269";7
"1270";7
"1271";9
"1272";7
"1273";3
"1274";4
"1275";4
"1276";9
"1277";3
"1278";7
"1279";3
"1280";3
"1281";3
"1282";3
"1283";3
"1284";3
"1285";7
"1286";3
"1287";7
"1288";7
"1289";7
"1290";9
"1291";9
"1292";9
"1293";9
"1294";7
"1295";8
"1296";8
"1297";7
"1298";7
"1299";9
"1300";9
"1301";9
"1302";7
"1303";7
"1304";9
"1305";9
"1306";3
"1307";9
"1308";7
"1309";7
"1310";7
"1311";7
"1312";7
"1313";7
"1314";9
"1315";9
"1316";8
"1317";8
"1318";9
"1319";9
"1320";9
"1321";9
"1322";9
"1323";9
"1324";9
"1325";9
"1326";4
"1327";7
"1328";3
"1329";9
"1330";9
"1331";7
"1332";7
"1333";8
"1334";8
"1335";9
"1336";0
"1337";8
"1338";3
"1339";8
"1340";6
"1341";9
"1342";7
"1343";7
"1344";9
"1345";9
"1346";8
"1347";6
"1348";0
"1349";0
"1350";4
"1351";7
"1352";7
"1353";7
"1354";9
"1355";0
"1356";9
"1357";8
"1358";8
"1359";3
"1360";1
"1361";3
"1362";8
"1363";9
"1364";8
"1365";8
"1366";7
"1367";7
"1368";8
"1369";7
"1370";2
"1371";7
"1372";3
"1373";7
"1374";7
"1375";9
"1376";8
"1377";7
"1378";7
"1379";7
"1380";9
"1381";8
"1382";3
"1383";8
"1384";8
"1385";9
"1386";9
"1387";3
"1388";3
"1389";0
"1390";7
"1391";4
"1392";7
"1393";9
"1394";7
"1395";3
"1396";3
"1397";9
"1398";3
"1399";7
"1400";7
"1401";0
"1402";0
"1403";8
"1404";7
"1405";7
"1406";7
"1407";7
"1408";7
"1409";3
"1410";7
"1411";7
"1412";7
"1413";3
"1414";7
"1415";7
"1416";7
"1417";7
"1418";3
"1419";7
"1420";0
"1421";0
"1422";9
"1423";7
"1424";0
"1425";7
"1426";9
"1427";9
"1428";9
"1429";9
"1430";7
"1431";9
"1432";7
"1433";8
"1434";7
"1435";8
"1436";7
"1437";7
"1438";8
"1439";8
"1440";9
"1441";7
"1442";8
"1443";8
"1444";7
"1445";7
"1446";2
"1447";3
"1448";3
"1449";3
"1450";9
"1451";3
"1452";3
"1453";3
"1454";3
"1455";9
"1456";9
"1457";8
"1458";7
"1459";9
"1460";7
"1461";7
"1462";7
"1463";7
"1464";7
"1465";0
"1466";7
"1467";7
"1468";7
"1469";7
"1470";3
"1471";7
"1472";7
"1473";7
"1474";3
"1475";8
"1476";4
"1477";3
"1478";7
"1479";7
"1480";7
"1481";7
"1482";7
"1483";7
"1484";8
"1485";7
"1486";4
"1487";9
"1488";7
"1489";3
"1490";0
"1491";3
"1492";0
"1493";2
"1494";3
"1495";3
"1496";7
"1497";3
"1498";5
"1499";8
"1500";8
"1501";7
"1502";8
"1503";9
"1504";9
"1505";4
"1506";7
"1507";7
"1508";9
"1509";9
"1510";7
"1511";8
"1512";7
"1513";7
"1514";9
"1515";3
"1516";8
"1517";8
"1518";8
"1519";7
"1520";7
"1521";7
"1522";0
"1523";7
"1524";7
"1525";7
"1526";7
"1527";6
"1528";7
"1529";7
"1530";7
"1531";7
"1532";3
"1533";7
"1534";7
"1535";9
"1536";7
"1537";7
"1538";2
"1539";2
"1540";3
"1541";9
"1542";7
"1543";7
"1544";8
"1545";8
"1546";8
"1547";9
"1548";9
"1549";9
"1550";7
"1551";7
"1552";7
"1553";7
"1554";7
"1555";8
"1556";7
"1557";8
"1558";3
"1559";9
"1560";0
"1561";1
"1562";9
"1563";9
"1564";9
"1565";9
"1566";9
"1567";9
"1568";9
"1569";9
"1570";7
"1571";9
"1572";7
"1573";7
"1574";7
"1575";3
"1576";9
"1577";7
"1578";4
"1579";9
"1580";9
"1581";3
"1582";3
"1583";3
"1584";3
"1585";7
"1586";3
"1587";7
"1588";7
"1589";9
"1590";3
"1591";6
"1592";3
"1593";7
"1594";8
"1595";4
"1596";7
"1597";7
"1598";9
"1599";9
"1600";3
"1601";3
"1602";3
"1603";3
"1604";3
"1605";3
"1606";7
"1607";7
"1608";9
"1609";4
"1610";4
"1611";4
"1612";4
"1613";3
"1614";9
"1615";9
"1616";9
"1617";7
"1618";4
"1619";9
"1620";7
"1621";4
"1622";3
"1623";7
"1624";7
"1625";9
"1626";4
"1627";4
"1628";4
"1629";4
"1630";9
"1631";4
"1632";4
"1633";4
"1634";4
"1635";4
"1636";4
"1637";4
"1638";4
"1639";9
"1640";9
"1641";9
"1642";8
"1643";7
"1644";4
"1645";4
"1646";4
"1647";7
"1648";4
"1649";4
"1650";4
"1651";4
"1652";4
"1653";4
"1654";4
"1655";7
"1656";4
"1657";4
"1658";4
"1659";9
"1660";4
"1661";4
"1662";9
"1663";4
"1664";9
"1665";4
"1666";7
"1667";4
"1668";9
"1669";3
"1670";7
"1671";4
"1672";9
"1673";9
"1674";9
"1675";9
"1676";7
"1677";3
"1678";3
"1679";7
"1680";7
"1681";7
"1682";7
"1683";9
"1684";7
"1685";7
"1686";7
"1687";3
"1688";0
"1689";7
"1690";8
"1691";9
"1692";7
"1693";7
"1694";4
"1695";7
"1696";4
"1697";4
"1698";8
"1699";7
"1700";0
"1701";4
"1702";3
"1703";4
"1704";3
"1705";4
"1706";4
"1707";4
"1708";4
"1709";4
"1710";9
"1711";7
"1712";4
"1713";4
"1714";4
"1715";9
"1716";9
"1717";9
"1718";7
"1719";7
"1720";9
"1721";5
"1722";0
"1723";7
"1724";7
"1725";4
"1726";7
"1727";7
"1728";4
"1729";0
"1730";5
"1731";7
"1732";7
"1733";7
"1734";4
"1735";7
"1736";2
"1737";2
"1738";0
"1739";0
"1740";9
"1741";9
"1742";9
"1743";7
"1744";7
"1745";9
"1746";9
"1747";0
"1748";7
"1749";7
"1750";4
"1751";7
"1752";7
"1753";7
"1754";7
"1755";0
"1756";0
"1757";0
"1758";7
"1759";7
"1760";7
"1761";7
"1762";4
"1763";7
"1764";9
"1765";9
"1766";7
"1767";7
"1768";9
"1769";7
"1770";0
"1771";9
"1772";9
"1773";9
"1774";9
"1775";9
"1776";9
"1777";9
"1778";9
"1779";9
"1780";9
"1781";9
"1782";9
"1783";9
"1784";9
"1785";9
"1786";9
"1787";9
"1788";9
"1789";7
"1790";9
"1791";9
"1792";7
"1793";7
"1794";9
"1795";9
"1796";9
"1797";9
"1798";9
"1799";9
"1800";7
"1801";9
"1802";9
"1803";4
"1804";9
"1805";9
"1806";9
"1807";9
"1808";9
"1809";9
"1810";9
"1811";9
"1812";9
"1813";0
"1814";0
"1815";9
"1816";9
"1817";9
"1818";9
"1819";9
"1820";9
"1821";9
"1822";9
"1823";7
"1824";9
"1825";9
"1826";9
"1827";9
"1828";7
"1829";9
"1830";9
"1831";9
"1832";7
"1833";8
"1834";7
"1835";9
"1836";7
"1837";9
"1838";9
"1839";9
"1840";9
"1841";9
"1842";9
"1843";4
"1844";7
"1845";9
"1846";9
"1847";4
"1848";9
"1849";9
"1850";9
"1851";7
"1852";7
"1853";9
"1854";7
"1855";7
"1856";9
"1857";2
"1858";7
"1859";9
"1860";7
"1861";7
"1862";0
"1863";7
"1864";2
"1865";7
"1866";7
"1867";7
"1868";9
"1869";2
"1870";9
"1871";9
"1872";9
"1873";2
"1874";2
"1875";9
"1876";2
"1877";7
"1878";9
"1879";9
"1880";9
"1881";7
"1882";8
"1883";7
"1884";0
"1885";7
"1886";8
"1887";7
"1888";7
"1889";7
"1890";9
"1891";9
"1892";9
"1893";9
"1894";7
"1895";9
"1896";7
"1897";9
"1898";7
"1899";7
"1900";7
"1901";9
"1902";9
"1903";7
"1904";9
"1905";7
"1906";9
"1907";4
"1908";9
"1909";9
"1910";0
"1911";7
"1912";7
"1913";7
"1914";9
"1915";0
"1916";9
"1917";8
"1918";7
"1919";8
"1920";7
"1921";9
"1922";9
"1923";4
"1924";9
"1925";9
"1926";9
"1927";9
"1928";7
"1929";7
"1930";3
"1931";7
"1932";9
"1933";9
"1934";9
"1935";0
"1936";9
"1937";9
"1938";3
"1939";3
"1940";8
"1941";9
"1942";9
"1943";9
"1944";9
"1945";3
"1946";7
"1947";6
"1948";9
"1949";9
"1950";7
"1951";9
"1952";9
"1953";7
"1954";9
"1955";7
"1956";8
"1957";3
"1958";3
"1959";7
"1960";9
"1961";9
"1962";9
"1963";0
"1964";9
"1965";9
"1966";1
"1967";9
"1968";9
"1969";7
"1970";7
"1971";7
"1972";9
"1973";7
"1974";9
"1975";8
"1976";9
"1977";9
"1978";7
"1979";9
"1980";9
"1981";9
"1982";7
"1983";7
"1984";9
"1985";3
"1986";9
"1987";3
"1988";8
"1989";9
"1990";9
"1991";8
"1992";9
"1993";7
"1994";9
"1995";7
"1996";7
"1997";9
"1998";9
"1999";9
"2000";4
"2001";4
"2002";9
"2003";9
"2004";9
"2005";4
"2006";9
"2007";7
"2008";9
"2009";9
"2010";9
"2011";7
"2012";7
"2013";9
"2014";8
"2015";7
"2016";7
"2017";8
"2018";9
"2019";7
"2020";3
"2021";9
"2022";9
"2023";3
"2024";4
"2025";9
"2026";7
"2027";9
"2028";9
"2029";7
"2030";9
"2031";7
"2032";7
"2033";7
"2034";9
"2035";8
"2036";7
"2037";7
"2038";9
"2039";3
"2040";9
"2041";7
"2042";3
"2043";7
"2044";7
"2045";9
"2046";9
"2047";9
"2048";9
"2049";9
"2050";9
"2051";0
"2052";1
"2053";9
"2054";0
"2055";9
"2056";0
"2057";9
"2058";9
"2059";7
"2060";3
"2061";9
"2062";7
"2063";7
"2064";8
"2065";9
"2066";9
"2067";9
"2068";9
"2069";9
"2070";9
"2071";9
"2072";6
"2073";9
"2074";9
"2075";9
"2076";9
"2077";7
"2078";9
"2079";8
"2080";9
"2081";9
"2082";9
"2083";9
"2084";3
"2085";3
"2086";9
"2087";8
"2088";7
"2089";9
"2090";9
"2091";7
"2092";8
"2093";9
"2094";9
"2095";9
"2096";9
"2097";9
"2098";7
"2099";9
"2100";9
"2101";5
"2102";9
"2103";7
"2104";9
"2105";7
"2106";7
"2107";7
"2108";7
"2109";8
"2110";9
"2111";9
"2112";9
"2113";9
"2114";9
"2115";2
"2116";9
"2117";7
"2118";2
"2119";9
"2120";7
"2121";4
"2122";7
"2123";9
"2124";9
"2125";9
"2126";9
"2127";9
"2128";9
"2129";9
"2130";0
"2131";9
"2132";9
"2133";7
"2134";7
"2135";9
"2136";9
"2137";0
"2138";7
"2139";7
"2140";9
"2141";7
"2142";0
"2143";9
"2144";9
"2145";9
"2146";7
"2147";7
"2148";7
"2149";9
"2150";7
"2151";3
"2152";9
"2153";1
"2154";3
"2155";4
"2156";3
"2157";0
"2158";9
"2159";1
"2160";9
"2161";3
"2162";0
"2163";3
"2164";3
"2165";3
"2166";3
"2167";7
"2168";1
"2169";0
"2170";9
"2171";0
"2172";9
"2173";9
"2174";9
"2175";9
"2176";7
"2177";9
"2178";3
"2179";3
"2180";7
"2181";7
"2182";9
"2183";9
"2184";7
"2185";9
"2186";7
"2187";7
"2188";7
"2189";7
"2190";9
"2191";7
"2192";0
"2193";7
"2194";6
"2195";9
"2196";3
"2197";3
"2198";3
"2199";7
"2200";9
"2201";9
"2202";7
"2203";7
"2204";4
"2205";9
"2206";7
"2207";7
"2208";9
"2209";8
"2210";0
"2211";9
"2212";9
"2213";9
"2214";3
"2215";3
"2216";8
"2217";7
"2218";9
"2219";7
"2220";9
"2221";9
"2222";9
"2223";9
"2224";9
"2225";3
"2226";3
"2227";9
"2228";9
"2229";9
"2230";7
"2231";9
"2232";2
"2233";7
"2234";9
"2235";9
"2236";7
"2237";9
"2238";7
"2239";7
"2240";7
"2241";9
"2242";9
"2243";9
"2244";9
"2245";9
"2246";0
"2247";7
"2248";3
"2249";7
"2250";8
"2251";3
"2252";3
"2253";7
"2254";3
"2255";3
"2256";9
"2257";9
"2258";9
"2259";9
"2260";9
"2261";3
"2262";3
"2263";9
"2264";3
"2265";7
"2266";7
"2267";9
"2268";7
"2269";0
"2270";7
"2271";7
"2272";9
"2273";4
"2274";6
"2275";0
"2276";3
"2277";0
"2278";9
"2279";9
"2280";9
"2281";9
"2282";9
"2283";9
"2284";7
"2285";0
"2286";7
"2287";9
"2288";7
"2289";9
"2290";7
"2291";3
"2292";7
"2293";7
"2294";0
"2295";9
"2296";7
"2297";9
"2298";9
"2299";9
"2300";7
"2301";7
"2302";7
"2303";9
"2304";9
"2305";9
"2306";7
"2307";9
"2308";9
"2309";9
"2310";9
"2311";7
"2312";9
"2313";7
"2314";7
"2315";5
"2316";3
"2317";3
"2318";9
"2319";7
"2320";7
"2321";9
"2322";7
"2323";8
"2324";7
"2325";9
"2326";9
"2327";1
"2328";8
"2329";0
"2330";9
"2331";9
"2332";3
"2333";9
"2334";9
"2335";8
"2336";7
"2337";9
"2338";4
"2339";9
"2340";2
"2341";7
"2342";8
"2343";9
"2344";7
"2345";7
"2346";9
"2347";7
"2348";9
"2349";9
"2350";9
"2351";9
"2352";9
"2353";7
"2354";7
"2355";9
"2356";7
"2357";7
"2358";7
"2359";9
"2360";9
"2361";7
"2362";7
"2363";7
"2364";7
"2365";7
"2366";7
"2367";9
"2368";7
"2369";7
"2370";7
"2371";3
"2372";0
"2373";2
"2374";7
"2375";0
"2376";7
"2377";7
"2378";7
"2379";7
"2380";7
"2381";6
"2382";3
"2383";2
"2384";7
"2385";7
"2386";3
"2387";7
"2388";6
"2389";7
"2390";7
"2391";7
"2392";7
"2393";7
"2394";7
"2395";9
"2396";9
"2397";7
"2398";9
"2399";7
"2400";2
"2401";7
"2402";3
"2403";0
"2404";7
"2405";7
"2406";7
"2407";9
"2408";2
"2409";7
"2410";2
"2411";7
"2412";4
"2413";7
"2414";3
"2415";9
"2416";9
"2417";4
"2418";7
"2419";7
"2420";7
"2421";7
"2422";7
"2423";2
"2424";2
"2425";7
"2426";7
"2427";7
"2428";7
"2429";7
"2430";7
"2431";3
"2432";7
"2433";7
"2434";9
"2435";7
"2436";8
"2437";3
"2438";3
"2439";3
"2440";7
"2441";7
"2442";7
"2443";7
"2444";7
"2445";7
"2446";5
"2447";2
"2448";9
"2449";9
"2450";5
"2451";7
"2452";7
"2453";2
"2454";9
"2455";2
"2456";9
"2457";9
"2458";9
"2459";9
"2460";8
"2461";7
"2462";7
"2463";8
"2464";9
"2465";7
"2466";9
"2467";9
"2468";7
"2469";0
"2470";9
"2471";9
"2472";9
"2473";9
"2474";9
"2475";9
"2476";0
"2477";7
"2478";9
"2479";9
"2480";9
"2481";9
"2482";9
"2483";8
"2484";8
"2485";7
"2486";9
"2487";9
"2488";1
"2489";0
"2490";9
"2491";8
"2492";3
"2493";0
"2494";3
"2495";9
"2496";7
"2497";9
"2498";7
"2499";7
"2500";3
"2501";7
"2502";9
"2503";7
"2504";9
"2505";7
"2506";7
"2507";9
"2508";5
"2509";7
"2510";7
"2511";2
"2512";7
"2513";7
"2514";9
"2515";9
"2516";9
"2517";7
"2518";7
"2519";7
"2520";7
"2521";9
"2522";7
"2523";9
"2524";2
"2525";7
"2526";7
"2527";3
"2528";0
"2529";7
"2530";7
"2531";7
"2532";9
"2533";7
"2534";8
"2535";4
"2536";7
"2537";7
"2538";7
"2539";7
"2540";4
"2541";9
"2542";9
"2543";9
"2544";7
"2545";7
"2546";7
"2547";4
"2548";9
"2549";7
"2550";9
"2551";3
"2552";7
"2553";7
"2554";7
"2555";3
"2556";5
"2557";2
"2558";3
"2559";3
"2560";9
"2561";7
"2562";3
"2563";3
"2564";1
"2565";7
"2566";4
"2567";7
"2568";7
"2569";8
"2570";7
"2571";9
"2572";7
"2573";9
"2574";9
"2575";1
"2576";7
"2577";9
"2578";1
"2579";0
"2580";9
"2581";9
"2582";9
"2583";9
"2584";7
"2585";7
"2586";7
"2587";3
"2588";7
"2589";0
"2590";7
"2591";7
"2592";8
"2593";9
"2594";4
"2595";2
"2596";7
"2597";7
"2598";7
"2599";4
"2600";3
"2601";7
"2602";2
"2603";9
"2604";2
"2605";7
"2606";2
"2607";7
"2608";7
"2609";0
"2610";7
"2611";9
"2612";9
"2613";9
"2614";9
"2615";3
"2616";7
"2617";7
"2618";9
"2619";7
"2620";9
"2621";9
"2622";9
"2623";9
"2624";7
"2625";7
"2626";2
"2627";8
"2628";7
"2629";7
"2630";3
"2631";3
"2632";7
"2633";1
"2634";0
"2635";0
"2636";9
"2637";0
"2638";9
"2639";9
"2640";3
"2641";3
"2642";8
"2643";9
"2644";9
"2645";9
"2646";9
"2647";3
"2648";7
"2649";6
"2650";9
"2651";9
"2652";7
"2653";9
"2654";9
"2655";7
"2656";9
"2657";7
"2658";8
"2659";3
"2660";3
"2661";7
"2662";9
"2663";9
"2664";9
"2665";0
"2666";9
"2667";9
"2668";1
"2669";9
