"";"";"";"";"goraintzi";""
"1";"goraintzi";"-0.67000619572389";"-3.03104533096216";"2.08188492179815";"5"
"2";"arreba";"-0.708719761756503";"-3.23095406839685";"1.1393823324409";"18"
"3";"priska";"-0.708719761756503";"-3.23095406839685";"1.05440842143662";"23"
"4";"laguntzaile";"-0.544187106117898";"-2.38134193429942";"0.988894751584556";"30"
"5";"ikusezin";"-0.246724276972474";"2.6120085832483";"0.893429220978028";"35"
"6";"bildu";"-0.255682713903195";"-2.45416331498919";"0.863709262407744";"38"
"7";"goiagerpen";"-0.208621067840014";"-4.35971849839465";"0.838652101124986";"50"
"8";"biezaio";"-0.208621067840014";"-4.35971849839465";"0.838652101124986";"52"
"9";"errege";"-0.134647055389393";"1.2151433745309";"0.838563509279344";"53"
"10";"madarikatu";"-0.124139815865979";"1.08418726121365";"0.833423879410864";"55"
"11";"zareten";"-0.177014682112428";"-3.45427590511715";"0.83040133408897";"56"
"12";"sinesgarri";"-0.177014682112428";"-3.45427590511715";"0.83040133408897";"57"
"13";"batzar";"-0.177014682112428";"-3.45427590511715";"0.83040133408897";"59"
"14";"irakatsi";"-0.0946910727754588";"-1.09591380169668";"0.827472591897755";"61"
"15";"zerbitzari";"-0.269966013386889";"-0.965321710803711";"0.826443363102799";"63"
"16";"herritar";"-0.269966013386889";"-0.965321710803711";"0.826443363102799";"64"
"17";"agurgarri";"-0.269966013386889";"-0.965321710803711";"0.826443363102799";"65"
"18";"seinale";"-0.155943758294037";"-2.85064750959881";"0.824903428374144";"67"
"19";"lagungarri";"-0.155943758294037";"-2.85064750959881";"0.824903428374144";"68"
"20";"hobe";"-0.155943758294037";"-2.85064750959881";"0.824903428374144";"69"
"21";"jaunarengan";"-0.160277576294486";"-0.398913621405426";"0.82405659455551";"70"
"22";"maite";"-0.110419195797939";"-0.141455398951661";"0.822318630995421";"71"
"23";"dohain";"-0.087058045810836";"-0.877246985788874";"0.821559086201169";"72"
"24";"dezala";"-0.101159356366221";"-1.28121368125114";"0.821521304384645";"73"
"25";"dizue";"-0.144607799567";"-0.317998180062814";"0.819933165269391";"75"
"26";"zaitu";"-0.215121794840688";"-0.682117666104569";"0.819181437402696";"76"
"27";"jesusengatik";"-0.215121794840688";"-0.682117666104569";"0.819181437402696";"77"
"28";"kristau";"-0.11228888506656";"-0.151110082293677";"0.817362698924521";"78"
"29";"senide";"-0.0950640076475025";"-0.206287503695377";"0.817279318363917";"79"
"30";"bertan";"-0.120825551930052";"-1.84460018373492";"0.815752411847857";"80"
"31";"jainkoa";"-0.0788933652267867";"-0.643349645389979";"0.815278184909421";"81"
"32";"gomendatu";"-0.182215263712967";"-0.512195239285083";"0.814831317217434";"82"
"33";"azkenik";"-0.182215263712967";"-0.512195239285083";"0.814831317217434";"83"
"34";"adiskide";"-0.182215263712967";"-0.512195239285083";"0.814831317217434";"84"
"35";"esku";"-0.102546819930063";"-0.100804100669487";"0.813588425735931";"85"
"36";"parte";"-0.11986604683939";"-0.190236956890269";"0.813455537967469";"86"
"37";"egin";"-0.057646017623476";"0.122862409997727";"0.812168350563145";"88"
"38";"ama";"-0.160277576294486";"-0.398913621405426";"0.811937751200224";"89"
"39";"jesusen";"-0.110419195797939";"-0.141455398951661";"0.811002325535948";"90"
"40";"bedi";"-0.077334839807136";"0.500837301891328";"0.810573697341593";"91"
"41";"oso";"-0.107252608380669";"-0.447814172761906";"0.810130738113385";"93"
"42";"haia";"-0.144607799567";"-0.317998180062814";"0.809876687967794";"94"
"43";"hiri";"-0.144607799567";"-0.317998180062814";"0.809876687967794";"95"
"44";"bakarrik";"-0.0780729528782446";"-0.619846917465839";"0.809638271677317";"96"
"45";"hasi";"-0.0957411188129201";"-1.125994950975";"0.809244819656967";"97"
"46";"idatzi";"-0.0908828507870471";"-0.0405738097452873";"0.809137988313693";"98"
"47";"dadila";"-0.0927309868388643";"-1.03976232304381";"0.808467035365083";"100"
"48";"eitezi";"-0.0927309868388643";"-1.03976232304381";"0.808467035365083";"101"
"49";"jaunarengatik";"-0.132855467021385";"-0.257311599055855";"0.80833545041788";"102"
"50";"jardun";"-0.132855467021385";"-0.257311599055855";"0.80833545041788";"103"
"51";"ditudan";"-0.132855467021385";"-0.257311599055855";"0.80833545041788";"104"
"52";"bereizi";"-0.132855467021385";"-0.257311599055855";"0.80833545041788";"105"
"53";"baino";"-0.0753784613413659";"-0.542656585558123";"0.808274217818686";"106"
"54";"bakar";"-0.070878981040399";"0.420375238536525";"0.807448229140203";"107"
"55";"lagundu";"-0.0857073455660674";"-0.838552857871032";"0.806660022278244";"108"
"56";"irrika";"-0.0857073455660674";"-0.838552857871032";"0.806660022278244";"109"
"57";"jaun";"-0.0537995324828359";"0.150916670254372";"0.80657533889638";"110"
"58";"esan";"-0.053687804469493";"0.0787255862989854";"0.806527134509781";"111"
"59";"zintzo";"-0.116402201457525";"-0.172350385646113";"0.806189703803587";"112"
"60";"kristorengan";"-0.116402201457525";"-0.172350385646113";"0.806189703803587";"113"
"61";"iritzi";"-0.116402201457525";"-0.172350385646113";"0.806189703803587";"114"
"62";"profeta";"-0.0838590189153313";"-0.785602998615038";"0.806187098161068";"115"
"63";"ulertu";"-0.0821955249296689";"-0.737948125284643";"0.805761075609232";"116"
"64";"zerbitzu";"-0.0893027052346956";"-0.0324142694418305";"0.805616462449434";"117"
"65";"zaiteztu";"-0.110419195797939";"-0.141455398951661";"0.805414525154222";"118"
"66";"jainko";"-0.0573138177938078";"0.1546997944835";"0.805138327047221";"119"
"67";"adierazi";"-0.079322217136252";"-0.655635162259416";"0.805030192882688";"120"
"68";"ote";"-0.0686499310464176";"-0.349901299594285";"0.804925967181933";"121"
"69";"berri";"-0.0505891392020826";"0.167494467992858";"0.80472402988672";"122"
"70";"ezakan";"-0.0780729528782446";"-0.619846917465838";"0.804712304495385";"123"
"71";"eman";"-0.0579968858569856";"-0.0447186398065562";"0.804582022369441";"124"
"72";"eskatu";"-0.0796494517702469";"-0.0890605205734203";"0.804438712030903";"125"
"73";"lege";"-0.0505891392020826";"0.167494467992858";"0.804265436803398";"126"
"74";"nolako";"-0.101214571706269";"-0.0939246501909655";"0.804230260629393";"127"
"75";"ardura";"-0.101214571706269";"-0.0939246501909655";"0.804230260629393";"128"
"76";"bete";"-0.0505891392020826";"0.167494467992858";"0.803991844338916";"129"
"77";"sinesmen";"-0.0505891392020826";"0.167494467992858";"0.803765153439774";"130"
"78";"horrela";"-0.0505891392020826";"0.167494467992858";"0.803765153439774";"131"
"79";"kristo";"-0.0609371049655175";"0.114059742577928";"0.803685681342948";"132"
"80";"agertu";"-0.0505891392020826";"0.167494467992858";"0.803675258772873";"133"
"81";"bide";"-0.0505891392020826";"0.167494467992858";"0.803629660028792";"134"
"82";"gauza";"-0.0505891392020826";"0.167494467992858";"0.803539765361891";"135"
"83";"bezala";"-0.0575260119822232";"0.0518638206706015";"0.803530645613075";"136"
"84";"aita";"-0.062597412943127";"0.317158597498293";"0.80349546943907";"137"
"85";"egia";"-0.0505891392020826";"0.167494467992858";"0.803224482617107";"138"
"86";"bekatu";"-0.0505891392020826";"0.167494467992858";"0.803180186694286";"139"
"87";"buru";"-0.0649556781691673";"-0.244070347133279";"0.803158038732876";"140"
"88";"hartu";"-0.0556909269738223";"0.141149905695264";"0.80312546820139";"141"
"89";"gutun";"-0.0917223031117339";"-0.0449085655314986";"0.803027756606932";"142"
"90";"fruitu";"-0.0917223031117339";"-0.0449085655314986";"0.803027756606932";"143"
"91";"gorputz";"-0.0505891392020826";"0.167494467992858";"0.803001700181744";"144"
"92";"maitasun";"-0.0505891392020826";"0.167494467992858";"0.802911805514842";"145"
"93";"hitz";"-0.0505891392020826";"0.167494467992858";"0.802867509592022";"146"
"94";"behar";"-0.055983652501709";"0.13963833244868";"0.80282581931172";"147"
"95";"hil";"-0.0505891392020826";"0.167494467992858";"0.802823213669201";"148"
"96";"mundu";"-0.0505891392020826";"0.167494467992858";"0.80277891774638";"149"
"97";"alde";"-0.0505891392020826";"0.167494467992858";"0.802734621823559";"150"
"98";"bizi";"-0.0585664800815301";"0.126301152400256";"0.802678600509403";"151"
"99";"espiritu";"0.281414954682299";"0.152385683667581";"0.802656452547993";"152"
"100";"aurre";"-0.0505891392020826";"0.167494467992858";"0.802644727156658";"153"
"101";"giza";"-0.0505891392020826";"0.167494467992858";"0.802644727156658";"154"
"102";"argi";"-0.0691811308065451";"-0.365118822170378";"0.802494902711822";"155"
"103";"ikusi";"-0.0505891392020826";"0.167494467992858";"0.802423247542553";"156"
"104";"egon";"-0.0613598812773512";"0.0505349742956716";"0.802401099581143";"157"
"105";"jarri";"-0.0505891392020826";"0.167494467992858";"0.802247366672529";"158"
"106";"gertatu";"-0.0505891392020826";"0.167494467992858";"0.802247366672529";"159"
"107";"nahi";"-0.0590222002289202";"0.0269238771305069";"0.802213493319784";"160"
"108";"zeuen";"-0.0505891392020826";"0.167494467992858";"0.802158774826888";"161"
"109";"hala";"-0.0505891392020826";"0.167494467992858";"0.802158774826888";"162"
"110";"ongi";"-0.0505891392020826";"0.167494467992858";"0.802114478904067";"163"
"111";"horregatik";"-0.0505891392020826";"0.167494467992858";"0.802114478904067";"164"
"112";"erakutsi";"-0.0834956703298036";"-0.00242795882662727";"0.802012858845831";"165"
"113";"piztu";"-0.0505891392020826";"0.167494467992858";"0.801982893956864";"166"
"114";"liburu";"-0.0505891392020826";"0.167494467992858";"0.801982893956864";"167"
"115";"joan";"-0.0505891392020826";"0.167494467992858";"0.801939900855302";"168"
"116";"agindu";"-0.0505891392020826";"0.167494467992858";"0.801895604932481";"169"
"117";"jarraitu";"-0.0663923320658757";"-0.285226828645892";"0.801825252584472";"170"
"118";"bake";"-0.0505891392020826";"0.167494467992858";"0.801808315908099";"171"
"119";"menpe";"-0.0505891392020826";"0.167494467992858";"0.801764019985278";"172"
"120";"jesus";"-0.0505891392020826";"0.167494467992858";"0.801764019985278";"173"
"121";"etorri";"-0.0505891392020826";"0.167494467992858";"0.801764019985278";"174"
"122";"heriotza";"-0.0505891392020826";"0.167494467992858";"0.801721026883717";"175"
"123";"egun";"-0.0505891392020826";"0.167494467992858";"0.801676730960896";"176"
"124";"itxaropen";"-0.0505891392020826";"0.167494467992858";"0.801589441936514";"177"
"125";"handi";"-0.0505891392020826";"0.167494467992858";"0.801589441936514";"178"
"126";"indar";"-0.0505891392020826";"0.167494467992858";"0.801546448834952";"179"
"127";"sandu";"-0.0505891392020826";"0.167494467992858";"0.801546448834952";"180"
"128";"gai";"-0.0792035140957531";"0.0197358359759143";"0.801502152912131";"181"
"129";"anaia";"-0.0792035140957531";"0.0197358359759143";"0.801502152912131";"182"
"130";"bihotz";"-0.0505891392020826";"0.167494467992858";"0.801502152912131";"183"
"131";"nola";"-0.0505891392020826";"0.167494467992858";"0.80145915981057";"184"
"132";"huts";"-0.0505891392020826";"0.167494467992858";"0.80145915981057";"185"
"133";"saiatu";"-0.0505891392020826";"0.167494467992858";"0.80145915981057";"186"
"134";"ezagutu";"-0.0505891392020826";"0.167494467992858";"0.801416166709008";"187"
"135";"harrotu";"-0.0505891392020826";"0.167494467992858";"0.801416166709008";"188"
"136";"herri";"-0.0505891392020826";"0.167494467992858";"0.801416166709008";"189"
"137";"zuzen";"-0.0505891392020826";"0.167494467992858";"0.801371870786188";"190"
"138";"bakoitz";"-0.0505891392020826";"0.167494467992858";"0.801371870786188";"191"
"139";"beti";"-0.0505891392020826";"0.167494467992858";"0.801371870786188";"192"
"140";"zerbitz";"-0.0780112484751835";"0.025892445643287";"0.801362751037371";"193"
"141";"emakume";"-0.0505891392020826";"0.167494467992858";"0.801328877684626";"194"
"142";"salbatu";"-0.0505891392020826";"0.167494467992858";"0.801328877684626";"195"
"143";"eraman";"-0.0505891392020826";"0.167494467992858";"0.801328877684626";"196"
"144";"mezu";"-0.0505891392020826";"0.167494467992858";"0.801328877684626";"197"
"145";"fede";"-0.0505891392020826";"0.167494467992858";"0.801285884583065";"198"
"146";"bihurtu";"-0.0505891392020826";"0.167494467992858";"0.801285884583065";"199"
"147";"berriro";"-0.0505891392020826";"0.167494467992858";"0.801285884583065";"200"
"148";"judu";"-0.0505891392020826";"0.167494467992858";"0.801242891481503";"201"
"149";"jan";"-0.0505891392020826";"0.167494467992858";"0.801242891481503";"202"
"150";"jokatu";"-0.0505891392020826";"0.167494467992858";"0.801242891481503";"203"
"151";"gain";"-0.0505891392020826";"0.167494467992858";"0.801198595558682";"204"
"152";"gabe";"-0.0583931850607459";"-0.0560716044213397";"0.801175144776012";"205"
"153";"gizon";"-0.0505891392020826";"0.167494467992858";"0.801155602457121";"206"
"154";"sortu";"-0.0505891392020826";"0.167494467992858";"0.801155602457121";"207"
"155";"gelditu";"-0.0505891392020826";"0.167494467992858";"0.801155602457121";"208"
"156";"orain";"-0.0588157719840129";"0.125013861287987";"0.801137362959489";"209"
"157";"gero";"-0.0589066091303948";"-0.0707798986591159";"0.800990144157172";"210"
"158";"jesu";"-0.0619362189012968";"0.108900527710277";"0.800917186166644";"211"
"159";"onartu";"-0.0616790991064989";"-0.150204687543107";"0.800759544794252";"212"
"160";"utzi";"-0.0623414717476973";"0.106807886985899";"0.8003244024936";"213"
"161";"jakin";"-0.0653785913943168";"0.0911248379616288";"0.800306162995968";"214"
"162";"gogo";"-0.063751751653171";"0.0995254972650639";"0.800157641372392";"215"
"163";"lan";"-0.0662589159295688";"0.086579026650246";"0.800153732908614";"216"
"164";"sinetsi";"-0.0652142641477364";"0.0919733894064202";"0.800074260811788";"217"
"165";"su";"-0.0505891392020826";"0.167494467992858";"0.8";"218"
"166";"obeditu";"-0.0505891392020826";"0.167494467992858";"0.8";"219"
"167";"neuregan";"-0.0505891392020826";"0.167494467992858";"0.8";"220"
"168";"konpondu";"-0.0505891392020826";"0.167494467992858";"0.8";"221"
"169";"itsatsi";"-0.0505891392020826";"0.167494467992858";"0.8";"222"
"170";"irudiko";"-0.0505891392020826";"0.167494467992858";"0.8";"223"
"171";"iezaiekan";"-0.0505891392020826";"0.167494467992858";"0.8";"224"
"172";"eskas";"-0.0505891392020826";"0.167494467992858";"0.8";"225"
"173";"enuttu";"-0.0505891392020826";"0.167494467992858";"0.8";"226"
"174";"bizileku";"-0.0505891392020826";"0.167494467992858";"0.8";"227"
"175";"batasunagatik";"-0.0505891392020826";"0.167494467992858";"0.8";"228"
"176";"banandu";"-0.0505891392020826";"0.167494467992858";"0.8";"229"
"177";"argudio";"-0.0505891392020826";"0.167494467992858";"0.8";"230"
"178";"aldare";"-0.0505891392020826";"0.167494467992858";"0.8";"231"
"179";"zuritu";"-0.0505891392020826";"0.167494467992858";"0.8";"232"
"180";"zuenetik";"-0.0505891392020826";"0.167494467992858";"0.8";"233"
"181";"zori";"-0.0505891392020826";"0.167494467992858";"0.8";"234"
"182";"zizun";"-0.0505891392020826";"0.167494467992858";"0.8";"235"
"183";"zinez";"-0.0505891392020826";"0.167494467992858";"0.8";"236"
"184";"zinetenok";"-0.0505891392020826";"0.167494467992858";"0.8";"237"
"185";"zineten";"-0.0505891392020826";"0.167494467992858";"0.8";"238"
"186";"zeundetu";"-0.0505891392020826";"0.167494467992858";"0.8";"239"
"187";"zerbitzadu";"-0.0505891392020826";"0.167494467992858";"0.8";"240"
"188";"zenidaten";"-0.0505891392020826";"0.167494467992858";"0.8";"241"
"189";"zaudetu";"-0.0505891392020826";"0.167494467992858";"0.8";"242"
"190";"zapuztu";"-0.0505891392020826";"0.167494467992858";"0.8";"243"
"191";"zaituztedala";"-0.0505891392020826";"0.167494467992858";"0.8";"244"
"192";"zabarkerian";"-0.0505891392020826";"0.167494467992858";"0.8";"245"
"193";"zabal";"-0.0505891392020826";"0.167494467992858";"0.8";"246"
"194";"uttu";"-0.0505891392020826";"0.167494467992858";"0.8";"247"
"195";"ustelkorra";"-0.0505891392020826";"0.167494467992858";"0.8";"248"
"196";"ukaikan";"-0.0505891392020826";"0.167494467992858";"0.8";"249"
"197";"txiki";"-0.0505891392020826";"0.167494467992858";"0.8";"250"
"198";"tikiko";"-0.0505891392020826";"0.167494467992858";"0.8";"251"
"199";"tesalonika";"-0.0505891392020826";"0.167494467992858";"0.8";"252"
"200";"tentaldi";"-0.0505891392020826";"0.167494467992858";"0.8";"253"
"201";"sinestedunak";"-0.0505891392020826";"0.167494467992858";"0.8";"254"
"202";"sinestedun";"-0.0505891392020826";"0.167494467992858";"0.8";"255"
"203";"sinesgogor";"-0.0505891392020826";"0.167494467992858";"0.8";"256"
"204";"sinesgabe";"-0.0505891392020826";"0.167494467992858";"0.8";"257"
"205";"silvano";"-0.0505891392020826";"0.167494467992858";"0.8";"258"
"206";"sesiozale";"-0.0505891392020826";"0.167494467992858";"0.8";"259"
"207";"semealabok";"-0.0505891392020826";"0.167494467992858";"0.8";"260"
"208";"sasijainkoak";"-0.0505891392020826";"0.167494467992858";"0.8";"261"
"209";"sara";"-0.0505891392020826";"0.167494467992858";"0.8";"262"
"210";"santueta";"-0.0505891392020826";"0.167494467992858";"0.8";"263"
"211";"santiago";"-0.0505891392020826";"0.167494467992858";"0.8";"264"
"212";"saldu";"-0.0505891392020826";"0.167494467992858";"0.8";"265"
"213";"sabela";"-0.0505891392020826";"0.167494467992858";"0.8";"266"
"214";"pertsegitzaile";"-0.0505891392020826";"0.167494467992858";"0.8";"267"
"215";"paregabe";"-0.0505891392020826";"0.167494467992858";"0.8";"268"
"216";"osatu";"-0.0505891392020826";"0.167494467992858";"0.8";"269"
"217";"oroitu";"-0.0505891392020826";"0.167494467992858";"0.8";"270"
"218";"ore";"-0.0505891392020826";"0.167494467992858";"0.8";"271"
"219";"ondasun";"-0.0505891392020826";"0.167494467992858";"0.8";"272"
"220";"nolatan";"-0.0505891392020826";"0.167494467992858";"0.8";"273"
"221";"nolanahi";"-0.0505891392020826";"0.167494467992858";"0.8";"274"
"222";"neurez";"-0.0505891392020826";"0.167494467992858";"0.8";"275"
"223";"neskatxa";"-0.0505891392020826";"0.167494467992858";"0.8";"276"
"224";"negu";"-0.0505891392020826";"0.167494467992858";"0.8";"277"
"225";"negar";"-0.0505891392020826";"0.167494467992858";"0.8";"278"
"226";"nahikoa";"-0.0505891392020826";"0.167494467992858";"0.8";"279"
