"";"Valeurs propres";"Pourcentages";"Pourcentage cumules"
"facteur 1";0,0548066904545163;16,9667256042368;16,9667256042368
"facteur 2";0,0495292777307274;15,3329759134186;32,2997015176554
"facteur 3";0,0447742162310593;13,8609325729601;46,1606340906155
"facteur 4";0,0363677144932455;11,2584983246197;57,4191324152352
"facteur 5";0,0291153189042552;9,01334531663259;66,4324777318678
"facteur 6";0,0240666663523927;7,45041382399541;73,8828915558632
"facteur 7";0,0229920805155157;7,11775000355142;81,0006415594146
"facteur 8";0,0157501196401685;4,87582731145588;85,8764688708705
"facteur 9";0,0153075190024643;4,73880966799102;90,6152785388615
"facteur 10";0,0131863655215428;4,08215573072884;94,6974342695904
"facteur 11";0,0108328862889662;3,35357978455791;98,0510140541483
"facteur 12";0,00629570324446241;1,9489859458517;100
