"";"Coord. facteur 1";"Coord. facteur 2";"Coord. facteur 3";"Coord. facteur 4";"Coord. facteur 5";"Coord. facteur 6";"Corr. facteur 1";"Corr. facteur 2";"Corr. facteur 3";"Corr. facteur 4";"Corr. facteur 5";"Corr. facteur 6";"COR -facteur 1";"COR -facteur 2";"COR -facteur 3";"COR -facteur 4";"COR -facteur 5";"COR -facteur 6";"CTR -facteur 1";"CTR -facteur 2";"CTR -facteur 3";"CTR -facteur 4";"CTR -facteur 5";"CTR -facteur 6";"mass";"chi.distance";"inertie"
"classe 1";-1,21004978905826;0,708036023767294;1,61573005967583;-1,02104277700605;-0,469396099133811;0,776181445115723;-0,476773195435808;0,278974138574841;0,636615774391284;-0,402302311749248;-0,184947330376631;0,305824199278455;0,429073513287984;0,0737440387558298;0,27666832941197;0,0805399043690503;0,0111104060224768;0,0187622518434687;0,104550593066721;0,0357956892385196;0,186405031081483;0,0744402623346608;0,0157325446279567;0,0430176352936849;0,0714035854831657;0,149090293807022;0,00158715287933053
"classe 2";-0,826151082516483;-0,564211916113717;-1,30729752301237;-0,32146601913282;0,229751814742359;0,504984910999096;-0,467639246504075;-0,319369714455073;-0,739990107809305;-0,181964449536307;0,130050020877286;0,285844524413406;0,436704785327865;0,102245567791622;0,395470859005419;0,0174315959876355;0,00581182664157715;0,0173403964993407;0,146622139376752;0,0683856702630865;0,367138116990891;0,0221998859798314;0,0113396199782336;0,054781939332511;0,214822912111937;0,100896821316483;0,00218693345408165
"classe 3";0,445069875718766;0,891288027184263;1,4198280341298;-1,11777347954407;3,22509416880471;0,562236881703632;0,115011842170917;0,230320413723347;0,366902022985636;-0,288847199115749;0,833406262173753;0,14528931978768;0,0396973493212176;0,0799157239072543;0,146107737089615;0,0660101500297686;0,358687019712479;0,00673250977710586;0,00286693752969555;0,0114973558806326;0,0291765087447223;0,018082956255809;0,150538168938559;0,00457509895014997;0,0144731088762571;0,180284931548113;0,000470414486918882
"classe 4";0,442012288739076;1,32845059442635;0,379593768232017;-0,483496924178117;2,34227751302709;0,258682261602538;0,157348606344105;0,472905063853047;0,135128710060533;-0,17211640746033;0,833809628680955;0,0920863387423331;0,0732512838289874;0,33214548446373;0,0195380543626821;0,0231063843743032;0,353955775842034;0,00266632493429226;0,00931597238888178;0,0841492636942501;0,00687064727565696;0,0111467160096029;0,261599074566212;0,00319075019003673;0,0476825535636205;0,131807070247133;0,000828393950942642
"classe 5";0,393751461754861;-0,900649517037031;-0,833902743696667;-0,521126450444119;0,300221940928626;-1,07214304912186;0,221055239327536;-0,505631886803765;-0,468159711108628;-0,292564583022559;0,168547013660796;-0,601909735803185;0,0940907117660283;0,247118364455393;0,152626453715107;0,0434496856251466;0,00941267371979769;0,0741380376571624;0,0113449845875229;0,0593568975152636;0,0508850678084246;0,0198721925185565;0,00659544964229652;0,0841133675647288;0,0731744643637954;0,103600245756622;0,000785382325142689
"classe 6";-0,284837686204639;1,09695203939743;0,145527162200461;0,109895877829779;-2,58009760550101;0,66900655792228;-0,0981489317763848;0,377986046409021;0,0501455257018282;0,037867752541255;-0,889046064209352;0,230525250666071;0,0393397182498431;0,292888696210292;0,00371382196270693;0,00154382176922409;0,555436442066709;0,0230637710813011;0,00385973625451966;0,05724505942681;0,00100751344873957;0,000574546966016956;0,316690475533726;0,0212923443245651;0,0475732400524705;0,115902768584753;0,000639072825578688
"classe 7";0,153813844219042;-1,24629375647207;1,17206786064997;0,390098621853431;-0,0843578379205497;-0,345140719135972;0,0855966996530128;-0,693556765932244;0,652250394952316;0,21708809593427;-0,0469447503410677;-0,192069229033996;0,0170712919047126;0,562609885147169;0,358490509101388;0,0289482541330648;0,000883592800020612;0,00913484446245012;0,00510001681067155;0,33482786480922;0,29613263379734;0,0328042102503583;0,00153402216684935;0,0256787071232217;0,215566243987757;0,0950110714534112;0,00194593883842218
"classe 8";2,03262518530562;0,398595100978141;-0,535358571184691;0,661602565537599;-0,307890772649937;0,454460091285027;0,881577920927527;0,172876260194214;-0,232192486616646;0,286946269495947;-0,13353652664925;0,197105686437389;0,915801440388157;0,0176783454009491;0,0229759168099964;0,0255787364797629;0,00361581179078736;0,0048653203653366;0,552531350797398;0,021247421502447;0,0383293840842844;0,0585378384140475;0,0126775597826882;0,0276206454405236;0,133734149540883;0,171422815879088;0,00392988253814064
"classe 9";0,601701200385603;1,43945565464571;0,460045476750343;-1,93364313446316;1,00442110740118;-0,775547565101297;0,212799606475499;0,509082575622644;0,162701181833389;-0,683858529472954;0,355226840587453;-0,274282678098071;0,110523040472462;0,317525517467136;0,0233662602904254;0,300913538671312;0,0529966577348301;0,0195137693581612;0,0149915166075455;0,0857986381662383;0,00876365645485321;0,154823351795772;0,0417749054508256;0,024905811209909;0,0414079580236117;0,146071823043374;0,000883520668141336
"classe 10";0,438274086046201;1,31994402944785;0,12373281908424;-1,09332843221737;-1,7166734443951;1,89440962339985;0,140861032733457;0,424229232478018;0,0397676550682276;-0,351395113200363;-0,551737832425946;0,608862135518027;0,0502844794255496;0,22895197222876;0,00144946856407662;0,0824976668407474;0,132752742895877;0,0998443232281002;0,00443464994035007;0,0402234011010938;0,000353457802963953;0,0275974555333148;0,0680366835748587;0,0828543930743077;0,0230870135548754;0,157739622460934;0,000574446188233243
"classe 11";-1,15709186729043;0,61081378046839;0,0833670123263139;1,58549223257773;0,264854388280421;0,831449110429931;-0,517770394855607;0,27332427202773;0,0373047051062656;0,709469111752228;0,118515880264824;0,372053201979331;0,460717539707093;0,0644477413333166;0,00086493635502657;0,228047497353591;0,0041537385996295;0,0252815462450055;0,074641387250582;0,0207999204142046;0,000387465015254705;0,140143273499978;0,00391073480166288;0,0385403244260722;0,0557498906864888;0,137582263900226;0,0010552829540178
"classe 12";-0,428781538890434;1,18025353003666;-0,604720099549006;-0,987030009729884;-1,46248601210244;-3,66022635884797;-0,0998168577844533;0,274753430528108;-0,140773924950877;-0,229772565220842;-0,340454858806512;-0,852070951714627;0,0556160843597777;0,211528968846529;0,0400067868042348;0,0776939094905323;0,111336469626005;0,430702470276224;0,00704222827676809;0,0533566503788221;0,0140070522670546;0,0373163068794954;0,0819259306506992;0,513161221261599;0,0383034543069523;0,146739777935163;0,00082477152109015
"classe 13";-1,6502981976158;2,35166617832904;-0,153645475496146;4,18115047338114;1,09582412809307;-1,82013832925821;-0,299939329643531;0,427411953847137;-0,0279248447278522;0,759918099611614;0,199164463042068;-0,330807529890607;0,241001695879412;0,245661771108705;0,000755494682302797;0,407835336225692;0,0182853264112388;0,0311556818828098;0,0626984871125891;0,127316167609411;0,000543465228331438;0,402461003562556;0,0276448302854312;0,0762677618086907;0,0230214254481854;0,271309099256485;0,00169457552663646
