"";"banalfreq";"X.L_Efesoarrei";"X.L_Erromatarrei";"X.L_Filemoni";"X.L_Filipostarrei";"X.L_Galaziarrei";"X.L_Kolosarrei";"X.L_Korintoarrei1";"X.L_Korintoarrei2";"X.L_Tesalonikarrei1";"X.L_Tesalonikarrei2";"X.L_Timoteori1";"X.L_Timoteori2";"X.L_Titori"
"tratar";24;-0,7743;-1,6715;-0,1558;-0,512;0,5848;0,4998;0,8996;1,4892;-0,1339;-0,2522;-0,2015;-0,3916;0,3827
"otro";168;0,6518;0,4553;0,6205;-0,3546;0,746;-0,508;1,5332;-0,7166;-0,3534;-1,0584;-1,3019;-1,2966;-0,3082
"según";27;0,9075;-0,5678;-0,1753;0,4276;1,3429;-0,5702;0,4432;0,308;-0,5007;-0,2837;-0,6463;0,1956;-0,2614
"presente";15;-0,4839;0,3791;0,6972;0,2829;-0,1585;0,8033;0,3865;-0,4113;0,3252;-0,1576;-0,359;-0,2447;-0,1452
"fuera";27;0,2327;0,2587;-0,1753;-0,2031;0,4917;-0,5702;0,9661;-0,5467;0,5055;0,319;-0,2431;-0,4406;-0,2614
"ejemplo";25;-0,3399;-0,275;-0,1623;0,4706;-0,8345;-0,528;0,5473;-0,8657;1,0724;0,923;0,4082;-0,408;0,9815
"obedecer";25;0,578;1,5207;-0,1623;-0,1794;-0,3577;0,9464;-1,7409;0,3662;-0,4636;-0,2627;-0,2151;-0,408;0,3694
"fuerza";13;1,9553;-0,7205;-0,0844;-0,2773;-0,4339;0,3293;-0,7108;0,2742;-0,241;-0,1366;0,2911;1,9651;-0,1258
"sobre";54;0,7271;-0,6306;0,2565;-0,2859;-0,6427;0,5962;-0,8295;-0,387;0,7247;0,4305;0,7898;0,2242;0,9346
"rogar";18;-0,2026;-0,3688;-0,1168;-0,384;-0,6008;0,2342;-1,1241;1,6084;1,4298;0,4522;0,6005;-0,2937;-0,1742
"día";55;0,251;-0,67;0,7071;0,3058;-0,6635;-0,2906;-0,3318;-0,6149;1,5729;1,9993;-0,7022;1,2871;-0,5326
"ellos";86;-0,3828;0,5056;-0,1974;-0,3929;-0,4184;-0,2127;0,5269;0,784;0,5368;-0,9044;-0,8133;0,4071;-0,8331
"pecar";31;0,7488;0,6641;-0,2012;-0,6614;-0,4935;0,7434;0,2882;-0,4042;-0,2033;-0,3258;0,638;-0,5059;-0,3001
"destruir";15;-0,1501;-0,2349;-0,0974;0,2829;0,5146;-0,3167;-0,2296;0,4928;-0,2781;0,5166;-0,359;0,3657;-0,1452
"antepasado";11;-0,3548;1,1601;-0,0714;-0,2346;0,2437;-0,2323;-0,2474;-0,6821;-0,2039;-0,1156;0,3424;0,4704;0,6627
"gloria";38;-0,3168;0,7284;0,3631;0,2601;-0,6625;0,2644;-0,8469;0,9071;0,323;0,6382;-0,4108;-0,23;-0,3679
"mediante";10;1,5226;1,3398;-0,0649;-0,2133;-0,3337;1,1045;-1,0547;-0,6201;-0,1854;-0,1051;-0,2393;-0,1632;-0,0968
"nombre";21;0,7282;-0,8738;-0,1363;-0,1346;-0,7009;0,1939;0,5371;-0,6766;0,2276;1,8818;0,5064;0,263;-0,2033
"autoridad";31;0,4152;0,4474;0,4308;-0,2529;-0,2255;0,7434;-1,62;-0,4042;0,8594;0,2776;-0,3016;-0,166;0,8278
"mí";68;-0,8976;0,2819;1,0951;1,8017;1,2055;-0,4341;-0,3077;-0,357;-1,2616;-0,715;0,3025;0,3368;-0,6586
"hasta";42;0,4509;-0,3769;0,3313;0,4857;1,0607;-0,8872;-0,3652;0,307;0,2768;-0,4414;-0,4765;0,3356;0,2161
"naturaleza";20;1,2973;0,5912;-0,1298;-0,4267;0,7432;1,1766;-0,2508;-1,2403;-0,3708;-0,2102;-0,4787;-0,3264;-0,1936
"mayor";16;-0,5161;0,9446;-0,1038;-0,3413;0,4765;-0,3379;0,601;-0,4536;-0,2967;0,4935;0,2321;-0,2611;-0,1549
"gente";26;0,2484;-1,2464;0,4921;0,8985;0,2345;-0,5491;0,2997;-1,6125;1,0322;-0,2732;0,7937;1,1594;0,3567
"valor";15;-0,1501;0,6736;-0,0974;0,7964;-0,1585;-0,3167;0,6848;-0,9301;0,3252;-0,1576;-0,359;-0,2447;-0,1452
"fin";26;0,5464;0,2918;0,4921;-0,1912;-0,3796;0,454;0,2997;-0,9142;0,5278;0,3307;0,3874;-0,4243;-0,2517
"propósito";10;0,8033;-0,2043;-0,0649;0,4111;-0,3337;0,4145;-1,0547;-0,6201;0,4591;-0,1051;1,0127;0,5042;-0,0968
"procurar";22;1,7533;-0,9459;0,5525;-0,1455;-0,2937;-0,1431;-0,3279;0,24;0,631;-0,2312;-0,175;0,2499;-0,2129
"nunca";11;-0,3548;0,3562;-0,0714;-0,2346;-0,3671;-0,2323;0,705;-0,2526;1,1265;-0,1156;0,3424;-0,1795;-0,1065
"verdadero";23;-0,742;-0,21;-0,1493;0,5191;-0,3147;1,6629;-1,0036;-0,4054;0,2038;-0,2417;0,9105;0,2376;1,0432
"entrar";10;-0,3226;1,3398;-0,0649;-0,2133;-0,3337;-0,2111;0,8243;-0,6201;-0,1854;0,6678;-0,2393;-0,1632;-0,0968
"ángel";12;-0,3871;-0,641;-0,0779;-0,256;1,2702;0,3546;0,605;-0,2905;-0,2225;0,5987;0,3153;-0,1958;-0,1161
"compañero";10;-0,3226;0,8137;-0,0649;1,097;0,2706;0,4145;-0,4807;-0,2161;-0,1854;-0,1051;-0,2393;-0,1632;-0,0968
"solamente";25;-0,8065;1,5207;-0,1623;-0,5333;0,2509;-0,1765;0,3373;0,3662;-0,1432;-0,2627;-0,5984;0,2153;-0,242
"siervo";12;0,2292;-0,3033;0,7847;0,3513;0,6554;0,3546;-1,2657;0,3119;-0,2225;-0,1261;-0,2872;0,4402;0,6296
"oír";18;0,4285;0,4545;-0,1168;0,2314;0,4105;0,6791;-0,6552;-0,5406;0,2706;-0,1891;-0,4308;0,8508;-0,1742
"profeta";14;1,1331;0,7693;-0,0909;-0,2986;-0,4672;-0,2956;0,4482;-0,8681;0,3469;-0,1471;-0,3351;-0,2284;0,5718
"conceder";22;0,3244;0,7346;-0,1428;-0,1455;-0,2937;-0,4646;0,7487;-1,3643;-0,4079;-0,2312;-0,175;1,3402;-0,2129
"dos";17;-0,1846;-1,0528;0,6491;0,2471;0,8981;-0,359;0,2877;0,3996;-0,3152;-0,1786;0,216;0,326;0,5012
"mensaje";71;-0,3776;-1,4226;-0,145;-0,2552;-0,2439;1,292;0,7522;-0,8235;1,5432;0,2936;-1,7006;0,9167;0,6858
"incluso";10;-0,3226;0,4256;-0,0649;0,4111;-0,3337;-0,2111;0,4323;-0,2161;-0,1854;0,6678;-0,2393;0,5042;-0,0968
"hacerlo";15;-0,1501;-0,2349;-0,0974;-0,32;-0,5006;0,8033;-0,4661;0,4928;1,6433;-0,1576;0,2499;-0,2447;-0,1452
"de";2122;0,3567;0,3232;-0,5254;-0,4749;0,7903;-0,9243;-0,3181;-0,3935;-0,6049;-0,6462;0,2966;1,5276;0,6336
"bien";140;-0,2362;1,2833;-0,4166;-0,3089;-0,5459;-0,4652;-1,2752;-0,5143;0,4329;-0,8259;1,1332;0,8341;0,7052
"compartir";11;0,7363;-0,2521;-0,0714;1,0234;0,714;-0,2323;-0,2474;-0,6821;-0,2039;-0,1156;0,3424;-0,1795;-0,1065
"mandar";23;-0,742;-0,637;-0,1493;1,0203;0,2878;0,525;-0,3697;-0,1984;-0,4265;0,3698;-0,1881;0,6832;1,0432
"ahora";107;0,2992;0,5306;0,673;0,5965;1,5811;0,4003;-0,8535;-0,2645;-0,4666;0,3255;-1,7141;-0,356;-0,5031
"encargo";13;0,2081;-0,3576;-0,0844;-0,2773;-0,4339;0,3293;0,256;0,2742;0,3707;-0,1366;0,8191;0,413;-0,1258
"servir";45;-0,8015;1,0312;-0,2922;-0,1983;-0,2431;0,7856;-0,3145;0,249;-0,3627;-0,473;-0,2491;0,6379;-0,4357
"igual";14;-0,1336;0,4402;-0,0909;0,3034;-0,4672;0,3065;1,2167;-0,3699;-0,2596;-0,1471;-0,3351;-0,2284;-0,1355
"portar";12;0,677;-0,641;-0,0779;-0,256;0,6554;-0,2534;-1,2657;0,6831;1,9184;-0,1261;-0,2872;0,4402;-0,1161
"inmoralidad";16;0,4958;-0,9679;-0,1038;-0,3413;-0,1764;0,2671;1,952;-0,4536;0,3055;-0,1681;0,2321;-0,2611;-0,1549
"mientras";17;-0,5484;0,518;0,6491;0,2471;0,442;-0,359;0,5278;-1,0542;-0,3152;0,4721;0,216;-0,2774;0,5012
"antes";56;0,6777;-0,3718;0,2463;-0,3068;0,9292;0,3011;-1,9629;-0,2779;-0,234;0,4109;0,452;0,8203;0,4552
"firmes";26;0,9532;-0,819;0,4921;0,4485;-0,3796;0,454;-0,3023;-0,5102;1,0322;1,6289;-0,6224;-0,4243;-0,2517
"aprender";14;-0,1336;-1,4911;-0,0909;0,8452;-0,1412;-0,2956;0,4482;-0,3699;-0,2596;-0,1471;0,7671;1,0352;0,5718
"hacedlo";10;0,2805;-1,065;-0,0649;1,097;0,2706;1,1045;0,8243;-0,6201;-0,1854;-0,1051;-0,2393;-0,1632;-0,0968
"unión";17;1,5323;-0,6002;-0,1103;-0,3626;-0,5674;0,7172;-0,3147;-0,2208;-0,3152;-0,1786;0,637;0,8917;-0,1645
"creer";65;-1,3186;1,4982;0,2064;-0,4069;0,4574;-0,7457;-0,3471;-0,4539;0,5406;0,6921;0,3344;-1,0612;0,3757
"ninguno";31;-0,4698;-1,1494;-0,2012;-0,2529;-0,2255;-0,6547;0,6796;0,4014;0,8594;1,429;0,3004;-0,166;0,302
"algo";27;0,2327;-0,5678;-0,1753;0,4276;0,2192;-0,5702;0,676;1,2333;-0,5007;-0,2837;0,3679;-0,4406;-0,2614
"mismo";189;1,0732;0,4021;0,2731;0,7047;-0,4527;-1,7128;0,5111;0,8982;0,2711;-0,4739;-1,2445;-1,102;-0,399
"esperar";30;-0,9679;-0,29;0,442;1,272;-0,4702;-0,6336;-0,4594;0,4331;0,4454;-0,3153;-0,2867;1,012;0,8507
"siquiera";12;0,2292;-0,641;-0,0779;-0,256;0,6554;-0,2534;1,5579;-0,2905;-0,2225;-0,1261;0,3153;-0,1958;-0,1161
"condenar";14;-0,4516;-0,1958;-0,0909;-0,2986;-0,1412;0,3065;-0,4074;0,5484;-0,2596;1,3672;-0,3351;-0,2284;1,4314
"propio";84;-0,2187;-0,3673;-0,5457;0,4246;0,551;-0,633;1,5466;-1,2341;0,3298;-0,3975;0,7857;-0,4011;-0,8137
"junto";19;-0,6129;-0,4183;0,6069;0,6374;1,3254;0,2197;-0,4098;0,6191;-0,3523;-0,1996;-0,4548;0,2922;-0,1839
"menos";15;-0,1501;-0,4743;-0,0974;-0,32;-0,5006;-0,3167;0,6848;0,8916;0,8928;-0,1576;0,2499;-0,2447;-0,1452
"decir";194;-0,9763;1,4139;-0,6671;-0,76;1,0814;-1,353;1,0388;0,9365;-1,0531;-0,5003;-1,314;-1,1547;-0,2406
"noticia";17;1,5323;-1,0528;1,5888;1,345;-0,1948;1,3558;-1,7931;-0,4967;0,8037;-0,1786;-0,4069;-0,2774;-0,1645
"someter";27;-0,3821;-0,3479;-0,1753;-0,576;1,9037;-0,1999;0,9661;-0,963;-0,5007;-0,2837;0,3679;0,1956;0,3447
"cosa";105;0,4718;0,2819;-0,2698;-0,2145;-0,981;1,2078;0,9026;-1,2968;-0,7442;-1,1045;0,6956;0,264;0,6953
"bondad";42;1,1142;1,9277;-0,2727;-0,8962;-0,4084;-0,3966;-1,4502;0,4914;-0,779;0,5757;-1,0056;-0,6855;1,8695
"razón";16;0,4958;1,3904;-0,1038;0,7517;-0,534;0,2671;-0,5271;-0,4536;0,3055;-0,1681;-0,383;-0,2611;-0,1549
"derramar";16;0,9917;-0,5362;0,6723;0,2642;-0,1764;0,2671;-0,9553;-0,4536;-0,2967;0,4935;0,6767;0,345;0,523
"engañar";23;0,3032;-1,0193;-0,1493;-0,4907;-0,3147;0,525;-1,5614;0,4356;0,6028;1,7728;0,454;1,2912;0,3968
"vengar";13;-0,4193;-0,3576;-0,0844;0,8987;-0,4339;-0,2745;0,8925;-0,3296;-0,241;1,4274;-0,3111;0,413;-0,1258
"acción";12;1,3058;-0,3033;0,7847;0,3513;-0,4005;-0,2534;-0,2978;-0,2905;-0,2225;-0,1261;0,8767;-0,1958;-0,1161
"suceder";18;-0,5807;-0,6661;-0,1168;-0,384;1,4027;0,2342;0,2483;-0,5406;0,7642;1,1687;-0,4308;0,8508;-0,1742
"sí";40;0,8091;0,8479;-0,2597;0,2384;0,2397;-0,8449;-0,9564;1,8837;-0,3031;-0,4204;-0,9577;-0,2493;-0,3873
"perder";16;-0,5161;0,5905;-0,1038;0,2642;-0,534;-0,3379;0,3335;0,8123;-0,2967;-0,1681;0,2321;-0,2611;0,523
"escoger";25;0,2654;0,3287;1,2788;0,4706;-0,3577;-0,1765;-0,2676;-0,8657;-0,1432;0,3431;-0,2151;0,2153;0,3694
"1";25;0,2654;0,8021;0,5061;-0,1794;-0,3577;-0,1765;0,5473;-0,8657;-0,4636;0,3431;-0,2151;0,2153;-0,242
"mal";37;-1,1939;0,5641;0,3718;0,2717;-1,2352;-0,3275;-1,1245;0,2537;1,1716;0,228;0,4966;0,8099;1,3222
"manera";62;-0,464;-0,4072;-0,4026;-0,3725;-0,291;-0,6979;0,9859;0,5126;0,9325;1,215;-1,4848;-0,223;-0,2204
"fuerte";13;-0,4193;-0,3576;-0,0844;-0,2773;-0,4339;0,3293;1,3747;0,6113;0,3707;-0,1366;-0,3111;-0,2121;-0,1258
"castigar";15;-0,4839;0,6736;-0,0974;-0,32;-0,1585;-0,3167;-0,8725;0,8916;0,3252;1,3119;0,2499;-0,2447;-0,1452
"recibir";87;1,0349;-0,7253;-0,2011;0,6229;0,7138;0,6353;0,2867;-1,0302;0,5248;0,4622;-1,3105;0,3979;-0,3708
"enemigo";16;-0,5161;0,5905;0,6723;0,7517;-0,1764;0,2671;-0,5271;-0,9922;-0,2967;1,2607;0,2321;0,345;-0,1549
"llegar";55;0,251;-0,67;0,2513;0,5691;-0,3848;0,3117;-0,875;-0,2609;0,7054;1,9993;0,2431;0,8405;-0,5326
"bajo";19;0,3992;0,6643;-0,1233;-0,4053;1,3254;-0,4012;0,6766;-1,1782;-0,3523;-0,1996;-0,1374;-0,31;-0,1839
"acercar";17;0,4606;0,518;-0,1103;-0,3626;-0,5674;-0,359;-0,5902;0,3996;0,2873;-0,1786;0,216;0,326;1,2756
"convencer";14;-0,4516;0,7693;0,724;0,3034;-0,4672;-0,2956;-0,4074;-0,3699;0,3469;-0,1471;-0,3351;1,0352;0,5718
"agradar";20;-0,2399;0,3498;-0,1298;-0,4267;-0,6675;0,6109;-0,2508;-0,3084;1,3112;-0,2102;0,5354;0,2771;-0,1936
"nadie";70;-0,3645;-1,092;-0,4546;0,6121;0,5866;-0,2412;0,6245;0,3406;1,1419;-0,3019;-0,5712;-0,5766;0,698
"confiar";24;-0,3192;-0,423;-0,1558;1,586;0,2686;-0,5068;-1,0773;1,048;-0,1339;-0,2522;0,4303;0,2261;0,3827
"prueba";20;-0,6452;-0,47;-0,1298;-0,4267;0,3552;-0,4223;0,6028;1,3895;0,2409;-0,2102;0,5354;-0,3264;-0,1936
"paciencia";15;-0,1501;-0,2349;-0,0974;-0,32;-0,1585;1,4998;-1,5821;0,2132;0,3252;-0,1576;0,2499;1,7872;-0,1452
"cuando";127;-0,3582;-1,94;0,2488;-0,2276;0,4707;-1,2491;1,9966;0,9346;1,0696;0,4428;-1,0656;-0,8279;-0,3303
"ante";16;-0,5161;-0,5362;0,6723;0,2642;0,9591;0,2671;-0,5271;0,4435;-0,2967;-0,1681;0,6767;0,345;-0,1549
"contrario";39;-0,6553;0,9123;-0,2532;-0,8322;-0,355;-0,8238;-0,2764;0,5911;0,6534;0,2141;-0,1861;0,3726;0,236
"entregar";20;0,3722;0,9067;-0,1298;-0,4267;0,3552;0,2063;-0,4607;-0,6306;-0,3708;-0,2102;1,0513;-0,3264;0,4441
"caso";24;-0,3192;-0,6961;-0,1558;-0,512;-0,336;-0,5068;0,6077;-0,8177;-0,445;0,9526;1,4306;0,6554;1,8156
"paz";46;0,9651;-0,2341;0,3034;0,7509;-0,2561;0,7615;-1,7256;-0,9115;0,9033;1,0127;-0,5441;0,2927;-0,1363
"persona";32;-0,2249;0,2503;-0,2077;-0,2658;0,3714;-0,6759;1,5345;0,6077;-0,5934;-0,3363;-0,3167;-0,5222;-0,3098
"entonces";29;-0,9356;0,3484;1,1641;0,3894;1,2277;-0,6125;1,118;-1,7986;-0,1826;0,2973;-0,6942;-0,1488;-0,2807
"igualmente";10;-0,3226;-0,2043;-0,0649;0,4111;-0,3337;-0,2111;0,8243;-0,6201;-0,1854;-0,1051;0,373;-0,1632;1,712
"miedo";10;-0,3226;0,8137;0,8576;0,4111;0,2706;-0,2111;-0,4807;-0,2161;0,4591;-0,1051;-0,2393;-0,1632;-0,0968
"mano";18;-0,2026;-0,6661;-0,1168;-0,384;0,4105;0,2342;0,4637;-0,5406;0,7642;-0,1891;1,1626;0,3085;-0,1742
"recordar";14;0,577;-0,4147;-0,0909;-0,2986;-0,4672;-0,2956;-0,1913;-0,3699;1,7267;0,5417;0,2695;0,3883;-0,1355
"tanto";68;1,2784;-0,5924;0,5729;0,9708;0,4098;-0,2252;-0,4252;-0,2358;0,8105;-0,715;-0,5426;-0,5531;-0,6586
"además";11;-0,3548;0,3562;-0,0714;-0,2346;-0,3671;0,3828;-0,5555;1,3223;0,4263;-0,1156;0,3424;-0,1795;-0,1065
"glorioso";24;1,5968;-0,2415;-0,1558;0,4941;-0,8011;0,4998;-1,6509;1,048;-0,445;-0,2522;-0,2015;0,2261;0,3827
"saludo";17;-0,5484;-0,3216;-0,1103;0,7106;-0,5674;1,3558;0,2877;-0,4967;-0,3152;0,4721;-0,4069;0,8917;0,5012
"ayuda";14;-0,1336;-0,1958;0,724;1,5703;-0,4672;-0,2956;-1,4766;0,5484;-0,2596;-0,1471;0,2695;0,3883;0,5718
"salvación";34;0,6505;0,7265;1,0444;0,6541;-1,135;-0,7181;-1,3382;-0,4948;0,3784;0,7103;-0,3474;0,8893;0,2746
"crear";21;0,3473;1,6118;-0,1363;-0,448;-0,2731;1,1247;-0,5135;-1,3023;-0,3894;0,3997;0,5064;-0,3427;-0,2033
"orar";27;0,5168;-0,8826;-0,1753;-0,576;-0,9013;1,4304;-0,3389;0,5439;-0,1626;1,5853;0,7591;-0,4406;-0,2614
"oración";16;-0,1671;-0,2769;1,6389;1,414;-0,534;0,7584;-0,9553;-0,9922;0,3055;-0,1681;0,6767;0,345;-0,1549
"oportunidad";10;0,2805;-0,4876;-0,0649;0,4111;-0,3337;-0,2111;0,4323;1,4714;-0,1854;-0,1051;-0,2393;-0,1632;-0,0968
"todavía";23;-0,2989;-1,0193;1,3444;0,5191;-0,3147;-0,154;0,6746;-0,1984;0,6028;-0,2417;0,454;-0,3753;-0,2226
"ciudad";13;0,2081;-0,3576;0,7531;0,3261;-0,4339;0,9058;-0,7108;1,6736;-0,241;-0,1366;-0,3111;-0,2121;-0,1258
"oscuridad";11;1,4076;-0,2521;-0,0714;-0,2346;-0,3671;0,3828;-0,5555;0,3556;1,1265;-0,1156;-0,2633;-0,1795;-0,1065
"existir";13;0,2081;0,251;-0,0844;-0,2773;-0,4339;0,3293;0,8925;-0,8061;-0,241;-0,1366;0,2911;0,413;0,5994
"libertad";16;-0,1671;-0,5362;-0,1038;-0,3413;1,5774;-0,3379;1,409;-0,194;-0,2967;-0,1681;-0,383;-0,2611;-0,1549
"traer";14;0,577;-0,1958;-0,0909;-0,2986;-0,4672;0,3065;-1,4766;0,2416;-0,2596;-0,1471;0,7671;1,0352;1,4314
"conocimiento";15;-0,1501;-0,2349;-0,0974;-0,32;-0,5006;0,2859;1,5715;0,4928;-0,2781;-0,1576;-0,359;-0,2447;-0,1452
"reino";14;-0,1336;-0,8016;-0,0909;-0,2986;-0,1412;0,8522;1,2167;-0,8681;0,3469;0,5417;-0,3351;0,3883;-0,1355
"juicio";11;-0,3548;-0,5633;-0,0714;-0,2346;-0,3671;-0,2323;-0,2474;-0,6821;1,1265;-0,1156;0,9407;1,2225;1,6312
"ayudar";36;-0,5844;-1,0828;0,3807;0,2839;-1,2018;-0,314;-0,7421;0,7101;1,2073;1,2657;0,9026;0,8353;0,2582
"conocer";80;0,9297;-0,5082;-0,5197;0,2694;0,6223;0,2759;-0,8141;0,7655;-0,2447;-0,8412;-0,2433;0,2444;0,5873
"trabajo";33;-0,2394;-0,8996;-0,2142;0,3244;-0,5408;-0,2745;0,5685;0,8528;0,3939;0,2596;0,2721;0,4624;-0,3195
"esperanza";40;0,4938;0,8479;-0,2597;0,2384;-0,7124;0,9201;-1,7783;-0,6934;1,0723;0,2075;1,213;-0,6529;0,2291
"eterno";17;-0,1846;0,518;-0,1103;-0,3626;-0,1948;-0,359;-1,7931;-0,2208;-0,3152;1,2131;1,2247;0,326;1,2756
"apóstol";34;0,6505;-0,9595;-0,2207;-0,7254;0,9878;-0,2875;0,7437;-0,2834;-0,2354;-0,3573;0,2591;0,4457;0,2746
"gloriar";10;-0,3226;1,3398;-0,0649;0,4111;-0,3337;-0,2111;-0,4807;0,8608;-0,1854;-0,1051;-0,2393;-0,1632;-0,0968
"pronto";12;-0,3871;0,2987;-0,0779;0,9578;0,2202;-0,2534;-0,2978;-0,2905;-0,2225;0,5987;0,3153;0,4402;-0,1161
"buscar";29;-0,9356;0,5447;-0,1883;0,3894;0,7871;-0,2241;-0,6587;0,259;0,4644;-0,3048;-0,6942;1,6785;-0,2807
"crecer";14;1,1331;-0,8016;-0,0909;-0,2986;-0,4672;0,8522;0,4482;0,2416;0,3469;0,5417;-0,3351;-0,2284;-0,1355
"mantener";19;-0,221;-1,2256;-0,1233;0,217;-0,2331;0,6438;1,0241;-1,1782;-0,3523;1,1271;1,105;0,2922;-0,1839
"región";11;-0,3548;-0,2521;-0,0714;-0,2346;0,714;-0,2323;-0,2474;0,3556;0,4263;-0,1156;0,3424;0,4704;-0,1065
"perdonar";12;0,677;0,2987;-0,0779;-0,256;-0,4005;1,7695;-1,2657;1,1932;-0,2225;-0,1261;-0,2872;-0,1958;-0,1161
"obra";23;0,6479;-0,637;0,5362;-0,1565;-0,3147;-0,154;-0,3697;0,4356;-0,4265;-0,2417;1,4915;-0,3753;0,3968
"contra";31;0,4152;0,2797;-0,2012;-0,6614;0,7136;0,3602;-0,3143;-1,1622;-0,2033;0,7722;0,3004;0,4981;0,302
"pasar";29;-0,9356;-0,4282;-0,1883;-0,2276;-0,1964;0,8042;-0,2507;1,5006;-0,5378;0,2973;-0,272;-0,1488;0,3223
"miar";10;-0,3226;-0,2043;-0,0649;-0,2133;0,2706;0,4145;0,4323;-0,6201;-0,1854;-0,1051;0,373;0,5042;0,6995
"sentar";16;0,4958;-0,2769;-0,1038;-0,3413;-0,534;0,2671;0,959;0,8123;-0,2967;-0,1681;-0,383;-0,2611;-0,1549
"apartar";10;-0,3226;-0,2043;-0,0649;-0,2133;0,2706;-0,2111;-0,2004;-0,2161;-0,1854;0,6678;1,8572;-0,1632;-0,0968
"comenzar";12;-0,3871;-1,2781;0,7847;0,9578;0,6554;-0,2534;-0,6323;1,1932;0,397;-0,1261;-0,2872;0,4402;-0,1161
"porque";227;-0,6112;1,1409;-0,2481;-0,6276;0,6211;-0,4432;-0,6224;0,5945;-0,7969;-0,4366;0,4766;-0,2675;-0,2107
"necesitar";11;0,2532;-0,2521;-0,0714;0,3794;-0,3671;-0,2323;0,3623;1,3223;-0,2039;-0,1156;-0,2633;-0,1795;-0,1065
"verdad";61;0,5684;-0,7047;-0,3961;-1,302;0,3244;-0,6821;-1,1673;0,9807;-0,5677;0,7474;1,3558;1,6085;0,4087
"testigo";12;-0,3871;-0,641;-0,0779;-0,256;-0,4005;0,3546;-0,6323;1,1932;1,0592;-0,1261;0,8767;0,4402;-0,1161
"merecer";14;-0,1336;1,2008;-0,0909;0,3034;-0,4672;-0,2956;-0,1913;-0,3699;-0,2596;0,5417;-0,3351;0,3883;-0,1355
"confianza";16;-0,1671;-1,7042;1,6389;1,414;0,4765;-0,3379;-0,5271;-0,194;-0,2967;0,4935;0,2321;0,9358;-0,1549
"pagar";10;-0,3226;1,3398;-0,0649;-0,2133;-0,3337;-0,2111;-0,4807;-0,2161;0,4591;-0,1051;0,373;0,5042;-0,0968
"solo";102;1,5207;1,5857;-0,258;0,2646;0,3144;-0,8789;-1,0484;-0,7286;-0,4216;-0,5284;1,0139;-0,5694;-0,4692
"necesario";12;-0,3871;-1,2781;0,7847;0,9578;-0,4005;-0,2534;-0,6323;1,1932;1,0592;-0,1261;-0,2872;-0,1958;1,5583
"considerar";12;-0,3871;-0,3033;-0,0779;0,9578;-0,4005;-0,2534;1,022;-0,2905;-0,2225;-0,1261;0,8767;-0,1958;-0,1161
"derrame";11;-0,3548;-1,1715;-0,0714;0,3794;0,2437;1,0308;-0,5555;-0,6821;1,1265;0,6314;0,3424;0,4704;0,6627
"asunto";17;-0,5484;-0,6002;-0,1103;0,2471;-0,1948;-0,359;0,8532;0,7412;0,8037;-0,1786;-0,4069;0,326;-0,1645
"cierto";31;-1,0002;-0,3234;0,4308;0,3552;-0,4935;-0,249;0,4592;0,4014;-0,5749;-0,3258;1,631;-0,166;0,302
"andar";15;-0,1501;-0,4743;-0,0974;-0,32;1,0258;-0,3167;-1,5821;0,4928;0,3252;-0,1576;0,2499;1,7872;0,5464
"acuerdo";25;0,578;-0,275;0,5061;0,9368;-0,3577;-0,528;-0,2676;-1,5504;-0,4636;0,3431;-0,2151;1,201;0,9815
"ruego";13;0,6243;0,251;-0,0844;0,3261;0,1995;-0,2745;-0,3512;1,0801;-0,241;-0,1366;-0,3111;-0,2121;-0,1258
"entre";85;-1,2839;-0,8345;-0,1938;-0,2117;0,7547;-0,3748;-0,277;1,8255;0,839;1,2747;-0,7975;-0,7587;-0,3581
"castigo";17;0,4606;1,7432;-0,1103;-0,3626;-0,5674;0,2499;-0,5902;-0,4967;1,4956;-0,1786;-0,4069;-0,2774;-0,1645
"tomar";25;-0,3399;0,3287;-0,1623;0,4706;-0,3577;-0,1765;0,818;-0,2444;-0,4636;-0,2627;-0,2151;0,6292;-0,242
"formar";15;0,5344;-0,4743;0,6972;0,2829;-0,1585;0,8033;1,0793;-0,9301;-0,2781;-0,1576;-0,359;-0,2447;-0,1452
"volver";23;-0,742;-0,21;-0,1493;-0,1565;0,6202;-0,4857;1,8187;-0,4054;0,2038;-0,2417;-0,1881;-0,3753;-0,2226
"palabra";44;1,0367;-0,2975;-0,2857;-0,9389;-1,469;-0,1855;0,4634;-0,543;0,5548;-0,4625;1,5368;0,3133;0,2041
"permitir";11;-0,3548;-0,5633;-0,0714;-0,2346;-0,3671;0,3828;0,705;0,7655;0,4263;-0,1156;0,3424;-0,1795;-0,1065
"gracia";76;-0,4457;-1,6974;1,5754;0,8047;-1,1349;1,1626;-0,8612;-0,3624;1,0085;0,9633;0,9485;0,5121;0,2998
"templo";13;0,6243;-0,7205;-0,0844;-0,2773;-0,4339;-0,2745;1,9695;0,2742;-0,241;0,5689;-0,3111;-0,2121;-0,1258
"nuevo";25;0,578;-0,275;-0,1623;-0,1794;0,2509;0,9464;-1,152;0,9781;-0,4636;-0,2627;-0,2151;-0,408;0,9815
"precisamente";12;0,2292;1,5405;-0,0779;-0,256;-0,4005;-0,2534;-0,6323;0,6831;-0,2225;-0,1261;-0,2872;0,4402;-0,1161
"delante";31;-0,4698;-0,3234;0,4308;0,7346;-0,4935;-0,6547;-1,62;0,4014;0,8594;-0,3258;1,631;1,5814;-0,3001
"cosecha";13;0,2081;-0,7205;0,7531;0,3261;1,1801;-0,2745;-0,3512;0,6113;-0,241;-0,1366;-0,3111;0,413;-0,1258
"predicar";21;-0,6775;-0,5238;-0,1363;-0,448;0,3309;1,1247;-0,5135;0,5188;0,661;-0,2207;0,5064;0,7439;-0,2033
"poder";223;-0,4391;0,5947;-0,2381;-0,4316;-0,5028;0,4324;1,0637;-0,4666;-0,5499;-0,6624;-0,334;-0,251;0,2624
"satanás";10;-0,3226;-0,4876;-0,0649;-0,2133;-0,3337;-0,2111;-0,2004;0,8608;0,4591;0,6678;1,0127;-0,1632;-0,0968
"acaso";15;-0,4839;-0,4743;-0,0974;-0,32;1,0258;-0,3167;1,5715;0,2132;-0,2781;-0,1576;-0,359;0,3657;-0,1452
"corazón";49;0,3288;0,7918;-0,3182;-0,5054;-0,9443;1,0878;-1,9396;0,9645;0,4731;-0,1724;0,3074;0,2646;-0,1511
"pablar";27;0,2327;-1,9464;0,4788;-0,2031;0,2192;0,8715;0,676;-0,5467;0,5055;0,8681;-0,2431;0,1956;0,3447
"cuanto";37;-0,3007;-0,5572;-0,2402;1,0021;0,2822;0,2761;0,3946;0,4329;0,3359;0,228;-0,8858;-0,2205;0,2505
"sabio";16;-0,5161;0,9446;-0,1038;-0,3413;-0,534;0,2671;1,952;-0,4536;-0,2967;-0,1681;-0,383;-0,2611;-0,1549
"entender";22;0,3244;0,2688;-0,1428;-0,4693;-0,7343;-0,4646;1,4965;0,7979;-0,4079;-0,2312;-0,175;-0,359;-0,2129
"sino";153;0,2687;0,4875;-0,2193;0,3449;0,4647;-0,8426;-0,4984;0,9505;0,5092;-0,5393;-0,3765;-0,4802;-0,4662
"causar";10;-0,3226;0,4256;-0,0649;-0,2133;0,7804;-0,2111;-1,0547;1,4714;-0,1854;-0,1051;-0,2393;-0,1632;0,6995
"dejar";46;-0,2368;-0,3547;0,3034;-0,4607;0,9148;0,7615;0,393;-1,3418;-0,8532;1,0127;-0,5441;0,6196;0,5698
"espíritu";140;0,8913;0,4805;-0,4166;-0,7124;1,2627;-1,4517;1,9224;-0,6546;-0,3308;-0,8259;-1,7499;-0,6247;-0,3964
"tal";21;0,3473;-0,2954;-0,1363;-0,448;-0,7009;1,1247;0,8309;0,5188;0,2276;-0,2207;-0,5027;-0,3427;-0,2033
"cambio";22;-0,7097;0,4681;-0,1428;0,5457;0,6582;-0,4646;1,0879;-1,3643;0,2153;-0,2312;0,4793;-0,359;-0,2129
"animar";24;0,2836;-1,0939;0,5208;0,4941;-0,8011;-0,1652;-0,6831;0,3994;1,1148;0,3561;-0,2015;0,2261;1,8156
"espiritual";32;0,7143;-0,3585;-0,2077;-0,2658;-0,5171;1,7811;1,5345;-0,7389;-0,5934;0,2684;-0,7661;-0,5222;-0,3098
"cual";43;0,7172;0,3335;-0,2792;-0,1805;-0,2179;-0,1768;0,3448;-0,5142;-0,3386;-0,1394;0,3898;0,3243;-0,4163
"disponer";18;-0,2026;0,2425;-0,1168;-0,384;-0,6008;-0,3801;0,4637;1,6084;-0,3337;-0,1891;0,2012;-0,2937;0,4809
"madre";10;0,8033;-0,2043;-0,0649;-0,2133;0,2706;-0,2111;-1,0547;-0,6201;0,4591;-0,1051;1,8572;0,5042;-0,0968
"nada";74;-1,0305;-1,2848;0,5224;0,8432;1,3427;-0,8923;0,3683;1,2132;-0,7464;-0,3286;0,2475;-0,6242;1,0929
"dar";207;1,6186;0,3364;-0,7306;-1,1868;-1,0229;1,1604;-0,7132;0,307;-0,4419;0,6423;0,3638;0,4497;0,3179
"mandato";11;0,2532;-0,2521;-0,0714;-0,2346;-0,3671;0,3828;0,705;-0,2526;-0,2039;-0,1156;0,3424;-0,1795;0,6627
"sin";98;1,3265;-0,932;0,7487;0,7207;-0,8502;-0,5074;0,6961;-0,245;-0,6617;0,3806;-0,2439;-0,2925;-0,1985
"modo";29;0,8237;-0,4282;-0,1883;-0,2276;-0,1964;-0,6125;1,4795;-0,6217;0,4644;-0,3048;0,3322;-0,4733;-0,2807
"voluntad";24;1,5968;0,3701;-0,1558;-0,1679;0,2686;0,9871;-1,6509;0,3994;-0,445;-0,2522;-0,5745;0,6554;-0,2323
"sexual";14;0,577;-1,4911;-0,0909;-0,2986;-0,1412;0,3065;1,7567;-0,3699;0,3469;-0,1471;0,2695;-0,2284;-0,1355
"rey";10;-0,3226;-0,2043;-0,0649;-0,2133;-0,3337;-0,2111;-0,2004;-0,2161;-0,1854;-0,1051;1,8572;1,2992;-0,0968
"respecto";12;-0,3871;0,5958;-0,0779;-0,256;0,6554;0,3546;-0,2978;0,3119;0,397;-0,1261;-0,2872;-0,1958;-0,1161
"después";23;-0,2989;-0,3784;-0,1493;-0,4907;0,6202;-0,4857;1,3705;-0,4054;0,2038;-0,2417;0,9105;-0,3753;-0,2226
"suyo";16;0,4958;-0,2769;-0,1038;0,2642;-0,1764;0,2671;-0,9553;-0,4536;-0,2967;0,4935;1,292;0,345;0,523
"realidad";14;-0,4516;-0,4147;0,724;0,3034;1,7857;0,3065;0,7811;-0,8681;-0,2596;-0,1471;-0,3351;-0,2284;-0,1355
"firmar";11;-0,3548;-0,2521;-0,0714;0,3794;-0,3671;-0,2323;-0,2474;-0,2526;-0,2039;0,6314;0,9407;1,2225;-0,1065
"presencia";12;0,677;-0,3033;-0,0779;-0,256;0,2202;0,3546;-0,6323;1,1932;-0,2225;0,5987;-0,2872;-0,1958;-0,1161
"quién";23;-0,742;0,9718;-0,1493;-0,4907;-0,3147;-0,4857;1,3705;-0,4054;-0,4265;0,3698;-0,5506;0,6832;-0,2226
"clase";25;1,0018;-1,1697;-0,1623;-0,5333;-0,3577;0,4762;-0,7429;0,3662;-0,1432;0,3431;0,4082;1,9018;0,3694
"seguro";12;-0,3871;0,2987;0,7847;0,3513;-0,4005;-0,2534;-1,2657;1,1932;-0,2225;-0,1261;0,3153;1,1538;-0,1161
"veros";21;-0,6775;0,3067;1,417;1,1145;-0,7009;-0,4435;-0,2883;0,5188;1,2575;-0,2207;-0,5027;-0,3427;-0,2033
"ganar";15;-0,1501;-0,8841;-0,0974;0,2829;-0,5006;0,2859;0,6848;0,8916;0,3252;-0,1576;0,2499;-0,2447;-0,1452
"gran";19;0,3992;-0,2213;-0,1233;-0,4053;-0,6342;0,2197;-0,4098;1,494;-0,3523;-0,1996;-0,1374;0,2922;0,4619
"favor";12;0,2292;1,0088;-0,0779;-0,256;0,2202;-0,2534;-0,2978;0,3119;-0,2225;-0,1261;-0,2872;0,4402;-0,1161
"conseguir";12;0,2292;0,5958;-0,0779;0,3513;-0,4005;0,3546;0,3043;0,3119;-0,2225;-0,1261;-0,2872;-0,1958;-0,1161
"escritura";11;-0,3548;0,6951;-0,0714;-0,2346;-0,3671;-0,2323;0,705;-0,2526;-0,2039;-0,1156;0,3424;0,4704;-0,1065
"faltar";14;-0,1336;-1,4911;-0,0909;0,8452;-0,4672;0,3065;-0,791;0,9803;0,3469;0,5417;0,7671;-0,2284;0,5718
"señal";12;-0,3871;-0,3033;1,8816;0,9578;-0,4005;-0,2534;0,605;-0,2905;-0,2225;0,5987;-0,2872;-0,1958;-0,1161
"demás";26;-0,3609;-0,3105;0,4921;0,4485;0,5207;-0,5491;0,7438;-0,2688;0,5278;-0,2732;-0,229;-0,4243;-0,2517
"tiempo";49;0,8675;-0,3082;0,2845;-0,5054;0,8195;-0,2311;-0,4354;-0,6953;-0,1781;0,4846;0,3074;0,2646;-0,1511
"resultado";12;0,2292;0,2987;-0,0779;-0,256;-0,4005;-0,2534;0,605;0,6831;0,397;-0,1261;-0,2872;-0,1958;-0,1161
"dificultad";10;-0,3226;-1,065;0,8576;1,097;0,2706;-0,2111;-1,0547;1,4714;1,2018;-0,1051;-0,2393;-0,1632;-0,0968
"lleno";10;0,8033;-0,2043;-0,0649;-0,2133;-0,3337;0,4145;-0,2004;0,4067;-0,1854;-0,1051;-0,2393;0,5042;-0,0968
"entendimiento";12;0,677;-0,641;0,7847;0,3513;-0,4005;0,965;0,3043;0,3119;-0,2225;-0,1261;-0,2872;-0,1958;-0,1161
"desear";21;-0,6775;0,5261;0,5696;1,1145;-0,7009;-0,4435;-0,5135;0,2655;1,2575;-0,2207;-0,1622;-0,3427;0,4274
"regresar";12;-0,3871;-1,2781;1,8816;0,9578;0,2202;-0,2534;-0,6323;0,3119;1,9184;0,5987;-0,2872;-0,1958;-0,1161
"necesidad";10;-0,3226;-0,4876;-0,0649;1,097;0,2706;-0,2111;-0,4807;0,8608;0,4591;-0,1051;-0,2393;-0,1632;0,6995
"motivo";13;-0,4193;-0,3576;0,7531;0,3261;-0,4339;-0,2745;0,8925;1,0801;-0,241;-0,1366;-0,3111;-0,2121;-0,1258
"pues";211;0,4659;0,7618;0,4179;0,3653;-0,6782;-0,3439;0,6061;0,5168;-0,3211;-0,5936;-1,2139;-0,967;-0,299
"ese";190;0,5434;-1,7998;-0,3341;0,5177;1,3715;-0,3467;-0,7765;1,9708;-0,7204;-0,7825;0,3557;0,7808;-0,4035
"desde";25;-0,3399;1,1305;0,5061;-0,1794;-0,3577;0,9464;-1,7409;0,6334;-0,4636;-0,2627;-0,5984;0,6292;0,3694
"actuar";12;1,3058;-0,641;-0,0779;-0,256;0,2202;-0,2534;0,3043;0,6831;0,397;-0,1261;-0,2872;-0,1958;-0,1161
"muerto";24;0,2836;-0,2415;-0,1558;-0,1679;-0,336;-0,1652;1,6759;-0,4395;-0,1339;-0,2522;-0,5745;0,2261;-0,2323
"embargo";22;-0,7097;-0,3359;-0,1428;-0,1455;0,3085;-0,4646;1,0879;1,6935;-0,4079;-0,2312;-0,5266;-0,359;-0,2129
"bendición";10;0,8033;-0,4876;0,8576;0,4111;0,2706;-0,2111;-0,4807;0,8608;-0,1854;-0,1051;-0,2393;-0,1632;-0,0968
