"";"X.L_Efesoarrei";"X.L_Erromatarrei";"X.L_Filemoni";"X.L_Filipostarrei";"X.L_Galaziarrei";"X.L_Kolosarrei";"X.L_Korintoarrei1";"X.L_Korintoarrei2";"X.L_Tesalonikarrei1";"X.L_Tesalonikarrei2";"X.L_Timoteori1";"X.L_Timoteori2";"X.L_Titori"
"tratar";0;0,11;0;0;1,01;1,05;0,92;1,31;0,59;0;0,46;0;1,13
"escriturar";0,35;1,6;0;0;2,02;0;0,35;0;0;0;0;0,67;0
"otro";5,21;4,46;6,7;3,63;5,37;3,14;5,42;3,36;3,57;1,04;1,85;1,35;3,38
"según";1,39;0,46;0;1,04;1,68;0;0,81;0,75;0;0;0;0,67;0
"presente";0;0,46;1,68;0,52;0,34;1,05;0,46;0,19;0,59;0;0;0;0
"aun";0;1,26;0;1,04;0;0;0,23;0,37;1,19;2,08;0;0;0
"hermano";1,04;3,43;3,35;6,22;4,37;2,62;4,84;3,73;11,3;9,36;3,24;0,67;0
"casar";0;0,11;0;0;0;0;1,5;0;0;0;0,46;0;0
"haber";16,66;18,28;8,38;11,4;17,47;19,37;15,33;21,66;17,24;14,55;18,07;22,24;20,29
"fuera";0,69;0,69;0;0,52;1,01;0;1,04;0,37;1,19;1,04;0,46;0;0
"ejemplo";0,35;0,57;0;1,04;0;0;0,81;0,19;1,78;2,08;0,93;0;2,25
"obedecer";1,04;1,14;0;0,52;0,34;1,57;0,12;0,75;0;0;0,46;0;1,13
"fuerza";1,39;0,11;0;0;0;0,52;0,12;0,37;0;0;0,46;2,02;0
"sobre";2,08;1,03;1,68;1,04;0,67;2,09;0,92;1,12;2,38;2,08;2,32;1,35;3,38
"rogar";0,35;0,34;0;0;0;0,52;0,12;1,12;1,78;1,04;0,93;0;0
"día";1,39;1,03;3,35;1,56;0,67;1,05;1,27;0,93;3,57;5,2;0,46;3,37;0
"hablar";1,74;1,14;1,68;0,52;0,34;0,52;4,26;3,73;2,97;2,08;2,32;1,35;3,38
"ellos";1,74;2,4;1,68;1,56;1,68;2,09;2,42;2,8;2,97;0;0,93;2,7;0
"saber";1,74;2,51;13,4;6,74;1,34;2,62;3,34;2,43;7,73;3,12;3,24;4,72;1,13
"pecar";1,39;1,03;0;0;0,34;1,57;0,81;0,56;0,59;0;1,39;0;0
"orgulloso";0;0,11;0;0,52;0,34;0;0,23;1,49;0,59;0;0,93;0,67;0
"destruir";0,35;0,34;0;0,52;0,67;0;0,35;0,56;0;1,04;0;0,67;0
"me";2,78;3,31;15,08;12,96;8,4;2,62;3,8;8,59;0;0;3,24;15,5;1,13
"te";0;2,28;0;0,52;0;0,52;1,04;0;0;0;6,49;8,09;5,64
"antepasado";0;0,57;0;0;0,34;0;0,23;0;0;0;0,46;0,67;1,13
"mi";0,69;3,77;5,03;10,89;2,02;1,57;3,8;4,11;0;2,08;0,93;8,76;0
"profético";0;0;0;0;0;0;1,27;0;0;0;0;0;0
"gloria";0,69;1,26;1,68;1,04;0,34;1,05;0,58;1,49;1,19;2,08;0,46;0,67;0
"cielo";3,12;0,23;0;1,04;0,34;3,14;0,58;0,19;1,19;1,04;0;0;0
"mediante";1,04;0,57;0;0;0;1,05;0;0;0;0;0;0;0
"nombre";1,04;0,23;0;0,52;0;0,52;0,69;0,19;0,59;3,12;0,93;0,67;0
"autoridad";1,04;0,91;1,68;0,52;0,67;1,57;0,23;0,56;1,78;1,04;0,46;0,67;2,25
"padre";4,17;1,26;1,68;1,04;1,34;3,14;0,58;1,31;2,97;3,12;1,85;1,35;1,13
"mí";0,69;1,71;5,03;4,15;3,02;1,05;1,61;1,49;0;0;1,85;2,02;0
"hasta";1,39;0,91;1,68;1,56;2,02;0;0,92;1,12;1,19;0;0,46;1,35;1,13
"naturaleza";1,39;0,69;0;0;1,01;1,57;0,46;0;0;0;0;0;0
"enviar";0,35;0,34;0;2,59;1,68;0;0,12;0,75;1,78;0;0,46;1,35;1,13
"mayor";0;0,69;0;0;0,67;0;0,58;0,19;0;1,04;0,46;0;0
"gente";0,69;0,23;1,68;1,56;0,67;0;0,69;0;1,78;0;1,39;2,02;1,13
"valor";0,35;0,57;0;1,04;0,34;0;0,58;0;0,59;0;0;0;0
"fin";1,04;0,69;1,68;0,52;0,34;1,05;0,69;0,19;1,19;1,04;0,93;0;0
"propósito";0,69;0,23;0;0,52;0;0,52;0;0;0,59;0;0,93;0,67;0
"procurar";1,74;0,23;1,68;0,52;0,34;0,52;0,46;0,56;1,19;0;0,46;0,67;0
"nunca";0;0,34;0;0;0;0;0,46;0,19;1,19;0;0,46;0;0
"circuncidar";0,69;1,6;0;1,04;2,02;1,57;0,35;0;0;0;0;0;0
"verdadero";0;0,57;0;1,04;0,34;2,09;0,23;0,37;0,59;0;1,39;0,67;2,25
"entrar";0;0,57;0;0;0;0;0,46;0;0;1,04;0;0;0
"ángel";0;0,11;0;0;1,01;0,52;0,46;0,19;0;1,04;0,46;0;0
"compañero";0;0,46;0;1,04;0,34;0,52;0,12;0,19;0;0;0;0;0
"solamente";0;1,14;0;0;0,67;0,52;0,69;0,75;0,59;0;0;0,67;0
"siervo";0,35;0,23;1,68;0,52;0,67;0,52;0;0,37;0;0;0;0,67;1,13
"hacer";9,02;10,97;5,03;7,78;8,73;9,95;6,68;8,22;6,54;10,4;9,27;6,74;11,27
"oír";0,69;0,57;0;0,52;0,67;1,05;0,23;0,19;0,59;0;0;1,35;0
"trabajar";0,35;0,46;1,68;1,56;1,01;1,05;0,92;0,93;3,57;7,28;0,46;0,67;0
"conforme";0,35;2,28;0;0,52;0,67;0,52;0,12;0,37;0;1,04;1,39;1,35;0
"este";7,98;5,71;8,38;4,67;4,7;11,52;8,64;9,71;8,32;12,47;9,73;5,39;6,76
"enseñanza";0,35;0,46;0;0;0;0,52;0,46;0;1,19;1,04;2,78;2,7;3,38
"salvar";0;0,34;0;0;0;0;0,58;0,37;1,19;0;2,32;1,35;1,13
"profeta";1,04;0,57;0;0;0;0;0,46;0;0,59;0;0;0;1,13
"conceder";0,69;0,8;0;0,52;0,34;0;0,81;0;0;0;0,46;2,02;0
"llamar";1,74;0,8;0;0,52;1,34;1,05;1,73;0;1,78;2,08;0,93;0,67;0
"don";0,35;1,37;0;0;0;0;1,27;0;0,59;0;0,46;0,67;0
"dos";0,35;0,11;1,68;0,52;1,01;0;0,46;0,56;0;0;0,46;0,67;1,13
"mensaje";1,39;1,03;1,68;1,56;1,68;3,66;2,19;1,12;4,16;2,08;0;3,37;3,38
"él";5,9;4,46;5,03;5,7;1,68;8,9;3,69;3,17;2,38;4,16;2,78;4,04;3,38
"incluso";0;0,34;0;0,52;0;0;0,35;0,19;0;1,04;0;0,67;0
"hacerlo";0,35;0,34;0;0;0;1,05;0,23;0,56;1,78;0;0,46;0;0
"pacto";0,35;0,11;0;0;1,34;0;0,12;0,56;0;0;0;0;0
"de";53,45;52,9;46,9;50,29;56,77;46,6;52,55;51,91;48,75;46,78;52,83;64,02;58,62
"muy";0;0,57;3,35;2,07;0,34;0,52;0,23;2,43;1,19;1,04;1,39;2,02;1,13
"bien";3,47;4,46;1,68;3,11;2,69;2,62;2,54;2,99;4,16;1,04;5,56;5,39;5,64
"designio";3,12;0,23;0;0;0;2,62;0,46;0;0;0;0;0;0
"alguien";0;0,11;0;0;1,34;0;1,15;0,75;0;0;0,46;0;0
"compartir";0,69;0,23;0;1,04;0,67;0;0,23;0;0;0;0,46;0;0
"demostrar";0;0,57;0;0;0,34;0;0,12;1,68;0;1,04;0;0;0
"mandar";0;0,34;0;1,56;0,67;1,05;0,46;0,56;0;1,04;0,46;1,35;2,25
"ahora";2,78;2,97;5,03;3,63;4,7;3,14;2,07;2,61;1,78;3,12;0,46;2,02;1,13
"macedonia";0;0,11;0;0,52;0;0;0,12;1,49;1,78;0;0,46;0;0
"encargo";0,35;0,23;0;0;0;0,52;0,35;0,37;0,59;0;0,93;0,67;0
"uno";14,58;9,71;10,05;8,81;11,42;9,95;17,52;14,75;13,08;4,16;15,29;11,46;9,02
"hijo";2,43;2,63;0;1,56;7,05;2,09;0,58;0,75;1,78;0;3,24;1,35;3,38
"perseguir";0;0,11;0;0,52;1,68;0;0,23;0,19;0,59;0;0,46;0,67;0
"encontrar";0;0;1,68;1,56;0;0,52;0,35;1,31;0;0;0,46;1,35;0
"también";2,78;5,48;1,68;5,7;4,03;7,33;3,11;6,91;7,13;1,04;2,78;7,41;3,38
"servir";0,35;1,6;0;1,04;1,01;2,09;1,04;1,12;0,59;0;0,93;2,02;0
"igual";0,35;0,46;0;0,52;0;0,52;0,69;0,19;0;0;0;0;0
"ir";1,39;1,94;6,7;3,11;1,68;2,09;2,54;4,67;2,38;1,04;1,39;2,7;1,13
"portar";0,69;0,11;0;0;0,67;0;0;0,56;1,78;0;0;0,67;0
"inmoralidad";0,69;0,11;0;0;0,34;0,52;0,92;0,19;0,59;0;0,46;0;0
"aparecer";0;0;0;0;0;1,05;0,58;0;0;4,16;0,46;0;0
"mientras";0;0,57;1,68;0,52;0,67;0;0,58;0;0;1,04;0,46;0;1,13
"antes";2,08;1,26;1,68;1,04;2,35;1,57;0,58;1,31;1,19;2,08;1,85;2,7;2,25
"firmes";1,39;0,34;1,68;1,04;0,34;1,05;0,58;0,37;1,78;3,12;0;0;0
"aprender";0,35;0;0;1,04;0,34;0;0,46;0,19;0;0;0,93;1,35;1,13
"sembrar";0;0;0;0;1,34;0;0,35;0,75;0;0;0;0;0
"hacedlo";0,35;0;0;1,04;0,34;1,05;0,46;0;0;0;0;0;0
"unión";1,39;0,23;0;0;0;1,05;0,35;0,37;0;0;0,93;1,35;0
"unir";4,51;0,91;3,35;2,59;1,01;2,62;0,46;0,56;0,59;1,04;0;0,67;0
"creer";0,35;2,4;1,68;1,04;2,02;0,52;1,5;1,31;2,38;3,12;1,85;0;2,25
"amor";5,55;1,03;5,03;2,59;2,02;3,66;1,15;2,05;3,57;1,04;3,24;4,04;2,25
"ninguno";0,35;0,34;0;0,52;0,67;0;1,04;0,93;1,78;3,12;0,93;0,67;1,13
"o";2,08;1,6;3,35;1,56;2,69;3,66;4,96;2,05;0;3,12;1,85;0;2,25
"algo";0,69;0,46;0;1,04;0,67;0;0,92;1,31;0;0;0,93;0;0
"mismo";6,59;4,91;5,03;6,22;4,03;1,57;5,07;5,79;4,76;3,12;2,32;2,02;3,38
"esperar";0;0,69;1,68;2,07;0,34;0;0,58;0,93;1,19;0;0,46;2,02;2,25
"esposo";0;0,57;0;0;0,34;0;3,46;0,19;0,59;0;1,39;0;3,38
"seguir";0,69;1,03;10,05;4,67;0,67;0,52;1,38;1,68;2,38;4,16;2,78;1,35;0
"viudo";0;0;0;0;0;0;0,12;0;0;0;4,63;0;0
"visitaros";0;0,34;0;0;0;0,52;0,23;1,12;1,19;0;0;0;0
"siquiera";0,35;0,11;0;0;0,67;0;0,69;0,19;0;0;0,46;0;0
"evangelio";1,04;1,37;10,05;4,15;4,37;1,05;1,27;1,31;2,97;2,08;0,46;3,37;0
"condenar";0;0,34;0;0;0,34;0,52;0,23;0,56;0;2,08;0;0;2,25
"propio";2,08;1,94;0;2,59;2,69;1,05;3;1,12;2,38;1,04;3,24;1,35;0
"junto";0;0,34;1,68;1,04;1,34;0,52;0,35;0,75;0;0;0;0,67;0
"leer";0,35;0;0;0;0;1,57;0;0,75;0,59;0;0,46;0;0
"no";12,5;23,19;10,05;12,44;24,19;13,61;27,31;25,58;19,62;18,71;23,63;14,15;16,91
"menos";0,35;0,23;0;0;0;0;0,58;0,75;1,19;0;0,46;0;0
"vez";0;1,03;3,35;2,07;2,02;0,52;1,5;2,61;0;1,04;0;2,02;1,13
"decir";3,12;6,06;1,68;3,11;6,72;2,09;5,76;5,98;2,38;3,12;2,32;2,02;4,51
"noticia";1,39;0,11;3,35;1,56;0,34;1,57;0;0,19;1,19;0;0;0;0
"cómo";0,69;0,8;3,35;2,07;0,67;1,05;0,69;0,19;3,57;1,04;1,39;0;0
"encargar";0,35;0;0;0;0,34;0;0,12;0,37;2,38;1,04;0,46;0,67;1,13
"someter";0,35;0,57;0;0;2,02;0,52;1,04;0,19;0;0;0,93;0,67;1,13
"carta";0,35;0,23;0;0;0;1,05;0,35;2,8;0,59;4,16;0;0;0
"salvador";0,35;0;0;0,52;0;0;0;0;0;0;1,39;0,67;6,76
"querer";1,39;4;6,7;5,18;6,05;4,19;4,61;3,92;3,57;4,16;3,71;2,7;2,25
"nos";6,59;3,88;0;1,04;5,37;3,14;2,19;11,95;11,3;4,16;1,39;4,04;9,02
"cosa";3,12;2,63;1,68;2,59;1,34;4,71;3,23;1,49;1,19;0;3,71;2,7;4,51
"bondad";2,08;1,83;0;0;0,67;0,52;0,46;1,31;0;2,08;0;0;4,51
"razón";0,69;0,8;0;1,04;0;0,52;0,23;0,19;0,59;0;0;0;0
"quedar";0,69;2,4;3,35;1,56;1,34;0,52;1,38;0,75;0,59;0;0,93;0,67;1,13
"derramar";1,04;0,23;1,68;0,52;0,34;0,52;0,12;0,19;0;1,04;0,93;0,67;1,13
"engañar";0,69;0,23;0;0;0,34;1,05;0,12;0,75;1,19;3,12;0,93;2,02;1,13
"vengar";0;0,23;0;1,04;0;0;0,58;0,19;0;2,08;0;0,67;0
"acción";1,04;0,23;1,68;0,52;0;0;0,23;0,19;0;0;0,93;0;0
"pasión";0,35;0,11;0;0;0,34;1,05;0,12;0;0,59;0;0;2,02;0
"siempre";2,43;1,26;6,7;4,15;1,01;3,66;0,46;1,68;4,16;3,12;1,39;2,7;3,38
"pero";2,78;8,45;6,7;4,67;8,73;4,19;8,3;7,28;2,97;3,12;5,1;6,06;5,64
"vivir";4,17;4,46;6,7;5,18;4,37;1,57;2,42;2,05;4,76;5,2;0,46;2,02;1,13
"suceder";0;0,23;0;0;1,34;0,52;0,46;0,19;1,19;2,08;0;1,35;0
"pensar";0,35;1,03;1,68;5,18;0,67;0,52;1,15;2,24;0;1,04;0,46;0,67;0
"anuncio";0;0,23;3,35;2,07;0,67;0;0,23;0,37;0,59;0;0;0;0
"honrar";0,35;0,57;1,68;0,52;0;0;0,23;0,75;0;3,12;0;0;1,13
"sí";1,74;1,37;0;1,04;1,01;0;0,58;2,05;0,59;0;0;0,67;0
"perder";0;0,57;0;0,52;0;0;0,46;0,75;0;0;0,46;0;1,13
"escoger";0,69;0,69;3,35;1,04;0,34;0,52;0,58;0,19;0,59;1,04;0,46;0,67;1,13
"aquel";0,69;2,4;0;0,52;2,02;1,57;0,81;1,12;0;4,16;0,93;2,7;1,13
"1";0,69;0,91;1,68;0,52;0,34;0,52;0,81;0,19;0;1,04;0,46;0,67;0
"hombre";1,04;3,2;0;0,52;3,02;2,09;4,26;1,31;1,19;2,08;3,71;2,7;1,13
"mal";0;1,14;1,68;1,04;0;0,52;0,46;0,93;2,38;1,04;1,39;2,02;3,38
"si";1,39;8;8,38;5,7;8,06;2,09;11,75;6,16;1,19;2,08;9,73;2,02;1,13
"manera";1,04;1,37;0;1,04;1,34;0,52;2,07;1,87;2,97;4,16;0;1,35;1,13
"orgullo";0;0,11;0;0,52;0;0,52;0,23;0,93;0;0;0,46;0;0
"timoteo";0;0,11;1,68;1,56;0;0,52;0,23;0,37;2,38;1,04;1,39;0,67;0
"fuerte";0;0,23;0;0;0;0,52;0,69;0,56;0,59;0;0;0;0
"condición";0;0,91;0;0;0;0;0,23;0;0;0;0;0;0
"castigar";0;0,57;0;0;0,34;0;0,12;0,75;0,59;2,08;0,46;0;0
"el";89,21;103,74;55,28;74,13;95,06;87,96;99,56;69,47;72,53;79;94,07;101,75;80,05
"en";29,16;25,02;23,45;33,7;21,5;37,17;28;27,08;25,56;29,11;23,17;31;25,93
"recibir";3,47;1,71;1,68;3,11;3,02;3,14;2,19;1,31;2,97;3,12;0,46;2,7;1,13
"poco";0;0;0;0;0,34;0;0,58;1,12;0;0;0,46;0;0
"luego";0;0,11;0;0;1,68;0;0,46;0,37;0;0;0;0;0
"promesa";1,04;1,26;0;0;2,02;0;0,12;0,37;0;0;0;0,67;0
"mucho";0,35;1,83;5,03;3,63;2,02;1,05;1,96;4,86;2,38;1,04;0,93;2,7;3,38
"enemigo";0;0,57;1,68;1,04;0,34;0,52;0,23;0;0;2,08;0,46;0,67;0
"llegar";1,39;1,03;1,68;2,07;1,01;1,57;0,92;1,31;2,38;5,2;1,39;2,7;0
"justicia";0;1,71;0;0,52;0,67;0;0,23;0,56;0;0;0;0;0
"más";2,78;1,94;13,4;8,29;2,35;0;3,11;5,23;2,38;0;1,85;2,02;0
"sentir";0;0,34;0;1,56;0,34;0;0,23;1,49;1,19;0;0,46;0;0
"bajo";0,69;0,69;0;0;1,34;0;0,69;0;0;0;0,46;0;0
"beber";0;0,34;0;0;0;0,52;1,96;0;0;0;0,46;0;0
"acercar";0,69;0,57;0;0;0;0;0,23;0,56;0,59;0;0,46;0,67;2,25
"convencer";0;0,57;1,68;0,52;0;0;0,23;0,19;0,59;0;0;1,35;1,13
"bautizar";0;0;0;0;0;0,52;1,04;0;0;0;0;0;0
"alguno";0,69;0,91;3,35;1,56;1,68;0,52;3,69;1,49;0,59;2,08;3,71;0,67;0
"maldad";0,69;0,69;0;0;0;0,52;0,12;0;0;3,12;0;1,35;3,38
"abraham";0;2,06;0;0;3,36;0;0;0,19;0;0;0;0;0
"riqueza";0,69;0,23;0;0,52;0;1,05;0,12;0,37;0;0;2,32;0;0
"agradar";0,35;0,57;0;0;0;1,05;0,46;0,37;1,78;0;0,93;0,67;0
"nadie";1,39;1,14;0;2,59;2,35;1,57;2,07;1,87;3,57;1,04;0,93;0,67;3,38
"deseo";0,69;1,14;0;0,52;2,35;1,05;0;0,19;1,19;1,04;0,93;0;2,25
"confiar";0,35;0,46;0;2,07;0,67;0;0,23;1,12;0,59;0;0,93;0,67;1,13
"prueba";0;0,34;0;0;0,67;0;0,69;1,12;0,59;0;0,93;0;0
"lengua";0;0;0;0;0;0;2,54;0;0;0;0;0;0
"contar";0,35;1,49;0;0,52;0,34;0,52;0;0,56;0;0;0;1,35;0
"estar";10,41;9,71;15,08;11,92;11,08;13,61;7,37;9,9;8,92;9,36;4,63;9,43;7,89
"paciencia";0,35;0,34;0;0;0,34;1,57;0;0,37;0,59;0;0,46;2,02;0
"como";12,15;8,68;10,05;9,85;9,07;6,28;10,26;10,27;17,84;4,16;3,71;6,74;1,13
"cumplir";0,69;2,06;0;0;4,7;0,52;0,35;0,19;0,59;1,04;0,93;0,67;0
"quien";3,47;4,8;0;3,63;2,35;4,19;2,3;3,92;2,38;4,16;3,71;1,35;4,51
"comer";0;1,71;0;0;1,01;0,52;3,34;0,37;0;1,04;1,85;0;0
"cuando";2,78;1,94;3,35;3,11;3,69;1,05;4,49;4,11;5,35;4,16;1,39;1,35;2,25
"alcanzar";0,35;1,37;1,68;3,11;0,67;0,52;0,35;0;0,59;1,04;0,46;0,67;0
"ante";0;0,23;1,68;0,52;1,01;0,52;0,23;0,56;0;0;0,93;0,67;0
"contrario";0,35;1,37;0;0;0,67;0;0,92;1,31;1,78;1,04;0,93;1,35;1,13
"entregar";0,69;0,8;0;0;0,67;0,52;0,35;0,19;0;0;1,39;0;1,13
"venir";0,69;1,37;1,68;0,52;1,34;1,05;0,46;1,31;2,38;2,08;2,78;2,7;1,13
"casa";0;0,23;0;0;0;0,52;0,92;0;0;0;3,24;2,02;0
"caso";0,35;0,34;0;0;0,34;0;0,81;0,19;0;2,08;1,85;1,35;3,38
"preocupar";0;0,34;0;1,04;0;0,52;1,04;0,19;0;0;0,46;0;0
"medio";3,82;2,63;0;2,07;3,36;2,62;1,5;2,05;1,78;4,16;0;1,35;4,51
"paz";2,08;1,14;1,68;2,07;1,01;2,09;0,46;0,56;2,38;3,12;0,46;1,35;1,13
"obligar";0;0,11;0;0;1,68;0,52;0,23;0,56;0;0;0;0;0
"hecho";0;1,14;0;0;0;0;0,12;0,75;0;0;0;0,67;2,25
"pan";0;0,11;0;0;0;0;1,15;0;0;1,04;0;0;0
"persona";0,69;0,8;0;0,52;1,01;0;1,38;1,12;0;0;0,46;0;0
"derecho";0,35;0,11;0;0;0;0;0,81;0;0;1,04;0,46;0,67;0
"entonces";0;0,8;3,35;1,04;1,68;0;1,15;0;0,59;1,04;0;0,67;0
"igualmente";0;0,23;0;0,52;0;0;0,46;0;0;0;0,46;0;2,25
"miedo";0;0,46;1,68;0,52;0,34;0;0,12;0,19;0,59;0;0;0;0
"mano";0,35;0,23;0;0;0,67;0,52;0,58;0,19;1,19;0;1,39;0,67;0
"jesús";4,17;2,28;3,35;5,18;2,69;2,09;1,15;1,68;6,54;4,16;3,71;7,41;1,13
"parar";12,84;13,71;18,43;13,48;10,41;12,57;11,18;16,99;10,11;16,63;14,83;9,43;23,68
"recordar";0,69;0,23;0;0;0;0;0,35;0,19;1,78;1,04;0,46;0,67;0
"por";22,56;18,74;23,45;21,77;21,83;21,47;14,4;18,86;14,27;25,99;11,12;10,78;15,78
"librar";0;0,23;0;0;0;1,57;0;0,37;0;0;0;2,02;0
"tanto";3,12;1,37;3,35;3,11;2,02;1,57;1,5;1,68;2,97;0;0,93;0,67;0
"además";0;0,34;0;0;0;0,52;0,12;0,75;0,59;0;0,46;0;0
"glorioso";1,74;0,57;0;1,04;0;1,05;0,12;1,12;0;0;0,46;0,67;1,13
"noche";0;0,11;0;0;0;0;0,12;0,19;3,57;1,04;0,46;0,67;0
"servicio";1,04;1,37;0;1,04;0;0,52;0,35;0,19;0;0;0,93;0,67;0
"proceder";0,35;0;3,35;1,04;0;0,52;0,35;0;0;0;0;0;1,13
"saludo";0;0,34;0;1,04;0;1,57;0,46;0,19;0;1,04;0;1,35;1,13
"os";9,37;3,88;3,35;10,37;10,41;19,37;8,64;12,7;27,94;30,15;0;0;0
"morir";0;3,2;3,35;2,07;1,68;1,57;1,61;0,93;3,57;0;0,46;0;0
"ayuda";0,35;0,34;1,68;1,56;0;0;0;0,56;0;0;0,46;0,67;1,13
"salvación";1,39;1,14;3,35;1,56;0;0;0,35;0,56;1,19;2,08;0,46;2,02;1,13
"descendiente";0;1,26;0;0;0,67;0;0;0,19;0;0;0;0,67;0
"sacrificio";0,35;0,11;0;0,52;0;0;0,81;0;0;0;0;0,67;0
"último";0;0;0;0,52;0;0;0,69;0;0;1,04;0,46;0,67;0
"crear";0,69;1,03;0;0;0,34;1,57;0,35;0;0;1,04;0,93;0;0
"mundo";1,74;1,14;0;1,04;1,34;2,62;3,34;1,31;0;0;1,39;2,02;2,25
"pedir";2,08;0,23;3,35;1,56;0,34;1,05;0,23;0,75;0;1,04;0;0;0
"cuerpo";5,55;1,94;1,68;2,07;1,01;4,19;6,45;1,12;0,59;0;0,46;0;0
"orar";1,04;0,34;0;0;0;2,09;0,58;0,93;0,59;3,12;1,39;0;0
"mente";0,69;0,11;0;0;0;0;0,23;0;0;0;0,46;0,67;3,38
"oración";0,35;0,34;3,35;1,56;0;1,05;0,12;0;0,59;0;0,93;0,67;0
"oportunidad";0,35;0,11;0;0,52;0;0;0,35;0,75;0;0;0;0;0
"todavía";0,35;0,23;3,35;1,04;0,34;0,52;0,81;0,56;1,19;0;0,93;0;0
"alegrar";0;0;1,68;2,07;0;1,05;0,12;0,93;0;0;0;0;0
"ciudad";0,35;0,23;1,68;0,52;0;1,05;0,12;0,93;0;0;0;0;0
"compasión";0;1,03;0;1,04;0;0,52;0;0,19;0;0;0;0,67;1,13
"oscuridad";1,04;0,23;0;0;0;0,52;0,12;0,37;1,19;0;0;0;0
"tu";0,69;1,94;0;0;0,67;0,52;0,81;0;0;0;3,24;4,72;1,13
"alabar";2,08;0,57;0;0;0,34;0;0,12;1,12;0;0;0;0;0
"ti";0;1,14;0;0,52;0,67;0;0,23;0;0;0;1,39;0,67;1,13
"tristeza";0;0,11;0;0,52;0;0;0,12;2,05;0;0;0;0;0
"existir";0,35;0,34;0;0;0;0,52;0,58;0;0;0;0,46;0,67;1,13
"libertad";0,35;0,23;0;0;1,34;0;0,81;0,37;0;0;0;0;0
"sufrimiento";0;0,69;0;0,52;0;0,52;0;1,31;1,19;1,04;0,46;3,37;1,13
"traer";0,69;0,34;0;0;0;0,52;0;0,37;0;0;0,93;1,35;2,25
"pueblo";3,47;1,03;1,68;1,56;0;2,09;0,81;0,37;0,59;0;0;0,67;1,13
"conocimiento";0,35;0,34;0;0;0;0,52;0,81;0,56;0;0;0;0;0
"reino";0,35;0,11;0;0;0,34;1,05;0,69;0;0,59;1,04;0;0,67;0
"juicio";0;0,11;0;0;0;0;0,23;0;1,19;0;0,93;1,35;2,25
"tú";0;1,37;0;0;0,67;0;0,58;0;0;0;0,93;4,72;1,13
"ayudar";0,35;0,46;1,68;1,04;0;0,52;0,58;1,31;2,38;3,12;1,85;2,02;1,13
"pecado";0;5,26;0;0;0,67;0;1,15;0,37;0;0;0,46;0,67;1,13
"conocer";3,12;1,71;0;2,07;2,69;2,09;1,5;2,61;1,78;0;1,85;2,02;3,38
"trabajo";0,69;0,46;0;1,04;0,34;0,52;1,04;1,31;1,19;1,04;0,93;1,35;0
"israel";0,35;1,14;0;0;0,34;0;0,12;0;0;0;0;0;0
"dios";23,95;27,08;15,08;12,96;17,8;19,37;16,48;16,62;24,38;20,79;18,54;15,5;20,29
"esperanza";1,39;1,37;0;1,04;0,34;2,09;0,35;0,56;2,38;1,04;2,32;0;1,13
"malo";1,04;1,94;0;0,52;2,35;1,57;0,12;0,37;1,19;1,04;0,46;1,35;2,25
"sujeto";1,39;0,34;0;0;0;0,52;0,35;0;0;0;0;0;1,13
"débil";0;0,91;0;0;0,34;0;1,5;1,31;0,59;0;0;0,67;0
"eterno";0,35;0,57;0;0;0,34;0;0;0,37;0;2,08;1,39;0,67;2,25
"fe";3,12;5,37;3,35;2,59;6,72;2,09;1,5;1,49;4,76;4,16;10,19;5,39;5,64
"a";38,18;41,59;33,5;37,33;38,97;26,18;30,31;32,31;38,05;29,11;47,27;35,71;47,35
"apóstol";1,39;0,46;0;0;1,68;0,52;1,15;0,75;0,59;0;0,93;1,35;1,13
"gloriar";0;0,57;0;0,52;0;0;0,12;0,56;0;0;0;0;0
"pronto";0;0,34;0;1,04;0,34;0;0,23;0,19;0;1,04;0,46;0,67;0
"buscar";0;0,91;0;1,04;1,34;0,52;0,46;0,75;1,19;0;0;2,7;0
"crecer";1,04;0,11;0;0;0;1,05;0,46;0,37;0,59;1,04;0;0;0
"yo";2,08;2,51;1,68;5,7;5,37;1,57;5,53;4,48;1,78;1,04;1,85;1,35;0
"ya";2,78;3,54;3,35;5,7;4,37;3,14;1,73;3,92;4,16;4,16;0,93;3,37;0
"así";5,55;6,28;6,7;5,7;3,36;3,14;3,57;5,23;4,76;3,12;2,78;3,37;1,13
"mantener";0,35;0,11;0;0,52;0,34;1,05;0,81;0;0;2,08;1,39;0,67;0
"pertenecer";2,08;0,34;0;2,07;0,67;2,09;0,46;0,19;0,59;0;0;0,67;0
"todo";17,01;9,37;18,43;20,74;6,72;17,28;12,45;8,59;11,89;16,63;13,9;16,17;16,91
"resucitar";0,69;1,14;0;0;0,34;2,09;2,65;0,75;2,38;0;0;0,67;0
"región";0;0,23;0;0;0,67;0;0,23;0,37;0,59;0;0,46;0,67;0
"perdonar";0,69;0,34;0;0;0;1,57;0;0,75;0;0;0;0;0
"comunicar";0;0;0;0;0;0;1,15;0;0;0;0;0;0
"obra";1,04;0,34;1,68;0,52;0,34;0,52;0,46;0,75;0;0;1,85;0;1,13
"nosotros";3,12;1,94;0;1,04;3,36;2,09;3;10,08;4,76;3,12;0;1,35;5,64
"ídolo";0;0,11;0;0;0,34;0;1,27;0,19;0,59;0;0;0;0
"cada";2,08;0,8;1,68;1,04;1,01;1,05;3,11;0,56;1,19;1,04;0;0,67;1,13
"luchar";0,35;0;5,03;2,07;0;1,57;0,23;0,19;0,59;1,04;0,46;0;0
"contra";1,04;0,8;0;0;1,34;1,05;0,69;0,19;0,59;2,08;0,93;1,35;1,13
"conciencia";0;0,46;0;0;0;0;1,04;0,37;0;0;2,32;0,67;1,13
"basar";0;0,8;0;0,52;0,34;1,05;0;0;0;0;0;0;1,13
"reconocer";0;0,57;0;0;3,36;0;0,69;0,19;0;1,04;0;0;0
"poner";1,74;1,03;1,68;3,11;1,01;2,09;2,07;1,12;0;0;4,63;2,02;1,13
"alegría";0;0,57;3,35;3,63;0,67;0,52;0,12;0,75;1,78;0;0;0,67;0
"pasar";0;0,57;0;0,52;0,67;1,57;0,69;1,49;0;1,04;0,46;0,67;1,13
"miar";0;0,23;0;0;0,34;0,52;0,35;0;0;0;0,46;0,67;1,13
"amar";4,17;1,26;0;0,52;0,67;2,09;0,35;0,37;1,19;5,2;0,93;2,02;1,13
"permanecer";0,35;0;0;0;0,34;1,57;0,23;0,19;0;0;0,46;0,67;0
"sentar";0,69;0,34;0;0;0;0,52;0,69;0,75;0;0;0;0;0
"apartar";0;0,23;0;0;0,34;0;0,23;0,19;0;1,04;1,39;0;0
"tener";3,82;9,48;8,38;10,89;6,05;7,85;8,3;8,4;7,13;10,4;9,73;8,76;6,76
"carne";0,35;0,11;0;0;0;0;0,92;0;0;0;0;0;0
"comenzar";0;0;1,68;1,04;0,67;0;0,12;0,75;0,59;0;0;0,67;0
"carga";0;0;0;0;0,67;0;0;0,93;0,59;1,04;0,46;0;0
"sabiduría";1,39;0,11;1,68;0,52;0;2,09;1,84;0,19;0;0;0;0;0
"porque";4,51;6,74;5,03;4,15;6,72;4,71;5,07;6,35;3,57;4,16;6,49;5,39;5,64
"necesitar";0,35;0,23;0;0,52;0;0;0,35;0,75;0;0;0;0;0
"sanar";0;0;0;0;0;0;0,35;0;0;0;1,39;1,35;3,38
"verdad";2,08;1,14;0;0;1,68;0,52;0,92;2,24;0,59;3,12;3,24;4,04;2,25
"juzgar";0;1,14;0;0;0,67;0,52;1,84;0;0;1,04;0;0,67;0
"ser";25,69;28,79;23,45;22,29;33,25;27,75;36,18;26,89;17,24;19,75;27,8;17,52;32,69
"testigo";0;0,11;0;0;0;0,52;0,12;0,75;1,19;0;0,93;0,67;0
"merecer";0,35;0,69;0;0,52;0;0;0,35;0,19;0;1,04;0;0,67;0
"confianza";0,35;0;3,35;1,56;0,67;0;0,23;0,37;0;1,04;0,46;1,35;0
"pagar";0;0,57;0;0;0;0;0,12;0,19;0,59;0;0,46;0,67;0
"solo";4,51;3,54;1,68;2,59;2,69;1,05;1,84;1,87;1,78;1,04;4,17;1,35;1,13
"parecer";1,04;0,11;0;0,52;0,34;0,52;1,61;1,49;0;0;0;0;0
"colectar";0;0,23;0;0;0;0;0,23;1,12;0;0;0;0;0
"necesario";0;0;1,68;1,04;0;0;0,12;0,75;1,19;0;0;0;2,25
"considerar";0;0,23;0;1,04;0;0;0,58;0,19;0;0;0,93;0;0
"derrame";0;0;0;0,52;0,34;1,05;0,12;0;1,19;1,04;0,46;0,67;1,13
"asunto";0;0,23;0;0,52;0,34;0;0,69;0,75;1,19;0;0;0,67;0
"secreto";2,78;0,46;0;0;0;2,09;0,58;0,19;0;1,04;0;0;0
"cierto";0;0,69;1,68;1,04;0,34;0,52;0,92;0,93;0;0;2,32;0,67;1,13
"misericordia";0;0,34;0;0;0,34;0;0,12;0,19;0;0;1,39;2,02;0
"andar";0,35;0,23;0;0;1,01;0;0;0,56;0,59;0;0,46;2,02;1,13
"aunque";0;1,49;0;1,56;0,67;0,52;2,42;2,24;1,78;1,04;0,46;0,67;0
"sufrir";0,35;0,57;1,68;0,52;0,34;0,52;0,46;1,49;1,19;5,2;0,46;1,35;0
"acuerdo";1,04;0,57;1,68;1,56;0,34;0;0,58;0;0;1,04;0,46;2,02;2,25
"caer";0;0,46;0;0;1,01;0;0,35;0,56;0;0;2,32;0;0
"moisés";0;1,14;0;0;4,03;0;0,46;0,56;0;0;0;1,35;1,13
"ruego";0,69;0,34;0;0,52;0,34;0;0,23;0,75;0;0;0;0;0
"año";0;0,23;0;0;1,34;0;0;0,56;0;0;0,46;0;0
"entre";0,69;1,6;1,68;2,07;3,02;1,57;2,07;3,55;3,57;5,2;0,93;0,67;1,13
"y";44,08;29,48;51,93;43,55;28,55;46,6;31,11;36,97;48,75;47,82;58,85;52,56;56,37
"nuestro";6,25;4,46;1,68;2,59;3,36;3,14;3,69;6,72;16,05;14,55;7,88;3,37;11,27
"castigo";0,69;0,91;0;0;0;0,52;0,23;0,19;1,78;0;0;0;0
"avergonzar";0;0,23;0;0;0;0;0,46;0,37;0;1,04;0;2,7;0
"tomar";0,35;0,69;0;1,04;0,34;0,52;0,92;0,56;0;0;0,46;1,35;0
"formar";0,69;0,23;1,68;0,52;0,34;1,05;0,69;0;0;0;0;0;0
"mujer";3,12;0,69;0;0;1,01;1,05;3;0;0,59;0;4,63;0,67;1,13
"volver";0;0,57;0;0,52;1,01;0;1,15;0,37;0,59;0;0,46;0;0
"tontería";0,35;0,11;0;0;0;0;0,92;0,19;0;0;0;0;0
"niño";0,35;0;0;0;0,67;0;0,92;0;0,59;0;0;0,67;0
"palabra";2,08;1,03;0;0;0;1,05;1,27;0,75;1,78;0;2,78;1,35;1,13
"permitir";0;0,11;0;0;0;0,52;0,46;0,56;0,59;0;0,46;0;0
"gracia";1,39;1,03;6,7;3,11;0,67;3,66;1,38;1,68;3,57;4,16;3,24;2,7;2,25
"mostrar";1,39;0,91;1,68;0,52;0,67;0;0,35;2,05;0;1,04;0,46;0,67;3,38
"templo";0,69;0,11;0;0;0;0;0,81;0,37;0;1,04;0;0;0
"nuevo";1,04;0,57;0;0,52;0,67;1,57;0,23;1,12;0;0;0,46;0;2,25
"santo";5,21;1,37;1,68;1,56;0;2,09;1,38;0,93;4,76;0;0;1,35;2,25
"justo";0,35;4,68;1,68;1,04;3,36;1,05;0,12;0,19;0;3,12;0;0,67;2,25
"precisamente";0,35;0,69;0;0;0;0;0,12;0,56;0;0;0;0,67;0
"delante";0,35;0,69;1,68;1,56;0,34;0;0,23;0,93;1,78;0;2,32;2,7;0
"cosecha";0,35;0,11;1,68;0,52;1,01;0;0,23;0,56;0;0;0;0,67;0
"soportar";0;0,34;0;0;0,34;0;0,46;1,68;0,59;0;0;3,37;1,13
"saludar";0;1,6;0;0,52;0;2,09;0;0;0,59;0;0;0;1,13
"predicar";0;0,34;0;0;0,67;1,57;0,35;0,75;1,19;0;0,93;1,35;0
"poder";4,86;6,06;5,03;4,67;4,7;6,28;6,57;5,04;4,16;3,12;5,1;5,39;5,64
"creyente";0,69;0,8;0;0;0,67;1,57;1,84;0,19;2,38;1,04;3,71;0;1,13
"familia";0,69;0,23;0;0;0,34;0;0,46;0;0;0;1,85;1,35;1,13
"limpio";0;0,11;1,68;0,52;0;0;0;0,37;0,59;0;0,93;2,02;4,51
"satanás";0;0,11;0;0;0;0;0,23;0,56;0,59;1,04;0,93;0;0
"tito";0;0;0;0;0,67;0;0;1,87;0;0;0;0,67;1,13
"acaso";0;0,23;0;0;1,01;0;0,81;0,37;0;0;0;0,67;0
"corazón";1,39;1,6;0;0,52;0,34;2,62;0,46;1,87;1,78;1,04;1,39;1,35;1,13
"pablar";0,69;0,11;1,68;0,52;0,67;1,57;0,92;0,37;1,19;2,08;0,46;0,67;1,13
"cuanto";0,69;0,69;0;2,07;1,01;1,05;1,04;1,12;1,19;1,04;0;0,67;1,13
"consuelo";0;0,23;0;0;0;0,52;0;1,31;0,59;1,04;0;0;0
"sabio";0;0,69;0;0;0;0,52;0,92;0,19;0;0;0;0;0
"entender";0,69;0,57;0;0;0;0;1,04;0,93;0;0;0,46;0;0
"valer";0;0;0;0;1,34;0;0,35;0,37;0,59;1,04;0;0;0
"israelita";0;0,91;0;0,52;0;0;0;0,37;0;0;0;0;0
"cabeza";1,74;0;0;0;0;1,57;1,61;0;0;0;0;0;0
"sino";3,82;4,11;3,35;4,15;4,37;2,09;3,46;4,86;4,76;2,08;3,24;2,7;2,25
"ley";0,35;8;0;1,56;12,76;0;1,27;0,75;0;0;1,85;0;1,13
"tampoco";0;0,34;0;0;0,34;0;1,15;0,37;0,59;1,04;0,46;0,67;0
"ofrecer";0;0,11;0;0;0;0;1,04;0,37;0;0;0;0,67;0
"causar";0;0,34;0;0;0,67;0;0;0,75;0;0;0;0;1,13
"pesar";0;0,34;0;0;0;0;0,23;0,93;0;0;0;0;0
"dejar";1,04;1,03;1,68;0,52;2,02;2,09;1,27;0,37;0;3,12;0,46;2,02;2,25
"anunciar";1,04;0,69;6,7;2,59;2,02;2,09;0,81;0,56;1,19;1,04;0;1,35;0
"jesucristo";2,78;2,17;10,05;5,18;3,36;1,57;1,73;1,49;4,16;9,36;2,32;2,02;3,38
"vuestro";6,94;1,83;11,73;7,78;1,68;13,09;3,11;4,3;9,51;4,16;0;0;0
"espíritu";4,86;3,77;1,68;2,07;5,37;1,05;4,84;2,8;2,97;1,04;0,93;2,02;2,25
"tal";0,69;0,46;0;0;0;1,57;0,81;0,75;0,59;0;0;0;0
"tan";0,35;0,46;0;0,52;1,68;0,52;0,46;2,43;0;0;0;0;0
"cambio";0;0,69;0;1,04;1,01;0;0,92;0;0,59;0;0,93;0;0
"animar";0,69;0,23;1,68;1,04;0;0,52;0,35;0,75;1,78;1,04;0,46;0,67;3,38
"mandamiento";0,35;0,91;0;0;0,34;0;0,12;0;0;0;0;0;0
"despreciar";0;0,23;0;0;0,34;0;0,35;0;1,78;0;0,46;0;0
"espiritual";1,39;0,69;0;0,52;0,34;2,62;1,38;0,37;0;1,04;0;0;0
"cual";1,74;1,14;0;1,04;1,01;1,05;1,15;0,75;0,59;1,04;1,39;1,35;0
"disponer";0,35;0,46;0;0;0;0;0,58;1,12;0;0;0,46;0;1,13
"primero";0,35;0;0;0,52;0;0,52;0,35;0,56;0,59;0;1,85;0,67;0
"le";1,04;3,2;0;0;2,35;3,66;3,92;5,42;0;2,08;2,32;4,72;4,51
"madre";0,69;0,23;0;0;0,34;0;0;0;0,59;0;1,39;0,67;0
"aceptar";0;1,49;0;0;1,01;0,52;0,35;1,12;0;1,04;0,46;0,67;0
"nada";0,69;1,14;3,35;3,11;3,36;0,52;1,96;2,8;0,59;1,04;1,85;0,67;4,51
"judío";2,78;4,23;0;0,52;5,71;1,57;1,15;0,19;1,78;0;0,46;0;1,13
"dar";7,98;5,26;1,68;2,59;3,36;7,85;4,49;5,23;4,16;7,28;5,56;6,06;5,64
"qué";0,69;2,74;1,68;0,52;2,35;0,52;1,5;0,75;0,59;1,04;0,93;0,67;0
"mandato";0,35;0,23;0;0;0;0,52;0,46;0,19;0;0;0,46;0;1,13
"jerusalén";0;0,46;0;0;2,02;0;0,12;0;0;0;0;0;0
"sin";4,17;1,83;5,03;3,63;1,34;1,57;2,88;2,43;1,19;3,12;2,32;2,02;2,25
"modo";1,39;0,57;0;0,52;0,67;0;1,27;0,37;1,19;0;0,93;0;0
"bueno";3,47;2,17;6,7;4,67;1,68;1,57;0,92;1,87;1,78;3,12;8,8;5,39;7,89
"voluntad";1,74;0,69;0;0,52;0,67;1,57;0,12;0,75;0;0;0;1,35;0
"sexual";0,69;0;0;0;0,34;0,52;0,81;0,19;0,59;0;0,46;0;0
"rey";0;0,23;0;0;0;0;0,23;0,19;0;0;1,39;1,35;0
"causa";2,43;1,14;8,38;4,15;1,34;1,05;1,27;0,93;0,59;1,04;0;1,35;0
"respecto";0;0,46;0;0;0,67;0,52;0,23;0,37;0,59;0;0;0;0
"que";51,02;54,72;50,25;55,47;57,78;61,78;57,27;65,17;55,89;64,45;59,78;51,89;66,52
"después";0,35;0,46;0;0;1,01;0;1,04;0,37;0,59;0;1,39;0;0
"suyo";0,69;0,34;0;0,52;0,34;0,52;0,12;0,19;0;1,04;1,39;0,67;1,13
"realidad";0;0,23;1,68;0,52;1,34;0,52;0,58;0;0;0;0;0;0
"firmar";0;0,23;0;0,52;0;0;0,23;0,19;0;1,04;0,93;1,35;0
"llevar";1,74;1,71;1,68;0,52;1,68;1,57;0,46;1,68;1,19;1,04;1,85;1,35;2,25
"su";18,4;12,8;8,38;9,85;10,41;10,99;8,07;5,98;7,73;13,51;19,46;11,46;30,44
"iglesia";3,82;0,46;0;1,04;1,34;2,09;2,19;1,68;1,19;2,08;2,78;0;2,25
"presencia";0,69;0,23;0;0;0,34;0,52;0,12;0,75;0;1,04;0;0;0
"quién";0;0,91;0;0;0,34;0;1,04;0,37;0;1,04;0;1,35;0
"peligro";0;0,34;0;0,52;0;0;0,35;1,31;0;0;0;0;0
"lugar";0;1,37;0;0;0;0;0,69;0,19;0;0;0,93;0,67;0
"clase";1,39;0,23;0;0;0,34;1,05;0,35;0,75;0,59;1,04;0,93;2,7;1,13
"seguro";0;0,34;1,68;0,52;0;0;0;0,75;0;0;0,46;1,35;0
"con";14,93;10,28;16,75;11,92;8,73;17,8;9,56;13,07;19,62;13,51;11,58;10,78;9,02
"fiel";0,35;0,34;0;0,52;0;2,09;0,12;0;0,59;1,04;0,93;0,67;0
"se";4,51;8;1,68;3,11;9,07;6,28;12,79;11,02;4,16;4,16;14,83;12,8;9,02
"veros";0;0,57;3,35;1,56;0;0;0,46;0,75;1,78;0;0;0;0
"ni";2,08;2,97;0;2,07;3,69;1,57;4,72;1,31;4,16;4,16;7,41;2,02;6,76
"terminar";0;0,34;0;0;0,34;0;0,23;0,93;0;0;0;0;0
"libre";0,69;0,69;0;0;3,02;0,52;0,81;0;0;1,04;0;0;0
"tierra";2,08;0,11;0;0;0;2,09;0,81;0;0;0;0;0;0
"ganar";0,35;0,11;0;0,52;0;0,52;0,58;0,75;0,59;0;0,46;0;0
"gran";0,69;0,46;0;0;0;0,52;0,35;1,12;0;0;0,46;0,67;1,13
"humano";0;1,6;0;0;1,01;0;1,5;0,75;0;0;0;0;0
"luz";2,08;0,23;0;0;0;0,52;0,12;0,93;0,59;0;0,46;0,67;0
"favor";0,35;0,57;0;0;0,34;0;0,23;0,37;0;0;0;0,67;0
"conmigo";0;0,11;1,68;2,07;1,01;1,05;0,23;0,56;0;0;0;0,67;1,13
"conseguir";0,35;0,46;0;0,52;0;0,52;0,35;0,37;0;0;0;0;0
"escritura";0;0,46;0;0;0;0;0,46;0,19;0;0;0,46;0,67;0
"señor";8,33;4,46;5,03;7,26;1,68;7,85;7,84;5,04;14,86;23,91;3,71;10,78;0
"faltar";0,35;0;0;1,04;0;0,52;0,12;0,75;0,59;1,04;0,93;0;1,13
"señal";0;0,23;3,35;1,04;0;0;0,46;0,19;0;1,04;0;0;0
"escribir";0,35;0,8;0;1,04;1,01;0,52;0,92;2,43;0;1,04;0,46;0,67;0
"deber";2,78;2,86;0;1,56;2,35;3,66;4,38;1,68;2,97;2,08;13,44;3,37;10,15
"parte";3,47;1,26;1,68;2,07;0,67;3,66;3,11;1,12;1,78;2,08;0,46;2,02;0
"enseñar";0;0,46;0;0,52;0;1,57;0,92;0;1,19;0;4,17;4,04;5,64
"demás";0,35;0,57;1,68;1,04;1,01;0;0,92;0,56;1,19;0;0,46;0;0
"tiempo";2,08;1,14;1,68;0,52;2,02;1,05;1,04;0,75;1,19;2,08;1,39;1,35;1,13
"pecador";0,35;1,03;0;0;1,34;0,52;0,12;0;0;0;0,93;0;0
"resultado";0,35;0,34;0;0;0;0;0,46;0,56;0,59;0;0;0;0
"dificultad";0;0;1,68;1,04;0,34;0;0;0,75;1,19;0;0;0;0
"cristo";17,7;6,4;20,1;14,52;10,08;18,32;6,34;8,4;2,97;1,04;4,17;7,41;1,13
"vida";1,74;3,31;3,35;3,11;1,01;1,57;0,92;1,87;1,19;1,04;5,56;4,04;9,02
"lleno";0,69;0,23;0;0;0;0,52;0,23;0,37;0;0;0;0,67;0
"preso";1,04;0,11;5,03;1,56;0,34;0,52;0;0;0;0;0;2,02;0
"cruz";0,35;0;0;0,52;1,34;1,05;0,23;0;0;0;0;0;0
"entendimiento";0,69;0,11;1,68;0,52;0;1,05;0,35;0,37;0;0;0;0;0
"desear";0;0,69;1,68;1,56;0;0;0,35;0,56;1,78;0;0,46;0;1,13
"regresar";0;0;3,35;1,04;0,34;0;0,12;0,37;1,78;1,04;0;0;0
"cometer";0,69;0,69;0;0;0,34;0;1,27;0,37;0;0;0,46;0;0
"vosotros";6,94;3,54;13,4;11,4;6,05;10,99;7,72;14,94;12,49;17,67;0,46;0,67;1,13
"necesidad";0;0,11;0;1,04;0,34;0;0,12;0,56;0,59;0;0;0;1,13
"motivo";0;0,23;1,68;0,52;0;0;0,58;0,75;0;0;0;0;0
"pues";5,9;5,94;6,7;5,7;4,03;4,71;5,76;5,79;4,76;3,12;2,78;2,7;4,51
"ese";5,55;3,31;3,35;5,7;7,05;4,19;4,03;6,91;2,97;2,08;5,1;6,74;3,38
"desde";0,35;1,03;1,68;0,52;0,34;1,57;0,12;0,93;0;0;0;1,35;1,13
"esclavo";1,04;0,69;0;0;4,7;1,57;0,81;0;0;0;0,46;0;3,38
"actuar";1,04;0,11;0;0;0,34;0;0,35;0,56;0,59;0;0;0;0
"muerto";0,69;0,57;0;0,52;0,34;0,52;1,15;0,37;0,59;0;0;0,67;0
"herencia";1,39;0,34;0;0;0,67;1,05;0;0;0;0;0;0;0
"muerte";0,35;3,2;1,68;1,04;1,01;0,52;1,27;1,87;0;0;0,46;1,35;1,13
"embargo";0;0,46;0;0,52;0,67;0;0,92;1,31;0;0;0;0;0
"mejor";0,35;0,57;3,35;1,56;0,34;0,52;1,38;0;0;0;0,46;0;0
"nacer";0;0,11;0;1,04;2,35;0;0,23;0;0;0;0;0;1,13
"bendición";0,69;0,11;1,68;0,52;0,34;0;0,12;0,56;0;0;0;0;0
"prometer";0,35;0,46;0;0;2,02;0;0,23;0,19;0;0;0;0;2,25
