"";"Valeurs propres";"Pourcentages";"Pourcentage cumules"
"facteur 1";0,585338708831141;27,4592850659241;27,4592850659241
"facteur 2";0,440169169137024;20,6491224827765;48,1084075487006
"facteur 3";0,421419570723432;19,7695453081548;67,8779528568555
"facteur 4";0,353152404671354;16,5670105278904;84,4449633847459
"facteur 5";0,331580557408352;15,5550366152541;100
