el;280;47;75;1;384;4
que;139;40;47;7;301;4
y;211;28;43;5;222;2
de;144;24;26;3;200;3
yo;20;30;38;1;205;3
a;202;12;25;3;150;2
en;143;14;29;5;135;1
haber;83;12;13;4;181;1
no;58;13;31;4;190;3
él;128;10;22;0;115;2
ser;73;21;23;1;169;3
se;113;3;10;5;38;0
al;62;4;9;1;77;1
tú;33;3;4;0;66;0
estar;60;3;8;5;67;1
este;38;14;12;4;70;1
para;22;17;13;3;72;0
mío;5;13;18;4;74;0
por;31;5;10;1;62;2
del;29;22;6;0;56;1
un;41;4;7;0;40;2
porque;21;3;12;0;65;1
aquel;86;1;0;0;9;0
si;6;2;13;0;59;2
vosotros;5;4;7;5;57;0
tener;10;7;8;0;40;1
con;35;2;4;0;27;2
todo;9;0;6;0;51;0
sino;11;0;11;1;42;0
pero;19;2;7;3;33;1
otro;36;0;2;0;16;0
también;18;0;6;0;31;0
cuando;30;0;3;0;19;1
quien;10;3;1;0;26;3
como;5;5;1;0;28;1
poder;5;2;3;0;30;0
dicho;13;0;1;1;20;1
qué;9;3;0;0;15;0
ni;2;0;1;2;16;0
nosotros;1;0;0;0;26;0
entonces;21;0;1;0;3;0
mucho;18;0;0;0;10;0
donde;15;0;0;0;10;0
pues;3;0;2;1;17;1
ese;5;0;0;0;17;0
quién;8;1;0;0;10;0
antes;7;1;0;0;12;0
entre;14;0;0;0;3;0
sobre;4;1;0;0;10;0
hasta;6;0;1;1;6;0
verdadero;0;2;1;0;8;0
nada;2;1;0;1;9;0
sin;1;0;1;0;10;0
dentro;2;0;0;0;7;0
nuestro;1;2;0;0;7;0
ninguno;3;0;1;1;5;0
mientras;5;0;1;0;4;0
o;4;0;0;0;4;0
desde;4;0;0;0;4;0
aunque;3;1;1;0;2;0
algo;2;0;2;0;4;0
alguno;4;0;0;0;3;0
bien;3;1;0;0;2;0
encima;0;0;0;0;5;0
cada;2;1;0;0;2;0
según;0;0;2;0;1;0
hacia;2;0;0;0;1;0
demás;3;0;0;0;0;0
deber;0;0;0;0;3;0
cincuenta;3;0;0;0;0;0
ante;1;0;0;0;2;0
