"";"X";"V1"
"1";1;2
"2";2;2
"3";3;2
"4";4;0
"5";5;0
"6";6;2
"7";7;0
"8";8;0
"9";9;0
"10";10;2
"11";11;0
"12";12;2
"13";13;2
"14";14;2
"15";15;2
"16";16;2
"17";17;2
"18";18;2
"19";19;2
"20";20;1
"21";21;2
"22";22;0
"23";23;2
"24";24;2
"25";25;1
"26";26;0
"27";27;2
"28";28;1
"29";29;1
"30";30;0
"31";31;2
"32";32;2
"33";33;0
"34";34;2
"35";35;2
"36";36;1
"37";37;2
"38";38;1
"39";39;1
"40";40;2
"41";41;2
"42";42;1
"43";43;1
"44";44;1
"45";45;2
"46";46;1
"47";47;1
"48";48;1
"49";49;1
"50";50;1
"51";51;1
"52";52;1
"53";53;2
"54";54;0
"55";55;1
"56";56;0
"57";57;1
"58";58;2
"59";59;1
"60";60;2
"61";61;1
"62";62;2
"63";63;0
"64";64;1
"65";65;0
"66";66;1
"67";67;2
"68";68;1
"69";69;2
"70";70;1
"71";71;0
"72";72;1
"73";73;2
"74";74;1
"75";75;2
"76";76;2
"77";77;0
"78";78;1
"79";79;2
"80";80;0
"81";81;2
"82";82;2
"83";83;1
"84";84;0
"85";85;2
"86";86;1
"87";87;0
"88";88;0
"89";89;0
"90";90;0
"91";91;0
"92";92;2
"93";93;0
"94";94;2
"95";95;0
"96";96;1
"97";97;0
"98";98;2
"99";99;0
"100";100;0
"101";101;0
"102";102;2
"103";103;0
"104";104;0
"105";105;0
"106";106;0
"107";107;0
"108";108;0
"109";109;2
"110";110;2
"111";111;1
"112";112;1
"113";113;2
"114";114;2
"115";115;0
"116";116;0
"117";117;0
"118";118;2
"119";119;2
"120";120;0
"121";121;0
"122";122;2
"123";123;2
"124";124;1
"125";125;2
"126";126;0
"127";127;2
"128";128;2
"129";129;0
"130";130;0
"131";131;1
"132";132;1
"133";133;2
"134";134;1
"135";135;1
"136";136;1
"137";137;1
"138";138;1
"139";139;1
"140";140;1
"141";141;2
"142";142;1
"143";143;1
"144";144;1
"145";145;1
"146";146;2
"147";147;0
"148";148;0
"149";149;1
"150";150;2
"151";151;1
"152";152;2
"153";153;1
"154";154;2
"155";155;1
"156";156;2
"157";157;1
"158";158;1
"159";159;1
"160";160;1
"161";161;1
"162";162;2
"163";163;0
"164";164;0
"165";165;0
"166";166;2
"167";167;1
"168";168;2
"169";169;1
"170";170;1
"171";171;1
"172";172;1
"173";173;1
"174";174;2
"175";175;1
"176";176;0
"177";177;1
"178";178;1
"179";179;2
"180";180;1
"181";181;2
"182";182;0
"183";183;2
"184";184;0
"185";185;1
"186";186;1
"187";187;1
"188";188;1
"189";189;1
"190";190;2
"191";191;2
"192";192;1
"193";193;2
"194";194;1
"195";195;2
"196";196;2
"197";197;1
"198";198;1
"199";199;1
"200";200;2
"201";201;1
"202";202;1
"203";203;1
"204";204;1
"205";205;1
"206";206;1
"207";207;1
"208";208;1
"209";209;0
"210";210;0
"211";211;1
"212";212;1
"213";213;1
"214";214;1
"215";215;1
"216";216;1
"217";217;1
"218";218;2
"219";219;2
"220";220;2
"221";221;0
"222";222;1
"223";223;0
"224";224;2
"225";225;2
"226";226;0
"227";227;2
"228";228;1
"229";229;2
"230";230;1
"231";231;0
"232";232;2
"233";233;2
"234";234;2
"235";235;2
"236";236;1
"237";237;2
"238";238;2
"239";239;0
"240";240;1
"241";241;0
"242";242;2
"243";243;2
"244";244;0
"245";245;0
"246";246;0
"247";247;2
"248";248;2
"249";249;2
"250";250;2
"251";251;2
"252";252;2
"253";253;1
"254";254;2
"255";255;1
"256";256;1
"257";257;1
"258";258;2
"259";259;1
"260";260;2
"261";261;1
"262";262;1
"263";263;0
"264";264;2
"265";265;1
"266";266;2
"267";267;2
"268";268;2
"269";269;2
"270";270;1
"271";271;2
"272";272;2
"273";273;1
"274";274;0
"275";275;2
"276";276;2
"277";277;2
"278";278;1
"279";279;2
"280";280;1
"281";281;1
"282";282;1
"283";283;1
"284";284;0
"285";285;1
"286";286;0
"287";287;0
"288";288;2
"289";289;1
"290";290;1
"291";291;2
"292";292;2
"293";293;2
"294";294;2
"295";295;2
"296";296;1
"297";297;2
"298";298;2
"299";299;2
"300";300;0
"301";301;2
"302";302;2
"303";303;1
"304";304;0
"305";305;0
"306";306;2
"307";307;2
"308";308;2
"309";309;2
"310";310;2
"311";311;2
"312";312;2
"313";313;2
"314";314;2
"315";315;2
"316";316;2
"317";317;0
"318";318;2
"319";319;0
"320";320;2
"321";321;2
"322";322;1
"323";323;0
"324";324;2
"325";325;2
"326";326;2
"327";327;2
"328";328;2
"329";329;2
"330";330;1
"331";331;0
"332";332;2
"333";333;2
"334";334;0
"335";335;2
"336";336;2
"337";337;0
"338";338;0
"339";339;1
"340";340;0
"341";341;1
"342";342;2
"343";343;0
"344";344;0
"345";345;2
"346";346;2
"347";347;2
"348";348;1
"349";349;0
"350";350;0
"351";351;2
"352";352;2
"353";353;2
"354";354;2
"355";355;0
"356";356;2
"357";357;2
"358";358;2
"359";359;1
"360";360;2
"361";361;0
"362";362;2
"363";363;2
"364";364;2
"365";365;2
"366";366;2
"367";367;1
"368";368;2
"369";369;2
"370";370;2
"371";371;2
"372";372;2
"373";373;2
"374";374;2
"375";375;0
"376";376;2
"377";377;0
"378";378;2
"379";379;2
"380";380;2
"381";381;1
"382";382;2
"383";383;2
"384";384;2
"385";385;2
"386";386;2
"387";387;0
"388";388;2
"389";389;0
"390";390;2
"391";391;2
"392";392;2
"393";393;1
"394";394;2
"395";395;2
"396";396;2
"397";397;2
"398";398;0
"399";399;2
"400";400;2
"401";401;2
"402";402;1
"403";403;0
"404";404;2
"405";405;1
"406";406;0
"407";407;2
"408";408;0
"409";409;2
"410";410;2
"411";411;2
"412";412;2
"413";413;0
"414";414;1
"415";415;2
"416";416;2
"417";417;2
"418";418;2
"419";419;0
"420";420;2
"421";421;1
"422";422;2
"423";423;2
"424";424;2
"425";425;2
"426";426;2
"427";427;2
"428";428;1
"429";429;2
"430";430;0
"431";431;0
"432";432;1
"433";433;2
"434";434;0
"435";435;0
"436";436;0
"437";437;0
"438";438;2
"439";439;0
"440";440;2
"441";441;2
"442";442;2
"443";443;0
"444";444;1
"445";445;2
"446";446;2
"447";447;2
"448";448;2
"449";449;2
"450";450;1
"451";451;2
"452";452;2
"453";453;2
"454";454;2
"455";455;1
"456";456;2
"457";457;2
"458";458;0
"459";459;1
"460";460;0
"461";461;2
"462";462;2
"463";463;0
"464";464;1
"465";465;2
"466";466;0
"467";467;2
"468";468;2
"469";469;2
"470";470;2
"471";471;1
"472";472;2
"473";473;2
"474";474;2
"475";475;2
"476";476;2
"477";477;2
"478";478;2
"479";479;1
"480";480;0
"481";481;2
"482";482;2
"483";483;2
"484";484;0
"485";485;0
"486";486;2
"487";487;2
"488";488;1
"489";489;2
"490";490;2
"491";491;2
"492";492;2
"493";493;2
"494";494;0
"495";495;2
"496";496;2
"497";497;2
"498";498;0
"499";499;2
"500";500;2
"501";501;2
"502";502;1
"503";503;2
"504";504;0
"505";505;2
"506";506;2
"507";507;0
"508";508;2
"509";509;2
"510";510;2
"511";511;2
"512";512;1
"513";513;2
"514";514;2
"515";515;2
"516";516;2
"517";517;2
"518";518;2
"519";519;2
"520";520;1
"521";521;1
"522";522;2
"523";523;1
"524";524;2
"525";525;2
"526";526;2
"527";527;1
"528";528;2
"529";529;2
"530";530;0
"531";531;1
"532";532;1
"533";533;2
"534";534;1
"535";535;1
"536";536;1
"537";537;1
"538";538;1
"539";539;2
"540";540;0
"541";541;1
"542";542;1
"543";543;1
"544";544;1
"545";545;1
"546";546;1
"547";547;1
"548";548;1
"549";549;2
"550";550;2
"551";551;2
"552";552;0
"553";553;0
"554";554;1
"555";555;1
"556";556;1
"557";557;1
"558";558;1
"559";559;1
"560";560;2
"561";561;1
"562";562;1
"563";563;2
"564";564;1
"565";565;1
"566";566;1
"567";567;1
"568";568;1
"569";569;1
"570";570;1
"571";571;1
"572";572;1
"573";573;2
"574";574;1
"575";575;1
"576";576;2
"577";577;1
"578";578;1
"579";579;1
"580";580;1
"581";581;1
"582";582;2
"583";583;1
"584";584;1
"585";585;1
"586";586;1
"587";587;1
"588";588;1
"589";589;1
"590";590;1
"591";591;1
"592";592;1
"593";593;1
"594";594;1
"595";595;2
"596";596;1
"597";597;1
"598";598;0
"599";599;1
"600";600;1
"601";601;1
"602";602;2
"603";603;1
"604";604;2
"605";605;1
"606";606;1
"607";607;1
"608";608;1
"609";609;2
"610";610;1
"611";611;0
"612";612;1
"613";613;1
"614";614;1
"615";615;1
"616";616;1
"617";617;2
"618";618;1
"619";619;0
"620";620;1
"621";621;1
"622";622;0
"623";623;1
"624";624;1
"625";625;0
"626";626;0
"627";627;0
"628";628;2
"629";629;2
"630";630;1
"631";631;2
"632";632;1
"633";633;1
"634";634;1
"635";635;1
"636";636;1
"637";637;1
"638";638;1
"639";639;1
"640";640;1
"641";641;1
"642";642;0
"643";643;1
"644";644;1
"645";645;0
"646";646;0
"647";647;0
"648";648;2
"649";649;2
"650";650;1
"651";651;1
"652";652;1
"653";653;1
"654";654;1
"655";655;1
"656";656;1
"657";657;1
"658";658;1
"659";659;1
"660";660;1
"661";661;2
"662";662;1
"663";663;1
"664";664;1
"665";665;1
"666";666;2
"667";667;1
"668";668;1
"669";669;1
"670";670;1
"671";671;1
"672";672;1
"673";673;1
"674";674;1
"675";675;1
"676";676;1
"677";677;1
"678";678;1
"679";679;2
"680";680;1
"681";681;1
"682";682;1
"683";683;1
"684";684;2
"685";685;1
"686";686;1
"687";687;0
"688";688;2
"689";689;0
"690";690;2
"691";691;1
"692";692;1
"693";693;2
"694";694;2
"695";695;1
"696";696;2
"697";697;1
"698";698;1
"699";699;1
"700";700;1
"701";701;1
"702";702;1
"703";703;2
"704";704;2
"705";705;1
"706";706;1
"707";707;2
"708";708;2
"709";709;2
"710";710;2
"711";711;2
"712";712;0
"713";713;0
"714";714;2
"715";715;2
"716";716;1
"717";717;2
"718";718;2
"719";719;2
"720";720;2
"721";721;1
"722";722;2
"723";723;2
"724";724;2
"725";725;2
"726";726;2
"727";727;0
"728";728;0
"729";729;0
"730";730;1
"731";731;2
"732";732;2
"733";733;2
"734";734;2
"735";735;1
"736";736;2
"737";737;2
"738";738;2
"739";739;2
"740";740;0
"741";741;0
"742";742;0
"743";743;1
"744";744;1
"745";745;1
"746";746;1
"747";747;1
"748";748;2
"749";749;2
"750";750;2
"751";751;1
"752";752;0
"753";753;0
"754";754;0
"755";755;1
"756";756;2
"757";757;2
"758";758;2
"759";759;2
"760";760;2
"761";761;2
"762";762;2
"763";763;2
"764";764;2
"765";765;1
"766";766;0
"767";767;2
"768";768;2
"769";769;2
"770";770;2
"771";771;2
"772";772;2
"773";773;1
"774";774;2
"775";775;1
"776";776;1
"777";777;1
"778";778;1
"779";779;2
"780";780;0
"781";781;1
"782";782;2
"783";783;2
"784";784;1
"785";785;2
"786";786;2
"787";787;2
"788";788;1
"789";789;1
"790";790;1
"791";791;1
"792";792;1
"793";793;0
"794";794;2
"795";795;1
"796";796;2
"797";797;2
"798";798;2
"799";799;2
"800";800;2
"801";801;2
"802";802;1
"803";803;2
"804";804;2
"805";805;2
"806";806;2
"807";807;2
"808";808;2
"809";809;2
"810";810;2
"811";811;2
"812";812;2
"813";813;1
"814";814;2
"815";815;1
"816";816;1
"817";817;2
"818";818;2
"819";819;1
"820";820;0
"821";821;0
"822";822;2
"823";823;1
"824";824;2
"825";825;2
"826";826;2
"827";827;2
"828";828;2
"829";829;1
"830";830;1
"831";831;2
"832";832;2
"833";833;1
"834";834;1
"835";835;1
"836";836;1
"837";837;1
"838";838;2
"839";839;1
"840";840;1
"841";841;1
"842";842;1
"843";843;1
"844";844;1
"845";845;1
"846";846;1
"847";847;1
"848";848;1
"849";849;1
"850";850;1
"851";851;1
"852";852;0
"853";853;1
"854";854;1
"855";855;2
"856";856;2
"857";857;2
"858";858;2
"859";859;2
"860";860;2
"861";861;2
"862";862;2
"863";863;2
"864";864;2
"865";865;0
"866";866;2
"867";867;2
"868";868;1
"869";869;2
"870";870;2
"871";871;2
"872";872;2
"873";873;2
"874";874;0
"875";875;0
"876";876;2
"877";877;2
"878";878;2
"879";879;2
"880";880;2
"881";881;2
"882";882;2
"883";883;2
"884";884;2
"885";885;2
"886";886;1
"887";887;1
"888";888;1
"889";889;1
"890";890;1
"891";891;0
"892";892;2
"893";893;0
"894";894;1
"895";895;1
"896";896;1
"897";897;1
"898";898;1
"899";899;1
"900";900;1
"901";901;1
"902";902;0
"903";903;1
"904";904;1
"905";905;2
"906";906;1
"907";907;1
"908";908;1
"909";909;1
"910";910;1
"911";911;1
"912";912;1
"913";913;1
"914";914;1
"915";915;1
"916";916;2
"917";917;2
"918";918;2
"919";919;2
"920";920;2
"921";921;2
"922";922;1
"923";923;1
"924";924;2
"925";925;2
"926";926;2
"927";927;2
"928";928;2
"929";929;2
"930";930;0
"931";931;2
"932";932;0
"933";933;0
"934";934;0
"935";935;2
"936";936;1
"937";937;0
"938";938;2
"939";939;0
"940";940;0
"941";941;0
"942";942;2
"943";943;1
"944";944;0
"945";945;2
"946";946;2
"947";947;2
"948";948;2
"949";949;2
"950";950;2
"951";951;1
"952";952;2
"953";953;1
"954";954;2
"955";955;0
"956";956;2
"957";957;2
"958";958;2
"959";959;2
"960";960;0
"961";961;0
"962";962;0
"963";963;0
"964";964;0
"965";965;1
"966";966;2
"967";967;0
"968";968;2
"969";969;2
"970";970;2
"971";971;2
"972";972;0
"973";973;0
"974";974;0
"975";975;0
"976";976;1
"977";977;0
"978";978;0
"979";979;0
"980";980;0
"981";981;0
"982";982;0
"983";983;0
"984";984;0
"985";985;0
"986";986;0
"987";987;0
"988";988;0
"989";989;0
"990";990;1
"991";991;0
"992";992;0
"993";993;0
"994";994;0
"995";995;0
"996";996;0
"997";997;0
"998";998;0
"999";999;1
"1000";1000;1
"1001";1001;2
"1002";1002;1
"1003";1003;2
"1004";1004;0
"1005";1005;2
"1006";1006;2
"1007";1007;2
"1008";1008;2
"1009";1009;1
"1010";1010;1
"1011";1011;2
"1012";1012;2
"1013";1013;1
"1014";1014;1
"1015";1015;1
"1016";1016;1
"1017";1017;2
"1018";1018;2
"1019";1019;1
"1020";1020;2
"1021";1021;2
"1022";1022;2
"1023";1023;1
"1024";1024;1
"1025";1025;2
"1026";1026;2
"1027";1027;2
"1028";1028;2
"1029";1029;1
"1030";1030;0
"1031";1031;2
"1032";1032;2
"1033";1033;1
"1034";1034;2
"1035";1035;1
"1036";1036;1
"1037";1037;1
"1038";1038;1
"1039";1039;1
"1040";1040;2
"1041";1041;2
"1042";1042;1
"1043";1043;1
"1044";1044;1
"1045";1045;1
"1046";1046;1
"1047";1047;1
"1048";1048;1
"1049";1049;1
"1050";1050;2
"1051";1051;1
"1052";1052;1
"1053";1053;0
"1054";1054;2
"1055";1055;2
"1056";1056;2
"1057";1057;2
"1058";1058;2
"1059";1059;2
"1060";1060;2
"1061";1061;1
"1062";1062;1
"1063";1063;1
"1064";1064;0
"1065";1065;2
"1066";1066;2
"1067";1067;2
"1068";1068;0
"1069";1069;1
"1070";1070;2
"1071";1071;2
"1072";1072;2
"1073";1073;2
"1074";1074;2
"1075";1075;1
"1076";1076;2
"1077";1077;2
"1078";1078;2
"1079";1079;0
"1080";1080;2
"1081";1081;2
"1082";1082;2
"1083";1083;0
"1084";1084;2
"1085";1085;2
"1086";1086;2
"1087";1087;2
"1088";1088;2
"1089";1089;2
"1090";1090;2
"1091";1091;1
"1092";1092;2
"1093";1093;2
"1094";1094;2
"1095";1095;2
"1096";1096;2
"1097";1097;2
"1098";1098;0
"1099";1099;2
"1100";1100;1
"1101";1101;1
"1102";1102;2
"1103";1103;1
"1104";1104;1
"1105";1105;2
"1106";1106;2
"1107";1107;2
"1108";1108;2
"1109";1109;0
"1110";1110;1
"1111";1111;2
"1112";1112;1
"1113";1113;1
"1114";1114;2
"1115";1115;0
"1116";1116;2
"1117";1117;1
"1118";1118;1
"1119";1119;1
"1120";1120;1
"1121";1121;1
"1122";1122;1
"1123";1123;2
"1124";1124;2
"1125";1125;1
"1126";1126;1
"1127";1127;1
"1128";1128;2
"1129";1129;2
"1130";1130;2
"1131";1131;2
"1132";1132;2
"1133";1133;1
"1134";1134;2
"1135";1135;1
"1136";1136;2
"1137";1137;2
"1138";1138;2
"1139";1139;2
"1140";1140;2
"1141";1141;1
"1142";1142;1
"1143";1143;1
"1144";1144;2
"1145";1145;2
"1146";1146;2
"1147";1147;1
"1148";1148;2
"1149";1149;2
"1150";1150;1
"1151";1151;2
"1152";1152;2
"1153";1153;2
"1154";1154;2
"1155";1155;1
"1156";1156;1
"1157";1157;0
"1158";1158;0
