*Tx_1Ko_15_23;0;2
*Tx_1Ko_15_27;0;2
*Tx_Ga_3_1;0;1
*Tx_Ga_3_2;0;2
*Tx_1Ko_15_29;0;2
*Tx_1Ko_15_28;0;2
*Tx_Ga_3_8;0;3
*Tx_Ga_3_9;0;3
*Tx_Erm_12_21;0;3
*Tx_Erm_12_20;0;2
*Tx_2Ko_4_18;0;2
*K_Tt_2;0;13
*Tx_2Ko_4_16;0;2
*Tx_2Ko_4_15;0;2
*Tx_1Ko_3_20;0;2
*Tx_Tt_1_6;0;2
*Tx_Tt_1_7;0;2
*Tx_Tt_1_4;0;2
*Tx_Tt_1_5;0;2
*Tx_Erm_2_17;0;2
*K_1Ts_4;0;20
*Tx_Erm_2_12;0;2
*Tx_Tt_3_8;0;2
*Tx_2Ko_6_14;0;2
*Tx_2Ko_6_16;0;5
*Tx_2Ko_6_10;0;3
*Tx_Ga_2_12;0;2
*Tx_2Ko_6_13;0;2
*Tx_Ga_5_6;0;2
*Tx_Flp_2_27;0;2
*Tx_Ga_5_2;0;2
*Tx_Ga_5_1;0;2
*K_Erm_16;18;17
*Tx_Erm_4_18;0;3
*Tx_Ga_1_9;0;2
*Tx_Ef_5_28;0;2
*Tx_2Ko_11_29;0;2
*Tx_1Tm_5_24;0;2
*Tx_1Tm_5_25;0;2
*Tx_Erm_4_12;0;3
*Tx_Erm_4_13;0;2
*Tx_Ga_1_7;0;2
*Tx_Erm_4_16;0;2
*Tx_Erm_4_17;0;5
*K_Erm_11;0;57
*Tx_2Ko_3_6;0;2
*Tx_2Ko_3_3;0;2
*Tx_1Ts_4_15;0;2
*Tx_2Ko_3_1;0;2
*Tx_1Ts_4_17;0;2
*Tx_2Ko_1_9;0;2
*Tx_2Ko_1_8;1;1
*L_Korintoarrei1;4;575
*L_Korintoarrei2;1;363
*Tx_2Tm_4_17;0;2
*Tx_2Tm_4_16;0;2
*Tx_2Tm_4_14;0;2
*Tx_2Ko_1_6;0;2
*Tx_1Ko_7_16;0;2
*Tx_Erm_10_21;0;3
*Tx_2Ko_7_9;0;4
*Tx_1Ko_7_15;0;2
*Tx_1Ko_7_12;0;2
*Tx_1Ko_7_11;0;2
*Tx_2Ko_7_3;0;2
*Tx_2Ko_7_7;0;3
*Tx_2Ko_7_5;0;3
*Tx_2Ko_7_4;0;2
*Tx_2Ko_7_11;0;4
*Tx_2Ko_7_10;0;2
*Tx_2Tm_2_17;0;1
*Tx_1Ko_16_12;0;2
*Tx_Erm_10_19;0;2
*Tx_1Ko_14_15;0;2
*Tx_2Tm_2_19;0;2
*Tx_1Ko_16_19;2;0
*Tx_1Ko_11_25;0;3
*Tx_1Ko_11_24;0;2
*Tx_Erm_3_10;0;7
*Tx_1Ko_11_22;0;3
*Tx_Erm_13_11;0;2
*Tx_Erm_13_10;0;3
*Tx_Erm_13_12;0;2
*Tx_2Ko_12_7;0;2
*Tx_Ef_4_26;0;2
*Tx_Ef_4_29;0;2
*Tx_2Ko_12_20;0;2
*Tx_2Ko_9_11;0;2
*Tx_Erm_15_27;0;2
*Tx_Erm_15_24;0;2
*Tx_Erm_10_15;0;2
*Tx_2Ts_2_3;0;1
*Tx_2Ko_2_10;0;2
*Tx_Erm_11_33;0;4
*Tx_2Ko_2_16;0;3
*Tx_2Ts_2_8;0;2
*Tx_1Tm_1_5;0;2
*Tx_1Tm_1_4;0;2
*Tx_1Tm_1_3;0;1
*Tx_1Ko_11_6;0;2
*Tx_Erm_8_6;0;2
*L_Filemoni;2;24
*Tx_1Ts_1_8;0;2
*Tx_1Ts_1_5;0;2
*Tx_Kol_4_16;0;2
*Tx_Flp_1_17;0;2
*Tx_Kol_4_11;1;1
*Tx_Flp_1_15;0;2
*Tx_Kol_1_27;0;2
*Tx_Kol_1_24;0;2
*Tx_Kol_1_23;0;2
*Tx_1Ko_12_12;0;2
*Tx_1Ko_12_10;0;2
*Tx_1Ko_12_17;0;2
*K_1Tm_5;1;26
*Tx_Kol_2_18;0;2
*Tx_Erm_5_8;0;2
*Tx_Erm_5_7;0;2
*K_1Tm_4;0;19
*Tx_Kol_2_11;0;2
*Tx_Erm_5_3;0;2
*Tx_Erm_5_2;0;2
*K_1Tm_3;0;17
*K_1Tm_2;0;15
*Tx_1Tm_2_14;0;1
*Tx_Erm_7_8;0;2
*Tx_Erm_9_15;0;2
*K_1Tm_6;0;22
*Tx_Erm_9_13;0;3
*Tx_2Ko_6_12;0;2
*K_1Tm_1;0;22
*Tx_Erm_7_3;0;2
*Tx_1Ko_12_8;0;2
*Tx_Erm_7_7;0;3
*Tx_Erm_7_6;0;2
*Tx_1Ts_5_8;0;2
*Tx_1Ko_1_21;0;2
*Tx_1Ko_1_20;0;2
*Tx_1Ts_5_5;0;2
*Tx_Erm_1_7;0;2
*Tx_Erm_1_4;0;2
*Tx_Erm_9_17;0;2
*Tx_Erm_9_1;0;2
*Tx_Erm_9_7;0;2
*Tx_Erm_9_5;0;1
*Tx_Erm_9_4;0;2
*Tx_Erm_9_9;0;2
*Tx_Ga_3_16;0;2
*Tx_1Ko_10_29;0;2
*Tx_Ga_3_15;0;2
*Tx_Ga_3_12;0;5
*Tx_Ga_3_10;0;3
*Tx_Ga_3_11;0;2
*Tx_1Ko_10_20;0;2
*Tx_1Ko_10_21;0;2
*Tx_1Ko_10_22;0;2
*Tx_1Ko_10_23;0;1
*Tx_2Ko_8_5;0;2
*Tx_Ga_3_18;0;2
*Tx_2Ko_8_7;0;2
*Tx_Flp_4_21;2;0
*Tx_Ef_2_17;0;2
*Tx_Ef_2_14;0;2
*Tx_Ef_2_12;0;2
*Tx_1Ko_7_40;0;2
*Tx_Ef_2_10;0;2
*Tx_Erm_5_14;0;2
*Tx_2Ko_2_4;0;2
*Tx_Erm_7_2;0;2
*Tx_2Ko_2_3;0;3
*K_Erm_3;0;40
*K_Erm_2;0;38
*K_Erm_1;0;44
*Tx_2Tm_2_20;0;2
*K_Erm_6;0;31
*K_Erm_5;0;32
*Tx_2Ko_2_9;0;2
*Tx_2Tm_2_9;0;2
*Tx_Erm_3_4;0;3
*Tx_Erm_3_1;0;2
*Tx_Erm_3_3;0;2
*Tx_Erm_9_18;0;2
*Tx_Erm_3_9;0;2
*Tx_Erm_3_8;0;3
*Tx_2Ko_6_2;0;1
*Tx_1Ko_9_20;0;2
*Tx_Erm_16_25;0;2
*Tx_2Tm_4_8;0;2
*Tx_Erm_16_23;2;0
*Tx_1Ko_9_24;0;2
*Tx_Erm_16_20;0;2
*Tx_2Tm_4_3;0;2
*Tx_2Ko_6_8;0;2
*Tx_2Ko_6_9;0;2
*Tx_1Ko_5_10;0;2
*Tx_2Tm_4_6;0;2
*Tx_1Ts_2_2;0;2
*Tx_2Ko_4_8;0;2
*Tx_2Ko_4_9;0;2
*Tx_2Ko_4_2;0;3
*Tx_1Ko_3_18;0;1
*Tx_1Ko_3_19;0;2
*Tx_Flp_4_18;0;3
*Tx_1Ko_3_10;0;3
*Tx_1Ko_3_11;0;2
*Tx_Flp_4_10;0;2
*Tx_Flp_4_12;0;3
*Tx_1Ko_3_15;0;2
*Tx_1Ts_5_3;0;2
*Tx_Erm_13_1;0;2
*Tx_Erm_4_11;0;3
*Tx_Erm_4_2;0;2
*Tx_1Ko_1_26;0;2
*Tx_1Ko_1_10;0;3
*Tx_1Ko_1_12;0;2
*Tx_1Ko_1_13;0;3
*Tx_1Tm_2_6;0;2
*Tx_1Ko_1_18;0;2
*Tx_1Ko_1_19;0;2
*Tx_Flp_2_25;0;2
*Tx_1Ko_7_34;0;2
*Tx_2Ko_5_11;0;2
*Tx_2Ko_5_12;0;3
*Tx_2Ko_5_17;0;2
*Tx_2Ko_5_16;0;2
*Tx_1Ko_8_7;0;2
*Tx_1Ko_8_4;0;2
*Tx_1Ko_8_1;0;3
*Tx_2Ko_9_2;0;2
*Tx_2Ko_9_5;0;2
*Tx_2Ko_9_4;0;2
*Tx_1Ko_6_18;0;2
*L_Galaziarrei;1;208
*L_Filipostarrei;3;119
*Tx_1Ko_15_39;0;2
*Tx_1Ko_14_22;0;1
*Tx_1Ko_15_35;0;2
*K_Erm_15;0;42
*K_Erm_14;0;40
*K_Erm_13;0;22
*K_Erm_12;0;33
*Tx_1Ko_15_32;0;2
*K_Erm_10;0;38
*Tx_1Ko_4_3;0;2
*L_Kolosarrei;5;99
*Tx_1Ko_4_7;0;3
*Tx_1Ko_4_5;0;3
*Tx_1Ko_4_4;0;2
*Tx_1Ko_4_9;0;2
*Tx_1Ko_4_8;0;2
*K_1Ko_14;0;43
*K_1Ko_15;0;75
*K_1Ko_16;4;25
*Tx_Erm_4_22;0;2
*K_1Ko_10;0;42
*K_1Ko_11;0;43
*K_1Ko_12;0;40
*K_1Ko_13;0;3
*Tx_1Tm_5_11;0;2
*Tx_1Ko_6_7;0;2
*Tx_2Tm_4_21;1;1
*Tx_1Ko_6_3;0;1
*Tx_1Ko_6_2;0;2
*Tx_1Tm_6_5;0;3
*Tx_1Tm_6_2;0;2
*Tx_2Ko_8_9;0;2
*Tx_1Ko_10_18;0;2
*Tx_1Tm_4_8;0;2
*K_1Ko_6;0;28
*K_1Ko_7;0;63
*K_1Ko_4;0;35
*K_1Ko_5;0;18
*K_1Ko_2;0;19
*K_1Ko_3;0;34
*K_1Ko_1;0;43
*K_1Ko_8;0;18
*K_1Ko_9;0;46
*Tx_Erm_4_6;0;3
*Tx_1Ko_11_34;0;2
*Tx_Erm_4_3;0;2
*Tx_Erm_8_13;0;2
*Tx_Ga_3_21;0;2
*Tx_Erm_4_9;0;2
*Tx_Erm_6_1;0;2
*Tx_1Ko_10_13;0;3
*Tx_1Ko_10_16;0;2
*Tx_Erm_6_9;0;2
*Tx_1Ts_4_3;0;2
*Tx_1Ko_2_6;0;2
*Tx_Ga_3_19;0;2
*Tx_Erm_15_19;0;2
*Tx_1Ko_12_28;0;2
*L_Erromatarrei;18;607
*Tx_Erm_15_12;0;2
*Tx_Erm_15_11;0;2
*Tx_1Ts_4_1;0;2
*Tx_Erm_15_16;0;3
*Tx_1Tm_4_12;0;2
*Tx_1Ko_12_26;0;2
*Tx_1Tm_4_16;0;2
*Tx_1Tm_4_14;0;2
*Tx_Ga_1_10;0;3
*Tx_Ga_1_13;0;2
*Tx_1Ko_9_18;0;2
*Tx_1Ko_9_10;0;3
*Tx_1Ko_9_12;0;3
*Tx_Erm_1_13;0;3
*Tx_1Ko_9_15;0;3
*Tx_1Ko_9_16;0;2
*Tx_Erm_1_10;0;2
*K_Flp_3;0;29
*K_Flp_2;0;27
*K_Flp_1;0;35
*K_Flp_4;3;28
*Tx_2Tm_1_5;0;2
*Tx_Erm_2_9;0;2
*Tx_2Ko_10_7;0;1
*Tx_2Ko_10_8;0;2
*Tx_2Ko_8_23;0;2
*Tx_2Ko_8_22;0;2
*Tx_2Tm_1_8;0;3
*Tx_Erm_7_14;0;2
*Tx_2Tm_3_2;0;2
*Tx_2Ko_12_5;0;2
*K_2Ko_9;0;19
*Tx_Erm_7_10;0;2
*Tx_Erm_7_13;0;3
*K_2Ko_5;0;24
*K_2Ko_4;0;25
*K_2Ko_7;0;31
*K_2Ko_6;0;26
*K_2Ko_1;1;34
*K_2Ko_3;0;21
*K_2Ko_2;0;25
*Tx_Flp_1_27;0;3
*Tx_Erm_2_22;0;2
*Tx_Erm_8_30;0;2
*Tx_Erm_8_31;0;2
*Tx_Flp_1_28;0;2
*Tx_Erm_8_35;0;2
*Tx_1Ts_3_6;0;2
*Tx_1Ts_3_3;0;2
*Tx_Erm_8_3;0;2
*Tx_2Ko_13_11;0;3
*Tx_2Tm_4_10;0;2
*Tx_1Ts_3_9;0;2
*Tx_Erm_8_7;0;2
*Tx_Erm_8_5;0;2
*Tx_Erm_5_13;0;2
*Tx_Erm_5_12;0;2
*Tx_Erm_5_16;0;3
*Tx_1Ts_2_18;0;2
*Tx_1Ts_2_19;0;2
*Tx_1Ts_2_16;0;3
*Tx_1Ts_2_14;0;2
*Tx_1Ts_2_13;0;4
*Tx_Ga_4_31;0;2
*Tx_Ga_4_30;0;2
*Tx_Erm_12_2;0;2
*Tx_Erm_2_29;0;2
*Tx_Erm_9_20;0;2
*Tx_Erm_9_27;0;3
*Tx_Erm_9_29;0;2
*Tx_1Tm_6_10;0;1
*K_Erm_9;0;44
*Tx_1Ko_9_7;0;3
*K_Erm_8;0;51
*Tx_1Ko_7_18;0;1
*Tx_2Ko_11_23;0;3
*Tx_1Ko_9_1;0;2
*Tx_2Ko_11_21;0;2
*Tx_2Ko_7_14;0;2
*Tx_2Ko_7_13;0;2
*Tx_1Ko_9_8;0;2
*Tx_1Ko_9_9;0;2
*Tx_Erm_10_18;0;3
*Tx_1Ko_7_39;0;2
*Tx_Ga_2_20;0;2
*Tx_Ga_2_21;0;2
*Tx_1Ko_7_30;0;2
*Tx_1Ko_7_31;0;2
*Tx_1Ko_7_32;0;2
*Tx_Erm_10_13;0;3
*Tx_Erm_10_14;0;3
*Tx_1Ko_7_35;0;2
*Tx_Erm_10_16;0;2
*Tx_Ga_5_14;0;2
*Tx_Ga_5_15;0;2
*Tx_Ef_6_18;0;2
*Tx_Ga_5_17;0;3
*Tx_Ga_5_10;0;2
*Tx_Ga_5_11;0;2
*Tx_Ga_5_13;0;3
*Tx_2Ko_1_14;0;2
*Tx_2Ko_1_17;0;2
*Tx_2Ko_1_11;0;2
*Tx_2Ko_1_10;0;2
*Tx_1Ko_12_9;0;2
*Tx_2Ko_1_12;0;3
*Tx_2Ko_11_27;0;2
*K_Erm_7;0;38
*Tx_1Ko_12_3;0;2
*Tx_1Ko_7_5;0;2
*Tx_1Ko_7_7;0;2
*Tx_1Ko_14_9;0;2
*Tx_1Ko_14_5;0;1
*Tx_1Ko_14_4;0;1
*Tx_1Ko_14_7;0;2
*K_Erm_4;0;40
*Tx_1Ko_14_1;0;2
*Tx_1Ko_7_9;0;2
*Tx_1Ko_14_3;0;2
*Tx_1Ko_14_2;0;1
*Tx_Kol_2_8;0;1
*Tx_1Ko_5_1;0;2
*Tx_1Ko_7_17;0;2
*Tx_1Ko_16_2;0;2
*Tx_Kol_4_9;0;2
*Tx_1Ko_16_7;0;2
*Tx_1Ko_16_6;0;2
*K_Flm_1;2;24
*Tx_1Ko_6_11;0;1
*Tx_1Ko_6_13;0;3
*Tx_1Ko_6_12;0;2
*Tx_1Ko_6_15;0;2
*L_Titori;1;48
*Tx_1Ko_7_14;0;4
*Tx_Ga_4_21;0;2
*Tx_1Ko_16_15;0;2
*Tx_1Ko_4_17;0;2
*Tx_1Ko_3_9;0;2
*Tx_1Ko_4_15;0;2
*Tx_1Ko_4_13;0;2
*Tx_1Ko_4_12;0;2
*Tx_1Ko_4_10;0;2
*Tx_2Ts_2_13;0;2
*Tx_1Ko_3_3;0;3
*Tx_1Ko_3_5;0;2
*Tx_1Ko_4_19;0;2
*Tx_2Ts_2_14;0;2
*Tx_1Ko_9_22;0;2
*K_2Ts_1;0;14
*K_2Ts_2;0;17
*K_2Ts_3;1;23
*Tx_1Ko_5_6;0;2
*Tx_1Ko_5_7;0;2
*Tx_1Ko_10_7;0;2
*Tx_1Ko_9_21;0;2
*K_Tt_3;1;14
*Tx_Flp_2_12;0;3
*Tx_Flp_2_16;0;2
*Tx_1Ko_9_25;0;2
*Tx_Erm_16_2;0;2
*K_Tt_1;0;21
*Tx_Erm_16_4;0;2
*Tx_Flm_1_19;0;2
*Tx_Erm_16_7;1;1
*Tx_Erm_7_25;0;3
*Tx_Flm_1_11;0;2
*Tx_1Ts_2_9;0;2
*K_2Tm_2;0;24
*K_2Tm_3;0;20
*K_2Tm_1;1;21
*K_2Tm_4;2;26
*K_1Ts_3;0;15
*Tx_1Ko_9_26;0;2
*K_1Ts_2;0;29
*Tx_1Ko_15_49;0;1
*K_1Ts_1;0;12
*Tx_1Ko_15_41;0;2
*Tx_1Ko_15_43;0;2
*Tx_1Ko_15_42;0;2
*Tx_1Ko_15_45;0;1
*Tx_1Ko_15_44;0;2
*Tx_Erm_16_5;2;0
*Tx_Ef_6_20;0;2
*Tx_2Ko_13_9;0;2
*Tx_2Ko_13_7;0;2
*Tx_2Ko_13_5;0;3
*Tx_2Ko_13_4;0;4
*Tx_2Ko_13_3;0;3
*Tx_2Ko_13_2;0;2
*Tx_2Ko_13_1;0;2
*Tx_1Ko_5_11;0;3
*Tx_1Ko_14_27;0;0
*Tx_Erm_11_22;0;3
*Tx_1Ko_14_20;0;3
*Tx_Erm_11_20;0;2
*K_Kol_4;5;17
*Tx_Erm_11_26;0;3
*K_Kol_2;0;26
*K_Kol_1;0;25
*Tx_Erm_11_25;0;2
*Tx_2Ts_3_8;0;2
*Tx_2Ts_3_9;0;2
*Tx_Erm_7_21;0;2
*Tx_1Ko_6_20;0;2
*Tx_Erm_11_2;0;2
*Tx_Erm_11_1;0;2
*Tx_Erm_11_7;0;2
*Tx_Erm_11_6;0;2
*Tx_Erm_11_4;0;5
*Tx_Kol_2_13;0;2
*Tx_Erm_11_9;0;2
*Tx_Erm_11_8;0;3
*Tx_1Ko_14_36;0;2
*Tx_Erm_2_1;0;2
*Tx_Flp_1_7;0;2
*Tx_Erm_3_29;0;3
*Tx_1Ko_1_31;0;3
*Tx_2Ko_11_15;0;2
*K_Ef_2;0;27
*Tx_2Ko_11_16;0;2
*Tx_Erm_3_20;0;2
*Tx_2Ko_11_9;0;3
*Tx_Erm_10_20;0;3
*Tx_2Tm_3_11;0;2
*Tx_1Tm_1_15;0;2
*Tx_2Tm_3_15;0;2
*Tx_2Ko_11_2;0;2
*Tx_2Ko_11_7;0;2
*K_2Ko_8;0;32
*Tx_Erm_6_23;0;2
*Tx_Erm_6_21;0;2
*Tx_Ef_5_8;0;3
*Tx_Ef_5_4;0;1
*Tx_2Ko_1_20;0;2
*Tx_2Ko_1_23;0;2
*Tx_2Tm_1_18;0;2
*Tx_2Tm_1_10;0;2
*Tx_2Tm_1_12;0;1
*Tx_Flp_4_17;0;2
*Tx_Erm_1_29;0;2
*Tx_Erm_13_9;0;2
*Tx_Erm_13_4;0;3
*Tx_Erm_1_21;0;2
*Tx_Erm_1_26;0;2
*Tx_Erm_1_27;0;2
*Tx_Erm_13_3;0;2
*Tx_2Ko_12_9;0;2
*Tx_1Ko_15_15;0;2
*Tx_1Ko_11_5;0;2
*Tx_1Ko_15_10;0;3
*Tx_2Ko_8_10;0;2
*Tx_2Ko_8_11;0;2
*Tx_2Ko_8_15;0;2
*Tx_Erm_12_16;0;3
*Tx_Erm_12_17;0;1
*Tx_Erm_12_11;0;2
*Tx_2Ko_11_26;0;2
*Tx_2Ko_12_18;0;3
*Tx_Erm_12_19;0;3
*Tx_Erm_8_24;0;2
*Tx_1Ko_15_6;0;2
*Tx_Erm_8_26;0;2
*Tx_Erm_8_23;0;1
*Tx_1Ko_15_3;0;2
*Tx_1Ko_12_31;0;2
*Tx_Kol_1_9;0;2
*Tx_1Ko_12_30;0;1
*Tx_2Ko_12_14;0;3
*Tx_Erm_2_21;0;2
*Tx_Kol_3_5;0;2
*Tx_Erm_2_25;0;2
*Tx_Erm_2_24;0;2
*Tx_Tt_1_16;0;3
*Tx_Erm_2_28;0;2
*K_1Ts_5;0;27
*Tx_1Ko_14_21;0;2
*Tx_Ef_2_8;0;2
*Tx_1Ko_7_19;0;1
*Tx_Ef_2_3;0;3
*Tx_Ga_4_27;0;4
*Tx_Ga_4_24;0;3
*Tx_Ga_4_22;0;2
*Tx_Ga_4_23;0;2
*Tx_Erm_15_6;0;1
*Tx_Erm_9_30;0;2
*Tx_Erm_9_33;0;2
*Tx_Ga_4_29;0;2
*Tx_Flp_4_9;0;2
*Tx_Flp_4_3;0;2
*Tx_Ef_5_33;0;2
*Tx_Flp_4_1;0;2
*Tx_2Ts_3_12;0;2
*K_Ef_6;0;27
*Tx_1Ko_14_34;0;2
*Tx_Erm_8_9;0;2
*K_Ef_5;0;32
*K_Ef_4;0;33
*Tx_1Ko_2_15;0;2
*Tx_1Ko_2_14;0;2
*Tx_1Ko_2_11;0;2
*Tx_1Ko_2_12;0;2
*Tx_Erm_15_9;0;3
*K_Ef_3;0;19
*Tx_Ga_2_10;0;1
*K_Ef_1;0;9
*Tx_Erm_15_21;0;2
*Tx_Erm_15_3;0;1
*Tx_Ga_2_14;0;2
*Tx_Ga_2_17;0;2
*Tx_Ga_2_16;0;3
*Tx_1Ko_7_29;0;2
*Tx_1Ko_7_28;0;3
*Tx_Ef_6_4;0;2
*Tx_1Ko_7_23;0;2
*Tx_Ef_6_9;0;2
*Tx_1Ko_7_21;0;2
*Tx_1Ko_7_25;0;2
*Tx_Ga_5_21;0;2
*Tx_Erm_8_34;0;2
*Tx_Erm_14_14;0;2
*Tx_Erm_14_15;0;2
*Tx_Erm_14_11;0;3
*Tx_Erm_5_20;0;2
*Tx_Kol_3_15;0;2
*Tx_1Ko_16_20;1;0
*Tx_Kol_3_16;0;3
*Tx_Kol_3_11;0;2
*Tx_Kol_3_13;0;2
*Tx_1Ko_11_18;0;2
*L_Efesoarrei;0;147
*Tx_Ef_4_18;0;2
*Tx_Erm_5_15;0;2
*K_Kol_3;0;31
*Tx_Ef_4_16;0;2
*Tx_Ef_4_17;0;2
*Tx_Kol_4_12;1;1
*Tx_1Tm_1_20;0;2
*Tx_2Ko_2_17;0;2
*Tx_Ga_4_6;0;2
*Tx_Erm_10_8;0;4
*Tx_Ga_4_9;0;2
*Tx_Erm_10_5;0;2
*Tx_Ga_6_1;0;2
*Tx_Erm_1_17;0;3
*Tx_Ga_6_7;0;2
*Tx_Ga_6_8;0;2
*Tx_Ga_2_9;0;2
*Tx_Ga_2_4;0;2
*Tx_Ga_2_2;0;2
*Tx_2Ts_1_10;0;3
*Tx_Flm_1_20;0;2
*Tx_Erm_14_6;0;3
*Tx_Erm_14_4;0;3
*Tx_Erm_14_5;0;3
*Tx_Erm_14_2;0;2
*Tx_Ga_5_23;0;2
*Tx_1Tm_5_13;0;2
*Tx_Erm_8_15;0;3
*Tx_Erm_8_17;0;2
*Tx_1Ko_14_23;0;1
*Tx_1Tm_5_18;0;1
*Tx_Erm_14_8;0;3
*Tx_Erm_14_9;0;2
*Tx_Ga_6_15;0;1
*Tx_Ga_6_14;0;2
*Tx_Erm_12_6;0;2
*Tx_Erm_12_1;0;2
*Tx_Ga_6_13;0;2
*Tx_Erm_12_3;0;3
*Tx_1Ko_15_52;0;2
*Tx_1Ko_12_24;0;2
*Tx_Erm_12_8;0;2
*Tx_Erm_12_9;0;2
*Tx_1Ko_15_54;0;3
*Tx_Erm_14_20;0;2
*Tx_Erm_14_23;0;2
*Tx_Erm_14_22;0;2
*Tx_1Ko_3_7;0;2
*Tx_Erm_11_17;0;2
*Tx_Erm_11_15;0;2
*Tx_Erm_11_11;0;2
*Tx_Ga_4_17;1;1
*Tx_Ga_4_15;0;2
*Tx_Ga_4_14;0;2
*Tx_Kol_2_23;0;2
*Tx_Ga_4_12;0;2
*Tx_Erm_11_18;0;2
*L_Tesalonikarrei1;0;103
*L_Tesalonikarrei2;1;54
*K_Ga_6;0;22
*K_Ga_4;1;46
*K_Ga_5;0;39
*K_Ga_2;0;31
*K_Ga_3;0;45
*Tx_1Ko_1_30;0;2
*K_Ga_1;0;25
*Tx_Ef_3_5;0;2
*Tx_Erm_11_3;0;2
*Tx_1Ko_14_26;0;1
*Tx_Ef_3_6;0;2
*K_2Ko_11;0;42
*K_2Ko_10;0;25
*K_2Ko_13;0;25
*K_2Ko_12;0;34
*Tx_2Ts_3_6;0;2
*Tx_1Ko_8_8;0;2
*Tx_Flp_3_4;0;2
*Tx_Flp_3_1;0;2
*Tx_Flp_3_5;0;3
*Tx_2Ko_12_19;0;2
*Tx_Flp_3_9;0;2
*Tx_2Ko_12_15;0;2
*Tx_Erm_3_31;0;2
*Tx_2Ko_12_17;0;2
*Tx_2Ko_12_10;0;2
*Tx_2Ko_12_11;0;2
*Tx_2Ko_12_12;0;2
*Tx_2Ts_3_10;0;2
*L_Timoteori1;1;121
*L_Timoteori2;3;91
*Tx_1Tm_3_11;0;2
*Tx_2Ts_3_17;1;1
*Tx_Erm_6_13;0;2
*Tx_Erm_6_16;0;3
*Tx_Erm_6_19;0;3
*Tx_2Ko_10_18;0;2
*Tx_Kol_3_22;0;2
*Tx_2Ko_10_12;0;3
*Tx_2Ko_10_13;0;2
*Tx_2Ko_10_10;0;1
*Tx_Tt_3_15;1;1
*Tx_2Ko_10_15;0;3
*Tx_Erm_16_19;0;2
*Tx_Erm_1_32;0;3
*Tx_Erm_16_12;1;1
*Tx_Erm_16_16;1;0
*Tx_Flp_3_18;0;2
*Tx_Flp_3_15;0;2
*Tx_Flp_3_14;0;2
*Tx_Flp_3_12;0;2