"V1";"V2";"V3";"V4";"V5";"V6"
"***";"nb classes";"2";"***";"";""
"**";"classe";"1";"**";"";""
"****";"40";"2599";"1.54";"****";""
"9";"1141";"0.79";"-7.555";"ukan";"0.005983262"
"0";" 330";"0.00";"-5.908";"jain";"0.015068208"
"0";" 266";"0.00";"-4.632";"jainko";"0.031382068"
"0";" 253";"0.00";"-4.381";"eman";"0.036338391"
"0";" 203";"0.00";"-3.442";"esan";"0.063560434"
"0";" 199";"0.00";"-3.369";"on";"0.066453839"
"4";" 544";"0.74";"-2.933";"egin";"0.086780401"
"*****";"*";"*";"*";"*";"*"
" 0";" 764";"0.00";"-16.914";"ez";"3.910647e-05"
"14";"1402";"1.00";" -5.868";"izan";"1.541719e-02"
" 1";" 344";"0.29";" -4.077";"bera";"4.346196e-02"
" 0";" 190";"0.00";" -3.204";"baina";"7.345168e-02"
" 0";" 169";"0.00";" -2.825";"zuek";"9.278510e-02"
" 0";" 125";"0.00";" -2.053";"baizik";"1.519456e-01"
"*";"*";"*";"*";"*";"*"
"1";"364";"0.27";"-4.465";"*L_Korintoarrei2";"0.03459388"
"4";"579";"0.69";"-3.537";"*L_Korintoarrei1";"0.06001845"
"0";"147";"0.00";"-2.436";"*L_Efesoarrei";"0.11861407"
"**";"classe";"2";"**";"";""
"****";"2559";"2599";"98.46";"****";""
" 1";" 18";" 5.56";"-1032.416";"agur";"1.615182e-226"
" 1";" 17";" 5.88";" -967.837";"goraintzi";"1.759419e-212"
" 1";"  6";"16.67";" -265.511";"zaituztete";" 1.079472e-59"
" 0";"  4";" 0.00";" -256.294";"asia";" 1.102197e-57"
" 0";"  4";" 0.00";" -256.294";"arreba";" 1.102197e-57"
" 0";"  3";" 0.00";" -192.147";"priska";" 1.080802e-43"
"18";" 26";"69.23";" -148.076";"etxe";" 4.565538e-34"
" 1";"  4";"25.00";" -142.667";"probintzia";" 6.950083e-33"
" 1";"  4";"25.00";" -142.667";"laguntzaile";" 6.950083e-33"
"30";" 38";"78.95";"  -96.903";"eli";" 7.281502e-23"
"39";" 47";"82.98";"  -75.713";"elkarte";" 3.279846e-18"
"13";" 17";"76.47";"  -54.607";"bildu";" 1.472335e-13"
"39";" 44";"88.64";"  -28.509";"izen";" 9.327474e-08"
"31";" 35";"88.57";"  -22.898";"fededun";" 1.708704e-06"
" 2";"  3";"66.67";"  -20.036";"zerbitzari";" 7.601238e-06"
" 2";"  3";"66.67";"  -20.036";"herritar";" 7.601238e-06"
" 2";"  3";"66.67";"  -20.036";"agurgarri";" 7.601238e-06"
"10";" 12";"83.33";"  -18.206";"jaunarengan";" 1.982548e-05"
"40";" 44";"90.91";"  -16.844";"maite";" 4.057109e-05"
"12";" 14";"85.71";"  -15.092";"dizue";" 1.023923e-04"
" 3";"  4";"75.00";"  -14.551";"zaitu";" 1.363934e-04"
" 3";"  4";"75.00";"  -14.551";"jesusengatik";" 1.363934e-04"
"96";"102";"94.12";"  -13.216";"senide";" 2.775256e-04"
"29";" 32";"90.62";"  -13.128";"kristau";" 2.909291e-04"
" 4";"  5";"80.00";"  -11.267";"gomendatu";" 7.891011e-04"
" 4";"  5";"80.00";"  -11.267";"azkenik";" 7.891011e-04"
" 4";"  5";"80.00";"  -11.267";"adiskide";" 7.891011e-04"
"35";" 38";"92.11";"  -10.280";"esku";" 1.344904e-03"
"17";" 19";"89.47";"  -10.202";"parte";" 1.403028e-03"
" 5";"  6";"83.33";"   -9.082";"ama";" 2.581476e-03"
"20";" 22";"90.91";"   -8.350";"jesusen";" 3.856151e-03"
"42";" 45";"93.33";"   -7.945";"oso";" 4.821223e-03"
" 6";"  7";"85.71";"   -7.526";"haia";" 6.082634e-03"
" 6";"  7";"85.71";"   -7.526";"hiri";" 6.082634e-03"
"46";" 49";"93.88";"   -6.923";"idatzi";" 8.507530e-03"
" 7";"  8";"87.50";"   -6.362";"jaunarengatik";" 1.165770e-02"
" 7";"  8";"87.50";"   -6.362";"jardun";" 1.165770e-02"
" 7";"  8";"87.50";"   -6.362";"ditudan";" 1.165770e-02"
" 7";"  8";"87.50";"   -6.362";"bereizi";" 1.165770e-02"
" 9";" 10";"90.00";"   -4.742";"zintzo";" 2.942869e-02"
" 9";" 10";"90.00";"   -4.742";"kristorengan";" 2.942869e-02"
" 9";" 10";"90.00";"   -4.742";"iritzi";" 2.942869e-02"
"32";" 34";"94.12";"   -4.289";"zerbitzu";" 3.836783e-02"
"10";" 11";"90.91";"   -4.157";"zaiteztu";" 4.145240e-02"
"12";" 13";"92.31";"   -3.264";"nolako";" 7.079576e-02"
"12";" 13";"92.31";"   -3.264";"ardura";" 7.079576e-02"
"15";" 16";"93.75";"   -2.358";"gutun";" 1.246607e-01"
"15";" 16";"93.75";"   -2.358";"fruitu";" 1.246607e-01"
"*****";"*";"*";"*";"*";"*"
"  9";" 11";"81.82";"-20.191";"itzazue";"7.006470e-06"
"  2";"  3";"66.67";"-20.036";"zuten";"7.601238e-06"
"  3";"  4";"75.00";"-14.551";"niregandik";"1.363934e-04"
" 13";" 15";"86.67";"-13.849";"azken";"1.980626e-04"
"  4";"  5";"80.00";"-11.267";"berorren";"7.891011e-04"
" 16";" 18";"88.89";"-10.959";"zaituzte";"9.313391e-04"
"283";"294";"96.26";"-10.611";"ni";"1.123901e-03"
"  7";"  8";"87.50";" -6.362";"nitu";"1.165770e-02"
" 28";" 30";"93.33";" -5.266";"hauek";"2.174663e-02"
"240";"248";"96.77";" -5.147";"guzti";"2.328078e-02"
"*";"*";"*";"*";"*";"*"
" 17";" 35";"48.57";"-582.716";"*K_Erm_16";"9.621057e-129"
"  0";"  2";" 0.00";"-128.049";"*Tx_1Ko_16_19";" 1.095314e-29"
"  0";"  2";" 0.00";"-128.049";"*Tx_Flp_4_21";" 1.095314e-29"
"  0";"  2";" 0.00";"-128.049";"*Tx_Erm_16_23";" 1.095314e-29"
"  0";"  2";" 0.00";"-128.049";"*Tx_Erm_16_5";" 1.095314e-29"
" 17";" 22";"77.27";" -65.733";"*K_Kol_4";" 5.162497e-16"
"  0";"  1";" 0.00";" -64.000";"*Tx_1Ko_16_20";" 1.244429e-15"
"  0";"  1";" 0.00";" -64.000";"*Tx_Erm_16_16";" 1.244429e-15"
"  1";"  2";"50.00";" -31.019";"*Tx_2Ko_1_8";" 2.554904e-08"
"  1";"  2";"50.00";" -31.019";"*Tx_Kol_4_11";" 2.554904e-08"
"  1";"  2";"50.00";" -31.019";"*Tx_2Tm_4_21";" 2.554904e-08"
"  1";"  2";"50.00";" -31.019";"*Tx_Erm_16_7";" 2.554904e-08"
"  1";"  2";"50.00";" -31.019";"*Tx_Kol_4_12";" 2.554904e-08"
"  1";"  2";"50.00";" -31.019";"*Tx_Ga_4_17";" 2.554904e-08"
"  1";"  2";"50.00";" -31.019";"*Tx_2Ts_3_17";" 2.554904e-08"
"  1";"  2";"50.00";" -31.019";"*Tx_Tt_3_15";" 2.554904e-08"
"  1";"  2";"50.00";" -31.019";"*Tx_Erm_16_12";" 2.554904e-08"
" 25";" 29";"86.21";" -29.061";"*K_1Ko_16";" 7.012947e-08"
" 28";" 31";"90.32";" -13.713";"*K_Flp_4";" 2.129853e-04"
"607";"625";"97.12";"  -9.764";"*L_Erromatarrei";" 1.779262e-03"
" 99";"104";"95.19";"  -7.638";"*L_Kolosarrei";" 5.714815e-03"
" 24";" 26";"92.31";"  -6.562";"*L_Filemoni";" 1.041831e-02"
" 24";" 26";"92.31";"  -6.562";"*K_Flm_1";" 1.041831e-02"
" 26";" 28";"92.86";"  -5.866";"*K_2Tm_4";" 1.543984e-02"
" 14";" 15";"93.33";"  -2.618";"*K_Tt_3";" 1.056783e-01"
