"";"Valeurs propres";"Pourcentages";"Pourcentage cumules"
"facteur 1";0,0792923897649482;16,8868383729115;16,8868383729115
"facteur 2";0,0766021948331561;16,3139096575649;33,2007480304764
"facteur 3";0,0643253996546723;13,6993301685249;46,9000781990013
"facteur 4";0,046796627104528;9,96624115699072;56,8663193559921
"facteur 5";0,0390524932826531;8,31697902003329;65,1832983760253
"facteur 6";0,0351010407777895;7,47544126356418;72,6587396395895
"facteur 7";0,0327959479854435;6,98452745034326;79,6432670899328
"facteur 8";0,0257491737444747;5,48378143915116;85,127048529084
"facteur 9";0,0206592129906371;4,39977646932599;89,5268249984099
"facteur 10";0,0180493071966707;3,84394686900892;93,3707718674189
"facteur 11";0,0162205063834256;3,45446858690558;96,8252404543244
"facteur 12";0,0149071286019713;3,17475954567556;100
