"";"Valeurs propres";"Pourcentages";"Pourcentage cumules"
"facteur 1";0,00954792276151462;31,3174695365772;31,3174695365772
"facteur 2";0,00829398262994539;27,2045087542173;58,5219782907946
"facteur 3";0,00522305049091958;17,1317603549016;75,6537386456961
"facteur 4";0,00256083765734897;8,39962338671286;84,053362032409
"facteur 5";0,00174686432533224;5,7297667418968;89,7831287743058
"facteur 6";0,00115530603472995;3,78943802246884;93,5725667967746
"facteur 7";0,000697972858119886;2,28937165365797;95,8619384504326
"facteur 8";0,00049421334759104;1,62103442228695;97,4829728727195
"facteur 9";0,000326728882169408;1,07168041359785;98,5546532863174
"facteur 10";0,000312973637655813;1,02656280406303;99,5812160903804
"facteur 11";9,95078861267534e-05;0,326388814641965;99,9076049050224
"facteur 12";2,81689818316525e-05;0,0923950949776254;100
