"";"banalfreq";"X.L_Efesoarrei";"X.L_Erromatarrei";"X.L_Filemoni";"X.L_Filipostarrei";"X.L_Galaziarrei";"X.L_Kolosarrei";"X.L_Korintoarrei1";"X.L_Korintoarrei2";"X.L_Tesalonikarrei1";"X.L_Tesalonikarrei2";"X.L_Timoteori1";"X.L_Timoteori2";"X.L_Titori"
"itaque";31;-0,2005;0,2784;-0,1441;0,6675;0,4241;-0,6503;1,299;-1,2913;0,3456;0,2534;-0,6432;-0,1526;-0,2569
"sanctificatio";10;-0,3146;0,4246;-0,0465;-0,2309;-0,3183;-0,2097;-0,4735;-0,2447;1,9678;0,6356;0,4206;-0,1548;-0,0828
"accipio";55;-1,021;-0,3465;-0,2558;0,8107;0,4583;0,5852;0,7433;0,2677;0,2946;-0,2366;-1,1417;0,2377;-0,4561
"manus";13;-0,409;-0,7221;0,8866;-0,3002;0,6326;0,3315;-0,3444;-0,3714;-0,2828;0,5379;1,6914;0,4307;-0,1077
"conscientia";21;-0,6609;-0,5254;-0,0976;-0,4851;-0,6687;-0,4404;1,6607;-0,19;-0,4569;-0,2401;1,8267;0,2781;0,4813
"caritas";61;1,2148;-1,5241;1,5646;0,4099;-0,4361;-0,35;-0,2441;-0,3163;1,1161;0,6757;0,2629;-0,4378;-0,5059
"potestas";29;0,8512;-0,4299;-0,1348;-0,67;-0,9236;1,3407;1,9283;-0,7122;-0,631;0,2725;-0,6017;-0,4492;0,3716
"novus";11;-0,3461;-1,1734;-0,0511;-0,254;0,2569;-0,2307;1,1893;0,6969;-0,2393;-0,1257;0,3887;0,4889;-0,0911
"plenitudo";14;1,8702;-0,1965;-0,0651;-0,3233;0,1927;1,5896;-0,7797;-0,4163;0,2975;-0,16;-0,2904;-0,2168;-0,116
"necessitas";12;0,236;-0,3042;0,9191;0,3263;-0,382;-0,2516;0,3104;0,6176;0,3451;-0,1372;-0,2489;-0,1858;-0,0994
"etiam";37;-0,2867;0,5619;-0,172;1,3907;-0,5967;0,2792;-1,5281;1,1355;0,5688;0,2058;-0,7678;-0,2031;-0,3067
"possum";39;0,8744;-0,9239;-0,1813;-0,173;-0,325;-0,8183;1,9513;-0,7684;0,2409;-0,4461;0,5639;0,3994;-0,3233
"sancio";10;0,8203;-0,4887;0,9937;-0,2309;-0,3183;1,1098;-0,1962;0,3658;-0,2175;-0,1143;-0,2074;-0,1548;-0,0828
"impleo";17;0,9537;-0,6018;-0,079;0,6596;-0,1807;1,3635;-1,7746;-0,5571;0,2417;0,4428;-0,3526;1,6954;-0,1409
"destruo";12;-0,3776;0,2979;-0,0558;-0,2771;0,2328;-0,2516;1,0365;-0,3278;-0,261;0,5673;-0,2489;0,4583;-0,0994
"ambulo";29;1,3158;-0,4299;-0,1348;0,3495;-0,1785;0,3982;-1,438;0,3943;1,2932;0,7614;-0,6017;-0,4492;-0,2403
"fio";51;-0,5246;0,3623;0,3759;-0,6;-0,5355;-0,5228;1,4931;-0,4084;-0,2653;0,8348;0,671;-0,7904;-0,4229
"ceterus";16;-0,1605;-0,5377;-0,0744;0,6998;-0,1636;-0,3355;0,6124;-0,2274;0,7389;-0,1829;0,2722;-0,2478;-0,1326
"forte";12;-0,3776;-0,6424;-0,0558;-0,2771;0,6856;-0,2516;0,615;1,0952;0,3451;-0,1372;-0,2489;-0,1858;-0,0994
"perfectus";12;0,6931;-0,6424;-0,0558;0,9017;-0,382;0,9701;0,3104;-0,3278;-0,261;-0,1372;-0,2489;0,4583;-0,0994
"angelus";14;-0,4405;-0,8034;-0,0651;-0,3233;1,1466;0,3086;0,4569;-0,1703;-0,3045;0,5111;0,8647;-0,2168;-0,116
"saeculum";37;1,8875;-0,5595;-0,172;0,2383;0,3089;-0,3241;-0,3458;-0,6917;-0,8053;-0,4232;1,0357;0,8575;0,2954
"lego";17;-0,1774;1,7402;-0,079;-0,3926;0,468;0,7218;-1,7746;0,3486;0,2417;-0,1943;-0,3526;-0,2633;-0,1409
"oporteo";27;-0,3683;-0,8852;-0,1255;-0,6237;-0,8598;0,8782;-0,3295;0,2565;-0,2095;0,2935;1,4549;0,613;1,8541
"tres";13;-0,409;-0,7221;-0,0604;-0,3002;0,2115;-0,2726;1,393;0,9857;-0,2828;-0,1486;0,3349;-0,2013;-0,1077
"quemadmodum";11;-0,3461;-0,5645;-0,0511;-0,254;-0,3502;-0,2307;0,3689;0,6969;1,0094;0,5997;-0,2281;0,4889;-0,0911
"probo";19;-0,2126;0,3975;-0,0883;0,1966;-0,2165;-0,3985;-0,2097;0,2795;0,6252;-0,2172;0,2244;0,3079;-0,1574
"nec";17;-0,1774;-0,3226;-0,079;-0,3926;-0,5413;-0,3565;0,8682;0,3486;0,2417;0,4428;0,729;-0,2633;-0,1409
"mens";11;0,2602;-0,2529;-0,0511;-0,254;-0,3502;-0,2307;0,3689;0,3172;-0,2393;-0,1257;0,3887;0,4889;0,7229
"regnum";14;0,1956;-0,8034;-0,0651;-0,3233;0,1927;0,8571;0,794;-0,9404;0,2975;0,5111;-0,2904;1,0736;-0,116
"do";54;1,4827;-1,129;-0,2511;-0,651;0,7448;-0,5679;0,3083;-0,483;-0,2968;1,2889;-0,2708;1,3963;-0,4478
"suscito";15;-0,1441;-0,2357;-0,0697;0,2599;-0,1469;0,2879;0,3946;0,4362;0,2771;-0,1715;-0,3111;-0,2323;-0,1243
"disco";21;-0,2494;-1,4049;-0,0976;0,5271;0,3538;0,5846;-0,5027;-1,4108;-0,139;0,3719;1,8267;1,4488;0,4813
"universus";11;-0,3461;0,3552;-0,0511;-0,254;0,2569;1,8875;-0,5472;-0,2855;0,3731;-0,1257;-0,2281;-0,1703;0,7229
"Spes";36;0,3326;1,456;-0,1674;-0,3592;-0,5736;0,6202;-1,4562;-0,6543;1,0131;0,2129;-0,3056;-0,5577;1,5204
"cor";52;0,8147;0,8444;-0,2418;-0,3091;-0,9611;1,0124;-1,6597;0,9347;0,328;0,406;-0,5293;-0,3448;-0,4312
"quomodo";30;-0,4315;0,7239;-0,1394;-0,2715;0,4475;-0,2339;0,7604;-0,7554;0,362;-0,3431;0,3861;-0,4647;-0,2486
"iustitia";14;0,5922;0,7676;-0,0651;0,2798;0,585;-0,2936;-0,7797;-0,1703;-0,3045;-0,16;-0,2904;0,4056;-0,116
"christum";48;0,3622;1,086;-0,2232;1,4374;-0,2542;-0,2187;-0,5596;0,2659;-0,5046;-0,5491;-0,9963;-0,3052;0,2218
"servio";28;0,5073;1,1873;-0,1301;-0,2436;0,8793;0,417;-0,9132;-1,8814;-0,222;-0,3202;-0,206;0,1995;1,0106
"contentio";12;-0,3776;0,2979;-0,0558;1,669;0,2328;-0,2516;-0,2919;-0,3278;-0,261;-0,1372;0,3603;-0,1858;0,6891
"tunc";13;-0,409;-0,7221;-0,0604;-0,3002;0,6326;0,3315;1,393;-0,3714;0,3201;0,5379;-0,2696;-0,2013;-0,1077
"qualis";16;-0,5035;-1,707;-0,0744;0,2419;0,5033;0,2691;0,6124;0,3897;0,7389;-0,1829;-0,3319;0,9732;-0,1326
"usque";28;-0,8813;0,3868;-0,1301;1,8726;-0,3959;-0,5873;0,2437;0,6909;-0,222;-0,3202;-0,206;0,1995;-0,2321
"apud";40;-0,6562;-0,9803;-0,186;-0,4208;0,8257;-0,3648;0,6571;1,2867;-0,3852;1,7063;-0,8301;-0,2299;-0,3316
"vobiscum";10;-0,3146;-0,2049;-0,0465;0,3847;-0,3183;1,1098;-0,4735;0,789;0,4045;-0,1143;-0,2074;-0,1548;-0,0828
"super";36;1,4329;0,2683;0,4951;0,5445;-0,2778;0,6202;-1,0407;0,6011;-0,3284;0,2129;-0,747;-0,5577;-0,2984
"simul";11;-0,3461;1,1581;0,9546;-0,254;-0,3502;0,3851;-0,5472;-0,7388;1,0094;-0,1257;0,3887;-0,1703;-0,0911
"anima";12;-0,3776;0,5944;-0,0558;0,3263;-0,382;-0,2516;-0,2919;0,6176;0,944;-0,1372;-0,2489;-0,1858;-0,0994
"invenio";17;-0,5349;0,2805;-0,079;0,6596;-0,1807;-0,3565;-0,5796;1,5869;-0,3698;-0,1943;-0,3526;0,9286;-0,1409
"cuius";11;0,2602;0,6937;-0,0511;-0,254;-0,3502;1,036;-0,2423;-0,2855;-0,2393;0,5997;-0,2281;-0,1703;-0,0911
"apostolus";29;0,4808;-1,486;-0,1348;-0,67;0,4723;-0,2216;0,8296;0,3943;-0,2347;-0,3316;0,404;0,5686;0,3716
"dies";53;-0,3115;-0,2947;-0,2465;0,8591;-0,5735;0,3384;-1,3381;0,3049;1,36;0,7995;-0,5441;1,4263;-0,4395
"peccator";10;0,2878;0,8122;-0,0465;-0,2309;0,8123;0,4169;-1,0437;-0,6716;-0,2175;-0,1143;1,1179;-0,1548;-0,0828
"abundans";11;-0,3461;-1,1734;-0,0511;0,3537;0,2569;-0,2307;-0,5472;1,8832;1,8454;-0,1257;-0,2281;-0,1703;-0,0911
"nomen";23;0,3147;-0,2109;-0,1069;1,5404;-0,7324;-0,1523;0,4367;-1,5452;-0,5004;0,9238;0,5355;0,2521;-0,1906
"desum";10;-0,3146;-1,0667;-0,0465;0,3847;-0,3183;0,4169;0,4395;0,3658;0,4045;-0,1143;-0,2074;-0,1548;1,8388
"timor";17;0,4745;0,5165;-0,079;0,2254;-0,5413;-0,3565;-0,5796;1,0744;-0,3698;-0,1943;0,2549;0,3424;-0,1409
"aemulo";11;-0,3461;-0,2529;-0,0511;-0,254;1,4219;-0,2307;1,1893;-0,2855;-0,2393;-0,1257;-0,2281;-0,1703;-0,0911
"virtus";52;1,1638;-1,0237;-0,2418;-0,3091;-0,9611;-0,2568;0,8972;0,6917;-0,5667;1,3392;-1,0794;0,5622;-0,4312
"cognosco";40;-0,6562;-0,4785;-0,186;-0,1824;0,5053;0,2454;0,8916;0,6859;-0,3852;-0,4575;-0,3589;0,3862;-0,3316
"aedificatio";16;1,659;-0,5377;-0,0744;-0,3695;-0,5094;-0,3355;0,6124;0,7282;-0,3481;-0,1829;0,2722;-0,2478;-0,1326
"finis";12;-0,3776;0,5944;-0,0558;0,3263;-0,382;-0,2516;0,3104;0,2758;0,3451;-0,1372;0,3603;-0,1858;-0,0994
"fornicatio";11;0,2602;-0,5645;-0,0511;-0,254;0,2569;0,3851;1,1893;-0,2855;0,3731;-0,1257;-0,2281;-0,1703;-0,0911
"exhorto";13;-0,409;-0,3586;-0,0604;-0,3002;-0,4139;-0,2726;-0,7005;1,5454;0,3201;0,5379;0,3349;-0,2013;1,6161
"nemo";36;-0,2716;-1,5106;-0,1674;-0,3592;0,6056;0,6202;0,893;-0,2317;-0,3284;-0,4117;0,2965;0,4426;0,8305
"permaneo";14;-0,4405;-0,1965;-0,0651;1,4837;0,585;0,3086;0,2207;-0,9404;-0,3045;-0,16;0,312;0,4056;-0,116
"revelatio";12;0,6931;0,2979;-0,0558;-0,2771;0,6856;-0,2516;-0,2919;0,2758;-0,261;0,5673;-0,2489;-0,1858;-0,0994
"oculus";13;0,6399;0,2502;-0,0604;-0,3002;0,6326;0,3315;0,9061;-0,8732;-0,2828;-0,1486;-0,2696;-0,2013;-0,1077
"se";63;0,3449;-1,0243;-0,293;0,3843;0,5449;-1,3225;-0,2864;0,5417;-1,3719;-0,2921;0,7701;1,6443;0,9338
"opera";15;-0,472;0,378;-0,0697;0,2599;-0,1469;-0,3146;-0,8602;-0,4623;0,7833;-0,1715;0,2912;1,0213;1,4978
"verbum";57;0,2439;-0,5588;-0,2651;-0,3683;-1,0884;0,5513;-0,9431;-0,3794;1,2312;-0,2502;0,9002;1,8409;1,0316
"patior";20;-0,6294;-1,3162;-0,0929;0,5566;0,3788;-0,4194;0,3666;0,4953;0,1987;0,3879;0,2109;1,5046;-0,1657
"oro";19;-0,2126;-1,2283;-0,0883;0,1966;-0,605;1,2397;1,4733;-0,3237;0,2119;0,405;0,2244;-0,2943;-0,1574
"ministro";10;-0,3146;0,4246;0,9937;-0,2309;-0,3183;-0,2097;-1,0437;0,789;-0,2175;-0,1143;1,1179;0,523;-0,0828
"circa";11;0,7528;-1,1734;-0,0511;1,7771;-0,3502;1,036;-1,1481;-0,7388;-0,2393;-0,1257;1,9001;0,4889;-0,0911
"tempus";39;0,5391;-0,2873;-0,1813;-0,9012;1,2654;-0,3511;-0,8806;-0,7684;0,2409;-0,1361;0,5639;1,3313;0,7755
"benedictio";10;0,2878;-0,2049;-0,0465;-0,2309;0,2844;-0,2097;-0,1962;1,3661;-0,2175;-0,1143;-0,2074;-0,1548;-0,0828
"talis";12;-0,3776;0,2979;0,9191;-0,2771;0,2328;-0,2516;0,615;0,6176;-0,261;-0,1372;-0,2489;-0,1858;-0,0994
"deus";123;-0,6273;0,9708;-0,5729;0,5152;-0,4524;-1,1763;0,5142;0,5146;0,4035;0,9934;-1,1562;-0,7199;-0,4924
"mecum";11;-0,3461;-1,1734;0,9546;1,7771;0,745;-0,2307;-0,2423;-0,2855;-0,2393;-0,1257;-0,2281;0,4889;0,7229
"actio";11;0,2602;-1,1734;-0,0511;0,3537;-0,3502;1,036;-1,1481;0,6969;0,3731;-0,1257;1,9001;-0,1703;-0,0911
"nullus";15;-0,472;-0,886;-0,0697;1,4034;-0,4776;-0,3146;0,3946;0,4362;0,2771;-0,1715;1,5198;-0,2323;-0,1243
"infirmus";11;-0,3461;-0,2529;-0,0511;-0,254;0,2569;-0,2307;1,7929;-0,2855;0,3731;-0,1257;-0,2281;-0,1703;-0,0911
"Deus";57;-1,0715;1,8365;-0,2651;-0,7027;0,6711;-1,1964;-0,9431;0,3644;1,6886;0,3586;-0,301;-0,8835;-0,1504
"venio";62;-0,7382;-1,2537;-0,2884;-0,7904;1,9532;-0,3609;-0,2648;0,57;0,4447;0,3177;0,4847;0,7648;-0,1724
"minister";22;0,3363;0,2677;-0,1022;-0,1653;-0,2733;1,7401;-0,9156;0,7025;-0,1501;-0,2515;-0,139;-0,3407;-0,1823
"pax";48;1,7642;0,4604;0,3959;0,3412;-0,2542;-0,2187;-1,8341;-1,1401;0,6859;0,8916;-0,471;0,6269;0,2218
"obsecro";19;-0,2126;-0,4196;1,7666;-0,4388;-0,2165;-0,3985;-0,4008;0,5447;0,2119;0,405;0,6552;0,3079;-0,1574
"adversus";19;1,4029;-0,4196;-0,0883;-0,4388;1,3874;0,2215;-0,4008;-0,3237;-0,4134;-0,2172;0,2244;-0,2943;0,517
"caela";11;1,4346;-0,5645;-0,0511;0,3537;-0,3502;1,8875;-1,1481;0,3172;0,3731;-0,1257;-0,2281;-0,1703;-0,0911
"spiritus";145;0,8644;0,465;-0,2659;-0,6335;1,8564;-1,517;1,3515;-0,6545;-0,8011;-0,3206;-1,0495;-0,6048;-0,6239
"praedico";32;-1,0073;-0,3601;-0,1488;-0,3;1,1436;-0,6713;0,2669;0,7835;0,6901;-0,3659;-0,2545;0,5096;-0,2652
"os";14;0,5922;1,1985;-0,0651;-0,3233;-0,4457;0,3086;-0,7797;-0,1703;-0,3045;-0,16;0,312;0,4056;-0,116
"adhuc";19;-0,5979;1,0055;-0,0883;-0,4388;0,8332;0,2215;0,4168;-0,6552;-0,4134;0,405;0,2244;-0,2943;-0,1574
"factum";16;-0,1605;0,3256;-0,0744;-0,3695;1,0045;-0,3355;-0,9419;0,7282;0,2586;-0,1829;0,2722;0,3617;-0,1326
"fiducia";10;0,8203;-1,0667;0,9937;1,0388;-0,3183;-0,2097;-1,0437;0,789;0,4045;-0,1143;0,4206;-0,1548;-0,0828
"propheta";15;1,0839;0,378;-0,0697;-0,3464;-0,4776;-0,3146;1,096;-1,0076;0,2771;-0,1715;-0,3111;-0,2323;0,604
"auditus";10;-0,3146;0,4246;-0,0465;-0,2309;1,5373;-0,2097;-0,1962;-0,6716;0,4045;-0,1143;-0,2074;0,523;-0,0828
"vero";33;-0,4969;1,0695;-0,1534;-0,3146;-0,5054;-0,6923;1,4593;-0,8885;-0,2873;-0,3774;-0,2671;0,9678;-0,2735
"prior";10;-0,3146;-0,4887;-0,0465;0,3847;0,8123;-0,2097;0,4395;0,3658;-0,2175;-0,1143;0,4206;-0,1548;-0,0828
"deo";138;-0,4356;0,4256;0,3637;0,3732;-0,6329;-0,2807;-1,3532;0,6058;1,7519;0,5388;0,3327;-0,3305;-0,2884
"pono";20;-0,6294;-0,4715;-0,0929;-0,1412;-0,2351;-0,4194;0,9394;-0,3582;0,5928;-0,2287;1,1953;0,2925;-0,1657
"desiderium";18;0,442;-0,37;-0,0836;0,6226;-0,1984;-0,3775;-1,8791;-0,2903;0,6602;-0,2058;0,239;1,6275;1,3504
"efficio";10;0,2878;-0,4887;-0,0465;-0,2309;0,2844;-0,2097;1,3706;0,3658;-0,2175;-0,1143;-0,2074;-0,1548;-0,0828
"trado";21;0,7498;0,5245;-0,0976;-0,1531;-0,254;-0,4404;0,8472;-0,7561;-0,139;-0,2401;0,1984;-0,3252;-0,174
"ita";62;-0,2503;0,3113;0,314;-0,4309;-0,4516;-0,3609;0,3406;0,57;1,0892;1,1112;-1,2872;-0,4484;-0,5142
"supra";19;0,8438;-1,2283;-0,0883;0,1966;0,406;0,2215;-0,4008;1,8939;-0,4134;0,405;-0,3941;-0,2943;-0,1574
"alter";13;-0,409;0,5105;-0,0604;-0,3002;1,2287;-0,2726;1,393;-0,8732;-0,2828;-0,1486;-0,2696;-0,2013;-0,1077
"servus";16;-0,1605;-0,5377;0,8031;-0,3695;1,6427;0,7632;-0,2645;-0,5092;-0,3481;-0,1829;-0,3319;-0,2478;1,4452
"dedo";23;0,6686;-1,022;-0,1069;-0,5313;-0,293;-0,4824;-0,3604;1,4303;-0,1615;0,3428;0,5355;0,2521;0,4495
"propter";96;0,6433;1,0682;0,5652;1,2172;-1,0687;-0,4794;-0,6384;0,8603;0,2952;-1,0993;-1,2376;-0,4661;-0,7968
"habito";14;0,1956;0,7676;-0,0651;-0,3233;-0,4457;0,8571;0,2207;-0,9404;-0,3045;-0,16;0,312;1,0736;-0,116
"ideo";24;-0,7553;-0,4245;0,6449;-0,5544;-0,7643;-0,1633;0,6217;0,9278;0,483;0,3294;-0,1605;0,2402;-0,1989
"scribo";34;-0,5191;-0,6597;1,2957;-0,3293;0,3616;-0,7133;0,5343;1,3408;0,3012;0,228;-0,2798;-0,5267;-0,2818
"saluto";20;-0,6294;0,3486;0,7152;0,5566;-0,6368;1,184;-0,4508;-0,7054;-0,4351;-0,2287;0,2109;0,8126;1,267
"carissimi";10;0,2878;-0,2049;-0,0465;1,8986;-0,3183;-0,2097;-0,4735;0,3658;0,4045;-0,1143;-0,2074;-0,1548;-0,0828
"dono";15;0,5491;-0,886;0,8289;0,2599;-0,1469;1,5078;-0,8602;1,2835;-0,3263;-0,1715;-0,3111;-0,2323;-0,1243
"pars";19;-0,2126;-0,4196;-0,0883;-0,4388;-0,2165;0,6482;0,6901;0,9042;-0,4134;-0,2172;0,2244;-0,2943;-0,1574
"sto";13;0,6399;0,8781;-0,0604;0,3018;-0,4139;0,3315;-0,7005;0,2405;-0,2828;-0,1486;-0,2696;0,4307;-0,1077
"confirmo";11;-0,3461;0,3552;-0,0511;-0,254;-0,3502;-0,2307;-0,5472;0,3172;1,0094;1,4988;-0,2281;-0,1703;0,7229
"sector";10;-0,3146;1,3377;-0,0465;-0,2309;-0,3183;-0,2097;-0,4735;-0,6716;0,4045;-0,1143;1,1179;0,523;-0,0828
"salus";19;0,4122;0,3975;-0,0883;1,1411;-0,605;-0,3985;-1,9835;0,5447;0,6252;0,405;-0,3941;0,8487;-0,1574
"potens";11;0,2602;0,6937;-0,0511;-0,254;-0,3502;-0,2307;-1,1481;0,6969;-0,2393;-0,1257;0,3887;0,4889;0,7229
"dilectio";16;0,5101;0,3256;-0,0744;-0,3695;-0,5094;1,4327;-1,6702;-0,5092;-0,3481;-0,1829;0,7705;1,7685;0,5799
"misericordia";23;-0,2878;1,7894;-0,1069;-0,5313;-0,293;-0,1523;-1,5407;-0,4683;-0,5004;-0,263;1,048;1,3467;0,4495
"reddo";13;-0,409;0,8781;0,8866;-0,3002;-0,4139;-0,2726;-0,7005;-0,3714;0,3201;-0,1486;0,9186;1,1307;-0,1077
"seduco";10;0,2878;-0,2049;-0,0465;-0,2309;0,2844;0,4169;-0,1962;-0,2447;-0,2175;0,6356;0,4206;-0,1548;-0,0828
"nolo";50;1,2392;0,5489;-0,2325;-1,1556;-0,5168;0,3756;1,0148;-1,7199;-0,5355;0,427;0,3826;0,2784;-0,4146
"evacuo";15;-0,1441;-0,886;-0,0697;-0,3464;0,5422;-0,3146;1,096;1,2835;-0,3263;-0,1715;-0,3111;-0,2323;-0,1243
"confundo";12;-0,3776;0,2979;-0,0558;0,3263;0,2328;-0,2516;0,615;-0,3278;-0,261;0,5673;-0,2489;0,4583;-0,0994
"tamen";16;0,5101;-0,5377;-0,0744;-0,3695;0,5033;0,2691;0,6124;0,3897;-0,3481;0,4638;-0,3319;-0,2478;-0,1326
"cum";203;-0,3564;-1,6989;-0,1985;0,3166;1,5211;0,601;-0,5004;-0,2653;0,5377;0,7965;0,458;-0,3665;0,4704
"ignoro";17;-0,5349;0,8375;-0,079;0,2254;-0,1807;-0,3565;0,2946;-0,2582;0,698;-0,1943;0,2549;-0,2633;-0,1409
"pes";10;0,8203;0,4246;-0,0465;-0,2309;-0,3183;-0,2097;0,8358;-0,6716;-0,2175;-0,1143;0,4206;-0,1548;-0,0828
"Servius";13;0,6399;0,8781;-0,0604;0,8437;-0,4139;0,3315;-0,3444;-0,8732;-0,2828;-0,1486;0,3349;-0,2013;-0,1077
"malus";28;0,2278;1,9999;-0,1301;-0,2436;-0,8917;-0,2096;-0,9132;-0,6697;0,3978;-0,3202;-0,206;0,5902;1,0106
"locum";10;-0,3146;0,8122;-0,0465;-0,2309;-0,3183;-0,2097;-0,1962;-0,2447;0,4045;0,6356;0,4206;-0,1548;-0,0828
"exhibeo";13;0,2146;1,3557;-0,0604;-0,3002;-0,4139;0,9108;-1,3569;0,5489;-0,2828;-0,1486;-0,2696;0,4307;-0,1077
"ostendeo";10;0,2878;-0,2049;-0,0465;-0,2309;-0,3183;-0,2097;-0,4735;-0,6716;-0,2175;0,6356;1,1179;0,523;1,8388
"ago";43;-0,7269;1,4745;0,433;-0,2118;-0,3915;-0,1743;-0,3843;-1,3645;0,8044;0,5119;0,4887;-0,2575;-0,3565
"edo";26;0,5657;-1,8582;-0,1208;-0,2166;0,2539;0,9147;1,4507;-0,5868;-0,1972;-0,2973;0,464;0,2187;-0,2155
"nunc";62;-0,2503;0,4328;0,8504;0,6633;0,8346;0,4753;-0,3767;-0,4949;-0,3863;0,3177;-0,6809;-0,4484;-0,5142
"passio";11;-0,3461;0,3552;-0,0511;0,3537;-0,3502;1,036;-1,1481;0,6969;0,3731;-0,1257;-0,2281;0,4889;-0,0911
"honor";19;-0,5979;1,4273;-0,0883;0,1966;-0,605;0,2215;-0,7093;-1,2764;0,2119;-0,2172;1,9834;0,8487;-0,1574
"volo";47;-1,4799;-0,5573;1,0494;-0,2534;0,9512;0,4172;-0,2379;0,2851;-0,2253;-0,5376;1,1759;-0,2955;0,2274
"eiusmodi";15;-0,1441;-0,886;-0,0697;0,2599;-0,4776;-0,3146;0,3946;1,8701;-0,3263;0,4865;-0,3111;-0,2323;0,604
"scriptura";14;-0,4405;1,7337;-0,0651;-0,3233;1,1466;-0,2936;-0,3997;-0,9404;-0,3045;-0,16;0,312;0,4056;-0,116
"sensus";13;0,2146;-0,3586;-0,0604;0,3018;-0,4139;0,9108;0,5297;0,2405;-0,2828;0,5379;-0,2696;-0,2013;-0,1077
"invicem";37;0,9469;0,785;-0,172;-0,3744;1,3613;0,2792;-1,102;-1,6294;1,4836;0,2058;-0,7678;-0,5732;0,2954
"iesus";18;-0,5664;-1,1412;-0,0836;0,2104;-0,1984;0,236;0,2546;-0,2903;0,6602;1,106;1,3109;0,3245;-0,1491
"infirmis";10;-0,3146;-0,2049;-0,0465;-0,2309;-0,3183;-0,2097;0,8358;0,789;-0,2175;-0,1143;-0,2074;0,523;-0,0828
"quaero";22;-0,6924;0,2677;-0,1022;0,4996;0,3306;-0,1415;1,1079;-0,4306;-0,1501;-0,2515;-0,4564;0,2647;-0,1823
"aliquis";35;-0,5415;-0,3046;0,5052;-0,8087;1,4658;0,3045;0,7029;-0,2121;0,2879;0,2203;-0,7262;-0,5422;-0,2901
"semet";15;1,0839;-0,2357;-0,0697;0,7434;0,5422;0,2879;-0,8602;-0,4623;-0,3263;-0,1715;0,2912;-0,2323;0,604
"facio";164;1,4192;0,6322;0,2819;-0,4191;-0,415;0,609;0,4169;-1,0656;0,5513;-0,7039;-0,6608;-0,7701;-0,2041
"oratio";19;0,4122;-0,4196;1,7666;1,1411;-0,605;0,6482;-1,1935;-0,6552;0,2119;-0,2172;1,2511;0,3079;-0,1574
"semper";30;-0,4315;-1,5665;0,5612;1,1724;-0,439;0,7794;-1,5163;0,5967;1,8481;1,3756;-0,6224;-0,1446;0,3606
"fructus";13;0,2146;0,5105;-0,0604;1,5718;0,2115;-0,2726;0,2616;-0,8732;-0,2828;-0,1486;-0,2696;0,4307;-0,1077
"spero";20;-0,2308;-0,2582;0,7152;0,5566;-0,6368;-0,4194;-0,4508;0,8307;-0,4351;-0,2287;1,9025;-0,3097;-0,1657
"induo";12;1,3322;-0,3042;-0,0558;-0,2771;0,2328;0,9701;0,3104;-0,806;0,3451;-0,1372;-0,2489;-0,1858;-0,0994
"amen";24;-0,3074;-0,2425;0,6449;0,4498;0,2894;-0,1633;-1,0597;-0,507;0,483;0,3294;0,5102;0,6889;0,4348
"adnuntio";10;-0,3146;-0,2049;-0,0465;1,0388;-0,3183;0,4169;0,4395;-0,6716;1,0827;-0,1143;-0,2074;-0,1548;-0,0828
"ab";51;-0,5246;-1,2833;-0,2372;-0,2976;1,1797;0,3627;0,2672;-0,2598;0,6242;0,8348;-0,5146;0,9881;0,206
"labor";11;-0,3461;-1,1734;-0,0511;-0,254;-0,3502;0,3851;-0,2423;1,2207;1,8454;0,5997;-0,2281;-0,1703;-0,0911
"quia";121;-0,8448;0,891;-0,2003;1,3072;0,8319;-0,7633;-1,3284;-0,6293;0,2645;-0,4109;1,9607;-0,2353;-0,4808
"multo";15;-0,472;0,378;-0,0697;0,7434;-0,4776;-0,3146;-0,4575;0,8041;0,2771;-0,1715;0,2912;-0,2323;0,604
"mysterium";14;0,5922;-0,4159;-0,0651;-0,3233;-0,4457;1,5896;0,794;-0,9404;-0,3045;0,5111;0,312;-0,2168;-0,116
"eligo";12;0,236;-0,6424;-0,0558;0,3263;-0,382;0,3568;0,3104;-0,806;-0,261;0,5673;0,978;0,4583;0,6891
"audio";17;0,4745;-0,6018;0,7791;0,2254;-0,5413;0,7218;0,2946;-0,2582;-0,3698;0,4428;0,2549;0,3424;-0,1409
"sanguis";12;1,3322;0,2979;-0,0558;-0,2771;0,2328;0,3568;0,615;-0,806;-0,261;-0,1372;-0,2489;-0,1858;-0,0994
"sanctor";10;1,5502;-0,2049;0,9937;-0,2309;-0,3183;0,4169;-0,1962;-0,6716;-0,2175;-0,1143;0,4206;-0,1548;-0,0828
"mandatum";14;0,5922;1,7337;-0,0651;-0,3233;-0,4457;0,3086;-0,3997;-0,9404;-0,3045;-0,16;0,312;-0,2168;0,6301
"consequor";13;-0,409;1,3557;-0,0604;-0,3002;0,2115;-0,2726;-0,3444;-0,3714;-0,2828;-0,1486;0,9186;0,4307;-0,1077
"jam";30;0,8121;-0,2913;0,5612;0,3328;1,244;-0,6293;-0,2728;-0,7554;-0,6528;0,2627;-0,2299;0,548;-0,2486
"existimo";20;-0,6294;-0,4715;-0,0929;1,0869;-0,2351;-0,4194;0,3666;0,8307;-0,4351;0,3879;0,6221;-0,3097;-0,1657
"salvus";24;-0,7553;0,8805;-0,1115;-0,5544;-0,7643;-0,5034;0,9179;-0,9119;-0,1732;0,3294;1,0047;0,2402;0,4348
"placeo";29;-0,4102;0,5428;-0,1348;-0,2574;0,8383;0,3982;-0,4064;-0,7122;1,2932;-0,3316;-0,6017;-0,1367;0,3716
"deinde";13;-0,409;-1,3868;-0,0604;-0,3002;1,2287;-0,2726;1,9926;-0,3714;0,3201;-0,1486;0,3349;-0,2013;-0,1077
"scio";72;0,4095;-0,3093;0,2695;0,7731;-1,4828;0,3543;-0,521;0,847;-0,5081;-0,8241;0,3624;0,9674;-0,2188
"oboedio";15;-0,472;1,062;0,8289;0,2599;-0,1469;-0,3146;-1,5658;0,4362;-0,3263;1,2475;-0,3111;-0,2323;0,604
"ubi";19;-0,5979;0,3975;-0,0883;-0,4388;0,8332;0,6482;1,4733;-0,6552;-0,4134;-0,2172;-0,3941;-0,2943;-0,1574
"scientia";26;-0,3477;-0,5196;-0,1208;0,406;-0,828;0,4579;1,4507;0,5047;-0,5657;-0,2973;-0,1828;0,2187;-0,2155
"insipio";12;0,236;0,5944;-0,0558;-0,2771;-0,382;-0,2516;-0,623;1,7028;-0,261;-0,1372;-0,2489;-0,1858;0,6891
