"";"X.L_Efesoarrei";"X.L_Erromatarrei";"X.L_Filemoni";"X.L_Filipostarrei";"X.L_Galaziarrei";"X.L_Kolosarrei";"X.L_Korintoarrei1";"X.L_Korintoarrei2";"X.L_Tesalonikarrei1";"X.L_Tesalonikarrei2";"X.L_Timoteori1";"X.L_Timoteori2";"X.L_Titori"
"suus";3,8746;-0,526;-0,5775;-0,4264;-0,3158;-1,1914;-0,2927;-3,7539;0,3947;0,9809;1,5177;-0,438;1,5155
"filius";1,0034;0,9146;0,2433;-0,6636;2,9276;0,2886;-3,6147;-1,6461;0,2652;-0,4111;1,124;-0,3243;0,7263
"itaque";-0,2005;0,2784;-0,1441;0,6675;0,4241;-0,6503;1,299;-1,2913;0,3456;0,2534;-0,6432;-0,1526;-0,2569
"iterum";-0,8183;-0,5196;-0,1208;0,8259;2,7618;-0,5454;-0,7886;1,6033;-0,1972;-0,2973;-0,5394;-0,4027;-0,2155
"sanctificatio";-0,3146;0,4246;-0,0465;-0,2309;-0,3183;-0,2097;-0,4735;-0,2447;1,9678;0,6356;0,4206;-0,1548;-0,0828
"caput";1,3299;-1,3162;-0,0929;-0,462;-0,6368;1,184;2,9964;-0,7054;-0,4351;-0,2287;-0,4149;-0,3097;-0,1657
"sermo";-0,2867;-2,1492;-0,172;-0,8549;-0,5967;1,0227;0,4073;-0,4287;0,5688;1,821;1,0357;0,4276;0,8115
"habeo";-0,6845;-1,4879;0,9247;0,6942;-1,5115;-0,3894;1,4386;0,3323;-0,2945;-0,7929;3,2307;-0,5885;-0,2412
"accipio";-1,021;-0,3465;-0,2558;0,8107;0,4583;0,5852;0,7433;0,2677;0,2946;-0,2366;-1,1417;0,2377;-0,4561
"manus";-0,409;-0,7221;0,8866;-0,3002;0,6326;0,3315;-0,3444;-0,3714;-0,2828;0,5379;1,6914;0,4307;-0,1077
"conscientia";-0,6609;-0,5254;-0,0976;-0,4851;-0,6687;-0,4404;1,6607;-0,19;-0,4569;-0,2401;1,8267;0,2781;0,4813
"revelo";-0,3776;0,2979;-0,0558;0,3263;0,6856;-0,2516;-0,2919;-0,3278;-0,261;2,4923;-0,2489;-0,1858;-0,0994
"circumcido";-0,3146;-1,0667;-0,0465;0,3847;4,6941;0,4169;-0,1962;-0,6716;-0,2175;-0,1143;-0,2074;-0,1548;-0,0828
"caritas";1,2148;-1,5241;1,5646;0,4099;-0,4361;-0,35;-0,2441;-0,3163;1,1161;0,6757;0,2629;-0,4378;-0,5059
"semino";-0,4405;-1,4935;-0,0651;-0,3233;1,1466;-0,2936;2,431;0,4889;-0,3045;-0,16;-0,2904;-0,2168;-0,116
"potestas";0,8512;-0,4299;-0,1348;-0,67;-0,9236;1,3407;1,9283;-0,7122;-0,631;0,2725;-0,6017;-0,4492;0,3716
"israhel";-0,1774;3,77;-0,079;0,2254;-0,1807;-0,3565;-1,0248;-0,2582;-0,3698;-0,1943;-0,3526;-0,2633;-0,1409
"novus";-0,3461;-1,1734;-0,0511;-0,254;0,2569;-0,2307;1,1893;0,6969;-0,2393;-0,1257;0,3887;0,4889;-0,0911
"plenitudo";1,8702;-0,1965;-0,0651;-0,3233;0,1927;1,5896;-0,7797;-0,4163;0,2975;-0,16;-0,2904;-0,2168;-0,116
"infirmitas";-0,3776;-0,3042;-0,0558;-0,2771;0,2328;-0,2516;-0,2919;2,4374;-0,261;-0,1372;0,3603;-0,1858;-0,0994
"ergo";-0,5184;3,4163;0,2298;-0,4306;0,8828;0,2567;-0,5517;-0,6353;-1,0858;-0,9502;-0,3421;-0,3562;-0,6887
"necessitas";0,236;-0,3042;0,9191;0,3263;-0,382;-0,2516;0,3104;0,6176;0,3451;-0,1372;-0,2489;-0,1858;-0,0994
"gloria";0,6906;-0,4105;-0,3769;0,8999;-0,7772;-0,3319;-1,2815;2,3725;0,2495;-0,1883;-0,324;-0,3401;-0,263
"etiam";-0,2867;0,5619;-0,172;1,3907;-0,5967;0,2792;-1,5281;1,1355;0,5688;0,2058;-0,7678;-0,2031;-0,3067
"operatio";2,2789;-1,1734;-0,0511;0,3537;-0,3502;1,036;-0,2423;-0,7388;-0,2393;1,4988;-0,2281;-0,1703;-0,0911
"pietas";-0,3461;-1,1734;-0,0511;-0,254;-0,3502;-0,2307;-1,1481;-0,7388;-0,2393;-0,1257;10,2927;0,4889;0,7229
"possum";0,8744;-0,9239;-0,1813;-0,173;-0,325;-0,8183;1,9513;-0,7684;0,2409;-0,4461;0,5639;0,3994;-0,3233
"christus";0,5981;0,3359;-0,2837;0,4099;1,5728;0,4896;1,0735;-2,3046;-1,3283;-0,2779;0,2629;-0,9456;-0,5059
"sancio";0,8203;-0,4887;0,9937;-0,2309;-0,3183;1,1098;-0,1962;0,3658;-0,2175;-0,1143;-0,2074;-0,1548;-0,0828
"impleo";0,9537;-0,6018;-0,079;0,6596;-0,1807;1,3635;-1,7746;-0,5571;0,2417;0,4428;-0,3526;1,6954;-0,1409
"destruo";-0,3776;0,2979;-0,0558;-0,2771;0,2328;-0,2516;1,0365;-0,3278;-0,261;0,5673;-0,2489;0,4583;-0,0994
"sive";-0,8204;-1,1702;-0,307;0,9;-2,1036;1,0449;2,794;1,085;-0,4338;0,2888;-1,3704;-1,0232;-0,5474
"ambulo";1,3158;-0,4299;-0,1348;0,3495;-0,1785;0,3982;-1,438;0,3943;1,2932;0,7614;-0,6017;-0,4492;-0,2403
"scitis";-0,472;-1,6002;-0,0697;0,2599;-0,1469;-0,3146;-0,8602;-0,4623;8,2304;1,2475;-0,3111;-0,2323;-0,1243
"fio";-0,5246;0,3623;0,3759;-0,6;-0,5355;-0,5228;1,4931;-0,4084;-0,2653;0,8348;0,671;-0,7904;-0,4229
"ceterus";-0,1605;-0,5377;-0,0744;0,6998;-0,1636;-0,3355;0,6124;-0,2274;0,7389;-0,1829;0,2722;-0,2478;-0,1326
"sicut";1,3872;0,5584;-0,2917;-0,3442;-0,4621;0,5197;-0,5934;-0,3381;3,2682;-1,0553;-2,2701;-1,043;-0,3554
"forte";-0,3776;-0,6424;-0,0558;-0,2771;0,6856;-0,2516;0,615;1,0952;0,3451;-0,1372;-0,2489;-0,1858;-0,0994
"paulus";0,2278;-2,0433;2,4944;-0,2436;0,2232;0,8435;0,4096;-0,6697;0,3978;0,7853;-0,206;0,1995;0,3831
"perfectus";0,6931;-0,6424;-0,0558;0,9017;-0,382;0,9701;0,3104;-0,3278;-0,261;-0,1372;-0,2489;0,4583;-0,0994
"angelus";-0,4405;-0,8034;-0,0651;-0,3233;1,1466;0,3086;0,4569;-0,1703;-0,3045;0,5111;0,8647;-0,2168;-0,116
"tamquam";-0,9443;-0,2913;-0,1394;-0,6931;-0,9554;-0,2339;2,2501;0,5967;0,7472;0,2627;-0,6224;-0,4647;-0,2486
"saeculum";1,8875;-0,5595;-0,172;0,2383;0,3089;-0,3241;-0,3458;-0,6917;-0,8053;-0,4232;1,0357;0,8575;0,2954
"enim";-2,9536;7,147;-0,6276;-1,6081;0,9446;-3,5167;-0,485;0,4092;0,5373;-1,9484;-0,789;-0,4757;-0,3621
"quoniam";-0,4162;-0,8572;-0,1621;0,3266;0,6663;-1,4302;0,9016;1,8547;0,5839;0,8474;-2,2028;-1,6447;-0,88
"lego";-0,1774;1,7402;-0,079;-0,3926;0,468;0,7218;-1,7746;0,3486;0,2417;-0,1943;-0,3526;-0,2633;-0,1409
"oporteo";-0,3683;-0,8852;-0,1255;-0,6237;-0,8598;0,8782;-0,3295;0,2565;-0,2095;0,2935;1,4549;0,613;1,8541
"uxor";2,1031;-2,7745;-0,1208;-0,6006;-0,828;-0,186;4,234;-1,7469;-0,5657;-0,2973;0,925;-0,4027;0,4077
"corpus";0,7535;-1,527;-0,4189;-0,5107;-1,974;1,5871;8,7522;-0,6184;-1,2097;-1,0305;-1,8697;-1,3959;-0,7469
"infidelis";-0,5349;-1,0551;-0,079;-0,3926;-0,5413;-0,3565;3,8497;0,3486;-0,3698;-0,1943;0,2549;-0,2633;0,5575
"tres";-0,409;-0,7221;-0,0604;-0,3002;0,2115;-0,2726;1,393;0,9857;-0,2828;-0,1486;0,3349;-0,2013;-0,1077
"quemadmodum";-0,3461;-0,5645;-0,0511;-0,254;-0,3502;-0,2307;0,3689;0,6969;1,0094;0,5997;-0,2281;0,4889;-0,0911
"morior";-0,6609;2,695;-0,0976;-0,1531;-0,6687;-0,4404;0,3223;-0,3939;-0,4569;-0,2401;0,1984;0,2781;-0,174
"spiritalis";0,632;-0,6982;-0,1115;-0,5544;-0,313;0,5039;4,8141;-1,6124;-0,5222;-0,2744;-0,4979;-0,3717;-0,1989
"probo";-0,2126;0,3975;-0,0883;0,1966;-0,2165;-0,3985;-0,2097;0,2795;0,6252;-0,2172;0,2244;0,3079;-0,1574
"nec";-0,1774;-0,3226;-0,079;-0,3926;-0,5413;-0,3565;0,8682;0,3486;0,2417;0,4428;0,729;-0,2633;-0,1409
"mens";0,2602;-0,2529;-0,0511;-0,254;-0,3502;-0,2307;0,3689;0,3172;-0,2393;-0,1257;0,3887;0,4889;0,7229
"regnum";0,1956;-0,8034;-0,0651;-0,3233;0,1927;0,8571;0,794;-0,9404;0,2975;0,5111;-0,2904;1,0736;-0,116
"do";1,4827;-1,129;-0,2511;-0,651;0,7448;-0,5679;0,3083;-0,483;-0,2968;1,2889;-0,2708;1,3963;-0,4478
"de";-1,0865;-4,0788;-0,1427;0,4009;1,07;-0,2952;1,6947;-0,2471;1,67;0,601;-0,7991;-0,26;0,5487
"fidelis";-0,1948;-1,9204;-0,0836;-0,4157;-0,5731;0,6836;0,4737;-0,6058;0,2261;0,4232;2,07;0,8872;0,5366
"suscito";-0,1441;-0,2357;-0,0697;0,2599;-0,1469;0,2879;0,3946;0,4362;0,2771;-0,1715;-0,3111;-0,2323;-0,1243
"disco";-0,2494;-1,4049;-0,0976;0,5271;0,3538;0,5846;-0,5027;-1,4108;-0,139;0,3719;1,8267;1,4488;0,4813
"universus";-0,3461;0,3552;-0,0511;-0,254;0,2569;1,8875;-0,5472;-0,2855;0,3731;-0,1257;-0,2281;-0,1703;0,7229
"Spes";0,3326;1,456;-0,1674;-0,3592;-0,5736;0,6202;-1,4562;-0,6543;1,0131;0,2129;-0,3056;-0,5577;1,5204
"ira";0,6686;3,5257;-0,1069;-0,5313;-0,293;0,5291;-2,4013;-1,5452;1,0016;-0,263;-0,1496;-0,3562;-0,1906
"credo";-0,5809;4,2716;-0,2511;-0,651;-0,3335;-1,1333;-1,0716;-1,9293;0,9111;0,7826;-0,559;0,5328;0,5659
"cor";0,8147;0,8444;-0,2418;-0,3091;-0,9611;1,0124;-1,6597;0,9347;0,328;0,406;-0,5293;-0,3448;-0,4312
"numquid";-0,8813;0,5984;-0,1301;-0,6468;-0,3959;-0,5873;3,1254;0,4281;-0,6093;-0,3202;-0,5809;-0,4337;-0,2321
"quomodo";-0,4315;0,7239;-0,1394;-0,2715;0,4475;-0,2339;0,7604;-0,7554;0,362;-0,3431;0,3861;-0,4647;-0,2486
"iustitia";0,5922;0,7676;-0,0651;0,2798;0,585;-0,2936;-0,7797;-0,1703;-0,3045;-0,16;-0,2904;0,4056;-0,116
"christum";0,3622;1,086;-0,2232;1,4374;-0,2542;-0,2187;-0,5596;0,2659;-0,5046;-0,5491;-0,9963;-0,3052;0,2218
"servio";0,5073;1,1873;-0,1301;-0,2436;0,8793;0,417;-0,9132;-1,8814;-0,222;-0,3202;-0,206;0,1995;1,0106
"sanctus";1,938;1,1218;-0,293;0,3843;-2,0079;0,24;-1,2397;-0,7369;1,476;-0,2921;-1,308;-0,2076;0,9338
"maneo";-0,4405;-0,8034;-0,0651;0,2798;-0,4457;-0,2936;2,431;0,4889;-0,3045;-0,16;-0,2904;0,4056;-0,116
"noster";-0,528;-1,0382;0,8211;-1,5842;-0,9293;-1,7561;-3,3357;2,7309;5,5605;4,324;-0,3446;-0,485;1,1283
"in";10,2234;-0,7495;0,3842;1,0952;-3,0687;5,2212;-12,0283;3,8064;0,3775;-0,4842;0,2872;-0,6655;-2,0062
"pecco";-0,4315;6,7789;-0,1394;-0,6931;-0,439;-0,6293;-0,4473;-0,7554;-0,6528;-0,3431;-0,2299;-0,4647;-0,2486
"contentio";-0,3776;0,2979;-0,0558;1,669;0,2328;-0,2516;-0,2919;-0,3278;-0,261;-0,1372;0,3603;-0,1858;0,6891
"tunc";-0,409;-0,7221;-0,0604;-0,3002;0,6326;0,3315;1,393;-0,3714;0,3201;0,5379;-0,2696;-0,2013;-0,1077
"qualis";-0,5035;-1,707;-0,0744;0,2419;0,5033;0,2691;0,6124;0,3897;0,7389;-0,1829;-0,3319;0,9732;-0,1326
"usque";-0,8813;0,3868;-0,1301;1,8726;-0,3959;-0,5873;0,2437;0,6909;-0,222;-0,3202;-0,206;0,1995;-0,2321
"apud";-0,6562;-0,9803;-0,186;-0,4208;0,8257;-0,3648;0,6571;1,2867;-0,3852;1,7063;-0,8301;-0,2299;-0,3316
"aemulatio";-0,3146;0,4246;-0,0465;0,3847;0,2844;-0,2097;-1,0437;2,0925;-0,2175;-0,1143;-0,2074;-0,1548;-0,0828
"tenebra";2,1273;-0,3042;-0,0558;-0,2771;-0,382;0,3568;-0,623;0,2758;0,944;-0,1372;-0,2489;-0,1858;-0,0994
"vobiscum";-0,3146;-0,2049;-0,0465;0,3847;-0,3183;1,1098;-0,4735;0,789;0,4045;-0,1143;-0,2074;-0,1548;-0,0828
"super";1,4329;0,2683;0,4951;0,5445;-0,2778;0,6202;-1,0407;0,6011;-0,3284;0,2129;-0,747;-0,5577;-0,2984
"coram";-0,6609;-0,2965;-0,0976;-0,4851;0,3538;0,1957;-2,1924;1,1621;-0,4569;-0,2401;3,5222;0,7788;-0,174
"simul";-0,3461;1,1581;0,9546;-0,254;-0,3502;0,3851;-0,5472;-0,7388;1,0094;-0,1257;0,3887;-0,1703;-0,0911
"anima";-0,3776;0,5944;-0,0558;0,3263;-0,382;-0,2516;-0,2919;0,6176;0,944;-0,1372;-0,2489;-0,1858;-0,0994
"liber";-0,1441;-0,886;-0,0697;0,2599;2,5394;0,2879;0,6969;-1,0076;-0,3263;-0,1715;-0,3111;0,3827;-0,1243
"fides";-0,4775;1,3662;0,3495;-0,6019;3,3903;-0,4744;-7,4235;-3,5385;0,4074;0,5094;4,465;0,8991;1,2753
"invenio";-0,5349;0,2805;-0,079;0,6596;-0,1807;-0,3565;-0,5796;1,5869;-0,3698;-0,1943;-0,3526;0,9286;-0,1409
"opus";0,3317;-0,486;-0,2325;-0,2863;1,2178;0,3756;-0,6377;-2,389;-0,5355;0,427;0,6915;1,0121;2,6058
"vivo";-1,4169;3,2448;-0,2092;-0,2323;0,404;-0,1916;-2,1293;0,3275;0,7544;-0,5147;-0,4281;-0,2763;0,2392
"cuius";0,2602;0,6937;-0,0511;-0,254;-0,3502;1,036;-0,2423;-0,2855;-0,2393;0,5997;-0,2281;-0,1703;-0,0911
"ne";-0,5809;-1,463;0,3574;-0,651;0,4766;-0,2766;0,3083;2,1299;0,5686;0,3862;0,6135;-0,8369;-0,4478
"apostolus";0,4808;-1,486;-0,1348;-0,67;0,4723;-0,2216;0,8296;0,3943;-0,2347;-0,3316;0,404;0,5686;0,3716
"dies";-0,3115;-0,2947;-0,2465;0,8591;-0,5735;0,3384;-1,3381;0,3049;1,36;0,7995;-0,5441;1,4263;-0,4395
"peccator";0,2878;0,8122;-0,0465;-0,2309;0,8123;0,4169;-1,0437;-0,6716;-0,2175;-0,1143;1,1179;-0,1548;-0,0828
"abundans";-0,3461;-1,1734;-0,0511;0,3537;0,2569;-0,2307;-0,5472;1,8832;1,8454;-0,1257;-0,2281;-0,1703;-0,0911
"quasi";-0,1743;-2,1365;-0,1348;-0,2574;-0,1785;-0,2216;0,5723;1,774;-0,2347;1,4132;-0,6017;-0,1367;-0,2403
"aut";0,815;-0,9147;0,2173;-1,2513;-0,3816;0,4077;3,5131;-0,4013;-0,7076;-0,4738;-0,3795;-1,3493;0,3086
"nomen";0,3147;-0,2109;-0,1069;1,5404;-0,7324;-0,1523;0,4367;-1,5452;-0,5004;0,9238;0,5355;0,2521;-0,1906
"desum";-0,3146;-1,0667;-0,0465;0,3847;-0,3183;0,4169;0,4395;0,3658;0,4045;-0,1143;-0,2074;-0,1548;1,8388
"timor";0,4745;0,5165;-0,079;0,2254;-0,5413;-0,3565;-0,5796;1,0744;-0,3698;-0,1943;0,2549;0,3424;-0,1409
"gaudeo";-0,8813;-0,6216;-0,1301;5,135;-0,8917;0,417;-0,5926;1,4175;-0,222;-0,3202;-0,5809;-0,4337;-0,2321
"aemulo";-0,3461;-0,2529;-0,0511;-0,254;1,4219;-0,2307;1,1893;-0,2855;-0,2393;-0,1257;-0,2281;-0,1703;-0,0911
"dei";0,407;2,5181;-1,1065;-0,8856;-1,6001;0,6395;-0,6803;-0,6877;-0,2934;-0,2358;-0,3464;-0,3893;1,8203
"virtus";1,1638;-1,0237;-0,2418;-0,3091;-0,9611;-0,2568;0,8972;0,6917;-0,5667;1,3392;-1,0794;0,5622;-0,4312
"cognosco";-0,6562;-0,4785;-0,186;-0,1824;0,5053;0,2454;0,8916;0,6859;-0,3852;-0,4575;-0,3589;0,3862;-0,3316
"aedificatio";1,659;-0,5377;-0,0744;-0,3695;-0,5094;-0,3355;0,6124;0,7282;-0,3481;-0,1829;0,2722;-0,2478;-0,1326
"finis";-0,3776;0,5944;-0,0558;0,3263;-0,382;-0,2516;0,3104;0,2758;0,3451;-0,1372;0,3603;-0,1858;-0,0994
"fornicatio";0,2602;-0,5645;-0,0511;-0,254;0,2569;0,3851;1,1893;-0,2855;0,3731;-0,1257;-0,2281;-0,1703;-0,0911
"idolon";-0,1605;-0,97;-0,0744;-0,3695;-0,1636;-0,3355;5,1692;-0,5092;-0,3481;-0,1829;-0,3319;-0,2478;-0,1326
"exhorto";-0,409;-0,3586;-0,0604;-0,3002;-0,4139;-0,2726;-0,7005;1,5454;0,3201;0,5379;0,3349;-0,2013;1,6161
"nemo";-0,2716;-1,5106;-0,1674;-0,3592;0,6056;0,6202;0,893;-0,2317;-0,3284;-0,4117;0,2965;0,4426;0,8305
"permaneo";-0,4405;-0,1965;-0,0651;1,4837;0,585;0,3086;0,2207;-0,9404;-0,3045;-0,16;0,312;0,4056;-0,116
"facies";-0,7238;-2,4541;0,6612;-0,5313;0,3093;-0,1523;0,2488;3,1643;0,5078;0,3428;-0,1496;-0,3562;-0,1906
"revelatio";0,6931;0,2979;-0,0558;-0,2771;0,6856;-0,2516;-0,2919;0,2758;-0,261;0,5673;-0,2489;-0,1858;-0,0994
"oculus";0,6399;0,2502;-0,0604;-0,3002;0,6326;0,3315;0,9061;-0,8732;-0,2828;-0,1486;-0,2696;-0,2013;-0,1077
"si";-4,8382;0,2865;-0,3041;-0,3427;0,3779;-1,3512;8,3327;-0,4049;-2,8405;-0,981;0,6991;-0,9172;-1,3273
"se";0,3449;-1,0243;-0,293;0,3843;0,5449;-1,3225;-0,2864;0,5417;-1,3719;-0,2921;0,7701;1,6443;0,9338
"non";-4,9732;2,1838;-1,5893;-4,0019;0,3325;-3,548;3,0403;1,9853;-1,0152;-0,6005;-0,4025;-1,3892;1,0807
"patientia";-0,2308;1,2946;-0,0929;-0,462;-0,6368;0,6153;-2,0879;-0,3582;-0,4351;1,0265;0,6221;0,8126;0,4986
"nisi";-0,5641;0,2683;-0,1674;-0,3592;0,6056;-0,7553;2,3247;-0,4002;-0,7835;0,2129;-0,3056;-0,1944;-0,2984
"nox";-0,3776;-0,6424;-0,0558;-0,2771;-0,382;-0,2516;-0,623;-0,3278;5,0175;0,5673;0,3603;0,4583;-0,0994
"nos";0,5277;-4,539;-0,5067;-3,2265;-0,5453;-0,4078;-2,3056;12,1134;4,0057;0,8921;-3,5664;-0,6922;1,5773
"opero";0,5917;0,4254;-0,2279;-0,2752;0,5792;-0,228;-0,8257;-0,2248;0,3653;2,0632;-1,017;-0,315;-0,4063
"opera";-0,472;0,378;-0,0697;0,2599;-0,1469;-0,3146;-0,8602;-0,4623;0,7833;-0,1715;0,2912;1,0213;1,4978
"abundo";-0,5415;-0,3046;-0,1627;1,4822;-1,1148;-0,2975;-1,385;3,7527;0,614;0,2203;-0,7262;-0,5422;-0,2901
"doctrina";-0,3274;-0,4712;-0,1162;-0,5775;-0,7961;-0,1746;-0,7283;-1,6797;-0,544;-0,2858;4,9367;1,2553;4,0386
"verbum";0,2439;-0,5588;-0,2651;-0,3683;-1,0884;0,5513;-0,9431;-0,3794;1,2312;-0,2502;0,9002;1,8409;1,0316
"manifesto";0,5101;-0,5377;-0,0744;-0,3695;-0,5094;0,7632;-0,9419;2,3683;-0,3481;-0,1829;-0,3319;0,3617;0,5799
"ex";-1,2277;4,5297;-0,3152;0,3345;3,3481;0,3033;-3,321;0,6463;-2,5632;-1,8577;-1,7624;-0,3035;-0,1982
"et";2,4445;-4,5323;0,44;2,5954;-4,0378;3,4504;-2,5266;-1,2277;1,9084;1,3964;2,2958;1,8812;1,2885
"patior";-0,6294;-1,3162;-0,0929;0,5566;0,3788;-0,4194;0,3666;0,4953;0,1987;0,3879;0,2109;1,5046;-0,1657
"oro";-0,2126;-1,2283;-0,0883;0,1966;-0,605;1,2397;1,4733;-0,3237;0,2119;0,405;0,2244;-0,2943;-0,1574
"caro";0,715;1,7208;0,2028;0,2832;4,17;0,8442;-1,8358;-0,4977;-2,0047;-1,0534;-1,1696;-1,427;-0,7635
"consolatio";-0,3146;-0,4887;0,9937;0,3847;-0,3183;-0,2097;-0,4735;2,0925;-0,2175;0,6356;-0,2074;-0,1548;-0,0828
"baptizo";-0,409;-0,3586;-0,0604;-0,3002;0,2115;-0,2726;4,531;-0,8732;-0,2828;-0,1486;-0,2696;-0,2013;-0,1077
"ministro";-0,3146;0,4246;0,9937;-0,2309;-0,3183;-0,2097;-1,0437;0,789;-0,2175;-0,1143;1,1179;0,523;-0,0828
"praeputium";-0,2308;2,9226;-0,0929;-0,462;0,7846;0,6153;-0,4508;-1,3436;-0,4351;-0,2287;-0,4149;-0,3097;-0,1657
"circa";0,7528;-1,1734;-0,0511;1,7771;-0,3502;1,036;-1,1481;-0,7388;-0,2393;-0,1257;1,9001;0,4889;-0,0911
"manduco";-1,1648;1,3614;-0,172;-0,8549;-1,1786;-0,7763;4,8838;-1,6294;-0,8053;1,1508;-0,7678;-0,5732;-0,3067
"tempus";0,5391;-0,2873;-0,1813;-0,9012;1,2654;-0,3511;-0,8806;-0,7684;0,2409;-0,1361;0,5639;1,3313;0,7755
"devito";-0,3146;-1,0667;-0,0465;-0,2309;-0,3183;-0,2097;-1,0437;-0,2447;-0,2175;-0,1143;2,0233;3,5771;1,8388
"salvator";0,2878;-1,0667;-0,0465;0,3847;-0,3183;-0,2097;-1,0437;-0,6716;-0,2175;-0,1143;1,1179;0,523;6,2608
"commendo";-0,3776;0,2979;-0,0558;-0,2771;-0,382;-0,2516;-0,623;3,2996;-0,261;-0,1372;0,3603;-0,1858;-0,0994
"benedictio";0,2878;-0,2049;-0,0465;-0,2309;0,2844;-0,2097;-0,1962;1,3661;-0,2175;-0,1143;-0,2074;-0,1548;-0,0828
"quaecumque";-0,3146;0,4246;-0,0465;5,4765;0,2844;-0,2097;-1,0437;-0,6716;-0,2175;-0,1143;-0,2074;-0,1548;-0,0828
"mitto";-0,3274;-0,7591;-0,1162;2,8416;0,271;-0,1746;-0,7283;0,548;0,4597;0,3168;-0,5186;0,2291;-0,2072
"pro";0,5632;-0,555;-0,1499;0,5709;-1,1713;2,0966;-2,3374;2,4249;0,2579;1,3184;-0,5209;-1,5669;-0,3681
"talis";-0,3776;0,2979;0,9191;-0,2771;0,2328;-0,2516;0,615;0,6176;-0,261;-0,1372;-0,2489;-0,1858;-0,0994
"ego";-1,7441;-1,1861;4,6022;2,623;1,3941;-1,6339;-0,3178;2,2461;-4,5039;-3,4966;-1,9604;3,7085;-0,7664
"deus";-0,6273;0,9708;-0,5729;0,5152;-0,4524;-1,1763;0,5142;0,5146;0,4035;0,9934;-1,1562;-0,7199;-0,4924
"abrahae";-0,3776;1,0069;-0,0558;-0,2771;4,1044;-0,2516;-1,2525;-0,3278;-0,261;-0,1372;-0,2489;-0,1858;-0,0994
"annus";-0,3146;-0,2049;-0,0465;-0,2309;2,4327;-0,2097;-1,0437;0,789;-0,2175;-0,1143;0,4206;-0,1548;-0,0828
"mecum";-0,3461;-1,1734;0,9546;1,7771;0,745;-0,2307;-0,2423;-0,2855;-0,2393;-0,1257;-0,2281;0,4889;0,7229
"dico";-0,5879;2,3155;-0,2407;-0,7923;0,7833;-0,9519;1,5759;-0,9694;-1,4544;-0,5079;-0,9329;-0,8519;0,3228
"actio";0,2602;-1,1734;-0,0511;0,3537;-0,3502;1,036;-1,1481;0,6969;0,3731;-0,1257;1,9001;-0,1703;-0,0911
"laboro";-0,1948;-0,37;-0,0836;0,6226;-0,1984;0,236;-0,353;-1,2092;0,2261;-0,2058;0,6907;2,5107;-0,1491
"vita";-0,6098;1,6101;-0,1767;0,5028;-0,62;0,2674;-2,1668;0,3304;-0,8271;-0,4346;1,5144;0,4132;0,7932
"tantus";-0,5664;0,2416;-0,0836;0,6226;3,8599;-0,3775;-0,6436;-0,6058;0,2261;0,4232;-0,3734;-0,2788;-0,1491
"aliquando";2,182;-0,37;0,7565;0,2104;1,4658;0,6836;-1,8791;-1,2092;0,2261;-0,2058;-0,3734;-0,2788;0,5366
"nullus";-0,472;-0,886;-0,0697;1,4034;-0,4776;-0,3146;0,3946;0,4362;0,2771;-0,1715;1,5198;-0,2323;-0,1243
"infirmus";-0,3461;-0,2529;-0,0511;-0,254;0,2569;-0,2307;1,7929;-0,2855;0,3731;-0,1257;-0,2281;-0,1703;-0,0911
"ante";0,3147;-0,2109;-0,1069;-0,5313;-0,293;-0,1523;-0,9871;0,3733;2,3527;-0,263;-0,4771;0,7171;0,4495
"Deus";-1,0715;1,8365;-0,2651;-0,7027;0,6711;-1,1964;-0,9431;0,3644;1,6886;0,3586;-0,301;-0,8835;-0,1504
"venio";-0,7382;-1,2537;-0,2884;-0,7904;1,9532;-0,3609;-0,2648;0,57;0,4447;0,3177;0,4847;0,7648;-0,1724
"christo";3,3963;-1,3041;1,2583;2,0134;1,0387;0,5263;-2,7989;-1,1284;-0,6758;-0,2682;0,3621;1,335;-0,5574
"multus";-2,3315;-0,2566;0,2617;-1,0076;-0,6507;-0,8843;0,8319;2,8944;-0,2935;-0,847;0,342;0,3167;-0,2284
"minister";0,3363;0,2677;-0,1022;-0,1653;-0,2733;1,7401;-0,9156;0,7025;-0,1501;-0,2515;-0,139;-0,3407;-0,1823
"scriptum";-1,0703;4,1741;-0,1581;-0,7856;0,6636;-0,7133;0,5343;-0,5814;-0,7399;-0,3888;-0,7055;-0,5267;-0,2818
"filia";0,2602;-0,5645;-0,0511;-0,254;2,2612;-0,2307;-1,1481;0,6969;0,3731;-0,1257;0,3887;-0,1703;-0,0911
"glorior";-0,6562;-0,4785;-0,186;-0,4208;-0,3412;-0,8393;-0,6589;8,6783;-0,8706;-0,1419;-0,8301;-0,6198;-0,3316
"pax";1,7642;0,4604;0,3959;0,3412;-0,2542;-0,2187;-1,8341;-1,1401;0,6859;0,8916;-0,471;0,6269;0,2218
"salutate";-0,6609;6,7881;-0,0976;-0,1531;-0,6687;0,1957;-1,3657;-0,7561;-0,139;-0,2401;-0,4356;-0,3252;-0,174
"obsecro";-0,2126;-0,4196;1,7666;-0,4388;-0,2165;-0,3985;-0,4008;0,5447;0,2119;0,405;0,6552;0,3079;-0,1574
"persecutio";-0,3146;-0,4887;-0,0465;-0,2309;0,8123;-0,2097;-0,4735;0,3658;-0,2175;0,6356;-0,2074;2,3696;-0,0828
"adversus";1,4029;-0,4196;-0,0883;-0,4388;1,3874;0,2215;-0,4008;-0,3237;-0,4134;-0,2172;0,2244;-0,2943;0,517
"caela";1,4346;-0,5645;-0,0511;0,3537;-0,3502;1,8875;-1,1481;0,3172;0,3731;-0,1257;-0,2281;-0,1703;-0,0911
"crux";0,2602;-1,1734;-0,0511;0,9663;2,2612;1,036;-0,2423;-0,7388;-0,2393;-0,1257;-0,2281;-0,1703;-0,0911
"neque";-2,584;-0,57;-0,3816;-0,7074;3,2464;-0,6;2,0008;-4,3472;1,3308;1,2058;0,7369;-0,6711;-0,6804
"inter";-0,7238;-0,3798;-0,1069;-0,1777;-0,293;-0,4824;2,9563;-0,4683;-0,1615;0,9238;-0,4771;-0,3562;-0,1906
"spiritus";0,8644;0,465;-0,2659;-0,6335;1,8564;-1,517;1,3515;-0,6545;-0,8011;-0,3206;-1,0495;-0,6048;-0,6239
"Evangelium";-0,2503;-0,748;0,314;2,3533;0,8346;-0,3609;-0,9206;-0,3354;1,0892;0,3177;-0,6809;0,4313;-0,5142
"domus";-0,6924;-2,3474;0,6783;-0,1653;-0,7005;-0,1415;0,2833;-0,4306;-0,4787;-0,2515;3,4013;2,1804;1,1927
"quidem";-1,0462;0,8464;-0,2604;0,4821;-0,6319;-0,5983;2,3749;-0,5357;-0,6302;-0,6407;-1,1625;0,8782;-0,4644
"sollicitudo";-0,3461;-0,2529;-0,0511;-0,254;-0,3502;0,3851;-0,5472;2,6825;0,3731;-0,1257;-0,2281;-0,1703;-0,0911
"praedico";-1,0073;-0,3601;-0,1488;-0,3;1,1436;-0,6713;0,2669;0,7835;0,6901;-0,3659;-0,2545;0,5096;-0,2652
"os";0,5922;1,1985;-0,0651;-0,3233;-0,4457;0,3086;-0,7797;-0,1703;-0,3045;-0,16;0,312;0,4056;-0,116
"autem";-3,2527;-0,4554;0,4773;-0,2839;1,0717;-5,4197;8,4323;-0,8271;-1,8965;-0,7277;-0,3023;0,3115;-0,483
"caelestis";2,7116;-1,4935;-0,0651;0,2798;-0,4457;-0,2936;1,2342;-0,9404;-0,3045;-0,16;-0,2904;1,0736;-0,116
"vester";2,2139;-2,6685;0,3748;1,6383;-1,1059;1,9427;-0,8885;0,9812;2,6014;0,562;-2,8073;-2,0959;-1,1214
"adhuc";-0,5979;1,0055;-0,0883;-0,4388;0,8332;0,2215;0,4168;-0,6552;-0,4134;0,405;0,2244;-0,2943;-0,1574
"factum";-0,1605;0,3256;-0,0744;-0,3695;1,0045;-0,3355;-0,9419;0,7282;0,2586;-0,1829;0,2722;0,3617;-0,1326
"ad";-0,8644;-0,397;-0,2065;1,1427;-1,1282;0,4141;-2,3423;1,2043;1,0802;-1,0341;-0,3011;2,9843;0,7018
"intellego";2,1273;1,0069;-0,0558;-0,2771;-0,382;-0,2516;-0,623;-0,806;-0,261;-0,1372;0,3603;0,4583;-0,0994
"an";-0,8813;3,0372;-0,1301;-0,6468;0,2232;-0,5873;0,9047;-0,3811;-0,6093;-0,3202;-0,5809;-0,4337;-0,2321
"gaudium";-0,6924;-0,5813;0,6783;3,1591;-0,2733;-0,1415;-2,2968;0,7025;1,6886;-0,2515;-0,4564;0,2647;-0,1823
"terra";1,7598;0,378;-0,0697;-0,3464;-0,4776;2,3555;-0,2241;-1,0076;-0,3263;-0,1715;-0,3111;-0,2323;-0,1243
"tribulatio";-0,3274;-0,2762;-0,1162;-0,2034;-0,7961;-0,5244;-1,7182;2,8268;1,5007;0,8642;-0,1715;-0,3872;-0,2072
"sapientia";0,4808;-1,486;-0,1348;-0,67;-0,9236;2,695;4,856;-1,181;-0,631;-0,3316;-0,6017;-0,4492;-0,2403
"divitia";2,5611;0,672;-0,0697;0,2599;-0,4776;0,8081;-1,5658;-0,4623;-0,3263;-0,1715;0,2912;-0,2323;-0,1243
"fiducia";0,8203;-1,0667;0,9937;1,0388;-0,3183;-0,2097;-1,0437;0,789;0,4045;-0,1143;0,4206;-0,1548;-0,0828
"propheta";1,0839;0,378;-0,0697;-0,3464;-0,4776;-0,3146;1,096;-1,0076;0,2771;-0,1715;-0,3111;-0,2323;0,604
"quicumque";-0,4405;0,7676;-0,0651;0,2798;2,6897;0,3086;-0,7797;-0,9404;-0,3045;-0,16;0,312;-0,2168;-0,116
"tu";-1,5637;1,5286;12,7884;-1,4824;-0,5356;-2,0798;-5,9662;-3,7095;-2,1575;-1,1337;4,275;6,4795;3,2348
"propheto";-0,3461;-1,1734;-0,0511;-0,254;-0,3502;-0,2307;7,3783;-0,7388;-0,2393;-0,1257;-0,2281;-0,1703;-0,0911
"dominus";1,0237;-2,2352;1,1522;0,3636;-3,5057;0,3969;0,791;-1,8977;2,4288;5,0293;-0,7365;2,1316;-2,2576
"auditus";-0,3146;0,4246;-0,0465;-0,2309;1,5373;-0,2097;-0,1962;-0,6716;0,4045;-0,1143;-0,2074;0,523;-0,0828
"vero";-0,4969;1,0695;-0,1534;-0,3146;-0,5054;-0,6923;1,4593;-0,8885;-0,2873;-0,3774;-0,2671;0,9678;-0,2735
"ecce";-0,3461;-0,5645;-0,0511;-0,254;0,745;-0,2307;-0,5472;3,6223;-0,2393;-0,1257;-0,2281;-0,1703;-0,0911
"sub";-0,4749;0,6048;-0,1488;-0,7393;4,336;-0,2589;0,4285;-2,1503;-0,6964;-0,3659;0,7307;-0,4957;-0,2652
"sum";-1,2971;1,1109;-2,5592;-1,4231;1,3623;0,3315;3,8879;-0,8225;-1,3396;-5,2445;0,4799;-1,3214;0,4272
"christi";1,2875;-3,0014;0,6852;1,3782;0,62;1,0571;-0,939;0,9913;-0,5672;1,0496;-0,5042;-0,6216;-0,3255
"prior";-0,3146;-0,4887;-0,0465;0,3847;0,8123;-0,2097;0,4395;0,3658;-0,2175;-0,1143;0,4206;-0,1548;-0,0828
"vir";0,8528;-0,748;-0,2884;-1,4333;-1,218;-0,3609;7,4459;-3,1122;-1,3501;-0,7095;0,7902;-0,9611;0,9492
"mors";-1,4484;3,5758;-0,2139;1,5173;-1,4655;-0,4495;-0,3305;0,4747;-1,0013;-0,5262;-0,9547;-0,2859;-0,3814
"deo";-0,4356;0,4256;0,3637;0,3732;-0,6329;-0,2807;-1,3532;0,6058;1,7519;0,5388;0,3327;-0,3305;-0,2884
"promissio";1,3299;0,5895;-0,0929;-0,462;2,6951;-0,4194;-2,0879;-0,3582;-0,4351;-0,2287;0,2109;0,2925;-0,1657
"pono";-0,6294;-0,4715;-0,0929;-0,1412;-0,2351;-0,4194;0,9394;-0,3582;0,5928;-0,2287;1,1953;0,2925;-0,1657
"desiderium";0,442;-0,37;-0,0836;0,6226;-0,1984;-0,3775;-1,8791;-0,2903;0,6602;-0,2058;0,239;1,6275;1,3504
"creatura";-0,3776;2,1917;-0,0558;-0,2771;0,2328;0,9701;-1,2525;-0,3278;-0,261;-0,1372;0,3603;-0,1858;-0,0994
"a";0,3631;-0,7033;0,3903;-0,4918;0,349;-0,5932;-2,6329;0,6158;1,9256;1,2592;-0,3727;2,6549;-0,2606
"efficio";0,2878;-0,4887;-0,0465;-0,2309;0,2844;-0,2097;1,3706;0,3658;-0,2175;-0,1143;-0,2074;-0,1548;-0,0828
"loquor";-0,4106;-2,8212;-0,2791;-0,7551;-1,9121;-0,3392;7,2675;0,3042;0,4727;-0,6865;0,2719;-0,93;0,5034
"trado";0,7498;0,5245;-0,0976;-0,1531;-0,254;-0,4404;0,8472;-0,7561;-0,139;-0,2401;0,1984;-0,3252;-0,174
"ita";-0,2503;0,3113;0,314;-0,4309;-0,4516;-0,3609;0,3406;0,57;1,0892;1,1112;-1,2872;-0,4484;-0,5142
"supra";0,8438;-1,2283;-0,0883;0,1966;0,406;0,2215;-0,4008;1,8939;-0,4134;0,405;-0,3941;-0,2943;-0,1574
"vivus";-0,4405;-0,1965;-0,0651;-0,3233;2,6897;-0,2936;-1,4614;-0,1703;0,2975;-0,16;0,8647;0,4056;-0,116
"alter";-0,409;0,5105;-0,0604;-0,3002;1,2287;-0,2726;1,393;-0,8732;-0,2828;-0,1486;-0,2696;-0,2013;-0,1077
"servus";-0,1605;-0,5377;0,8031;-0,3695;1,6427;0,7632;-0,2645;-0,5092;-0,3481;-0,1829;-0,3319;-0,2478;1,4452
"dedo";0,6686;-1,022;-0,1069;-0,5313;-0,293;-0,4824;-0,3604;1,4303;-0,1615;0,3428;0,5355;0,2521;0,4495
"adventus";-0,5035;-1,707;-0,0744;0,2419;-0,5094;-0,3355;-0,5175;-0,2274;2,1919;2,1201;0,2722;0,9732;0,5799
"propter";0,6433;1,0682;0,5652;1,2172;-1,0687;-0,4794;-0,6384;0,8603;0,2952;-1,0993;-1,2376;-0,4661;-0,7968
"habito";0,1956;0,7676;-0,0651;-0,3233;-0,4457;0,8571;0,2207;-0,9404;-0,3045;-0,16;0,312;1,0736;-0,116
"contristo";0,1956;-0,8034;-0,0651;-0,3233;-0,4457;-0,2936;-1,4614;6,9103;0,2975;-0,16;-0,2904;-0,2168;-0,116
"ideo";-0,7553;-0,4245;0,6449;-0,5544;-0,7643;-0,1633;0,6217;0,9278;0,483;0,3294;-0,1605;0,2402;-0,1989
"scribo";-0,5191;-0,6597;1,2957;-0,3293;0,3616;-0,7133;0,5343;1,3408;0,3012;0,228;-0,2798;-0,5267;-0,2818
"saluto";-0,6294;0,3486;0,7152;0,5566;-0,6368;1,184;-0,4508;-0,7054;-0,4351;-0,2287;0,2109;0,8126;1,267
"carissimi";0,2878;-0,2049;-0,0465;1,8986;-0,3183;-0,2097;-0,4735;0,3658;0,4045;-0,1143;-0,2074;-0,1548;-0,0828
"dono";0,5491;-0,886;0,8289;0,2599;-0,1469;1,5078;-0,8602;1,2835;-0,3263;-0,1715;-0,3111;-0,2323;-0,1243
"mulier";0,257;-3,282;-0,1906;-0,9474;-0,6908;-0,3786;10,7692;-2,7556;-0,8924;-0,4689;1,9482;-0,6353;-0,3399
"rogo";-0,3461;-1,1734;-0,0511;-0,254;-0,3502;-0,2307;-0,5472;1,2207;2,8486;0,5997;0,3887;-0,1703;-0,0911
"pars";-0,2126;-0,4196;-0,0883;-0,4388;-0,2165;0,6482;0,6901;0,9042;-0,4134;-0,2172;0,2244;-0,2943;-0,1574
"sto";0,6399;0,8781;-0,0604;0,3018;-0,4139;0,3315;-0,7005;0,2405;-0,2828;-0,1486;-0,2696;0,4307;-0,1077
"igitur";-0,4531;2,5056;-0,1441;-0,2857;-0,2052;-0,2463;-0,4899;0,3343;-0,2606;-0,3545;-0,2421;-0,4802;-0,2569
"confirmo";-0,3461;0,3552;-0,0511;-0,254;-0,3502;-0,2307;-0,5472;0,3172;1,0094;1,4988;-0,2281;-0,1703;0,7229
"notus";2,1273;-0,6424;-0,0558;0,3263;0,2328;1,7778;-0,2919;-0,806;-0,261;-0,1372;-0,2489;-0,1858;-0,0994
"perficio";-0,3146;-0,4887;-0,0465;1,0388;0,2844;-0,2097;-0,4735;2,0925;-0,2175;-0,1143;-0,2074;-0,1548;-0,0828
"sector";-0,3146;1,3377;-0,0465;-0,2309;-0,3183;-0,2097;-0,4735;-0,6716;0,4045;-0,1143;1,1179;0,523;-0,0828
"solus";-0,3146;-0,2049;-0,0465;0,3847;-0,3183;0,4169;-0,1962;-0,6716;-0,2175;-0,1143;2,0233;0,523;-0,0828
"solum";-0,2878;1,3459;-0,1069;0,4738;-0,293;-0,4824;-2,4013;0,6465;0,5078;-0,263;-0,1496;0,7171;-0,1906
"unus";1,6767;0,4523;-0,5122;-0,4939;0,2846;-1,5008;1,9163;-3,0586;-1,0433;-0,6638;1,4848;-0,3378;-0,1835
"mortuus";-0,2836;4,0169;-0,3024;-0,8439;-0,4991;0,7184;0,3819;-1,462;0,4058;-0,7438;-1,3496;-0,4806;-0,5391
"sapio";-0,5979;1,9286;-0,0883;2,6321;-0,2165;0,2215;-1,1935;-0,6552;-0,4134;-0,2172;0,2244;-0,2943;-0,1574
"hic";-0,5153;-1,1612;-0,7119;0,3006;-1,0212;-0,6656;2,2867;0,6086;-2,2864;-0,263;1,365;0,7092;0,3512
"gratia";1,5292;-0,2763;0,6795;-0,9453;-0,7668;0,7924;-2,0031;0,3362;-0,3859;0,7256;0,5951;0,3802;1,2052
"salus";0,4122;0,3975;-0,0883;1,1411;-0,605;-0,3985;-1,9835;0,5447;0,6252;0,405;-0,3941;0,8487;-0,1574
"mundus";0,3175;-0,3655;-0,2372;-0,6;-0,2928;0,6601;2,9648;-1,7719;-1,1103;-0,5834;0,3697;-0,7904;1,1442
"potens";0,2602;0,6937;-0,0511;-0,254;-0,3502;-0,2307;-1,1481;0,6969;-0,2393;-0,1257;0,3887;0,4889;0,7229
"parvulus";0,2878;-1,0667;-0,0465;-0,2309;0,8123;-0,2097;2,8833;-0,6716;-0,2175;-0,1143;-0,2074;-0,1548;-0,0828
"sed";-1,6663;0,5038;-0,4662;-0,6313;0,4055;-3,7856;0,5987;3,2236;-0,5064;-0,7812;-0,3134;0,495;-0,5494
"bibo";-0,472;-0,886;-0,0697;-0,3464;-0,4776;-0,3146;6,891;-1,0076;-0,3263;-0,1715;0,2912;-0,2323;-0,1243
"sino";-0,718;0,3359;0,319;1,4254;-0,4361;-1,2804;1,0735;-3,0513;0,7528;-0,698;0,2629;1,2068;0,4939
"audeo";0,2146;0,2502;-0,0604;0,3018;-0,4139;-0,2726;-0,7005;3,0211;-0,2828;-0,1486;-0,2696;-0,2013;-0,1077
"dilectio";0,5101;0,3256;-0,0744;-0,3695;-0,5094;1,4327;-1,6702;-0,5092;-0,3481;-0,1829;0,7705;1,7685;0,5799
"misericordia";-0,2878;1,7894;-0,1069;-0,5313;-0,293;-0,1523;-1,5407;-0,4683;-0,5004;-0,263;1,048;1,3467;0,4495
"duo";2,7143;0,8736;-0,7037;0,28;0,298;0,3778;-2,1407;0,2999;-3,2945;-0,3507;-0,5396;0,3611;2,0903
"reddo";-0,409;0,8781;0,8866;-0,3002;-0,4139;-0,2726;-0,7005;-0,3714;0,3201;-0,1486;0,9186;1,1307;-0,1077
"vos";-2,221;-9,9116;-1,2505;1,0288;0,3856;3,5379;-0,3066;7,3027;11,454;4,3693;-11,9655;-8,933;-3,691
"tuus";-0,7988;2,6507;7,5676;-1,0631;-0,4439;-0,9653;-0,9517;-3,0921;-1,0013;-0,5262;0,7807;2,289;-0,3814
"seduco";0,2878;-0,2049;-0,0465;-0,2309;0,2844;0,4169;-0,1962;-0,2447;-0,2175;0,6356;0,4206;-0,1548;-0,0828
"sapiens";-0,1948;0,4531;-0,0836;-0,4157;-0,5731;-0,3775;2,8088;-0,2903;-0,3916;-0,2058;-0,3734;-0,2788;-0,1491
"epistula";-0,5349;-1,0551;-0,079;-0,3926;-0,5413;0,2518;-0,5796;2,8953;0,2417;3,0868;-0,3526;-0,2633;-0,1409
"nolo";1,2392;0,5489;-0,2325;-1,1556;-0,5168;0,3756;1,0148;-1,7199;-0,5355;0,427;0,3826;0,2784;-0,4146
"pater";2,2947;0,3494;0,2997;0,3603;0,3101;1,0696;-2,0865;-1,0914;0,6758;0,6227;-0,3865;-0,4806;-0,186
"unusquisque";0,7078;-0,5813;-0,1022;-0,5082;0,3306;-0,4614;2,5582;-0,4306;-0,1501;-0,2515;-0,4564;-0,3407;-0,1823
"evacuo";-0,1441;-0,886;-0,0697;-0,3464;0,5422;-0,3146;1,096;1,2835;-0,3263;-0,1715;-0,3111;-0,2323;-0,1243
"confundo";-0,3776;0,2979;-0,0558;0,3263;0,2328;-0,2516;0,615;-0,3278;-0,261;0,5673;-0,2489;0,4583;-0,0994
"tamen";0,5101;-0,5377;-0,0744;-0,3695;0,5033;0,2691;0,6124;0,3897;-0,3481;0,4638;-0,3319;-0,2478;-0,1326
"cum";-0,3564;-1,6989;-0,1985;0,3166;1,5211;0,601;-0,5004;-0,2653;0,5377;0,7965;0,458;-0,3665;0,4704
"peccatum";-0,5432;10,7605;-0,2418;-1,2019;-0,5544;-1,0913;-1,2803;-1,317;-0,5667;-0,2166;-0,2513;-0,3448;-0,4312
"ignoro";-0,5349;0,8375;-0,079;0,2254;-0,1807;-0,3565;0,2946;-0,2582;0,698;-0,1943;0,2549;-0,2633;-0,1409
"per";0,3266;3,9724;-0,2333;-0,5343;0,5325;0,4641;-3,4826;0,4639;-1,0791;0,9178;-1,6579;0,2947;-0,3974
"pes";0,8203;0,4246;-0,0465;-0,2309;-0,3183;-0,2097;0,8358;-0,6716;-0,2175;-0,1143;0,4206;-0,1548;-0,0828
"Servius";0,6399;0,8781;-0,0604;0,8437;-0,4139;0,3315;-0,3444;-0,8732;-0,2828;-0,1486;0,3349;-0,2013;-0,1077
"malus";0,2278;1,9999;-0,1301;-0,2436;-0,8917;-0,2096;-0,9132;-0,6697;0,3978;-0,3202;-0,206;0,5902;1,0106
"libero";-0,409;1,9455;-0,0604;-0,3002;0,2115;-0,2726;-0,7005;-0,8732;-0,2828;0,5379;-0,2696;2,0265;-0,1077
"nonne";-0,472;-0,4756;-0,0697;-0,3464;-0,4776;-0,3146;3,6955;-0,1981;0,2771;-0,1715;-0,3111;-0,2323;-0,1243
"locum";-0,3146;0,8122;-0,0465;-0,2309;-0,3183;-0,2097;-0,1962;-0,2447;0,4045;0,6356;0,4206;-0,1548;-0,0828
"iniquitas";-0,472;2,136;-0,0697;-0,3464;-0,4776;-0,3146;-0,8602;-0,4623;-0,3263;2,2019;-0,3111;0,3827;0,604
"praesens";-0,409;-1,3868;-0,0604;-0,3002;0,6326;-0,2726;0,2616;3,9385;-0,2828;-0,1486;-0,2696;-0,2013;-0,1077
"ut";1,1625;-2,3652;0,6386;0,2746;-0,9161;-0,4531;-0,5682;0,5757;1,4015;2,2073;0,3592;-1,4262;2,5278
"homo";0,3928;-0,3221;-0,5962;-1,0146;1,166;0,5905;0,613;-2,4628;-0,3971;-0,4554;1,1177;0,3312;1,0191
"exhibeo";0,2146;1,3557;-0,0604;-0,3002;-0,4139;0,9108;-1,3569;0,5489;-0,2828;-0,1486;-0,2696;0,4307;-0,1077
"utilis";-0,3146;-1,0667;0,9937;-0,2309;-0,3183;-0,2097;-0,4735;-0,2447;-0,2175;-0,1143;1,1179;3,5771;0,7603
"nam";-2,4261;0,8211;0,2505;-1,0632;-0,7041;-0,9337;1,0818;1,9585;-0,5725;0,2234;-0,2889;-0,3088;-0,6388
"ostendeo";0,2878;-0,2049;-0,0465;-0,2309;-0,3183;-0,2097;-0,4735;-0,6716;-0,2175;0,6356;1,1179;0,523;1,8388
"ministerium";-0,1774;-0,3226;-0,079;-0,3926;-0,5413;0,2518;-1,0248;2,8953;-0,3698;-0,1943;0,2549;0,9286;-0,1409
"quidam";-0,7553;-1,0967;-0,1115;1,4788;-0,313;-0,5034;1,7037;-0,9119;-0,5222;-0,2744;2,3544;-0,3717;0,4348
"ago";-0,7269;1,4745;0,433;-0,2118;-0,3915;-0,1743;-0,3843;-1,3645;0,8044;0,5119;0,4887;-0,2575;-0,3565
"edo";0,5657;-1,8582;-0,1208;-0,2166;0,2539;0,9147;1,4507;-0,5868;-0,1972;-0,2973;0,464;0,2187;-0,2155
"nunc";-0,2503;0,4328;0,8504;0,6633;0,8346;0,4753;-0,3767;-0,4949;-0,3863;0,3177;-0,6809;-0,4484;-0,5142
"membrum";0,3889;0,7869;-0,1534;-0,7624;-1,0511;-0,2716;5,2041;-2,2176;-0,7182;-0,3774;-0,6847;-0,5112;-0,2735
"passio";-0,3461;0,3552;-0,0511;0,3537;-0,3502;1,036;-1,1481;0,6969;0,3731;-0,1257;-0,2281;0,4889;-0,0911
"evangelizo";0,5101;-0,2778;-0,0744;-0,3695;3,2736;-0,3355;-0,2645;-0,2274;-0,3481;-0,1829;-0,3319;-0,2478;-0,1326
"magis";0,257;-0,5175;1,1517;2,3282;-0,6908;-0,8603;0,2803;0,4302;-0,17;-0,4689;0,2397;-0,239;-0,3399
"video";-1,2769;-0,8726;-0,3024;2,2156;1,8145;0,7184;0,5164;-0,5706;0,4058;-0,7438;-0,3865;-0,4806;-0,5391
"iesu";1,6357;-2,7454;3,3787;2,9996;0,5452;0,418;-3,547;-2,1188;-0,2387;2,3789;0,8144;1,849;-0,2101
"lex";-2,8386;15,5285;-0,5682;-0,9285;9,5857;-2,5642;-2,4758;-8,2148;-2,6601;-1,3978;-0,7595;-1,8936;-0,2264
"gens";0,4518;5,5212;-0,2604;-1,2945;2,267;-0,5983;-2,4183;-2,0354;-0,3184;-0,6407;-0,2908;0,2303;-0,4644
"honor";-0,5979;1,4273;-0,0883;0,1966;-0,605;0,2215;-0,7093;-1,2764;0,2119;-0,2172;1,9834;0,8487;-0,1574
"volo";-1,4799;-0,5573;1,0494;-0,2534;0,9512;0,4172;-0,2379;0,2851;-0,2253;-0,5376;1,1759;-0,2955;0,2274
"eiusmodi";-0,1441;-0,886;-0,0697;0,2599;-0,4776;-0,3146;0,3946;1,8701;-0,3263;0,4865;-0,3111;-0,2323;0,604
"nescitis";-0,3776;-0,3042;-0,0558;-0,2771;-0,382;-0,2516;5,0747;-0,806;-0,261;-0,1372;-0,2489;-0,1858;-0,0994
"sustineo";-0,472;-0,4756;-0,0697;-0,3464;-0,4776;-0,3146;0,3946;-0,1981;0,7833;0,4865;-0,3111;2,825;-0,1243
"scriptura";-0,4405;1,7337;-0,0651;-0,3233;1,1466;-0,2936;-0,3997;-0,9404;-0,3045;-0,16;0,312;0,4056;-0,116
"sensus";0,2146;-0,3586;-0,0604;0,3018;-0,4139;0,9108;0,5297;0,2405;-0,2828;0,5379;-0,2696;-0,2013;-0,1077
"iesum";-0,3178;2,2797;-0,1813;-0,173;-0,325;-0,3511;-1,2275;-0,4879;1,9594;-0,4461;-0,8093;-0,2209;0,2798
"invicem";0,9469;0,785;-0,172;-0,3744;1,3613;0,2792;-1,102;-1,6294;1,4836;0,2058;-0,7678;-0,5732;0,2954
"bene";0,1956;-0,8034;-0,0651;0,2798;0,585;-0,2936;0,2207;-0,9404;-0,3045;-0,16;3,5128;-0,2168;0,6301
"iesus";-0,5664;-1,1412;-0,0836;0,2104;-0,1984;0,236;0,2546;-0,2903;0,6602;1,106;1,3109;0,3245;-0,1491
"sic";-1,2278;-0,2873;-0,1813;-0,4052;0,5286;-0,8183;5,7304;-1,169;-0,3708;-0,4461;-0,3454;-0,6043;-0,3233
"resurgo";-0,6924;-0,5813;-0,1022;-0,5082;-0,7005;-0,1415;4,6543;-0,8075;0,5342;-0,2515;-0,4564;0,2647;-0,1823
"infirmis";-0,3146;-0,2049;-0,0465;-0,2309;-0,3183;-0,2097;0,8358;0,789;-0,2175;-0,1143;-0,2074;0,523;-0,0828
"quaero";-0,6924;0,2677;-0,1022;0,4996;0,3306;-0,1415;1,1079;-0,4306;-0,1501;-0,2515;-0,4564;0,2647;-0,1823
"lingua";-0,7868;-1,1726;-0,1162;-0,2034;-0,7961;-0,5244;11,6995;-1,6797;-0,544;-0,2858;-0,5186;-0,3872;-0,2072
"testimonium";-0,5664;0,2416;-0,0836;-0,4157;-0,1984;0,236;-0,353;-0,2903;-0,3916;0,4232;2,07;0,3245;0,5366
"voluntas";2,6205;-0,4753;-0,1627;0,2618;-0,5507;0,6438;-1,385;0,6424;0,2879;0,2203;-0,7262;0,4583;-0,2901
"nihil";-1,1648;-2,1492;0,4854;0,2383;1,8623;-0,7763;0,5959;0,356;-0,8053;0,2058;1,0357;-0,2031;1,4896
"delictum";-0,409;3,4834;-0,0604;-0,3002;0,2115;0,3315;-0,7005;-0,3714;-0,2828;-0,1486;-0,2696;-0,2013;-0,1077
"vinculum";0,2878;-1,0667;2,3191;2,9327;-0,3183;1,1098;-1,0437;-0,6716;-0,2175;-0,1143;-0,2074;0,523;-0,0828
"ille";-0,595;2,2181;0,5062;0,6092;-0,4626;0,5995;-1,6496;-0,4496;-0,4966;0,2821;-0,8644;0,7039;0,3377
"semen";-0,5979;1,9286;-0,0883;-0,4388;2,0543;-0,3985;-1,1935;0,2795;-0,4134;-0,2172;-0,3941;0,3079;-0,1574
"aliquis";-0,5415;-0,3046;0,5052;-0,8087;1,4658;0,3045;0,7029;-0,2121;0,2879;0,2203;-0,7262;-0,5422;-0,2901
"semet";1,0839;-0,2357;-0,0697;0,7434;0,5422;0,2879;-0,8602;-0,4623;-0,3263;-0,1715;0,2912;-0,2323;0,604
"qui";0,5711;0,7565;-0,565;-0,6908;0,7734;2,5042;-2,0354;-0,4416;-1,7438;-0,3954;0,9749;0,86;-0,3728
"frater";-1,4761;-1,6444;1,2298;0,5536;0,5822;-0,4322;1,5277;-1,2111;3,9027;2,0159;-0,9457;-1,3488;-1,138
"facio";1,4192;0,6322;0,2819;-0,4191;-0,415;0,609;0,4169;-1,0656;0,5513;-0,7039;-0,6608;-0,7701;-0,2041
"bonus";-0,4049;0,8645;0,5121;0,3351;-0,6202;-1,4126;-2,9709;-1,5687;-0,6202;-0,3148;7,1431;0,7883;3,0655
"voco";0,2442;0,969;-0,1953;-0,9706;0,4619;-0,3926;1,637;-2,8229;0,4717;-0,1537;-0,3862;-0,2482;-0,3482
"iustitiam";-0,7553;8,463;-0,1115;0,4498;-0,313;-0,5034;-2,5058;-1,6124;-0,5222;-0,2744;-0,1605;0,2402;-0,1989
"iustitiae";-0,2494;2,695;-0,0976;-0,1531;-0,254;-0,4404;-2,1924;0,7637;-0,4569;-0,2401;-0,4356;0,2781;0,4813
"circumcisio";-0,4315;3,2181;-0,1394;-0,2715;2,379;1,2944;-2,1707;-2,0158;-0,6528;-0,3431;-0,6224;-0,4647;0,3606
"doceo";-0,5664;-0,37;-0,0836;-0,4157;-0,5731;0,6836;0,2546;-1,2092;-0,3916;-0,2058;2,07;0,8872;2,3541
"oratio";0,4122;-0,4196;1,7666;1,1411;-0,605;0,6482;-1,1935;-0,6552;0,2119;-0,2172;1,2511;0,3079;-0,1574
"diligo";3,1869;0,2683;-0,1674;-0,8318;-0,2778;0,2915;-1,4562;-0,4002;0,2753;0,6199;-0,3056;0,4426;0,3037
"semper";-0,4315;-1,5665;0,5612;1,1724;-0,439;0,7794;-1,5163;0,5967;1,8481;1,3756;-0,6224;-0,1446;0,3606
"fructus";0,2146;0,5105;-0,0604;1,5718;0,2115;-0,2726;0,2616;-0,8732;-0,2828;-0,1486;-0,2696;0,4307;-0,1077
"spero";-0,2308;-0,2582;0,7152;0,5566;-0,6368;-0,4194;-0,4508;0,8307;-0,4351;-0,2287;1,9025;-0,3097;-0,1657
"induo";1,3322;-0,3042;-0,0558;-0,2771;0,2328;0,9701;0,3104;-0,806;0,3451;-0,1372;-0,2489;-0,1858;-0,0994
"amen";-0,3074;-0,2425;0,6449;0,4498;0,2894;-0,1633;-1,0597;-0,507;0,483;0,3294;0,5102;0,6889;0,4348
"alius";-0,5353;-0,7812;-0,3163;-0,5097;-0,3282;-1,4276;7,3672;-0,3159;-0,8275;-0,7782;-0,4203;-0,5133;-0,564
"similiter";-0,3776;-0,3042;-0,0558;-0,2771;-0,382;-0,2516;0,615;-0,806;-0,261;-0,1372;2,7641;-0,1858;1,6833
"adnuntio";-0,3146;-0,2049;-0,0465;1,0388;-0,3183;0,4169;0,4395;-0,6716;1,0827;-0,1143;-0,2074;-0,1548;-0,0828
"ab";-0,5246;-1,2833;-0,2372;-0,2976;1,1797;0,3627;0,2672;-0,2598;0,6242;0,8348;-0,5146;0,9881;0,206
"labor";-0,3461;-1,1734;-0,0511;-0,254;-0,3502;0,3851;-0,2423;1,2207;1,8454;0,5997;-0,2281;-0,1703;-0,0911
"quis";-1,3114;1,6452;-0,6897;-0,6656;-0,7668;-1,1107;3,5083;-0,3515;-1,6527;0,2691;0,2685;-1,4919;-0,6422
"quia";-0,8448;0,891;-0,2003;1,3072;0,8319;-0,7633;-1,3284;-0,6293;0,2645;-0,4109;1,9607;-0,2353;-0,4808
"meus";-1,4045;0,5817;3,6172;8,9466;0,2828;-0,5728;0,6529;-1,9832;-3,3382;-1,046;-3,1828;0,7717;-1,2714
"multo";-0,472;0,378;-0,0697;0,7434;-0,4776;-0,3146;-0,4575;0,8041;0,2771;-0,1715;0,2912;-0,2323;0,604
"debeo";0,1956;-0,1965;2,0254;-0,3233;-0,4457;-0,2936;0,4569;-0,1703;-0,3045;1,3023;-0,2904;-0,2168;-0,116
"mysterium";0,5922;-0,4159;-0,0651;-0,3233;-0,4457;1,5896;0,794;-0,9404;-0,3045;0,5111;0,312;-0,2168;-0,116
"eligo";0,236;-0,6424;-0,0558;0,3263;-0,382;0,3568;0,3104;-0,806;-0,261;0,5673;0,978;0,4583;0,6891
"audio";0,4745;-0,6018;0,7791;0,2254;-0,5413;0,7218;0,2946;-0,2582;-0,3698;0,4428;0,2549;0,3424;-0,1409
"absum";-0,4405;4,0044;-0,0651;-0,3233;1,1466;-0,2936;-0,7797;-0,9404;-0,3045;-0,16;-0,2904;-0,2168;-0,116
"sanguis";1,3322;0,2979;-0,0558;-0,2771;0,2328;0,3568;0,615;-0,806;-0,261;-0,1372;-0,2489;-0,1858;-0,0994
"consolo";-0,1605;-0,97;-0,0744;-0,3695;-0,5094;0,7632;-1,6702;2,3683;3,1158;-0,1829;-0,3319;-0,2478;-0,1326
"sanctor";1,5502;-0,2049;0,9937;-0,2309;-0,3183;0,4169;-0,1962;-0,6716;-0,2175;-0,1143;0,4206;-0,1548;-0,0828
"tristitia";-0,3461;-0,5645;-0,0511;1,7771;-0,3502;-0,2307;-1,1481;3,6223;-0,2393;-0,1257;-0,2281;-0,1703;-0,0911
"veritas";1,32;-0,5966;-0,2232;-0,5499;-0,2542;-0,2187;-3,0246;0,419;-1,0449;0,8916;1,6309;2,1973;0,639
"mandatum";0,5922;1,7337;-0,0651;-0,3233;-0,4457;0,3086;-0,3997;-0,9404;-0,3045;-0,16;0,312;-0,2168;0,6301
"consequor";-0,409;1,3557;-0,0604;-0,3002;0,2115;-0,2726;-0,3444;-0,3714;-0,2828;-0,1486;0,9186;0,4307;-0,1077
"jam";0,8121;-0,2913;0,5612;0,3328;1,244;-0,6293;-0,2728;-0,7554;-0,6528;0,2627;-0,2299;0,548;-0,2486
"resisto";0,2878;0,8122;-0,0465;-0,2309;0,2844;-0,2097;-1,0437;-0,6716;-0,2175;-0,1143;-0,2074;3,5771;-0,0828
"omnis";3,6974;-4,1706;-0,8767;1,2831;-3,4521;2,4615;1,3484;-1,7181;-0,4497;0,674;0,5187;0,3622;1,2728
"existimo";-0,6294;-0,4715;-0,0929;1,0869;-0,2351;-0,4194;0,3666;0,8307;-0,4351;0,3879;0,6221;-0,3097;-0,1657
"salvus";-0,7553;0,8805;-0,1115;-0,5544;-0,7643;-0,5034;0,9179;-0,9119;-0,1732;0,3294;1,0047;0,2402;0,4348
"placeo";-0,4102;0,5428;-0,1348;-0,2574;0,8383;0,3982;-0,4064;-0,7122;1,2932;-0,3316;-0,6017;-0,1367;0,3716
"deinde";-0,409;-1,3868;-0,0604;-0,3002;1,2287;-0,2726;1,9926;-0,3714;0,3201;-0,1486;0,3349;-0,2013;-0,1077
"scio";0,4095;-0,3093;0,2695;0,7731;-1,4828;0,3543;-0,521;0,847;-0,5081;-0,8241;0,3624;0,9674;-0,2188
"oboedio";-0,472;1,062;0,8289;0,2599;-0,1469;-0,3146;-1,5658;0,4362;-0,3263;1,2475;-0,3111;-0,2323;0,604
"ecclesia";1,5594;-2,4359;0,314;-0,4309;-0,4516;0,4753;2,1323;0,2692;-0,3863;0,3177;0,2541;-0,9611;-0,5142
"periculum";-0,3146;-0,4887;-0,0465;-0,2309;-0,3183;-0,2097;-1,0437;6,6587;-0,2175;-0,1143;-0,2074;-0,1548;-0,0828
"ubi";-0,5979;0,3975;-0,0883;-0,4388;0,8332;0,6482;1,4733;-0,6552;-0,4134;-0,2172;-0,3941;-0,2943;-0,1574
"scientia";-0,3477;-0,5196;-0,1208;0,406;-0,828;0,4579;1,4507;0,5047;-0,5657;-0,2973;-0,1828;0,2187;-0,2155
"insipio";0,236;0,5944;-0,0558;-0,2771;-0,382;-0,2516;-0,623;1,7028;-0,261;-0,1372;-0,2489;-0,1858;0,6891
