"V1";"V2";"V3";"V4";"V5";"V6"
"***";"nb classes";"8";"***";"";""
"**";"classe";"1";"**";"";""
"****";"29";"2553";"1.14";"****";""
"5";" 5";"100.00";"436.026";"aitorpen";"7.929972e-97"
"7";"10";" 70.00";"423.940";"irain";"3.387647e-94"
"4";" 5";" 80.00";"277.456";"kontrako";"2.691405e-62"
"4";" 5";" 80.00";"277.456";"engain";"2.691405e-62"
"3";" 4";" 75.00";"194.635";"gorroto";"3.094450e-44"
"3";" 4";" 75.00";"194.635";"argudio";"3.094450e-44"
"5";"15";" 33.33";"139.286";"haserre";"3.814192e-32"
"4";"12";" 33.33";"111.297";"auzi";"5.093674e-26"
"3";" 7";" 42.86";"108.797";"hutsal";"1.797441e-25"
"3";" 7";" 42.86";"108.797";"gaiztakeria";"1.797441e-25"
"3";" 8";" 37.50";" 94.496";"lekuko";"2.456121e-22"
"2";" 4";" 50.00";" 85.179";"igukan";"2.724818e-20"
"2";" 5";" 40.00";" 67.380";"bedeinka";"2.238827e-16"
"3";"11";" 27.27";" 67.203";"aitzakan";"2.449662e-16"
"2";" 6";" 33.33";" 55.517";"jokaera";"9.263368e-14"
"2";" 6";" 33.33";" 55.517";"bazter";"9.263368e-14"
"2";" 8";" 25.00";" 40.696";"sufrimendu";"1.778081e-10"
"2";" 9";" 22.22";" 35.759";"begira";"2.232410e-09"
"2";"10";" 20.00";" 31.812";"arrazoi";"1.698460e-08"
"1";" 3";" 33.33";" 27.726";"lizunkeria";"1.397671e-07"
"1";" 3";" 33.33";" 27.726";"pentsaera";"1.397671e-07"
"1";" 3";" 33.33";" 27.726";"ikusezin";"1.397671e-07"
"1";" 3";" 33.33";" 27.726";"hutsegite";"1.397671e-07"
"1";" 4";" 25.00";" 20.316";"zatiketa";"6.563888e-06"
"1";" 4";" 25.00";" 20.316";"sesio";"6.563888e-06"
"1";" 4";" 25.00";" 20.316";"nabari";"6.563888e-06"
"1";" 4";" 25.00";" 20.316";"jarraitzaile";"6.563888e-06"
"1";" 4";" 25.00";" 20.316";"hizkera";"6.563888e-06"
"1";" 4";" 25.00";" 20.316";"berritu";"6.563888e-06"
"1";" 4";" 25.00";" 20.316";"bekaizkeri";"6.563888e-06"
"1";" 4";" 25.00";" 20.316";"arduradun";"6.563888e-06"
"1";" 5";" 20.00";" 15.875";"maltzur";"6.767549e-05"
"2";"19";" 10.53";" 15.031";"erabaki";"1.057748e-04"
"1";" 6";" 16.67";" 12.917";"itzazu";"3.255570e-04"
"1";" 6";" 16.67";" 12.917";"horrexega";"3.255570e-04"
"1";" 8";" 12.50";"  9.229";"zaitez";"2.382633e-03"
"1";" 8";" 12.50";"  9.229";"madarikatu";"2.382633e-03"
"1";" 8";" 12.50";"  9.229";"aldendu";"2.382633e-03"
"1";" 9";" 11.11";"  8.003";"errebelde";"4.670930e-03"
"2";"33";"  6.06";"  7.220";"fede";"7.209660e-03"
"1";"10";" 10.00";"  7.024";"inolako";"8.042313e-03"
"1";"13";"  7.69";"  5.002";"txar";"2.532470e-02"
"1";"16";"  6.25";"  3.750";"enukan";"5.281607e-02"
"1";"18";"  5.56";"  3.153";"beza";"7.578452e-02"
"1";"19";"  5.26";"  2.904";"aurka";"8.838394e-02"
"1";"19";"  5.26";"  2.904";"horrelako";"8.838394e-02"
"1";"21";"  4.76";"  2.479";"kontzientzia";"1.153771e-01"
"1";"22";"  4.55";"  2.297";"bedi";"1.296130e-01"
"*****";"*";"*";"*";"*";"*"
"2";" 6";"33.33";"55.517";"zaitzatu";"9.263368e-14"
"6";"64";" 9.38";"39.681";"inor";"2.990882e-10"
"2";"12";"16.67";"25.896";"itzazue";"3.603846e-07"
"1";"11";" 9.09";" 6.225";"diotsuet";"1.259363e-02"
"*";"*";"*";"*";"*";"*"
"1";"  2";"50.00";"42.556";"*Tx_1Tm_5_24";"6.867585e-11"
"1";"  2";"50.00";"42.556";"*Tx_2Ts_2_3";"6.867585e-11"
"1";"  2";"50.00";"42.556";"*Tx_2Ko_6_2";"6.867585e-11"
"1";"  2";"50.00";"42.556";"*Tx_1Ts_2_2";"6.867585e-11"
"1";"  2";"50.00";"42.556";"*Tx_1Ko_3_18";"6.867585e-11"
"1";"  2";"50.00";"42.556";"*Tx_Kol_2_8";"6.867585e-11"
"1";"  2";"50.00";"42.556";"*Tx_2Ko_13_1";"6.867585e-11"
"1";"  2";"50.00";"42.556";"*Tx_2Ko_11_9";"6.867585e-11"
"1";"  2";"50.00";"42.556";"*Tx_2Tm_1_12";"6.867585e-11"
"1";"  2";"50.00";"42.556";"*Tx_Erm_1_29";"6.867585e-11"
"1";"  2";"50.00";"42.556";"*Tx_Erm_15_6";"6.867585e-11"
"1";"  2";"50.00";"42.556";"*Tx_Ga_2_10";"6.867585e-11"
"1";"  2";"50.00";"42.556";"*Tx_Erm_15_3";"6.867585e-11"
"1";"  3";"33.33";"27.726";"*Tx_1Tm_6_5";"1.397671e-07"
"1";"  3";"33.33";"27.726";"*Tx_2Ko_1_12";"1.397671e-07"
"1";"  3";"33.33";"27.726";"*Tx_1Ko_4_12";"1.397671e-07"
"1";"  3";"33.33";"27.726";"*Tx_2Ko_13_4";"1.397671e-07"
"1";"  3";"33.33";"27.726";"*Tx_2Ts_1_10";"1.397671e-07"
"3";" 27";"11.11";"24.179";"*K_Kol_2";"8.778489e-07"
"2";" 21";" 9.52";"13.266";"*K_1Tm_6";"2.703238e-04"
"2";" 21";" 9.52";"13.266";"*K_2Ko_13";"2.703238e-04"
"5";"118";" 4.24";"10.596";"*L_Timoteori1";"1.133128e-03"
"2";" 26";" 7.69";"10.055";"*K_1Tm_5";"1.519721e-03"
"4";"103";" 3.88";" 7.215";"*L_Kolosarrei";"7.229713e-03"
"2";" 44";" 4.55";" 4.635";"*K_Erm_15";"3.133434e-02"
"1";" 14";" 7.14";" 4.523";"*K_2Ts_1";"3.344006e-02"
"1";" 18";" 5.56";" 3.153";"*K_2Ts_2";"7.578452e-02"
"2";" 56";" 3.57";" 3.024";"*L_Tesalonikarrei2";"8.202939e-02"
"1";" 19";" 5.26";" 2.904";"*K_1Tm_4";"8.838394e-02"
"1";" 23";" 4.35";" 2.132";"*K_Erm_13";"1.442472e-01"
"1";" 23";" 4.35";" 2.132";"*K_2Tm_1";"1.442472e-01"
"**";"classe";"2";"**";"";""
"****";"185";"2553";"7.25";"****";""
"45";" 49";" 91.84";"531.866";"elkarte";"1.108970e-117"
"37";" 38";" 97.37";"466.130";"eli";"2.228439e-103"
"22";" 26";" 84.62";"233.938";"etxe";" 8.251135e-53"
"18";" 18";"100.00";"232.036";"agur";" 2.144561e-52"
"17";" 17";"100.00";"219.059";"goraintzi";" 1.451151e-49"
"19";" 23";" 82.61";"196.117";"anaia";" 1.469839e-44"
" 9";"  9";"100.00";"115.608";"zuri";" 5.793065e-27"
"10";" 12";" 83.33";"103.847";"paulok";" 2.185039e-24"
" 7";"  7";"100.00";" 89.846";"semealaba";" 2.573934e-21"
" 8";" 10";" 80.00";" 79.061";"lankide";" 6.022367e-19"
" 6";"  6";"100.00";" 76.981";"zaituztete";" 1.726177e-18"
" 6";"  6";"100.00";" 76.981";"iruditu";" 1.726177e-18"
" 9";" 13";" 69.23";" 74.692";"timoteo";" 5.502216e-18"
"10";" 17";" 58.82";" 67.735";"bildu";" 1.870100e-16"
"10";" 17";" 58.82";" 67.735";"lagundu";" 1.870100e-16"
" 5";"  5";"100.00";" 64.126";"sustrai";" 1.167355e-15"
" 5";"  5";"100.00";" 64.126";"hona";" 1.167355e-15"
" 5";"  5";"100.00";" 64.126";"tito";" 1.167355e-15"
" 5";"  5";"100.00";" 64.126";"hara";" 1.167355e-15"
"13";" 29";" 44.83";" 61.638";"bidali";" 4.127563e-15"
"16";" 44";" 36.36";" 56.474";"maite";" 5.693330e-14"
" 5";"  6";" 83.33";" 51.801";"nu";" 6.140707e-13"
" 4";"  4";"100.00";" 51.280";"timoteok";" 8.007334e-13"
" 4";"  4";"100.00";" 51.280";"probintzia";" 8.007334e-13"
" 4";"  4";"100.00";" 51.280";"mazedoniatik";" 8.007334e-13"
" 4";"  4";"100.00";" 51.280";"gobernatu";" 8.007334e-13"
" 4";"  4";"100.00";" 51.280";"diruzale";" 8.007334e-13"
" 4";"  4";"100.00";" 51.280";"arreba";" 8.007334e-13"
" 7";" 12";" 58.33";" 46.816";"leial";" 7.796839e-12"
" 9";" 19";" 47.37";" 45.847";"izukan";" 1.278506e-11"
"15";" 47";" 31.91";" 43.351";"idatzi";" 4.574378e-11"
" 4";"  5";" 80.00";" 39.453";"mesede";" 3.360695e-10"
" 3";"  3";"100.00";" 38.445";"priska";" 5.631359e-10"
" 3";"  3";"100.00";" 38.445";"korinton";" 5.631359e-10"
" 3";"  3";"100.00";" 38.445";"asia";" 5.631359e-10"
" 3";"  4";" 75.00";" 27.362";"zareten";" 1.686791e-07"
" 3";"  4";" 75.00";" 27.362";"batzar";" 1.686791e-07"
" 3";"  4";" 75.00";" 27.362";"laguntzaile";" 1.686791e-07"
" 3";"  4";" 75.00";" 27.362";"jesusengatik";" 1.686791e-07"
" 9";" 30";" 30.00";" 23.383";"seme";" 1.327320e-06"
"10";" 36";" 27.78";" 22.901";"fededun";" 1.705583e-06"
" 4";"  8";" 50.00";" 21.825";"irakurri";" 2.987391e-06"
" 9";" 32";" 28.12";" 21.017";"kristau";" 4.551211e-06"
" 3";"  5";" 60.00";" 20.743";"kartzela";" 5.251979e-06"
" 3";"  5";" 60.00";" 20.743";"bidaia";" 5.251979e-06"
" 4";"  9";" 44.44";" 18.594";"ukzuen";" 1.617565e-05"
" 3";"  6";" 50.00";" 16.356";"itzazu";" 5.250008e-05"
" 3";"  6";" 50.00";" 16.356";"beharrezko";" 5.250008e-05"
" 3";"  6";" 50.00";" 16.356";"gazte";" 5.250008e-05"
" 4";" 10";" 40.00";" 16.024";"zaindu";" 6.254409e-05"
" 4";" 10";" 40.00";" 16.024";"hemen";" 6.254409e-05"
" 2";"  3";" 66.67";" 15.778";"zenidaten";" 7.122911e-05"
" 2";"  3";" 66.67";" 15.778";"tikiko";" 7.122911e-05"
" 2";"  3";" 66.67";" 15.778";"mazedoniara";" 7.122911e-05"
" 2";"  3";" 66.67";" 15.778";"herritar";" 7.122911e-05"
" 2";"  3";" 66.67";" 15.778";"gogoratu";" 7.122911e-05"
" 2";"  3";" 66.67";" 15.778";"duzula";" 7.122911e-05"
" 2";"  3";" 66.67";" 15.778";"barren";" 7.122911e-05"
" 2";"  3";" 66.67";" 15.778";"argibide";" 7.122911e-05"
" 3";"  7";" 42.86";" 13.243";"haia";" 2.735333e-04"
" 3";"  7";" 42.86";" 13.243";"sentitu";" 2.735333e-04"
" 3";"  7";" 42.86";" 13.243";"lotsatu";" 2.735333e-04"
" 3";"  7";" 42.86";" 13.243";"gorabehera";" 2.735333e-04"
"16";"100";" 16.00";" 11.865";"kristo";" 5.719086e-04"
" 9";" 44";" 20.45";" 11.621";"izen";" 6.521814e-04"
" 6";" 24";" 25.00";" 11.361";"zerbitz";" 7.498250e-04"
" 2";"  4";" 50.00";" 10.895";"titori";" 9.641402e-04"
" 2";"  4";" 50.00";" 10.895";"profetek";" 9.641402e-04"
" 2";"  4";" 50.00";" 10.895";"itxaron";" 9.641402e-04"
" 2";"  4";" 50.00";" 10.895";"arduradun";" 9.641402e-04"
" 4";" 13";" 30.77";" 10.757";"dizue";" 1.038891e-03"
" 3";"  9";" 33.33";"  9.145";"paulo";" 2.494344e-03"
" 6";" 27";" 22.22";"  9.106";"apostolu";" 2.548177e-03"
" 2";"  5";" 40.00";"  7.996";"juzun";" 4.687341e-03"
" 2";"  5";" 40.00";"  7.996";"errespetu";" 4.687341e-03"
" 2";"  5";" 40.00";"  7.996";"begirune";" 4.687341e-03"
" 3";" 10";" 30.00";"  7.733";"zintzo";" 5.421750e-03"
" 4";" 16";" 25.00";"  7.550";"gutun";" 5.999527e-03"
" 5";" 23";" 21.74";"  7.253";"lagun";" 7.078893e-03"
" 8";" 47";" 17.02";"  6.807";"agindu";" 9.081340e-03"
" 3";" 11";" 27.27";"  6.592";"zaretu";" 1.024358e-02"
" 2";"  6";" 33.33";"  6.089";"gutxietsi";" 1.360021e-02"
" 2";"  6";" 33.33";"  6.089";"dudan";" 1.360021e-02"
" 2";"  6";" 33.33";"  6.089";"zertan";" 1.360021e-02"
" 2";"  6";" 33.33";"  6.089";"zama";" 1.360021e-02"
" 2";"  6";" 33.33";"  6.089";"lapur";" 1.360021e-02"
" 2";"  6";" 33.33";"  6.089";"ezazu";" 1.360021e-02"
" 6";" 33";" 18.18";"  5.948";"zerbitzu";" 1.473238e-02"
"15";"116";" 12.93";"  5.843";"jesu";" 1.564222e-02"
" 3";" 12";" 25.00";"  5.654";"dizued";" 1.741641e-02"
" 8";" 53";" 15.09";"  4.960";"hala";" 2.594585e-02"
" 3";" 13";" 23.08";"  4.872";"hasi";" 2.729706e-02"
"13";"102";" 12.75";"  4.779";"senide";" 2.880107e-02"
" 2";"  7";" 28.57";"  4.749";"nago";" 2.931222e-02"
" 6";" 38";" 15.79";"  4.189";"esku";" 4.069521e-02"
" 2";"  8";" 25.00";"  3.763";"oinordeko";" 5.238736e-02"
" 2";"  8";" 25.00";"  3.763";"ditudan";" 5.238736e-02"
" 6";" 40";" 15.00";"  3.635";"eskatu";" 5.658472e-02"
" 1";"  3";" 33.33";"  3.041";"jentilentzat";" 8.118221e-02"
" 1";"  3";" 33.33";"  3.041";"nazio";" 8.118221e-02"
" 1";"  3";" 33.33";"  3.041";"eskas";" 8.118221e-02"
" 1";"  3";" 33.33";"  3.041";"zizun";" 8.118221e-02"
" 1";"  3";" 33.33";"  3.041";"zinez";" 8.118221e-02"
" 1";"  3";" 33.33";"  3.041";"zerbitzari";" 8.118221e-02"
" 1";"  3";" 33.33";"  3.041";"zerbitzadu";" 8.118221e-02"
" 1";"  3";" 33.33";"  3.041";"uttu";" 8.118221e-02"
" 1";"  3";" 33.33";"  3.041";"sinestedun";" 8.118221e-02"
" 1";"  3";" 33.33";"  3.041";"nolatan";" 8.118221e-02"
" 1";"  3";" 33.33";"  3.041";"mozkor";" 8.118221e-02"
" 1";"  3";" 33.33";"  3.041";"landu";" 8.118221e-02"
" 1";"  3";" 33.33";"  3.041";"kate";" 8.118221e-02"
" 1";"  3";" 33.33";"  3.041";"inguratu";" 8.118221e-02"
" 1";"  3";" 33.33";"  3.041";"indarberritu";" 8.118221e-02"
" 1";"  3";" 33.33";"  3.041";"gutxiets";" 8.118221e-02"
" 1";"  3";" 33.33";"  3.041";"goraipatu";" 8.118221e-02"
" 1";"  3";" 33.33";"  3.041";"ezinik";" 8.118221e-02"
" 1";"  3";" 33.33";"  3.041";"erorbide";" 8.118221e-02"
" 1";"  3";" 33.33";"  3.041";"egunero";" 8.118221e-02"
" 1";"  3";" 33.33";"  3.041";"direlaeta";" 8.118221e-02"
" 1";"  3";" 33.33";"  3.041";"diezaioten";" 8.118221e-02"
" 1";"  3";" 33.33";"  3.041";"bultzatu";" 8.118221e-02"
" 1";"  3";" 33.33";"  3.041";"baketsu";" 8.118221e-02"
" 1";"  3";" 33.33";"  3.041";"arreta";" 8.118221e-02"
" 1";"  3";" 33.33";"  3.041";"ardozale";" 8.118221e-02"
" 1";"  3";" 33.33";"  3.041";"apaltasun";" 8.118221e-02"
" 1";"  3";" 33.33";"  3.041";"agian";" 8.118221e-02"
" 1";"  3";" 33.33";"  3.041";"adulteriorik";" 8.118221e-02"
" 2";"  9";" 22.22";"  3.014";"balu";" 8.256112e-02"
" 4";" 25";" 16.00";"  2.878";"harro";" 8.978017e-02"
" 6";" 45";" 13.33";"  2.525";"oso";" 1.120453e-01"
" 2";" 10";" 20.00";"  2.430";"arrazoi";" 1.190696e-01"
"*****";"*";"*";"*";"*";"*"
"46";"285";"16.14";"37.757";"ni";"8.014630e-10"
"16";" 91";"17.58";"14.999";"neu";"1.075711e-04"
" 4";" 18";"22.22";" 6.049";"zaituzte";"1.391498e-02"
" 2";"  8";"25.00";" 3.763";"nitu";"5.238736e-02"
" 1";"  3";"33.33";" 3.041";"izkikan";"8.118221e-02"
" 1";"  3";"33.33";" 3.041";"zuten";"8.118221e-02"
" 1";"  3";"33.33";" 3.041";"nindun";"8.118221e-02"
" 1";"  3";"33.33";" 3.041";"izaizkn";"8.118221e-02"
"*";"*";"*";"*";"*";"*"
"20";" 35";" 57.14";"131.447";"*K_Erm_16";"1.976679e-30"
"10";" 22";" 45.45";" 48.199";"*K_Kol_4";"3.849982e-12"
" 2";"  2";"100.00";" 25.620";"*Tx_1Ko_7_16";"4.156931e-07"
" 2";"  2";"100.00";" 25.620";"*Tx_1Ko_16_19";"4.156931e-07"
" 2";"  2";"100.00";" 25.620";"*Tx_Kol_4_16";"4.156931e-07"
" 2";"  2";"100.00";" 25.620";"*Tx_Flp_4_21";"4.156931e-07"
" 2";"  2";"100.00";" 25.620";"*Tx_Erm_16_23";"4.156931e-07"
" 2";"  2";"100.00";" 25.620";"*Tx_Flp_2_25";"4.156931e-07"
" 2";"  2";"100.00";" 25.620";"*Tx_2Ko_8_23";"4.156931e-07"
" 2";"  2";"100.00";" 25.620";"*Tx_1Ko_4_17";"4.156931e-07"
" 2";"  2";"100.00";" 25.620";"*Tx_1Ko_3_9";"4.156931e-07"
" 2";"  2";"100.00";" 25.620";"*Tx_Erm_16_5";"4.156931e-07"
" 8";" 26";" 30.77";" 21.625";"*L_Filemoni";"3.315798e-06"
" 8";" 26";" 30.77";" 21.625";"*K_1Tm_5";"3.315798e-06"
" 8";" 26";" 30.77";" 21.625";"*K_Flm_1";"3.315798e-06"
" 8";" 28";" 28.57";" 19.155";"*K_1Ko_16";"1.205389e-05"
" 8";" 30";" 26.67";" 17.034";"*K_2Ko_8";"3.671812e-05"
" 1";"  1";"100.00";" 12.805";"*Tx_1Ko_10_23";"3.456913e-04"
" 1";"  1";"100.00";" 12.805";"*Tx_2Tm_3_2";"3.456913e-04"
" 1";"  1";"100.00";" 12.805";"*Tx_1Ko_14_4";"3.456913e-04"
" 1";"  1";"100.00";" 12.805";"*Tx_1Ko_16_20";"3.456913e-04"
" 1";"  1";"100.00";" 12.805";"*Tx_1Ko_14_26";"3.456913e-04"
" 1";"  1";"100.00";" 12.805";"*Tx_Erm_16_16";"3.456913e-04"
"18";"118";" 15.25";" 11.804";"*L_Timoteori1";"5.911581e-04"
" 7";" 31";" 22.58";" 10.978";"*K_Flp_4";"9.217659e-04"
" 4";" 17";" 23.53";"  6.751";"*K_1Tm_3";"9.369410e-03"
" 1";"  2";" 50.00";"  5.443";"*Tx_Tt_1_4";"1.964322e-02"
" 1";"  2";" 50.00";"  5.443";"*Tx_Ga_5_2";"1.964322e-02"
" 1";"  2";" 50.00";"  5.443";"*Tx_2Ko_1_8";"1.964322e-02"
" 1";"  2";" 50.00";"  5.443";"*Tx_Erm_15_24";"1.964322e-02"
" 1";"  2";" 50.00";"  5.443";"*Tx_Kol_4_11";"1.964322e-02"
" 1";"  2";" 50.00";"  5.443";"*Tx_Erm_9_15";"1.964322e-02"
" 1";"  2";" 50.00";"  5.443";"*Tx_Erm_1_7";"1.964322e-02"
" 1";"  2";" 50.00";"  5.443";"*Tx_Erm_9_9";"1.964322e-02"
" 1";"  2";" 50.00";"  5.443";"*Tx_Erm_3_3";"1.964322e-02"
" 1";"  2";" 50.00";"  5.443";"*Tx_2Ko_6_2";"1.964322e-02"
" 1";"  2";" 50.00";"  5.443";"*Tx_1Ko_5_10";"1.964322e-02"
" 1";"  2";" 50.00";"  5.443";"*Tx_2Ko_9_5";"1.964322e-02"
" 1";"  2";" 50.00";"  5.443";"*Tx_1Tm_5_11";"1.964322e-02"
" 1";"  2";" 50.00";"  5.443";"*Tx_2Tm_4_21";"1.964322e-02"
" 1";"  2";" 50.00";"  5.443";"*Tx_1Ko_6_3";"1.964322e-02"
" 1";"  2";" 50.00";"  5.443";"*Tx_1Ko_11_34";"1.964322e-02"
" 1";"  2";" 50.00";"  5.443";"*Tx_1Ko_12_28";"1.964322e-02"
" 1";"  2";" 50.00";"  5.443";"*Tx_Erm_15_12";"1.964322e-02"
" 1";"  2";" 50.00";"  5.443";"*Tx_1Tm_4_12";"1.964322e-02"
" 1";"  2";" 50.00";"  5.443";"*Tx_1Tm_4_14";"1.964322e-02"
" 1";"  2";" 50.00";"  5.443";"*Tx_2Ko_10_8";"1.964322e-02"
" 1";"  2";" 50.00";"  5.443";"*Tx_2Ko_8_22";"1.964322e-02"
" 1";"  2";" 50.00";"  5.443";"*Tx_2Tm_4_10";"1.964322e-02"
" 1";"  2";" 50.00";"  5.443";"*Tx_1Ts_2_14";"1.964322e-02"
" 1";"  2";" 50.00";"  5.443";"*Tx_Ga_4_31";"1.964322e-02"
" 1";"  2";" 50.00";"  5.443";"*Tx_Ga_4_30";"1.964322e-02"
" 1";"  2";" 50.00";"  5.443";"*Tx_1Tm_6_10";"1.964322e-02"
" 1";"  2";" 50.00";"  5.443";"*Tx_1Ko_7_17";"1.964322e-02"
" 1";"  2";" 50.00";"  5.443";"*Tx_Kol_4_9";"1.964322e-02"
" 1";"  2";" 50.00";"  5.443";"*Tx_1Ko_16_15";"1.964322e-02"
" 1";"  2";" 50.00";"  5.443";"*Tx_1Ko_4_10";"1.964322e-02"
" 1";"  2";" 50.00";"  5.443";"*Tx_Erm_16_2";"1.964322e-02"
" 1";"  2";" 50.00";"  5.443";"*Tx_Erm_16_4";"1.964322e-02"
" 1";"  2";" 50.00";"  5.443";"*Tx_Flm_1_19";"1.964322e-02"
" 1";"  2";" 50.00";"  5.443";"*Tx_Erm_16_7";"1.964322e-02"
" 1";"  2";" 50.00";"  5.443";"*Tx_Flp_1_7";"1.964322e-02"
" 1";"  2";" 50.00";"  5.443";"*Tx_2Ko_11_9";"1.964322e-02"
" 1";"  2";" 50.00";"  5.443";"*Tx_Flp_4_17";"1.964322e-02"
" 1";"  2";" 50.00";"  5.443";"*Tx_Erm_13_9";"1.964322e-02"
" 1";"  2";" 50.00";"  5.443";"*Tx_2Ko_8_15";"1.964322e-02"
" 1";"  2";" 50.00";"  5.443";"*Tx_1Ko_15_3";"1.964322e-02"
" 1";"  2";" 50.00";"  5.443";"*Tx_Flp_4_3";"1.964322e-02"
" 1";"  2";" 50.00";"  5.443";"*Tx_1Ko_14_34";"1.964322e-02"
" 1";"  2";" 50.00";"  5.443";"*Tx_Ef_4_17";"1.964322e-02"
" 1";"  2";" 50.00";"  5.443";"*Tx_Kol_4_12";"1.964322e-02"
" 1";"  2";" 50.00";"  5.443";"*Tx_Ga_4_6";"1.964322e-02"
" 1";"  2";" 50.00";"  5.443";"*Tx_Ga_6_7";"1.964322e-02"
" 1";"  2";" 50.00";"  5.443";"*Tx_Ga_2_4";"1.964322e-02"
" 1";"  2";" 50.00";"  5.443";"*Tx_Flm_1_20";"1.964322e-02"
" 1";"  2";" 50.00";"  5.443";"*Tx_1Tm_5_13";"1.964322e-02"
" 1";"  2";" 50.00";"  5.443";"*Tx_Erm_11_17";"1.964322e-02"
" 1";"  2";" 50.00";"  5.443";"*Tx_Ga_4_17";"1.964322e-02"
" 1";"  2";" 50.00";"  5.443";"*Tx_Erm_11_18";"1.964322e-02"
" 1";"  2";" 50.00";"  5.443";"*Tx_2Ko_12_15";"1.964322e-02"
" 1";"  2";" 50.00";"  5.443";"*Tx_2Ko_12_17";"1.964322e-02"
" 1";"  2";" 50.00";"  5.443";"*Tx_2Ts_3_17";"1.964322e-02"
" 1";"  2";" 50.00";"  5.443";"*Tx_Tt_3_15";"1.964322e-02"
" 1";"  2";" 50.00";"  5.443";"*Tx_Erm_16_12";"1.964322e-02"
"13";"103";" 12.62";"  4.613";"*L_Kolosarrei";"3.172246e-02"
" 4";" 23";" 17.39";"  3.554";"*K_2Tm_1";"5.940595e-02"
" 1";"  3";" 33.33";"  3.041";"*Tx_1Ko_11_22";"8.118221e-02"
" 1";"  3";" 33.33";"  3.041";"*Tx_2Tm_1_8";"8.118221e-02"
" 1";"  3";" 33.33";"  3.041";"*Tx_1Ko_5_11";"8.118221e-02"
" 1";"  3";" 33.33";"  3.041";"*Tx_Erm_11_26";"8.118221e-02"
" 1";"  3";" 33.33";"  3.041";"*Tx_Erm_13_4";"8.118221e-02"
" 1";"  3";" 33.33";"  3.041";"*Tx_2Ko_12_18";"8.118221e-02"
" 6";" 43";" 13.95";"  2.927";"*K_1Ko_14";"8.709392e-02"
" 5";" 35";" 14.29";"  2.616";"*K_2Ko_1";"1.057759e-01"
" 4";" 28";" 14.29";"  2.087";"*K_2Tm_4";"1.485403e-01"
"**";"classe";"3";"**";"";""
"****";"32";"2553";"1.25";"****";""
"21";" 21";"100.00";"1668.128";"grazia";" 0.000000e+00"
" 8";"  8";"100.00";" 632.231";"biezazkizuete";"1.635198e-139"
" 5";"  6";" 83.33";" 327.360";"kristoren";" 3.612330e-73"
"14";" 46";" 30.43";" 322.288";"bake";" 4.597769e-72"
"13";" 48";" 27.08";" 263.699";"aita";" 2.680432e-59"
"20";"116";" 17.24";" 250.968";"jesu";" 1.597659e-56"
" 3";"  3";"100.00";" 236.622";"biezazkizute";" 2.144495e-53"
" 4";"  6";" 66.67";" 207.914";"mende";" 3.917727e-47"
" 3";"  4";" 75.00";" 176.037";"menda";" 3.554680e-40"
"21";"177";" 11.86";" 173.008";"kristu";" 1.629734e-39"
"19";"214";"  8.88";" 109.724";"jaun";" 1.126292e-25"
" 2";"  4";" 50.00";"  76.914";"guztiokin";" 1.785260e-18"
"12";"249";"  4.82";"  28.345";"eman";" 1.015219e-07"
" 3";" 22";" 13.64";"  27.492";"bedi";" 1.577400e-07"
" 1";"  3";" 33.33";"  24.973";"gizaldi";" 5.812814e-07"
" 1";"  3";" 33.33";"  24.973";"iraunkor";" 5.812814e-07"
" 1";"  3";" 33.33";"  24.973";"ikusezin";" 5.812814e-07"
" 1";"  3";" 33.33";"  24.973";"elkartasun";" 5.812814e-07"
" 1";"  3";" 33.33";"  24.973";"bedeinkatu";" 5.812814e-07"
" 2";" 13";" 15.38";"  21.081";"erruki";" 4.402118e-06"
" 1";"  4";" 25.00";"  18.252";"ohore";" 1.934749e-05"
" 1";"  4";" 25.00";"  18.252";"etortu";" 1.934749e-05"
" 1";"  6";" 16.67";"  11.544";"agintzariaren";" 6.798433e-04"
"16";"625";"  2.56";"  11.415";"jainko";" 7.285986e-04"
" 1";"  7";" 14.29";"   9.632";"abrahamen";" 1.912300e-03"
" 1";"  7";" 14.29";"   9.632";"errege";" 1.912300e-03"
" 1";"  7";" 14.29";"   9.632";"gurutu";" 1.912300e-03"
" 1";"  7";" 14.29";"   9.632";"bit";" 1.912300e-03"
" 1";"  8";" 12.50";"   8.201";"gaitz";" 4.186496e-03"
" 1";"  8";" 12.50";"   8.201";"oinordeko";" 4.186496e-03"
" 1";"  8";" 12.50";"   8.201";"salbatzaile";" 4.186496e-03"
" 2";" 31";"  6.45";"   6.851";"aintza";" 8.859494e-03"
" 1";" 10";" 10.00";"   6.205";"izaera";" 1.273722e-02"
" 1";" 11";"  9.09";"   5.483";"jende";" 1.920483e-02"
" 1";" 12";"  8.33";"   4.883";"ondorengo";" 2.712695e-02"
" 1";" 17";"  5.88";"   2.963";"balio";" 8.520483e-02"
"*****";"*";"*";"*";"*";"*"
"21";"243";" 8.64";"118.452";"gu";"1.380604e-27"
" 7";"116";" 6.03";" 22.443";"zu";"2.164804e-06"
" 1";"  7";"14.29";"  9.632";"bazarete";"1.912300e-03"
"*";"*";"*";"*";"*";"*"
"1";"  2";"50.00";"38.427";"*Tx_1Ko_15_23";"5.683834e-10"
"1";"  2";"50.00";"38.427";"*Tx_Tt_1_4";"5.683834e-10"
"1";"  2";"50.00";"38.427";"*Tx_Ga_5_6";"5.683834e-10"
"1";"  2";"50.00";"38.427";"*Tx_Erm_1_7";"5.683834e-10"
"1";"  2";"50.00";"38.427";"*Tx_Erm_9_5";"5.683834e-10"
"1";"  2";"50.00";"38.427";"*Tx_Ef_2_14";"5.683834e-10"
"1";"  2";"50.00";"38.427";"*Tx_Erm_16_20";"5.683834e-10"
"1";"  2";"50.00";"38.427";"*Tx_1Ts_5_3";"5.683834e-10"
"1";"  3";"33.33";"24.973";"*Tx_Erm_12_21";"5.812814e-07"
"2";" 22";" 9.09";"11.013";"*K_1Tm_1";"9.046569e-04"
"2";" 26";" 7.69";" 8.799";"*L_Filemoni";"3.014455e-03"
"2";" 26";" 7.69";" 8.799";"*K_Flm_1";"3.014455e-03"
"2";" 26";" 7.69";" 8.799";"*K_1Ts_5";"3.014455e-03"
"1";"  9";"11.11";" 7.091";"*K_Ef_1";"7.747391e-03"
"2";" 31";" 6.45";" 6.851";"*K_Flp_4";"8.859494e-03"
"2";" 36";" 5.56";" 5.460";"*K_Ga_5";"1.945343e-02"
"1";" 14";" 7.14";" 3.945";"*K_2Ts_1";"4.701226e-02"
"5";"206";" 2.43";" 2.494";"*L_Galaziarrei";"1.142627e-01"
"2";" 56";" 3.57";" 2.486";"*L_Tesalonikarrei2";"1.148945e-01"
"1";" 21";" 4.76";" 2.106";"*K_Tt_1";"1.467390e-01"
"1";" 21";" 4.76";" 2.106";"*K_2Ko_13";"1.467390e-01"
"**";"classe";"4";"**";"";""
"****";"69";"2553";"2.7";"****";""
"22";" 25";" 88.00";"698.530";"senar";"6.241702e-154"
"11";" 13";" 84.62";"333.399";"emazte";" 1.748207e-74"
"10";" 11";" 90.91";"326.865";"emaztu";" 4.629270e-73"
" 9";"  9";"100.00";"325.146";"hurko";" 1.096400e-72"
" 8";"  8";"100.00";"288.905";"moztu";" 8.611565e-65"
" 5";"  5";"100.00";"180.353";"hobe";" 4.057877e-41"
" 5";"  5";"100.00";"180.353";"jagokin";" 4.057877e-41"
" 5";"  5";"100.00";"180.353";"gizaseme";" 4.057877e-41"
"11";" 23";" 47.83";"179.706";"lagun";" 5.618602e-41"
" 8";" 14";" 57.14";"158.656";"maitatu";" 2.225154e-36"
"12";" 32";" 37.50";"149.218";"emakume";" 2.570315e-34"
" 4";"  4";"100.00";"144.226";"ile";" 3.170925e-33"
" 3";"  3";"100.00";"108.127";"zapuztu";" 2.520883e-25"
" 4";"  6";" 66.67";" 93.572";"berdin";" 3.917368e-22"
" 3";"  4";" 75.00";" 79.632";"txertatu";" 4.511267e-19"
" 3";"  4";" 75.00";" 79.632";"emazn";" 4.511267e-19"
" 2";"  3";" 66.67";" 46.731";"biezaio";" 8.143732e-12"
" 2";"  3";" 66.67";" 46.731";"banandu";" 8.143732e-12"
" 2";"  3";" 66.67";" 46.731";"mendeku";" 8.143732e-12"
" 2";"  3";" 66.67";" 46.731";"mait";" 8.143732e-12"
" 2";"  3";" 66.67";" 46.731";"luze";" 8.143732e-12"
" 2";"  3";" 66.67";" 46.731";"emakumeagandik";" 8.143732e-12"
" 2";"  3";" 66.67";" 46.731";"ardo";" 8.143732e-12"
" 3";"  7";" 42.86";" 43.039";"haur";" 5.366930e-11"
"12";" 86";" 13.95";" 42.840";"buru";" 5.941305e-11"
" 2";"  4";" 50.00";" 34.081";"adar";" 5.286017e-09"
" 3";"  9";" 33.33";" 32.225";"eitezi";" 1.373329e-08"
" 5";" 23";" 21.74";" 31.984";"dezala";" 1.554641e-08"
" 4";" 16";" 25.00";" 30.441";"elkartu";" 3.442161e-08"
" 2";"  5";" 40.00";" 26.502";"batasun";" 2.632786e-07"
" 5";" 28";" 17.86";" 24.725";"gizon";" 6.613672e-07"
" 4";" 19";" 21.05";" 24.511";"ezkondu";" 7.387276e-07"
" 2";"  6";" 33.33";" 21.458";"zentzudun";" 3.616947e-06"
" 2";"  6";" 33.33";" 21.458";"lotsagarri";" 3.616947e-06"
" 3";" 13";" 23.08";" 20.626";"bitarte";" 5.582109e-06"
" 3";" 15";" 20.00";" 17.168";"erabat";" 3.422358e-05"
" 3";" 17";" 17.65";" 14.535";"eliza";" 1.376021e-04"
" 4";" 32";" 12.50";" 11.829";"kristau";" 5.832090e-04"
" 2";" 10";" 20.00";" 11.423";"merezi";" 7.255924e-04"
"12";"184";"  6.52";" 10.998";"bezala";" 9.121224e-04"
" 1";"  3";" 33.33";" 10.716";"su";" 1.061960e-03"
" 1";"  3";" 33.33";" 10.716";"lizunkeria";" 1.061960e-03"
" 1";"  3";" 33.33";" 10.716";"iezaiekan";" 1.061960e-03"
" 1";"  3";" 33.33";" 10.716";"ohoragarri";" 1.061960e-03"
" 1";"  3";" 33.33";" 10.716";"neskatxa";" 1.061960e-03"
" 1";"  3";" 33.33";" 10.716";"jatorriz";" 1.061960e-03"
" 1";"  3";" 33.33";" 10.716";"izar";" 1.061960e-03"
" 1";"  3";" 33.33";" 10.716";"israeli";" 1.061960e-03"
" 1";"  3";" 33.33";" 10.716";"haserretu";" 1.061960e-03"
" 1";"  3";" 33.33";" 10.716";"egiteraino";" 1.061960e-03"
" 1";"  3";" 33.33";" 10.716";"deus";" 1.061960e-03"
" 1";"  3";" 33.33";" 10.716";"berezko";" 1.061960e-03"
" 1";"  3";" 33.33";" 10.716";"apaltasun";" 1.061960e-03"
" 1";"  3";" 33.33";" 10.716";"adulteriorik";" 1.061960e-03"
" 1";"  3";" 33.33";" 10.716";"adibidez";" 1.061960e-03"
" 4";" 35";" 11.43";" 10.275";"bakoitz";" 1.348456e-03"
" 2";" 12";" 16.67";"  8.940";"prest";" 2.789667e-03"
" 2";" 12";" 16.67";"  8.940";"lotu";" 2.789667e-03"
" 3";" 25";" 12.00";"  8.299";"duenak";" 3.966592e-03"
" 1";"  4";" 25.00";"  7.574";"aurkeztu";" 5.920415e-03"
" 1";"  4";" 25.00";"  7.574";"oztopo";" 5.920415e-03"
" 1";"  4";" 25.00";"  7.574";"ostu";" 5.920415e-03"
" 1";"  4";" 25.00";"  7.574";"jarraitzaile";" 5.920415e-03"
" 1";"  4";" 25.00";"  7.574";"ezkon";" 5.920415e-03"
" 1";"  4";" 25.00";"  7.574";"bezalaxe";" 5.920415e-03"
" 1";"  4";" 25.00";"  7.574";"aintzaren";" 5.920415e-03"
" 1";"  4";" 25.00";"  7.574";"agurgarri";" 5.920415e-03"
" 4";" 44";"  9.09";"  6.948";"menpe";" 8.391161e-03"
" 2";" 15";" 13.33";"  6.484";"zor";" 1.088256e-02"
" 1";"  5";" 20.00";"  5.700";"lagungarri";" 1.696441e-02"
" 1";"  5";" 20.00";"  5.700";"diet";" 1.696441e-02"
" 1";"  5";" 20.00";"  5.700";"sinesmenaga";" 1.696441e-02"
" 1";"  5";" 20.00";"  5.700";"neurritsu";" 1.696441e-02"
" 1";"  5";" 20.00";"  5.700";"hartzazue";" 1.696441e-02"
" 1";"  5";" 20.00";"  5.700";"estali";" 1.696441e-02"
" 1";"  5";" 20.00";"  5.700";"begirune";" 1.696441e-02"
" 2";" 17";" 11.76";"  5.344";"askatu";" 2.078880e-02"
" 2";" 18";" 11.11";"  4.874";"beza";" 2.726629e-02"
" 1";"  6";" 16.67";"  4.460";"distira";" 3.470654e-02"
" 1";"  6";" 16.67";"  4.460";"pentsatu";" 3.470654e-02"
" 1";"  6";" 16.67";"  4.460";"gazte";" 3.470654e-02"
" 1";"  6";" 16.67";"  4.460";"bazter";" 3.470654e-02"
" 1";"  6";" 16.67";"  4.460";"baikara";" 3.470654e-02"
" 1";"  6";" 16.67";"  4.460";"agintzariaren";" 3.470654e-02"
" 2";" 20";" 10.00";"  4.082";"heldu";" 4.334289e-02"
" 1";"  7";" 14.29";"  3.581";"nahasi";" 5.843524e-02"
" 1";"  7";" 14.29";"  3.581";"bit";" 5.843524e-02"
" 2";" 23";"  8.70";"  3.170";"bizitu";" 7.500880e-02"
" 1";"  8";" 12.50";"  2.929";"gaitz";" 8.698422e-02"
" 1";"  8";" 12.50";"  2.929";"jabe";" 8.698422e-02"
" 1";"  8";" 12.50";"  2.929";"salbatzaile";" 8.698422e-02"
" 1";"  8";" 12.50";"  2.929";"indarrez";" 8.698422e-02"
" 1";"  8";" 12.50";"  2.929";"gezur";" 8.698422e-02"
" 1";"  8";" 12.50";"  2.929";"dia";" 8.698422e-02"
" 1";"  8";" 12.50";"  2.929";"askoz";" 8.698422e-02"
" 3";" 44";"  6.82";"  2.884";"maite";" 8.948223e-02"
" 3";" 47";"  6.38";"  2.466";"agindu";" 1.163184e-01"
" 1";"  9";" 11.11";"  2.428";"sagaratu";" 1.191610e-01"
" 2";" 27";"  7.41";"  2.297";"atsegin";" 1.296304e-01"
" 1";" 10";" 10.00";"  2.033";"bilatu";" 1.539203e-01"
" 1";" 10";" 10.00";"  2.033";"zahar";" 1.539203e-01"
" 3";" 51";"  5.88";"  2.001";"horregatik";" 1.572212e-01"
"*****";"*";"*";"*";"*";"*"
"5";"40";"12.50";"14.833";"zeu";"0.000117456"
"1";" 4";"25.00";" 7.574";"ditzala";"0.005920415"
"1";" 4";"25.00";" 7.574";"bazaio";"0.005920415"
"1";" 5";"20.00";" 5.700";"norbera";"0.016964407"
"1";" 7";"14.29";" 3.581";"bazarete";"0.058435239"
"1";" 8";"12.50";" 2.929";"zaituztet";"0.086984225"
"*";"*";"*";"*";"*";"*"
"13";" 63";" 20.63";"78.988";"*K_1Ko_7";"6.248913e-19"
" 2";"  2";"100.00";"72.056";"*Tx_Ef_5_28";"2.091287e-17"
" 2";"  2";"100.00";"72.056";"*Tx_1Ko_7_11";"2.091287e-17"
" 2";"  2";"100.00";"72.056";"*Tx_1Ko_11_6";"2.091287e-17"
" 2";"  2";"100.00";"72.056";"*Tx_Erm_7_3";"2.091287e-17"
" 2";"  2";"100.00";"72.056";"*Tx_Erm_7_2";"2.091287e-17"
" 2";"  2";"100.00";"72.056";"*Tx_Ef_5_33";"2.091287e-17"
" 8";" 30";" 26.67";"66.294";"*K_Ef_5";"3.884736e-16"
" 2";"  3";" 66.67";"46.731";"*Tx_Erm_13_10";"8.143732e-12"
" 2";"  4";" 50.00";"34.081";"*Tx_1Ko_7_14";"5.286017e-09"
" 7";" 42";" 16.67";"31.664";"*K_1Ko_11";"1.832472e-08"
" 4";" 23";" 17.39";"19.042";"*K_Erm_13";"1.278509e-05"
" 1";"  2";" 50.00";"17.027";"*Tx_1Ko_7_12";"3.684762e-05"
" 1";"  2";" 50.00";"17.027";"*Tx_Ef_4_29";"3.684762e-05"
" 1";"  2";" 50.00";"17.027";"*Tx_Erm_3_1";"3.684762e-05"
" 1";"  2";" 50.00";"17.027";"*Tx_1Ko_7_34";"3.684762e-05"
" 1";"  2";" 50.00";"17.027";"*Tx_1Ko_15_39";"3.684762e-05"
" 1";"  2";" 50.00";"17.027";"*Tx_1Ko_7_39";"3.684762e-05"
" 1";"  2";" 50.00";"17.027";"*Tx_Ga_5_14";"3.684762e-05"
" 1";"  2";" 50.00";"17.027";"*Tx_Ga_5_15";"3.684762e-05"
" 1";"  2";" 50.00";"17.027";"*Tx_2Ko_1_11";"3.684762e-05"
" 1";"  2";" 50.00";"17.027";"*Tx_1Ko_7_9";"3.684762e-05"
" 1";"  2";" 50.00";"17.027";"*Tx_1Ko_5_1";"3.684762e-05"
" 1";"  2";" 50.00";"17.027";"*Tx_Erm_16_2";"3.684762e-05"
" 1";"  2";" 50.00";"17.027";"*Tx_1Ko_15_41";"3.684762e-05"
" 1";"  2";" 50.00";"17.027";"*Tx_Erm_11_20";"3.684762e-05"
" 1";"  2";" 50.00";"17.027";"*Tx_2Ko_11_2";"3.684762e-05"
" 1";"  2";" 50.00";"17.027";"*Tx_Erm_13_9";"3.684762e-05"
" 1";"  2";" 50.00";"17.027";"*Tx_Ga_4_23";"3.684762e-05"
" 1";"  2";" 50.00";"17.027";"*Tx_Erm_11_17";"3.684762e-05"
" 1";"  2";" 50.00";"17.027";"*Tx_Erm_11_18";"3.684762e-05"
" 6";" 57";" 10.53";"13.571";"*K_Erm_11";"2.297647e-04"
"10";"142";"  7.04";"10.768";"*L_Efesoarrei";"1.032736e-03"
" 1";"  3";" 33.33";"10.716";"*Tx_Erm_12_21";"1.061960e-03"
" 1";"  3";" 33.33";"10.716";"*Tx_Erm_11_22";"1.061960e-03"
" 1";"  3";" 33.33";"10.716";"*Tx_1Ko_14_20";"1.061960e-03"
" 1";"  3";" 33.33";"10.716";"*Tx_Erm_12_19";"1.061960e-03"
" 1";"  3";" 33.33";"10.716";"*Tx_Erm_14_5";"1.061960e-03"
" 4";" 36";" 11.11";" 9.817";"*K_Erm_7";"1.728640e-03"
" 2";" 13";" 15.38";" 7.992";"*K_Tt_2";"4.699622e-03"
"25";"573";"  4.36";" 7.745";"*L_Korintoarrei1";"5.386550e-03"
" 1";"  4";" 25.00";" 7.574";"*Tx_Ga_4_27";"5.920415e-03"
" 2";" 18";" 11.11";" 4.874";"*K_1Ko_5";"2.726629e-02"
" 3";" 36";"  8.33";" 4.402";"*K_Ga_5";"3.588932e-02"
"**";"classe";"5";"**";"";""
"****";"601";"2553";"23.54";"****";""
" 81";"102";" 79.41";"184.258";"lege";"5.700092e-42"
" 56";" 68";" 82.35";"134.250";"hil";"4.818327e-31"
" 45";" 48";" 93.75";"133.973";"piztu";"5.537670e-31"
" 45";" 49";" 91.84";"129.464";"liburu";"5.369002e-30"
" 57";" 74";" 77.03";"121.125";"bekatu";"3.587297e-28"
" 54";" 70";" 77.14";"114.889";"santu";"8.320815e-27"
" 55";" 85";" 64.71";" 82.780";"bide";"9.169827e-20"
" 31";" 37";" 83.78";" 75.701";"herri";"3.300792e-18"
" 22";" 24";" 91.67";" 62.472";"esklabo";"2.703081e-15"
" 20";" 21";" 95.24";" 60.472";"kristorekin";"7.461481e-15"
" 92";"201";" 45.77";" 59.902";"esan";"9.968062e-15"
" 16";" 16";"100.00";" 52.294";"honela";"4.777206e-13"
" 20";" 23";" 86.96";" 51.856";"hildako";"5.972924e-13"
" 40";" 71";" 56.34";" 43.644";"gorputz";"3.938634e-11"
" 15";" 17";" 88.24";" 39.795";"atal";"2.820373e-10"
" 21";" 29";" 72.41";" 38.926";"bakar";"4.401272e-10"
" 11";" 12";" 91.67";" 31.088";"libre";"2.465516e-08"
" 30";" 56";" 53.57";" 28.687";"onartu";"8.505106e-08"
" 10";" 11";" 90.91";" 27.856";"kendu";"1.306626e-07"
" 12";" 15";" 80.00";" 26.722";"begi";"2.349595e-07"
"  8";"  8";"100.00";" 26.065";"betetu";"3.301077e-07"
" 10";" 12";" 83.33";" 23.948";"ondorengo";"9.898020e-07"
" 12";" 16";" 75.00";" 23.688";"semealabak";"1.133088e-06"
" 11";" 14";" 78.57";" 23.685";"nagusi";"1.134732e-06"
" 25";" 47";" 53.19";" 23.387";"agindu";"1.324480e-06"
"  7";"  7";"100.00";" 22.798";"ordaindu";"1.799576e-06"
" 16";" 26";" 61.54";" 21.071";"deitu";"4.426672e-06"
" 22";" 42";" 52.38";" 19.733";"heriotza";"8.905297e-06"
"  6";"  6";"100.00";" 19.533";"zuzentzat";"9.885459e-06"
"  6";"  6";"100.00";" 19.533";"eskuratu";"9.885459e-06"
"  6";"  6";"100.00";" 19.533";"isuri";"9.885459e-06"
"  6";"  6";"100.00";" 19.533";"bataio";"9.885459e-06"
"  6";"  6";"100.00";" 19.533";"abraham";"9.885459e-06"
"187";"625";" 29.92";" 18.711";"jainko";"1.521418e-05"
"  7";"  8";" 87.50";" 18.239";"israel";"1.948325e-05"
"  8";" 10";" 80.00";" 17.779";"barkatu";"2.480432e-05"
"  8";" 10";" 80.00";" 17.779";"ondorio";"2.480432e-05"
" 18";" 34";" 52.94";" 16.548";"zuzen";"4.742896e-05"
"  5";"  5";"100.00";" 16.271";"begiratu";"5.488419e-05"
"  5";"  5";"100.00";" 16.271";"ospetsu";"5.488419e-05"
"  5";"  5";"100.00";" 16.271";"odol";"5.488419e-05"
"  5";"  5";"100.00";" 16.271";"erdaindu";"5.488419e-05"
"  5";"  5";"100.00";" 16.271";"baitzaituzte";"5.488419e-05"
"  5";"  5";"100.00";" 16.271";"atzerritar";"5.488419e-05"
"  5";"  5";"100.00";" 16.271";"agintzari";"5.488419e-05"
"  5";"  5";"100.00";" 16.271";"abrahamek";"5.488419e-05"
"  6";"  7";" 85.71";" 15.075";"abrahamen";"1.033434e-04"
"  6";"  7";" 85.71";" 15.075";"erdainkuntza";"1.033434e-04"
"  6";"  7";" 85.71";" 15.075";"goretsi";"1.033434e-04"
"  8";" 11";" 72.73";" 14.849";"moisesen";"1.164548e-04"
"  7";"  9";" 77.78";" 14.761";"balu";"1.220409e-04"
"  4";"  4";"100.00";" 13.012";"legami";"3.094900e-04"
"  4";"  4";"100.00";" 13.012";"zuzenetsi";"3.094900e-04"
"  4";"  4";"100.00";" 13.012";"zerikusi";"3.094900e-04"
"  4";"  4";"100.00";" 13.012";"kristogan";"3.094900e-04"
"  4";"  4";"100.00";" 13.012";"jesusekin";"3.094900e-04"
"  4";"  4";"100.00";" 13.012";"hilda";"3.094900e-04"
"  4";"  4";"100.00";" 13.012";"gintu";"3.094900e-04"
"  4";"  4";"100.00";" 13.012";"belarri";"3.094900e-04"
"  4";"  4";"100.00";" 13.012";"baliogabe";"3.094900e-04"
" 34";" 87";" 39.08";" 12.084";"horrela";"5.086454e-04"
"  5";"  6";" 83.33";" 11.946";"ipini";"5.477296e-04"
"  5";"  6";" 83.33";" 11.946";"distira";"5.477296e-04"
"  5";"  6";" 83.33";" 11.946";"bere";"5.477296e-04"
"  5";"  6";" 83.33";" 11.946";"antzeko";"5.477296e-04"
"  5";"  6";" 83.33";" 11.946";"axola";"5.477296e-04"
" 10";" 17";" 58.82";" 11.836";"askatu";"5.808461e-04"
"  6";"  8";" 75.00";" 11.807";"gaituela";"5.902169e-04"
"  6";"  8";" 75.00";" 11.807";"bataiatu";"5.902169e-04"
"  6";"  8";" 75.00";" 11.807";"gurega";"5.902169e-04"
" 57";"166";" 34.34";" 11.498";"bizi";"6.968021e-04"
" 20";" 45";" 44.44";" 11.120";"sinetsi";"8.538189e-04"
"  8";" 13";" 61.54";" 10.481";"israeldar";"1.205836e-03"
" 59";"177";" 33.33";" 10.132";"kristu";"1.457021e-03"
"  7";" 11";" 63.64";"  9.867";"itun";"1.682282e-03"
"  3";"  3";"100.00";"  9.755";"obeditu";"1.788139e-03"
"  3";"  3";"100.00";"  9.755";"sinesgogor";"1.788139e-03"
"  3";"  3";"100.00";"  9.755";"osatu";"1.788139e-03"
"  3";"  3";"100.00";"  9.755";"ore";"1.788139e-03"
"  3";"  3";"100.00";"  9.755";"israelen";"1.788139e-03"
"  3";"  3";"100.00";"  9.755";"eskuinalde";"1.788139e-03"
"  3";"  3";"100.00";"  9.755";"eseri";"1.788139e-03"
"  3";"  3";"100.00";"  9.755";"bekatuarentzat";"1.788139e-03"
" 14";" 30";" 46.67";"  9.020";"aldu";"2.670818e-03"
"  5";"  7";" 71.43";"  8.943";"zoriontsu";"2.785304e-03"
"  5";"  7";" 71.43";"  8.943";"gurutu";"2.785304e-03"
"  5";"  7";" 71.43";"  8.943";"bekata";"2.785304e-03"
"  4";"  5";" 80.00";"  8.872";"jatorri";"2.895304e-03"
"  4";"  5";" 80.00";"  8.872";"zia";"2.895304e-03"
"  4";"  5";" 80.00";"  8.872";"zaitu";"2.895304e-03"
"  4";"  5";" 80.00";"  8.872";"jadanik";"2.895304e-03"
"  4";"  5";" 80.00";"  8.872";"erdainduak";"2.895304e-03"
"  4";"  5";" 80.00";"  8.872";"abrahami";"2.895304e-03"
"  8";" 14";" 57.14";"  8.831";"benetako";"2.962157e-03"
"  7";" 12";" 58.33";"  8.109";"lotu";"4.405680e-03"
" 16";" 37";" 43.24";"  8.097";"bitart";"4.433884e-03"
" 10";" 20";" 50.00";"  7.840";"ezakan";"5.108935e-03"
"  6";" 10";" 60.00";"  7.414";"zahar";"6.471193e-03"
"  6";" 10";" 60.00";"  7.414";"kristorengan";"6.471193e-03"
"  9";" 18";" 50.00";"  7.051";"orduan";"7.922743e-03"
"  5";"  8";" 62.50";"  6.767";"legepe";"9.284153e-03"
"  5";"  8";" 62.50";"  6.767";"tenplu";"9.284153e-03"
"  5";"  8";" 62.50";"  6.767";"oinordeko";"9.284153e-03"
"  5";"  8";" 62.50";"  6.767";"dit";"9.284153e-03"
" 11";" 24";" 45.83";"  6.689";"hain";"9.699865e-03"
" 13";" 30";" 43.33";"  6.607";"gelditu";"1.015831e-02"
"  8";" 16";" 50.00";"  6.262";"elkartu";"1.233211e-02"
"  4";"  6";" 66.67";"  6.214";"zaudete";"1.267212e-02"
"  4";"  6";" 66.67";"  6.214";"horrexega";"1.267212e-02"
"  4";"  6";" 66.67";"  6.214";"hilik";"1.267212e-02"
"  4";"  6";" 66.67";"  6.214";"barruti";"1.267212e-02"
"  4";"  6";" 66.67";"  6.214";"baikara";"1.267212e-02"
"  4";"  6";" 66.67";"  6.214";"ahaltsu";"1.267212e-02"
"  4";"  6";" 66.67";"  6.214";"agintzariaren";"1.267212e-02"
"  3";"  4";" 75.00";"  5.894";"onginahiaren";"1.519232e-02"
"  3";"  4";" 75.00";"  5.894";"nizuena";"1.519232e-02"
"  3";"  4";" 75.00";"  5.894";"badabiltza";"1.519232e-02"
"  3";"  4";" 75.00";"  5.894";"aurpegi";"1.519232e-02"
"  3";"  4";" 75.00";"  5.894";"ahoz";"1.519232e-02"
" 30";" 89";" 33.71";"  5.296";"sinesmen";"2.137754e-02"
"  5";"  9";" 55.56";"  5.143";"sagaratu";"2.333967e-02"
"  6";" 12";" 50.00";"  4.689";"bila";"3.034800e-02"
"  6";" 12";" 50.00";"  4.689";"noski";"3.034800e-02"
"  4";"  7";" 57.14";"  4.403";"arau";"3.587205e-02"
"  4";"  7";" 57.14";"  4.403";"zaiteztela";"3.587205e-02"
"  4";"  7";" 57.14";"  4.403";"baliotsu";"3.587205e-02"
"  5";" 10";" 50.00";"  3.905";"gaitzetsi";"4.814782e-02"
"  6";" 13";" 46.15";"  3.712";"adimen";"5.401906e-02"
"  3";"  5";" 60.00";"  3.700";"seinale";"5.441854e-02"
"  3";"  5";" 60.00";"  3.700";"diet";"5.441854e-02"
"  3";"  5";" 60.00";"  3.700";"bedeinka";"5.441854e-02"
"  3";"  5";" 60.00";"  3.700";"zaretenez";"5.441854e-02"
"  3";"  5";" 60.00";"  3.700";"kanpo";"5.441854e-02"
"  3";"  5";" 60.00";"  3.700";"janari";"5.441854e-02"
"  3";"  5";" 60.00";"  3.700";"gaitzespen";"5.441854e-02"
" 37";"121";" 30.58";"  3.495";"espiritu";"6.154858e-02"
"  4";"  8";" 50.00";"  3.121";"bereizi";"7.727037e-02"
"  2";"  3";" 66.67";"  3.104";"zorakeri";"7.812400e-02"
"  2";"  3";" 66.67";"  3.104";"neuregan";"7.812400e-02"
"  2";"  3";" 66.67";"  3.104";"gisa";"7.812400e-02"
"  2";"  3";" 66.67";"  3.104";"gidatu";"7.812400e-02"
"  2";"  3";" 66.67";"  3.104";"faltsu";"7.812400e-02"
"  2";"  3";" 66.67";"  3.104";"aldare";"7.812400e-02"
"  2";"  3";" 66.67";"  3.104";"ustelkor";"7.812400e-02"
"  2";"  3";" 66.67";"  3.104";"ustelezin";"7.812400e-02"
"  2";"  3";" 66.67";"  3.104";"ukaikan";"7.812400e-02"
"  2";"  3";" 66.67";"  3.104";"sabela";"7.812400e-02"
"  2";"  3";" 66.67";"  3.104";"moisesek";"7.812400e-02"
"  2";"  3";" 66.67";"  3.104";"luzatu";"7.812400e-02"
"  2";"  3";" 66.67";"  3.104";"luzaroan";"7.812400e-02"
"  2";"  3";" 66.67";"  3.104";"lurralde";"7.812400e-02"
"  2";"  3";" 66.67";"  3.104";"joko";"7.812400e-02"
"  2";"  3";" 66.67";"  3.104";"izkitu";"7.812400e-02"
"  2";"  3";" 66.67";"  3.104";"israeli";"7.812400e-02"
"  2";"  3";" 66.67";"  3.104";"iragankor";"7.812400e-02"
"  2";"  3";" 66.67";"  3.104";"ilundu";"7.812400e-02"
"  2";"  3";" 66.67";"  3.104";"gizonemakumeek";"7.812400e-02"
"  2";"  3";" 66.67";"  3.104";"espirituzkoa";"7.812400e-02"
"  2";"  3";" 66.67";"  3.104";"eraginpe";"7.812400e-02"
"  2";"  3";" 66.67";"  3.104";"egintzengatik";"7.812400e-02"
"  2";"  3";" 66.67";"  3.104";"bizkar";"7.812400e-02"
"  2";"  3";" 66.67";"  3.104";"bedeinkazio";"7.812400e-02"
"  2";"  3";" 66.67";"  3.104";"batu";"7.812400e-02"
"  2";"  3";" 66.67";"  3.104";"altxatu";"7.812400e-02"
"  8";" 20";" 40.00";"  3.034";"aukeratu";"8.154104e-02"
"  8";" 20";" 40.00";"  3.034";"betiko";"8.154104e-02"
"  5";" 11";" 45.45";"  2.947";"digu";"8.601432e-02"
" 12";" 34";" 35.29";"  2.645";"salbatu";"1.039023e-01"
" 52";"184";" 28.26";"  2.454";"bezala";"1.172052e-01"
"  3";"  6";" 50.00";"  2.339";"oparo";"1.261534e-01"
" 28";" 93";" 30.11";"  2.312";"bete";"1.283618e-01"
" 34";"116";" 29.31";"  2.247";"jesu";"1.338465e-01"
"  4";"  9";" 44.44";"  2.193";"direneitu";"1.386738e-01"
"  4";"  9";" 44.44";"  2.193";"bizirik";"1.386738e-01"
"*****";"*";"*";"*";"*";"*"
"  3";"   3";"100.00";"9.755";"zaiteu";"0.001788139"
"353";"1360";" 25.96";"9.430";"izan";"0.002134611"
" 12";"  24";" 50.00";"9.423";"gaitu";"0.002142288"
"  4";"   7";" 57.14";"4.403";"zigun";"0.035872052"
"  4";"   7";" 57.14";"4.403";"bazarete";"0.035872052"
"  4";"   8";" 50.00";"3.121";"ukrenentzan";"0.077270366"
"  7";"  18";" 38.89";"2.372";"zaituzte";"0.123494504"
"*";"*";"*";"*";"*";"*"
"231";"621";" 37.20";"85.036";"*L_Erromatarrei";"2.930096e-20"
" 33";" 40";" 82.50";"78.481";"*K_Erm_4";"8.075403e-19"
" 31";" 45";" 68.89";"52.336";"*K_Ga_3";"4.677768e-13"
" 23";" 32";" 71.88";"42.061";"*K_Erm_5";"8.845965e-11"
" 21";" 30";" 70.00";"36.404";"*K_Erm_6";"1.604149e-09"
" 23";" 36";" 63.89";"33.026";"*K_Erm_7";"9.091843e-09"
" 34";" 74";" 45.95";"21.254";"*K_1Ko_15";"4.022382e-06"
" 21";" 40";" 52.50";"18.934";"*K_1Ko_12";"1.353427e-05"
"  5";"  5";"100.00";"16.271";"*Tx_Erm_4_17";"5.488419e-05"
" 72";"206";" 34.95";"16.209";"*L_Galaziarrei";"5.671588e-05"
" 14";" 29";" 48.28";" 9.971";"*K_1Ko_6";"1.590460e-03"
"  3";"  3";"100.00";" 9.755";"*Tx_Ga_3_9";"1.788139e-03"
"  3";"  3";"100.00";" 9.755";"*Tx_Erm_4_18";"1.788139e-03"
"  3";"  3";"100.00";" 9.755";"*Tx_Erm_10_21";"1.788139e-03"
"  3";"  3";"100.00";" 9.755";"*Tx_Ga_3_10";"1.788139e-03"
"  3";"  3";"100.00";" 9.755";"*Tx_Erm_4_11";"1.788139e-03"
"  3";"  3";"100.00";" 9.755";"*Tx_Erm_4_6";"1.788139e-03"
"  3";"  3";"100.00";" 9.755";"*Tx_Erm_5_16";"1.788139e-03"
"  3";"  3";"100.00";" 9.755";"*Tx_Erm_11_8";"1.788139e-03"
"  3";"  3";"100.00";" 9.755";"*Tx_Ga_2_16";"1.788139e-03"
"  3";"  3";"100.00";" 9.755";"*Tx_Erm_14_11";"1.788139e-03"
"  3";"  3";"100.00";" 9.755";"*Tx_Erm_8_15";"1.788139e-03"
"  3";"  3";"100.00";" 9.755";"*Tx_Flp_3_5";"1.788139e-03"
"  3";"  3";"100.00";" 9.755";"*Tx_Erm_6_16";"1.788139e-03"
"  4";"  5";" 80.00";" 8.872";"*Tx_Ga_3_12";"2.895304e-03"
" 20";" 50";" 40.00";" 7.676";"*K_Erm_8";"5.596949e-03"
" 16";" 38";" 42.11";" 7.386";"*K_Erm_2";"6.573782e-03"
" 12";" 27";" 44.44";" 6.625";"*K_Ef_2";"1.005733e-02"
"  2";"  2";"100.00";" 6.501";"*Tx_1Ko_15_29";"1.078179e-02"
"  2";"  2";"100.00";" 6.501";"*Tx_Erm_2_12";"1.078179e-02"
"  2";"  2";"100.00";" 6.501";"*Tx_Erm_4_13";"1.078179e-02"
"  2";"  2";"100.00";" 6.501";"*Tx_1Ko_7_15";"1.078179e-02"
"  2";"  2";"100.00";" 6.501";"*Tx_2Ko_2_10";"1.078179e-02"
"  2";"  2";"100.00";" 6.501";"*Tx_1Ko_12_12";"1.078179e-02"
"  2";"  2";"100.00";" 6.501";"*Tx_1Ko_12_17";"1.078179e-02"
"  2";"  2";"100.00";" 6.501";"*Tx_Erm_5_8";"1.078179e-02"
"  2";"  2";"100.00";" 6.501";"*Tx_Kol_2_11";"1.078179e-02"
"  2";"  2";"100.00";" 6.501";"*Tx_Erm_7_8";"1.078179e-02"
"  2";"  2";"100.00";" 6.501";"*Tx_Erm_7_6";"1.078179e-02"
"  2";"  2";"100.00";" 6.501";"*Tx_Erm_9_7";"1.078179e-02"
"  2";"  2";"100.00";" 6.501";"*Tx_Erm_9_4";"1.078179e-02"
"  2";"  2";"100.00";" 6.501";"*Tx_Ga_3_16";"1.078179e-02"
"  2";"  2";"100.00";" 6.501";"*Tx_Ga_3_18";"1.078179e-02"
"  2";"  2";"100.00";" 6.501";"*Tx_Ef_2_12";"1.078179e-02"
"  2";"  2";"100.00";" 6.501";"*Tx_1Ko_6_18";"1.078179e-02"
"  2";"  2";"100.00";" 6.501";"*Tx_Erm_4_22";"1.078179e-02"
"  2";"  2";"100.00";" 6.501";"*Tx_Erm_4_3";"1.078179e-02"
"  2";"  2";"100.00";" 6.501";"*Tx_1Ko_10_16";"1.078179e-02"
"  2";"  2";"100.00";" 6.501";"*Tx_Erm_15_11";"1.078179e-02"
"  2";"  2";"100.00";" 6.501";"*Tx_1Ko_12_26";"1.078179e-02"
"  2";"  2";"100.00";" 6.501";"*Tx_Erm_7_10";"1.078179e-02"
"  2";"  2";"100.00";" 6.501";"*Tx_Erm_8_30";"1.078179e-02"
"  2";"  2";"100.00";" 6.501";"*Tx_Erm_5_13";"1.078179e-02"
"  2";"  2";"100.00";" 6.501";"*Tx_Erm_5_12";"1.078179e-02"
"  2";"  2";"100.00";" 6.501";"*Tx_1Ko_6_15";"1.078179e-02"
"  2";"  2";"100.00";" 6.501";"*Tx_Ga_4_21";"1.078179e-02"
"  2";"  2";"100.00";" 6.501";"*Tx_2Ts_2_14";"1.078179e-02"
"  2";"  2";"100.00";" 6.501";"*Tx_1Ko_10_7";"1.078179e-02"
"  2";"  2";"100.00";" 6.501";"*Tx_Erm_7_25";"1.078179e-02"
"  2";"  2";"100.00";" 6.501";"*Tx_1Ko_15_42";"1.078179e-02"
"  2";"  2";"100.00";" 6.501";"*Tx_1Ko_15_44";"1.078179e-02"
"  2";"  2";"100.00";" 6.501";"*Tx_1Ko_6_20";"1.078179e-02"
"  2";"  2";"100.00";" 6.501";"*Tx_Erm_11_2";"1.078179e-02"
"  2";"  2";"100.00";" 6.501";"*Tx_Erm_11_1";"1.078179e-02"
"  2";"  2";"100.00";" 6.501";"*Tx_Kol_2_13";"1.078179e-02"
"  2";"  2";"100.00";" 6.501";"*Tx_Erm_3_20";"1.078179e-02"
"  2";"  2";"100.00";" 6.501";"*Tx_2Tm_3_15";"1.078179e-02"
"  2";"  2";"100.00";" 6.501";"*Tx_2Ko_1_20";"1.078179e-02"
"  2";"  2";"100.00";" 6.501";"*Tx_1Ko_15_15";"1.078179e-02"
"  2";"  2";"100.00";" 6.501";"*Tx_Erm_2_25";"1.078179e-02"
"  2";"  2";"100.00";" 6.501";"*Tx_Erm_2_24";"1.078179e-02"
"  2";"  2";"100.00";" 6.501";"*Tx_Erm_2_28";"1.078179e-02"
"  2";"  2";"100.00";" 6.501";"*Tx_1Ko_14_21";"1.078179e-02"
"  2";"  2";"100.00";" 6.501";"*Tx_Ga_4_22";"1.078179e-02"
"  2";"  2";"100.00";" 6.501";"*Tx_Ga_2_17";"1.078179e-02"
"  2";"  2";"100.00";" 6.501";"*Tx_1Ko_7_23";"1.078179e-02"
"  2";"  2";"100.00";" 6.501";"*Tx_Erm_8_34";"1.078179e-02"
"  2";"  2";"100.00";" 6.501";"*Tx_Erm_5_20";"1.078179e-02"
"  2";"  2";"100.00";" 6.501";"*Tx_Kol_3_11";"1.078179e-02"
"  2";"  2";"100.00";" 6.501";"*Tx_Kol_3_13";"1.078179e-02"
"  2";"  2";"100.00";" 6.501";"*Tx_Erm_5_15";"1.078179e-02"
"  2";"  2";"100.00";" 6.501";"*Tx_Erm_10_5";"1.078179e-02"
"  2";"  2";"100.00";" 6.501";"*Tx_Erm_8_17";"1.078179e-02"
"  2";"  2";"100.00";" 6.501";"*Tx_Erm_14_9";"1.078179e-02"
"  2";"  2";"100.00";" 6.501";"*Tx_Ga_6_14";"1.078179e-02"
"  2";"  2";"100.00";" 6.501";"*Tx_Ga_6_13";"1.078179e-02"
"  2";"  2";"100.00";" 6.501";"*Tx_1Ko_15_52";"1.078179e-02"
"  2";"  2";"100.00";" 6.501";"*Tx_Erm_11_11";"1.078179e-02"
"  2";"  2";"100.00";" 6.501";"*Tx_Erm_11_3";"1.078179e-02"
"  2";"  2";"100.00";" 6.501";"*Tx_Erm_3_31";"1.078179e-02"
"  3";"  4";" 75.00";" 5.894";"*Tx_2Ko_6_16";"1.519232e-02"
" 21";" 57";" 36.84";" 5.731";"*K_Erm_11";"1.667076e-02"
" 12";" 32";" 37.50";" 3.508";"*K_Ga_2";"6.106464e-02"
" 14";" 39";" 35.90";" 3.360";"*K_Erm_3";"6.681394e-02"
"  1";"  1";"100.00";" 3.249";"*Tx_Ga_3_1";"7.145864e-02"
"  1";"  1";"100.00";" 3.249";"*Tx_1Tm_2_14";"7.145864e-02"
"  1";"  1";"100.00";" 3.249";"*Tx_Erm_7_14";"7.145864e-02"
"  1";"  1";"100.00";" 3.249";"*Tx_1Ko_7_18";"7.145864e-02"
"  1";"  1";"100.00";" 3.249";"*Tx_1Ko_6_11";"7.145864e-02"
"  1";"  1";"100.00";" 3.249";"*Tx_1Ko_15_43";"7.145864e-02"
"  1";"  1";"100.00";" 3.249";"*Tx_1Ko_15_45";"7.145864e-02"
"  1";"  1";"100.00";" 3.249";"*Tx_Erm_6_21";"7.145864e-02"
"  1";"  1";"100.00";" 3.249";"*Tx_1Ko_7_19";"7.145864e-02"
"  1";"  1";"100.00";" 3.249";"*Tx_Ef_3_5";"7.145864e-02"
"  1";"  1";"100.00";" 3.249";"*Tx_Ef_3_6";"7.145864e-02"
"  2";"  3";" 66.67";" 3.104";"*Tx_Ga_3_8";"7.812400e-02"
"  2";"  3";" 66.67";" 3.104";"*Tx_Erm_4_12";"7.812400e-02"
"  2";"  3";" 66.67";" 3.104";"*Tx_1Ko_11_25";"7.812400e-02"
"  2";"  3";" 66.67";" 3.104";"*Tx_Erm_7_7";"7.812400e-02"
"  2";"  3";" 66.67";" 3.104";"*Tx_1Ko_9_10";"7.812400e-02"
"  2";"  3";" 66.67";" 3.104";"*Tx_Erm_7_13";"7.812400e-02"
"  2";"  3";" 66.67";" 3.104";"*Tx_Erm_9_27";"7.812400e-02"
"  2";"  3";" 66.67";" 3.104";"*Tx_1Ko_6_13";"7.812400e-02"
"  2";"  3";" 66.67";" 3.104";"*Tx_Erm_11_26";"7.812400e-02"
"  2";"  3";" 66.67";" 3.104";"*Tx_Erm_3_29";"7.812400e-02"
"  2";"  3";" 66.67";" 3.104";"*Tx_Erm_15_9";"7.812400e-02"
"  2";"  3";" 66.67";" 3.104";"*Tx_1Ko_7_28";"7.812400e-02"
"  2";"  3";" 66.67";" 3.104";"*Tx_Erm_14_8";"7.812400e-02"
" 13";" 37";" 35.14";" 2.804";"*K_Erm_10";"9.403210e-02"
" 10";" 27";" 37.04";" 2.762";"*K_Flp_3";"9.655751e-02"
" 10";" 27";" 37.04";" 2.762";"*K_Kol_2";"9.655751e-02"
"  8";" 21";" 38.10";" 2.492";"*K_2Ko_3";"1.144309e-01"
"**";"classe";"6";"**";"";""
"****";"44";"2553";"1.72";"****";""
"12";"13";" 92.31";"633.015";"edan";"1.104359e-139"
"16";"32";" 50.00";"445.911";"jan";" 5.596823e-99"
" 6";" 6";"100.00";"342.942";"sasijainkoei";" 1.459115e-76"
" 7";"12";" 58.33";"228.118";"haragi";" 1.533663e-51"
" 6";" 9";" 66.67";"224.901";"gose";" 7.715092e-51"
" 8";"18";" 44.44";"195.333";"eskaini";" 2.179153e-44"
" 4";" 5";" 80.00";"181.231";"emaitza";" 2.609819e-41"
" 5";" 9";" 55.56";"154.528";"opari";" 1.775630e-35"
" 5";" 9";" 55.56";"154.528";"jai";" 1.775630e-35"
" 4";" 7";" 57.14";"127.281";"ogi";" 1.612778e-29"
" 4";" 7";" 57.14";"127.281";"kopa";" 1.612778e-29"
" 3";" 6";" 50.00";" 82.755";"arrisku";" 9.288599e-20"
" 3";" 9";" 33.33";" 53.281";"errudun";" 2.891328e-13"
" 4";"16";" 25.00";" 51.503";"irabazi";" 7.147549e-13"
" 2";" 5";" 40.00";" 43.335";"dituzun";" 4.613487e-11"
" 3";"13";" 23.08";" 35.176";"jantzi";" 3.012277e-09"
" 2";" 8";" 25.00";" 25.671";"eskuzabaltasun";" 4.049242e-07"
" 3";"21";" 14.29";" 19.728";"kontzientzia";" 8.926953e-06"
" 1";" 3";" 33.33";" 17.718";"ur";" 2.561309e-05"
" 1";" 3";" 33.33";" 17.718";"zori";" 2.561309e-05"
" 1";" 3";" 33.33";" 17.718";"zabarkeri";" 2.561309e-05"
" 1";" 3";" 33.33";" 17.718";"nolanahi";" 2.561309e-05"
" 1";" 3";" 33.33";" 17.718";"lasterka";" 2.561309e-05"
" 1";" 3";" 33.33";" 17.718";"hutsik";" 2.561309e-05"
" 1";" 3";" 33.33";" 17.718";"gabiltza";" 2.561309e-05"
" 1";" 3";" 33.33";" 17.718";"espirituzkoa";" 2.561309e-05"
" 1";" 3";" 33.33";" 17.718";"erorbide";" 2.561309e-05"
" 1";" 3";" 33.33";" 17.718";"dezakeela";" 2.561309e-05"
" 1";" 3";" 33.33";" 17.718";"bultzatu";" 2.561309e-05"
" 1";" 3";" 33.33";" 17.718";"aski";" 2.561309e-05"
" 1";" 3";" 33.33";" 17.718";"ardozale";" 2.561309e-05"
" 1";" 3";" 33.33";" 17.718";"ardo";" 2.561309e-05"
" 1";" 4";" 25.00";" 12.815";"otordu";" 3.438113e-04"
" 1";" 4";" 25.00";" 12.815";"eran";" 3.438113e-04"
" 3";"32";"  9.38";" 11.201";"bihurtu";" 8.173411e-04"
" 1";" 5";" 20.00";"  9.880";"oin";" 1.670837e-03"
" 1";" 5";" 20.00";"  9.880";"gaitzespen";" 1.670837e-03"
" 1";" 5";" 20.00";"  9.880";"errespetu";" 1.670837e-03"
" 1";" 5";" 20.00";"  9.880";"erasoaldi";" 1.670837e-03"
" 2";"18";" 11.11";"  9.432";"etsai";" 2.132228e-03"
" 1";" 6";" 16.67";"  7.929";"oparo";" 4.865336e-03"
" 1";" 6";" 16.67";"  7.929";"larri";" 4.865336e-03"
" 2";"21";"  9.52";"  7.606";"eduki";" 5.815958e-03"
" 2";"21";"  9.52";"  7.606";"kontu";" 5.815958e-03"
" 1";" 7";" 14.29";"  6.540";"sentitu";" 1.054789e-02"
" 1";" 7";" 14.29";"  6.540";"iragarri";" 1.054789e-02"
" 1";" 7";" 14.29";"  6.540";"inoiz";" 1.054789e-02"
" 2";"30";"  6.67";"  4.379";"duzu";" 3.637460e-02"
" 1";"10";" 10.00";"  4.060";"irudi";" 4.390465e-02"
" 1";"11";"  9.09";"  3.540";"aztertu";" 5.989164e-02"
" 1";"11";"  9.09";"  3.540";"zuen";" 5.989164e-02"
" 1";"11";"  9.09";"  3.540";"kontra";" 5.989164e-02"
" 2";"35";"  5.71";"  3.337";"bakoitz";" 6.774428e-02"
" 1";"12";"  8.33";"  3.110";"prest";" 7.781254e-02"
" 1";"12";"  8.33";"  3.110";"noski";" 7.781254e-02"
" 1";"13";"  7.69";"  2.748";"dizue";" 9.734817e-02"
" 1";"13";"  7.69";"  2.748";"oker";" 9.734817e-02"
" 1";"13";"  7.69";"  2.748";"jokabide";" 9.734817e-02"
" 1";"13";"  7.69";"  2.748";"bitarte";" 9.734817e-02"
" 1";"14";"  7.14";"  2.441";"etengabe";" 1.182016e-01"
" 2";"43";"  4.65";"  2.213";"etorri";" 1.368227e-01"
" 1";"15";"  6.67";"  2.177";"zor";" 1.401067e-01"
"*****";"*";"*";"*";"*";"*"
"3";"10";"30.00";"47.392";"egizue";"5.811887e-12"
"1";" 3";"33.33";"17.718";"izaizkn";"2.561309e-05"
"1";" 4";"25.00";"12.815";"bazaio";"3.438113e-04"
"1";"13";" 7.69";" 2.748";"beraiek";"9.734817e-02"
"1";"15";" 6.67";" 2.177";"zerbait";"1.401067e-01"
"*";"*";"*";"*";"*";"*"
" 8";" 41";" 19.51";"77.849";"*K_1Ko_10";"1.112234e-18"
" 5";" 18";" 27.78";"72.653";"*K_1Ko_8";"1.545793e-17"
" 1";"  1";"100.00";"57.045";"*Tx_Erm_12_20";"4.259375e-14"
" 7";" 42";" 16.67";"56.298";"*K_1Ko_11";"6.229446e-14"
"26";"573";"  4.54";"34.543";"*L_Korintoarrei1";"4.170242e-09"
" 1";"  2";" 50.00";"27.542";"*Tx_Tt_1_7";"1.537431e-07"
" 1";"  2";" 50.00";"27.542";"*Tx_1Ko_10_20";"1.537431e-07"
" 1";"  2";" 50.00";"27.542";"*Tx_1Ko_10_21";"1.537431e-07"
" 1";"  2";" 50.00";"27.542";"*Tx_1Ko_9_24";"1.537431e-07"
" 1";"  2";" 50.00";"27.542";"*Tx_2Tm_4_6";"1.537431e-07"
" 1";"  2";" 50.00";"27.542";"*Tx_1Ko_8_7";"1.537431e-07"
" 1";"  2";" 50.00";"27.542";"*Tx_1Ko_8_4";"1.537431e-07"
" 1";"  2";" 50.00";"27.542";"*Tx_2Ko_9_5";"1.537431e-07"
" 1";"  2";" 50.00";"27.542";"*Tx_1Ko_10_18";"1.537431e-07"
" 1";"  2";" 50.00";"27.542";"*Tx_Erm_8_35";"1.537431e-07"
" 1";"  2";" 50.00";"27.542";"*Tx_2Ko_11_27";"1.537431e-07"
" 1";"  2";" 50.00";"27.542";"*Tx_1Ko_5_7";"1.537431e-07"
" 1";"  2";" 50.00";"27.542";"*Tx_1Ko_9_25";"1.537431e-07"
" 1";"  2";" 50.00";"27.542";"*Tx_2Ts_3_8";"1.537431e-07"
" 1";"  2";" 50.00";"27.542";"*Tx_2Ko_11_26";"1.537431e-07"
" 1";"  2";" 50.00";"27.542";"*Tx_Ef_2_8";"1.537431e-07"
" 1";"  2";" 50.00";"27.542";"*Tx_2Ts_3_12";"1.537431e-07"
" 1";"  2";" 50.00";"27.542";"*Tx_Erm_14_2";"1.537431e-07"
" 1";"  3";" 33.33";"17.718";"*Tx_Erm_12_21";"2.561309e-05"
" 1";"  3";" 33.33";"17.718";"*Tx_1Ko_11_25";"2.561309e-05"
" 1";"  3";" 33.33";"17.718";"*Tx_1Ko_11_22";"2.561309e-05"
" 1";"  3";" 33.33";"17.718";"*Tx_Flp_4_18";"2.561309e-05"
" 1";"  3";" 33.33";"17.718";"*Tx_Flp_4_12";"2.561309e-05"
" 1";"  3";" 33.33";"17.718";"*Tx_1Ko_8_1";"2.561309e-05"
" 1";"  3";" 33.33";"17.718";"*Tx_1Ko_9_7";"2.561309e-05"
" 2";" 17";" 11.76";"10.188";"*K_2Ko_9";"1.413848e-03"
" 3";" 45";"  6.67";" 6.608";"*K_1Ko_9";"1.014946e-02"
" 2";" 24";"  8.33";" 6.250";"*K_2Ts_3";"1.242262e-02"
" 2";" 26";"  7.69";" 5.525";"*K_1Tm_5";"1.874448e-02"
" 2";" 31";"  6.45";" 4.142";"*K_Flp_4";"4.183451e-02"
" 2";" 33";"  6.06";" 3.713";"*K_Erm_12";"5.399162e-02"
" 2";" 39";"  5.13";" 2.711";"*K_2Ko_11";"9.968288e-02"
"**";"classe";"7";"**";"";""
"****";"763";"2553";"29.89";"****";""
" 52";"  61";" 85.25";"91.399";"giza";"1.174427e-21"
" 50";"  67";" 74.63";"65.728";"ote";"5.176925e-16"
" 76";" 122";" 62.30";"64.220";"behar";"1.112570e-15"
" 56";"  86";" 65.12";"52.714";"buru";"3.858236e-13"
" 51";"  82";" 62.20";"42.204";"gauza";"8.222468e-11"
"406";"1127";" 36.02";"36.282";"ukan";"1.707072e-09"
" 36";"  54";" 66.67";"35.615";"jarri";"2.404393e-09"
" 14";"  14";"100.00";"33.025";"gaizki";"9.097496e-09"
" 17";"  19";" 89.47";"32.436";"grina";"1.231754e-08"
" 23";"  30";" 76.67";"31.703";"jokatu";"1.796191e-08"
" 40";"  66";" 60.61";"30.512";"mundu";"3.317483e-08"
" 29";"  44";" 65.91";"27.725";"menpe";"1.398094e-07"
" 44";"  79";" 55.70";"25.916";"gabe";"3.565638e-07"
" 12";"  13";" 92.31";"24.297";"zoro";"8.257414e-07"
" 12";"  13";" 92.31";"24.297";"oker";"8.257414e-07"
" 26";"  40";" 65.00";"23.911";"irakatsi";"1.009076e-06"
" 13";"  15";" 86.67";"23.215";"beldur";"1.448607e-06"
" 16";"  21";" 76.19";"21.666";"kontu";"3.245762e-06"
" 20";"  29";" 68.97";"21.378";"uste";"3.770175e-06"
" 19";"  27";" 70.37";"21.344";"ezarri";"3.838644e-06"
" 19";"  27";" 70.37";"21.344";"ezin";"3.838644e-06"
" 13";"  16";" 81.25";"20.271";"lur";"6.719527e-06"
" 39";"  73";" 53.42";"19.870";"egia";"8.289788e-06"
" 10";"  11";" 90.91";"19.632";"gaizto";"9.386123e-06"
" 10";"  11";" 90.91";"19.632";"eztabaida";"9.386123e-06"
" 16";"  22";" 72.73";"19.437";"atera";"1.039911e-05"
" 11";"  13";" 84.62";"18.678";"txar";"1.547969e-05"
" 11";"  13";" 84.62";"18.678";"askatasun";"1.547969e-05"
" 23";"  37";" 62.16";"18.665";"jarraitu";"1.558490e-05"
" 23";"  37";" 62.16";"18.665";"huts";"1.558490e-05"
" 18";"  27";" 66.67";"17.617";"ibili";"2.701458e-05"
" 14";"  19";" 73.68";"17.524";"horrelako";"2.837444e-05"
"  9";"  10";" 90.00";"17.313";"zergatik";"3.170004e-05"
"  9";"  10";" 90.00";"17.313";"jaso";"3.170004e-05"
" 22";"  36";" 61.11";"16.990";"harrotu";"3.757921e-05"
" 36";"  69";" 52.17";"16.811";"hitz";"4.129179e-05"
"  7";"   7";"100.00";"16.467";"kondenatu";"4.949985e-05"
"  7";"   7";"100.00";"16.467";"aipatu";"4.949985e-05"
" 10";"  12";" 83.33";"16.436";"jentila";"5.031966e-05"
" 67";" 151";" 44.37";"16.069";"nahi";"6.108269e-05"
" 12";"  16";" 75.00";"15.638";"bizitza";"7.668605e-05"
" 14";"  20";" 70.00";"15.479";"epai";"8.341145e-05"
"  8";"   9";" 88.89";"15.005";"errebelde";"1.072172e-04"
"  8";"   9";" 88.89";"15.005";"agintari";"1.072172e-04"
"  9";"  11";" 81.82";"14.219";"baliatu";"1.627496e-04"
"  9";"  11";" 81.82";"14.219";"gogor";"1.627496e-04"
"  6";"   6";"100.00";"14.109";"zentza+araz";"1.725003e-04"
"  6";"   6";"100.00";"14.109";"aholkatu";"1.725003e-04"
"  6";"   6";"100.00";"14.109";"uko";"1.725003e-04"
"  6";"   6";"100.00";"14.109";"kalte";"1.725003e-04"
"  6";"   6";"100.00";"14.109";"irizpide";"1.725003e-04"
" 16";"  25";" 64.00";"14.021";"duenak";"1.807377e-04"
"  7";"   8";" 87.50";"12.712";"gezur";"3.632422e-04"
" 16";"  26";" 61.54";"12.559";"entzun";"3.943533e-04"
"  5";"   5";"100.00";"11.753";"trebe";"6.074423e-04"
"  5";"   5";"100.00";"11.753";"satanasen";"6.074423e-04"
"  5";"   5";"100.00";"11.753";"pertsegitu";"6.074423e-04"
"  5";"   5";"100.00";"11.753";"arma";"6.074423e-04"
"  5";"   5";"100.00";"11.753";"abiatu";"6.074423e-04"
"  9";"  12";" 75.00";"11.710";"behartu";"6.215668e-04"
" 12";"  18";" 66.67";"11.703";"profeta";"6.239782e-04"
" 15";"  25";" 60.00";"10.926";"harro";"9.482177e-04"
" 21";"  39";" 53.85";"10.850";"gizaki";"9.878392e-04"
" 14";"  23";" 60.87";"10.632";"garai";"1.111201e-03"
"  6";"   7";" 85.71";"10.440";"salatu";"1.232892e-03"
"  6";"   7";" 85.71";"10.440";"hiri";"1.232892e-03"
" 13";"  21";" 61.90";"10.359";"kontzientzia";"1.288273e-03"
" 16";"  28";" 57.14";"10.037";"gizon";"1.534150e-03"
" 11";"  17";" 64.71";" 9.902";"aitortu";"1.651073e-03"
"  7";"   9";" 77.78";" 9.886";"jakintsu";"1.665530e-03"
"  7";"   9";" 77.78";" 9.886";"grin";"1.665530e-03"
"  7";"   9";" 77.78";" 9.886";"egoera";"1.665530e-03"
"  7";"   9";" 77.78";" 9.886";"akats";"1.665530e-03"
"  8";"  11";" 72.73";" 9.676";"aztertu";"1.866621e-03"
"  8";"  11";" 72.73";" 9.676";"kontra";"1.866621e-03"
"  8";"  11";" 72.73";" 9.676";"han";"1.866621e-03"
" 26";"  53";" 49.06";" 9.492";"zeuen";"2.063548e-03"
"  4";"   4";"100.00";" 9.399";"ilun";"2.171351e-03"
"  4";"   4";"100.00";" 9.399";"ziren";"2.171351e-03"
"  4";"   4";"100.00";" 9.399";"sare";"2.171351e-03"
"  4";"   4";"100.00";" 9.399";"hondamendi";"2.171351e-03"
"  4";"   4";"100.00";" 9.399";"haue";"2.171351e-03"
"  4";"   4";"100.00";" 9.399";"harreman";"2.171351e-03"
"  4";"   4";"100.00";" 9.399";"gezurti";"2.171351e-03"
"  4";"   4";"100.00";" 9.399";"etsi";"2.171351e-03"
"  4";"   4";"100.00";" 9.399";"epe";"2.171351e-03"
"  4";"   4";"100.00";" 9.399";"engainatu";"2.171351e-03"
"  4";"   4";"100.00";" 9.399";"deabrua";"2.171351e-03"
"  4";"   4";"100.00";" 9.399";"bereizkeriari";"2.171351e-03"
"  4";"   4";"100.00";" 9.399";"arretaz";"2.171351e-03"
"  4";"   4";"100.00";" 9.399";"alferrika";"2.171351e-03"
" 14";"  24";" 58.33";" 9.356";"egintza";"2.222103e-03"
" 17";"  31";" 54.84";" 9.324";"gain";"2.261440e-03"
" 26";"  54";" 48.15";" 8.780";"gertatu";"3.045776e-03"
"190";" 542";" 35.06";" 8.773";"egin";"3.056635e-03"
" 12";"  20";" 60.00";" 8.724";"heldu";"3.141204e-03"
" 11";"  18";" 61.11";" 8.435";"beza";"3.681417e-03"
"  5";"   6";" 83.33";" 8.199";"igo";"4.192145e-03"
"  5";"   6";" 83.33";" 8.199";"maila";"4.192145e-03"
"  5";"   6";" 83.33";" 8.199";"larri";"4.192145e-03"
"  5";"   6";" 83.33";" 8.199";"badio";"4.192145e-03"
"  9";"  14";" 64.29";" 7.949";"mintzo";"4.810078e-03"
"  9";"  14";" 64.29";" 7.949";"zigor";"4.810078e-03"
"  6";"   8";" 75.00";" 7.795";"bertan";"5.240362e-03"
"  6";"   8";" 75.00";" 7.795";"suntsitu";"5.240362e-03"
"  6";"   8";" 75.00";" 7.795";"ezagun";"5.240362e-03"
"  6";"   8";" 75.00";" 7.795";"duen";"5.240362e-03"
"  7";"  10";" 70.00";" 7.709";"sartu";"5.493885e-03"
"  7";"  10";" 70.00";" 7.709";"aginte";"5.493885e-03"
" 11";"  19";" 57.89";" 7.166";"aurka";"7.428497e-03"
" 11";"  19";" 57.89";" 7.166";"ulertu";"7.428497e-03"
"  3";"   3";"100.00";" 7.046";"itsatsi";"7.942969e-03"
"  3";"   3";"100.00";" 7.046";"zuritu";"7.942969e-03"
"  3";"   3";"100.00";" 7.046";"negar";"7.942969e-03"
"  3";"   3";"100.00";" 7.046";"jezan";"7.942969e-03"
"  3";"   3";"100.00";" 7.046";"indargabetu";"7.942969e-03"
"  3";"   3";"100.00";" 7.046";"hezurmamizko";"7.942969e-03"
"  3";"   3";"100.00";" 7.046";"defentsa";"7.942969e-03"
" 17";"  34";" 50.00";" 6.653";"eraman";"9.899977e-03"
"  9";"  15";" 60.00";" 6.530";"lortu";"1.060821e-02"
"  9";"  15";" 60.00";" 6.530";"ikasi";"1.060821e-02"
"  9";"  15";" 60.00";" 6.530";"haserre";"1.060821e-02"
" 12";"  22";" 54.55";" 6.440";"bedi";"1.116046e-02"
"  8";"  13";" 61.54";" 6.247";"sari";"1.243869e-02"
"  8";"  13";" 61.54";" 6.247";"jokabide";"1.243869e-02"
"  7";"  11";" 63.64";" 6.005";"oinarri";"1.426255e-02"
"  4";"   5";" 80.00";" 6.004";"gaixo";"1.427171e-02"
"  4";"   5";" 80.00";" 6.004";"ezertan";"1.427171e-02"
"  4";"   5";" 80.00";" 6.004";"ausartu";"1.427171e-02"
"  4";"   5";" 80.00";" 6.004";"maltzur";"1.427171e-02"
"  4";"   5";" 80.00";" 6.004";"jerusalemera";"1.427171e-02"
"  4";"   5";" 80.00";" 6.004";"hezi";"1.427171e-02"
"  4";"   5";" 80.00";" 6.004";"gomendatu";"1.427171e-02"
"  4";"   5";" 80.00";" 6.004";"entzule";"1.427171e-02"
"  4";"   5";" 80.00";" 6.004";"egintz";"1.427171e-02"
"  4";"   5";" 80.00";" 6.004";"dutena";"1.427171e-02"
"  4";"   5";" 80.00";" 6.004";"direna";"1.427171e-02"
"  4";"   5";" 80.00";" 6.004";"aurrera";"1.427171e-02"
"  5";"   7";" 71.43";" 5.781";"mintzatu";"1.620158e-02"
"  5";"   7";" 71.43";" 5.781";"errege";"1.620158e-02"
"  5";"   7";" 71.43";" 5.781";"nahasi";"1.620158e-02"
"  5";"   7";" 71.43";" 5.781";"ezagutza";"1.620158e-02"
"  5";"   7";" 71.43";" 5.781";"dagoeneko";"1.620158e-02"
"  5";"   7";" 71.43";" 5.781";"aldeko";"1.620158e-02"
" 16";"  33";" 48.48";" 5.519";"judu";"1.881361e-02"
"  9";"  16";" 56.25";" 5.341";"irabazi";"2.083526e-02"
" 10";"  19";" 52.63";" 4.726";"ezkondu";"2.970867e-02"
"  7";"  12";" 58.33";" 4.656";"auzi";"3.094344e-02"
"  6";"  10";" 60.00";" 4.345";"izaera";"3.712565e-02"
"  6";"  10";" 60.00";" 4.345";"dudala";"3.712565e-02"
"  6";"  10";" 60.00";" 4.345";"merezi";"3.712565e-02"
"  6";"  10";" 60.00";" 4.345";"helburu";"3.712565e-02"
"  6";"  10";" 60.00";" 4.345";"arrazoi";"3.712565e-02"
" 11";"  22";" 50.00";" 4.284";"behin";"3.846485e-02"
" 14";"  30";" 46.67";" 4.079";"galdu";"4.341393e-02"
"  5";"   8";" 62.50";" 4.074";"jaio";"4.355933e-02"
" 12";"  25";" 48.00";" 3.953";"jo";"4.678279e-02"
"  3";"   4";" 75.00";" 3.891";"kutsatu";"4.854069e-02"
"  3";"   4";" 75.00";" 3.891";"zuzendari";"4.854069e-02"
"  3";"   4";" 75.00";" 3.891";"ordez";"4.854069e-02"
"  3";"   4";" 75.00";" 3.891";"gizonezko";"4.854069e-02"
"  3";"   4";" 75.00";" 3.891";"gezurrezko";"4.854069e-02"
"  3";"   4";" 75.00";" 3.891";"gainditu";"4.854069e-02"
"  3";"   4";" 75.00";" 3.891";"zaintzaile";"4.854069e-02"
"  3";"   4";" 75.00";" 3.891";"tentaldi";"4.854069e-02"
"  3";"   4";" 75.00";" 3.891";"sesio";"4.854069e-02"
"  3";"   4";" 75.00";" 3.891";"okertu";"4.854069e-02"
"  3";"   4";" 75.00";" 3.891";"nabari";"4.854069e-02"
"  3";"   4";" 75.00";" 3.891";"muga";"4.854069e-02"
"  3";"   4";" 75.00";" 3.891";"handiago";"4.854069e-02"
"  3";"   4";" 75.00";" 3.891";"galbide";"4.854069e-02"
"  3";"   4";" 75.00";" 3.891";"egile";"4.854069e-02"
"  3";"   4";" 75.00";" 3.891";"dudanik";"4.854069e-02"
"  3";"   4";" 75.00";" 3.891";"daiteke";"4.854069e-02"
"  3";"   4";" 75.00";" 3.891";"bota";"4.854069e-02"
"  3";"   4";" 75.00";" 3.891";"bekaizkeri";"4.854069e-02"
"  3";"   4";" 75.00";" 3.891";"behar_izan";"4.854069e-02"
"  3";"   4";" 75.00";" 3.891";"begiruneaga";"4.854069e-02"
"  3";"   4";" 75.00";" 3.891";"balute";"4.854069e-02"
"  3";"   4";" 75.00";" 3.891";"aitzakia";"4.854069e-02"
"  4";"   6";" 66.67";" 3.883";"zentzu";"4.878789e-02"
"  4";"   6";" 66.67";" 3.883";"dudan";"4.878789e-02"
"  4";"   6";" 66.67";" 3.883";"zentzudun";"4.878789e-02"
"  4";"   6";" 66.67";" 3.883";"lotsagarri";"4.878789e-02"
"  4";"   6";" 66.67";" 3.883";"irakasle";"4.878789e-02"
"  4";"   6";" 66.67";" 3.883";"botere";"4.878789e-02"
" 23";"  55";" 41.82";" 3.819";"utzi";"5.067301e-02"
"  7";"  13";" 53.85";" 3.580";"bezalako";"5.848905e-02"
"  9";"  18";" 50.00";" 3.500";"orduan";"6.137461e-02"
"  9";"  18";" 50.00";" 3.500";"irakaspen";"6.137461e-02"
" 22";"  53";" 41.51";" 3.489";"ongi";"6.176345e-02"
" 48";" 129";" 37.21";" 3.477";"hartu";"6.222963e-02"
"  6";"  11";" 54.55";" 3.206";"jende";"7.337492e-02"
"  6";"  11";" 54.55";" 3.206";"eraiki";"7.337492e-02"
"  5";"   9";" 55.56";" 2.840";"eitezi";"9.194241e-02"
"  5";"   9";" 55.56";" 2.840";"erabili";"9.194241e-02"
"  5";"   9";" 55.56";" 2.840";"egoki";"9.194241e-02"
"  5";"   9";" 55.56";" 2.840";"ahulezia";"9.194241e-02"
"  5";"   9";" 55.56";" 2.840";"ihes";"9.194241e-02"
"  5";"   9";" 55.56";" 2.840";"eskubide";"9.194241e-02"
"  5";"   9";" 55.56";" 2.840";"direneitu";"9.194241e-02"
"  7";"  14";" 50.00";" 2.718";"arazo";"9.923393e-02"
"  4";"   7";" 57.14";" 2.489";"zorrotz";"1.146745e-01"
"  4";"   7";" 57.14";" 2.489";"inoiz";"1.146745e-01"
"  4";"   7";" 57.14";" 2.489";"berez";"1.146745e-01"
" 11";"  25";" 44.00";" 2.400";"eragin";"1.213345e-01"
" 17";"  42";" 40.48";" 2.285";"arabera";"1.306012e-01"
"  3";"   5";" 60.00";" 2.168";"pedro";"1.409042e-01"
"  3";"   5";" 60.00";" 2.168";"honelako";"1.409042e-01"
"  3";"   5";" 60.00";" 2.168";"epaile";"1.409042e-01"
"  3";"   5";" 60.00";" 2.168";"aditu";"1.409042e-01"
" 35";"  96";" 36.46";" 2.056";"arte";"1.516062e-01"
"  7";"  15";" 46.67";" 2.028";"neurri";"1.544693e-01"
"  7";"  15";" 46.67";" 2.028";"hondatu";"1.544693e-01"
"*****";"*";"*";"*";"*";"*"
"22";"41";" 53.66";"11.238";"ezer";"0.0008015488"
" 5";" 6";" 83.33";" 8.199";"zinetu";"0.0041921447"
" 3";" 3";"100.00";" 7.046";"daitezke";"0.0079429693"
" 6";" 9";" 66.67";" 5.831";"natzaizue";"0.0157477577"
"18";"40";" 45.00";" 4.430";"zeu";"0.0353179886"
" 8";"15";" 53.33";" 3.959";"zerbait";"0.0466312870"
" 8";"16";" 50.00";" 3.109";"dezata";"0.0778837052"
"*";"*";"*";"*";"*";"*"
" 18";" 25";" 72.00";"21.369";"*K_2Ko_10";"3.788652e-06"
" 28";" 48";" 58.33";"18.892";"*L_Titori";"1.383281e-05"
" 15";" 21";" 71.43";"17.438";"*K_Tt_1";"2.967569e-05"
" 21";" 34";" 61.76";"16.712";"*K_1Ko_3";"4.351603e-05"
" 13";" 18";" 72.22";"15.505";"*K_1Ko_2";"8.226636e-05"
" 24";" 45";" 53.33";"12.018";"*K_1Ko_9";"5.268964e-04"
"203";"573";" 35.43";"10.826";"*L_Korintoarrei1";"1.000865e-03"
" 17";" 30";" 56.67";"10.390";"*K_2Ko_12";"1.267113e-03"
"  9";" 14";" 64.29";" 7.949";"*K_Tt_3";"4.810078e-03"
"  3";"  3";"100.00";" 7.046";"*Tx_1Ko_3_10";"7.942969e-03"
"  3";"  3";"100.00";" 7.046";"*Tx_Erm_1_13";"7.942969e-03"
"  3";"  3";"100.00";" 7.046";"*Tx_1Ko_3_3";"7.942969e-03"
"  3";"  3";"100.00";" 7.046";"*Tx_Erm_12_16";"7.942969e-03"
"  3";"  3";"100.00";" 7.046";"*Tx_2Ko_10_12";"7.942969e-03"
"  3";"  3";"100.00";" 7.046";"*Tx_Erm_1_32";"7.942969e-03"
" 19";" 39";" 48.72";" 6.703";"*K_2Ko_11";"9.627025e-03"
" 17";" 36";" 47.22";" 5.237";"*K_1Ko_4";"2.211136e-02"
"122";"348";" 35.06";" 5.142";"*L_Korintoarrei2";"2.335801e-02"
" 19";" 42";" 45.24";" 4.803";"*K_Erm_1";"2.841440e-02"
"  2";"  2";"100.00";" 4.696";"*Tx_1Ko_15_28";"3.023846e-02"
"  2";"  2";"100.00";" 4.696";"*Tx_Tt_1_6";"3.023846e-02"
"  2";"  2";"100.00";" 4.696";"*Tx_Tt_1_5";"3.023846e-02"
"  2";"  2";"100.00";" 4.696";"*Tx_Tt_3_8";"3.023846e-02"
"  2";"  2";"100.00";" 4.696";"*Tx_Ga_2_12";"3.023846e-02"
"  2";"  2";"100.00";" 4.696";"*Tx_2Ko_11_29";"3.023846e-02"
"  2";"  2";"100.00";" 4.696";"*Tx_1Tm_5_25";"3.023846e-02"
"  2";"  2";"100.00";" 4.696";"*Tx_2Ko_3_1";"3.023846e-02"
"  2";"  2";"100.00";" 4.696";"*Tx_2Tm_4_16";"3.023846e-02"
"  2";"  2";"100.00";" 4.696";"*Tx_2Ko_12_7";"3.023846e-02"
"  2";"  2";"100.00";" 4.696";"*Tx_2Ko_12_20";"3.023846e-02"
"  2";"  2";"100.00";" 4.696";"*Tx_1Tm_1_4";"3.023846e-02"
"  2";"  2";"100.00";" 4.696";"*Tx_Erm_8_6";"3.023846e-02"
"  2";"  2";"100.00";" 4.696";"*Tx_1Ko_1_20";"3.023846e-02"
"  2";"  2";"100.00";" 4.696";"*Tx_1Ko_10_29";"3.023846e-02"
"  2";"  2";"100.00";" 4.696";"*Tx_Ga_3_15";"3.023846e-02"
"  2";"  2";"100.00";" 4.696";"*Tx_Erm_3_9";"3.023846e-02"
"  2";"  2";"100.00";" 4.696";"*Tx_2Ko_6_8";"3.023846e-02"
"  2";"  2";"100.00";" 4.696";"*Tx_2Ko_4_9";"3.023846e-02"
"  2";"  2";"100.00";" 4.696";"*Tx_1Ko_3_11";"3.023846e-02"
"  2";"  2";"100.00";" 4.696";"*Tx_1Ko_3_15";"3.023846e-02"
"  2";"  2";"100.00";" 4.696";"*Tx_Erm_13_1";"3.023846e-02"
"  2";"  2";"100.00";" 4.696";"*Tx_1Tm_2_6";"3.023846e-02"
"  2";"  2";"100.00";" 4.696";"*Tx_2Ko_5_16";"3.023846e-02"
"  2";"  2";"100.00";" 4.696";"*Tx_1Ko_4_4";"3.023846e-02"
"  2";"  2";"100.00";" 4.696";"*Tx_1Ko_4_9";"3.023846e-02"
"  2";"  2";"100.00";" 4.696";"*Tx_1Ko_4_8";"3.023846e-02"
"  2";"  2";"100.00";" 4.696";"*Tx_1Ko_6_7";"3.023846e-02"
"  2";"  2";"100.00";" 4.696";"*Tx_1Ko_6_2";"3.023846e-02"
"  2";"  2";"100.00";" 4.696";"*Tx_1Ko_2_6";"3.023846e-02"
"  2";"  2";"100.00";" 4.696";"*Tx_1Tm_4_16";"3.023846e-02"
"  2";"  2";"100.00";" 4.696";"*Tx_Ga_1_13";"3.023846e-02"
"  2";"  2";"100.00";" 4.696";"*Tx_2Ko_12_5";"3.023846e-02"
"  2";"  2";"100.00";" 4.696";"*Tx_Erm_8_3";"3.023846e-02"
"  2";"  2";"100.00";" 4.696";"*Tx_Erm_9_20";"3.023846e-02"
"  2";"  2";"100.00";" 4.696";"*Tx_1Ko_9_8";"3.023846e-02"
"  2";"  2";"100.00";" 4.696";"*Tx_1Ko_7_31";"3.023846e-02"
"  2";"  2";"100.00";" 4.696";"*Tx_2Ko_1_17";"3.023846e-02"
"  2";"  2";"100.00";" 4.696";"*Tx_2Ko_1_10";"3.023846e-02"
"  2";"  2";"100.00";" 4.696";"*Tx_1Ko_9_26";"3.023846e-02"
"  2";"  2";"100.00";" 4.696";"*Tx_1Ko_14_36";"3.023846e-02"
"  2";"  2";"100.00";" 4.696";"*Tx_Erm_2_1";"3.023846e-02"
"  2";"  2";"100.00";" 4.696";"*Tx_2Ko_11_16";"3.023846e-02"
"  2";"  2";"100.00";" 4.696";"*Tx_Erm_1_26";"3.023846e-02"
"  2";"  2";"100.00";" 4.696";"*Tx_Erm_1_27";"3.023846e-02"
"  2";"  2";"100.00";" 4.696";"*Tx_Erm_13_3";"3.023846e-02"
"  2";"  2";"100.00";" 4.696";"*Tx_1Ko_11_5";"3.023846e-02"
"  2";"  2";"100.00";" 4.696";"*Tx_Erm_2_21";"3.023846e-02"
"  2";"  2";"100.00";" 4.696";"*Tx_Ga_4_29";"3.023846e-02"
"  2";"  2";"100.00";" 4.696";"*Tx_1Ko_2_14";"3.023846e-02"
"  2";"  2";"100.00";" 4.696";"*Tx_Ef_6_9";"3.023846e-02"
"  2";"  2";"100.00";" 4.696";"*Tx_1Tm_1_20";"3.023846e-02"
"  2";"  2";"100.00";" 4.696";"*Tx_Ga_6_8";"3.023846e-02"
"  2";"  2";"100.00";" 4.696";"*Tx_Ga_2_2";"3.023846e-02"
"  2";"  2";"100.00";" 4.696";"*Tx_Erm_12_9";"3.023846e-02"
"  2";"  2";"100.00";" 4.696";"*Tx_Erm_14_20";"3.023846e-02"
"  2";"  2";"100.00";" 4.696";"*Tx_Erm_14_23";"3.023846e-02"
"  2";"  2";"100.00";" 4.696";"*Tx_Erm_14_22";"3.023846e-02"
"  2";"  2";"100.00";" 4.696";"*Tx_Flp_3_4";"3.023846e-02"
"  2";"  2";"100.00";" 4.696";"*Tx_2Ko_12_11";"3.023846e-02"
"  2";"  2";"100.00";" 4.696";"*Tx_1Tm_3_11";"3.023846e-02"
"  2";"  2";"100.00";" 4.696";"*Tx_Erm_6_13";"3.023846e-02"
"  2";"  2";"100.00";" 4.696";"*Tx_2Ko_10_18";"3.023846e-02"
"  2";"  2";"100.00";" 4.696";"*Tx_2Ko_10_13";"3.023846e-02"
"  9";" 17";" 52.94";" 4.341";"*K_1Tm_3";"3.720369e-02"
" 19";" 43";" 44.19";" 4.268";"*K_1Ko_14";"3.883767e-02"
"  9";" 18";" 50.00";" 3.500";"*K_1Ko_8";"6.137461e-02"
" 44";"118";" 37.29";" 3.235";"*L_Timoteori1";"7.209676e-02"
"  9";" 19";" 47.37";" 2.792";"*K_2Tm_3";"9.473998e-02"
"  1";"  1";"100.00";" 2.347";"*Tx_2Tm_2_17";"1.255307e-01"
"  1";"  1";"100.00";" 2.347";"*Tx_Erm_10_19";"1.255307e-01"
"  1";"  1";"100.00";" 2.347";"*Tx_1Ko_10_22";"1.255307e-01"
"  1";"  1";"100.00";" 2.347";"*Tx_1Ko_14_22";"1.255307e-01"
"  1";"  1";"100.00";" 2.347";"*Tx_2Ko_10_7";"1.255307e-01"
"  1";"  1";"100.00";" 2.347";"*Tx_Erm_8_7";"1.255307e-01"
"  1";"  1";"100.00";" 2.347";"*Tx_Ga_5_17";"1.255307e-01"
"  1";"  1";"100.00";" 2.347";"*Tx_1Ko_14_5";"1.255307e-01"
"  1";"  1";"100.00";" 2.347";"*Tx_1Ko_14_2";"1.255307e-01"
"  1";"  1";"100.00";" 2.347";"*Tx_1Ko_15_49";"1.255307e-01"
"  1";"  1";"100.00";" 2.347";"*Tx_2Ko_13_3";"1.255307e-01"
"  1";"  1";"100.00";" 2.347";"*Tx_1Ko_12_30";"1.255307e-01"
"  1";"  1";"100.00";" 2.347";"*Tx_2Ko_12_14";"1.255307e-01"
"  1";"  1";"100.00";" 2.347";"*Tx_Kol_3_5";"1.255307e-01"
"  1";"  1";"100.00";" 2.347";"*Tx_1Ko_14_23";"1.255307e-01"
"  1";"  1";"100.00";" 2.347";"*Tx_Erm_12_8";"1.255307e-01"
"  1";"  1";"100.00";" 2.347";"*Tx_Ga_4_14";"1.255307e-01"
"  1";"  1";"100.00";" 2.347";"*Tx_2Ko_10_10";"1.255307e-01"
" 16";" 39";" 41.03";" 2.345";"*K_Erm_3";"1.256673e-01"
"**";"classe";"8";"**";"";""
"****";"830";"2553";"32.51";"****";""
"156";" 249";" 62.65";"114.232";"eman";"1.159239e-26"
"125";" 197";" 63.45";" 93.143";"on";"4.865646e-22"
" 60";"  70";" 85.71";" 92.852";"maitasun";"5.635625e-22"
" 81";" 110";" 73.64";" 88.610";"berri";"4.808581e-21"
" 60";"  83";" 72.29";" 61.868";"esker";"3.673115e-15"
" 31";"  32";" 96.88";" 61.186";"poz";"5.191730e-15"
" 61";"  86";" 70.93";" 59.872";"agertu";"1.012517e-14"
" 32";"  34";" 94.12";" 59.607";"beti";"1.158150e-14"
" 30";"  34";" 88.24";" 48.768";"mezu";"2.881420e-12"
" 31";"  36";" 86.11";" 47.813";"saiatu";"4.689400e-12"
" 33";"  40";" 82.50";" 46.282";"handi";"1.024153e-11"
"114";" 214";" 53.27";" 45.882";"jaun";"1.256237e-11"
" 25";"  27";" 92.59";" 44.896";"adore";"2.078036e-11"
" 33";"  42";" 78.57";" 41.291";"egun";"1.311937e-10"
" 22";"  24";" 91.67";" 38.641";"sendo";"5.093948e-10"
" 43";"  64";" 67.19";" 35.977";"jesus";"1.996992e-09"
" 25";"  31";" 80.65";" 33.137";"otoitz";"8.587711e-09"
" 35";"  50";" 70.00";" 32.667";"dohain";"1.093702e-08"
" 28";"  37";" 75.68";" 31.882";"bihotz";"1.638521e-08"
" 21";"  25";" 84.00";" 30.506";"jasan";"3.328414e-08"
" 41";"  65";" 63.08";" 28.401";"alde";"9.861454e-08"
" 19";"  23";" 82.61";" 26.548";"ahal";"2.570379e-07"
" 29";"  42";" 69.05";" 25.981";"lan";"3.448162e-07"
" 24";"  33";" 72.73";" 24.644";"fede";"6.895944e-07"
" 28";"  41";" 68.29";" 24.315";"itxaropen";"8.178510e-07"
" 56";" 102";" 54.90";" 24.277";"senide";"8.341667e-07"
" 26";"  38";" 68.42";" 22.671";"indar";"1.922391e-06"
" 51";"  93";" 54.84";" 21.930";"bete";"2.828119e-06"
" 43";"  75";" 57.33";" 21.699";"gero";"3.189366e-06"
" 10";"  10";"100.00";" 20.841";"eder";"4.991181e-06"
" 35";"  59";" 59.32";" 19.787";"ikusi";"8.657112e-06"
" 26";"  40";" 65.00";" 19.549";"eskatu";"9.802704e-06"
" 21";"  30";" 70.00";" 19.445";"garbi";"1.035431e-05"
" 14";"  17";" 82.35";" 19.377";"atsekabe";"1.073013e-05"
"  9";"   9";"100.00";" 18.749";"pozik";"1.490837e-05"
" 16";"  21";" 76.19";" 18.412";"adierazi";"1.779217e-05"
" 12";"  14";" 85.71";" 18.161";"etengabe";"2.030145e-05"
" 22";"  33";" 66.67";" 17.776";"argi";"2.484994e-05"
" 10";"  11";" 90.91";" 17.171";"aldi";"3.415313e-05"
" 10";"  11";" 90.91";" 17.171";"gau";"3.415313e-05"
" 10";"  11";" 90.91";" 17.171";"ziur";"3.415313e-05"
" 10";"  11";" 90.91";" 17.171";"nahigabe";"3.415313e-05"
" 10";"  11";" 90.91";" 17.171";"erantzun";"3.415313e-05"
" 10";"  11";" 90.91";" 17.171";"burutu";"3.415313e-05"
"  8";"   8";"100.00";" 16.659";"otoitu";"4.472734e-05"
"  8";"   8";"100.00";" 16.659";"laguntza";"4.472734e-05"
" 17";"  24";" 70.83";" 16.217";"iritsi";"5.649605e-05"
" 17";"  24";" 70.83";" 16.217";"zerbitz";"5.649605e-05"
" 11";"  13";" 84.62";" 16.168";"nolako";"5.797107e-05"
" 20";"  30";" 66.67";" 16.141";"duzu";"5.880424e-05"
" 27";"  45";" 60.00";" 15.776";"joan";"7.129817e-05"
" 46";"  89";" 51.69";" 15.452";"jakin";"8.461574e-05"
"  9";"  10";" 90.00";" 15.122";"misterio";"1.007700e-04"
"  9";"  10";" 90.00";" 15.122";"maiteo";"1.007700e-04"
" 13";"  17";" 76.47";" 15.073";"irrika";"1.034307e-04"
" 14";"  19";" 73.68";" 14.790";"hazi";"1.201663e-04"
" 41";"  78";" 52.56";" 14.746";"orain";"1.229921e-04"
"  7";"   7";"100.00";" 14.571";"erregutu";"1.349560e-04"
" 16";"  23";" 69.57";" 14.524";"asmo";"1.384079e-04"
" 16";"  23";" 69.57";" 14.524";"iraun";"1.384079e-04"
" 16";"  23";" 69.57";" 14.524";"gai";"1.384079e-04"
" 50";" 100";" 50.00";" 14.509";"kristo";"1.395030e-04"
" 22";"  36";" 61.11";" 13.613";"ezagutu";"2.246363e-04"
" 26";"  45";" 57.78";" 13.329";"oso";"2.614010e-04"
"  8";"   9";" 88.89";" 13.084";"konfiantza";"2.978524e-04"
" 15";"  22";" 68.18";" 12.869";"zuengan";"3.340356e-04"
"  6";"   6";"100.00";" 12.485";"noiz";"4.102847e-04"
"  6";"   6";"100.00";" 12.485";"erlijio";"4.102847e-04"
"  6";"   6";"100.00";" 12.485";"erne";"4.102847e-04"
"  9";"  11";" 81.82";" 12.241";"gorde";"4.674109e-04"
" 18";"  29";" 62.07";" 11.680";"era";"6.316579e-04"
" 11";"  15";" 73.33";" 11.460";"aukera";"7.110565e-04"
" 14";"  21";" 66.67";" 11.258";"eduki";"7.926424e-04"
"  7";"   8";" 87.50";" 11.060";"eroapen";"8.822057e-04"
"  7";"   8";" 87.50";" 11.060";"zaitez";"8.822057e-04"
"  7";"   8";" 87.50";" 11.060";"laster";"8.822057e-04"
"  5";"   5";"100.00";" 10.400";"ezkutu";"1.260231e-03"
"  5";"   5";"100.00";" 10.400";"eskuzabal";"1.260231e-03"
"  5";"   5";"100.00";" 10.400";"harrera";"1.260231e-03"
"  5";"   5";"100.00";" 10.400";"ukatu";"1.260231e-03"
"  5";"   5";"100.00";" 10.400";"semea";"1.260231e-03"
"  5";"   5";"100.00";" 10.400";"sakon";"1.260231e-03"
"  5";"   5";"100.00";" 10.400";"gaituen";"1.260231e-03"
"  5";"   5";"100.00";" 10.400";"ezaguera";"1.260231e-03"
"  5";"   5";"100.00";" 10.400";"egita";"1.260231e-03"
"  5";"   5";"100.00";" 10.400";"berezi";"1.260231e-03"
"  8";"  10";" 80.00";" 10.319";"zain";"1.316755e-03"
" 17";"  28";" 60.71";" 10.263";"krist";"1.356938e-03"
"  9";"  12";" 75.00";"  9.920";"jesusengan";"1.634687e-03"
"  9";"  12";" 75.00";"  9.920";"itzuli";"1.634687e-03"
"  9";"  12";" 75.00";"  9.920";"erreinu";"1.634687e-03"
"  9";"  12";" 75.00";"  9.920";"azaldu";"1.634687e-03"
"235";" 625";" 37.60";"  9.769";"jainko";"1.774446e-03"
" 13";"  20";" 65.00";"  9.698";"ekarri";"1.845124e-03"
" 13";"  20";" 65.00";"  9.698";"erakutsi";"1.845124e-03"
" 18";"  31";" 58.06";"  9.339";"aintza";"2.242900e-03"
" 42";"  89";" 47.19";"  9.057";"sinesmen";"2.616304e-03"
"  6";"   7";" 85.71";"  9.055";"jaunarengatik";"2.619150e-03"
" 54";" 121";" 44.63";"  8.500";"espiritu";"3.551249e-03"
"  7";"   9";" 77.78";"  8.435";"di";"3.680947e-03"
" 13";"  21";" 61.90";"  8.338";"buruz";"3.882437e-03"
" 13";"  21";" 61.90";"  8.338";"zuenga";"3.882437e-03"
"  4";"   4";"100.00";"  8.317";"predikatu";"3.928341e-03"
"  4";"   4";"100.00";"  8.317";"profezi";"3.928341e-03"
"  4";"   4";"100.00";"  8.317";"satanasek";"3.928341e-03"
"  4";"   4";"100.00";"  8.317";"osoosorik";"3.928341e-03"
"  4";"   4";"100.00";"  8.317";"neurrigabe";"3.928341e-03"
"  4";"   4";"100.00";"  8.317";"nagoela";"3.928341e-03"
"  4";"   4";"100.00";"  8.317";"mazedonia";"3.928341e-03"
"  4";"   4";"100.00";"  8.317";"jentilei";"3.928341e-03"
"  4";"   4";"100.00";"  8.317";"jaunarengandik";"3.928341e-03"
"  4";"   4";"100.00";"  8.317";"genizuen";"3.928341e-03"
"  4";"   4";"100.00";"  8.317";"eroapena";"3.928341e-03"
"  4";"   4";"100.00";"  8.317";"betera";"3.928341e-03"
"  4";"   4";"100.00";"  8.317";"aintzat";"3.928341e-03"
" 12";"  19";" 63.16";"  8.194";"parte";"4.202062e-03"
"  8";"  11";" 72.73";"  8.144";"zaiteztu";"4.321414e-03"
"  8";"  11";" 72.73";"  8.144";"iritzi";"4.321414e-03"
"  8";"  11";" 72.73";"  8.144";"aitzakan";"4.321414e-03"
" 11";"  17";" 64.71";"  8.085";"balio";"4.463837e-03"
"  9";"  13";" 69.23";"  8.030";"da";"4.601426e-03"
"  5";"   6";" 83.33";"  7.080";"lo";"7.795523e-03"
"  5";"   6";" 83.33";"  7.080";"preso";"7.795523e-03"
"  5";"   6";" 83.33";"  7.080";"hobeki";"7.795523e-03"
"  5";"   6";" 83.33";"  7.080";"etorrera";"7.795523e-03"
" 11";"  18";" 61.11";"  6.758";"onginahi";"9.332195e-03"
" 15";"  27";" 55.56";"  6.605";"atsegin";"1.016998e-02"
"  6";"   8";" 75.00";"  6.603";"eskuzabaltasun";"1.018004e-02"
"  6";"   8";" 75.00";"  6.603";"sufrimendu";"1.018004e-02"
"  6";"   8";" 75.00";"  6.603";"neke";"1.018004e-02"
"  6";"   8";" 75.00";"  6.603";"jardun";"1.018004e-02"
"  6";"   8";" 75.00";"  6.603";"askoz";"1.018004e-02"
"  9";"  14";" 64.29";"  6.478";"salbamen";"1.092334e-02"
"  9";"  14";" 64.29";"  6.478";"barru";"1.092334e-02"
"  9";"  14";" 64.29";"  6.478";"aurrez";"1.092334e-02"
" 14";"  25";" 56.00";"  6.349";"eragin";"1.174628e-02"
"  3";"   3";"100.00";"  6.235";"hizketa";"1.252469e-02"
"  3";"   3";"100.00";"  6.235";"nireganako";"1.252469e-02"
"  3";"   3";"100.00";"  6.235";"aberastasun";"1.252469e-02"
"  3";"   3";"100.00";"  6.235";"zabal";"1.252469e-02"
"  3";"   3";"100.00";"  6.235";"titoren";"1.252469e-02"
"  3";"   3";"100.00";"  6.235";"paregabe";"1.252469e-02"
"  3";"   3";"100.00";"  6.235";"oroitu";"1.252469e-02"
"  3";"   3";"100.00";"  6.235";"kartsu";"1.252469e-02"
"  3";"   3";"100.00";"  6.235";"irakatsiei";"1.252469e-02"
"  3";"   3";"100.00";"  6.235";"hautatu";"1.252469e-02"
"  3";"   3";"100.00";"  6.235";"hartzazu";"1.252469e-02"
"  3";"   3";"100.00";"  6.235";"gorazarre";"1.252469e-02"
"  3";"   3";"100.00";"  6.235";"ginela";"1.252469e-02"
"  3";"   3";"100.00";"  6.235";"finkatu";"1.252469e-02"
"  3";"   3";"100.00";"  6.235";"eginahal";"1.252469e-02"
"  3";"   3";"100.00";"  6.235";"duzuela";"1.252469e-02"
"  3";"   3";"100.00";"  6.235";"diezazuela";"1.252469e-02"
"  3";"   3";"100.00";"  6.235";"bizkor";"1.252469e-02"
"  3";"   3";"100.00";"  6.235";"betidanik";"1.252469e-02"
"  3";"   3";"100.00";"  6.235";"aituzkan";"1.252469e-02"
"  3";"   3";"100.00";"  6.235";"adoretu";"1.252469e-02"
" 19";"  37";" 51.35";"  6.074";"nola";"1.371926e-02"
" 24";"  50";" 48.00";"  5.576";"gogo";"1.820359e-02"
"199";" 542";" 36.72";"  5.545";"egin";"1.852998e-02"
" 21";"  43";" 48.84";"  5.313";"etorri";"2.116289e-02"
"  9";"  15";" 60.00";"  5.197";"erabat";"2.263197e-02"
"  4";"   5";" 80.00";"  5.149";"nahigabetu";"2.325548e-02"
"  4";"   5";" 80.00";"  5.149";"zigortu";"2.325548e-02"
"  4";"   5";" 80.00";"  5.149";"kezkatu";"2.325548e-02"
"  4";"   5";" 80.00";"  5.149";"hartzazue";"2.325548e-02"
"  4";"   5";" 80.00";"  5.149";"garaipen";"2.325548e-02"
"  4";"   5";" 80.00";"  5.149";"erasoaldi";"2.325548e-02"
"  4";"   5";" 80.00";"  5.149";"egokitu";"2.325548e-02"
"  4";"   5";" 80.00";"  5.149";"efeson";"2.325548e-02"
"  4";"   5";" 80.00";"  5.149";"aholku";"2.325548e-02"
"  7";"  11";" 63.64";"  4.878";"zaretu";"2.720118e-02"
"  7";"  11";" 63.64";"  4.878";"eginkizun";"2.720118e-02"
"  5";"   7";" 71.43";"  4.845";"borondate";"2.772074e-02"
" 18";"  37";" 48.65";"  4.456";"bitart";"3.477304e-02"
" 10";"  18";" 55.56";"  4.388";"oraindik";"3.620084e-02"
"  9";"  16";" 56.25";"  4.135";"zabaldu";"4.199413e-02"
"  9";"  16";" 56.25";"  4.135";"enukan";"4.199413e-02"
"  8";"  14";" 57.14";"  3.893";"eutsi";"4.849489e-02"
" 16";"  33";" 48.48";"  3.888";"zerbitzu";"4.863029e-02"
"  7";"  12";" 58.33";"  3.664";"dizued";"5.559751e-02"
"  7";"  12";" 58.33";"  3.664";"dezazu";"5.559751e-02"
"  6";"  10";" 60.00";"  3.458";"zintzo";"6.296374e-02"
" 16";"  34";" 47.06";"  3.324";"salbatu";"6.827918e-02"
"  3";"   4";" 75.00";"  3.296";"jakinaraz";"6.943285e-02"
"  3";"   4";" 75.00";"  3.296";"sinesgarri";"6.943285e-02"
"  3";"   4";" 75.00";"  3.296";"aurkeztu";"6.943285e-02"
"  3";"   4";" 75.00";"  3.296";"zorion";"6.943285e-02"
"  3";"   4";" 75.00";"  3.296";"zeuekin";"6.943285e-02"
"  3";"   4";" 75.00";"  3.296";"zatkan";"6.943285e-02"
"  3";"   4";" 75.00";"  3.296";"justizia";"6.943285e-02"
"  3";"   4";" 75.00";"  3.296";"egokizun";"6.943285e-02"
"  3";"   4";" 75.00";"  3.296";"ditzazuen";"6.943285e-02"
"  3";"   4";" 75.00";"  3.296";"bukatu";"6.943285e-02"
"  3";"   4";" 75.00";"  3.296";"bikain";"6.943285e-02"
"  3";"   4";" 75.00";"  3.296";"bihotu";"6.943285e-02"
"  3";"   4";" 75.00";"  3.296";"arbaso";"6.943285e-02"
"  3";"   4";" 75.00";"  3.296";"ahala";"6.943285e-02"
"  3";"   4";" 75.00";"  3.296";"adiskidetu";"6.943285e-02"
"  5";"   8";" 62.50";"  3.289";"gaitz";"6.972684e-02"
"  5";"   8";" 62.50";"  3.289";"arekan";"6.972684e-02"
"  5";"   8";" 62.50";"  3.289";"salbatzaile";"6.972684e-02"
"  5";"   8";" 62.50";"  3.289";"pazientzia";"6.972684e-02"
"  5";"   8";" 62.50";"  3.289";"madarikatu";"6.972684e-02"
"  5";"   8";" 62.50";"  3.289";"errugabe";"6.972684e-02"
"  5";"   8";" 62.50";"  3.289";"aldendu";"6.972684e-02"
"  5";"   8";" 62.50";"  3.289";"aingeru";"6.972684e-02"
"  4";"   6";" 66.67";"  3.198";"ospe";"7.374025e-02"
"  4";"   6";" 66.67";"  3.198";"gutxietsi";"7.374025e-02"
"  4";"   6";" 66.67";"  3.198";"agerian";"7.374025e-02"
"  4";"   6";" 66.67";"  3.198";"zaituztu";"7.374025e-02"
"  4";"   6";" 66.67";"  3.198";"sendotu";"7.374025e-02"
"  4";"   6";" 66.67";"  3.198";"onginahiaz";"7.374025e-02"
"  4";"   6";" 66.67";"  3.198";"lapur";"7.374025e-02"
"  4";"   6";" 66.67";"  3.198";"ezazukan";"7.374025e-02"
"  4";"   6";" 66.67";"  3.198";"bain";"7.374025e-02"
" 89";" 237";" 37.55";"  3.027";"egon";"8.189383e-02"
"  8";"  15";" 53.33";"  2.982";"zor";"8.421325e-02"
"386";"1127";" 34.25";"  2.782";"ukan";"9.530606e-02"
"  7";"  13";" 53.85";"  2.711";"dizue";"9.967018e-02"
"  7";"  13";" 53.85";"  2.711";"prestatu";"9.967018e-02"
"  7";"  13";" 53.85";"  2.711";"ardura";"9.967018e-02"
" 15";"  33";" 45.45";"  2.553";"berriro";"1.100959e-01"
"  9";"  18";" 50.00";"  2.527";"irakaspen";"1.119047e-01"
"  6";"  11";" 54.55";"  2.445";"aurkitu";"1.179249e-01"
"  6";"  11";" 54.55";"  2.445";"uzukan";"1.179249e-01"
" 10";"  21";" 47.62";"  2.203";"ahalmen";"1.377606e-01"
"  5";"   9";" 55.56";"  2.186";"une";"1.392662e-01"
"  5";"   9";" 55.56";"  2.186";"ukzuen";"1.392662e-01"
"  5";"   9";" 55.56";"  2.186";"aldatu";"1.392662e-01"
"*****";"*";"*";"*";"*";"*"
" 78";"164";" 47.56";"18.093";"zuek";"2.104150e-05"
"108";"243";" 44.44";"17.431";"gu";"2.978687e-05"
"121";"285";" 42.46";"14.462";"ni";"1.430049e-04"
"  5";"  5";"100.00";"10.400";"ukzkion";"1.260231e-03"
" 21";" 37";" 56.76";"10.059";"zaitezte";"1.515959e-03"
"  9";" 13";" 69.23";" 8.030";"ikan";"4.601426e-03"
" 31";" 66";" 46.97";" 6.455";"ari";"1.106100e-02"
"  3";"  3";"100.00";" 6.235";"zakan";"1.252469e-02"
"  4";"  5";" 80.00";" 5.149";"ezakekan";"2.325548e-02"
" 15";" 29";" 51.72";" 4.935";"geu";"2.631504e-02"
"  6";"  9";" 66.67";" 4.802";"baitut";"2.842240e-02"
" 18";" 37";" 48.65";" 4.456";"elkar";"3.477304e-02"
"  3";"  4";" 75.00";" 3.296";"iitakn";"6.943285e-02"
"  5";"  8";" 62.50";" 3.289";"izi";"6.972684e-02"
"  5";"  8";" 62.50";" 3.289";"gaituzte";"6.972684e-02"
"  5";"  8";" 62.50";" 3.289";"did";"6.972684e-02"
"  4";"  6";" 66.67";" 3.198";"zaitzatu";"7.374025e-02"
"  4";"  6";" 66.67";" 3.198";"nadin";"7.374025e-02"
"  4";"  6";" 66.67";" 3.198";"dezada";"7.374025e-02"
"  8";" 15";" 53.33";" 2.982";"kristoria";"8.421325e-02"
" 10";" 20";" 50.00";" 2.810";"nau";"9.367125e-02"
"*";"*";"*";"*";"*";"*"
" 68";"102";" 66.67";"56.491";"*L_Tesalonikarrei1";"5.646361e-14"
" 23";" 31";" 74.19";"24.850";"*K_Flp_1";"6.198270e-07"
" 22";" 31";" 70.97";"21.152";"*K_2Ko_7";"4.242110e-06"
" 60";"116";" 51.72";"20.446";"*L_Filipostarrei";"6.135255e-06"
" 18";" 24";" 75.00";"19.935";"*K_Kol_1";"8.013366e-06"
" 18";" 25";" 72.00";"17.944";"*K_2Ko_2";"2.275496e-05"
" 13";" 16";" 81.25";"17.432";"*K_Ef_3";"2.977789e-05"
"146";"348";" 41.95";"16.376";"*L_Korintoarrei2";"5.194391e-05"
" 12";" 15";" 80.00";"15.509";"*K_1Ts_3";"8.212089e-05"
" 17";" 26";" 65.38";"12.938";"*K_1Ts_5";"3.220249e-04"
" 18";" 29";" 62.07";"11.680";"*K_1Ts_2";"6.316579e-04"
" 17";" 27";" 62.96";"11.533";"*K_Flp_2";"6.835763e-04"
" 13";" 20";" 65.00";" 9.698";"*K_1Ts_4";"1.845124e-03"
" 14";" 23";" 60.87";" 8.507";"*K_2Tm_1";"3.538001e-03"
"  8";" 12";" 66.67";" 6.411";"*K_1Ts_1";"1.134427e-02"
"  3";"  3";"100.00";" 6.235";"*Tx_2Ko_7_7";"1.252469e-02"
"  3";"  3";"100.00";" 6.235";"*Tx_2Ko_2_16";"1.252469e-02"
"  3";"  3";"100.00";" 6.235";"*K_1Ko_13";"1.252469e-02"
"  3";"  3";"100.00";" 6.235";"*Tx_Erm_10_18";"1.252469e-02"
"  3";"  3";"100.00";" 6.235";"*Tx_Flp_2_12";"1.252469e-02"
"  3";"  3";"100.00";" 6.235";"*Tx_Erm_14_6";"1.252469e-02"
" 41";" 94";" 43.62";" 5.486";"*L_Timoteori2";"1.916416e-02"
" 44";"103";" 42.72";" 5.097";"*L_Kolosarrei";"2.396738e-02"
" 13";" 25";" 52.00";" 4.371";"*K_2Ko_4";"3.656406e-02"
"  2";"  2";"100.00";" 4.155";"*Tx_2Ko_6_13";"4.151025e-02"
"  2";"  2";"100.00";" 4.155";"*Tx_Ga_1_9";"4.151025e-02"
"  2";"  2";"100.00";" 4.155";"*Tx_Ga_1_7";"4.151025e-02"
"  2";"  2";"100.00";" 4.155";"*Tx_2Ko_3_3";"4.151025e-02"
"  2";"  2";"100.00";" 4.155";"*Tx_1Ts_4_17";"4.151025e-02"
"  2";"  2";"100.00";" 4.155";"*Tx_2Ko_1_6";"4.151025e-02"
"  2";"  2";"100.00";" 4.155";"*Tx_2Ko_7_4";"4.151025e-02"
"  2";"  2";"100.00";" 4.155";"*Tx_1Ko_14_15";"4.151025e-02"
"  2";"  2";"100.00";" 4.155";"*Tx_Erm_13_11";"4.151025e-02"
"  2";"  2";"100.00";" 4.155";"*Tx_Erm_13_12";"4.151025e-02"
"  2";"  2";"100.00";" 4.155";"*Tx_Erm_10_15";"4.151025e-02"
"  2";"  2";"100.00";" 4.155";"*Tx_2Ts_2_8";"4.151025e-02"
"  2";"  2";"100.00";" 4.155";"*Tx_Kol_1_24";"4.151025e-02"
"  2";"  2";"100.00";" 4.155";"*Tx_Kol_1_23";"4.151025e-02"
"  2";"  2";"100.00";" 4.155";"*Tx_2Ko_6_12";"4.151025e-02"
"  2";"  2";"100.00";" 4.155";"*Tx_2Ko_2_4";"4.151025e-02"
"  2";"  2";"100.00";" 4.155";"*Tx_Erm_16_25";"4.151025e-02"
"  2";"  2";"100.00";" 4.155";"*Tx_2Tm_4_8";"4.151025e-02"
"  2";"  2";"100.00";" 4.155";"*Tx_Flp_4_10";"4.151025e-02"
"  2";"  2";"100.00";" 4.155";"*Tx_2Ko_5_17";"4.151025e-02"
"  2";"  2";"100.00";" 4.155";"*Tx_1Tm_6_2";"4.151025e-02"
"  2";"  2";"100.00";" 4.155";"*Tx_1Tm_4_8";"4.151025e-02"
"  2";"  2";"100.00";" 4.155";"*Tx_Erm_15_19";"4.151025e-02"
"  2";"  2";"100.00";" 4.155";"*Tx_1Ts_4_1";"4.151025e-02"
"  2";"  2";"100.00";" 4.155";"*Tx_Erm_1_10";"4.151025e-02"
"  2";"  2";"100.00";" 4.155";"*Tx_2Tm_1_5";"4.151025e-02"
"  2";"  2";"100.00";" 4.155";"*Tx_1Ts_3_6";"4.151025e-02"
"  2";"  2";"100.00";" 4.155";"*Tx_1Ts_3_9";"4.151025e-02"
"  2";"  2";"100.00";" 4.155";"*Tx_1Ts_2_18";"4.151025e-02"
"  2";"  2";"100.00";" 4.155";"*Tx_1Ts_2_19";"4.151025e-02"
"  2";"  2";"100.00";" 4.155";"*Tx_Erm_12_2";"4.151025e-02"
"  2";"  2";"100.00";" 4.155";"*Tx_Erm_9_29";"4.151025e-02"
"  2";"  2";"100.00";" 4.155";"*Tx_2Ko_11_23";"4.151025e-02"
"  2";"  2";"100.00";" 4.155";"*Tx_Erm_10_16";"4.151025e-02"
"  2";"  2";"100.00";" 4.155";"*Tx_Ef_6_18";"4.151025e-02"
"  2";"  2";"100.00";" 4.155";"*Tx_1Ko_12_9";"4.151025e-02"
"  2";"  2";"100.00";" 4.155";"*Tx_1Ko_12_3";"4.151025e-02"
"  2";"  2";"100.00";" 4.155";"*Tx_1Ko_7_5";"4.151025e-02"
"  2";"  2";"100.00";" 4.155";"*Tx_1Ko_14_1";"4.151025e-02"
"  2";"  2";"100.00";" 4.155";"*Tx_1Ko_16_7";"4.151025e-02"
"  2";"  2";"100.00";" 4.155";"*Tx_Flp_2_16";"4.151025e-02"
"  2";"  2";"100.00";" 4.155";"*Tx_Flm_1_11";"4.151025e-02"
"  2";"  2";"100.00";" 4.155";"*Tx_1Ts_2_9";"4.151025e-02"
"  2";"  2";"100.00";" 4.155";"*Tx_Erm_11_6";"4.151025e-02"
"  2";"  2";"100.00";" 4.155";"*Tx_2Tm_3_11";"4.151025e-02"
"  2";"  2";"100.00";" 4.155";"*Tx_2Tm_1_18";"4.151025e-02"
"  2";"  2";"100.00";" 4.155";"*Tx_2Tm_1_10";"4.151025e-02"
"  2";"  2";"100.00";" 4.155";"*Tx_Erm_1_21";"4.151025e-02"
"  2";"  2";"100.00";" 4.155";"*Tx_2Ko_12_9";"4.151025e-02"
"  2";"  2";"100.00";" 4.155";"*Tx_Erm_12_17";"4.151025e-02"
"  2";"  2";"100.00";" 4.155";"*Tx_Erm_12_11";"4.151025e-02"
"  2";"  2";"100.00";" 4.155";"*Tx_Erm_8_26";"4.151025e-02"
"  2";"  2";"100.00";" 4.155";"*Tx_1Ko_12_31";"4.151025e-02"
"  2";"  2";"100.00";" 4.155";"*Tx_Kol_1_9";"4.151025e-02"
"  2";"  2";"100.00";" 4.155";"*Tx_Flp_4_1";"4.151025e-02"
"  2";"  2";"100.00";" 4.155";"*Tx_Ef_4_16";"4.151025e-02"
"  2";"  2";"100.00";" 4.155";"*Tx_2Ko_2_17";"4.151025e-02"
"  2";"  2";"100.00";" 4.155";"*Tx_Ga_6_1";"4.151025e-02"
"  2";"  2";"100.00";" 4.155";"*Tx_Ga_4_15";"4.151025e-02"
"  2";"  2";"100.00";" 4.155";"*Tx_2Ts_3_6";"4.151025e-02"
"  2";"  2";"100.00";" 4.155";"*Tx_Erm_16_19";"4.151025e-02"
"  2";"  2";"100.00";" 4.155";"*Tx_Flp_3_18";"4.151025e-02"
" 14";" 28";" 50.00";" 3.947";"*K_1Ko_16";"4.696518e-02"
" 25";" 56";" 44.64";" 3.841";"*L_Tesalonikarrei2";"5.001759e-02"
" 10";" 19";" 52.63";" 3.532";"*K_1Tm_4";"6.019331e-02"
" 20";" 44";" 45.45";" 3.419";"*K_Erm_15";"6.446116e-02"
" 12";" 24";" 50.00";" 3.377";"*K_2Ts_3";"6.609304e-02"
"  3";"  4";" 75.00";" 3.296";"*Tx_2Ko_7_9";"6.943285e-02"
"  3";"  4";" 75.00";" 3.296";"*Tx_2Ko_7_11";"6.943285e-02"
"  3";"  4";" 75.00";" 3.296";"*Tx_Erm_11_33";"6.943285e-02"
"  3";"  4";" 75.00";" 3.296";"*Tx_1Ts_2_13";"6.943285e-02"
" 12";" 25";" 48.00";" 2.761";"*K_Ga_1";"9.660889e-02"
" 55";"142";" 38.73";" 2.653";"*L_Efesoarrei";"1.033744e-01"
" 14";" 31";" 45.16";" 2.289";"*K_Flp_4";"1.303042e-01"
"  5";"  9";" 55.56";" 2.186";"*K_Ef_1";"1.392662e-01"
"  1";"  1";"100.00";" 2.077";"*Tx_1Ko_16_12";"1.495615e-01"
"  1";"  1";"100.00";" 2.077";"*Tx_1Ko_11_24";"1.495615e-01"
"  1";"  1";"100.00";" 2.077";"*Tx_2Ko_9_11";"1.495615e-01"
"  1";"  1";"100.00";" 2.077";"*Tx_1Tm_1_3";"1.495615e-01"
"  1";"  1";"100.00";" 2.077";"*Tx_Flp_1_17";"1.495615e-01"
"  1";"  1";"100.00";" 2.077";"*Tx_Flp_1_15";"1.495615e-01"
"  1";"  1";"100.00";" 2.077";"*Tx_Kol_1_27";"1.495615e-01"
"  1";"  1";"100.00";" 2.077";"*Tx_Kol_2_18";"1.495615e-01"
"  1";"  1";"100.00";" 2.077";"*Tx_2Ko_8_7";"1.495615e-01"
"  1";"  1";"100.00";" 2.077";"*Tx_2Ko_9_4";"1.495615e-01"
"  1";"  1";"100.00";" 2.077";"*Tx_2Ko_8_9";"1.495615e-01"
"  1";"  1";"100.00";" 2.077";"*Tx_1Ko_3_5";"1.495615e-01"
"  1";"  1";"100.00";" 2.077";"*Tx_1Ko_9_22";"1.495615e-01"
"  1";"  1";"100.00";" 2.077";"*Tx_2Ko_13_9";"1.495615e-01"
"  1";"  1";"100.00";" 2.077";"*Tx_1Tm_1_15";"1.495615e-01"
"  1";"  1";"100.00";" 2.077";"*Tx_Erm_8_23";"1.495615e-01"
"  1";"  1";"100.00";" 2.077";"*Tx_Ga_6_15";"1.495615e-01"
"  1";"  1";"100.00";" 2.077";"*Tx_Flp_3_1";"1.495615e-01"
"  1";"  1";"100.00";" 2.077";"*Tx_2Ko_12_10";"1.495615e-01"
