"";"classe 1";"classe 2";"classe 3";"classe 4";"classe 5";"classe 6";"classe 7";"classe 8"
"ukan";1;1;1;1;1;1;0;0,095
"jainko";1;1;0,001;1;0;1;1;0,002
"egin";1;1;1;1;1;1;0,003;0,019
"eman";1;1;0;0,35;1;1;1;0
"egon";1;1;1;0,803;1;1;0,747;0,082
"jaun";1;1;0;1;1;0,864;1;0
"esan";1;1;1;1;0;1;1;1
"on";1;1;1;1;1;1;1;0
"bezala";1;1;1;0,001;0,117;1;0,866;1
"kristu";1;1;0;1;0,001;1;1;0,364
"bizi";1;1;1;0,799;0,001;1;1;0,49
"nahi";1;0,322;1;1;1;1;0;1
"espiritu";1;1;1;1;0,062;1;1;0,004
"hartu";1;1;1;1;1;1;0,062;0,329
"behar";1;0,44;1;1;1;0,522;0;1
"lege";1;1;1;1;0;1;1;1
"jesu";1;0,016;0;1;0,134;1;1;0,643
"berri";1;1;1;1;1;1;1;0
"senide";1;0,029;1;1;1;1;1;0
"kristo";1;0,001;1;1;1;1;1;0
"arte";1;1;1;1;1;0,282;0,152;1
"bete";1;1;1;1;0,128;1;1;0
"buru";0,981;1;1;0;1;1;0;1
"jakin";1;1;1;1;1;1;0,741;0
"gabe";1;1;1;1;1;0,575;0;1
"bide";0,971;1;1;1;0;1;1;1
"agertu";1;1;1;1;1;1;1;0
"sinesmen";1;1;1;1;0,021;1;1;0,003
"horrela";1;1;1;1;0,001;0,675;1;0,868
"esker";1;1;1;1;1;1;1;0
"bekatu";1;1;0,939;1;0;1;1;1
"gauza";1;1;1;1;1;1;0;1
"gorputz";1;1;1;0,422;0;1;1;1
"egia";1;1;1;0,984;1;1;0;1
"orain";0,902;1;1;1;1;1;0,499;0
"gero";0,87;1;0,95;1;0,924;0,524;1;0
"santu";1;1;0,894;1;0;1;1;1
"mundu";1;1;1;1;1;1;0;1
"ote";1;1;1;1;1;0,421;0;1
"hil";1;1;1;0,378;0;1;1;1
"hitz";1;1;1;1;1;1;0;0,882
"maitasun";1;1;0,221;1;1;1;1;0
"aurre";1;1;1;1;1;1;0,744;0,218
"alde";0,756;1;1;1;1;1;1;0
"jesus";1;1;0,173;1;1;1;1;0
"giza";1;1;0,784;1;1;1;0;1
"ikusi";1;1;1;1;1;1;1;0
"piztu";0,532;1;1;1;0;1;1;1
"onartu";0,643;1;1;1;0;0,971;1;1
"utzi";0,629;0,594;1;0,203;1;1;0,051;0,745
"jarri";1;1;1;1;1;0,942;0;1
"gertatu";1;1;1;1;0,926;0,942;0,003;1
"zeuen";1;0,932;1;0,627;1;0,926;0,002;1
"dohain";1;1;1;1;1;1;1;0
"ongi";1;0,248;0,675;1;1;0,926;0,062;0,6
"hala";1;0,026;1;1;1;1;0,207;1
"horregatik";1;1;1;0,157;1;0,895;0,815;0,668
"elkarte";1;0;1;1;1;1;1;1
"menpe";1;1;1;0,008;1;1;0;1
"idatzi";1;0;1;1;1;1;1;1
"aita";1;1;0;1;1;1;1;0,902
"liburu";1;1;1;1;0;1;1;1
"gogo";1;1;1;1;1;1;0,521;0,018
"joan";1;0,313;1;1;1;0,795;1;0
"agindu";1;0,009;1;0,116;0;1;1;1
"bake";1;1;0;1;1;0,813;1;0,199
"oso";1;0,112;1;1;1;1;1;0
"sinetsi";0,488;1;1;1;0,001;1;1;0,905
"maite";1;0;0,54;0,089;1;1;1;1
"izen";1;0,001;1;1;1;1;1;0,582
"bakarrik";1;1;1;1;1;1;0,344;1
"irakatsi";1;1;1;1;1;1;0;1
"gizaki";1;1;1;1;1;1;0,001;1
"etorri";1;1;1;1;1;0,137;0,96;0,021
"arabera";1;1;1;1;0,438;1;0,131;1
"egun";1;1;1;1;1;1;1;0
"lan";1;1;1;1;1;0,741;1;0
"heriotza";1;1;1;1;0;0,741;1;1
"itxaropen";1;1;1;1;1;1;1;0
"eskatu";0,412;0,057;1;1;1;1;1;0
"judu";1;1;1;0,907;0,357;1;0,019;1
"handi";1;1;1;1;1;1;1;0
"jarraitu";1;1;1;1;1;1;0;1
"indar";1;1;1;1;1;1;1;0
"ezagutu";1;1;1;1;1;1;0,649;0
"eli";1;0;1;1;1;1;1;1
"nola";1;1;1;1;1;1;1;0,014
"jan";1;1;1;1;1;0;1;1
"esku";1;0,041;1;1;0,983;1;1;0,822
"bihotz";1;1;1;1;1;1;1;0
"bakar";1;1;0,285;0,803;0;1;1;1
"huts";1;1;1;1;1;1;0;1
"herri";1;1;1;1;0;1;1;1
"saiatu";0,349;1;1;0,978;1;1;1;0
"jokatu";1;1;1;1;1;1;0;1
"harrotu";0,349;1;1;0,978;1;1;0;1
"bitart";1;1;1;1;0,004;1;1;0,035
"zuzen";0,317;1;1;1;0;1;1;1
"fededun";1;0;1;1;1;1;1;0,238
"emakume";1;0,249;1;0;1;1;0,577;1
"bakoitz";1;1;1;0,001;1;0,068;1;0,341
"argi";1;1;1;1;1;1;0,958;0
"zerbitzu";1;0,015;1;1;0,924;1;1;0,049
"salbatu";1;1;1;1;0,104;1;1;0,068
"gizon";1;1;1;0;1;1;0,002;1
"fede";0,007;1;1;0,231;1;1;1;0
"eraman";1;1;1;0,931;1;1;0,01;1
"beti";1;1;1;1;1;1;1;0
"poz";1;1;1;1;1;1;1;0
"mezu";1;1;1;1;1;1;1;0
"bihurtu";1;1;1;0,882;1;0,001;0,182;1
"seme";1;0;1;1;1;1;1;0,625
"kristau";1;0;1;0,001;1;1;0,865;1
"berriro";1;0,681;0,356;0,907;1;1;1;0,11
"otoitz";1;1;1;0,857;1;1;1;0
"jo";1;0,357;1;1;1;1;0,047;1
"gain";1;1;1;1;1;1;0,002;1
"adore";1;1;1;1;1;1;1;0
"sortu";0,253;0,196;1;0,178;1;1;1;0,203
"senar";1;0,357;1;0;1;1;1;1
"gelditu";1;1;1;0,178;0,01;0,496;1;1
"galdu";1;1;1;1;1;1;0,043;0,378
"duzu";1;1;1;1;1;0,036;1;0
"aintza";1;1;0,009;1;1;0,518;1;0,002
"uste";1;1;1;1;1;0,473;0;1
"garbi";1;1;1;0,178;1;1;1;0
"aldu";1;1;1;0,83;0,003;0,496;0,678;1
"ibili";1;1;1;1;0,769;0,427;0;1
"era";1;1;1;0,803;1;1;1;0,001
"bidali";1;0;1;1;1;1;1;0,82
"apostolu";1;0,003;1;1;1;1;1;1
"krist";1;1;1;0,776;0,528;1;1;0,001
"ezarri";1;0,436;1;1;1;1;0;1
"jasan";0,174;1;1;1;1;1;1;0
"ezin";1;1;1;1;1;0,427;0;1
"etxe";1;0;1;1;1;0,403;1;1
"esklabo";1;1;1;1;0;1;1;1
"entzun";1;1;1;1;1;1;0;1
"deitu";1;0,93;1;1;0;1;1;1
"atsegin";1;1;1;0,13;1;0,427;1;0,01
"asmo";1;1;1;1;1;1;1;0
"eragin";1;1;1;1;1;1;0,121;0,012
"egintza";1;1;1;1;1;1;0,002;1
"duenak";1;1;1;0,004;1;0,379;0;1
"dezala";1;0,788;1;0;1;1;0,954;0,815
"bizitu";1;1;1;0,075;0,202;1;1;0,815
"iritsi";1;1;1;1;1;1;1;0
"harro";1;0,09;1;1;1;0,379;0,001;1
"hain";0,159;1;1;1;0,01;1;1;0,336
"aurka";0,088;1;1;1;1;1;0,007;1
"zerbitz";1;0,001;1;1;1;1;1;0
"sendo";1;1;1;1;1;1;1;0
"jakinduria";1;1;1;1;0,679;1;0,257;1
"hildako";1;1;1;1;0;1;1;1
"grina";1;1;1;1;1;1;0;1
"garai";1;1;1;1;1;1;0,001;1
"buruz";1;1;1;1;1;1;1;0,004
"zuengan";1;0,738;1;1;1;1;1;0
"lagun";1;0,007;1;0;1;1;1;1
"iraun";1;1;1;0,625;1;1;1;0
"gai";1;1;1;1;1;1;1;0
"ezakan";1;1;1;1;0,005;0,258;1;0,811
"atera";1;1;1;1;1;1;0;1
"anaia";1;0;1;1;1;1;1;1
"ahal";1;1;1;1;1;1;1;0
"zuenga";1;1;1;1;0,585;1;1;0,004
"kontzientzia";0,115;1;1;1;1;0;0,001;1
"hazi";1;0,58;1;0,49;1;0,234;1;0
"ekarri";1;1;1;1;0,877;1;1;0,002
"eduki";1;1;1;0,559;1;0,006;1;0,001
"bildu";1;0;1;1;1;1;0,625;1
"behin";1;0,738;1;1;1;1;0,038;1
"bedi";0,13;1;0;1;1;1;0,011;1
"adierazi";1;1;1;1;1;1;1;0
"zeru";1;1;1;1;0,585;1;0,192;1
"ulertu";1;1;1;1;1;0,234;0,007;1
"mintzo";1;0,308;1;1;1;1;0,005;1
"kristorekin";1;1;1;1;0;1;1;1
"kontu";1;1;1;1;1;0,006;0;1
"hizketa";1;1;1;1;1;1;1;0,013
"heldu";1;1;1;0,043;1;1;0,003;1
"grazia";1;1;0;1;1;1;1;1
"ezkondu";1;0,58;1;0;1;1;0,03;1
"aukeratu";1;1;1;1;0,082;1;1;0,473
"atal";1;1;1;0,417;0;1;1;1
"ahalmen";1;1;1;1;1;1;0,192;0,138
"agur";1;0;1;1;1;1;1;1
"horrelako";0,088;1;1;1;1;1;0;1
"erakutsi";1;0,633;1;0,525;1;1;1;0,002
"epai";1;1;1;0,525;1;1;0;1
"betiko";1;1;1;1;0,082;1;1;0,811
"arrotz";1;1;1;1;0,212;1;1;0,455
"profeta";1;1;1;1;1;1;0,001;1
"parte";1;0,58;1;1;1;0,234;1;0,004
"orduan";1;1;1;1;0,008;1;0,061;1
"onginahi";1;1;1;1;1;1;1;0,009
"izukan";1;0;1;1;1;1;1;0,686
"irrika";1;1;1;1;1;1;1;0
"erabaki";0;1;1;1;1;1;0,243;1
"oraindik";1;1;1;1;0,671;1;1;0,036
"lagundu";1;0;1;1;1;1;1;1
"jentil";1;1;1;1;0,252;1;0,625;1
"irakaspen";1;1;1;1;1;1;0,061;0,112
"etsai";1;1;1;1;1;0,002;0,749;0,94
"eskaini";1;1;1;1;1;0;1;1
"eliza";1;1;1;0;1;1;1;0,444
"beza";0,076;1;1;0,027;1;0,21;0,004;1
"aitortu";1;1;1;1;1;1;0,002;1
"txar";0,025;1;1;1;1;1;0;1
"semealabak";1;1;1;1;0;1;1;1
"oinarritu";1;1;1;1;0,466;1;1;0,336
"neurri";1;1;1;1;1;1;0,154;0,946
"mintzatu";1;1;1;1;1;1;0,016;1
"irabazi";1;1;1;1;1;0;0,021;1
"goraintzi";1;0;1;1;1;1;1;1
"bezalako";1;1;1;1;1;1;0,058;0,292
"benetako";1;1;1;1;0,003;1;1;0,797
"begi";1;1;1;1;0;1;1;1
"balio";1;1;0,085;1;1;0,186;1;0,004
"atsekabe";1;1;1;1;1;0,186;1;0
"askatu";1;1;1;0,021;0,001;1;1;1
"zor";1;1;1;0,011;1;0,14;1;0,084
"zabaldu";1;1;1;1;1;1;1;0,042
"lur";1;1;1;1;1;1;0;1
"jantzi";1;1;1;1;1;0;0,498;1
"honela";1;1;1;1;0;1;1;1
"hondatu";1;1;1;1;0,775;1;0,154;1
"gutun";1;0,006;1;1;1;1;1;0,669
"fruitu";1;1;1;1;0,187;1;1;0,336
"erabat";1;1;1;0;1;1;1;0,023
"enukan";0,053;1;1;1;0,89;1;1;0,042
"elkartu";1;1;1;0;0,012;1;1;1
"borroka";1;0,416;1;1;1;1;1;0,336
"bizitza";1;1;1;1;1;1;0;1
"beldur";1;1;1;1;1;1;0;1
"ondoren";1;0,362;1;1;1;1;0,77;0,24
"nolako";1;0,95;1;1;1;1;1;0
"nizu";1;0,362;1;1;1;1;1;0,535
"nagusi";1;1;1;1;0;1;1;1
"lortu";1;1;1;1;0,37;1;0,011;1
"ikasi";1;1;1;1;1;1;0,011;1
"haserre";0;1;1;1;1;1;0,011;1
"eutsi";1;1;1;1;1;1;0,633;0,048
"erruki";1;0,95;0;1;1;1;0,944;0,646
"eitezi";1;1;1;0;1;1;0,092;1
"aukera";1;1;1;1;1;1;1;0,001
"zigor";1;1;1;1;1;1;0,005;1
"salbamen";1;1;1;1;1;1;1;0,011
"maitatu";1;1;1;0;1;1;1;1
"hasi";1;0,027;1;1;1;1;0,944;0,292
"halako";1;1;1;1;1;1;0,633;0,407
"gaizki";1;1;1;1;1;1;0;1
"etengabe";1;1;1;1;1;0,118;1;0
"emazte";1;0,95;1;0;1;1;1;1
"dizue";1;0,001;1;0,266;1;0,097;1;0,1
"bila";1;0,884;1;1;0,03;1;0,794;1
"barru";1;1;1;1;1;1;1;0,011
"aurrez";1;1;1;1;1;1;1;0,011
"arazo";1;0,308;1;1;1;1;0,099;1
"zoro";1;1;1;1;1;1;0;1
"urruti";1;1;1;1;1;1;0,199;0,292
"timoteo";1;0;1;1;1;1;1;1
"sari";1;1;1;1;1;1;0,012;1
"prestatu";1;0,256;1;1;1;1;1;0,1
"prest";1;1;1;0,003;1;0,078;0,372;0,951
"ondorengo";1;1;0,027;1;0;1;1;1
"oker";1;1;1;1;1;0,097;0;1
"lotu";1;1;1;0,003;0,004;1;1;1
"libre";1;0,884;1;1;0;1;1;1
"jokabide";1;1;1;1;1;0,097;0,012;1
"jainkoar";1;1;1;0,266;1;1;0,498;0,292
"israeldar";1;1;1;1;0,001;1;1;1
"emaztu";1;0,813;1;0;1;1;1;1
"edan";1;1;1;1;1;0;1;1
"da";1;1;1;1;1;1;1;0,005
"bitarte";1;0,95;1;0;1;0,097;1;1
"barkatu";1;0,736;1;1;0;1;1;1
"baliatu";1;1;1;1;1;1;0;1
"askatasun";1;1;1;1;1;1;0;1
"arrisku";1;1;1;1;1;0;0,281;1
"ardura";1;0,256;1;1;1;1;1;0,1
"aldi";1;1;1;1;1;1;1;0
"adimen";1;1;1;1;0,054;1;1;0,646
"paulok";1;0;1;1;1;1;1;1
"noski";1;1;1;1;0,03;0,078;1;1
"misterio";1;0,736;1;1;1;1;1;0
"leial";1;0;1;1;1;1;1;1
"jesusengan";1;1;1;1;1;1;1;0,002
"jentila";1;0,884;1;1;1;1;0;1
"jaunarengan";1;0,207;1;1;1;1;0,794;0,195
"izaera";1;1;0,013;1;0,63;1;0,037;1
"itzuli";1;1;1;1;1;1;1;0,002
"irudi";1;1;1;1;1;0,044;0,484;1
"haragi";1;1;1;0,228;1;0;1;1
"gau";1;1;1;1;1;1;1;0
"erreinu";1;1;1;1;1;1;1;0,002
"dizued";1;0,017;1;1;1;1;1;0,056
"dezazu";1;0,207;1;1;1;1;1;0,056
"behartu";1;0,207;1;1;1;1;0,001;1
"aztertu";1;1;1;1;1;0,06;0,002;1
"azaldu";1;1;1;1;0,905;1;1;0,002
"auzi";0;0,884;1;1;1;1;0,031;1
"aurkitu";1;1;1;1;1;1;0,638;0,118
"aberats";1;1;1;1;1;1;0,896;0,206
"zuen";1;0,813;1;1;1;0,06;0,258;0,785
"ziur";1;1;1;1;1;1;1;0
"zaretu";1;0,01;1;1;1;1;1;0,027
"zaiteztu";1;0,813;1;1;1;1;1;0,004
"uzukan";1;0,813;1;1;1;1;0,638;0,118
"ondorio";1;1;1;1;0;1;1;1
"oinarri";1;1;1;1;1;1;0,014;1
"nindu";1;1;1;1;0,77;1;0,638;0,785
"nahigabe";1;1;1;1;1;1;1;0
"moisesen";1;1;1;1;0;1;1;1
"legepe";1;1;1;1;0,009;1;1;1
"kontra";1;1;1;1;1;0,06;0,002;1
"kendu";1;0,813;1;1;0;1;1;1
"jende";1;1;0,019;1;1;1;0,073;1
"jakintsu";1;1;1;1;1;1;0,002;1
"itun";1;0,813;1;1;0,002;1;1;1
"iritzi";1;0,813;1;1;1;1;1;0,004
"irain";0;1;1;1;1;1;1;1
"ipini";1;1;1;1;0,001;1;1;1
"inolako";0,008;0,736;1;1;1;1;0,484;1
"han";1;0,161;1;1;1;1;0,002;1
"gorde";1;1;1;1;1;1;1;0
"gogor";1;1;1;1;1;1;0;1
"gaizto";1;1;1;1;1;1;0;1
"gaitzetsi";1;1;1;1;0,048;1;0,164;1
"gaitz";1;0,566;0,004;0,087;1;1;1;0,07
"eztabaida";1;1;1;1;1;1;0;1
"erantzun";1;1;1;1;1;1;1;0
"eraiki";1;0,161;1;1;1;1;0,073;1
"eginkizun";1;1;1;1;1;1;1;0,027
"dudala";1;0,736;1;1;1;1;0,037;1
"digu";1;1;1;1;0,086;1;1;0,358
"burutu";1;0,813;1;1;1;1;1;0
"bilatu";1;1;1;0,154;0,63;1;0,484;1
"aitzakan";0;1;1;1;1;1;1;0,004
"zintzo";1;0,005;1;1;1;1;1;0,063
"zergatik";1;1;1;1;1;1;0;1
"zentzu";1;1;1;1;1;1;0,049;1
"zaindu";1;0;1;1;1;1;1;0,237
"zain";1;0,736;1;1;1;1;1;0,001
"zahar";1;1;1;0,154;0,006;1;0,994;1
"sartu";1;1;1;1;0,63;1;0,005;1
"sagaratu";1;0,654;1;0,119;0,023;1;1;1
"pozik";1;1;1;1;1;1;1;0
"partaide";1;0,736;1;1;1;1;0,484;1
"onespen";1;0,566;1;1;0,922;1;1;0,763
"merezi";1;0,736;1;0,001;1;1;0,037;1
"maiteo";1;1;1;1;1;1;1;0
"lankide";1;0;1;1;1;1;1;1
"kristorengan";1;0,736;1;1;0,006;1;1;1
"jaso";1;1;1;1;1;1;0;1
"jabe";1;1;1;0,087;1;1;0,213;1
"hemen";1;0;1;1;1;1;0,994;1
"helburu";1;1;1;1;1;1;0,037;1
"grin";1;1;1;1;1;1;0,002;1
"gizonemakume";1;1;1;1;0,488;1;1;0,444
"eskuzabaltasun";1;1;1;1;1;0;1;0,01
"errebelde";0,005;1;1;1;1;1;0;1
"erabili";1;1;1;1;1;1;0,092;0,444
"egoki";1;0,654;1;1;1;1;0,092;0,958
"eder";1;1;1;1;1;1;1;0
"bertan";1;1;1;1;0,922;1;0,005;1
"arrazoi";0;0,119;1;1;1;1;0,037;1
"ahulezia";1;1;1;1;1;1;0,092;0,444
"aginte";1;1;1;1;1;1;0,005;1
"zuri";1;0;1;1;1;1;1;1
"une";1;1;1;1;1;1;0,821;0,139
"ukzuen";1;0;1;1;1;1;1;0,139
"tenplu";1;1;1;1;0,009;1;1;1
"predikatu";1;1;1;1;1;1;1;0,004
"paulo";1;0,002;1;1;1;1;1;0,444
"ospe";1;1;1;1;0,571;1;1;0,074
"opari";1;1;1;1;1;0;1;0,958
"oinordeko";1;0,052;0,004;1;0,009;1;1;1
"moztu";1;1;1;0;1;1;1;1
"konfiantza";1;1;1;1;1;1;1;0
"jai";1;1;1;1;1;0;0,821;1
"irakurri";1;0;1;1;0,922;1;1;1
"ihes";1;1;1;1;1;1;0,092;0,444
"hurko";1;1;1;0;1;1;1;1
"gose";1;0,654;1;1;1;0;1;1
"gaituela";1;1;1;1;0,001;1;1;1
"gainerako";1;0,566;1;1;0,922;1;0,638;1
"eskubide";1;1;1;1;1;1;0,092;0,958
"errudun";1;1;1;1;1;0;0,821;0,958
"eroapen";1;0,566;1;1;1;1;1;0,001
"egoera";1;1;1;1;1;1;0,002;1
"direneitu";1;1;1;1;0,139;1;0,092;1
"di";1;1;1;1;1;1;1;0,004
"bizirik";1;1;1;1;0,139;1;1;0,444
"begira";0;1;1;1;1;1;0,821;0,958
"bataiatu";1;0,566;1;1;0,001;1;1;1
"balu";1;0,083;1;1;0;1;1;1
"arekan";1;1;1;1;0,922;1;1;0,07
"aldatu";1;1;1;1;1;1;1;0,139
"akats";1;1;1;1;1;1;0,002;1
"agintari";1;1;1;1;1;1;0;1
"abrahamen";1;1;0,002;1;0;1;1;1
"zuentzat";1;0,17;1;1;1;1;1;0,455
"zoriontsu";1;1;1;1;0,003;1;1;1
"zerbitzatu";1;0,566;1;1;0,351;1;1;0,763
"zaitez";0,002;1;1;1;1;1;1;0,001
"urte";1;0,566;1;1;1;1;0,213;1
"toki";1;0,566;1;1;0,922;1;0,213;1
"tinko";1;1;1;1;1;1;0,213;0,29
"suntsitu";1;1;1;1;0,922;1;0,005;1
"sufrimendu";0;1;1;1;1;1;1;0,01
"salbatzaile";1;1;0,004;0,087;1;1;1;0,07
"pazientzia";1;1;1;1;0,922;1;1;0,07
"otoitu";1;1;1;1;1;1;1;0
"oparo";1;1;1;1;0,126;0,005;1;1
"ondasuna";1;1;1;1;1;1;0,379;0,455
"non";1;1;1;1;0,351;1;1;0,763
"neke";1;1;1;1;1;1;1;0,01
"madarikatu";0,002;1;1;1;0,922;1;1;0,07
"lekuko";0;1;1;1;1;1;0,638;1
"laster";1;1;1;1;1;1;1;0,001
"laguntza";1;1;1;1;1;1;1;0
"jun";1;1;1;1;0,922;1;0,638;0,763
"jaunarengatik";1;0,472;1;1;1;1;1;0,003
"jardun";1;0,566;1;1;1;1;1;0,01
"jaio";1;1;1;1;1;1;0,044;1
"israel";1;1;1;1;0;1;1;1
"indarrez";1;1;1;0,087;1;1;0,213;0,763
"ilunpe";1;1;1;1;1;1;0,213;0,763
"hor";1;0,566;1;1;0,922;1;1;0,763
"haia";1;0;1;1;1;1;1;0,558
"gurega";1;1;1;1;0,001;1;1;1
"guraso";1;0,271;1;1;1;1;1;0,72
"gezur";1;1;1;0,087;1;1;0;1
"ezkutu";1;1;1;1;1;1;1;0,001
"ezagun";1;1;1;1;1;1;0,005;1
"errugabe";1;1;1;1;1;1;1;0,07
"errege";1;1;0,002;1;1;1;0,016;1
"erori";1;1;1;1;0,351;1;0,213;1
"eredu";1;1;1;1;0,753;1;1;0,558
"erdainkuntza";1;1;1;1;0;1;1;1
"duen";1;1;1;1;1;1;0,005;1
"ditudan";1;0,052;1;1;1;1;1;0,29
"dit";1;1;1;1;0,009;1;1;1
"dia";1;0,566;1;0,087;0,922;1;0,638;1
"biezazkizuete";1;1;0;1;1;1;1;1
"betetu";1;1;1;1;0;1;1;1
"bereizi";1;0,566;1;1;0,077;1;1;1
"benetan";1;0,566;1;1;1;1;0,638;0,763
"askoz";1;1;1;0,087;1;1;1;0,01
"arau";1;0,472;1;1;0,036;1;1;1
"aldendu";0,002;1;1;1;1;1;1;0,07
"aingeru";1;1;1;1;0,922;1;1;0,07
"aho";1;1;1;1;0,922;1;1;0,29
"zuzentzat";1;1;1;1;0;1;1;1
"zorrotz";1;1;1;1;1;1;0,115;0,558
"zentza+araz";1;1;1;1;1;1;0;1
"zaiteztela";1;1;1;1;0,036;1;1;0,558
"sentitu";1;0;1;1;1;0,011;1;1
"semealaba";1;0;1;1;1;1;1;1
"salatu";1;1;1;1;1;1;0,001;1
"ordaindu";1;1;1;1;0;1;1;1
"ogi";1;1;1;1;0,753;0;1;1
"noiz";1;1;1;1;1;1;1;0
"nahigabetu";1;1;1;1;1;1;1;0,023
"nahasi";1;1;1;0,058;1;1;0,016;1
"nago";1;0,029;1;1;1;1;1;0,164
"lotsatu";1;0;1;1;1;1;1;0,558
"lo";1;1;1;1;1;1;1;0,008
"legami";1;1;1;1;0;1;1;1
"kristorengatik";1;1;1;1;1;1;1;0,164
"kopa";1;1;1;1;0,228;0;1;1
"kondenatu";1;1;1;1;1;1;0;1
"jakinaraz";1;0,17;1;1;1;1;1;0,069
"itzazu";0;0;1;1;1;1;1;0,966
"iragarri";1;0,472;1;1;1;0,011;1;0,558
"inoiz";1;1;1;1;0,753;0,011;0,115;1
"igo";1;0,373;1;1;1;1;0,004;1
"hutsal";0;1;1;1;1;1;1;0,558
"hiri";1;0,472;1;1;1;1;0,001;1
"haur";1;1;1;0;1;1;0,453;1
"gutxietsi";1;0,014;1;1;1;1;1;0,074
"gurutu";1;0,472;0,002;1;0,003;1;1;1
"goretsi";1;1;1;1;0;1;1;1
"gorabehera";1;0;1;1;1;1;1;1
"gaiztakeria";0;1;1;1;1;1;1;0,558
"ezagutza";1;1;1;1;1;1;0,016;1
"eskuzabal";1;1;1;1;1;1;1;0,001
"eskuratu";1;1;1;1;0;1;1;1
"erregutu";1;1;1;1;1;1;1;0
"erlijio";1;1;1;1;1;1;1;0
"dudan";1;0,014;1;1;1;1;0,049;1
"distira";1;1;1;0,035;0,001;1;1;1
"dagoeneko";1;1;1;1;1;1;0,016;1
"borondate";1;1;1;1;1;1;1;0,028
"bit";1;0,472;0,002;0,058;0,228;1;1;1
"berez";1;1;1;1;0,753;1;0,115;1
"bere";1;1;1;1;0,001;1;1;1
"berdin";1;1;1;0;1;1;1;1
"bekata";1;1;1;1;0,003;1;1;1
"beharrezko";1;0;1;1;1;1;1;0,966
"baliotsu";1;1;1;1;0,036;1;1;1
"argitu";1;1;1;1;0,689;1;0,896;0,976
"are";1;1;1;1;0,753;1;1;0,164
"arduratu";1;0,472;1;1;1;1;0,453;1
"antzeko";1;1;1;1;0,001;1;1;1
"ama";1;0,373;1;1;0,571;1;1;0,36
"alferrik";1;1;1;1;1;1;0,453;0,558
"aldeko";1;1;1;1;1;1;0,016;1
"aipatu";1;1;1;1;1;1;0;1
"aholkatu";1;1;1;1;1;1;0;1
"ahalegin";1;1;1;1;1;1;0,453;0,164
"agerian";1;1;1;1;1;1;0,853;0,074
"zertan";1;0,014;1;1;1;1;1;0,966
"zentzudun";1;1;1;0;1;1;0,049;1
"zaudete";1;1;1;1;0,013;1;1;1
"zama";1;0,014;1;1;1;1;1;0,966
"zaituztu";1;1;1;1;0,571;1;1;0,074
"zaituztete";1;0;1;1;1;1;1;1
"uko";1;1;1;1;1;1;0;1
"uenakan";1;1;1;1;1;1;1;0,189
"txertatu";1;1;1;0;1;1;1;1
"sustrai";1;0;1;1;1;1;1;1
"sendotu";1;0,373;1;1;1;1;1;0,074
"seinale";1;0,271;1;1;0,054;1;1;1
"sasijainkoei";1;1;1;1;1;0;1;1
"preso";1;1;1;1;1;1;1;0,008
"pertsona";1;1;1;1;1;1;0,281;0,966
"pentsatu";1;1;1;0,035;1;1;0,853;0,36
"ontzi";1;1;1;1;1;1;0,621;0,189
"onginahiaz";1;1;1;1;0,571;1;1;0,074
"nu";1;0;1;1;1;1;1;1
"mesede";1;0;1;1;1;1;1;1
"mende";1;1;0;1;1;1;1;1
"maila";1;1;1;1;1;1;0,004;1
"lotsagarri";1;1;1;0;1;1;0,049;1
"lizun";1;0,373;1;1;1;1;0,853;0,36
"liluratu";1;1;1;1;0,212;1;0,379;1
"leialtasun";1;1;1;1;1;1;0,621;0,189
"larri";1;1;1;1;1;0,005;0,004;1
"lapur";1;0,014;1;1;1;1;1;0,074
"lagungarri";1;0,271;1;0,017;1;1;0,621;1
"kutsatu";1;1;1;1;1;1;0,049;1
"kristoren";1;0,373;0;1;1;1;1;1
"kartzela";1;0;1;1;1;1;1;0,72
"kalte";1;1;1;1;1;1;0;1
"jokaera";0;1;1;1;1;1;0,853;0,966
"jatorri";1;1;1;1;0,003;1;1;1
"isuri";1;1;1;1;0;1;1;1
"iruditu";1;0;1;1;1;1;1;1
"irizpide";1;1;1;1;1;1;0;1
"irakasle";1;1;1;1;1;1;0,049;0,966
"hurbil";1;1;1;1;0,571;1;0,281;1
"horrexega";0;1;1;1;0,013;1;1;1
"hona";1;0;1;1;1;1;1;1
"hobeki";1;1;1;1;1;1;1;0,008
"hobe";1;1;1;0;1;1;1;1
"hilkor";1;1;1;1;0,571;1;0,281;1
"hilik";1;1;1;1;0,013;1;0,853;1
"harrera";1;1;1;1;1;1;1;0,001
"gurutziltzatu";1;1;1;1;0,212;1;0,379;1
"gazte";1;0;1;0,035;1;1;0,853;1
"gaixo";1;1;1;1;1;1;0,014;1
"ezertan";1;1;1;1;1;1;0,014;1
"ezazukan";1;1;1;1;1;1;0,853;0,074
"ezazu";1;0,014;1;1;1;1;0,853;0,966
"etorrera";1;1;1;1;1;1;1;0,008
"erne";1;1;1;1;1;1;1;0
"dizuen";1;1;1;1;0,571;1;1;0,36
"dituzun";1;1;1;1;1;0;0,621;1
"diet";1;1;1;0,017;0,054;1;1;1
"botere";1;1;1;1;1;1;0,049;0,966
"bihozbera";1;0,271;1;1;1;1;1;0,72
"bezain";1;1;1;1;0,571;1;1;0,36
"begiratu";1;1;1;1;0;1;1;1
"bedeinka";0;1;1;1;0,054;1;1;1
"bazter";0;1;1;0,035;1;1;0,853;1
"batasun";1;1;1;0;1;1;1;0,72
"bataio";1;1;1;1;0;1;1;1
"barruti";1;1;1;1;0,013;1;1;0,966
"bain";1;1;1;1;1;1;0,853;0,074
"baikara";1;1;1;0,035;0,013;1;1;1
"badio";1;1;1;1;1;1;0,004;1
"axola";1;1;1;1;0,001;1;1;1
"ausartu";1;1;1;1;1;1;0,014;1
"ahaltsu";1;1;1;1;0,013;1;1;1
"agintzariaren";1;1;0,001;0,035;0,013;1;1;1
"agintzaria";1;0,373;1;1;1;1;0,853;0,966
"abraham";1;1;1;1;0;1;1;1
"zuzendari";1;1;1;1;0,945;1;0,049;1
"zorakeri";1;1;1;1;0,078;1;0,896;1
"zigortu";1;1;1;1;1;1;1;0,023
"zia";1;1;1;1;0,003;1;1;1
"zaretenez";1;1;1;1;0,054;1;1;1
"zareten";1;0;1;1;1;1;1;1
"zaizuen";1;1;1;1;0,385;1;1;0,72
"zaitu";1;0,271;1;1;0,003;1;1;1
"ukatu";1;1;1;1;1;1;1;0,001
"trebe";1;1;1;1;1;1;0,001;1
"tito";1;0;1;1;1;1;1;1
"sinesmene";1;1;1;1;0,385;1;1;0,189
"sinesmenaga";1;0,271;1;0,017;0,385;1;1;1
"sinesgarri";1;1;1;1;1;1;1;0,069
"semea";1;1;1;1;1;1;1;0,001
"satanasen";1;1;1;1;1;1;0,001;1
"salbatzailearen";1;0,271;1;1;1;1;1;0,72
"sakon";1;1;1;1;1;1;1;0,001
"profezi";1;1;1;1;1;1;1;0,004
"pertsegitu";1;1;1;1;1;1;0,001;1
"pedro";1;1;1;1;1;1;0,141;0,72
"ospetsu";1;1;1;1;0;1;1;1
"ordez";1;1;1;1;1;1;0,049;1
"ondare";1;1;1;1;0,385;1;1;0,72
"oin";1;1;1;1;0,385;0,002;1;0,72
"ohore";1;0,17;0;1;0,945;1;1;1
"odol";1;1;1;1;0;1;1;1
"neurritsu";1;1;1;0,017;1;1;0,621;0,72
"mirari";1;1;1;1;0,385;1;1;0,72
"min";1;1;1;1;0,945;1;1;0,455
"maltzur";0;1;1;1;1;1;0,014;1
"lehia";1;1;1;1;0,689;1;0,896;0,976
"kontrako";0;1;1;1;1;1;1;1
"kezkatu";1;0,271;1;1;1;1;1;0,023
"kanpo";1;1;1;1;0,054;1;0,621;1
"juzun";1;0,005;1;1;1;1;1;0,72
"jerusalemera";1;0,271;1;1;1;1;0,014;1
"jentilentzat";1;0,081;1;1;1;1;0,896;0,976
"janari";1;1;1;1;0,054;1;0,621;1
"jagokin";1;1;1;0;1;1;1;1
"jadanik";1;0,271;1;1;0,003;1;1;1
"izaki";1;1;1;1;0,689;1;1;0,206
"itxaro";1;1;1;1;0,385;1;1;0,72
"itsaso";1;1;1;1;0,385;1;1;0,72
"ilun";1;1;1;1;1;1;0,002;1
"igaro";1;0,271;1;1;1;1;0,621;0,72
"honelako";1;1;1;1;1;1;0,141;1
"hezi";1;0,271;1;1;1;1;0,014;1
"hartzazue";1;1;1;0,017;1;1;1;0,023
"harenga";1;0,271;1;1;0,385;1;1;1
"hara";1;0;1;1;1;1;1;1
"gomendatu";1;0,271;1;1;1;1;0,014;1
"gizonezko";1;1;1;1;0,945;1;0,049;1
"gizaseme";1;1;1;0;1;1;1;1
"gezurrezko";1;0,17;1;1;1;1;0,049;1
"garaipen";1;1;1;1;1;1;1;0,023
"gaitzespen";1;1;1;1;0,054;0,002;1;1
"gaituen";1;1;1;1;1;1;1;0,001
"gainditu";1;1;1;1;1;1;0,049;1
"ezjakin";1;1;1;1;1;1;0,621;0,189
"ezaguera";1;1;1;1;1;1;1;0,001
"etortu";1;0,17;0;1;0,212;1;1;1
"estali";1;1;1;0,017;0,385;1;0,621;1
"errespetu";1;0,005;1;1;1;0,002;0,621;1
"erdainduak";1;1;1;1;0,003;1;1;1
"erdaindu";1;1;1;1;0;1;1;1
"erasoaldi";1;1;1;1;1;0,002;1;0,023
"epaile";1;0,271;1;1;1;1;0,141;1
"entzule";1;1;1;1;1;1;0,014;1
"engain";0;1;1;1;1;1;1;1
"emaitza";1;0,271;1;1;1;0;1;1
"ekin";1;1;1;1;0,385;1;1;0,72
"egokitu";1;1;1;1;1;1;1;0,023
"egita";1;1;1;1;1;1;1;0,001
"egintz";1;1;1;1;1;1;0,014;1
"efeson";1;1;1;1;1;1;1;0,023
"dutena";1;0,271;1;1;1;1;0,014;1
"dugun";1;1;1;1;1;1;0,621;0,72
"direnekin";1;0,17;1;1;0,212;1;1;1
"direna";1;1;1;1;1;1;0,014;1
"dion";1;1;1;1;1;1;0,621;0,189
"dei";1;1;1;1;0,385;1;1;0,189
"dagokidanez";1;1;1;1;0,385;1;0,621;1
"bidaia";1;0;1;1;1;1;1;0,72
"betie";1;1;1;1;1;1;0,621;0,72
"betebetean";1;1;1;1;1;1;0,621;0,72
"berezi";1;1;1;1;1;1;1;0,001
"begirune";1;0,005;1;0,017;1;1;1;0,72
"baztertu";1;1;1;1;0,385;1;0,621;1
"batzar";1;0;1;1;1;1;1;1
"baitzaituzte";1;1;1;1;0;1;1;1
"azkenik";1;0,271;1;1;1;1;1;0,189
"aurrera";1;1;1;1;1;1;0,014;1
"aurkeztu";1;1;1;0,006;1;1;1;0,069
"atzerritar";1;1;1;1;0;1;1;1
"arma";1;1;1;1;1;1;0,001;1
"aitorpen";0;1;1;1;1;1;1;1
"aholku";1;1;1;1;1;1;1;0,023
"agintzari";1;1;1;1;0;1;1;1
"aditu";1;1;1;1;1;1;0,141;1
"adiskide";1;0,271;1;1;1;1;1;0,189
"abrahami";1;1;1;1;0,003;1;1;1
"abrahamek";1;1;1;1;0;1;1;1
"abiatu";1;1;1;1;1;1;0,001;1
"zuzenetsi";1;1;1;1;0;1;1;1
"zorion";1;1;1;1;1;1;1;0,069
"zizuen";1;0,17;1;1;0,945;1;1;1
"ziren";1;1;1;1;1;1;0,002;1
"zilegi";1;0,17;1;1;0,945;1;0,379;1
"zikin";1;1;1;1;0,945;1;1;0,455
"zeuekin";1;1;1;1;1;1;1;0,069
"zerikusi";1;1;1;1;0;1;1;1
"zatkan";1;1;1;1;1;1;1;0,069
"zatitu";1;1;1;1;0,945;1;0,379;1
"zatiketa";0;1;1;1;0,945;1;0,379;1
"zaintzaile";1;1;1;1;0,945;1;0,049;1
"ur";1;1;1;1;1;0;0,164;1
"titori";1;0,001;1;1;1;1;1;0,455
"timoteok";1;0;1;1;1;1;1;1
"tentaldi";1;1;1;1;1;1;0,049;1
"sutsu";1;1;1;1;0,945;1;1;0,455
"su";1;1;1;0,001;1;1;0,896;0,976
"sobera";1;0,17;1;1;0,945;1;1;0,455
"sesio";0;1;1;1;1;1;0,049;1
"satanasek";1;1;1;1;1;1;1;0,004
"sare";1;1;1;1;1;1;0,002;1
"salbamenerako";1;1;1;1;0,212;1;1;1
"salbamenera";1;1;1;1;0,212;1;1;1
"profetek";1;0,001;1;1;1;1;1;0,455
"probintzia";1;0;1;1;1;1;1;1
"prediku";1;0,17;1;1;0,945;1;0,379;1
"pareko";1;1;1;1;0,212;1;0,379;1
"oztopo";1;1;1;0,006;1;1;1;0,455
"otordu";1;1;1;1;0,945;0;0,379;1
"ostu";1;0,17;1;0,006;1;1;1;1
"osoosorik";1;1;1;1;1;1;1;0,004
"osasungarri";1;1;1;1;1;1;0,896;0,206
"onginahiaren";1;1;1;1;0,015;1;1;1
"okertu";1;1;1;1;0,945;1;0,049;1
"obeditu";1;1;1;1;0,002;1;1;1
"nizuena";1;1;1;1;0,015;1;1;1
"nireganako";1;1;1;1;1;1;1;0,013
"neurrigabe";1;1;1;1;1;1;1;0,004
"neuregan";1;1;1;1;0,078;1;1;0,976
"nazio";1;0,081;1;1;0,689;1;1;0,976
"nagoela";1;1;1;1;1;1;1;0,004
"nabari";0;1;1;1;1;1;0,049;1
"muga";1;1;1;1;1;1;0,049;1
"morroi";1;1;1;1;0,945;1;0,379;1
"menda";1;1;0;1;1;1;1;1
"mazedoniatik";1;0;1;1;1;1;1;1
"mazedonia";1;1;1;1;1;1;1;0,004
"makurtu";1;1;1;1;0,212;1;1;1
"lizunkeria";0;1;1;0,001;1;1;0,896;1
"leku";1;1;1;1;0,945;1;1;0,455
"laguntzaile";1;0;1;1;1;1;1;1
"kristogan";1;1;1;1;0;1;1;1
"konpondu";1;1;1;1;1;1;0,164;0,976
"justizia";1;1;1;1;1;1;1;0,069
"jesusengatik";1;0;1;1;1;1;1;1
"jesusekin";1;1;1;1;0;1;1;1
"jentilei";1;1;1;1;1;1;1;0,004
"jaunarengandik";1;1;1;1;1;1;1;0,004
"jarraitzaile";0;0,17;1;0,006;1;1;1;1
"jainkoaren";1;0,17;1;1;0,945;1;1;1
"izate";1;1;1;1;0,212;1;0,379;1
"itxaron";1;0,001;1;1;0,945;1;1;1
"itsutu";1;1;1;1;0,212;1;1;1
"itsatsi";1;1;1;1;1;1;0,008;1
"irudiko";1;1;1;1;1;1;0,164;0,976
"indartu";1;1;1;1;0,945;1;1;0,455
"ile";1;1;1;0;1;1;1;1
"ikasbide";1;1;1;1;0,945;1;1;0,455
"igukan";0;1;1;1;1;1;1;0,455
"iezaiekan";1;1;1;0,001;1;1;0,896;0,976
"hondamendi";1;1;1;1;1;1;0,002;1
"hizkuntza";1;1;1;1;0,689;1;0,896;0,976
"hizkera";0;0,17;1;1;1;1;0,379;1
"hilzori";1;1;1;1;1;1;0,379;0,455
"hilda";1;1;1;1;0;1;1;1
"hazaraztu";1;0,17;1;1;0,212;1;1;1
"haue";1;1;1;1;1;1;0,002;1
"harreman";1;1;1;1;1;1;0,002;1
"harrapatu";1;1;1;1;1;1;0,164;0,976
"handiago";1;0,17;1;1;1;1;0,049;1
"guztiz";1;0,17;1;1;0,945;1;1;1
"guztiokin";1;1;0;1;1;1;1;0,455
"gorroto";0;1;1;1;1;1;1;1
"goiko";1;1;1;1;0,945;1;0,379;1
"goiagerpen";1;1;1;1;0,689;1;0,896;0,976
"gobernatu";1;0;1;1;1;1;1;1
"gizaldi";1;1;0;1;1;1;1;0,206
"gisa";1;1;1;1;0,078;1;1;0,976
"gintu";1;1;1;1;0;1;1;1
"gidatu";1;1;1;1;0,078;1;1;0,976
"gezurti";1;1;1;1;1;1;0,002;1
"genizuen";1;1;1;1;1;1;1;0,004
"galbide";1;1;1;1;0,945;1;0,049;1
"faltsu";1;1;1;1;0,078;1;0,896;1
"ezkongabe";1;1;1;1;1;1;0,379;0,455
"ezkon";1;1;1;0,006;0,945;1;0,379;1
"etsi";1;1;1;1;1;1;0,002;1
"eskas";1;0,081;1;1;1;1;0,164;1
"eroapena";1;1;1;1;1;1;1;0,004
"eran";1;1;1;1;1;0;1;0,455
"epe";1;1;1;1;1;1;0,002;1
"enuttu";1;1;1;1;1;1;0,164;0,976
"engainatu";1;1;1;1;1;1;0,002;1
"emazn";1;1;1;0;1;1;1;1
"egokizun";1;1;1;1;1;1;1;0,069
"egile";1;1;1;1;1;1;0,049;1
"duenean";1;1;1;1;0,689;1;0,164;1
"dudanik";1;0,17;1;1;1;1;0,049;1
"dudalako";1;1;1;1;0,945;1;0,379;1
"ditzazuen";1;1;1;1;1;1;1;0,069
"dituzuen";1;0,17;1;1;1;1;1;0,455
"diruzale";1;0;1;1;1;1;1;1
"denei";1;1;1;1;1;1;0,379;0,455
"deabrua";1;1;1;1;1;1;0,002;1
"deabru";1;1;1;1;1;1;0,379;0,455
"daiteke";1;1;1;1;0,945;1;0,049;1
"bukatu";1;1;1;1;1;1;1;0,069
"bota";1;1;1;1;1;1;0,049;1
"bizileku";1;1;1;1;1;1;0,164;0,976
"bikain";1;1;1;1;0,945;1;1;0,069
"bihotzbihotzez";1;1;1;1;0,945;1;1;0,455
"bihotu";1;1;1;1;1;1;1;0,069
"biezaio";1;1;1;0;1;1;1;0,976
"bezalaxe";1;1;1;0,006;1;1;0,379;1
"betera";1;1;1;1;1;1;1;0,004
"berritu";0;1;1;1;1;1;1;0,455
"bereizkeriari";1;1;1;1;1;1;0,002;1
"belarri";1;1;1;1;0;1;1;1
"bekaizkeri";0;1;1;1;1;1;0,049;1
"behar_izan";1;1;1;1;0,945;1;0,049;1
"begiruneaga";1;1;1;1;1;1;0,049;1
"banandu";1;1;1;0;0,689;1;1;1
"banai";1;0,17;1;1;1;1;1;0,455
"balute";1;0,17;1;1;1;1;0,049;1
"baliogabe";1;1;1;1;0;1;1;1
"badabiltza";1;1;1;1;0,015;1;1;1
"azpikeria";1;1;1;1;0,212;1;1;1
"aurpegi";1;1;1;1;0,015;1;1;1
"audekan";1;1;1;1;0,945;1;1;0,455
"atsegingarri";1;1;1;1;0,945;1;1;0,455
"arretaz";1;1;1;1;1;1;0,002;1
"arreba";1;0;1;1;1;1;1;1
"arin";1;1;1;1;0,212;1;1;0,455
"argudio";0;1;1;1;1;1;1;1
"arduradun";0;0,001;1;1;1;1;1;1
"arbaso";1;1;1;1;0,945;1;1;0,069
"alferrika";1;1;1;1;1;1;0,002;1
"aldare";1;1;1;1;0,078;1;1;0,976
"aitzakia";1;1;1;1;1;1;0,049;1
"aintzat";1;1;1;1;1;1;1;0,004
"aintzaren";1;1;1;0,006;1;1;1;0,455
"ahoz";1;1;1;1;0,015;1;1;1
"ahala";1;1;1;1;1;1;1;0,069
"agurgarri";1;0,17;1;0,006;1;1;0,379;1
"agintzariak";1;1;1;1;0,212;1;1;0,455
"adiskidetu";1;1;1;1;0,945;1;1;0,069
"adar";1;0,17;1;0;1;1;1;1
"aberastasun";1;1;1;1;1;1;1;0,013
"zuritu";1;1;1;1;1;1;0,008;1
"zuenetik";1;1;1;1;1;1;0,896;0,206
"zori";1;1;1;1;1;0;0,896;0,976
"zizun";1;0,081;1;1;0,689;1;1;0,976
"zinez";1;0,081;1;1;1;1;1;0,206
"zineten";1;1;1;1;0,689;1;0,896;0,976
"zeundetu";1;1;1;1;0,689;1;0,164;1
"zerbitzari";1;0,081;1;1;1;1;0,896;0,976
"zerbitzadu";1;0,081;1;1;1;1;1;0,206
"zenidaten";1;0;1;1;1;1;0,896;1
"zapuztu";1;1;1;0;1;1;1;1
"zabarkeri";1;1;1;1;1;0;1;0,206
"zabal";1;1;1;1;1;1;1;0,013
"uttu";1;0,081;1;1;1;1;0,896;0,976
"ustelkor";1;1;1;1;0,078;1;0,896;1
"ustelezin";1;1;1;1;0,078;1;0,896;1
"ukaikan";1;1;1;1;0,078;1;1;0,976
"txiki";1;1;1;1;1;1;0,164;0,976
"titoren";1;1;1;1;1;1;1;0,013
"tikiko";1;0;1;1;1;1;0,896;1
"sinestedunak";1;1;1;1;1;1;0,896;0,206
"sinestedun";1;0,081;1;1;0,689;1;1;0,976
"sinesgogor";1;1;1;1;0,002;1;1;1
"sinesgabe";1;1;1;1;0,689;1;0,164;1
"semealabok";1;1;1;1;0,689;1;1;0,206
"sasijainkoak";1;1;1;1;1;1;0,896;0,206
"santuetan";1;1;1;1;0,689;1;0,896;0,976
"sabela";1;1;1;1;0,078;1;0,896;1
"priska";1;0;1;1;1;1;1;1
"pertsegitzaile";1;1;1;1;0,689;1;0,896;0,976
"pentsaera";0;1;1;1;1;1;0,896;0,976
"pedrori";1;1;1;1;0,689;1;0,896;0,976
"paregabe";1;1;1;1;1;1;1;0,013
"osatu";1;1;1;1;0,002;1;1;1
"oroitu";1;1;1;1;1;1;1;0,013
"ore";1;1;1;1;0,002;1;1;1
"ordu";1;1;1;1;1;1;0,164;0,976
"ondasun";1;1;1;1;1;1;0,896;0,206
"ohoragarri";1;1;1;0,001;1;1;0,164;1
"nolatan";1;0,081;1;1;1;1;0,896;0,976
"nolanahi";1;1;1;1;1;0;0,164;1
"neskatxa";1;1;1;0,001;0,689;1;1;0,976
"negu";1;1;1;1;0,689;1;0,896;0,976
"negar";1;1;1;1;1;1;0,008;1
"nahikoa";1;1;1;1;0,689;1;0,896;0,976
"mozkor";1;0,081;1;1;1;1;1;0,206
"moisesek";1;1;1;1;0,078;1;0,896;1
"misteriotsu";1;1;1;1;1;1;0,164;0,976
"mendi";1;1;1;1;1;1;0,896;0,206
"mendeku";1;1;1;0;1;1;0,896;1
"mazedoniara";1;0;1;1;1;1;1;0,976
"maitekiro";1;1;1;1;1;1;0,896;0,206
"mait";1;1;1;0;1;1;1;0,976
"luze";1;1;1;0;1;1;1;0,976
"luzatu";1;1;1;1;0,078;1;0,896;1
"luzaroan";1;1;1;1;0,078;1;0,896;1
"lurralde";1;1;1;1;0,078;1;0,896;1
"lotsa";1;1;1;1;1;1;0,164;0,976
"leialtasuna";1;1;1;1;0,689;1;1;0,206
"lehenik";1;1;1;1;1;1;0,896;0,206
"lehengo";1;1;1;1;1;1;0,164;0,976
"lehenago";1;1;1;1;0,689;1;0,896;0,976
"lasterka";1;1;1;1;1;0;0,164;1
"lapurreta";1;1;1;1;1;1;0,896;0,206
"landu";1;0,081;1;1;1;1;0,164;1
"landatu";1;1;1;1;1;1;0,164;0,976
"kultua";1;1;1;1;0,689;1;0,896;0,976
"kristorengandik";1;1;1;1;0,689;1;0,896;0,976
"kristorenganako";1;1;1;1;0,689;1;0,896;0,976
"koroa";1;1;1;1;1;1;0,896;0,206
"korinton";1;0;1;1;1;1;1;1
"kond";1;1;1;1;1;1;0,164;0,976
"kezka";1;1;1;1;0,689;1;1;0,206
"kate";1;0,081;1;1;1;1;1;0,206
"kartsu";1;1;1;1;1;1;1;0,013
"kantatu";1;1;1;1;0,689;1;1;0,206
"joko";1;1;1;1;0,078;1;0,896;1
"jezan";1;1;1;1;1;1;0,008;1
"jatorriz";1;1;1;0,001;0,689;1;0,896;1
"jarrera";1;1;1;1;1;1;0,164;0,976
"jakinduriazko";1;1;1;1;1;1;0,164;0,976
"jaitsi";1;1;1;1;0,689;1;0,164;1
"jainkoarenganako";1;1;1;1;1;1;0,896;0,206
"izkitu";1;1;1;1;0,078;1;0,896;1
"izar";1;1;1;0,001;0,689;1;1;0,976
"itxurakeria";1;1;1;1;1;1;0,164;0,976
"itxi";1;1;1;1;1;1;0,896;0,206
"israeli";1;1;1;0,001;0,078;1;1;1
"israelen";1;1;1;1;0,002;1;1;1
"iraunkor";1;1;0;1;1;1;1;0,206
"irakatsiei";1;1;1;1;1;1;1;0,013
"iragankor";1;1;1;1;0,078;1;1;0,976
"inspiratu";1;1;1;1;1;1;0,896;0,206
"inguratu";1;0,081;1;1;1;1;0,896;0,976
"indargabetu";1;1;1;1;1;1;0,008;1
"indarberritu";1;0,081;1;1;0,689;1;1;0,976
"ilundu";1;1;1;1;0,078;1;1;0,976
"ikuspegi";1;1;1;1;1;1;0,164;0,976
"ikusezin";0;1;0;1;1;1;0,896;1
"ia";1;1;1;1;0,689;1;0,164;1
"hutsik";1;1;1;1;1;0;0,164;1
"hutsegite";0;1;1;1;1;1;0,164;1
"hornitu";1;1;1;1;1;1;0,896;0,206
"hogeita";1;1;1;1;0,689;1;0,896;0,976
"hodei";1;1;1;1;0,689;1;1;0,206
"hilkorrean";1;1;1;1;0,689;1;0,896;0,976
"hezurmamizko";1;1;1;1;1;1;0,008;1
"herritar";1;0;1;1;1;1;1;0,976
"herio";1;1;1;1;1;1;0,896;0,206
"hautatu";1;1;1;1;1;1;1;0,013
"haserretu";1;1;1;0,001;0,689;1;0,896;1
"hartzazu";1;1;1;1;1;1;1;0,013
"harrigarri";1;1;1;1;0,689;1;1;0,206
"gutxiets";1;0,081;1;1;1;1;0,896;0,976
"gurutze";1;1;1;1;0,689;1;1;0,206
"gurtu";1;1;1;1;0,689;1;0,164;1
"guk";1;1;1;1;0,689;1;1;0,206
"gorazarre";1;1;1;1;1;1;1;0,013
"goraipatu";1;0,081;1;1;1;1;0,896;0,976
"gogoratu";1;0;1;1;1;1;1;0,976
"gizonemakumeen";1;1;1;1;0,689;1;0,896;0,976
"gizonemakumeek";1;1;1;1;0,078;1;1;0,976
"gizonemakumeak";1;1;1;1;0,689;1;1;0,206
"ginela";1;1;1;1;1;1;1;0,013
"ginel";1;1;1;1;0,689;1;0,164;1
"geldi";1;1;1;1;0,689;1;0,164;1
"gatibu";1;1;1;1;0,689;1;0,896;0,976
"gaitasun";1;1;1;1;1;1;0,896;0,206
"gainezka";1;1;1;1;0,689;1;1;0,206
"gabiltza";1;1;1;1;1;0;0,896;0,976
"finkatu";1;1;1;1;1;1;1;0,013
"familia";1;1;1;1;0,689;1;0,164;1
"ezkutua";1;1;1;1;1;1;0,896;0,206
"ezinik";1;0,081;1;1;1;1;0,896;0,976
"espirituzkoa";1;1;1;1;0,078;0;1;1
"espirituagan";1;1;1;1;0,689;1;0,896;0,976
"espero";1;1;1;1;1;1;0,896;0,206
"eskuinalde";1;1;1;1;0,002;1;1;1
"esklabotz";1;1;1;1;1;1;0,164;0,976
"eskabide";1;1;1;1;1;1;0,896;0,206
"eseri";1;1;1;1;0,002;1;1;1
"errukitu";1;1;1;1;0,689;1;0,896;0,976
"erregu";1;1;1;1;1;1;0,896;0,206
"erortu";1;1;1;1;1;1;0,164;0,976
"erorbide";1;0,081;1;1;1;0;0,896;1
"erdimin";1;1;1;1;1;1;0,896;0,206
"erantsi";1;1;1;1;1;1;0,164;0,976
"eraikin";1;1;1;1;1;1;0,896;0,206
"eraginpe";1;1;1;1;0,078;1;0,896;1
"epaitu";1;1;1;1;0,689;1;0,164;1
"emakumeagandik";1;1;1;0;1;1;0,896;1
"elkartasun";1;1;0;1;1;1;1;0,206
"egunero";1;0,081;1;1;1;1;0,896;0,976
"egiteraino";1;1;1;0,001;0,689;1;0,896;1
"egintzengatik";1;1;1;1;0,078;1;1;0,976
"eginahal";1;1;1;1;1;1;1;0,013
"egiaztatu";1;1;1;1;1;1;0,896;0,206
"edzi";1;1;1;1;0,689;1;0,896;0,976
"duzun";1;1;1;1;1;1;0,896;0,206
"duzula";1;0;1;1;1;1;1;0,976
"duzuenez";1;1;1;1;1;1;0,896;0,206
"duzuela";1;1;1;1;1;1;1;0,013
"dizuete";1;1;1;1;0,689;1;1;0,206
"dituztenen";1;1;1;1;1;1;0,896;0,206
"distiratsu";1;1;1;1;0,689;1;1;0,206
"dirubilketa";1;1;1;1;1;1;0,164;0,976
"direlaeta";1;0,081;1;1;1;1;0,896;0,976
"diozu";1;1;1;1;0,689;1;0,896;0,976
"diezazuela";1;1;1;1;1;1;1;0,013
"diezaioten";1;0,081;1;1;1;1;0,896;0,976
"dezakeela";1;1;1;1;1;0;0,164;1
"deus";1;1;1;0,001;0,689;1;1;0,976
"desohoratu";1;1;1;1;0,689;1;0,164;1
"defentsa";1;1;1;1;1;1;0,008;1
"buztin";1;1;1;1;1;1;0,164;0,976
"bultzatu";1;0,081;1;1;0,689;0;1;1
"bizkor";1;1;1;1;1;1;1;0,013
"bizkar";1;1;1;1;0,078;1;0,896;1
"biezazkizute";1;1;0;1;1;1;1;1
"betidanik";1;1;1;1;1;1;1;0,013
"berezko";1;1;1;0,001;1;1;0,164;1
"bekatupean";1;1;1;1;0,689;1;0,164;1
"bekatuarentzat";1;1;1;1;0,002;1;1;1
"behe";1;1;1;1;1;1;0,164;0,976
"begirun";1;1;1;1;0,689;1;1;0,206
"bedeinkazio";1;1;1;1;0,078;1;1;0,976
"bedeinkatu";1;1;0;1;1;1;1;0,206
"batu";1;1;1;1;0,078;1;0,896;1
"barren";1;0;1;1;1;1;1;0,976
"baketsu";1;0,081;1;1;1;1;0,896;0,976
"baitzaudete";1;1;1;1;0,689;1;0,896;0,976
"baitit";1;1;1;1;0,689;1;0,896;0,976
"badaiteke";1;1;1;1;0,689;1;0,896;0,976
"auzitegi";1;1;1;1;0,689;1;0,164;1
"ausardia";1;1;1;1;1;1;0,896;0,206
"aurrerantzean";1;1;1;1;0,689;1;0,896;0,976
"atzera";1;1;1;1;1;1;0,164;0,976
"atxiki";1;1;1;1;1;1;0,896;0,206
"aski";1;1;1;1;1;0;0,896;0,976
"asia";1;0;1;1;1;1;1;1
"arreta";1;0,081;1;1;0,689;1;0,896;1
"argibide";1;0;1;1;1;1;0,896;1
"ardozale";1;0,081;1;1;1;0;0,896;1
"ardo";1;1;1;0;1;0;1;1
"arbaxo";1;1;1;1;1;1;0,896;0,206
"apaltasun";1;0,081;1;0,001;0,689;1;1;1
"apal";1;1;1;1;1;1;0,164;0,976
"altxatu";1;1;1;1;0,078;1;0,896;1
"alferrikako";1;1;1;1;0,689;1;0,164;1
"aituzkan";1;1;1;1;1;1;1;0,013
"ahaztu";1;1;1;1;0,689;1;0,896;0,976
"agian";1;0,081;1;1;0,689;1;1;0,976
"adulteriorik";1;0,081;1;0,001;1;1;0,896;1
"adoretu";1;1;1;1;1;1;1;0,013
"adina";1;1;1;1;1;1;0,896;0,206
"adibidez";1;1;1;0,001;1;1;0,164;1
"*Tx_1Ko_15_23";1;1;0;1;0,378;1;1;1
"*Tx_1Ko_15_27";1;1;1;1;0,378;1;0,534;1
"*Tx_Ga_3_1";1;1;1;1;0,071;1;1;1
"*Tx_Ga_3_2";1;1;1;1;0,378;1;0,534;1
"*Tx_1Ko_15_29";1;1;1;1;0,011;1;1;1
"*Tx_1Ko_15_28";1;1;1;1;1;1;0,03;1
"*Tx_Ga_3_8";1;1;1;1;0,078;1;1;0,976
"*Tx_Ga_3_9";1;1;1;1;0,002;1;1;1
"*Tx_Erm_12_21";1;1;0;0,001;1;0;1;1
"*Tx_Erm_12_20";1;1;1;1;1;0;1;1
"*Tx_2Ko_4_18";1;1;1;1;0,378;1;1;0,597
"*K_Tt_2";1;1;1;0,005;1;1;0,944;0,646
"*Tx_2Ko_4_16";1;1;1;1;0,378;1;1;0,597
"*Tx_2Ko_4_15";1;1;1;1;1;1;0,534;0,597
"*Tx_1Ko_3_20";1;1;1;1;1;1;0,534;0,597
"*Tx_Tt_1_6";1;1;1;1;1;1;0,03;1
"*Tx_Tt_1_7";1;1;1;1;1;0;0,534;1
"*Tx_Tt_1_4";1;0,02;0;1;1;1;1;1
"*Tx_Tt_1_5";1;1;1;1;1;1;0,03;1
"*Tx_Erm_2_17";1;1;1;1;0,378;1;0,534;1
"*K_1Ts_4";1;1;1;1;1;1;1;0,002
"*Tx_Erm_2_12";1;1;1;1;0,011;1;1;1
"*Tx_Tt_3_8";1;1;1;1;1;1;0,03;1
"*Tx_2Ko_6_14";1;1;1;1;0,378;1;0,534;1
"*Tx_2Ko_6_16";1;1;1;1;0,015;1;1;1
"*Tx_2Ko_6_10";1;1;1;1;1;1;0,534;0,597
"*Tx_Ga_2_12";1;1;1;1;1;1;0,03;1
"*Tx_2Ko_6_13";1;1;1;1;1;1;1;0,042
"*Tx_Ga_5_6";1;1;0;1;1;1;1;0,597
"*Tx_Flp_2_27";1;1;1;1;1;1;0,534;0,597
"*Tx_Ga_5_2";1;0,02;1;1;1;1;1;0,597
"*Tx_Ga_5_1";1;1;1;1;0,378;1;1;0,597
"*K_Erm_16";1;0;0,39;0,955;1;1;1;1
"*Tx_Erm_4_18";1;1;1;1;0,002;1;1;1
"*Tx_Ga_1_9";1;1;1;1;1;1;1;0,042
"*Tx_Ef_5_28";1;1;1;0;1;1;1;1
"*Tx_2Ko_11_29";1;1;1;1;1;1;0,03;1
"*Tx_1Tm_5_24";0;1;1;1;1;1;1;0,597
"*Tx_1Tm_5_25";1;1;1;1;1;1;0,03;1
"*Tx_Erm_4_12";1;1;1;1;0,078;1;1;0,976
"*Tx_Erm_4_13";1;1;1;1;0,011;1;1;1
"*Tx_Ga_1_7";1;1;1;1;1;1;1;0,042
"*Tx_Erm_4_16";1;1;1;1;0,378;1;1;0,597
"*Tx_Erm_4_17";1;1;1;1;0;1;1;1
"*K_Erm_11";1;1;1;0;0,017;1;1;1
"*Tx_2Ko_3_6";1;1;1;1;0,378;1;1;0,597
"*Tx_2Ko_3_3";1;1;1;1;1;1;1;0,042
"*Tx_1Ts_4_15";1;1;1;1;0,378;1;1;0,597
"*Tx_2Ko_3_1";1;1;1;1;1;1;0,03;1
"*Tx_1Ts_4_17";1;1;1;1;1;1;1;0,042
"*Tx_2Ko_1_9";1;1;1;1;0,378;1;0,534;1
"*Tx_2Ko_1_8";1;0,02;1;1;1;1;1;0,597
"*L_Korintoarrei1";1;0,93;1;0,005;0,176;0;0,001;1
"*L_Korintoarrei2";0,569;1;1;1;1;1;0,023;0
"*Tx_2Tm_4_17";1;1;1;1;1;1;0,534;0,597
"*Tx_2Tm_4_16";1;1;1;1;1;1;0,03;1
"*Tx_2Tm_4_14";1;1;1;1;0,378;1;0,534;1
"*Tx_2Ko_1_6";1;1;1;1;1;1;1;0,042
"*Tx_1Ko_7_16";1;0;1;1;1;1;1;1
"*Tx_Erm_10_21";1;1;1;1;0,002;1;1;1
"*Tx_2Ko_7_9";1;1;1;1;1;1;1;0,069
"*Tx_1Ko_7_15";1;1;1;1;0,011;1;1;1
"*Tx_1Ko_7_12";1;1;1;0;0,378;1;1;1
"*Tx_1Ko_7_11";1;1;1;0;1;1;1;1
"*Tx_2Ko_7_3";1;1;1;1;0,378;1;0,534;1
"*Tx_2Ko_7_7";1;1;1;1;1;1;1;0,013
"*Tx_2Ko_7_5";1;1;1;1;0,689;1;1;0,206
"*Tx_2Ko_7_4";1;1;1;1;1;1;1;0,042
"*Tx_2Ko_7_11";1;1;1;1;1;1;1;0,069
"*Tx_2Ko_7_10";1;1;1;1;1;1;0,534;0,597
"*Tx_2Tm_2_17";1;1;1;1;1;1;0,126;1
"*Tx_1Ko_16_12";1;1;1;1;1;1;1;0,15
"*Tx_Erm_10_19";1;1;1;1;1;1;0,126;1
"*Tx_1Ko_14_15";1;1;1;1;1;1;1;0,042
"*Tx_2Tm_2_19";1;1;1;1;1;1;0,534;0,597
"*Tx_1Ko_16_19";1;0;1;1;1;1;1;1
"*Tx_1Ko_11_25";1;1;1;1;0,078;0;1;1
"*Tx_1Ko_11_24";1;1;1;1;1;1;1;0,15
"*Tx_Erm_3_10";1;1;1;1;0,571;1;0,281;1
"*Tx_1Ko_11_22";1;0,081;1;1;1;0;1;0,976
"*Tx_Erm_13_11";1;1;1;1;1;1;1;0,042
"*Tx_Erm_13_10";1;1;1;0;0,689;1;1;1
"*Tx_Erm_13_12";1;1;1;1;1;1;1;0,042
"*Tx_2Ko_12_7";1;1;1;1;1;1;0,03;1
"*Tx_Ef_4_26";1;1;1;1;0,378;1;0,534;1
"*Tx_Ef_4_29";1;1;1;0;1;1;0,534;1
"*Tx_2Ko_12_20";1;1;1;1;1;1;0,03;1
"*Tx_2Ko_9_11";1;1;1;1;1;1;1;0,15
"*Tx_Erm_15_27";1;1;1;1;1;1;0,534;0,597
"*Tx_Erm_15_24";1;0,02;1;1;1;1;1;0,597
"*Tx_Erm_10_15";1;1;1;1;1;1;1;0,042
"*Tx_2Ts_2_3";0;1;1;1;1;1;0,534;1
"*Tx_2Ko_2_10";1;1;1;1;0,011;1;1;1
"*Tx_Erm_11_33";1;1;1;1;0,945;1;1;0,069
"*Tx_2Ko_2_16";1;1;1;1;1;1;1;0,013
"*Tx_2Ts_2_8";1;1;1;1;1;1;1;0,042
"*Tx_1Tm_1_5";1;1;1;1;1;1;0,534;0,597
"*Tx_1Tm_1_4";1;1;1;1;1;1;0,03;1
"*Tx_1Tm_1_3";1;1;1;1;1;1;1;0,15
"*Tx_1Ko_11_6";1;1;1;0;1;1;1;1
"*Tx_Erm_8_6";1;1;1;1;1;1;0,03;1
"*L_Filemoni";1;0;0,003;1;1;1;1;0,284
"*Tx_1Ts_1_8";1;1;1;1;1;1;0,534;0,597
"*Tx_1Ts_1_5";1;1;1;1;1;1;0,534;0,597
"*Tx_Kol_4_16";1;0;1;1;1;1;1;1
"*Tx_Flp_1_17";1;1;1;1;1;1;1;0,15
"*Tx_Kol_4_11";1;0,02;1;1;1;1;1;0,597
"*Tx_Flp_1_15";1;1;1;1;1;1;1;0,15
"*Tx_Kol_1_27";1;1;1;1;1;1;1;0,15
"*Tx_Kol_1_24";1;1;1;1;1;1;1;0,042
"*Tx_Kol_1_23";1;1;1;1;1;1;1;0,042
"*Tx_1Ko_12_12";1;1;1;1;0,011;1;1;1
"*Tx_1Ko_12_10";1;1;1;1;0,378;1;0,534;1
"*Tx_1Ko_12_17";1;1;1;1;0,011;1;1;1
"*K_1Tm_5";0,002;0;1;1;1;0,019;0,921;1
"*Tx_Kol_2_18";1;1;1;1;1;1;1;0,15
"*Tx_Erm_5_8";1;1;1;1;0,011;1;1;1
"*Tx_Erm_5_7";1;1;1;1;0,378;1;1;0,597
"*K_1Tm_4";0,088;0,58;1;1;1;1;0,871;0,06
"*Tx_Kol_2_11";1;1;1;1;0,011;1;1;1
"*Tx_Erm_5_3";1;1;1;1;1;1;0,534;0,597
"*Tx_Erm_5_2";1;1;1;1;0,378;1;1;0,597
"*K_1Tm_3";1;0,009;1;1;1;1;0,037;1
"*K_1Tm_2";1;1;1;0,266;1;1;0,199;1
"*Tx_1Tm_2_14";1;1;1;1;0,071;1;1;1
"*Tx_Erm_7_8";1;1;1;1;0,011;1;1;1
"*Tx_Erm_9_15";1;0,02;1;1;0,378;1;1;1
"*K_1Tm_6";0;0,686;1;1;1;0,283;1;0,583
"*Tx_Erm_9_13";1;1;1;1;0,689;1;0,896;0,976
"*Tx_2Ko_6_12";1;1;1;1;1;1;1;0,042
"*K_1Tm_1";1;0,738;0,001;1;1;1;0,257;1
"*Tx_Erm_7_3";1;1;1;0;1;1;1;1
"*Tx_1Ko_12_8";1;1;1;1;0,378;1;1;0,597
"*Tx_Erm_7_7";1;1;1;1;0,078;1;0,896;1
"*Tx_Erm_7_6";1;1;1;1;0,011;1;1;1
"*Tx_1Ts_5_8";1;1;1;1;1;1;0,534;0,597
"*Tx_1Ko_1_21";1;1;1;1;1;1;0,534;0,597
"*Tx_1Ko_1_20";1;1;1;1;1;1;0,03;1
"*Tx_1Ts_5_5";1;1;1;1;1;1;0,534;0,597
"*Tx_Erm_1_7";1;0,02;0;1;1;1;1;1
"*Tx_Erm_1_4";1;1;1;1;0,378;1;0,534;1
"*Tx_Erm_9_17";1;1;1;1;0,378;1;1;0,597
"*Tx_Erm_9_1";1;1;1;1;0,378;1;0,534;1
"*Tx_Erm_9_7";1;1;1;1;0,011;1;1;1
"*Tx_Erm_9_5";1;1;0;1;1;1;0,534;1
"*Tx_Erm_9_4";1;1;1;1;0,011;1;1;1
"*Tx_Erm_9_9";1;0,02;1;1;1;1;1;0,597
"*Tx_Ga_3_16";1;1;1;1;0,011;1;1;1
"*Tx_1Ko_10_29";1;1;1;1;1;1;0,03;1
"*Tx_Ga_3_15";1;1;1;1;1;1;0,03;1
"*Tx_Ga_3_12";1;1;1;1;0,003;1;1;1
"*Tx_Ga_3_10";1;1;1;1;0,002;1;1;1
"*Tx_Ga_3_11";1;1;1;1;0,378;1;1;0,597
"*Tx_1Ko_10_20";1;1;1;1;1;0;0,534;1
"*Tx_1Ko_10_21";1;1;1;1;1;0;1;0,597
"*Tx_1Ko_10_22";1;1;1;1;1;1;0,126;1
"*Tx_1Ko_10_23";1;0;1;1;1;1;1;1
"*Tx_2Ko_8_5";1;1;1;1;1;1;0,534;0,597
"*Tx_Ga_3_18";1;1;1;1;0,011;1;1;1
"*Tx_2Ko_8_7";1;1;1;1;1;1;1;0,15
"*Tx_Flp_4_21";1;0;1;1;1;1;1;1
"*Tx_Ef_2_17";1;1;1;1;1;1;0,534;0,597
"*Tx_Ef_2_14";1;1;0;1;0,378;1;1;1
"*Tx_Ef_2_12";1;1;1;1;0,011;1;1;1
"*Tx_1Ko_7_40";1;1;1;1;0,378;1;1;0,597
"*Tx_Ef_2_10";1;1;1;1;1;1;0,534;0,597
"*Tx_Erm_5_14";1;1;1;1;0,378;1;0,534;1
"*Tx_2Ko_2_4";1;1;1;1;1;1;1;0,042
"*Tx_Erm_7_2";1;1;1;0;1;1;1;1
"*Tx_2Ko_2_3";1;1;1;1;0,689;1;1;0,206
"*K_Erm_3";1;1;1;1;0,067;1;0,126;1
"*K_Erm_2";1;1;1;1;0,007;1;0,193;1
"*K_Erm_1";0,443;1;0,508;1;1;1;0,028;0,909
"*Tx_2Tm_2_20";1;1;1;1;0,378;1;1;0,597
"*K_Erm_6";1;1;1;1;0;1;1;1
"*K_Erm_5";1;1;1;1;0;1;1;1
"*Tx_2Ko_2_9";1;1;1;1;0,378;1;1;0,597
"*Tx_2Tm_2_9";1;1;1;1;0,378;1;1;0,597
"*Tx_Erm_3_4";1;1;1;1;0,689;1;0,164;1
"*Tx_Erm_3_1";1;1;1;0;1;1;1;0,597
"*Tx_Erm_3_3";1;0,02;1;1;1;1;0,534;1
"*Tx_Erm_9_18";1;1;1;1;1;1;0,534;0,597
"*Tx_Erm_3_9";1;1;1;1;1;1;0,03;1
"*Tx_Erm_3_8";1;1;1;1;1;1;0,164;0,976
"*Tx_2Ko_6_2";0;0,02;1;1;1;1;1;1
"*Tx_1Ko_9_20";1;1;1;1;0,378;1;0,534;1
"*Tx_Erm_16_25";1;1;1;1;1;1;1;0,042
"*Tx_2Tm_4_8";1;1;1;1;1;1;1;0,042
"*Tx_Erm_16_23";1;0;1;1;1;1;1;1
"*Tx_1Ko_9_24";1;1;1;1;1;0;0,534;1
"*Tx_Erm_16_20";1;1;0;1;1;1;1;0,597
"*Tx_2Tm_4_3";1;1;1;1;1;1;0,534;0,597
"*Tx_2Ko_6_8";1;1;1;1;1;1;0,03;1
"*Tx_2Ko_6_9";1;1;1;1;1;1;0,534;0,597
"*Tx_1Ko_5_10";1;0,02;1;1;1;1;0,534;1
"*Tx_2Tm_4_6";1;1;1;1;1;0;0,534;1
"*Tx_1Ts_2_2";0;1;1;1;1;1;1;0,597
"*Tx_2Ko_4_8";1;1;1;1;1;1;0,534;0,597
"*Tx_2Ko_4_9";1;1;1;1;1;1;0,03;1
"*Tx_2Ko_4_2";1;1;1;1;1;1;0,896;0,206
"*Tx_1Ko_3_18";0;1;1;1;1;1;0,534;1
"*Tx_1Ko_3_19";1;1;1;1;0,378;1;0,534;1
"*Tx_Flp_4_18";1;1;1;1;1;0;1;0,206
"*Tx_1Ko_3_10";1;1;1;1;1;1;0,008;1
"*Tx_1Ko_3_11";1;1;1;1;1;1;0,03;1
"*Tx_Flp_4_10";1;1;1;1;1;1;1;0,042
"*Tx_Flp_4_12";1;1;1;1;1;0;0,896;0,976
"*Tx_1Ko_3_15";1;1;1;1;1;1;0,03;1
"*Tx_1Ts_5_3";1;1;0;1;1;1;0,534;1
"*Tx_Erm_13_1";1;1;1;1;1;1;0,03;1
"*Tx_Erm_4_11";1;1;1;1;0,002;1;1;1
"*Tx_Erm_4_2";1;1;1;1;0,378;1;0,534;1
"*Tx_1Ko_1_26";1;1;1;1;1;1;0,534;0,597
"*Tx_1Ko_1_10";1;1;1;1;1;1;0,896;0,206
"*Tx_1Ko_1_12";1;1;1;1;0,378;1;1;0,597
"*Tx_1Ko_1_13";1;1;1;1;0,689;1;0,164;1
"*Tx_1Tm_2_6";1;1;1;1;1;1;0,03;1
"*Tx_1Ko_1_18";1;1;1;1;0,378;1;1;0,597
"*Tx_1Ko_1_19";1;1;1;1;0,378;1;0,534;1
"*Tx_Flp_2_25";1;0;1;1;1;1;1;1
"*Tx_1Ko_7_34";1;1;1;0;1;1;1;0,597
"*Tx_2Ko_5_11";1;1;1;1;1;1;0,534;0,597
"*Tx_2Ko_5_12";1;1;1;1;1;1;0,164;0,976
"*Tx_2Ko_5_17";1;1;1;1;1;1;1;0,042
"*Tx_2Ko_5_16";1;1;1;1;1;1;0,03;1
"*Tx_1Ko_8_7";1;1;1;1;1;0;0,534;1
"*Tx_1Ko_8_4";1;1;1;1;1;0;0,534;1
"*Tx_1Ko_8_1";1;1;1;1;1;0;0,896;0,976
"*Tx_2Ko_9_2";1;1;1;1;0,378;1;0,534;1
"*Tx_2Ko_9_5";1;0,02;1;1;1;0;1;1
"*Tx_2Ko_9_4";1;1;1;1;1;1;1;0,15
"*Tx_1Ko_6_18";1;1;1;1;0,011;1;1;1
"*L_Galaziarrei";1;1;0,114;1;0;1;1;1
"*L_Filipostarrei";1;0,342;0,187;1;1;1;1;0
"*Tx_1Ko_15_39";1;1;1;0;1;1;0,534;1
"*Tx_1Ko_14_22";1;1;1;1;1;1;0,126;1
"*Tx_1Ko_15_35";1;1;1;1;0,378;1;1;0,597
"*K_Erm_15";0,031;1;1;1;1;1;1;0,064
"*K_Erm_14";1;1;1;0,366;0,332;0,704;0,476;1
"*K_Erm_13";0,144;0,281;1;0;1;1;0,606;1
"*K_Erm_12";0,301;1;0,356;0,231;1;0,054;0,958;0,221
"*Tx_1Ko_15_32";1;1;1;1;0,378;1;0,534;1
"*K_Erm_10";1;1;1;1;0,094;1;1;0,16
"*Tx_1Ko_4_3";1;1;1;1;0,378;1;0,534;1
"*L_Kolosarrei";0,007;0,032;1;1;1;1;1;0,024
"*Tx_1Ko_4_7";1;1;1;1;0,689;1;0,164;1
"*Tx_1Ko_4_5";1;1;1;1;1;1;0,164;0,976
"*Tx_1Ko_4_4";1;1;1;1;1;1;0,03;1
"*Tx_1Ko_4_9";1;1;1;1;1;1;0,03;1
"*Tx_1Ko_4_8";1;1;1;1;1;1;0,03;1
"*K_1Ko_14";1;0,087;1;1;1;1;0,039;1
"*K_1Ko_15";1;1;0,939;1;0;0,511;1;1
"*K_1Ko_16";1;0;0,268;1;1;1;1;0,047
"*Tx_Erm_4_22";1;1;1;1;0,011;1;1;1
"*K_1Ko_10";1;1;1;1;0,617;0;0,548;1
"*K_1Ko_11";1;0,24;1;0;1;0;0,879;1
"*K_1Ko_12";1;0,95;1;1;0;1;1;1
"*K_1Ko_13";1;1;1;1;1;1;1;0,013
"*Tx_1Tm_5_11";1;0,02;1;1;1;1;0,534;1
"*Tx_1Ko_6_7";1;1;1;1;1;1;0,03;1
"*Tx_2Tm_4_21";1;0,02;1;1;1;1;1;0,597
"*Tx_1Ko_6_3";1;0,02;1;1;1;1;0,534;1
"*Tx_1Ko_6_2";1;1;1;1;1;1;0,03;1
"*Tx_1Tm_6_5";0;1;1;1;1;1;0,896;0,976
"*Tx_1Tm_6_2";1;1;1;1;1;1;1;0,042
"*Tx_2Ko_8_9";1;1;1;1;1;1;1;0,15
"*Tx_1Ko_10_18";1;1;1;1;0,378;0;1;1
"*Tx_1Tm_4_8";1;1;1;1;1;1;1;0,042
"*K_1Ko_6";1;1;1;1;0,002;1;0,341;1
"*K_1Ko_7";1;1;1;0;0,341;1;1;1
"*K_1Ko_4";0,349;0,368;1;1;1;1;0,022;1
"*K_1Ko_5";1;0,526;1;0,027;0,671;0,21;0,176;1
"*K_1Ko_2";1;1;1;1;1;1;0;1
"*K_1Ko_3";0,317;1;0,373;1;1;1;0;1
"*K_1Ko_1";1;1;0,492;1;0,214;1;0,797;1
"*K_1Ko_8";1;1;1;1;1;0;0,061;1
"*K_1Ko_9";1;1;1;1;1;0,01;0,001;1
"*Tx_Erm_4_6";1;1;1;1;0,002;1;1;1
"*Tx_1Ko_11_34";1;0,02;1;1;1;1;0,534;1
"*Tx_Erm_4_3";1;1;1;1;0,011;1;1;1
"*Tx_Erm_8_13";1;1;1;1;0,378;1;0,534;1
"*Tx_Ga_3_21";1;1;1;1;0,378;1;1;0,597
"*Tx_Erm_4_9";1;1;1;1;0,378;1;0,534;1
"*Tx_Erm_6_1";1;1;1;1;0,378;1;0,534;1
"*Tx_1Ko_10_13";1;1;1;1;1;1;0,164;0,976
"*Tx_1Ko_10_16";1;1;1;1;0,011;1;1;1
"*Tx_Erm_6_9";1;1;1;1;0,378;1;0,534;1
"*Tx_1Ts_4_3";1;1;1;1;1;1;0,534;0,597
"*Tx_1Ko_2_6";1;1;1;1;1;1;0,03;1
"*Tx_Ga_3_19";1;1;1;1;0,378;1;0,534;1
"*Tx_Erm_15_19";1;1;1;1;1;1;1;0,042
"*Tx_1Ko_12_28";1;0,02;1;1;1;1;0,534;1
"*L_Erromatarrei";1;1;1;0,23;0;1;1;1
"*Tx_Erm_15_12";1;0,02;1;1;1;1;1;0,597
"*Tx_Erm_15_11";1;1;1;1;0,011;1;1;1
"*Tx_1Ts_4_1";1;1;1;1;1;1;1;0,042
"*Tx_Erm_15_16";1;1;1;1;0,689;1;1;0,206
"*Tx_1Tm_4_12";1;0,02;1;1;1;1;1;0,597
"*Tx_1Ko_12_26";1;1;1;1;0,011;1;1;1
"*Tx_1Tm_4_16";1;1;1;1;1;1;0,03;1
"*Tx_1Tm_4_14";1;0,02;1;1;1;1;1;0,597
"*Tx_Ga_1_10";1;1;1;1;1;1;0,896;0,206
"*Tx_Ga_1_13";1;1;1;1;1;1;0,03;1
"*Tx_1Ko_9_18";1;1;1;1;1;1;0,534;0,597
"*Tx_1Ko_9_10";1;1;1;1;0,078;1;0,896;1
"*Tx_1Ko_9_12";1;1;1;1;1;1;0,896;0,206
"*Tx_Erm_1_13";1;1;1;1;1;1;0,008;1
"*Tx_1Ko_9_15";1;1;1;1;0,689;1;0,164;1
"*Tx_1Ko_9_16";1;1;1;1;1;1;0,534;0,597
"*Tx_Erm_1_10";1;1;1;1;1;1;1;0,042
"*K_Flp_3";1;1;1;1;0,097;1;0,215;1
"*K_Flp_2";1;0,974;1;0,747;1;1;1;0,001
"*K_Flp_1";1;1;0,321;1;1;1;1;0
"*K_Flp_4";1;0,001;0,009;1;1;0,042;1;0,13
"*Tx_2Tm_1_5";1;1;1;1;1;1;1;0,042
"*Tx_Erm_2_9";1;1;1;1;0,378;1;0,534;1
"*Tx_2Ko_10_7";1;1;1;1;1;1;0,126;1
"*Tx_2Ko_10_8";1;0,02;1;1;1;1;1;0,597
"*Tx_2Ko_8_23";1;0;1;1;1;1;1;1
"*Tx_2Ko_8_22";1;0,02;1;1;1;1;1;0,597
"*Tx_2Tm_1_8";1;0,081;1;1;1;1;0,896;0,976
"*Tx_Erm_7_14";1;1;1;1;0,071;1;1;1
"*Tx_2Tm_3_2";1;0;1;1;1;1;1;1
"*Tx_2Ko_12_5";1;1;1;1;1;1;0,03;1
"*K_2Ko_9";1;1;1;1;1;0,001;1;0,444
"*Tx_Erm_7_10";1;1;1;1;0,011;1;1;1
"*Tx_Erm_7_13";1;1;1;1;0,078;1;0,896;1
"*K_2Ko_5";1;1;1;1;1;1;0,205;0,162
"*K_2Ko_4";1;1;1;1;1;1;1;0,037
"*K_2Ko_7";1;1;1;1;1;1;1;0
"*K_2Ko_6";0,174;1;1;1;1;1;0,817;0,218
"*K_2Ko_1";0,333;0,106;0,39;0,955;1;1;1;0,556
"*K_2Ko_3";1;1;1;1;0,114;1;1;0,583
"*K_2Ko_2";1;1;1;1;1;1;1;0
"*Tx_Flp_1_27";1;1;1;1;1;1;0,896;0,206
"*Tx_Erm_2_22";1;1;1;1;1;1;0,534;0,597
"*Tx_Erm_8_30";1;1;1;1;0,011;1;1;1
"*Tx_Erm_8_31";1;1;1;1;0,378;1;0,534;1
"*Tx_Flp_1_28";1;1;1;1;0,378;1;1;0,597
"*Tx_Erm_8_35";1;1;1;1;1;0;1;0,597
"*Tx_1Ts_3_6";1;1;1;1;1;1;1;0,042
"*Tx_1Ts_3_3";1;1;1;1;1;1;0,534;0,597
"*Tx_Erm_8_3";1;1;1;1;1;1;0,03;1
"*Tx_2Ko_13_11";1;1;1;1;1;1;0,896;0,206
"*Tx_2Tm_4_10";1;0,02;1;1;1;1;0,534;1
"*Tx_1Ts_3_9";1;1;1;1;1;1;1;0,042
"*Tx_Erm_8_7";1;1;1;1;1;1;0,126;1
"*Tx_Erm_8_5";1;1;1;1;1;1;0,534;0,597
"*Tx_Erm_5_13";1;1;1;1;0,011;1;1;1
"*Tx_Erm_5_12";1;1;1;1;0,011;1;1;1
"*Tx_Erm_5_16";1;1;1;1;0,002;1;1;1
"*Tx_1Ts_2_18";1;1;1;1;1;1;1;0,042
"*Tx_1Ts_2_19";1;1;1;1;1;1;1;0,042
"*Tx_1Ts_2_16";1;1;1;1;0,689;1;0,896;0,976
"*Tx_1Ts_2_14";1;0,02;1;1;1;1;1;0,597
"*Tx_1Ts_2_13";1;1;1;1;1;1;1;0,069
"*Tx_Ga_4_31";1;0,02;1;1;0,378;1;1;1
"*Tx_Ga_4_30";1;0,02;1;1;0,378;1;1;1
"*Tx_Erm_12_2";1;1;1;1;1;1;1;0,042
"*Tx_Erm_2_29";1;1;1;1;0,378;1;1;0,597
"*Tx_Erm_9_20";1;1;1;1;1;1;0,03;1
"*Tx_Erm_9_27";1;1;1;1;0,078;1;1;0,976
"*Tx_Erm_9_29";1;1;1;1;1;1;1;0,042
"*Tx_1Tm_6_10";1;0,02;1;1;1;1;1;0,597
"*K_Erm_9";1;1;0,556;1;0,227;1;1;0,66
"*Tx_1Ko_9_7";1;1;1;1;0,689;0;1;0,976
"*K_Erm_8";1;1;1;1;0,006;0,879;1;1
"*Tx_1Ko_7_18";1;1;1;1;0,071;1;1;1
"*Tx_2Ko_11_23";1;1;1;1;1;1;1;0,042
"*Tx_1Ko_9_1";1;1;1;1;1;1;0,534;0,597
"*Tx_2Ko_11_21";1;1;1;1;1;1;0,534;0,597
"*Tx_2Ko_7_14";1;1;1;1;1;1;0,534;0,597
"*Tx_2Ko_7_13";1;1;1;1;1;1;0,534;0,597
"*Tx_1Ko_9_8";1;1;1;1;1;1;0,03;1
"*Tx_1Ko_9_9";1;1;1;1;0,378;1;0,534;1
"*Tx_Erm_10_18";1;1;1;1;1;1;1;0,013
"*Tx_1Ko_7_39";1;1;1;0;0,378;1;1;1
"*Tx_Ga_2_20";1;1;1;1;0,378;1;0,534;1
"*Tx_Ga_2_21";1;1;1;1;0,378;1;0,534;1
"*Tx_1Ko_7_30";1;1;1;1;1;1;0,534;0,597
"*Tx_1Ko_7_31";1;1;1;1;1;1;0,03;1
"*Tx_1Ko_7_32";1;1;1;1;0,378;1;1;0,597
"*Tx_Erm_10_13";1;1;1;1;1;1;0,896;0,206
"*Tx_Erm_10_14";1;1;1;1;1;1;0,164;0,976
"*Tx_1Ko_7_35";1;1;1;1;1;1;0,534;0,597
"*Tx_Erm_10_16";1;1;1;1;1;1;1;0,042
"*Tx_Ga_5_14";1;1;1;0;0,378;1;1;1
"*Tx_Ga_5_15";1;1;1;0;1;1;0,534;1
"*Tx_Ef_6_18";1;1;1;1;1;1;1;0,042
"*Tx_Ga_5_17";1;1;1;1;1;1;0,126;1
"*Tx_Ga_5_10";1;1;1;1;1;1;0,534;0,597
"*Tx_Ga_5_11";1;1;1;1;0,378;1;0,534;1
"*Tx_Ga_5_13";1;1;1;1;1;1;0,164;0,976
"*Tx_2Ko_1_14";1;1;1;1;1;1;0,534;0,597
"*Tx_2Ko_1_17";1;1;1;1;1;1;0,03;1
"*Tx_2Ko_1_11";1;1;1;0;1;1;1;0,597
"*Tx_2Ko_1_10";1;1;1;1;1;1;0,03;1
"*Tx_1Ko_12_9";1;1;1;1;1;1;1;0,042
"*Tx_2Ko_1_12";0;1;1;1;1;1;0,164;1
"*Tx_2Ko_11_27";1;1;1;1;1;0;1;0,597
"*K_Erm_7";1;1;1;0,002;0;1;1;1
"*Tx_1Ko_12_3";1;1;1;1;1;1;1;0,042
"*Tx_1Ko_7_5";1;1;1;1;1;1;1;0,042
"*Tx_1Ko_7_7";1;1;1;1;1;1;0,534;0,597
"*Tx_1Ko_14_9";1;1;1;1;1;1;0,534;0,597
"*Tx_1Ko_14_5";1;1;1;1;1;1;0,126;1
"*Tx_1Ko_14_4";1;0;1;1;1;1;1;1
"*Tx_1Ko_14_7";1;1;1;1;1;1;0,534;0,597
"*K_Erm_4";1;1;1;1;0;1;1;1
"*Tx_1Ko_14_1";1;1;1;1;1;1;1;0,042
"*Tx_1Ko_7_9";1;1;1;0;1;1;0,534;1
"*Tx_1Ko_14_3";1;1;1;1;1;1;0,534;0,597
"*Tx_1Ko_14_2";1;1;1;1;1;1;0,126;1
"*Tx_Kol_2_8";0;1;1;1;0,378;1;1;1
"*Tx_1Ko_5_1";1;1;1;0;1;1;0,534;1
"*Tx_1Ko_7_17";1;0,02;1;1;1;1;0,534;1
"*Tx_1Ko_16_2";1;1;1;1;1;1;0,534;0,597
"*Tx_Kol_4_9";1;0,02;1;1;1;1;1;0,597
"*Tx_1Ko_16_7";1;1;1;1;1;1;1;0,042
"*Tx_1Ko_16_6";1;1;1;1;0,378;1;1;0,597
"*K_Flm_1";1;0;0,003;1;1;1;1;0,284
"*Tx_1Ko_6_11";1;1;1;1;0,071;1;1;1
"*Tx_1Ko_6_13";1;1;1;1;0,078;1;0,896;1
"*Tx_1Ko_6_12";1;1;1;1;0,378;1;0,534;1
"*Tx_1Ko_6_15";1;1;1;1;0,011;1;1;1
"*L_Titori";1;1;0,602;0,528;1;0,847;0;1
"*Tx_1Ko_7_14";1;0,17;1;0;0,945;1;1;1
"*Tx_Ga_4_21";1;1;1;1;0,011;1;1;1
"*Tx_1Ko_16_15";1;0,02;1;1;1;1;0,534;1
"*Tx_1Ko_4_17";1;0;1;1;1;1;1;1
"*Tx_1Ko_3_9";1;0;1;1;1;1;1;1
"*Tx_1Ko_4_15";1;1;1;1;1;1;0,534;0,597
"*Tx_1Ko_4_13";1;1;1;1;1;1;0,534;0,597
"*Tx_1Ko_4_12";0;1;1;1;1;1;1;0,206
"*Tx_1Ko_4_10";1;0,02;1;1;1;1;0,534;1
"*Tx_2Ts_2_13";1;1;1;1;0,378;1;1;0,597
"*Tx_1Ko_3_3";1;1;1;1;1;1;0,008;1
"*Tx_1Ko_3_5";1;1;1;1;1;1;1;0,15
"*Tx_1Ko_4_19";1;1;1;1;1;1;0,534;0,597
"*Tx_2Ts_2_14";1;1;1;1;0,011;1;1;1
"*Tx_1Ko_9_22";1;1;1;1;1;1;1;0,15
"*K_2Ts_1";0,033;0,308;0,047;1;1;1;1;0,407
"*K_2Ts_2";0,076;1;1;1;1;1;0,402;0,562
"*K_2Ts_3";1;0,837;0,197;1;1;0,012;1;0,066
"*Tx_1Ko_5_6";1;1;1;1;0,378;1;0,534;1
"*Tx_1Ko_5_7";1;1;1;1;0,378;0;1;1
"*Tx_1Ko_10_7";1;1;1;1;0,011;1;1;1
"*Tx_1Ko_9_21";1;1;1;1;0,378;1;0,534;1
"*K_Tt_3";1;1;1;1;1;1;0,005;1
"*Tx_Flp_2_12";1;1;1;1;1;1;1;0,013
"*Tx_Flp_2_16";1;1;1;1;1;1;1;0,042
"*Tx_1Ko_9_25";1;1;1;1;1;0;0,534;1
"*Tx_Erm_16_2";1;0,02;1;0;1;1;1;1
"*K_Tt_1";1;1;0,147;1;1;0,283;0;1
"*Tx_Erm_16_4";1;0,02;1;1;1;1;0,534;1
"*Tx_Flm_1_19";1;0,02;1;1;1;1;0,534;1
"*Tx_Erm_16_7";1;0,02;1;1;0,378;1;1;1
"*Tx_Erm_7_25";1;1;1;1;0,011;1;1;1
"*Tx_Flm_1_11";1;1;1;1;1;1;1;0,042
"*Tx_1Ts_2_9";1;1;1;1;1;1;1;0,042
"*K_2Tm_2";1;1;1;1;1;1;0,413;0,336
"*K_2Tm_3";1;1;1;1;1;1;0,095;0,686
"*K_2Tm_1";0,144;0,059;0,18;1;1;1;1;0,004
"*K_2Tm_4";1;0,149;1;1;1;0,45;0,275;0,716
"*K_1Ts_3";1;1;1;1;1;1;1;0
"*Tx_1Ko_9_26";1;1;1;1;1;1;0,03;1
"*K_1Ts_2";0,237;1;1;1;1;1;1;0,001
"*Tx_1Ko_15_49";1;1;1;1;1;1;0,126;1
"*K_1Ts_1";1;0,884;1;1;1;1;1;0,011
"*Tx_1Ko_15_41";1;1;1;0;0,378;1;1;1
"*Tx_1Ko_15_43";1;1;1;1;0,071;1;1;1
"*Tx_1Ko_15_42";1;1;1;1;0,011;1;1;1
"*Tx_1Ko_15_45";1;1;1;1;0,071;1;1;1
"*Tx_1Ko_15_44";1;1;1;1;0,011;1;1;1
"*Tx_Erm_16_5";1;0;1;1;1;1;1;1
"*Tx_Ef_6_20";1;1;1;1;1;1;0,534;0,597
"*Tx_2Ko_13_9";1;1;1;1;1;1;1;0,15
"*Tx_2Ko_13_7";1;1;1;1;0,378;1;0,534;1
"*Tx_2Ko_13_5";1;1;1;1;0,689;1;0,164;1
"*Tx_2Ko_13_4";0;1;1;1;1;1;0,896;0,976
"*Tx_2Ko_13_3";1;1;1;1;1;1;0,126;1
"*Tx_2Ko_13_2";1;1;1;1;0,378;1;0,534;1
"*Tx_2Ko_13_1";0;1;1;1;1;1;1;0,597
"*Tx_1Ko_5_11";1;0,081;1;1;0,689;1;0,896;1
"*Tx_1Ko_14_27";1;1;1;1;1;1;1;1
"*Tx_Erm_11_22";1;1;1;0,001;1;1;1;0,206
"*Tx_1Ko_14_20";1;1;1;0,001;1;1;0,164;1
"*Tx_Erm_11_20";1;1;1;0;1;1;0,534;1
"*K_Kol_4";1;0;1;1;1;1;1;0,193
"*Tx_Erm_11_26";1;0,081;1;1;0,078;1;1;1
"*K_Kol_2";0;1;1;1;0,097;1;1;1
"*K_Kol_1";1;0,837;0,197;1;1;1;1;0
"*Tx_Erm_11_25";1;1;1;1;1;1;0,534;0,597
"*Tx_2Ts_3_8";1;1;1;1;1;0;1;0,597
"*Tx_2Ts_3_9";1;1;1;1;1;1;0,534;0,597
"*Tx_Erm_7_21";1;1;1;1;0,378;1;0,534;1
"*Tx_1Ko_6_20";1;1;1;1;0,011;1;1;1
"*Tx_Erm_11_2";1;1;1;1;0,011;1;1;1
"*Tx_Erm_11_1";1;1;1;1;0,011;1;1;1
"*Tx_Erm_11_7";1;1;1;1;0,378;1;0,534;1
"*Tx_Erm_11_6";1;1;1;1;1;1;1;0,042
"*Tx_Erm_11_4";1;1;1;1;0,385;1;0,621;1
"*Tx_Kol_2_13";1;1;1;1;0,011;1;1;1
"*Tx_Erm_11_9";1;1;1;1;0,378;1;0,534;1
"*Tx_Erm_11_8";1;1;1;1;0,002;1;1;1
"*Tx_1Ko_14_36";1;1;1;1;1;1;0,03;1
"*Tx_Erm_2_1";1;1;1;1;1;1;0,03;1
"*Tx_Flp_1_7";1;0,02;1;1;1;1;1;0,597
"*Tx_Erm_3_29";1;1;1;1;0,078;1;0,896;1
"*Tx_1Ko_1_31";1;1;1;1;0,689;1;0,164;1
"*Tx_2Ko_11_15";1;1;1;1;1;1;0,534;0,597
"*K_Ef_2";1;1;0,25;1;0,01;0,427;1;1
"*Tx_2Ko_11_16";1;1;1;1;1;1;0,03;1
"*Tx_Erm_3_20";1;1;1;1;0,011;1;1;1
"*Tx_2Ko_11_9";0;0,02;1;1;1;1;1;1
"*Tx_Erm_10_20";1;1;1;1;0,689;1;0,896;0,976
"*Tx_2Tm_3_11";1;1;1;1;1;1;1;0,042
"*Tx_1Tm_1_15";1;1;1;1;1;1;1;0,15
"*Tx_2Tm_3_15";1;1;1;1;0,011;1;1;1
"*Tx_2Ko_11_2";1;1;1;0;1;1;0,534;1
"*Tx_2Ko_11_7";1;1;1;1;1;1;0,534;0,597
"*K_2Ko_8";1;0;1;1;1;1;1;0,203
"*Tx_Erm_6_23";1;1;1;1;0,378;1;1;0,597
"*Tx_Erm_6_21";1;1;1;1;0,071;1;1;1
"*Tx_Ef_5_8";1;1;1;1;1;1;0,164;0,976
"*Tx_Ef_5_4";1;1;1;1;1;1;1;1
"*Tx_2Ko_1_20";1;1;1;1;0,011;1;1;1
"*Tx_2Ko_1_23";1;1;1;1;0,378;1;1;0,597
"*Tx_2Tm_1_18";1;1;1;1;1;1;1;0,042
"*Tx_2Tm_1_10";1;1;1;1;1;1;1;0,042
"*Tx_2Tm_1_12";0;1;1;1;1;1;1;0,597
"*Tx_Flp_4_17";1;0,02;1;1;1;1;0,534;1
"*Tx_Erm_1_29";0;1;1;1;1;1;0,534;1
"*Tx_Erm_13_9";1;0,02;1;0;1;1;1;1
"*Tx_Erm_13_4";1;0,081;1;1;1;1;0,896;0,976
"*Tx_Erm_1_21";1;1;1;1;1;1;1;0,042
"*Tx_Erm_1_26";1;1;1;1;1;1;0,03;1
"*Tx_Erm_1_27";1;1;1;1;1;1;0,03;1
"*Tx_Erm_13_3";1;1;1;1;1;1;0,03;1
"*Tx_2Ko_12_9";1;1;1;1;1;1;1;0,042
"*Tx_1Ko_15_15";1;1;1;1;0,011;1;1;1
"*Tx_1Ko_11_5";1;1;1;1;1;1;0,03;1
"*Tx_1Ko_15_10";1;1;1;1;0,689;1;1;0,206
"*Tx_2Ko_8_10";1;1;1;1;1;1;0,534;0,597
"*Tx_2Ko_8_11";1;1;1;1;0,378;1;0,534;1
"*Tx_2Ko_8_15";1;0,02;1;1;0,378;1;1;1
"*Tx_Erm_12_16";1;1;1;1;1;1;0,008;1
"*Tx_Erm_12_17";1;1;1;1;1;1;1;0,042
"*Tx_Erm_12_11";1;1;1;1;1;1;1;0,042
"*Tx_2Ko_11_26";1;1;1;1;1;0;0,534;1
"*Tx_2Ko_12_18";1;0,081;1;1;0,689;1;0,896;1
"*Tx_Erm_12_19";1;1;1;0,001;0,689;1;0,896;1
"*Tx_Erm_8_24";1;1;1;1;0,378;1;1;0,597
"*Tx_1Ko_15_6";1;1;1;1;0,378;1;1;0,597
"*Tx_Erm_8_26";1;1;1;1;1;1;1;0,042
"*Tx_Erm_8_23";1;1;1;1;1;1;1;0,15
"*Tx_1Ko_15_3";1;0,02;1;1;0,378;1;1;1
"*Tx_1Ko_12_31";1;1;1;1;1;1;1;0,042
"*Tx_Kol_1_9";1;1;1;1;1;1;1;0,042
"*Tx_1Ko_12_30";1;1;1;1;1;1;0,126;1
"*Tx_2Ko_12_14";1;1;1;1;1;1;0,126;1
"*Tx_Erm_2_21";1;1;1;1;1;1;0,03;1
"*Tx_Kol_3_5";1;1;1;1;1;1;0,126;1
"*Tx_Erm_2_25";1;1;1;1;0,011;1;1;1
"*Tx_Erm_2_24";1;1;1;1;0,011;1;1;1
"*Tx_Tt_1_16";1;1;1;1;1;1;0,164;0,976
"*Tx_Erm_2_28";1;1;1;1;0,011;1;1;1
"*K_1Ts_5";1;1;0,003;1;1;1;1;0
"*Tx_1Ko_14_21";1;1;1;1;0,011;1;1;1
"*Tx_Ef_2_8";1;1;1;1;0,378;0;1;1
"*Tx_1Ko_7_19";1;1;1;1;0,071;1;1;1
"*Tx_Ef_2_3";1;1;1;1;0,689;1;0,164;1
"*Tx_Ga_4_27";1;0,17;1;0,006;0,945;1;1;1
"*Tx_Ga_4_24";1;1;1;1;0,689;1;1;0,206
"*Tx_Ga_4_22";1;1;1;1;0,011;1;1;1
"*Tx_Ga_4_23";1;1;1;0;1;1;0,534;1
"*Tx_Erm_15_6";0;1;1;1;0,378;1;1;1
"*Tx_Erm_9_30";1;1;1;1;0,378;1;1;0,597
"*Tx_Erm_9_33";1;1;1;1;0,378;1;0,534;1
"*Tx_Ga_4_29";1;1;1;1;1;1;0,03;1
"*Tx_Flp_4_9";1;1;1;1;1;1;0,534;0,597
"*Tx_Flp_4_3";1;0,02;1;1;0,378;1;1;1
"*Tx_Ef_5_33";1;1;1;0;1;1;1;1
"*Tx_Flp_4_1";1;1;1;1;1;1;1;0,042
"*Tx_2Ts_3_12";1;1;1;1;1;0;1;0,597
"*K_Ef_6";1;1;0,25;1;1;1;1;0,183
"*Tx_1Ko_14_34";1;0,02;1;1;0,378;1;1;1
"*Tx_Erm_8_9";1;1;1;1;1;1;0,534;0,597
"*K_Ef_5";0,253;1;1;0;1;1;0,989;1
"*K_Ef_4";0,301;1;1;0,231;1;1;0,413;1
"*Tx_1Ko_2_15";1;1;1;1;1;1;0,534;0,597
"*Tx_1Ko_2_14";1;1;1;1;1;1;0,03;1
"*Tx_1Ko_2_11";1;1;1;1;1;1;0,534;0,597
"*Tx_1Ko_2_12";1;1;1;1;0,378;1;0,534;1
"*Tx_Erm_15_9";1;1;1;1;0,078;1;0,896;1
"*K_Ef_3";1;1;1;1;1;1;1;0
"*Tx_Ga_2_10";0;1;1;1;1;1;1;0,597
"*K_Ef_1";1;1;0,008;1;1;1;1;0,139
"*Tx_Erm_15_21";1;1;1;1;0,378;1;0,534;1
"*Tx_Erm_15_3";0;1;1;1;0,378;1;1;1
"*Tx_Ga_2_14";1;1;1;1;0,378;1;0,534;1
"*Tx_Ga_2_17";1;1;1;1;0,011;1;1;1
"*Tx_Ga_2_16";1;1;1;1;0,002;1;1;1
"*Tx_1Ko_7_29";1;1;1;1;0,378;1;0,534;1
"*Tx_1Ko_7_28";1;1;1;1;0,078;1;0,896;1
"*Tx_Ef_6_4";1;1;1;1;0,378;1;0,534;1
"*Tx_1Ko_7_23";1;1;1;1;0,011;1;1;1
"*Tx_Ef_6_9";1;1;1;1;1;1;0,03;1
"*Tx_1Ko_7_21";1;1;1;1;0,378;1;0,534;1
"*Tx_1Ko_7_25";1;1;1;1;0,378;1;1;0,597
"*Tx_Ga_5_21";1;1;1;1;0,378;1;0,534;1
"*Tx_Erm_8_34";1;1;1;1;0,011;1;1;1
"*Tx_Erm_14_14";1;1;1;1;1;1;0,534;0,597
"*Tx_Erm_14_15";1;1;1;1;0,378;1;1;0,597
"*Tx_Erm_14_11";1;1;1;1;0,002;1;1;1
"*Tx_Erm_5_20";1;1;1;1;0,011;1;1;1
"*Tx_Kol_3_15";1;1;1;1;0,378;1;1;0,597
"*Tx_1Ko_16_20";1;0;1;1;1;1;1;1
"*Tx_Kol_3_16";1;1;1;1;1;1;0,896;0,206
"*Tx_Kol_3_11";1;1;1;1;0,011;1;1;1
"*Tx_Kol_3_13";1;1;1;1;0,011;1;1;1
"*Tx_1Ko_11_18";1;1;1;1;1;1;0,534;0,597
"*L_Efesoarrei";0,752;1;0,344;0,001;1;1;1;0,103
"*Tx_Ef_4_18";1;1;1;1;0,378;1;0,534;1
"*Tx_Erm_5_15";1;1;1;1;0,011;1;1;1
"*K_Kol_3";0,253;1;1;0,178;0,402;1;0,989;1
"*Tx_Ef_4_16";1;1;1;1;1;1;1;0,042
"*Tx_Ef_4_17";1;0,02;1;1;0,378;1;1;1
"*Tx_Kol_4_12";1;0,02;1;1;1;1;1;0,597
"*Tx_1Tm_1_20";1;1;1;1;1;1;0,03;1
"*Tx_2Ko_2_17";1;1;1;1;1;1;1;0,042
"*Tx_Ga_4_6";1;0,02;1;1;1;1;1;0,597
"*Tx_Erm_10_8";1;1;1;1;0,212;1;1;0,455
"*Tx_Ga_4_9";1;1;1;1;1;1;0,534;0,597
"*Tx_Erm_10_5";1;1;1;1;0,011;1;1;1
"*Tx_Ga_6_1";1;1;1;1;1;1;1;0,042
"*Tx_Erm_1_17";1;1;1;1;0,689;1;1;0,206
"*Tx_Ga_6_7";1;0,02;1;1;1;1;0,534;1
"*Tx_Ga_6_8";1;1;1;1;1;1;0,03;1
"*Tx_Ga_2_9";1;1;1;1;1;1;0,534;0,597
"*Tx_Ga_2_4";1;0,02;1;1;0,378;1;1;1
"*Tx_Ga_2_2";1;1;1;1;1;1;0,03;1
"*Tx_2Ts_1_10";0;1;1;1;0,689;1;1;0,976
"*Tx_Flm_1_20";1;0,02;1;1;1;1;1;0,597
"*Tx_Erm_14_6";1;1;1;1;1;1;1;0,013
"*Tx_Erm_14_4";1;1;1;1;0,689;1;0,896;0,976
"*Tx_Erm_14_5";1;1;1;0,001;1;1;0,896;0,976
"*Tx_Erm_14_2";1;1;1;1;1;0;1;0,597
"*Tx_Ga_5_23";1;1;1;1;0,378;1;1;0,597
"*Tx_1Tm_5_13";1;0,02;1;1;1;1;0,534;1
"*Tx_Erm_8_15";1;1;1;1;0,002;1;1;1
"*Tx_Erm_8_17";1;1;1;1;0,011;1;1;1
"*Tx_1Ko_14_23";1;1;1;1;1;1;0,126;1
"*Tx_1Tm_5_18";1;1;1;1;1;1;1;1
"*Tx_Erm_14_8";1;1;1;1;0,078;1;1;0,976
"*Tx_Erm_14_9";1;1;1;1;0,011;1;1;1
"*Tx_Ga_6_15";1;1;1;1;1;1;1;0,15
"*Tx_Ga_6_14";1;1;1;1;0,011;1;1;1
"*Tx_Erm_12_6";1;1;1;1;1;1;0,534;0,597
"*Tx_Erm_12_1";1;1;1;1;1;1;0,534;0,597
"*Tx_Ga_6_13";1;1;1;1;0,011;1;1;1
"*Tx_Erm_12_3";1;1;1;1;1;1;0,896;0,206
"*Tx_1Ko_15_52";1;1;1;1;0,011;1;1;1
"*Tx_1Ko_12_24";1;1;1;1;0,378;1;0,534;1
"*Tx_Erm_12_8";1;1;1;1;1;1;0,126;1
"*Tx_Erm_12_9";1;1;1;1;1;1;0,03;1
"*Tx_1Ko_15_54";1;1;1;1;0,689;1;0,896;0,976
"*Tx_Erm_14_20";1;1;1;1;1;1;0,03;1
"*Tx_Erm_14_23";1;1;1;1;1;1;0,03;1
"*Tx_Erm_14_22";1;1;1;1;1;1;0,03;1
"*Tx_1Ko_3_7";1;1;1;1;0,378;1;0,534;1
"*Tx_Erm_11_17";1;0,02;1;0;1;1;1;1
"*Tx_Erm_11_15";1;1;1;1;0,378;1;0,534;1
"*Tx_Erm_11_11";1;1;1;1;0,011;1;1;1
"*Tx_Ga_4_17";1;0,02;1;1;0,378;1;1;1
"*Tx_Ga_4_15";1;1;1;1;1;1;1;0,042
"*Tx_Ga_4_14";1;1;1;1;1;1;0,126;1
"*Tx_Kol_2_23";1;1;1;1;1;1;0,534;0,597
"*Tx_Ga_4_12";1;1;1;1;1;1;0,534;0,597
"*Tx_Erm_11_18";1;0,02;1;0;1;1;1;1
"*L_Tesalonikarrei1";1;1;0,512;1;1;1;1;0
"*L_Tesalonikarrei2";0,082;1;0,115;1;1;0,283;1;0,05
"*K_Ga_6";1;0,738;0,163;1;0,679;1;1;1
"*K_Ga_4";1;0,339;1;0,487;0,446;1;0,935;1
"*K_Ga_5";0,349;1;0,019;0,036;0,835;1;1;1
"*K_Ga_2";0,285;0,64;1;1;0,061;1;0,344;1
"*K_Ga_3";1;1;0,556;1;0;1;1;1
"*Tx_1Ko_1_30";1;1;1;1;0,378;1;1;0,597
"*K_Ga_1";1;0,357;0,215;1;1;1;0,817;0,097
"*Tx_Ef_3_5";1;1;1;1;0,071;1;1;1
"*Tx_Erm_11_3";1;1;1;1;0,011;1;1;1
"*Tx_1Ko_14_26";1;0;1;1;1;1;1;1
"*Tx_Ef_3_6";1;1;1;1;0,071;1;1;1
"*K_2Ko_11";0,396;1;1;1;1;0,1;0,01;1
"*K_2Ko_10";1;1;1;1;1;1;0;1
"*K_2Ko_13";0;1;0,147;1;1;1;0,192;1
"*K_2Ko_12";1;0,196;1;1;1;1;0,001;1
"*Tx_2Ts_3_6";1;1;1;1;1;1;1;0,042
"*Tx_1Ko_8_8";1;1;1;1;0,378;1;0,534;1
"*Tx_Flp_3_4";1;1;1;1;1;1;0,03;1
"*Tx_Flp_3_1";1;1;1;1;1;1;1;0,15
"*Tx_Flp_3_5";1;1;1;1;0,002;1;1;1
"*Tx_2Ko_12_19";1;1;1;1;1;1;0,534;0,597
"*Tx_Flp_3_9";1;1;1;1;0,378;1;0,534;1
"*Tx_2Ko_12_15";1;0,02;1;1;1;1;1;0,597
"*Tx_Erm_3_31";1;1;1;1;0,011;1;1;1
"*Tx_2Ko_12_17";1;0,02;1;1;1;1;0,534;1
"*Tx_2Ko_12_10";1;1;1;1;1;1;1;0,15
"*Tx_2Ko_12_11";1;1;1;1;1;1;0,03;1
"*Tx_2Ko_12_12";1;1;1;1;0,378;1;1;0,597
"*Tx_2Ts_3_10";1;1;1;1;1;1;0,534;0,597
"*L_Timoteori1";0,001;0,001;0,659;1;1;0,484;0,072;1
"*L_Timoteori2";1;0,375;1;1;1;1;0,505;0,019
"*Tx_1Tm_3_11";1;1;1;1;1;1;0,03;1
"*Tx_2Ts_3_17";1;0,02;1;1;0,378;1;1;1
"*Tx_Erm_6_13";1;1;1;1;1;1;0,03;1
"*Tx_Erm_6_16";1;1;1;1;0,002;1;1;1
"*Tx_Erm_6_19";1;1;1;1;1;1;0,164;0,976
"*Tx_2Ko_10_18";1;1;1;1;1;1;0,03;1
"*Tx_Kol_3_22";1;1;1;1;0,378;1;0,534;1
"*Tx_2Ko_10_12";1;1;1;1;1;1;0,008;1
"*Tx_2Ko_10_13";1;1;1;1;1;1;0,03;1
"*Tx_2Ko_10_10";1;1;1;1;1;1;0,126;1
"*Tx_Tt_3_15";1;0,02;1;1;1;1;1;0,597
"*Tx_2Ko_10_15";1;1;1;1;1;1;0,896;0,206
"*Tx_Erm_16_19";1;1;1;1;1;1;1;0,042
"*Tx_Erm_1_32";1;1;1;1;1;1;0,008;1
"*Tx_Erm_16_12";1;0,02;1;1;1;1;1;0,597
"*Tx_Erm_16_16";1;0;1;1;1;1;1;1
"*Tx_Flp_3_18";1;1;1;1;1;1;1;0,042
"*Tx_Flp_3_15";1;1;1;1;0,378;1;1;0,597
"*Tx_Flp_3_14";1;1;1;1;0,378;1;0,534;1
"*Tx_Flp_3_12";1;1;1;1;0,378;1;0,534;1
