"";"V1"
"1";2
"2";5
"3";8
"4";7
"5";5
"6";8
"7";2
"8";2
"9";3
"10";8
"11";8
"12";8
"13";8
"14";8
"15";7
"16";7
"17";7
"18";5
"19";8
"20";8
"21";5
"22";8
"23";8
"24";7
"25";8
"26";7
"27";8
"28";8
"29";0
"30";7
"31";7
"32";7
"33";7
"34";7
"35";7
"36";7
"37";7
"38";1
"39";7
"40";7
"41";0
"42";7
"43";7
"44";7
"45";7
"46";7
"47";7
"48";7
"49";8
"50";8
"51";5
"52";8
"53";7
"54";7
"55";5
"56";8
"57";7
"58";5
"59";5
"60";5
"61";7
"62";7
"63";8
"64";7
"65";5
"66";7
"67";7
"68";7
"69";7
"70";7
"71";8
"72";5
"73";5
"74";5
"75";5
"76";5
"77";5
"78";5
"79";5
"80";5
"81";5
"82";8
"83";4
"84";8
"85";7
"86";2
"87";7
"88";7
"89";5
"90";7
"91";7
"92";7
"93";7
"94";8
"95";7
"96";7
"97";7
"98";7
"99";5
"100";0
"101";7
"102";8
"103";5
"104";7
"105";7
"106";8
"107";5
"108";5
"109";8
"110";5
"111";7
"112";8
"113";5
"114";8
"115";5
"116";5
"117";7
"118";5
"119";5
"120";5
"121";5
"122";5
"123";5
"124";5
"125";7
"126";5
"127";5
"128";8
"129";8
"130";5
"131";5
"132";5
"133";7
"134";5
"135";5
"136";5
"137";5
"138";8
"139";5
"140";5
"141";5
"142";5
"143";5
"144";5
"145";8
"146";5
"147";5
"148";5
"149";5
"150";5
"151";5
"152";5
"153";5
"154";5
"155";5
"156";5
"157";8
"158";5
"159";5
"160";5
"161";5
"162";5
"163";5
"164";5
"165";8
"166";7
"167";8
"168";8
"169";5
"170";7
"171";5
"172";8
"173";5
"174";5
"175";5
"176";8
"177";8
"178";5
"179";5
"180";5
"181";5
"182";5
"183";7
"184";0
"185";5
"186";5
"187";5
"188";5
"189";5
"190";5
"191";5
"192";5
"193";5
"194";5
"195";5
"196";5
"197";7
"198";5
"199";5
"200";5
"201";7
"202";5
"203";5
"204";5
"205";5
"206";7
"207";5
"208";5
"209";5
"210";7
"211";7
"212";5
"213";5
"214";5
"215";5
"216";5
"217";5
"218";7
"219";7
"220";8
"221";5
"222";5
"223";0
"224";5
"225";5
"226";8
"227";7
"228";4
"229";4
"230";4
"231";4
"232";5
"233";5
"234";5
"235";5
"236";7
"237";5
"238";5
"239";5
"240";5
"241";5
"242";5
"243";5
"244";5
"245";5
"246";7
"247";5
"248";5
"249";5
"250";0
"251";7
"252";7
"253";5
"254";7
"255";7
"256";7
"257";5
"258";7
"259";5
"260";5
"261";5
"262";5
"263";5
"264";0
"265";5
"266";5
"267";7
"268";7
"269";5
"270";7
"271";8
"272";7
"273";7
"274";0
"275";7
"276";7
"277";7
"278";8
"279";5
"280";5
"281";7
"282";5
"283";7
"284";5
"285";5
"286";5
"287";5
"288";5
"289";5
"290";5
"291";8
"292";8
"293";7
"294";8
"295";0
"296";8
"297";8
"298";5
"299";8
"300";8
"301";8
"302";8
"303";7
"304";8
"305";5
"306";5
"307";5
"308";7
"309";8
"310";5
"311";5
"312";5
"313";8
"314";6
"315";8
"316";8
"317";7
"318";5
"319";8
"320";8
"321";5
"322";5
"323";7
"324";3
"325";7
"326";5
"327";5
"328";5
"329";2
"330";8
"331";8
"332";8
"333";5
"334";8
"335";7
"336";5
"337";2
"338";8
"339";5
"340";8
"341";7
"342";8
"343";7
"344";7
"345";7
"346";7
"347";8
"348";8
"349";7
"350";5
"351";5
"352";5
"353";8
"354";8
"355";8
"356";5
"357";8
"358";8
"359";7
"360";5
"361";0
"362";7
"363";8
"364";7
"365";7
"366";5
"367";5
"368";5
"369";5
"370";5
"371";5
"372";5
"373";8
"374";8
"375";5
"376";5
"377";7
"378";8
"379";8
"380";7
"381";8
"382";8
"383";7
"384";7
"385";8
"386";8
"387";8
"388";8
"389";8
"390";8
"391";8
"392";8
"393";7
"394";0
"395";7
"396";5
"397";8
"398";5
"399";5
"400";5
"401";5
"402";5
"403";5
"404";5
"405";5
"406";5
"407";8
"408";7
"409";5
"410";5
"411";7
"412";8
"413";8
"414";8
"415";7
"416";5
"417";5
"418";5
"419";5
"420";7
"421";5
"422";5
"423";5
"424";7
"425";7
"426";5
"427";7
"428";5
"429";2
"430";4
"431";2
"432";4
"433";2
"434";4
"435";4
"436";7
"437";7
"438";8
"439";8
"440";4
"441";7
"442";4
"443";8
"444";7
"445";5
"446";5
"447";2
"448";8
"449";8
"450";7
"451";7
"452";7
"453";8
"454";5
"455";8
"456";0
"457";8
"458";5
"459";8
"460";7
"461";8
"462";8
"463";8
"464";7
"465";8
"466";5
"467";5
"468";8
"469";7
"470";8
"471";0
"472";7
"473";7
"474";7
"475";8
"476";8
"477";8
"478";8
"479";1
"480";7
"481";7
"482";7
"483";8
"484";8
"485";8
"486";7
"487";5
"488";4
"489";6
"490";0
"491";3
"492";4
"493";6
"494";0
"495";7
"496";7
"497";7
"498";7
"499";7
"500";2
"501";7
"502";8
"503";7
"504";5
"505";2
"506";4
"507";2
"508";4
"509";4
"510";5
"511";4
"512";8
"513";8
"514";8
"515";8
"516";1
"517";7
"518";8
"519";6
"520";8
"521";7
"522";7
"523";5
"524";8
"525";8
"526";4
"527";7
"528";8
"529";8
"530";8
"531";5
"532";8
"533";5
"534";5
"535";5
"536";5
"537";7
"538";5
"539";5
"540";5
"541";7
"542";8
"543";8
"544";7
"545";8
"546";5
"547";7
"548";5
"549";5
"550";7
"551";7
"552";7
"553";4
"554";7
"555";7
"556";7
"557";7
"558";7
"559";4
"560";5
"561";1
"562";8
"563";8
"564";5
"565";1
"566";8
"567";8
"568";7
"569";5
"570";5
"571";5
"572";5
"573";5
"574";2
"575";8
"576";8
"577";8
"578";7
"579";8
"580";8
"581";5
"582";5
"583";7
"584";8
"585";8
"586";8
"587";5
"588";7
"589";7
"590";8
"591";2
"592";8
"593";7
"594";8
"595";8
"596";7
"597";7
"598";8
"599";8
"600";8
"601";8
"602";2
"603";4
"604";2
"605";2
"606";7
"607";2
"608";2
"609";2
"610";8
"611";2
"612";5
"613";2
"614";2
"615";2
"616";2
"617";2
"618";8
"619";2
"620";2
"621";2
"622";0
"623";2
"624";7
"625";7
"626";8
"627";8
"628";8
"629";3
"630";2
"631";2
"632";2
"633";2
"634";8
"635";8
"636";8
"637";5
"638";2
"639";5
"640";3
"641";8
"642";8
"643";8
"644";8
"645";5
"646";8
"647";7
"648";8
"649";7
"650";5
"651";8
"652";7
"653";7
"654";5
"655";5
"656";5
"657";2
"658";8
"659";5
"660";8
"661";5
"662";7
"663";7
"664";7
"665";7
"666";8
"667";5
"668";0
"669";5
"670";0
"671";8
"672";7
"673";7
"674";5
"675";7
"676";8
"677";5
"678";5
"679";7
"680";7
"681";7
"682";7
"683";0
"684";7
"685";7
"686";7
"687";8
"688";7
"689";5
"690";7
"691";7
"692";8
"693";7
"694";5
"695";7
"696";7
"697";7
"698";7
"699";0
"700";8
"701";7
"702";8
"703";7
"704";7
"705";7
"706";7
"707";0
"708";8
"709";8
"710";7
"711";5
"712";7
"713";2
"714";2
"715";7
"716";7
"717";7
"718";7
"719";7
"720";7
"721";8
"722";7
"723";7
"724";7
"725";5
"726";5
"727";1
"728";7
"729";5
"730";7
"731";7
"732";8
"733";7
"734";7
"735";3
"736";8
"737";2
"738";5
"739";7
"740";7
"741";7
"742";7
"743";8
"744";7
"745";7
"746";5
"747";7
"748";7
"749";7
"750";7
"751";7
"752";7
"753";7
"754";2
"755";7
"756";8
"757";1
"758";8
"759";8
"760";7
"761";5
"762";7
"763";8
"764";5
"765";2
"766";2
"767";8
"768";8
"769";7
"770";8
"771";8
"772";7
"773";4
"774";7
"775";7
"776";7
"777";7
"778";5
"779";5
"780";6
"781";5
"782";5
"783";2
"784";7
"785";5
"786";2
"787";7
"788";4
"789";7
"790";7
"791";7
"792";7
"793";7
"794";2
"795";2
"796";7
"797";7
"798";7
"799";7
"800";7
"801";8
"802";8
"803";0
"804";5
"805";5
"806";0
"807";7
"808";5
"809";7
"810";5
"811";5
"812";5
"813";5
"814";5
"815";5
"816";5
"817";5
"818";5
"819";5
"820";5
"821";8
"822";4
"823";4
"824";4
"825";8
"826";8
"827";5
"828";7
"829";8
"830";7
"831";7
"832";4
"833";4
"834";4
"835";4
"836";5
"837";4
"838";4
"839";4
"840";4
"841";2
"842";5
"843";5
"844";5
"845";2
"846";2
"847";7
"848";2
"849";0
"850";5
"851";0
"852";5
"853";7
"854";5
"855";7
"856";5
"857";5
"858";5
"859";7
"860";5
"861";8
"862";7
"863";5
"864";5
"865";7
"866";7
"867";5
"868";7
"869";8
"870";7
"871";7
"872";5
"873";8
"874";7
"875";8
"876";4
"877";7
"878";8
"879";7
"880";7
"881";7
"882";4
"883";5
"884";5
"885";8
"886";6
"887";7
"888";8
"889";7
"890";5
"891";6
"892";7
"893";7
"894";5
"895";7
"896";6
"897";5
"898";7
"899";7
"900";6
"901";7
"902";7
"903";6
"904";8
"905";7
"906";7
"907";7
"908";7
"909";7
"910";7
"911";5
"912";8
"913";6
"914";7
"915";7
"916";5
"917";0
"918";7
"919";5
"920";5
"921";7
"922";7
"923";8
"924";0
"925";7
"926";8
"927";8
"928";8
"929";7
"930";7
"931";5
"932";7
"933";8
"934";7
"935";7
"936";8
"937";5
"938";7
"939";5
"940";7
"941";5
"942";0
"943";8
"944";8
"945";7
"946";6
"947";7
"948";6
"949";7
"950";7
"951";7
"952";8
"953";5
"954";6
"955";6
"956";5
"957";8
"958";5
"959";5
"960";5
"961";5
"962";5
"963";7
"964";7
"965";7
"966";7
"967";8
"968";8
"969";7
"970";5
"971";5
"972";5
"973";5
"974";6
"975";6
"976";6
"977";7
"978";6
"979";8
"980";7
"981";0
"982";0
"983";2
"984";7
"985";7
"986";7
"987";7
"988";6
"989";7
"990";7
"991";7
"992";6
"993";2
"994";8
"995";5
"996";8
"997";7
"998";7
"999";7
"1000";7
"1001";4
"1002";4
"1003";7
"1004";4
"1005";4
"1006";7
"1007";7
"1008";4
"1009";7
"1010";4
"1011";4
"1012";2
"1013";7
"1014";8
"1015";7
"1016";8
"1017";2
"1018";6
"1019";6
"1020";2
"1021";8
"1022";8
"1023";8
"1024";0
"1025";5
"1026";5
"1027";6
"1028";6
"1029";6
"1030";6
"1031";6
"1032";5
"1033";7
"1034";7
"1035";2
"1036";2
"1037";7
"1038";8
"1039";8
"1040";8
"1041";8
"1042";5
"1043";5
"1044";8
"1045";8
"1046";5
"1047";8
"1048";8
"1049";8
"1050";7
"1051";5
"1052";0
"1053";8
"1054";5
"1055";5
"1056";5
"1057";5
"1058";5
"1059";5
"1060";5
"1061";5
"1062";5
"1063";5
"1064";5
"1065";5
"1066";2
"1067";2
"1068";7
"1069";5
"1070";5
"1071";5
"1072";5
"1073";5
"1074";2
"1075";7
"1076";0
"1077";7
"1078";0
"1079";0
"1080";8
"1081";8
"1082";8
"1083";8
"1084";8
"1085";8
"1086";8
"1087";0
"1088";7
"1089";7
"1090";8
"1091";0
"1092";2
"1093";0
"1094";7
"1095";0
"1096";8
"1097";7
"1098";8
"1099";7
"1100";8
"1101";7
"1102";7
"1103";0
"1104";2
"1105";0
"1106";8
"1107";8
"1108";8
"1109";8
"1110";8
"1111";0
"1112";2
"1113";7
"1114";4
"1115";7
"1116";5
"1117";5
"1118";0
"1119";7
"1120";0
"1121";7
"1122";7
"1123";5
"1124";0
"1125";2
"1126";0
"1127";0
"1128";0
"1129";7
"1130";5
"1131";7
"1132";8
"1133";2
"1134";5
"1135";2
"1136";7
"1137";7
"1138";7
"1139";7
"1140";0
"1141";7
"1142";8
"1143";8
"1144";2
"1145";5
"1146";5
"1147";8
"1148";8
"1149";5
"1150";8
"1151";7
"1152";7
"1153";8
"1154";8
"1155";5
"1156";8
"1157";5
"1158";5
"1159";5
"1160";5
"1161";5
"1162";5
"1163";5
"1164";5
"1165";7
"1166";5
"1167";5
"1168";5
"1169";5
"1170";3
"1171";8
"1172";7
"1173";5
"1174";7
"1175";5
"1176";7
"1177";7
"1178";5
"1179";5
"1180";6
"1181";8
"1182";7
"1183";5
"1184";7
"1185";8
"1186";5
"1187";8
"1188";8
"1189";8
"1190";8
"1191";4
"1192";7
"1193";5
"1194";5
"1195";4
"1196";5
"1197";5
"1198";5
"1199";0
"1200";5
"1201";5
"1202";5
"1203";0
"1204";0
"1205";6
"1206";7
"1207";0
"1208";7
"1209";0
"1210";7
"1211";2
"1212";5
"1213";5
"1214";7
"1215";5
"1216";7
"1217";8
"1218";5
"1219";8
"1220";8
"1221";2
"1222";8
"1223";7
"1224";7
"1225";8
"1226";2
"1227";5
"1228";8
"1229";8
"1230";8
"1231";8
"1232";8
"1233";8
"1234";8
"1235";0
"1236";8
"1237";8
"1238";7
"1239";2
"1240";7
"1241";8
"1242";8
"1243";2
"1244";2
"1245";2
"1246";0
"1247";2
"1248";8
"1249";3
"1250";2
"1251";2
"1252";3
"1253";8
"1254";8
"1255";8
"1256";8
"1257";8
"1258";8
"1259";2
"1260";8
"1261";7
"1262";5
"1263";7
"1264";7
"1265";4
"1266";8
"1267";1
"1268";7
"1269";7
"1270";2
"1271";7
"1272";8
"1273";8
"1274";2
"1275";7
"1276";7
"1277";7
"1278";2
"1279";5
"1280";5
"1281";8
"1282";5
"1283";5
"1284";8
"1285";8
"1286";8
"1287";8
"1288";5
"1289";8
"1290";8
"1291";8
"1292";8
"1293";8
"1294";7
"1295";8
"1296";8
"1297";5
"1298";8
"1299";5
"1300";5
"1301";7
"1302";8
"1303";2
"1304";8
"1305";8
"1306";8
"1307";8
"1308";8
"1309";8
"1310";8
"1311";7
"1312";7
"1313";8
"1314";8
"1315";8
"1316";8
"1317";7
"1318";8
"1319";5
"1320";5
"1321";5
"1322";5
"1323";8
"1324";8
"1325";7
"1326";5
"1327";5
"1328";5
"1329";5
"1330";7
"1331";8
"1332";8
"1333";7
"1334";8
"1335";8
"1336";7
"1337";8
"1338";8
"1339";5
"1340";8
"1341";8
"1342";7
"1343";7
"1344";7
"1345";8
"1346";8
"1347";5
"1348";7
"1349";5
"1350";8
"1351";7
"1352";8
"1353";5
"1354";8
"1355";5
"1356";8
"1357";7
"1358";7
"1359";7
"1360";8
"1361";8
"1362";8
"1363";8
"1364";7
"1365";8
"1366";7
"1367";7
"1368";8
"1369";7
"1370";7
"1371";5
"1372";5
"1373";7
"1374";7
"1375";8
"1376";8
"1377";8
"1378";8
"1379";8
"1380";5
"1381";8
"1382";2
"1383";1
"1384";7
"1385";8
"1386";8
"1387";8
"1388";7
"1389";7
"1390";7
"1391";8
"1392";8
"1393";0
"1394";7
"1395";8
"1396";8
"1397";8
"1398";8
"1399";8
"1400";5
"1401";7
"1402";7
"1403";5
"1404";5
"1405";5
"1406";7
"1407";0
"1408";8
"1409";7
"1410";5
"1411";7
"1412";8
"1413";8
"1414";8
"1415";8
"1416";5
"1417";8
"1418";8
"1419";8
"1420";8
"1421";8
"1422";8
"1423";8
"1424";8
"1425";7
"1426";8
"1427";7
"1428";8
"1429";7
"1430";8
"1431";8
"1432";8
"1433";7
"1434";8
"1435";7
"1436";8
"1437";8
"1438";8
"1439";2
"1440";8
"1441";8
"1442";8
"1443";7
"1444";8
"1445";8
"1446";8
"1447";0
"1448";2
"1449";8
"1450";0
"1451";8
"1452";7
"1453";7
"1454";5
"1455";8
"1456";7
"1457";8
"1458";5
"1459";2
"1460";8
"1461";7
"1462";2
"1463";8
"1464";5
"1465";7
"1466";2
"1467";8
"1468";2
"1469";2
"1470";2
"1471";7
"1472";7
"1473";5
"1474";7
"1475";8
"1476";0
"1477";2
"1478";6
"1479";7
"1480";7
"1481";5
"1482";8
"1483";6
"1484";0
"1485";8
"1486";8
"1487";8
"1488";8
"1489";8
"1490";8
"1491";7
"1492";7
"1493";7
"1494";7
"1495";8
"1496";0
"1497";7
"1498";2
"1499";8
"1500";8
"1501";7
"1502";0
"1503";7
"1504";7
"1505";7
"1506";7
"1507";7
"1508";7
"1509";7
"1510";7
"1511";8
"1512";8
"1513";7
"1514";7
"1515";7
"1516";7
"1517";5
"1518";7
"1519";4
"1520";7
"1521";8
"1522";7
"1523";8
"1524";7
"1525";8
"1526";2
"1527";2
"1528";1
"1529";0
"1530";5
"1531";7
"1532";0
"1533";8
"1534";7
"1535";7
"1536";7
"1537";7
"1538";7
"1539";7
"1540";8
"1541";8
"1542";7
"1543";0
"1544";8
"1545";8
"1546";8
"1547";8
"1548";6
"1549";7
"1550";8
"1551";6
"1552";7
"1553";7
"1554";7
"1555";7
"1556";8
"1557";7
"1558";7
"1559";7
"1560";7
"1561";7
"1562";7
"1563";7
"1564";7
"1565";7
"1566";7
"1567";5
"1568";8
"1569";8
"1570";8
"1571";0
"1572";7
"1573";7
"1574";8
"1575";5
"1576";2
"1577";0
"1578";7
"1579";0
"1580";8
"1581";2
"1582";0
"1583";2
"1584";7
"1585";2
"1586";7
"1587";5
"1588";7
"1589";8
"1590";7
"1591";7
"1592";7
"1593";8
"1594";1
"1595";5
"1596";7
"1597";7
"1598";0
"1599";0
"1600";0
"1601";8
"1602";7
"1603";1
"1604";7
"1605";5
"1606";7
"1607";7
"1608";7
"1609";5
"1610";7
"1611";0
"1612";8
"1613";8
"1614";8
"1615";7
"1616";8
"1617";0
"1618";3
"1619";2
"1620";3
"1621";7
"1622";8
"1623";8
"1624";8
"1625";8
"1626";8
"1627";8
"1628";7
"1629";8
"1630";8
"1631";8
"1632";7
"1633";7
"1634";8
"1635";8
"1636";7
"1637";7
"1638";2
"1639";7
"1640";8
"1641";2
"1642";7
"1643";5
"1644";2
"1645";7
"1646";7
"1647";2
"1648";2
"1649";5
"1650";8
"1651";5
"1652";8
"1653";7
"1654";8
"1655";7
"1656";1
"1657";8
"1658";7
"1659";7
"1660";7
"1661";7
"1662";5
"1663";7
"1664";5
"1665";5
"1666";5
"1667";5
"1668";5
"1669";5
"1670";7
"1671";5
"1672";5
"1673";7
"1674";7
"1675";5
"1676";0
"1677";5
"1678";7
"1679";5
"1680";7
"1681";8
"1682";5
"1683";5
"1684";5
"1685";8
"1686";5
"1687";5
"1688";5
"1689";5
"1690";5
"1691";5
"1692";5
"1693";5
"1694";8
"1695";5
"1696";5
"1697";5
"1698";8
"1699";5
"1700";5
"1701";5
"1702";7
"1703";7
"1704";5
"1705";5
"1706";7
"1707";5
"1708";5
"1709";7
"1710";5
"1711";5
"1712";5
"1713";8
"1714";5
"1715";8
"1716";5
"1717";7
"1718";5
"1719";5
"1720";5
"1721";3
"1722";5
"1723";7
"1724";7
"1725";7
"1726";2
"1727";8
"1728";5
"1729";7
"1730";8
"1731";7
"1732";8
"1733";7
"1734";8
"1735";7
"1736";8
"1737";0
"1738";7
"1739";8
"1740";8
"1741";7
"1742";5
"1743";2
"1744";8
"1745";8
"1746";7
"1747";5
"1748";5
"1749";5
"1750";5
"1751";7
"1752";4
"1753";8
"1754";5
"1755";8
"1756";7
"1757";5
"1758";5
"1759";4
"1760";8
"1761";2
"1762";5
"1763";7
"1764";7
"1765";5
"1766";2
"1767";5
"1768";2
"1769";5
"1770";8
"1771";2
"1772";8
"1773";8
"1774";5
"1775";8
"1776";3
"1777";8
"1778";7
"1779";8
"1780";5
"1781";8
"1782";7
"1783";7
"1784";5
"1785";4
"1786";7
"1787";7
"1788";8
"1789";5
"1790";4
"1791";7
"1792";4
"1793";7
"1794";0
"1795";0
"1796";7
"1797";5
"1798";7
"1799";1
"1800";5
"1801";7
"1802";5
"1803";8
"1804";5
"1805";3
"1806";8
"1807";0
"1808";8
"1809";8
"1810";5
"1811";7
"1812";7
"1813";8
"1814";7
"1815";2
"1816";7
"1817";7
"1818";7
"1819";8
"1820";8
"1821";2
"1822";5
"1823";5
"1824";5
"1825";5
"1826";0
"1827";8
"1828";5
"1829";8
"1830";3
"1831";8
"1832";3
"1833";8
"1834";8
"1835";8
"1836";5
"1837";7
"1838";7
"1839";8
"1840";7
"1841";7
"1842";5
"1843";7
"1844";7
"1845";5
"1846";5
"1847";8
"1848";5
"1849";6
"1850";7
"1851";7
"1852";8
"1853";5
"1854";5
"1855";5
"1856";8
"1857";3
"1858";5
"1859";5
"1860";5
"1861";8
"1862";7
"1863";5
"1864";5
"1865";8
"1866";8
"1867";8
"1868";0
"1869";8
"1870";0
"1871";5
"1872";0
"1873";5
"1874";8
"1875";8
"1876";8
"1877";8
"1878";8
"1879";8
"1880";7
"1881";8
"1882";8
"1883";8
"1884";8
"1885";8
"1886";8
"1887";7
"1888";8
"1889";5
"1890";5
"1891";8
"1892";7
"1893";7
"1894";7
"1895";8
"1896";7
"1897";8
"1898";8
"1899";8
"1900";2
"1901";5
"1902";5
"1903";7
"1904";8
"1905";7
"1906";7
"1907";7
"1908";7
"1909";4
"1910";5
"1911";7
"1912";8
"1913";8
"1914";7
"1915";4
"1916";5
"1917";1
"1918";5
"1919";5
"1920";8
"1921";7
"1922";0
"1923";0
"1924";8
"1925";1
"1926";7
"1927";8
"1928";7
"1929";8
"1930";7
"1931";7
"1932";7
"1933";7
"1934";0
"1935";8
"1936";0
"1937";8
"1938";8
"1939";7
"1940";4
"1941";4
"1942";4
"1943";7
"1944";5
"1945";4
"1946";4
"1947";8
"1948";5
"1949";4
"1950";8
"1951";4
"1952";4
"1953";5
"1954";5
"1955";5
"1956";7
"1957";5
"1958";5
"1959";8
"1960";8
"1961";5
"1962";7
"1963";7
"1964";8
"1965";7
"1966";7
"1967";7
"1968";8
"1969";8
"1970";8
"1971";8
"1972";8
"1973";8
"1974";8
"1975";7
"1976";2
"1977";8
"1978";8
"1979";3
"1980";2
"1981";3
"1982";8
"1983";8
"1984";8
"1985";2
"1986";8
"1987";8
"1988";8
"1989";8
"1990";8
"1991";7
"1992";8
"1993";8
"1994";0
"1995";8
"1996";8
"1997";0
"1998";8
"1999";0
"2000";8
"2001";8
"2002";5
"2003";8
"2004";5
"2005";0
"2006";8
"2007";8
"2008";8
"2009";8
"2010";7
"2011";8
"2012";5
"2013";8
"2014";8
"2015";8
"2016";4
"2017";5
"2018";7
"2019";8
"2020";8
"2021";8
"2022";8
"2023";7
"2024";8
"2025";8
"2026";8
"2027";8
"2028";8
"2029";7
"2030";5
"2031";8
"2032";8
"2033";8
"2034";2
"2035";2
"2036";8
"2037";7
"2038";8
"2039";8
"2040";8
"2041";7
"2042";8
"2043";0
"2044";0
"2045";7
"2046";7
"2047";7
"2048";5
"2049";5
"2050";5
"2051";5
"2052";5
"2053";8
"2054";7
"2055";5
"2056";8
"2057";7
"2058";5
"2059";7
"2060";7
"2061";5
"2062";5
"2063";8
"2064";7
"2065";5
"2066";8
"2067";8
"2068";7
"2069";7
"2070";7
"2071";8
"2072";8
"2073";0
"2074";2
"2075";5
"2076";8
"2077";8
"2078";8
"2079";8
"2080";7
"2081";8
"2082";8
"2083";8
"2084";7
"2085";8
"2086";7
"2087";6
"2088";5
"2089";8
"2090";2
"2091";2
"2092";2
"2093";7
"2094";8
"2095";8
"2096";6
"2097";8
"2098";3
"2099";2
"2100";2
"2101";2
"2102";3
"2103";2
"2104";3
"2105";8
"2106";8
"2107";8
"2108";2
"2109";8
"2110";8
"2111";8
"2112";8
"2113";8
"2114";7
"2115";5
"2116";7
"2117";8
"2118";8
"2119";8
"2120";8
"2121";8
"2122";8
"2123";8
"2124";0
"2125";8
"2126";8
"2127";8
"2128";8
"2129";8
"2130";8
"2131";1
"2132";8
"2133";8
"2134";8
"2135";1
"2136";5
"2137";7
"2138";7
"2139";5
"2140";5
"2141";5
"2142";5
"2143";5
"2144";5
"2145";7
"2146";1
"2147";7
"2148";8
"2149";0
"2150";5
"2151";5
"2152";5
"2153";7
"2154";7
"2155";8
"2156";5
"2157";7
"2158";7
"2159";7
"2160";0
"2161";7
"2162";7
"2163";1
"2164";7
"2165";8
"2166";5
"2167";5
"2168";5
"2169";5
"2170";5
"2171";8
"2172";5
"2173";8
"2174";8
"2175";7
"2176";8
"2177";8
"2178";4
"2179";4
"2180";8
"2181";2
"2182";5
"2183";7
"2184";8
"2185";5
"2186";7
"2187";5
"2188";8
"2189";8
"2190";8
"2191";7
"2192";8
"2193";2
"2194";8
"2195";2
"2196";8
"2197";2
"2198";2
"2199";8
"2200";2
"2201";8
"2202";8
"2203";2
"2204";2
"2205";2
"2206";2
"2207";8
"2208";2
"2209";2
"2210";8
"2211";8
"2212";8
"2213";8
"2214";7
"2215";8
"2216";8
"2217";8
"2218";7
"2219";8
"2220";5
"2221";7
"2222";1
"2223";8
"2224";7
"2225";8
"2226";7
"2227";7
"2228";8
"2229";8
"2230";8
"2231";8
"2232";7
"2233";8
"2234";8
"2235";8
"2236";7
"2237";8
"2238";2
"2239";8
"2240";7
"2241";8
"2242";5
"2243";7
"2244";8
"2245";8
"2246";8
"2247";8
"2248";8
"2249";8
"2250";2
"2251";8
"2252";7
"2253";8
"2254";7
"2255";8
"2256";8
"2257";8
"2258";8
"2259";8
"2260";8
"2261";8
"2262";8
"2263";8
"2264";8
"2265";8
"2266";8
"2267";8
"2268";7
"2269";8
"2270";7
"2271";8
"2272";5
"2273";8
"2274";8
"2275";8
"2276";7
"2277";8
"2278";5
"2279";8
"2280";5
"2281";5
"2282";8
"2283";8
"2284";8
"2285";8
"2286";8
"2287";3
"2288";7
"2289";8
"2290";8
"2291";7
"2292";8
"2293";8
"2294";7
"2295";8
"2296";8
"2297";5
"2298";8
"2299";8
"2300";8
"2301";0
"2302";8
"2303";8
"2304";8
"2305";7
"2306";7
"2307";8
"2308";8
"2309";8
"2310";0
"2311";2
"2312";3
"2313";2
"2314";3
"2315";8
"2316";2
"2317";8
"2318";5
"2319";8
"2320";8
"2321";7
"2322";8
"2323";5
"2324";1
"2325";8
"2326";5
"2327";8
"2328";8
"2329";1
"2330";7
"2331";7
"2332";7
"2333";7
"2334";7
"2335";8
"2336";8
"2337";7
"2338";7
"2339";8
"2340";5
"2341";5
"2342";5
"2343";8
"2344";8
"2345";8
"2346";7
"2347";2
"2348";8
"2349";8
"2350";8
"2351";8
"2352";7
"2353";6
"2354";8
"2355";7
"2356";8
"2357";8
"2358";7
"2359";8
"2360";8
"2361";6
"2362";8
"2363";7
"2364";7
"2365";8
"2366";2
"2367";5
"2368";3
"2369";2
"2370";3
"2371";8
"2372";0
"2373";7
"2374";7
"2375";7
"2376";8
"2377";7
"2378";8
"2379";7
"2380";7
"2381";8
"2382";8
"2383";7
"2384";5
"2385";0
"2386";8
"2387";0
"2388";5
"2389";3
"2390";2
"2391";8
"2392";7
"2393";7
"2394";8
"2395";7
"2396";8
"2397";5
"2398";7
"2399";7
"2400";7
"2401";7
"2402";0
"2403";0
"2404";7
"2405";4
"2406";8
"2407";0
"2408";5
"2409";8
"2410";7
"2411";7
"2412";2
"2413";2
"2414";2
"2415";7
"2416";7
"2417";7
"2418";8
"2419";7
"2420";7
"2421";7
"2422";2
"2423";8
"2424";8
"2425";7
"2426";8
"2427";8
"2428";7
"2429";7
"2430";8
"2431";8
"2432";1
"2433";8
"2434";8
"2435";8
"2436";8
"2437";7
"2438";2
"2439";8
"2440";8
"2441";8
"2442";2
"2443";7
"2444";7
"2445";7
"2446";2
"2447";2
"2448";8
"2449";8
"2450";5
"2451";7
"2452";7
"2453";7
"2454";2
"2455";2
"2456";7
"2457";6
"2458";2
"2459";7
"2460";2
"2461";7
"2462";2
"2463";2
"2464";0
"2465";0
"2466";1
"2467";0
"2468";8
"2469";5
"2470";6
"2471";1
"2472";8
"2473";7
"2474";7
"2475";7
"2476";8
"2477";8
"2478";7
"2479";7
"2480";1
"2481";7
"2482";8
"2483";8
"2484";7
"2485";6
"2486";7
"2487";2
"2488";8
"2489";8
"2490";5
"2491";8
"2492";8
"2493";0
"2494";0
"2495";5
"2496";2
"2497";1
"2498";2
"2499";3
"2500";8
"2501";8
"2502";8
"2503";8
"2504";8
"2505";7
"2506";2
"2507";8
"2508";5
"2509";8
"2510";8
"2511";8
"2512";1
"2513";8
"2514";8
"2515";8
"2516";2
"2517";2
"2518";7
"2519";8
"2520";8
"2521";8
"2522";7
"2523";8
"2524";7
"2525";5
"2526";7
"2527";5
"2528";8
"2529";5
"2530";8
"2531";7
"2532";8
"2533";8
"2534";7
"2535";0
"2536";5
"2537";7
"2538";8
"2539";8
"2540";5
"2541";8
"2542";8
"2543";7
"2544";7
"2545";7
"2546";8
"2547";2
"2548";0
"2549";8
"2550";8
"2551";8
"2552";7
"2553";7
"2554";7
"2555";7
"2556";7
"2557";8
"2558";8
"2559";8
"2560";7
"2561";7
"2562";5
"2563";5
"2564";7
"2565";7
"2566";8
"2567";7
"2568";8
"2569";7
"2570";5
"2571";8
"2572";6
"2573";7
"2574";8
"2575";8
"2576";8
"2577";7
"2578";7
"2579";2
"2580";8
"2581";2
"2582";7
"2583";5
"2584";7
"2585";7
"2586";7
"2587";8
"2588";7
"2589";8
"2590";2
"2591";7
"2592";8
"2593";2
"2594";8
"2595";7
"2596";2
"2597";3
"2598";7
"2599";7
"2600";7
"2601";7
"2602";7
"2603";6
"2604";7
"2605";7
"2606";7
"2607";7
"2608";5
"2609";7
"2610";7
"2611";7
"2612";7
"2613";8
"2614";7
"2615";0
"2616";4
"2617";5
"2618";4
"2619";7
"2620";7
"2621";7
"2622";5
"2623";8
"2624";8
"2625";7
"2626";8
"2627";8
"2628";8
"2629";7
"2630";0
"2631";7
"2632";8
"2633";5
"2634";5
"2635";7
"2636";7
"2637";7
"2638";7
"2639";7
"2640";7
"2641";7
"2642";2
"2643";8
"2644";2
"2645";2
"2646";3
"2647";8
"2648";8
"2649";8
"2650";8
"2651";2
"2652";8
"2653";8
"2654";2
"2655";8
"2656";7
"2657";5
"2658";7
"2659";8
"2660";7
"2661";2
"2662";7
"2663";2
"2664";8
"2665";8
"2666";8
"2667";2
"2668";2
"2669";3
