"";"";"";"";"engaño";""
"1";"engaño";"26.4205527688664";"-2.61370154349435";"3";"2"
"2";"corazón";"-0.0396482976950403";"0.83790780920118";"1.79449657506199";"8"
"3";"alegría";"-0.0704289869042613";"0.254961297963447";"1.60583363391935";"10"
"4";"vuestra";"0.00367763903202235";"0.827753284603392";"1.44370660017181";"11"
"5";"pan";"-0.0347648524685541";"0.874351386597527";"1.42801583609088";"12"
"6";"tiemble";"-0.0396482976950403";"0.837907809201181";"1.39546890546613";"13"
"7";"nuevo";"-0.0696414553680637";"0.305047828619879";"1.34195814797196";"15"
"8";"comer";"-0.0497428731175068";"0.993656796675531";"1.29094878885619";"16"
"9";"costado";"-0.202294282774807";"-0.89405604249662";"1.28040841362029";"17"
"10";"tristeza";"-0.0157752124434467";"0.816464783930882";"1.24399725377649";"18"
"11";"carne";"-0.00533815155831672";"1.38193239133665";"1.2437442387681";"19"
"12";"mano";"-0.104231966601553";"-0.109418135732912";"1.23833125101284";"20"
"13";"señal";"-0.0961328970560652";"0.106875201485866";"1.16212006363711";"21"
"14";"luz";"0.0551345758074716";"1.00888487441118";"1.10289155030939";"22"
"15";"siempre";"0.00689828741561345";"1.25597305469332";"1.07463629092544";"23"
"16";"meter";"-0.199276991221303";"-0.826225943430077";"1.06979833728016";"25"
"17";"mando";"0.0357740910576603";"1.28444039971588";"1.06979833728016";"26"
"18";"plenitud";"-0.00781751735958213";"0.809317108840783";"1.06183986519806";"27"
"19";"mis";"0.0311557887526529";"0.900642524043782";"1.05869251183612";"28"
"20";"decir";"-0.151645493178895";"-0.852668424991618";"1.05861392384109";"29"
"21";"ama";"0.0550928424248915";"1.02398776654596";"1.02755824834155";"31"
"22";"oveja";"-0.0190850570596889";"0.409824527692589";"1.02174848705041";"32"
"23";"sangre";"-0.0278554792219001";"1.10426811325487";"1.01015771617362";"34"
"24";"guardar";"0.0375444513785609";"0.853204225295901";"0.993700239946051";"35"
"25";"vivir";"-0.00160014892814044";"1.06190182193196";"0.98430034902828";"36"
"26";"padre";"0.0454245949989592";"0.785769590007897";"0.967952129281608";"38"
"27";"obra";"0.0553571538478991";"0.92833611635904";"0.966550962833629";"39"
"28";"vuestro";"0.0257511875134128";"0.777166436088363";"0.957099318845959";"41"
"29";"convertir";"-0.0388082247940506";"0.348678039922675";"0.954143643520672";"42"
"30";"cielo";"-0.0142295597357421";"0.756673760047885";"0.950603350183575";"44"
"31";"os";"0.0456513622696094";"0.792479098017449";"0.948065532978206";"45"
"32";"voz";"0.0386724509648524";"0.828602504589653";"0.947571003643625";"46"
"33";"vivo";"0.00383917767213089";"1.28746288885415";"0.945945573892754";"47"
"34";"dios";"0.0499322733856847";"0.762257958042305";"0.939300096361777";"48"
"35";"bueno";"0.0551429224839877";"1.00586429598422";"0.938891822143692";"49"
"36";"bajo";"-0.0489852504845875";"0.982138262855347";"0.936971208216366";"50"
"37";"creed";"0.054967642277151";"1.06929644295028";"0.935443534264192";"51"
"38";"pastor";"0.054967642277151";"1.06929644295028";"0.935443534264192";"52"
"39";"guardará";"0.054967642277151";"1.06929644295028";"0.935443534264192";"53"
"40";"maná";"-0.0134957775409368";"1.46590528243221";"0.934303049946069";"54"
"41";"comida";"-0.0134957775409368";"1.46590528243221";"0.934303049946069";"55"
"42";"mandamiento";"0.0453708666674057";"1.17686842133308";"0.931335873938583";"56"
"43";"judío";"-0.198204949351423";"-1.21781358071407";"0.921715553278653";"57"
"44";"tiniebla";"0.0549676422771511";"1.06929644295028";"0.9126932680931";"58"
"45";"beber";"0.0142401507999716";"1.18039745270732";"0.912361665089679";"59"
"46";"vuestros";"-0.0186073029839833";"1.3364009102772";"0.904385941984286";"60"
"47";"resucitaré";"0.000372186629517351";"1.32315136756976";"0.904385941984286";"61"
"48";"último";"0.0123971051493919";"1.23788678391891";"0.898077817797828";"62"
"49";"venir";"0.0389393830397904";"0.64039410762335";"0.895842851890381";"63"
"50";"hijo";"0.0262203135221923";"0.565325350193119";"0.895488247522561";"64"
"51";"vida";"0.0377753377580288";"0.985945884467503";"0.895486330742195";"65"
"52";"dar";"0.0301534129647525";"0.712285792914734";"0.892444400300412";"66"
"53";"pedro";"-0.226432615202841";"-1.43669683502896";"0.890715464409745";"67"
"54";"realizar";"0.054967642277151";"1.06929644295028";"0.889983254309706";"68"
"55";"amará";"0.054967642277151";"1.06929644295028";"0.889983254309706";"69"
"56";"intentar";"0.0427562088202793";"1.00128525757382";"0.888277319783439";"70"
"57";"enviar";"0.0327376260779847";"0.62938962468117";"0.884025900930336";"71"
"58";"preguntar";"-0.21597792414676";"-1.35562896306048";"0.880347599406844";"72"
"59";"aquí";"-0.0443683256613368";"0.0981142350931248";"0.878106883158297";"73"
"60";"amar";"0.0063763260825127";"0.530384339691147";"0.878106883158297";"74"
"61";"vino";"-0.0314822214037413";"0.249427628982779";"0.873370518872445";"75"
"62";"resurrección";"0.00383917767213089";"1.28746288885415";"0.872484966343079";"76"
"63";"allí";"-0.21467108776475";"-1.34549547906442";"0.870067906300806";"77"
"64";"esclavo";"0.0242115606221664";"0.774218279299052";"0.869897312848179";"78"
"65";"condena";"0.00109828700474273";"1.01214147073646";"0.869897312848179";"79"
"66";"caminar";"-0.00131240921884728";"0.568097787354435";"0.868908254179017";"80"
"67";"echar";"-0.203850482521707";"-1.26159023157704";"0.863838370109378";"81"
"68";"cambio";"0.0552962926649697";"0.950361167388922";"0.863391760283962";"82"
"69";"templo";"-0.226432615202841";"-1.43669683502896";"0.863244168195735";"83"
"70";"pregunta";"-0.164171176033574";"-0.678495286952246";"0.863213499709869";"84"
"71";"nacer";"0.0466023665739216";"0.890177387559687";"0.86214968660641";"85"
"72";"ahora";"0.0530096685454354";"0.763986673882089";"0.861668574734395";"86"
"73";"palabra";"0.0152475393939668";"0.537614143689038";"0.861317803927309";"87"
"74";"bajar";"-0.00183785328525267";"0.746544670447953";"0.857388404175793";"88"
"75";"servir";"-0.0422151809028634";"0.74263094407753";"0.855701637453191";"89"
"76";"ir";"-0.00386886352850497";"0.329156076037208";"0.854670409615964";"90"
"77";"simón";"-0.20085077361375";"-1.20887926430357";"0.853763772502566";"91"
"78";"razón";"0.0321196812944583";"0.768697636504285";"0.851411882992756";"92"
"79";"hablar";"0.0236466941389086";"0.542775074694781";"0.849922544647914";"93"
"80";"maría";"-0.226432615202841";"-1.43669683502896";"0.849654195396591";"94"
"81";"morir";"-0.0254794071713146";"0.516729775134594";"0.849209502351541";"95"
"82";"crear|creer";"0.0242323757349142";"0.642163071390612";"0.848904734273253";"96"
"83";"conocer";"0.0542032905267352";"0.81591602807921";"0.848615300437897";"97"
"84";"perder";"0.0551867425356968";"0.990006259242709";"0.847568738357737";"98"
"85";"malo";"-0.0153824220928469";"0.442798123455473";"0.847568738357737";"99"
"86";"cumplir";"0.0551867425356968";"0.990006259242709";"0.847568738357737";"100"
"87";"permanecer";"0.015018005789776";"0.620680050430307";"0.844954249937705";"101"
"88";"desierto";"-0.000119550880991734";"0.81876028352998";"0.844843076676442";"102"
"89";"sepulcro";"-0.208790324045705";"-1.29989480108215";"0.842989550061947";"103"
"90";"testimonio";"0.0363464668264192";"0.612118316690069";"0.842930129870582";"104"
"91";"mundo";"0.0481396656661714";"0.857871935114338";"0.842314843372906";"105"
"92";"habitar";"0.00961749607648684";"1.2279820909948";"0.841893151692256";"106"
"93";"hermano";"-0.207614171301896";"-1.2907746654857";"0.839644768322242";"107"
"94";"galilea";"-0.207614171301896";"-1.2907746654857";"0.839644768322242";"108"
"95";"asegurar";"0.0487128344676853";"0.816623839387326";"0.838743881549944";"109"
"96";"saber";"-0.00277475000421851";"0.309818038214744";"0.836338322189869";"110"
"97";"todavía";"-0.226432615202841";"-1.43669683502896";"0.836160061615776";"111"
"98";"acercar";"-0.226432615202841";"-1.43669683502896";"0.836160061615776";"112"
"99";"llegar";"-0.147674275698971";"-0.781326505926236";"0.834935238961523";"113"
"100";"nadie";"0.0240498680685859";"0.603512579304068";"0.834919904718591";"114"
"101";"así";"0.0332268545888328";"0.589715534061282";"0.834028601848125";"115"
"102";"quitar";"-0.0699798077057038";"0.0478614961734025";"0.832941787380267";"116"
"103";"lázaro";"-0.226432615202841";"-1.43669683502896";"0.832801862413505";"117"
"104";"fariseos";"-0.226432615202841";"-1.43669683502896";"0.832801862413505";"118"
"105";"seguir";"-0.0916974657934215";"-0.293336699444156";"0.831324024750862";"119"
"106";"pie";"-0.188795727400951";"-1.14485249594243";"0.830748990640884";"120"
"107";"nombre";"0.0412470509425297";"0.695645747642788";"0.829865354891885";"121"
"108";"cómo";"0.0375415954757378";"0.719035995314573";"0.829652592271193";"122"
"109";"haz";"0.0209550326266529";"1.18831067898367";"0.829491582720399";"123"
"110";"sacerdote";"-0.226432615202841";"-1.43669683502896";"0.829449413552334";"124"
"111";"pez";"-0.226432615202841";"-1.43669683502896";"0.829449413552334";"125"
"112";"lago";"-0.226432615202841";"-1.43669683502896";"0.829449413552334";"126"
"113";"gente";"-0.176619087229751";"-1.05043226859091";"0.829112060207814";"127"
"114";"escuchar";"0.0505781985953923";"0.916390940153109";"0.828751705498894";"128"
"115";"crear";"0.0422872650159765";"0.761599667196728";"0.827670641372136";"129"
"116";"jerusalén";"-0.186107378272244";"-1.12400647172197";"0.827542217087574";"130"
"117";"acerca";"0.0272658170462434";"0.660116747737211";"0.827216364425253";"131"
"118";"moisés";"0.0558440433113341";"0.752135708119986";"0.826639413534909";"132"
"119";"levantar";"-0.200771100792461";"-1.23771205837906";"0.826388315306885";"133"
"120";"tomás";"-0.226432615202841";"-1.43669683502896";"0.826102715032263";"134"
"121";"red";"-0.226432615202841";"-1.43669683502896";"0.826102715032263";"135"
"122";"nicodemo";"-0.226432615202841";"-1.43669683502896";"0.826102715032263";"136"
"123";"enfermo";"-0.226432615202841";"-1.43669683502896";"0.826102715032263";"137"
"124";"barca";"-0.226432615202841";"-1.43669683502896";"0.826102715032263";"138"
"125";"muerto";"-0.1778394805347";"-0.981680134794019";"0.826018376696133";"139"
"126";"quedar";"-0.139402295593271";"-0.690432055390249";"0.825759611346643";"140"
"127";"llevar";"-0.163704468866357";"-0.950289603218083";"0.824904727303142";"141"
"128";"encontrar";"-0.163704468866357";"-0.950289603218083";"0.824904727303142";"142"
"129";"llenar";"-0.199749141273155";"-1.11175331442465";"0.824803137943713";"143"
"130";"adonde";"0.0018770433798271";"0.451698502110307";"0.824803137943713";"144"
"131";"primero";"-0.183072852434059";"-1.07555638724987";"0.82436611202013";"145"
"132";"fruto";"0.0558440433113341";"0.752135708119986";"0.82436036167903";"146"
"133";"glorificado";"0.0558440433113341";"0.752135708119986";"0.82436036167903";"147"
"134";"único";"0.0558440433113341";"0.752135708119986";"0.82436036167903";"148"
"135";"maestro";"0.0558440433113341";"0.752135708119986";"0.82436036167903";"149"
"136";"hacer";"0.00611278151276021";"0.419042542674409";"0.824057510381108";"150"
"137";"fiesta";"-0.198204949351423";"-1.21781358071407";"0.823112537660378";"151"
"138";"dos";"-0.198204949351423";"-1.21781358071407";"0.823112537660378";"152"
"139";"andar";"-0.198204949351423";"-1.21781358071407";"0.823112537660378";"153"
"140";"natanael";"-0.226432615202841";"-1.43669683502896";"0.822761766853291";"154"
"141";"marta";"-0.226432615202841";"-1.43669683502896";"0.822761766853291";"155"
"142";"judas";"-0.226432615202841";"-1.43669683502896";"0.822761766853291";"156"
"143";"aparecer";"-0.226432615202841";"-1.43669683502896";"0.822761766853291";"157"
"144";"cuenta";"0.0558440433113341";"0.752135708119986";"0.822083226603518";"158"
"145";"vez";"-0.160014577905388";"-0.921677413111561";"0.821972053342255";"159"
"146";"espíritu";"0.0471765657048002";"0.841356904909014";"0.820915907360262";"160"
"147";"junto";"-0.165944759806946";"-0.967661290068472";"0.819965184298432";"161"
"148";"felipe";"-0.165944759806946";"-0.967661290068472";"0.819965184298432";"162"
"149";"orilla";"-0.195068542034599";"-1.19349321912352";"0.819861678158636";"163"
"150";"suelo";"-0.226432615202841";"-1.43669683502896";"0.81942656901542";"164"
"151";"pascua";"-0.226432615202841";"-1.43669683502896";"0.81942656901542";"165"
"152";"vi";"-0.226432615202841";"-1.43669683502896";"0.81942656901542";"166"
"153";"sentar";"-0.226432615202841";"-1.43669683502896";"0.81942656901542";"167"
"154";"higuera";"-0.226432615202841";"-1.43669683502896";"0.81942656901542";"168"
"155";"debajo";"-0.226432615202841";"-1.43669683502896";"0.81942656901542";"169"
"156";"año";"-0.226432615202841";"-1.43669683502896";"0.81942656901542";"170"
"157";"gloria";"0.0323209884351529";"0.569732996190907";"0.81889753763424";"171"
"158";"acusar";"-0.0151633218343011";"0.363507939747899";"0.81846434527139";"172"
"159";"nazaret";"0.0554058427942426";"0.910716075535135";"0.81846434527139";"173"
"160";"ladrón";"-0.0151633218343011";"0.363507939747899";"0.81846434527139";"174"
"161";"erar|ser";"-0.0856229363335719";"-0.223345287893125";"0.818337837767195";"175"
"162";"podar|poder";"0.0558440433113341";"0.752135708119986";"0.817542373915059";"176"
"163";"oído";"0.0558440433113341";"0.752135708119986";"0.817542373915059";"177"
"164";"ley";"0.0558440433113341";"0.752135708119986";"0.817542373915059";"178"
"165";"conmigo";"0.0558440433113341";"0.752135708119986";"0.817542373915059";"179"
"166";"modo";"0.0327307696939105";"0.990058899557393";"0.817191603107972";"180"
"167";"ya";"-0.0248272972411488";"0.134306427573389";"0.817137933257708";"181"
"168";"eterno";"0.0501566334776832";"0.859982991637811";"0.817078513066343";"182"
"169";"tomar";"-0.161291847853416";"-0.931581632763819";"0.817024843216079";"183"
"170";"mismo";"0.0366719415283024";"0.732405956934544";"0.816666405287526";"184"
"171";"tres";"-0.191148032888569";"-1.16309276713534";"0.816637653582027";"185"
"172";"resucitar";"-0.199815510495103";"-1.07387157034631";"0.816637653582027";"186"
"173";"vengar|venir";"-0.0297675406532139";"0.161203897582746";"0.816192960536977";"187"
"174";"vendar|vender";"-0.226432615202841";"-1.43669683502896";"0.816097121518648";"188"
"175";"correr";"-0.226432615202841";"-1.43669683502896";"0.816097121518648";"189"
"176";"sumos";"-0.226432615202841";"-1.43669683502896";"0.816097121518648";"190"
"177";"seis";"-0.226432615202841";"-1.43669683502896";"0.816097121518648";"191"
"178";"mellizo";"-0.226432615202841";"-1.43669683502896";"0.816097121518648";"192"
"179";"marchar";"-0.226432615202841";"-1.43669683502896";"0.816097121518648";"193"
"180";"judea";"-0.226432615202841";"-1.43669683502896";"0.816097121518648";"194"
"181";"empezar";"-0.226432615202841";"-1.43669683502896";"0.816097121518648";"195"
"182";"después";"-0.226432615202841";"-1.43669683502896";"0.816097121518648";"196"
"183";"coger";"-0.226432615202841";"-1.43669683502896";"0.816097121518648";"197"
"184";"cerrado";"-0.226432615202841";"-1.43669683502896";"0.816097121518648";"198"
"185";"caná";"-0.226432615202841";"-1.43669683502896";"0.816097121518648";"199"
"186";"cama";"-0.226432615202841";"-1.43669683502896";"0.816097121518648";"200"
"187";"betania";"-0.226432615202841";"-1.43669683502896";"0.816097121518648";"201"
"188";"andrés";"-0.226432615202841";"-1.43669683502896";"0.816097121518648";"202"
"189";"ojo";"-0.143410068581025";"-0.792922557632211";"0.815817271585125";"203"
"190";"amor";"0.0555519096332731";"0.857855953063419";"0.815177066942683";"204"
"191";"puerta";"-0.132632529376177";"-0.601365742369212";"0.815177066942683";"205"
"192";"amigo";"-0.00717623670321019";"0.371448721252542";"0.815177066942683";"206"
"193";"saber|ser";"0.0398425461915793";"0.916851763730499";"0.814948970079059";"207"
"194";"condenar";"0.0276163774599166";"0.533252453805091";"0.814485109230343";"208"
"195";"pedir";"-0.0298216218294749";"0.162978841904927";"0.814373935969081";"209"
"196";"hombre";"0.00780834335007407";"0.52062622236164";"0.814339433922482";"210"
"197";"creer";"-0.0248064305498587";"0.126754981506001";"0.813660893672708";"211"
"198";"dónde";"-0.00688410302514917";"0.265728476309109";"0.813628308406476";"212"
"199";"sábado";"-0.186107378272244";"-1.12400647172197";"0.813453881393116";"213"
"200";"dejar";"0.00504964591671598";"0.444885197509955";"0.813116528048596";"214"
"201";"voluntad";"0.0558440433113341";"0.752135708119986";"0.813016855469533";"215"
"202";"culto";"0.0558440433113341";"0.752135708119986";"0.813016855469533";"216"
"203";"sed";"0.0558440433113341";"0.752135708119986";"0.813016855469533";"217"
"204";"santo";"0.0558440433113341";"0.752135708119986";"0.813016855469533";"218"
"205";"rabí";"0.0558440433113341";"0.752135708119986";"0.813016855469533";"219"
"206";"nunca";"0.0558440433113341";"0.752135708119986";"0.813016855469533";"220"
"207";"muéstranos";"0.0558440433113341";"0.752135708119986";"0.813016855469533";"221"
"208";"llamar";"-0.120615384969783";"-0.602669600730176";"0.812926766792303";"222"
"209";"juan";"-0.120724935099056";"-0.563024508876389";"0.812926766792303";"223"
"210";"llorar";"-0.226432615202841";"-1.43669683502896";"0.812773424362976";"224"
"211";"vista";"-0.226432615202841";"-1.43669683502896";"0.812773424362976";"225"
"212";"poco";"0.0244799701430925";"0.508932092214547";"0.812305729953527";"226"
"213";"abierto";"0.0244799701430925";"0.508932092214547";"0.812305729953527";"227"
"214";"camino";"-0.00464381208456049";"0.283100163159498";"0.811013819986443";"228"
"215";"día";"-0.112173157251408";"-0.338084534344072";"0.810917980968114";"229"
"216";"ciego";"-0.119848448335004";"-0.556747303533569";"0.810868144678582";"230"
"217";"reino";"0.0558440433113341";"0.752135708119986";"0.810760804978053";"231"
"218";"perezca";"0.0558440433113341";"0.752135708119986";"0.810760804978053";"232"
"219";"israel";"0.0558440433113341";"0.752135708119986";"0.810760804978053";"233"
"220";"existir";"0.0558440433113341";"0.752135708119986";"0.810760804978053";"234"
"221";"abrahán";"0.0205594609970623";"0.478531640226367";"0.810151268821476";"235"
"222";"entender";"0.0205594609970623";"0.478531640226367";"0.810151268821476";"236"
"223";"hora";"-0.0114064182889067";"0.246087994743108";"0.810063096924613";"237"
"224";"testigo";"0.0555519096332731";"0.857855953063419";"0.809936589420418";"238"
"225";"aceptar";"0.0555519096332731";"0.857855953063419";"0.809936589420418";"239"
"226";"volver";"-0.0634327761614275";"-0.117679169067513";"0.809539815884533";"240"
"227";"vender";"-0.226432615202841";"-1.43669683502896";"0.809455477548403";"241"
"228";"tercero";"-0.226432615202841";"-1.43669683502896";"0.809455477548403";"242"
"229";"sudario";"-0.226432615202841";"-1.43669683502896";"0.809455477548403";"243"
"230";"samaría";"-0.226432615202841";"-1.43669683502896";"0.809455477548403";"244"
"231";"retirar";"-0.226432615202841";"-1.43669683502896";"0.809455477548403";"245"
"232";"recoger";"-0.226432615202841";"-1.43669683502896";"0.809455477548403";"246"
"233";"presentar";"-0.226432615202841";"-1.43669683502896";"0.809455477548403";"247"
"234";"pierna";"-0.226432615202841";"-1.43669683502896";"0.809455477548403";"248"
"235";"ocho";"-0.226432615202841";"-1.43669683502896";"0.809455477548403";"249"
"236";"enterar";"-0.226432615202841";"-1.43669683502896";"0.809455477548403";"250"
"237";"derecha";"-0.226432615202841";"-1.43669683502896";"0.809455477548403";"251"
"238";"cien";"-0.226432615202841";"-1.43669683502896";"0.809455477548403";"252"
"239";"celebrar";"-0.226432615202841";"-1.43669683502896";"0.809455477548403";"253"
"240";"asomar";"-0.226432615202841";"-1.43669683502896";"0.809455477548403";"254"
"241";"apodar";"-0.226432615202841";"-1.43669683502896";"0.809455477548403";"255"
"242";"adelantar";"-0.226432615202841";"-1.43669683502896";"0.809455477548403";"256"
"243";"suceder";"0.0558440433113341";"0.752135708119986";"0.80850667126694";"257"
"244";"elevar";"0.0558440433113341";"0.752135708119986";"0.80850667126694";"258"
"245";"válido";"0.0558440433113341";"0.752135708119986";"0.80850667126694";"259"
"246";"trabajo";"0.0558440433113341";"0.752135708119986";"0.80850667126694";"260"
"247";"tampoco";"0.0558440433113341";"0.752135708119986";"0.80850667126694";"261"
"248";"significar";"0.0558440433113341";"0.752135708119986";"0.80850667126694";"262"
"249";"principio";"0.0558440433113341";"0.752135708119986";"0.80850667126694";"263"
"250";"pidáis";"0.0558440433113341";"0.752135708119986";"0.80850667126694";"264"
"251";"pecador";"0.0558440433113341";"0.752135708119986";"0.80850667126694";"265"
"252";"dichosos";"0.0558440433113341";"0.752135708119986";"0.80850667126694";"266"
"253";"comunicar";"0.0558440433113341";"0.752135708119986";"0.80850667126694";"267"
"254";"comparación";"0.0558440433113341";"0.752135708119986";"0.80850667126694";"268"
"255";"amo";"0.0558440433113341";"0.752135708119986";"0.80850667126694";"269"
"256";"elegir";"0.0327307696939105";"0.990058899557393";"0.808341828155413";"270"
"257";"pobre";"-0.155453669315539";"-0.469162795875237";"0.808341828155413";"271"
"258";"mal";"-0.0616535834888755";"0.366168296784511";"0.808341828155413";"272"
"259";"propio";"0.0155188063807377";"0.439445344812994";"0.808031309736025";"273"
"260";"muerte";"0.0155188063807377";"0.439445344812994";"0.808031309736025";"274"
"261";"matar";"-0.0653820677759359";"-0.0953180289923342";"0.807567448887309";"275"
"262";"paloma";"-0.18384524767046";"-0.856176411536726";"0.807278015051954";"276"
"263";"doce";"-0.170152563706842";"-0.935498179433111";"0.807278015051954";"277"
"264";"salir";"-0.103779842025737";"-0.457451317587653";"0.807094004136761";"278"
"265";"oír";"-0.103779842025737";"-0.457451317587653";"0.807094004136761";"279"
"266";"juzgar";"0.0556492875259601";"0.822615871415607";"0.806526637148249";"280"
"267";"ése";"0.0354936246244252";"0.663753541072982";"0.806511302905316";"281"
"268";"entrar";"-0.110597548979253";"-0.379679189479189";"0.806478717639084";"282"
"269";"paz";"0.0558440433113341";"0.752135708119986";"0.806258287896926";"283"
"270";"glorificará";"0.0558440433113341";"0.752135708119986";"0.806258287896926";"284"
"271";"vid";"0.0558440433113341";"0.752135708119986";"0.806258287896926";"285"
"272";"surgir";"0.0558440433113341";"0.752135708119986";"0.806258287896926";"286"
"273";"siervo";"0.0558440433113341";"0.752135708119986";"0.806258287896926";"287"
"274";"serpiente";"0.0558440433113341";"0.752135708119986";"0.806258287896926";"288"
"275";"recordar";"0.0558440433113341";"0.752135708119986";"0.806258287896926";"289"
"276";"príncipe";"0.0558440433113341";"0.752135708119986";"0.806258287896926";"290"
"277";"proceder";"0.0558440433113341";"0.752135708119986";"0.806258287896926";"291"
"278";"paráclito";"0.0558440433113341";"0.752135708119986";"0.806258287896926";"292"
"279";"linaje";"0.0558440433113341";"0.752135708119986";"0.806258287896926";"293"
"280";"hambre";"0.0558440433113341";"0.752135708119986";"0.806258287896926";"294"
"281";"envío";"0.0558440433113341";"0.752135708119986";"0.806258287896926";"295"
"282";"cuándo";"0.0558440433113341";"0.752135708119986";"0.806258287896926";"296"
"283";"conocierais";"0.0558440433113341";"0.752135708119986";"0.806258287896926";"297"
"284";"conoceríais";"0.0558440433113341";"0.752135708119986";"0.806258287896926";"298"
"285";"buscáis";"0.0558440433113341";"0.752135708119986";"0.806258287896926";"299"
"286";"aprender";"0.0558440433113341";"0.752135708119986";"0.806258287896926";"300"
"287";"sacar";"-0.0502288038900272";"0.0106136881467057";"0.805828929094809";"301"
"288";"dar|distar";"0.0556249430527883";"0.83142589182756";"0.805828929094809";"302"
"289";"alimento";"0.0385090880982664";"0.930578101698041";"0.805320982297662";"303"
"290";"bastar";"0.0385090880982664";"0.930578101698041";"0.805320982297662";"304"
"291";"rogar";"0.0555519096332731";"0.857855953063419";"0.804722946823285";"305"
"292";"parte";"-0.0385403098714518";"0.128245105347103";"0.804722946823285";"306"
"293";"juzgo";"0.0555519096332731";"0.857855953063419";"0.804722946823285";"307"
"294";"igual";"-0.0385403098714518";"0.128245105347103";"0.804722946823285";"308"
"295";"conceder";"0.0555519096332731";"0.857855953063419";"0.804722946823285";"309"
"296";"además";"0.0555519096332731";"0.857855953063419";"0.804722946823285";"310"
"297";"noche";"-0.132486462537146";"-0.654225864840928";"0.803984986382147";"311"
"298";"saltar";"0.0556687631044975";"0.815567855086045";"0.803969652139214";"312"
"299";"juicio";"0.0556687631044975";"0.815567855086045";"0.803969652139214";"313"
"300";"embargo";"0.0556687631044975";"0.815567855086045";"0.803969652139214";"314"
"301";"escritura";"-0.0641758823863995";"0.0114117952576895";"0.803494290608299";"315"
"302";"señor";"-0.0555814761751886";"-0.0367944838178803";"0.803434870416935";"316"
"303";"ver";"-0.0712869316731173";"-0.172563198242072";"0.80338120056667";"317"
"304";"recibir";"-0.00476901223230093";"0.328408839563826";"0.803124351997547";"318"
"305";"hecho";"-0.0367011512776125";"0.112736136780454";"0.802875170549889";"319"
"306";"escribir";"-0.0302705641484112";"0.223434398835526";"0.802685409293597";"320"
"307";"causa";"-0.0149442215757554";"0.284217756040324";"0.802671991831031";"321"
"308";"abrir";"-0.0855133862042991";"-0.262990379746913";"0.802671991831031";"322"
"309";"signo";"-0.0586771812380153";"0.0205447012281589";"0.8026049045182";"323"
"310";"detrás";"-0.0498048130021027";"0.141486456122374";"0.802407476140441";"324"
"311";"viejo";"-0.132340395698116";"-0.707085987312645";"0.801753854035433";"325"
"312";"tarde";"-0.132340395698116";"-0.707085987312645";"0.801753854035433";"326"
"313";"segundo";"-0.132340395698116";"-0.707085987312645";"0.801753854035433";"327"
"314";"samaritanos";"-0.132340395698116";"-0.707085987312645";"0.801753854035433";"328"
"315";"miedo";"-0.132340395698116";"-0.707085987312645";"0.801753854035433";"329"
"316";"lugar";"-0.132340395698116";"-0.707085987312645";"0.801753854035433";"330"
"317";"jacob";"-0.132340395698116";"-0.707085987312645";"0.801753854035433";"331"
"318";"fariseo";"-0.132340395698116";"-0.707085987312645";"0.801753854035433";"332"
"319";"anunciar";"-0.132340395698116";"-0.707085987312645";"0.801753854035433";"333"
"320";"gritar";"-0.000786568598337453";"0.377801346456256";"0.801506589368142";"334"
"321";"delante";"-0.000786568598337453";"0.377801346456256";"0.801506589368142";"335"
"322";"salvar";"0.00865186671994114";"0.440190406733545";"0.801491255125209";"336"
"323";"pueblo";"-0.0586771812380153";"0.0205447012281589";"0.801059979542726";"337"
"324";"viento";"-0.0382481761933908";"0.0225248604036705";"0.80051178035788";"338"
"325";"sorprender";"-0.0382481761933908";"0.0225248604036705";"0.80051178035788";"339"
"326";"soplar";"-0.0382481761933908";"0.0225248604036705";"0.80051178035788";"340"
"327";"sarmiento";"-0.0382481761933908";"0.0225248604036705";"0.80051178035788";"341"
"328";"piscina";"-0.0382481761933908";"0.0225248604036705";"0.80051178035788";"342"
"329";"necesitar";"-0.0382481761933908";"0.0225248604036705";"0.80051178035788";"343"
"330";"monte";"-0.0382481761933908";"0.0225248604036705";"0.80051178035788";"344"
"331";"lavar";"-0.0382481761933908";"0.0225248604036705";"0.80051178035788";"345"
"332";"comprender";"-0.0382481761933908";"0.0225248604036705";"0.80051178035788";"346"
"333";"acaso";"-0.0382481761933908";"0.0225248604036705";"0.80051178035788";"347"
"334";"solo";"-0.0501192537607543";"-0.0290314037070816";"0.8";"348"
