"V1";"V2";"V3";"V4";"V5";"V6"
"***";"nb classes";"10";"***";"";""
"**";"classe";"1";"**";"";""
"****";"3";"1148";"0.26";"****";""
"3";" 3";"100";"1148.000";"israelita";"1.220560e-251"
"3";" 3";"100";"1148.000";"engaño";"1.220560e-251"
"3";" 6";" 50";" 572.496";"ahí";"1.608261e-126"
"3";"30";" 10";" 112.093";"verdad";" 3.409493e-26"
"*****";"*";"*";"*";"*";"*"
"3";" 46";"6.52";"72.058";"quien";"2.089781e-17"
"3";" 73";"4.11";"44.294";"tener";"2.826052e-11"
"3";"102";"2.94";"30.845";"un";"2.794363e-08"
"3";"302";"0.99";" 8.426";"haber";"3.698947e-03"
"3";"308";"0.97";" 8.203";"no";"4.181530e-03"
"3";"334";"0.90";" 7.331";"en";"6.779292e-03"
"3";"402";"0.75";" 5.582";"a";"1.814857e-02"
"3";"409";"0.73";" 5.435";"de";"1.974003e-02"
"*";"*";"*";"*";"*";"*"
"1";"  6";"16.67";"62.281";"*zein_Juan1-47-51";"2.978038e-15"
"1";"  9";"11.11";"40.969";"*zein_Juan1-45-51";"1.546274e-10"
"1";" 12";" 8.33";"30.316";"*zein_Juan1-43-51";"3.671746e-08"
"2";"130";" 1.54";" 9.174";"*egutegia_SemanaDelTi";"2.454461e-03"
"1";" 41";" 2.44";" 7.736";"*egutegia_TiempoDeNav";"5.412260e-03"
"**";"classe";"2";"**";"";""
"****";"4";"1148";"0.35";"****";""
"4";" 4";"100.00";"1148.000";"elías";"1.220560e-251"
"2";"13";" 15.38";"  85.617";"mesías";" 2.183385e-20"
"2";"14";" 14.29";"  79.289";"profeta";" 5.366815e-19"
"*****";"*";"*";"*";"*";"*"
"4";" 29";"13.79";"154.884";"entonces";"1.484005e-35"
"4";" 32";"12.50";"139.988";"qué";"2.678489e-32"
"2";" 23";" 8.70";" 47.098";"ni";"6.753865e-12"
"4";"115";" 3.48";" 36.056";"tú";"1.917211e-09"
"4";"295";" 1.36";" 11.607";"ser";"6.572021e-04"
"2";" 86";" 2.33";" 10.466";"si";"1.215730e-03"
"2";"114";" 1.75";"  7.206";"por";"7.267915e-03"
"*";"*";"*";"*";"*";"*"
"2";" 9";"22.22";"124.999";"*zein_Juan1-19-28";"5.092050e-29"
"2";"11";"18.18";"101.728";"*zein_Juan1-6-819-28";"6.370129e-24"
"2";"11";"18.18";"101.728";"*egutegia_SemanaDeAdv";"6.370129e-24"
"2";"41";" 4.88";" 25.125";"*egutegia_TiempoDeNav";"5.374346e-07"
"**";"classe";"3";"**";"";""
"****";"422";"1148";"36.76";"****";""
"168";"182";" 92.31";"287.084";"jesús";"2.147203e-64"
" 88";" 94";" 93.62";"142.377";"discípulo";"8.045441e-33"
"143";"195";" 73.33";"135.163";"decir";"3.041704e-31"
" 74";" 75";" 98.67";"132.288";"tiempo";"1.294463e-30"
" 45";" 50";" 90.00";" 63.742";"judío";"1.418126e-15"
" 27";" 27";"100.00";" 47.569";"pedro";"5.310103e-12"
" 26";" 27";" 96.30";" 42.160";"preguntar";"8.408662e-11"
" 23";" 24";" 95.83";" 36.797";"allí";"1.311020e-09"
" 23";" 25";" 92.00";" 33.547";"echar";"6.957068e-09"
" 19";" 19";"100.00";" 33.237";"templo";"8.157082e-09"
" 20";" 22";" 90.91";" 28.291";"simón";"1.043744e-07"
" 15";" 15";"100.00";" 26.147";"maría";"3.163336e-07"
" 15";" 16";" 93.75";" 22.670";"sepulcro";"1.923355e-06"
" 14";" 15";" 93.33";" 20.925";"hermano";"4.775912e-06"
" 14";" 15";" 93.33";" 20.925";"galilea";"4.775912e-06"
" 11";" 11";"100.00";" 19.107";"todavía";"1.235743e-05"
" 11";" 11";"100.00";" 19.107";"acercar";"1.235743e-05"
" 26";" 37";" 70.27";" 18.468";"llegar";"1.727384e-05"
" 10";" 10";"100.00";" 17.355";"lázaro";"3.100868e-05"
" 10";" 10";"100.00";" 17.355";"fariseos";"3.100868e-05"
" 13";" 15";" 86.67";" 16.284";"pie";"5.452104e-05"
"  9";"  9";"100.00";" 15.606";"sacerdote";"7.801669e-05"
"  9";"  9";"100.00";" 15.606";"pez";"7.801669e-05"
"  9";"  9";"100.00";" 15.606";"lago";"7.801669e-05"
" 14";" 17";" 82.35";" 15.430";"gente";"8.561797e-05"
" 12";" 14";" 85.71";" 14.611";"jerusalén";"1.321398e-04"
" 10";" 11";" 90.91";" 14.009";"levantar";"1.819667e-04"
"  8";"  8";"100.00";" 13.860";"tomás";"1.969862e-04"
"  8";"  8";"100.00";" 13.860";"red";"1.969862e-04"
"  8";"  8";"100.00";" 13.860";"nicodemo";"1.969862e-04"
"  8";"  8";"100.00";" 13.860";"enfermo";"1.969862e-04"
"  8";"  8";"100.00";" 13.860";"barca";"1.969862e-04"
" 13";" 16";" 81.25";" 13.816";"muerto";"2.016093e-04"
" 14";" 18";" 77.78";" 13.235";"llevar";"2.747707e-04"
" 14";" 18";" 77.78";" 13.235";"encontrar";"2.747707e-04"
" 11";" 13";" 84.62";" 12.954";"primero";"3.192926e-04"
"  9";" 10";" 90.00";" 12.300";"fiesta";"4.528749e-04"
"  9";" 10";" 90.00";" 12.300";"dos";"4.528749e-04"
"  9";" 10";" 90.00";" 12.300";"andar";"4.528749e-04"
"  7";"  7";"100.00";" 12.117";"natanael";"4.997667e-04"
"  7";"  7";"100.00";" 12.117";"marta";"4.997667e-04"
"  7";"  7";"100.00";" 12.117";"judas";"4.997667e-04"
"  7";"  7";"100.00";" 12.117";"aparecer";"4.997667e-04"
" 13";" 17";" 76.47";" 11.705";"vez";"6.232040e-04"
" 11";" 14";" 78.57";" 10.658";"junto";"1.095747e-03"
" 11";" 14";" 78.57";" 10.658";"felipe";"1.095747e-03"
" 18";" 27";" 66.67";" 10.639";"quedar";"1.107538e-03"
"  8";"  9";" 88.89";" 10.604";"orilla";"1.128588e-03"
"  6";"  6";"100.00";" 10.377";"suelo";"1.276289e-03"
"  6";"  6";"100.00";" 10.377";"pascua";"1.276289e-03"
"  6";"  6";"100.00";" 10.377";"vi";"1.276289e-03"
"  6";"  6";"100.00";" 10.377";"sentar";"1.276289e-03"
"  6";"  6";"100.00";" 10.377";"higuera";"1.276289e-03"
"  6";"  6";"100.00";" 10.377";"debajo";"1.276289e-03"
"  6";"  6";"100.00";" 10.377";"año";"1.276289e-03"
" 10";" 13";" 76.92";"  9.124";"tomar";"2.522725e-03"
"  7";"  8";" 87.50";"  8.922";"tres";"2.817317e-03"
"  7";"  8";" 87.50";"  8.922";"resucitar";"2.817317e-03"
"  5";"  5";"100.00";"  8.640";"vendar|vender";"3.289473e-03"
"  5";"  5";"100.00";"  8.640";"correr";"3.289473e-03"
"  5";"  5";"100.00";"  8.640";"sumos";"3.289473e-03"
"  5";"  5";"100.00";"  8.640";"seis";"3.289473e-03"
"  5";"  5";"100.00";"  8.640";"mellizo";"3.289473e-03"
"  5";"  5";"100.00";"  8.640";"marchar";"3.289473e-03"
"  5";"  5";"100.00";"  8.640";"judea";"3.289473e-03"
"  5";"  5";"100.00";"  8.640";"empezar";"3.289473e-03"
"  5";"  5";"100.00";"  8.640";"después";"3.289473e-03"
"  5";"  5";"100.00";"  8.640";"coger";"3.289473e-03"
"  5";"  5";"100.00";"  8.640";"cerrado";"3.289473e-03"
"  5";"  5";"100.00";"  8.640";"caná";"3.289473e-03"
"  5";"  5";"100.00";"  8.640";"cama";"3.289473e-03"
"  5";"  5";"100.00";"  8.640";"betania";"3.289473e-03"
"  5";"  5";"100.00";"  8.640";"andrés";"3.289473e-03"
" 12";" 17";" 70.59";"  8.494";"ojo";"3.562427e-03"
"  6";"  7";" 85.71";"  7.261";"sábado";"7.048024e-03"
"  6";"  7";" 85.71";"  7.261";"llenar";"7.048024e-03"
" 15";" 24";" 62.50";"  6.986";"llamar";"8.213192e-03"
" 15";" 24";" 62.50";"  6.986";"juan";"8.213192e-03"
"  4";"  4";"100.00";"  6.906";"llorar";"8.592725e-03"
"  4";"  4";"100.00";"  6.906";"vista";"8.592725e-03"
"  4";"  4";"100.00";"  6.906";"tiberíades";"8.592725e-03"
"  4";"  4";"100.00";"  6.906";"semana";"8.592725e-03"
"  4";"  4";"100.00";"  6.906";"sano";"8.592725e-03"
"  4";"  4";"100.00";"  6.906";"piedra";"8.592725e-03"
"  4";"  4";"100.00";"  6.906";"perfume";"8.592725e-03"
"  4";"  4";"100.00";"  6.906";"magdalena";"8.592725e-03"
"  4";"  4";"100.00";"  6.906";"iscariote";"8.592725e-03"
"  4";"  4";"100.00";"  6.906";"estado";"8.592725e-03"
"  4";"  4";"100.00";"  6.906";"embarcar";"8.592725e-03"
"  4";"  4";"100.00";"  6.906";"cuerpo";"8.592725e-03"
"  4";"  4";"100.00";"  6.906";"cuatro";"8.592725e-03"
"  4";"  4";"100.00";"  6.906";"cambista";"8.592725e-03"
"  4";"  4";"100.00";"  6.906";"cafarnaún";"8.592725e-03"
"  4";"  4";"100.00";"  6.906";"buey";"8.592725e-03"
"  4";"  4";"100.00";"  6.906";"barro";"8.592725e-03"
"  4";"  4";"100.00";"  6.906";"amanecer";"8.592725e-03"
"  5";"  6";" 83.33";"  5.628";"cerca";"1.767708e-02"
"  5";"  6";" 83.33";"  5.628";"cinco";"1.767708e-02"
" 19";" 34";" 55.88";"  5.512";"día";"1.889154e-02"
"  3";"  3";"100.00";"  5.175";"vender";"2.291866e-02"
"  3";"  3";"100.00";"  5.175";"tercero";"2.291866e-02"
"  3";"  3";"100.00";"  5.175";"sudario";"2.291866e-02"
"  3";"  3";"100.00";"  5.175";"samaría";"2.291866e-02"
"  3";"  3";"100.00";"  5.175";"retirar";"2.291866e-02"
"  3";"  3";"100.00";"  5.175";"recoger";"2.291866e-02"
"  3";"  3";"100.00";"  5.175";"presentar";"2.291866e-02"
"  3";"  3";"100.00";"  5.175";"pierna";"2.291866e-02"
"  3";"  3";"100.00";"  5.175";"ocho";"2.291866e-02"
"  3";"  3";"100.00";"  5.175";"enterar";"2.291866e-02"
"  3";"  3";"100.00";"  5.175";"derecha";"2.291866e-02"
"  3";"  3";"100.00";"  5.175";"cien";"2.291866e-02"
"  3";"  3";"100.00";"  5.175";"celebrar";"2.291866e-02"
"  3";"  3";"100.00";"  5.175";"asomar";"2.291866e-02"
"  3";"  3";"100.00";"  5.175";"apodar";"2.291866e-02"
"  3";"  3";"100.00";"  5.175";"adelantar";"2.291866e-02"
"  6";"  8";" 75.00";"  5.068";"madre";"2.437635e-02"
"  6";"  8";" 75.00";"  5.068";"acudir";"2.437635e-02"
" 19";" 35";" 54.29";"  4.770";"querer";"2.895922e-02"
" 11";" 18";" 61.11";"  4.665";"casa";"3.078891e-02"
"  4";"  5";" 80.00";"  4.039";"paloma";"4.445862e-02"
"  4";"  5";" 80.00";"  4.039";"mesa";"4.445862e-02"
"  4";"  5";" 80.00";"  4.039";"doce";"4.445862e-02"
"  4";"  5";" 80.00";"  4.039";"cabeza";"4.445862e-02"
"  4";"  5";" 80.00";"  4.039";"buscar";"4.445862e-02"
" 13";" 23";" 56.52";"  3.943";"salir";"4.706834e-02"
" 13";" 23";" 56.52";"  3.943";"oír";"4.706834e-02"
" 11";" 19";" 57.89";"  3.712";"tanto";"5.401179e-02"
"  5";"  7";" 71.43";"  3.641";"cosa";"5.635868e-02"
"  5";"  7";" 71.43";"  3.641";"acordar";"5.635868e-02"
"  9";" 15";" 60.00";"  3.531";"ciego";"6.022315e-02"
"  6";"  9";" 66.67";"  3.490";"puerta";"6.173516e-02"
"  6";"  9";" 66.67";"  3.490";"enseñar";"6.173516e-02"
"  9";" 16";" 56.25";"  2.652";"subir";"1.034519e-01"
"  8";" 14";" 57.14";"  2.533";"mujer";"1.114863e-01"
"  8";" 14";" 57.14";"  2.533";"entrar";"1.114863e-01"
"  3";"  4";" 75.00";"  2.525";"jordán";"1.120571e-01"
"  3";"  4";" 75.00";"  2.525";"bautizando";"1.120571e-01"
"  3";"  4";" 75.00";"  2.525";"acabar";"1.120571e-01"
" 12";" 23";" 52.17";"  2.399";"seguir";"1.214253e-01"
"  6";" 10";" 60.00";"  2.344";"sitio";"1.257817e-01"
"  4";"  6";" 66.67";"  2.321";"noche";"1.276666e-01"
"  5";"  8";" 62.50";"  2.296";"sólo";"1.296984e-01"
"*****";"*";"*";"*";"*";"*"
" 86";" 96";" 89.58";"125.745";"aquel";"3.496530e-29"
"113";"170";" 66.47";" 75.774";"se";"3.180288e-18"
"202";"402";" 50.25";" 48.421";"a";"3.438504e-12"
" 21";" 29";" 72.41";" 16.269";"entonces";"5.494996e-05"
" 36";" 59";" 61.02";" 15.743";"otro";"7.255515e-05"
" 14";" 17";" 82.35";" 15.430";"entre";"8.561797e-05"
"128";"279";" 45.88";" 13.183";"él";"2.825059e-04"
" 30";" 53";" 56.60";"  9.413";"cuando";"2.155107e-03"
" 18";" 28";" 64.29";"  9.354";"mucho";"2.224742e-03"
"143";"334";" 42.81";"  7.428";"en";"6.420151e-03"
"211";"515";" 40.97";"  7.125";"y";"7.599838e-03"
" 15";" 25";" 60.00";"  5.938";"donde";"1.481960e-02"
" 35";" 70";" 50.00";"  5.622";"con";"1.774053e-02"
"  3";"  3";"100.00";"  5.175";"demás";"2.291866e-02"
"  3";"  3";"100.00";"  5.175";"cincuenta";"2.291866e-02"
"*";"*";"*";"*";"*";"*"
" 34";" 39";" 87.18";"44.148";"*egutegia_OctavaDePas";"3.044205e-11"
" 17";" 18";" 94.44";"26.175";"*zein_Juan5-1-3a5-16";"3.117588e-07"
" 16";" 18";" 88.89";"21.376";"*zein_Juan21-1-19";"3.773882e-06"
" 16";" 18";" 88.89";"21.376";"*zein_Juan21-1-14";"3.773882e-06"
" 10";" 10";"100.00";"17.355";"*zein_Juan20-1-9";"3.100868e-05"
" 16";" 20";" 80.00";"16.371";"*zein_Juan6-1-15";"5.207382e-05"
"  8";"  8";"100.00";"13.860";"*zein_Juan20-2-8";"1.969862e-04"
" 11";" 13";" 84.62";"12.954";"*zein_Juan2-13-22";"3.192926e-04"
" 12";" 15";" 80.00";"12.224";"*zein_Juan8-1-11";"4.717556e-04"
" 12";" 15";" 80.00";"12.224";"*zein_Juan2-13-25";"4.717556e-04"
" 30";" 50";" 60.00";"12.146";"*zein_Juan11-1-45";"4.919410e-04"
"  9";" 11";" 81.82";" 9.700";"*zein_Juan12-1-11";"1.842849e-03"
"  5";"  5";"100.00";" 8.640";"*zein_Juan6-16-21";"3.289473e-03"
"162";"382";" 42.41";" 7.858";"*egutegia_SemanaDeCua";"5.059086e-03"
"  8";" 11";" 72.73";" 6.181";"*zein_Juan20-11-18";"1.291551e-02"
"  9";" 13";" 69.23";" 5.964";"*zein_Juan1-35-42";"1.460284e-02"
" 25";" 47";" 53.19";" 5.692";"*egutegia_SemanaSanta";"1.704265e-02"
"  6";"  8";" 75.00";" 5.068";"*zein_Juan21-20-25";"2.437635e-02"
"  6";"  8";" 75.00";" 5.068";"*egutegia_FinDelTiemp";"2.437635e-02"
"  6";"  8";" 75.00";" 5.068";"*zein_Juan20-19-23";"2.437635e-02"
"  4";"  5";" 80.00";" 4.039";"*zein_Juan19-25-27";"4.445862e-02"
"  9";" 15";" 60.00";" 3.531";"*zein_Juan11-45-57";"6.022315e-02"
"  8";" 13";" 61.54";" 3.473";"*zein_Juan2-1-11";"6.238332e-02"
" 10";" 18";" 55.56";" 2.779";"*zein_Juan20-19-31";"9.550330e-02"
" 20";" 41";" 48.78";" 2.643";"*egutegia_TiempoDeNav";"1.040109e-01"
"  7";" 12";" 58.33";" 2.428";"*zein_Juan1-43-51";"1.191925e-01"
"  4";"  6";" 66.67";" 2.321";"*zein_Juan19-31-37";"1.276666e-01"
"**";"classe";"4";"**";"";""
"****";"8";"1148";"0.7";"****";""
"6";"  9";"66.67";"570.479";"traer";"4.416016e-126"
"4";"  5";"80.00";"456.389";"dedo";"2.935478e-101"
"4";"  9";"44.44";"250.875";"costado";" 1.673575e-56"
"6";" 22";"27.27";"228.923";"mano";" 1.023692e-51"
"2";"  3";"66.67";"189.163";"señal";" 4.841266e-43"
"2";"  4";"50.00";"140.998";"meter";" 1.610326e-32"
"2";" 13";"15.38";" 40.991";"aquí";" 1.529287e-10"
"2";" 19";"10.53";" 26.974";"mis";" 2.061861e-07"
"2";" 62";" 3.23";"  6.057";"crear|creer";" 1.384986e-02"
"1";" 22";" 4.55";"  4.801";"comer";" 2.844563e-02"
"2";"115";" 1.74";"  2.006";"ver";" 1.566518e-01"
"*****";"*";"*";"*";"*";"*"
"4";"115";"3.48";"14.287";"tú";"0.0001569089"
"2";" 73";"2.74";" 4.701";"tener";"0.0301388094"
"2";" 86";"2.33";" 3.564";"si";"0.0590574151"
"1";" 32";"3.12";" 2.805";"qué";"0.0939974431"
"*";"*";"*";"*";"*";"*"
"3";"  9";"33.33";"139.623";"*zein_Juan20-24-29";"3.219046e-32"
"3";" 18";"16.67";" 67.394";"*zein_Juan20-19-31";"2.222764e-16"
"1";" 13";" 7.69";"  9.298";"*zein_Juan7-40-53";"2.293524e-03"
"3";"130";" 2.31";"  5.497";"*egutegia_SemanaDelTi";"1.904925e-02"
"**";"classe";"5";"**";"";""
"****";"62";"1148";"5.4";"****";""
"29";" 44";" 65.91";"327.883";"pan";"2.778817e-73"
"18";" 22";" 81.82";"256.374";"comer";"1.059074e-57"
"15";" 17";" 88.24";"231.747";"carne";"2.479543e-52"
"12";" 17";" 70.59";"143.522";"siempre";"4.518729e-33"
" 8";" 10";" 80.00";"109.883";"sangre";"1.039363e-25"
"10";" 17";" 58.82";" 96.393";"vivir";"9.421238e-23"
" 5";"  5";"100.00";" 87.964";"coma";"6.666466e-21"
"12";" 28";" 42.86";" 78.813";"cielo";"6.827984e-19"
" 6";"  8";" 75.00";" 76.383";"vivo";"2.336050e-18"
" 5";"  6";" 83.33";" 71.701";"bajo";"2.503465e-17"
" 4";"  4";"100.00";" 70.309";"maná";"5.069306e-17"
" 4";"  4";"100.00";" 70.309";"comida";"5.069306e-17"
" 6";" 10";" 60.00";" 58.862";"beber";"1.691147e-14"
" 4";"  5";" 80.00";" 54.701";"vuestros";"1.403151e-13"
" 4";"  5";" 80.00";" 54.701";"resucitaré";"1.403151e-13"
" 5";"  8";" 62.50";" 51.410";"último";"7.494086e-13"
"15";" 58";" 25.86";" 50.058";"vida";"1.492534e-12"
" 3";"  4";" 75.00";" 38.058";"resurrección";"6.866659e-10"
" 6";" 17";" 35.29";" 30.182";"bajar";"3.934323e-08"
" 3";"  5";" 60.00";" 29.302";"servir";"6.192126e-08"
" 6";" 19";" 31.58";" 25.915";"morir";"3.568539e-07"
" 4";" 10";" 40.00";" 23.637";"desierto";"1.163152e-06"
" 2";"  3";" 66.67";" 22.098";"habitar";"2.590413e-06"
" 2";"  4";" 50.00";" 15.628";"haz";"7.711779e-05"
" 2";"  6";" 33.33";"  9.211";"modo";"2.405475e-03"
" 3";" 13";" 23.08";"  8.041";"saber|ser";"4.572062e-03"
"12";"111";" 10.81";"  7.040";"dar";"7.971730e-03"
" 5";" 34";" 14.71";"  5.938";"día";"1.481693e-02"
" 1";"  3";" 33.33";"  4.594";"elegir";"3.209340e-02"
" 1";"  3";" 33.33";"  4.594";"pobre";"3.209340e-02"
" 1";"  3";" 33.33";"  4.594";"mal";"3.209340e-02"
" 1";"  3";" 33.33";"  4.594";"condena";"3.209340e-02"
" 1";"  4";" 25.00";"  3.018";"alimento";"8.234491e-02"
" 1";"  4";" 25.00";"  3.018";"bastar";"8.234491e-02"
" 1";"  5";" 20.00";"  2.095";"paloma";"1.477779e-01"
"*****";"*";"*";"*";"*";"*"
"22";"114";"19.30";"47.848";"del";"4.605486e-12"
"17";"127";"13.39";"17.822";"para";"2.426165e-05"
"30";"299";"10.03";"16.984";"yo";"3.769226e-05"
"13";"117";"11.11";" 8.315";"mío";"3.931721e-03"
"40";"545";" 7.34";" 7.634";"que";"5.729153e-03"
"14";"142";" 9.86";" 6.305";"este";"1.204188e-02"
" 2";" 10";"20.00";" 4.208";"nuestro";"4.022216e-02"
" 5";" 42";"11.90";" 3.610";"como";"5.744436e-02"
" 2";" 11";"18.18";" 3.551";"verdadero";"5.950265e-02"
" 7";" 73";" 9.59";" 2.677";"tener";"1.018251e-01"
"21";"295";" 7.12";" 2.293";"ser";"1.299175e-01"
" 1";"  5";"20.00";" 2.095";"cada";"1.477779e-01"
"*";"*";"*";"*";"*";"*"
"13";" 14";"92.86";"212.179";"*zein_Juan6-51-58";"4.596640e-48"
" 8";" 10";"80.00";"109.883";"*zein_Juan6-52-59";"1.039363e-25"
"24";"130";"18.46";" 48.949";"*egutegia_SemanaDelTi";"2.627320e-12"
" 6";" 14";"42.86";" 38.920";"*zein_Juan6-41-51";"4.415452e-10"
" 4";"  7";"57.14";" 36.907";"*zein_Juan6-30-35";"1.239170e-09"
" 5";" 11";"45.45";" 34.876";"*zein_Juan6-44-51";"3.514117e-09"
" 4";" 14";"28.57";" 14.894";"*zein_Juan6-24-35";"1.137504e-04"
" 1";"  4";"25.00";"  3.018";"*zein_Juan10-27-30";"8.234491e-02"
"**";"classe";"6";"**";"";""
"****";"8";"1148";"0.7";"****";""
"5";"  5";"100.00";"715.617";"améis";"1.201660e-157"
"4";"  8";" 50.00";"282.986";"nuevo";" 1.678392e-63"
"2";"  4";" 50.00";"140.998";"mando";" 1.610326e-32"
"2";"  8";" 25.00";" 68.761";"mandamiento";" 1.111634e-16"
"1";"  3";" 33.33";" 46.297";"intentar";" 1.016190e-11"
"2";" 13";" 15.38";" 40.991";"amar";" 1.529287e-10"
"2";" 16";" 12.50";" 32.666";"nacer";" 1.094211e-08"
"5";"117";"  4.27";" 24.083";"os";" 9.227679e-07"
"1";" 22";"  4.55";"  4.801";"mano";" 2.844563e-02"
"*****";"*";"*";"*";"*";"*"
"5";" 59";"8.47";"54.370";"otro";"1.660859e-13"
"5";"102";"4.90";"28.606";"un";"8.872455e-08"
"2";" 42";"4.76";"10.410";"como";"1.253282e-03"
"7";"545";"1.28";" 5.176";"que";"2.290256e-02"
"2";" 73";"2.74";" 4.701";"tener";"3.013881e-02"
"3";"142";"2.11";" 4.694";"este";"3.027015e-02"
"5";"402";"1.24";" 2.674";"a";"1.019996e-01"
"1";" 37";"2.70";" 2.223";"dicho";"1.359817e-01"
"*";"*";"*";"*";"*";"*"
"2";"  9";"22.22";"60.737";"*zein_Juan15-12-17";"6.524617e-15"
"2";" 12";"16.67";"44.692";"*zein_Juan15-9-17";"2.305607e-11"
"1";"  7";"14.29";"18.794";"*zein_Juan13-31-33a34-35";"1.456595e-05"
"1";"  8";"12.50";"16.219";"*zein_Juan3-5a7b-15";"5.644014e-05"
"1";" 11";" 9.09";"11.309";"*zein_Juan3-1-8";"7.715240e-04"
"1";" 12";" 8.33";"10.219";"*zein_Juan10-31-42";"1.389825e-03"
"7";"452";" 1.55";" 7.817";"*egutegia_SemanaDePas";"5.175508e-03"
"**";"classe";"7";"**";"";""
"****";"90";"1148";"7.84";"****";""
"17";"21";" 80.95";"158.263";"luz";"2.711958e-36"
"15";"19";" 78.95";"135.204";"mis";"2.979200e-31"
"12";"14";" 85.71";"118.961";"ama";"1.068219e-27"
"14";"19";" 73.68";"115.930";"oveja";"4.923609e-27"
"12";"16";" 75.00";"101.297";"guardar";"7.918083e-24"
"15";"27";" 55.56";" 87.133";"obra";"1.014838e-20"
"11";"17";" 64.71";" 77.231";"voz";"1.520880e-18"
" 8";"10";" 80.00";" 72.703";"bueno";"1.507138e-17"
" 6";" 6";"100.00";" 70.904";"creed";"3.750537e-17"
" 6";" 6";"100.00";" 70.904";"pastor";"3.750537e-17"
" 6";" 6";"100.00";" 70.904";"guardará";"3.750537e-17"
" 5";" 5";"100.00";" 59.035";"tiniebla";"1.549002e-14"
" 6";" 8";" 75.00";" 50.293";"mandamiento";"1.324206e-12"
" 4";" 4";"100.00";" 47.187";"realizar";"6.453900e-12"
" 4";" 4";"100.00";" 47.187";"amará";"6.453900e-12"
" 7";"13";" 53.85";" 38.520";"vino";"5.420576e-10"
" 4";" 5";" 80.00";" 36.192";"caminar";"1.787642e-09"
" 5";" 8";" 62.50";" 33.314";"cambio";"7.841754e-09"
"13";"42";" 30.95";" 32.232";"palabra";"1.367965e-08"
" 3";" 4";" 75.00";" 25.059";"perder";"5.561477e-07"
" 3";" 4";" 75.00";" 25.059";"malo";"5.561477e-07"
" 3";" 4";" 75.00";" 25.059";"cumplir";"5.561477e-07"
" 4";" 7";" 57.14";" 23.695";"permanecer";"1.128682e-06"
" 7";"23";" 30.43";" 16.584";"seguir";"4.653212e-05"
" 5";"14";" 35.71";" 15.242";"escuchar";"9.459990e-05"
" 4";"10";" 40.00";" 14.441";"acerca";"1.446255e-04"
" 2";" 4";" 50.00";"  9.875";"acusar";"1.675369e-03"
" 2";" 4";" 50.00";"  9.875";"nazaret";"1.675369e-03"
" 2";" 4";" 50.00";"  9.875";"mando";"1.675369e-03"
" 2";" 4";" 50.00";"  9.875";"ladrón";"1.675369e-03"
" 3";" 8";" 37.50";"  9.809";"erar|ser";"1.736421e-03"
"12";"71";" 16.90";"  8.601";"mundo";"3.359444e-03"
" 3";" 9";" 33.33";"  8.160";"amor";"4.282931e-03"
" 3";" 9";" 33.33";"  8.160";"puerta";"4.282931e-03"
" 3";" 9";" 33.33";"  8.160";"amigo";"4.282931e-03"
"12";"74";" 16.22";"  7.682";"hacer";"5.578783e-03"
" 7";"37";" 18.92";"  6.495";"mismo";"1.081577e-02"
" 2";" 6";" 33.33";"  5.426";"testigo";"1.984396e-02"
" 2";" 6";" 33.33";"  5.426";"aceptar";"1.984396e-02"
" 9";"58";" 15.52";"  4.984";"vida";"2.558907e-02"
" 2";" 7";" 28.57";"  4.190";"matar";"4.067097e-02"
" 3";"14";" 21.43";"  3.622";"ése";"5.701187e-02"
" 3";"14";" 21.43";"  3.622";"entrar";"5.701187e-02"
" 7";"46";" 15.22";"  3.610";"conocer";"5.743169e-02"
" 2";" 8";" 25.00";"  3.283";"sacar";"6.998139e-02"
" 2";" 8";" 25.00";"  3.283";"dar|distar";"6.998139e-02"
" 1";" 3";" 33.33";"  2.706";"rogar";"9.999161e-02"
" 1";" 3";" 33.33";"  2.706";"parte";"9.999161e-02"
" 1";" 3";" 33.33";"  2.706";"mal";"9.999161e-02"
" 1";" 3";" 33.33";"  2.706";"juzgo";"9.999161e-02"
" 1";" 3";" 33.33";"  2.706";"igual";"9.999161e-02"
" 1";" 3";" 33.33";"  2.706";"conceder";"9.999161e-02"
" 1";" 3";" 33.33";"  2.706";"además";"9.999161e-02"
" 4";"24";" 16.67";"  2.643";"juan";"1.039806e-01"
" 2";" 9";" 22.22";"  2.597";"juzgar";"1.070609e-01"
" 4";"25";" 16.00";"  2.355";"eterno";"1.248485e-01"
" 2";"10";" 20.00";"  2.065";"escritura";"1.507515e-01"
"*****";"*";"*";"*";"*";"*"
" 2";"  3";"66.67";"14.407";"según";"0.0001472739"
"38";"299";"12.71";"13.268";"yo";"0.0002700183"
"18";"117";"15.38";"10.264";"mío";"0.0013562633"
"75";"797";" 9.41";" 8.899";"el";"0.0028526091"
"11";" 65";"16.92";" 7.868";"sino";"0.0050311894"
"13";" 86";"15.12";" 6.813";"si";"0.0090508526"
" 2";"  8";"25.00";" 3.283";"algo";"0.0699813898"
"31";"308";"10.06";" 2.885";"no";"0.0894203255"
"12";"102";"11.76";" 2.387";"porque";"0.1223527485"
"*";"*";"*";"*";"*";"*"
" 9";" 12";"75.00";"75.705";"*zein_Juan10-11-18";"3.293487e-18"
" 8";" 12";"66.67";"58.084";"*zein_Juan10-1-10";"2.512209e-14"
"55";"452";"12.17";"19.332";"*egutegia_SemanaDePas";"1.098275e-05"
" 4";"  9";"44.44";"16.822";"*zein_Juan14-15-21";"4.104378e-05"
" 6";" 19";"31.58";"15.069";"*zein_Juan1-1-18";"1.036405e-04"
" 3";"  8";"37.50";" 9.809";"*zein_Juan3-16-21";"1.736421e-03"
" 3";"  9";"33.33";" 8.160";"*zein_Juan12-44-50";"4.282931e-03"
" 3";"  9";"33.33";" 8.160";"*zein_Juan14-21-26";"4.282931e-03"
" 3";"  9";"33.33";" 8.160";"*zein_Juan3-14-21";"4.282931e-03"
" 6";" 27";"22.22";" 7.916";"*egutegia_NavidadYOct";"4.899027e-03"
" 3";" 12";"25.00";" 4.943";"*zein_Juan15-9-17";"2.620370e-02"
" 2";"  9";"22.22";" 2.597";"*zein_Juan10-22-30";"1.070609e-01"
" 2";" 10";"20.00";" 2.065";"*zein_Juan17-11b-19";"1.507515e-01"
"**";"classe";"8";"**";"";""
"****";"11";"1148";"0.96";"****";""
"5";"  5";"100.00";"519.079";"corazón";"6.713092e-115"
"7";" 12";" 58.33";"420.652";"alegría";" 1.760018e-93"
"6";" 11";" 54.55";"336.069";"vuestra";" 4.582192e-75"
"3";"  3";"100.00";"310.903";"tiemble";" 1.388135e-69"
"3";"  4";" 75.00";"231.879";"tristeza";" 2.320981e-52"
"2";"  3";" 66.67";"136.846";"plenitud";" 1.303299e-31"
"4";" 19";" 21.05";" 82.202";"vuestro";" 1.228449e-19"
"2";"  5";" 40.00";" 80.660";"convertir";" 2.681448e-19"
"1";"  3";" 33.33";" 33.221";"pregunta";" 8.226052e-09"
"1";"  6";" 16.67";" 15.683";"quitar";" 7.489893e-05"
"1";"  7";" 14.29";" 13.182";"llenar";" 2.826386e-04"
"1";"  7";" 14.29";" 13.182";"adonde";" 2.826386e-04"
"4";"117";"  3.42";"  8.312";"os";" 3.939163e-03"
"2";" 37";"  5.41";"  7.968";"llegar";" 4.761753e-03"
"1";" 11";"  9.09";"  7.741";"pedir";" 5.399187e-03"
"2";" 41";"  4.88";"  6.884";"hablar";" 8.696366e-03"
"1";" 15";"  6.67";"  5.219";"volver";" 2.234335e-02"
"1";" 26";"  3.85";"  2.338";"nombre";" 1.262548e-01"
"*****";"*";"*";"*";"*";"*"
"5";" 78";" 6.41";"26.212";"vosotros";"3.058607e-07"
"2";" 23";" 8.70";"14.806";"ni";"1.191399e-04"
"5";"144";" 3.47";"10.966";"estar";"9.280471e-04"
"3";" 66";" 4.55";" 9.495";"pero";"2.059799e-03"
"1";" 10";"10.00";" 8.690";"ninguno";"3.198854e-03"
"4";"117";" 3.42";" 8.312";"mío";"3.939163e-03"
"5";"170";" 2.94";" 8.268";"se";"4.034044e-03"
"1";" 13";" 7.69";" 6.283";"nada";"1.218871e-02"
"4";"142";" 2.82";" 5.899";"este";"1.514840e-02"
"1";" 14";" 7.14";" 5.712";"hasta";"1.684527e-02"
"3";"127";" 2.36";" 2.966";"para";"8.502332e-02"
"1";" 24";" 4.17";" 2.659";"pues";"1.029665e-01"
"*";"*";"*";"*";"*";"*"
" 2";"  5";"40.00";"80.660";"*zein_Juan16-20-23a";"2.681448e-19"
" 1";"  4";"25.00";"24.448";"*zein_Juan15-9-11";"7.634823e-07"
" 1";"  7";"14.29";"13.182";"*zein_Juan16-23b-28";"2.826386e-04"
"10";"452";" 2.21";"12.358";"*egutegia_SemanaDePas";"4.391814e-04"
" 1";"  8";"12.50";"11.309";"*zein_Juan14-27-31a";"7.715240e-04"
" 1";"  9";"11.11";" 9.853";"*zein_Juan16-5-11";"1.695446e-03"
" 1";"  9";"11.11";" 9.853";"*zein_Juan16-16-20";"1.695446e-03"
" 1";" 11";" 9.09";" 7.741";"*egutegia_SemanaDeNav";"5.399187e-03"
" 1";" 11";" 9.09";" 7.741";"*zein_Juan3-22-30";"5.399187e-03"
" 1";" 11";" 9.09";" 7.741";"*zein_Juan14-23-29";"5.399187e-03"
" 1";" 12";" 8.33";" 6.951";"*zein_Juan15-9-17";"8.379541e-03"
" 1";" 19";" 5.26";" 3.773";"*zein_Juan14-1-12";"5.209004e-02"
"**";"classe";"9";"**";"";""
"****";"530";"1148";"46.17";"****";""
"122";"149";" 81.88";"87.864";"padre";"7.012619e-21"
" 99";"117";" 84.62";"77.489";"os";"1.334749e-18"
" 79";" 88";" 89.77";"72.916";"dios";"1.353165e-17"
" 59";" 67";" 88.06";"50.244";"venir";"1.357866e-12"
" 68";" 81";" 83.95";"50.059";"hijo";"1.491820e-12"
" 86";"111";" 77.48";"48.471";"dar";"3.352842e-12"
" 52";" 59";" 88.14";"44.079";"enviar";"3.154286e-11"
" 32";" 34";" 94.12";"32.415";"ahora";"1.245528e-08"
" 60";" 80";" 75.00";"28.764";"ir";"8.174843e-08"
" 35";" 41";" 85.37";"26.287";"hablar";"2.942832e-07"
" 48";" 62";" 77.42";"25.756";"crear|creer";"3.873804e-07"
" 38";" 46";" 82.61";"25.605";"conocer";"4.189008e-07"
" 26";" 29";" 89.66";"22.639";"testimonio";"1.954265e-06"
" 52";" 71";" 73.24";"22.318";"mundo";"2.310590e-06"
" 28";" 33";" 84.85";"20.455";"asegurar";"6.104741e-06"
" 40";" 53";" 75.47";"19.200";"saber";"1.177433e-05"
" 28";" 34";" 82.35";"18.460";"nadie";"1.735190e-05"
" 22";" 25";" 88.00";"17.995";"así";"2.214734e-05"
" 22";" 26";" 84.62";"15.823";"nombre";"6.954709e-05"
" 20";" 23";" 86.96";"15.712";"cómo";"7.375883e-05"
" 12";" 12";"100.00";"14.140";"moisés";"1.696732e-04"
" 11";" 11";"100.00";"12.951";"fruto";"3.198352e-04"
" 11";" 11";"100.00";"12.951";"glorificado";"3.198352e-04"
" 11";" 11";"100.00";"12.951";"único";"3.198352e-04"
" 11";" 11";"100.00";"12.951";"maestro";"3.198352e-04"
" 49";" 74";" 66.22";"12.793";"hacer";"3.479163e-04"
" 10";" 10";"100.00";"11.763";"cuenta";"6.042492e-04"
" 23";" 30";" 76.67";"11.530";"verdad";"6.848729e-04"
" 14";" 16";" 87.50";"11.154";"espíritu";"8.385893e-04"
" 11";" 12";" 91.67";"10.101";"gloria";"1.481673e-03"
"  8";"  8";"100.00";" 9.394";"podar|poder";"2.177248e-03"
"  8";"  8";"100.00";" 9.394";"oído";"2.177248e-03"
"  8";"  8";"100.00";" 9.394";"ley";"2.177248e-03"
"  8";"  8";"100.00";" 9.394";"conmigo";"2.177248e-03"
" 29";" 42";" 69.05";" 9.183";"ya";"2.442816e-03"
" 19";" 25";" 76.00";" 9.152";"eterno";"2.484686e-03"
" 26";" 37";" 70.27";" 8.937";"mismo";"2.794505e-03"
" 13";" 16";" 81.25";" 8.036";"nacer";"4.586499e-03"
"  9";" 10";" 90.00";" 7.799";"condenar";"5.228678e-03"
" 31";" 47";" 65.96";" 7.723";"hombre";"5.452915e-03"
" 20";" 28";" 71.43";" 7.369";"creer";"6.635470e-03"
" 14";" 18";" 77.78";" 7.352";"dónde";"6.697971e-03"
"  6";"  6";"100.00";" 7.033";"voluntad";"8.002190e-03"
"  6";"  6";"100.00";" 7.033";"culto";"8.002190e-03"
"  6";"  6";"100.00";" 7.033";"sed";"8.002190e-03"
"  6";"  6";"100.00";" 7.033";"santo";"8.002190e-03"
"  6";"  6";"100.00";" 7.033";"rabí";"8.002190e-03"
"  6";"  6";"100.00";" 7.033";"nunca";"8.002190e-03"
"  6";"  6";"100.00";" 7.033";"muéstranos";"8.002190e-03"
"  8";"  9";" 88.89";" 6.662";"poco";"9.851462e-03"
"  8";"  9";" 88.89";" 6.662";"abierto";"9.851462e-03"
" 11";" 14";" 78.57";" 5.988";"profeta";"1.440391e-02"
" 11";" 14";" 78.57";" 5.988";"camino";"1.440391e-02"
"  5";"  5";"100.00";" 5.856";"reino";"1.552675e-02"
"  5";"  5";"100.00";" 5.856";"perezca";"1.552675e-02"
"  5";"  5";"100.00";" 5.856";"israel";"1.552675e-02"
"  5";"  5";"100.00";" 5.856";"existir";"1.552675e-02"
"  7";"  8";" 87.50";" 5.538";"abrahán";"1.861026e-02"
"  7";"  8";" 87.50";" 5.538";"entender";"1.861026e-02"
" 15";" 21";" 71.43";" 5.492";"hora";"1.909837e-02"
" 10";" 13";" 76.92";" 5.005";"mesías";"2.528100e-02"
" 10";" 13";" 76.92";" 5.005";"saber|ser";"2.528100e-02"
"  4";"  4";"100.00";" 4.680";"suceder";"3.050759e-02"
"  4";"  4";"100.00";" 4.680";"elevar";"3.050759e-02"
"  4";"  4";"100.00";" 4.680";"válido";"3.050759e-02"
"  4";"  4";"100.00";" 4.680";"trabajo";"3.050759e-02"
"  4";"  4";"100.00";" 4.680";"tampoco";"3.050759e-02"
"  4";"  4";"100.00";" 4.680";"significar";"3.050759e-02"
"  4";"  4";"100.00";" 4.680";"principio";"3.050759e-02"
"  4";"  4";"100.00";" 4.680";"pidáis";"3.050759e-02"
"  4";"  4";"100.00";" 4.680";"pecador";"3.050759e-02"
"  4";"  4";"100.00";" 4.680";"dichosos";"3.050759e-02"
"  4";"  4";"100.00";" 4.680";"comunicar";"3.050759e-02"
"  4";"  4";"100.00";" 4.680";"comparación";"3.050759e-02"
"  4";"  4";"100.00";" 4.680";"amo";"3.050759e-02"
"  6";"  7";" 85.71";" 4.432";"propio";"3.527076e-02"
"  6";"  7";" 85.71";" 4.432";"muerte";"3.527076e-02"
"  6";"  7";" 85.71";" 4.432";"crear";"3.527076e-02"
" 13";" 19";" 68.42";" 3.850";"vuestro";"4.975419e-02"
" 34";" 58";" 58.62";" 3.812";"vida";"5.088966e-02"
"  7";"  9";" 77.78";" 3.647";"juzgar";"5.616806e-02"
" 10";" 14";" 71.43";" 3.639";"ése";"5.643899e-02"
"  3";"  3";"100.00";" 3.507";"paz";"6.109974e-02"
"  3";"  3";"100.00";" 3.507";"glorificará";"6.109974e-02"
"  3";"  3";"100.00";" 3.507";"vid";"6.109974e-02"
"  3";"  3";"100.00";" 3.507";"surgir";"6.109974e-02"
"  3";"  3";"100.00";" 3.507";"siervo";"6.109974e-02"
"  3";"  3";"100.00";" 3.507";"serpiente";"6.109974e-02"
"  3";"  3";"100.00";" 3.507";"recordar";"6.109974e-02"
"  3";"  3";"100.00";" 3.507";"príncipe";"6.109974e-02"
"  3";"  3";"100.00";" 3.507";"proceder";"6.109974e-02"
"  3";"  3";"100.00";" 3.507";"paráclito";"6.109974e-02"
"  3";"  3";"100.00";" 3.507";"linaje";"6.109974e-02"
"  3";"  3";"100.00";" 3.507";"hambre";"6.109974e-02"
"  3";"  3";"100.00";" 3.507";"envío";"6.109974e-02"
"  3";"  3";"100.00";" 3.507";"cuándo";"6.109974e-02"
"  3";"  3";"100.00";" 3.507";"conocierais";"6.109974e-02"
"  3";"  3";"100.00";" 3.507";"conoceríais";"6.109974e-02"
"  3";"  3";"100.00";" 3.507";"buscáis";"6.109974e-02"
"  3";"  3";"100.00";" 3.507";"aprender";"6.109974e-02"
"  5";"  6";" 83.33";" 3.352";"pensar";"6.711205e-02"
"  9";" 13";" 69.23";" 2.814";"amar";"9.343154e-02"
"  9";" 13";" 69.23";" 2.814";"dejar";"9.343154e-02"
"  6";"  8";" 75.00";" 2.695";"mandar";"1.006792e-01"
"  6";"  8";" 75.00";" 2.695";"dar|distar";"1.006792e-01"
"  4";"  5";" 80.00";" 2.313";"saltar";"1.283032e-01"
"  4";"  5";" 80.00";" 2.313";"pescado";"1.283032e-01"
"  4";"  5";" 80.00";" 2.313";"juicio";"1.283032e-01"
"  4";"  5";" 80.00";" 2.313";"embargo";"1.283032e-01"
"  4";"  5";" 80.00";" 2.313";"caer";"1.283032e-01"
"  8";" 12";" 66.67";" 2.050";"tierra";"1.521621e-01"
" 28";" 50";" 56.00";" 2.034";"señor";"1.538493e-01"
"*****";"*";"*";"*";"*";"*"
"205";"299";" 68.56";"81.585";"yo";"1.678499e-19"
"190";"308";" 61.69";"40.801";"no";"1.685068e-10"
"301";"545";" 55.23";"34.285";"que";"4.761322e-09"
"181";"302";" 59.93";"31.250";"haber";"2.268753e-08"
" 26";" 27";" 96.30";"27.958";"nosotros";"1.240091e-07"
" 51";" 66";" 77.27";"27.262";"todo";"1.777031e-07"
" 57";" 78";" 73.08";"24.383";"vosotros";"7.895798e-07"
"169";"295";" 57.29";"19.757";"ser";"8.795523e-06"
" 59";" 86";" 68.60";"18.831";"si";"1.428038e-05"
" 74";"117";" 63.25";"15.293";"mío";"9.205207e-05"
" 65";"102";" 63.73";"13.886";"porque";"1.941912e-04"
" 30";" 40";" 75.00";"13.863";"poder";"1.966433e-04"
" 42";" 65";" 64.62";" 9.435";"sino";"2.128595e-03"
" 17";" 22";" 77.27";" 8.732";"ese";"3.126537e-03"
" 28";" 42";" 66.67";" 7.371";"como";"6.627644e-03"
" 10";" 12";" 83.33";" 6.740";"sin";"9.427627e-03"
" 66";"115";" 57.39";" 6.478";"tú";"1.092017e-02"
" 72";"127";" 56.69";" 6.366";"para";"1.163546e-02"
" 17";" 24";" 70.83";" 6.001";"pues";"1.429966e-02"
"  5";"  5";"100.00";" 5.856";"encima";"1.552675e-02"
" 16";" 23";" 69.57";" 5.170";"ni";"2.297983e-02"
"384";"797";" 48.18";" 4.252";"el";"3.920585e-02"
"  7";"  9";" 77.78";" 3.647";"dentro";"5.616806e-02"
"  3";"  3";"100.00";" 3.507";"deber";"6.109974e-02"
" 62";"114";" 54.39";" 3.440";"por";"6.363713e-02"
"  8";" 11";" 72.73";" 3.152";"verdadero";"7.581228e-02"
"  9";" 13";" 69.23";" 2.814";"nada";"9.343154e-02"
" 10";" 15";" 66.67";" 2.570";"sobre";"1.089189e-01"
" 31";" 55";" 56.36";" 2.417";"también";"1.200587e-01"
" 40";" 73";" 54.79";" 2.335";"tener";"1.265230e-01"
"  7";" 10";" 70.00";" 2.306";"nuestro";"1.289158e-01"
" 26";" 46";" 56.52";" 2.067";"quien";"1.504917e-01"
"*";"*";"*";"*";"*";"*"
"242";"452";"53.54";"16.305";"*egutegia_SemanaDePas";"5.391274e-05"
" 15";" 18";"83.33";"10.164";"*zein_Juan5-31-47";"1.432380e-03"
" 13";" 16";"81.25";" 8.036";"*zein_Juan8-31-42";"4.586499e-03"
" 11";" 13";"84.62";" 7.821";"*zein_Juan17-1-11a";"5.164409e-03"
"  9";" 10";"90.00";" 7.799";"*zein_Juan3-31-36";"5.228678e-03"
" 11";" 14";"78.57";" 5.988";"*zein_Juan14-6-14";"1.440391e-02"
" 14";" 19";"73.68";" 5.886";"*zein_Juan14-1-12";"1.526153e-02"
" 28";" 44";"63.64";" 5.618";"*zein_Juan4-5-42";"1.777626e-02"
"  7";"  8";"87.50";" 5.538";"*zein_Juan16-29-33";"1.861026e-02"
"  7";"  8";"87.50";" 5.538";"*zein_Juan17-20-26";"1.861026e-02"
"  6";"  7";"85.71";" 4.432";"*zein_Juan15-26-16-4a";"3.527076e-02"
" 12";" 17";"70.59";" 4.141";"*zein_Juan5-17-30";"4.186378e-02"
"  9";" 12";"75.00";" 4.056";"*zein_Juan14-7-14";"4.400527e-02"
" 13";" 19";"68.42";" 3.850";"*zein_Juan1-1-18";"4.975419e-02"
"  5";"  6";"83.33";" 3.352";"*zein_Juan16-12-15";"6.711205e-02"
"  8";" 11";"72.73";" 3.152";"*zein_Juan15-1-8";"7.581228e-02"
"  6";"  8";"75.00";" 2.695";"*zein_Juan6-35-40";"1.006792e-01"
"  6";"  8";"75.00";" 2.695";"*zein_Juan3-5a7b-15";"1.006792e-01"
"  6";"  8";"75.00";" 2.695";"*zein_Juan14-1-6";"1.006792e-01"
"  6";"  8";"75.00";" 2.695";"*zein_Juan14-27-31a";"1.006792e-01"
"  4";"  5";"80.00";" 2.313";"*zein_Juan3-16-18";"1.283032e-01"
"  4";"  5";"80.00";" 2.313";"*zein_Juan3-13-17";"1.283032e-01"
"  7";" 10";"70.00";" 2.306";"*zein_Juan17-11b-19";"1.289158e-01"
"  8";" 12";"66.67";" 2.050";"*zein_Juan8-21-30";"1.521621e-01"
"**";"classe";"10";"**";"";""
"****";"10";"1148";"0.87";"****";""
"10";"11";"90.91";"1042.719";"pecado";"9.307332e-229"
" 1";" 3";"33.33";"  36.708";"esclavo";" 1.372404e-09"
" 1";" 3";"33.33";"  36.708";"condena";" 1.372404e-09"
" 1";" 4";"25.00";"  27.064";"razón";" 1.968223e-07"
" 1";" 5";"20.00";"  21.281";"vuestros";" 3.966837e-06"
" 2";"19";"10.53";"  20.858";"vuestro";" 4.946697e-06"
" 1";" 6";"16.67";"  17.428";"quitar";" 2.984450e-05"
" 1";" 7";"14.29";"  14.678";"crear";" 1.275568e-04"
" 2";"27";" 7.41";"  13.681";"quedar";" 2.166669e-04"
" 1";"11";" 9.09";"   8.690";"vengar|venir";" 3.198854e-03"
" 1";"13";" 7.69";"   7.085";"dejar";" 7.772042e-03"
" 1";"15";" 6.67";"   5.912";"ciego";" 1.503750e-02"
" 2";"71";" 2.82";"   3.318";"mundo";" 6.850745e-02"
"*****";"*";"*";"*";"*";"*"
"3";"46";"6.52";"17.720";"quien";"0.0000255954"
"2";"70";"2.86";" 3.405";"con";"0.0649893900"
"1";"24";"4.17";" 3.083";"pues";"0.0791074831"
"2";"86";"2.33";" 2.278";"si";"0.1312512559"
"*";"*";"*";"*";"*";"*"
"2";" 9";"22.22";"47.890";"*zein_Juan16-5-11";"4.508260e-12"
"2";"12";"16.67";"35.039";"*zein_Juan8-21-30";"3.230854e-09"
"1";" 7";"14.29";"14.678";"*zein_Juan1-29-34";"1.275568e-04"
"1";" 8";"12.50";"12.617";"*egutegia_FinDelTiemp";"3.823067e-04"
"1";" 8";"12.50";"12.617";"*zein_Juan20-19-23";"3.823067e-04"
"1";"16";" 6.25";" 5.437";"*zein_Juan8-31-42";"1.971623e-02"
"2";"54";" 3.70";" 5.265";"*zein_Juan9-1-41";"2.175248e-02"
"1";"18";" 5.56";" 4.647";"*zein_Juan20-19-31";"3.110269e-02"
