"";"classe 1";"classe 2";"classe 3";"classe 4";"classe 5";"classe 6";"classe 7";"classe 8";"classe 9";"classe 10"
"decir";1;1;0;1;1;1;1;1;1;1
"jesús";1;1;0;1;1;1;1;1;1;1
"padre";1;1;1;1;0,448;1;0,449;1;0;1
"os";1;1;1;1;1;0;1;0,004;0;0,303
"ver";1;1;0,17;0,157;1;1;1;1;0,566;1
"dar";1;1;1;1;0,008;0,786;1;1;0;1
"dios";1;1;1;1;1;1;1;1;0;0,78
"discípulo";1;1;0;1;1;1;1;1;1;1
"mundo";1;1;1;1;0,528;1;0,003;1;0;0,069
"hijo";1;1;1;1;1;1;1;1;0;1
"hacer";1;1;1;1;1;1;0,006;1;0;1
"ir";1;1;1;1;1;1;1;0,781;0;0,705
"tiempo";1;1;0;1;1;1;1;1;1;1
"venir";1;1;1;1;1;1;1;1;0;1
"vida";1;1;1;1;0;1;0,026;1;0,051;1
"crear|creer";1;1;1;0,014;0,707;1;1;1;0;0,518
"enviar";1;1;1;1;1;1;1;0,551;0;1
"saber";1;1;1;1;1;1;1;1;0;1
"conocer";1;1;1;1;1;1;0,057;1;0;1
"señor";1;1;0,852;1;0,848;1;1;1;0,154;1
"judío";1;1;0;1;1;1;1;1;1;1
"pan";1;1;1;1;0;1;1;1;1;1
"hombre";1;1;1;1;0,335;1;0,466;1;0,005;1
"hablar";1;1;1;1;1;1;1;0,009;0;1
"palabra";1;1;1;1;1;1;0;1;0,255;1
"ya";1;1;1;1;1;1;1;1;0,002;1
"mismo";1;1;1;1;0,999;1;0,011;1;0,003;1
"llegar";1;1;0;1;1;1;1;0,005;1;1
"testimonio";1;1;1;1;1;1;1;1;0;1
"querer";1;1;0,029;1;1;1;1;1;1;1
"día";1;1;0,019;1;0,015;1;0,828;1;1;1
"verdad";0;1;1;1;1;1;0,656;1;0,001;1
"nadie";1;1;1;1;0,9;1;1;0,228;0;1
"ahora";1;1;1;1;1;1;1;0,228;0;1
"cielo";1;1;1;1;0;1;1;1;1;1
"asegurar";1;1;1;1;0,865;1;1;1;0;0,176
"uno";1;1;0,449;1;1;1;1;1;0,67;1
"obra";1;1;1;1;1;1;0;1;1;1
"más";1;1;0,402;1;1;1;1;1;0,549;1
"quedar";1;1;0,001;1;1;1;1;1;1;0
"luz";1;1;1;1;1;1;0;1;1;1
"creer";1;1;1;1;1;1;1;1;0,007;1
"preguntar";1;1;0;1;1;1;1;1;1;1
"pedro";1;1;0;1;1;1;1;1;1;1
"nombre";1;1;1;1;1;1;1;0,126;0;1
"llamar";1;1;0,008;1;1;1;1;1;1;1
"juan";1;1;0,008;1;1;1;0,104;1;1;1
"eterno";1;1;1;1;0,561;1;0,125;1;0,002;1
"echar";1;1;0;1;1;1;1;1;1;1
"comer";1;1;1;0,028;0;1;1;1;1;1
"así";1;1;1;1;1;1;1;1;0;1
"morir";1;1;1;1;0;1;1;1;0,916;1
"mano";1;1;1;0;0,439;0,028;1;1;1;1
"allí";1;1;0;1;1;1;1;1;1;1
"seguir";1;1;0,121;1;1;1;0;1;1;1
"salir";1;1;0,047;1;1;1;0,877;1;1;1
"oír";1;1;0,047;1;1;1;0,877;1;1;1
"cómo";1;1;1;1;0,48;1;1;1;0;1
"simón";1;1;0;1;1;1;0,826;1;1;1
"poner";1;1;0,298;1;1;1;1;1;0,893;1
"dónde";1;1;1;1;1;1;1;1;0,007;1
"agua";1;1;0,626;1;1;1;1;1;0,301;1
"oveja";1;1;1;1;1;1;0;1;1;1
"hora";1;1;1;1;1;1;1;1;0,019;1
"vuestro";1;1;1;1;1;1;1;0;0,05;0
"templo";1;1;0;1;1;1;1;1;1;1
"tanto";1;1;0,054;1;1;1;1;1;1;1
"siempre";1;1;1;1;0;1;1;1;1;1
"mis";1;1;1;0;1;1;0;1;1;1
"espíritu";1;1;1;1;0,206;1;1;1;0,001;1
"nacer";1;1;1;1;0,88;0;1;1;0,005;1
"llevar";1;1;0;1;1;1;1;1;1;1
"escribir";1;1;1;1;0,28;1;1;1;0,2;1
"encontrar";1;1;0;1;1;1;1;1;1;1
"casa";1;1;0,031;1;1;1;1;1;1;1
"carne";1;1;1;1;0;1;1;1;1;1
"voz";1;1;1;1;1;1;0;1;1;1
"vivir";1;1;1;1;0;1;1;1;1;1
"vez";1;1;0,001;1;1;1;1;1;1;1
"subir";1;1;0,103;1;1;1;1;1;1;1
"sepulcro";1;1;0;1;1;1;1;1;1;1
"ojo";1;1;0,004;1;1;1;1;1;1;1
"gente";1;1;0;1;1;1;1;1;1;1
"bajar";1;1;1;1;0;1;1;1;0,572;1
"amar";1;1;1;1;1;0;1;1;0,093;1
"signo";1;1;0,951;1;0,206;1;1;1;0,757;1
"recibir";1;1;1;1;1;1;0,367;1;0,171;1
"pie";1;1;0;1;1;1;1;1;1;1
"muerto";1;1;0;1;0,88;1;1;1;1;1
"maría";1;1;0;1;1;1;1;1;1;1
"hecho";1;1;1;1;0,88;1;1;1;0,187;1
"guardar";1;1;1;1;1;1;0;1;1;1
"volver";1;1;0,793;1;1;1;1;0,022;0,575;1
"profeta";1;0;1;1;1;1;1;1;0,014;1
"hermano";1;1;0;1;1;1;1;1;1;1
"galilea";1;1;0;1;1;1;1;1;1;1
"ciego";1;1;0,06;1;1;1;1;1;1;0,015
"ama";1;1;1;1;1;1;0;1;1;1
"ése";1;1;1;1;1;1;0,057;1;0,056;1
"tierra";1;1;1;1;1;1;1;1;0,152;1
"pasar";1;1;0,548;1;1;1;1;1;0,575;1
"mujer";1;1;0,111;1;1;1;1;1;1;1
"mesías";1;0;1;1;1;1;1;1;0,025;1
"medio";1;1;0,199;1;1;1;1;1;1;1
"junto";1;1;0,001;1;1;1;1;1;1;1
"jerusalén";1;1;0;1;1;1;1;1;1;1
"grande";1;1;1;1;1;1;1;1;0,407;1
"gloria";1;1;1;1;1;1;1;1;0,001;1
"fruto";1;1;1;1;1;1;1;1;0;1
"felipe";1;1;0,001;1;1;1;1;1;1;1
"escuchar";1;1;1;1;0,772;1;0;1;0,407;1
"entregar";1;1;1;1;1;1;1;1;0,171;1
"entrar";1;1;0,111;1;0,772;1;0,057;1;1;1
"camino";1;1;1;1;1;1;1;1;0,014;1
"alegría";1;1;1;1;1;1;1;0;1;1
"vino";1;1;1;1;1;1;0;1;1;1
"tomar";1;1;0,003;1;1;1;1;1;1;1
"saber|ser";1;1;1;1;0,005;1;1;1;0,025;1
"primero";1;1;0;1;1;1;1;1;1;1
"glorificado";1;1;1;1;1;1;1;1;0;1
"dejar";1;1;1;1;1;1;1;1;0,093;0,008
"aquí";1;1;1;0;1;1;1;1;0,264;1
"pecado";1;1;1;1;1;1;1;1;1;0
"moisés";1;1;1;1;1;1;1;1;0;1
"único";1;1;1;1;1;1;1;1;0;1
"vuestra";1;1;1;1;1;1;0,877;0;1;1
"vengar|venir";1;1;1;1;1;1;1;1;0,243;0,003
"todavía";1;1;0;1;1;1;1;1;1;1
"sitio";1;1;0,126;1;1;1;1;1;1;1
"poco";1;1;1;1;1;1;1;1;0,01;1
"pedir";1;1;1;1;1;1;1;0,005;0,243;1
"maestro";1;1;1;1;1;1;1;1;0;1
"levantar";1;1;0;1;1;1;1;1;1;1
"fiesta";1;1;0;1;1;1;1;1;1;1
"escritura";1;1;0,831;1;0,518;1;0,151;1;1;1
"amor";1;1;1;1;1;1;0,004;1;0,216;1
"acercar";1;1;0;1;1;1;1;1;1;1
"sangre";1;1;1;1;0;1;1;1;1;1
"madre";1;1;0,024;1;1;1;1;1;1;1
"lázaro";1;1;0;1;1;1;1;1;1;1
"juzgar";1;1;1;1;1;1;0,107;1;0,056;1
"fariseos";1;1;0;1;1;1;1;1;1;1
"dos";1;1;0;1;1;1;1;1;1;1
"desierto";1;1;1;1;0;1;1;1;0,807;1
"cuenta";1;1;1;1;1;1;1;1;0,001;1
"condenar";1;1;1;1;1;1;1;1;0,005;1
"bueno";1;1;1;1;1;1;0;1;1;1
"beber";1;1;1;1;0;1;1;1;1;1
"andar";1;1;0;1;1;1;1;1;1;1
"acerca";1;1;1;1;1;1;0;1;0,807;1
"abrahán";1;1;1;1;1;1;1;1;0,019;1
"traer";1;1;1;0;1;1;0,714;1;1;1
"solo";1;1;0,965;1;1;1;0,623;1;0,827;1
"sacerdote";1;1;0;1;1;1;1;1;1;1
"puerta";1;1;0,062;1;1;1;0,004;1;1;1
"pez";1;1;0;1;1;1;1;1;1;1
"orilla";1;1;0,001;1;1;1;1;1;1;1
"mandamiento";1;1;1;1;1;0;0;1;1;1
"lago";1;1;0;1;1;1;1;1;1;1
"enseñar";1;1;0,062;1;1;1;1;1;1;1
"costado";1;1;0,24;0;1;1;1;1;1;1
"amigo";1;1;1;1;1;1;0,004;1;1;1
"abierto";1;1;1;1;1;1;1;1;0,01;1
"último";1;1;1;1;0;1;0,623;1;1;1
"voluntad";1;1;1;1;1;1;1;1;0,008;1
"vivo";1;1;1;1;0;1;1;1;1;1
"tres";1;1;0,003;1;1;1;1;1;1;1
"tomás";1;1;0;1;1;1;1;1;1;1
"sólo";1;1;0,13;1;1;1;1;1;1;1
"sábado";1;1;0,007;1;1;1;1;1;1;1
"suelo";1;1;0,001;1;1;1;1;1;1;1
"sacar";1;1;0,965;1;1;1;0,07;1;1;1
"resucitar";1;1;0,003;1;0,373;1;1;1;1;1
"red";1;1;0;1;1;1;1;1;1;1
"pueblo";1;1;0,965;1;0,373;1;1;1;0,827;1
"podar|poder";1;1;1;1;1;1;1;1;0,002;1
"oído";1;1;1;1;1;1;1;1;0,002;1
"nuevo";1;1;0,965;1;1;0;1;1;1;1
"nicodemo";1;1;0;1;1;1;1;1;1;1
"mandar";1;1;1;1;1;1;1;1;0,101;1
"ley";1;1;1;1;1;1;1;1;0,002;1
"fe";1;1;0,737;1;1;1;1;1;0,559;1
"erar|ser";1;1;0,436;1;1;1;0,002;1;1;1
"entender";1;1;1;1;1;1;1;1;0,019;1
"enfermo";1;1;0;1;1;1;1;1;1;1
"dar|distar";1;1;1;1;1;1;0,07;1;0,101;1
"culto";1;1;1;1;1;1;1;1;0,008;1
"creed";1;1;1;1;1;1;0;1;1;1
"conmigo";1;1;1;1;1;1;1;1;0,002;1
"cambio";1;1;1;1;1;1;0;1;1;1
"barca";1;1;0;1;1;1;1;1;1;1
"acudir";1;1;0,024;1;1;1;1;1;1;1
"vendar|vender";1;1;0,003;1;1;1;1;1;1;1
"suceder";1;1;1;1;1;1;1;1;0,031;1
"propio";1;1;1;1;1;1;1;1;0,035;1
"permanecer";1;1;1;1;1;1;0;1;1;1
"pascua";1;1;0,001;1;1;1;1;1;1;1
"natanael";1;1;0;1;1;1;1;1;1;1
"muerte";1;1;1;1;1;1;1;1;0,035;1
"matar";1;1;0,737;1;1;1;0,041;1;1;1
"marta";1;1;0;1;1;1;1;1;1;1
"llenar";1;1;0,007;1;1;1;1;0;1;1
"lado";1;1;1;1;1;1;1;1;0,179;1
"judas";1;1;0;1;1;1;1;1;1;1
"gracia";1;1;1;1;1;1;1;1;0,313;1
"elevar";1;1;1;1;1;1;1;1;0,031;1
"crear";1;1;1;1;1;1;1;1;0,035;0
"cosa";1;1;0,056;1;1;1;1;1;1;1
"correr";1;1;0,003;1;1;1;1;1;1;1
"cerca";1;1;0,018;1;1;1;1;1;1;1
"aparecer";1;1;0;1;1;1;1;1;1;1
"adonde";1;1;1;1;1;1;1;0;0,179;1
"acordar";1;1;0,056;1;1;1;1;1;1;1
"vuestros";1;1;1;1;0;1;1;1;1;0
"vi";1;1;0,001;1;1;1;1;1;1;1
"tiniebla";1;1;1;1;1;1;0;1;1;1
"testigo";1;1;1;1;1;1;0,02;1;0,313;1
"sentar";1;1;0,001;1;1;1;1;1;1;1
"sed";1;1;1;1;1;1;1;1;0,008;1
"santo";1;1;1;1;1;1;1;1;0,008;1
"salvar";1;1;1;1;1;1;0,42;1;0,313;1
"rey";1;1;0,5;1;1;1;1;1;0,85;1
"rabí";1;1;1;1;1;1;1;1;0,008;1
"quitar";1;1;1;1;1;1;1;0;1;0
"pensar";1;1;1;1;1;1;1;1;0,067;1
"pastor";1;1;1;1;1;1;0;1;1;1
"nunca";1;1;1;1;1;1;1;1;0,008;1
"noche";1;1;0,128;1;1;1;0,42;1;1;1
"muéstranos";1;1;1;1;1;1;1;1;0,008;1
"modo";1;1;1;1;0,002;1;1;1;0,313;1
"meter";1;1;0,582;0;1;1;1;1;1;1
"higuera";1;1;0,001;1;1;1;1;1;1;1
"guardará";1;1;1;1;1;1;0;1;1;1
"detrás";1;1;1;1;0,221;1;1;1;0,85;1
"debajo";1;1;0,001;1;1;1;1;1;1;1
"cinco";1;1;0,018;1;1;1;1;1;1;1
"bautizar";1;1;0,28;1;1;1;1;1;1;1
"bajo";1;1;1;1;0;1;1;1;1;1
"año";1;1;0,001;1;1;1;1;1;1;1
"alimento";1;1;1;1;0,082;1;1;1;0,247;1
"ahí";0;1;1;1;1;1;1;1;1;1
"aceptar";1;1;1;1;1;1;0,02;1;0,313;1
"sumos";1;1;0,003;1;1;1;1;1;1;1
"servir";1;1;1;1;0;1;1;1;1;1
"seis";1;1;0,003;1;1;1;1;1;1;1
"saltar";1;1;1;1;1;1;0,311;1;0,128;1
"resucitaré";1;1;1;1;0;1;1;1;1;1
"reino";1;1;1;1;1;1;1;1;0,016;1
"pescado";1;1;1;1;1;1;1;1;0,128;1
"perezca";1;1;1;1;1;1;1;1;0,016;1
"paz";1;1;1;1;1;1;1;1;0,061;1
"paloma";1;1;0,044;1;0,148;1;1;1;1;1
"mirar";1;1;0,28;1;1;1;1;1;1;1
"mesa";1;1;0,044;1;1;1;1;1;1;1
"mellizo";1;1;0,003;1;1;1;1;1;1;1
"marchar";1;1;0,003;1;1;1;1;1;1;1
"llorar";1;1;0,009;1;1;1;1;1;1;1
"juicio";1;1;1;1;1;1;0,311;1;0,128;1
"judea";1;1;0,003;1;1;1;1;1;1;1
"israel";1;1;1;1;1;1;1;1;0,016;1
"gritar";1;1;1;1;1;1;0,311;1;0,534;1
"glorificará";1;1;1;1;1;1;1;1;0,061;1
"existir";1;1;1;1;1;1;1;1;0,016;1
"empezar";1;1;0,003;1;1;1;1;1;1;1
"embargo";1;1;1;1;1;1;0,311;1;0,128;1
"elegir";1;1;1;1;0,032;1;1;1;0,476;1
"doce";1;1;0,044;1;1;1;0,311;1;1;1
"después";1;1;0,003;1;1;1;1;1;1;1
"delante";1;1;1;1;1;1;0,311;1;0,534;1
"dedo";1;1;1;0;1;1;1;1;1;1
"curar";1;1;0,28;1;1;1;1;1;1;1
"corazón";1;1;1;1;1;1;1;0;1;1
"convertir";1;1;1;1;1;1;1;0;1;1
"coma";1;1;1;1;0;1;1;1;1;1
"coger";1;1;0,003;1;1;1;1;1;1;1
"cerrado";1;1;0,003;1;1;1;1;1;1;1
"caná";1;1;0,003;1;1;1;1;1;1;1
"caminar";1;1;1;1;1;1;0;1;1;1
"cama";1;1;0,003;1;1;1;1;1;1;1
"caer";1;1;1;1;1;1;1;1;0,128;1
"cabeza";1;1;0,044;1;1;1;1;1;1;1
"buscar";1;1;0,044;1;1;1;1;1;1;1
"betania";1;1;0,003;1;1;1;1;1;1;1
"aún";1;1;0,88;1;1;1;1;1;0,534;1
"andrés";1;1;0,003;1;1;1;1;1;1;1
"améis";1;1;1;1;1;0;1;1;1;1
"acusar";1;1;1;1;1;1;0,002;1;1;1
"ángeles";1;1;1;1;1;1;1;1;0,247;1
"válido";1;1;1;1;1;1;1;1;0,031;1
"vista";1;1;0,009;1;1;1;1;1;1;1
"tristeza";1;1;1;1;1;1;1;0;1;1
"trabajo";1;1;1;1;1;1;1;1;0,031;1
"tiberíades";1;1;0,009;1;1;1;1;1;1;1
"tampoco";1;1;1;1;1;1;1;1;0,031;1
"significar";1;1;1;1;1;1;1;1;0,031;1
"semana";1;1;0,009;1;1;1;1;1;1;1
"sano";1;1;0,009;1;1;1;1;1;1;1
"resurrección";1;1;1;1;0;1;1;1;1;1
"realizar";1;1;1;1;1;1;0;1;1;1
"razón";1;1;1;1;1;1;1;1;0,247;0
"principio";1;1;1;1;1;1;1;1;0,031;1
"pobre";1;1;0,282;1;0,032;1;1;1;1;1
"piedra";1;1;0,009;1;1;1;1;1;1;1
"pidáis";1;1;1;1;1;1;1;1;0,031;1
"perfume";1;1;0,009;1;1;1;1;1;1;1
"perder";1;1;1;1;1;1;0;1;1;1
"pecador";1;1;1;1;1;1;1;1;0,031;1
"nazaret";1;1;1;1;1;1;0,002;1;0,878;1
"nación";1;1;1;1;1;1;1;1;0,247;1
"maná";1;1;1;1;0;1;1;1;1;1
"manifestar";1;1;1;1;1;1;1;1;0,247;1
"mando";1;1;1;1;1;0;0,002;1;1;1
"malo";1;1;1;1;1;1;0;1;1;1
"magdalena";1;1;0,009;1;1;1;1;1;1;1
"ladrón";1;1;1;1;1;1;0,002;1;1;1
"josé";1;1;1;1;1;1;1;1;0,247;1
"jordán";1;1;0,112;1;1;1;1;1;1;1
"jamás";1;1;0,582;1;1;1;1;1;0,878;1
"iscariote";1;1;0,009;1;1;1;1;1;1;1
"haz";1;1;1;1;0;1;0,201;1;1;1
"estado";1;1;0,009;1;1;1;1;1;1;1
"embarcar";1;1;0,009;1;1;1;1;1;1;1
"elías";1;0;1;1;1;1;1;1;1;1
"dichosos";1;1;1;1;1;1;1;1;0,031;1
"cumplir";1;1;1;1;1;1;0;1;1;1
"cuerpo";1;1;0,009;1;1;1;1;1;1;1
"cuatro";1;1;0,009;1;1;1;1;1;1;1
"comunicar";1;1;1;1;1;1;1;1;0,031;1
"comparación";1;1;1;1;1;1;1;1;0,031;1
"comida";1;1;1;1;0;1;1;1;1;1
"causa";1;1;1;1;1;1;0,201;1;0,878;1
"cambista";1;1;0,009;1;1;1;1;1;1;1
"cafarnaún";1;1;0,009;1;1;1;1;1;1;1
"buey";1;1;0,009;1;1;1;1;1;1;1
"bautizando";1;1;0,112;1;1;1;1;1;1;1
"bastar";1;1;1;1;0,082;1;1;1;0,247;1
"barro";1;1;0,009;1;1;1;1;1;1;1
"amo";1;1;1;1;1;1;1;1;0,031;1
"amará";1;1;1;1;1;1;0;1;1;1
"amanecer";1;1;0,009;1;1;1;1;1;1;1
"acabar";1;1;0,112;1;1;1;1;1;1;1
"abundante";1;1;1;1;1;1;1;1;0,247;1
"abrir";1;1;0,582;1;1;1;0,201;1;1;1
"viento";1;1;1;1;1;1;1;1;0,476;1
"viejo";1;1;0,282;1;1;1;1;1;1;1
"vid";1;1;1;1;1;1;1;1;0,061;1
"vender";1;1;0,023;1;1;1;1;1;1;1
"tiemble";1;1;1;1;1;1;1;0;1;1
"tercero";1;1;0,023;1;1;1;1;1;1;1
"tarde";1;1;0,282;1;1;1;1;1;1;1
"surgir";1;1;1;1;1;1;1;1;0,061;1
"sudario";1;1;0,023;1;1;1;1;1;1;1
"sorprender";1;1;1;1;1;1;1;1;0,476;1
"soplar";1;1;1;1;1;1;1;1;0,476;1
"siervo";1;1;1;1;1;1;1;1;0,061;1
"señal";1;1;1;0;1;1;1;1;1;1
"serpiente";1;1;1;1;1;1;1;1;0,061;1
"segundo";1;1;0,282;1;1;1;1;1;1;1
"sarmiento";1;1;1;1;1;1;1;1;0,476;1
"samaría";1;1;0,023;1;1;1;1;1;1;1
"samaritanos";1;1;0,282;1;1;1;1;1;1;1
"rogar";1;1;1;1;1;1;0,1;1;0,476;1
"retirar";1;1;0,023;1;1;1;1;1;1;1
"recordar";1;1;1;1;1;1;1;1;0,061;1
"recoger";1;1;0,023;1;1;1;1;1;1;1
"príncipe";1;1;1;1;1;1;1;1;0,061;1
"proceder";1;1;1;1;1;1;1;1;0,061;1
"presentar";1;1;0,023;1;1;1;1;1;1;1
"pregunta";1;1;0,282;1;1;1;1;0;1;1
"plenitud";1;1;1;1;1;1;1;0;1;1
"piscina";1;1;1;1;1;1;1;1;0,476;1
"pierna";1;1;0,023;1;1;1;1;1;1;1
"paráclito";1;1;1;1;1;1;1;1;0,061;1
"parte";1;1;1;1;1;1;0,1;1;1;1
"ocho";1;1;0,023;1;1;1;1;1;1;1
"necesitar";1;1;1;1;1;1;1;1;0,476;1
"monte";1;1;1;1;1;1;1;1;0,476;1
"miedo";1;1;0,282;1;1;1;1;1;1;1
"mal";1;1;1;1;0,032;1;0,1;1;1;1
"lugar";1;1;0,282;1;1;1;1;1;1;1
"linaje";1;1;1;1;1;1;1;1;0,061;1
"lavar";1;1;1;1;1;1;1;1;0,476;1
"juzgo";1;1;1;1;1;1;0,1;1;0,476;1
"jacob";1;1;0,282;1;1;1;1;1;1;1
"israelita";0;1;1;1;1;1;1;1;1;1
"intentar";1;1;1;1;1;0;1;1;0,476;1
"igual";1;1;1;1;1;1;0,1;1;1;1
"hambre";1;1;1;1;1;1;1;1;0,061;1
"habitar";1;1;1;1;0;1;1;1;1;1
"fariseo";1;1;0,282;1;1;1;1;1;1;1
"esclavo";1;1;1;1;1;1;1;1;0,476;0
"envío";1;1;1;1;1;1;1;1;0,061;1
"enterar";1;1;0,023;1;1;1;1;1;1;1
"engaño";0;1;1;1;1;1;1;1;1;1
"derecha";1;1;0,023;1;1;1;1;1;1;1
"cuándo";1;1;1;1;1;1;1;1;0,061;1
"conocierais";1;1;1;1;1;1;1;1;0,061;1
"conoceríais";1;1;1;1;1;1;1;1;0,061;1
"condena";1;1;1;1;0,032;1;1;1;1;0
"conceder";1;1;1;1;1;1;0,1;1;0,476;1
"comprender";1;1;1;1;1;1;1;1;0,476;1
"cien";1;1;0,023;1;1;1;1;1;1;1
"celebrar";1;1;0,023;1;1;1;1;1;1;1
"buscáis";1;1;1;1;1;1;1;1;0,061;1
"asomar";1;1;0,023;1;1;1;1;1;1;1
"aprender";1;1;1;1;1;1;1;1;0,061;1
"apodar";1;1;0,023;1;1;1;1;1;1;1
"anunciar";1;1;0,282;1;1;1;1;1;1;1
"además";1;1;1;1;1;1;0,1;1;0,476;1
"adelantar";1;1;0,023;1;1;1;1;1;1;1
"acaso";1;1;1;1;1;1;1;1;0,476;1
"*zein_Juan14-7-14";1;1;1;1;1;1;0,253;1;0,044;1
"*zein_Juan5-1-3a5-16";1;1;0;1;1;1;1;1;1;1
"*egutegia_SemanaDeCua";1;1;0,005;1;1;1;1;1;0,278;0,26
"*zein_Juan8-31-42";1;1;1;1;1;1;1;1;0,005;0,02
"*zein_Juan16-5-11";1;1;1;1;1;1;1;0,002;0,571;0
"*egutegia_SemanaDePas";1;1;1;1;0,875;0,005;0;0;0;1
"*zein_Juan6-44-51";1;1;1;1;0;1;1;1;1;1
"*zein_Juan17-11b-19";1;1;1;1;1;1;0,151;1;0,129;1
"*zein_Juan15-18-21";1;1;1;1;1;1;0,525;1;0,179;1
"*zein_Juan20-24-29";1;1;0,631;0;1;1;1;1;1;1
"*zein_Juan3-16-18";1;1;1;1;1;1;1;1;0,128;1
"*zein_Juan21-15-19";1;1;1;1;1;1;0,2;1;1;1
"*zein_Juan1-19-28";1;0;1;1;1;1;1;1;1;1
"*zein_Juan16-29-33";1;1;1;1;1;1;1;1;0,019;1
"*egutegia_SemanaSanta";1;1;0,017;1;0,761;1;1;1;1;1
"*zein_Juan6-16-21";1;1;0,003;1;1;1;1;1;1;1
"*zein_Juan14-6-14";1;1;1;1;1;1;0,367;1;0,014;1
"*zein_Juan7-40-53";1;1;0,898;0,002;1;1;1;1;0,576;1
"*zein_Juan11-1-45";1;1;0;1;0,406;1;1;1;1;1
"*zein_Juan15-26-16-4a";1;1;1;1;1;1;1;1;0,035;1
"*egutegia_SemanaDelTi";0,002;1;0,535;0,019;0;1;1;1;1;1
"*zein_Juan1-35-42";1;1;0,015;1;1;1;1;1;1;1
"*zein_Juan6-30-35";1;1;1;1;0;1;1;1;1;1
"*zein_Juan6-35-40";1;1;1;1;0,373;1;1;1;0,101;1
"*zein_Juan12-44-50";1;1;1;1;1;1;0,004;1;0,216;1
"*zein_Juan6-1-15";1;1;0;1;0,359;1;1;1;1;1
"*zein_Juan3-5a7b-15";1;1;1;1;1;0;1;1;0,101;1
"*zein_Juan21-1-19";1;1;0;1;1;1;1;1;1;1
"*zein_Juan14-21-26";1;1;1;1;1;1;0,004;1;1;1
"*zein_Juan21-1-14";1;1;0;1;1;1;1;1;1;1
"*zein_Juan3-1-8";1;1;1;1;0,586;0,001;1;1;0,243;1
"*zein_Juan8-51-59";1;1;1;1;1;1;1;1;0,264;1
"*zein_Juan13-31-33a34-35";1;1;1;1;1;0;1;1;0,179;1
"*zein_Juan6-41-51";1;1;1;1;0;1;1;1;1;1
"*zein_Juan1-29-34";1;1;1;1;0,297;1;1;1;0,559;0
"*zein_Juan4-5-42";1;1;1;0,2;1;1;1;1;0,018;1
"*zein_Juan16-23b-28";1;1;1;1;1;1;1;0;0,179;1
"*zein_Juan4-43-54";1;1;0,269;1;0,88;1;1;1;1;1
"*zein_Juan6-22-29";1;1;0,831;1;1;1;1;1;0,378;1
"*zein_Juan20-11-18";1;1;0,013;1;1;1;1;1;1;1
"*zein_Juan5-31-47";1;1;1;1;1;1;0,603;1;0,001;1
"*zein_Juan14-1-6";1;1;1;1;1;1;0,623;1;0,101;1
"*zein_Juan19-25-27";1;1;0,044;1;1;1;1;1;1;1
"*zein_Juan15-1-8";1;1;1;1;1;1;0,877;1;0,076;1
"*zein_Juan3-31-36";1;1;1;1;1;1;1;1;0,005;1
"*zein_Juan6-51-58";1;1;1;1;0;1;1;1;1;1
"*zein_Juan3-16-21";1;1;1;1;1;1;0,002;1;0,827;1
"*zein_Juan10-27-30";1;1;1;1;0,082;1;0,201;1;0,878;1
"*zein_Juan3-13-17";1;1;1;1;1;1;1;1;0,128;1
"*zein_Juan16-20-23a";1;1;1;1;1;1;1;0;1;1
"*egutegia_SemanaDeNav";1;1;0,219;1;1;1;0,877;0,005;1;1
"*zein_Juan17-20-26";1;1;1;1;1;1;1;1;0,019;1
"*zein_Juan5-17-30";1;1;1;1;0,929;1;1;1;0,042;1
"*zein_Juan8-12-20";1;1;1;1;1;1;0,877;1;0,243;1
"*zein_Juan10-11-18";1;1;1;1;1;1;0;1;1;1
"*zein_Juan17-1-11a";1;1;1;1;1;1;1;1;0,005;1
"*zein_Juan1-45-51";0;1;0,631;1;1;1;0,714;1;1;1
"*zein_Juan1-6-819-28";1;0;1;1;1;1;0,877;1;1;1
"*zein_Juan7-1-21025-30";1;1;0,219;1;1;1;1;1;1;1
"*zein_Juan11-45-57";1;1;0,06;1;1;1;1;1;1;1
"*zein_Juan20-19-31";1;1;0,096;0;1;1;1;1;1;0,031
"*zein_Juan12-1-11";1;1;0,002;1;0,586;1;0,877;1;1;1
"*zein_Juan21-20-25";1;1;0,024;1;1;1;1;1;1;1
"*zein_Juan13-16-20";1;1;1;1;0,373;1;1;1;0,352;1
"*zein_Juan8-1-11";1;1;0;1;1;1;1;1;1;1
"*zein_Juan19-31-37";1;1;0,128;1;1;1;0,42;1;1;1
"*zein_Juan6-52-59";1;1;1;1;0;1;1;1;1;1
"*egutegia_FinDelTiemp";1;1;0,024;1;1;1;1;1;1;0
"*zein_Juan10-1-10";1;1;1;1;1;1;0;1;1;1
"*egutegia_OctavaDePas";1;1;0;1;1;1;1;1;1;1
"*zein_Juan1-1-18";1;1;1;1;1;1;0;1;0,05;1
"*zein_Juan1-43-51";0;1;0,119;1;1;1;0,949;1;1;1
"*egutegia_NavidadYOct";1;1;1;1;1;1;0,005;1;0,834;1
"*zein_Juan10-31-42";1;1;0,723;1;1;0,001;0,253;1;1;1
"*zein_Juan2-1-11";1;1;0,062;1;1;1;0,309;1;1;1
"*egutegia_TiempoDeNav";0,005;0;0,104;1;1;1;1;1;1;0,271
"*zein_Juan20-19-23";1;1;0,024;1;1;1;1;1;1;0
"*zein_Juan10-22-30";1;1;1;1;0,447;1;0,107;1;1;1
"*zein_Juan3-14-21";1;1;1;1;1;1;0,004;1;0,571;1
"*zein_Juan13-1-17";1;1;0,496;1;1;1;1;1;0,421;1
"*zein_Juan8-21-30";1;1;1;1;1;1;1;1;0,152;0
"*zein_Juan1-47-51";0;1;0,5;1;1;1;1;1;1;1
"*zein_Juan15-9-11";1;1;1;1;1;1;0,201;0;1;1
"*zein_Juan15-9-17";1;1;1;1;1;0;0,026;0,008;1;1
"*zein_Juan2-13-25";1;1;0;1;1;1;1;1;1;1
"*zein_Juan2-13-22";1;1;0;1;1;1;1;1;1;1
"*ebanjelaria_Juan";1;1;1;1;1;1;1;1;1;1
"*zein_Juan16-12-15";1;1;1;1;1;1;1;1;0,067;1
"*zein_Juan20-1-9";1;1;0;1;1;1;1;1;1;1
"*zein_Juan13-21-3336-38";1;1;0,496;1;0,28;1;1;1;1;1
"*zein_Juan12-20-33";1;1;1;1;1;1;0,348;1;0,872;1
"*zein_Juan3-22-30";1;1;0,219;1;1;1;0,877;0,005;1;1
"*zein_Juan14-15-21";1;1;1;1;1;1;0;1;1;1
"*zein_Juan6-24-35";1;1;1;1;0;1;1;1;0,407;1
"*zein_Juan16-16-20";1;1;1;1;1;1;1;0,002;0,216;1
"*zein_Juan14-27-31a";1;1;1;1;1;1;1;0,001;0,101;1
"*zein_Juan12-24-26";1;1;1;1;0,221;1;0,42;1;1;1
"*zein_Juan15-12-17";1;1;1;1;1;0;0,714;1;0,571;1
"*zein_Juan14-1-12";1;1;1;1;1;1;0,194;0,052;0,015;1
"*zein_Juan18-33-37";1;1;1;1;1;1;0,877;1;0,575;1
"*zein_Juan9-1-41";1;1;0,534;1;1;1;1;1;0,255;0,022
"*zein_Juan6-60-69";1;1;1;1;0,713;1;1;1;0,264;1
"*zein_Juan20-2-8";1;1;0;1;1;1;1;1;1;1
"*zein_Juan14-23-29";1;1;1;1;1;1;0,2;0,005;0,243;1
"*egutegia_SemanaDeAdv";1;0;1;1;1;1;0,877;1;1;1
