"";"classe 1";"classe 2"
"decir";0;1
"jesús";0;1
"os";1;0
"tiempo";0;1
"ver";1;0,851
"dar";1;0
"padre";1;0
"hijo";1;0
"discípulo";0;1
"hacer";1;0
"dios";1;0
"hombre";1;0
"ir";1;0
"señor";1;0
"venir";1;0
"cielo";1;0
"uno";1;0
"poner";0;1
"más";1;0
"gente";0;1
"casa";0,241;1
"reino";1;0
"día";1;0,644
"llegar";0;1
"querer";1;0
"echar";0,798;1
"mucho";0,035;1
"quedar";1;0,509
"saber";1;0
"hermano";0,767;1
"llamar";0,001;1
"mundo";1;0
"hablar";0,296;1
"vida";1;0
"juan";0;1
"palabra";1;0,182
"mismo";1;0
"dos";0,715;1
"comer";1;0,045
"dejar";1;0
"acercar";0;1
"seguir";1;0,625
"oír";0,005;1
"salir";0,002;1
"tierra";1;0
"entrar";0;1
"así";1;0
"enviar";1;0
"nadie";1;0
"mujer";1;0,009
"preguntar";0;1
"volver";1;0,993
"mano";1;0,162
"encontrar";1;0,613
"profeta";1;0
"pueblo";1;0,999
"llevar";0,025;1
"espíritu";1;0,005
"pan";1;0,083
"ya";1;0,001
"mandar";0,034;1
"primero";1;0,196
"camino";0,184;1
"asegurar";1;0
"grande";1;0
"vuestro";1;0
"madre";1;0,555
"recibir";1;0
"nombre";1;0
"ojo";1;0,533
"niño";0,133;1
"allí";0,001;1
"pasar";0,001;1
"conocer";1;0
"bueno";1;0
"jerusalén";0;1
"pie";0,001;1
"fariseos";0;1
"crear|creer";1;0
"pedro";0;1
"caer";1;0,034
"maestro";1;0,002
"ahora";1;0
"pedir";1;0,382
"mirar";1;0,049
"judío";0;1
"escuchar";1;0
"escribir";1;0
"levantar";0,004;1
"entregar";1;0,109
"cumplir";1;0,001
"vez";0,002;1
"tomar";0;1
"muerto";1;0,008
"enseñar";0;1
"cómo";1;0,004
"subir";0;1
"simón";0;1
"morir";1;0,001
"mis";1;0
"templo";0,004;1
"tanto";1;0,56
"solo";1;0,859
"parecer";1;0
"hecho";1;0,298
"demonio";1;0,177
"curar";0,89;1
"beber";1;0
"agua";1;0,831
"santo";1;0
"galilea";0;1
"perder";1;0
"pensar";1;0,11
"oído";1;0
"luz";1;0
"letrado";0;1
"creer";1;0,021
"aquí";1;0
"testimonio";1;0,008
"pagar";1;0
"moisés";1;0,234
"maría";0;1
"barca";0;1
"rey";0,751;1
"fruto";1;0
"después";0,025;1
"ciego";0,683;1
"sacerdote";0;1
"obra";1;0
"corazón";1;0
"ciudad";0;1
"andar";0,02;1
"vino";1;0,13
"matar";1;0,005
"hora";1;0
"tus";1;0,002
"sábado";0;1
"sentar";0;1
"sembrar";0,659;1
"pecado";1;0
"marchar";0;1
"dónde";1;0,006
"vivir";1;0
"tres";1;0,031
"gloria";1;0
"bajar";0,323;1
"amigo";1;0
"amar";1;0
"enfermo";1;0,18
"oveja";1;0,004
"medio";0,888;1
"israel";1;0
"fe";1;0,001
"doce";0;1
"amo";1;0
"verdad";1;0,002
"tocar";0,168;1
"mesías";1;0,252
"criar";1;0,038
"último";1;0,001
"vuestra";1;0
"ley";1;0,252
"lago";0;1
"eterno";1;0
"cosa";1;0,018
"coger";0;1
"vuestros";1;0
"resucitar";0,033;1
"perdonar";1;0,001
"nuevo";1;0,996
"malo";1;0,018
"junto";0;1
"herodes";0;1
"empezar";0,004;1
"cerca";1;0,034
"buscar";1;0,047
"voz";1;0,7
"signo";1;0,005
"paz";1;0,001
"acabar";0,45;1
"sólo";1;0,01
"suceder";1;0,002
"servir";1;0,005
"quitar";1;0,019
"noche";0,159;1
"gracia";1;0,582
"entender";1;0,124
"conmigo";1;0
"cinco";1;0,419
"alegría";1;0,012
"ángeles";1;0,001
"sinagoga";0;1
"siempre";1;0,002
"presentar";0;1
"piedra";0,238;1
"david";1;0,003
"abrir";1;0,182
"justo";1;0,003
"josé";0,721;1
"guardar";1;0
"elías";1;0,015
"dichosos";1;0
"cabeza";1;0,102
"sacar";1;0,216
"pecador";1;0,064
"nacer";1;0,009
"miedo";0;1
"gritar";0,372;1
"delante";0,935;1
"año";1;0,466
"abrahán";1;0,001
"siete";0,537;1
"salvar";1;0
"poco";1;0,568
"orilla";0;1
"carne";1;0,001
"cambio";1;0,029
"ay";1;0,029
"vengar|venir";1;0,001
"sumos";0;1
"monte";0;1
"campo";1;0,028
"aparecer";0;1
"aldea";0;1
"ése";1;0,036
"pez";0,001;1
"meter";0,992;1
"id";1;0,096
"hambre";1;0,012
"rico";1;0,045
"pobre";1;0,057
"mandamiento";1;0,001
"erar|ser";1;0,368
"traer";1;0,31
"sepulcro";0,001;1
"santiago";0;1
"momento";1;0,057
"cama";0;1
"anunciar";1;0,176
"alto";0,537;1
"parábola";0;1
"judea";0;1
"generación";1;0,004
"vivo";1;0,003
"viento";0,429;1
"todavía";0,28;1
"sitio";0,028;1
"sano";1;0,017
"preparar";1;0,436
"mesa";0,013;1
"manto";0,001;1
"felipe";0;1
"escritura";1;0,109
"entero";1;0,109
"enemigo";1;0,006
"dinero";1;0,047
"derecha";1;0,088
"autoridad";0,001;1
"viuda|viudo";1;0,002
"valer";1;0,002
"juzgar";1;0,008
"fuego";1;0,011
"enterar";0;1
"desierto";1;0,259
"convertir";1;0,259
"casar";1;0,109
"acudir";0;1
"sangre";1;0,022
"reunir";0,782;1
"red";0,055;1
"puerta";0,106;1
"parábolas";0;1
"muerte";0,65;1
"merecer";1;0,013
"esconder";1;0,254
"emplear";1;0,005
"cuerpo";1;0,047
"cuenta";1;0,013
"crecer";1;0,615
"correr";0;1
"viña";1;0,005
"satanás";1;0,006
"saber|ser";1;0,004
"pregunta";1;0,702
"parte";0,087;1
"montaña";0;1
"labrador";1;0,006
"jacob";1;0,01
"cárcel";0,906;1
"criado";1;0,006
"contar";0;1
"único";1;0,005
"vista";1;0,206
"pequeño";1;0,01
"orar";0;1
"nazaret";0;1
"luego";1;0,022
"llenar";1;0,206
"jefe";0,782;1
"hipócrita";1;0,022
"embargo";1;0,005
"despedir";0;1
"compañero";0,782;1
"bautista";1;0,453
"banquete";0,192;1
"tuyo";1;0,013
"permitir";1;0,028
"pastor";1;0,254
"modo";1;0,254
"menos";1;0,046
"lleno";0,33;1
"fuerza";0,33;1
"fiesta";0;1
"evangelio";1;0,933
"engendró";1;0,047
"dueño";1;0,191
"condenar";1;0,095
"causa";1;0,095
"bautizar";0,415;1
"ama";1;0,036
"significar";1;0,187
"sed";1;0,008
"recoger";0,415;1
"noticiar";0,087;1
"milagro";1;0,642
"ir|ver|vetar";1;0,312
"hoy";1;0,046
"haz";1;0,008
"divorciar";1;0,013
"detrás";0,661;1
"cien";1;0,687
"apenas";0,014;1
"adulterio";1;0,013
"voluntad";1;0,017
"tampoco";1;0,028
"pascua";0,001;1
"partir";0;1
"nunca";1;0,013
"mil";1;0,687
"lázaro";0,168;1
"lavar";1;0,568
"judas";0;1
"isaías";1;0,01
"isabel";1;0,046
"importante";1;0,209
"imponer";0,168;1
"cuándo";1;0,059
"comprar";1;0,059
"cafarnaún";0;1
"atar";0,821;1
"alma";1;0,01
"ahí";1;0,017
"acoger";1;0,062
"árbol";1;0,081
"tratar";1;0,885
"sol";1;0,125
"sinagogas";0;1
"sentar|sentir";1;0,059
"sentado";0;1
"segundo";1;0,468
"resurrección";1;0,468
"país";0,973;1
"negar";1;0,191
"necesitar";1;0,191
"lugar";0,308;1
"lejos";1;0,059
"lado";0,308;1
"higuera";0,821;1
"esposo";1;0,022
"esperar";1;0,191
"digno";1;0,013
"diente";1;0,187
"dichoso";1;0,013
"cubrir";0;1
"compasión";1;0,022
"apóstol";0;1
"ángel";0;1
"vientre";1;0,028
"vestido";1;0,568
"verdadero";1;0,028
"vendar|vender";1;0,38
"tercero";0,014;1
"talento";1;0,028
"suelo";0,275;1
"siervo";1;0,017
"secreto";1;0,097
"pariente";1;0,075
"paralítico";0,138;1
"nube";0,041;1
"novio";1;0,106
"ningún";1;0,017
"multitud";0;1
"mar";1;0,125
"mal";1;0,017
"limpio";1;0,022
"leer";1;0,075
"grano";0,91;1
"glorificado";1;0,028
"gentío";0;1
"crear";1;0,075
"comparación";0;1
"caso";1;0,022
"boca";1;0,022
"bastar";1;0,017
"amor";1;0,028
"acompañar";0,138;1
"acerca";1;0,075
"tradición";1;0,028
"tirar";1;0,022
"tiniebla";1;0,037
"terminar";0;1
"tarde";0,001;1
"sidón";0,001;1
"sabiduría";1;0,022
"publicanos";0,821;1
"propio";1;0,097
"pronunciar";0;1
"podar|poder";1;0,022
"padecer";0,138;1
"ofrendar";0,295;1
"mañana";1;0,047
"llorar";0,016;1
"leproso";1;0,687
"ladrón";1;0,022
"justicia";1;0,028
"inmediatamente";1;0,687
"esclavo";1;0,022
"enfermedad";0;1
"culto";1;0,161
"cuidado";1;0,687
"contestar";0,295;1
"comprender";1;0,687
"comarca";0;1
"caminar";0,821;1
"borde";0,149;1
"aparte";0;1
"andrés";0;1
"adonde";1;0,097
"acordar";0,821;1
"zebedeo";0;1
"zacarías";1;0,125
"vender";1;0,125
"vecino";0,664;1
"tomás";0;1
"sueño";0,002;1
"serpiente";1;0,028
"revelar";1;0,028
"retirar";0;1
"reconocer";0,08;1
"pájaro";1;0,14
"prójimo";1;0,028
"plaza";1;0,825
"ofrecer";0,002;1
"obrero";1;0,253
"misericordia";1;0,028
"medida";1;0,081
"marta";0,001;1
"lástima";0,08;1
"jurar";1;0,106
"juez";1;0,062
"joven";1;0,028
"jordán";0;1
"jonás";1;0,047
"izquierda";1;0,028
"grupo";0;1
"fiel";1;0,161
"fariseo";0,016;1
"falta";1;0,081
"explicar";0;1
"entréis";1;0,125
"discutir";0,275;1
"diablo";0,357;1
"dedo";1;0,028
"debajo";0,506;1
"cuatro";0,664;1
"cruz";1;0,825
"creed";1;0,047
"convidados";0,275;1
"cerrado";0,275;1
"aceptar";1;0,047
"viejo";1;0,037
"tiro";0;1
"tesoro";1;0,037
"seis";1;0,981
"salomón";1;0,466
"responder";0,048;1
"repartir";1;0,161
"región";0;1
"recorrer";0;1
"prueba";0,041;1
"principio";1;0,037
"principal";0,041;1
"parar";0,176;1
"paloma";1;0,161
"odres";1;0,106
"nación";1;0,037
"mando";1;0,161
"lámpara";1;0,355
"libro";1;0,981
"juicio";1;0,981
"isaac";1;0,062
"ir|ser";1;0,062
"intentar";1;0,161
"igual";1;0,037
"guerra";1;0,037
"ganar";1;0,037
"final";1;0,037
"extender";0;1
"expulsar";0,041;1
"dormir";1;0,062
"comida";1;0,037
"boda";1;0,476
"betania";0;1
"bendito";1;0,062
"atravesar";0;1
"antiguo";1;0,037
"altar";1;0,466
"abismo";1;0,037
"abierto";1;0,037
"viga";1;0,106
"trono";1;0,047
"testigo";1;0,047
"temer";1;0,209
"tan";1;0,272
"sentir";0,1;1
"saltar";1;0,047
"sal";1;0,209
"pronto";1;0,209
"proclamar";0,357;1
"nueve";1;0,047
"mota";1;0,106
"inmundo";0,1;1
"grito";0,845;1
"fuerte";1;0,047
"frente";1;0,047
"familia";1;0,047
"encargar";1;0,272
"elegir";1;0,081
"disponer";1;0,062
"costado";1;0,596
"cosecha";1;0,14
"construir";1;0,062
"ciento";0,295;1
"cerdo";1;0,355
"cara";0,018;1
"borrico";0;1
"bendecir";1;0,596
"bautismo";1;0,209
"abundante";1;0,816
"vela";1;0,062
"usar";1;0,187
"trabajar";1;0,062
"servidor";1;0,062
"salar";1;0,106
"sabed";1;0,062
"razón";1;0,081
"pescador";0,226;1
"ocurrir";1;0,272
"ocasión";0,226;1
"nicodemo";0;1
"montar";0;1
"mes";1;0,062
"lícito";0,226;1
"llevadero";1;0,742
"limosna";0,659;1
"lengua";1;0,272
"jesucristo";1;0,062
"iscariote";0;1
"invitar";0;1
"inmundos";0,659;1
"injusto";1;0,062
"impuro";1;0,062
"honrar";1;0,187
"honra";1;0,081
"herodías";0,048;1
"fijo";0,659;1
"falso";1;0,062
"escriba";0,048;1
"enterrar";0,226;1
"endemoniado";0;1
"dirigir";0;1
"desatar";1;0,272
"dar|distar";1;0,062
"copa";0,123;1
"contigo";1;0,742
"cometer";1;0,062
"comenzar";0,226;1
"celestial";1;0,062
"capaz";1;0,062
"brazo";1;0,272
"belzebú";1;0,062
"asustar";0;1
"anciano";0,006;1
"alimento";1;0,106
"aguardar";1;0,062
"administrador";1;0,062
"además";1;0,062
"acción";0;1
"vuestras";1;0,081
"viaje";1;0,081
"suegro";0,053;1
"soldado";1;0,081
"siguiente";0,016;1
"señal";1;0,081
"separar";1;0,466
"senador";0;1
"saludar";1;0,355
"rodear";1;0,355
"proponer";0;1
"producir";1;0,081
"proceder";1;0,919
"permanecer";1;0,081
"perfume";0,001;1
"pegar";1;0,081
"oro";0,149;1
"orden";1;0,355
"oprimir";1;0,081
"natanael";0;1
"mudo";0,873;1
"moneda";1;0,919
"mirada";0;1
"menudo";0,009;1
"lobo";1;0,081
"llamada";0;1
"libertad";1;0,081
"jamás";1;0,081
"infierno";0,471;1
"increpó";0;1
"guardia";0,873;1
"fin";1;0,253
"fiebre";0,001;1
"exponer";0,001;1
"estrella";1;0,355
"estado";1;0,081
"encuentro";0,471;1
"empujar";0,123;1
"elevar";1;0,187
"egipto";0,001;1
"echarán";1;0,081
"denarios";1;0,081
"darás";1;0,081
"culpar";1;0,081
"cuarto";1;0,081
"criatura";1;0,081
"creedme";1;0,081
"creación";1;0,081
"cordero";1;0,919
"contrario";1;0,081
"conceder";1;0,081
"comunicar";1;0,355
"coma";1;0,081
"colmar";1;0,081
"claro";1;0,081
"cena";0,471;1
"cargar";1;0,081
"buey";1;0,081
"blanco";1;0,081
"ayunar";0,873;1
"atrever";1;0,919
"asombrar";0,123;1
"amará";1;0,081
"amanecer";0,018;1
"alegrar";1;0,081
"agarrar";0,123;1
"adelante";0,018;1
"acusar";0,295;1
"acaso";1;0,615
"visitar";1;0,466
"vid";1;0,106
"vi";0,295;1
"vaso";1;0,106
"unir";1;0,106
"triste";1;0,106
"trabajo";1;0,106
"territorio";0,295;1
"subsistir";1;0,106
"sorprender";1;0,466
"soler";0,005;1
"sodoma";1;0,106
"sobras";0,005;1
"simeón";1;0,106
"semana";0;1
"samaría";0,053;1
"salar|salir";1;0,106
"romper";1;0,187
"rogar";1;0,466
"robar";1;0,816
"resultar";1;0,106
"replicar";0,873;1
"referir";0;1
"recompensa";1;0,106
"rabí";1;0,466
"puesto";0,005;1
"proclamad";1;0,106
"potestad";1;0,106
"pidáis";1;0,106
"pescado";1;0,466
"perro";1;0,466
"pasear";0;1
"oráculo";1;0,106
"oración";1;0,106
"onza";1;0,106
"olivo";0;1
"ocho";0,295;1
"necio";1;0,106
"nacimiento";1;0,466
"médico";1;0,106
"muéstranos";1;0,106
"manera";0,295;1
"mago";0,001;1
"magdalena";0;1
"levantándose";0,005;1
"largo";1;0,106
"labio";1;0,106
"judá";0,873;1
"insistir";0,873;1
"impidáis";0,295;1
"hueso";1;0,106
"habitar";1;0,106
"guardará";1;0,106
"gratis";1;0,253
"gorrión";0,295;1
"gobernador";1;0,466
"gentiles";0,638;1
"fácil";1;0,106
"fijar";1;0,466
"fama";0;1
"faltar";1;0,466
"exigir";1;0,106
"espiga";0,005;1
"embarcar";0;1
"ejecutar";0;1
"deuda|deudo";1;0,106
"desnudo";0,873;1
"des";0,873;1
"derramar";1;0,106
"derecho";1;0,106
"dañar";1;0,187
"césar";1;0,187
"cáliz";1;0,106
"curando";0,053;1
"cumplirse";1;0,466
"cristo";1;0,106
"costumbre";0;1
"contento";1;0,466
"consuelo";1;0,106
"consagrar";1;0,106
"comparecer";1;0,106
"comensal";0,005;1
"clase";1;0,466
"civil";1;0,106
"calle";0,005;1
"betsaida";0;1
"bendición";0;1
"bandido";1;0,106
"bandeja";1;0,106
"aún";0,873;1
"avisar";1;0,615
"apagar";1;0,187
"alegre";1;0,106
"adelantar";0;1
"acuerdo";0,295;1
"abandonar";1;0,106
"abajo";1;0,816
"vosotras";0,002;1
"volviéndose";0,001;1
"virrey";0,009;1
"vestir";1;0,14
"vacío";0,638;1
"tuyos";1;0,615
"tribunal";1;0,14
"tardar";1;0,14
"surgir";1;0,14
"sufrir";1;0,14
"sordo";1;0,14
"someter";1;0,14
"seña";1;0,615
"sencillo";1;0,14
"semejante";1;0,14
"salvador";1;0,14
"salvación";1;0,14
"saludo";1;0,615
"saciados";1;0,14
"rostro";1;0,14
"rogaban";0,001;1
"rogaba";0,149;1
"roca";1;0,253
"resucite";1;0,14
"resucitaré";1;0,14
"repudio";1;0,14
"regañaban";0,016;1
"recibo";1;0,14
"rechazar";1;0,253
"recaudadores";0,149;1
"realizar";1;0,14
"quedarás";0,638;1
"purificación";0,001;1
"punto";1;0,187
"príncipe";1;0,14
"práctica";1;0,14
"propósito";1;0,14
"profundo";0,392;1
"probar";1;0,14
"presente";1;0,615
"presencia";0,149;1
"prender";0,016;1
"predilecto";1;0,14
"predicar";0,016;1
"precepto";1;0,14
"postraron";0,016;1
"pondrás";1;0,14
"polvo";1;0,14
"poderoso";1;0,14
"pleno";1;0,14
"plenitud";1;0,14
"pleito";1;0,253
"plantar";1;0,187
"perezca";1;0,14
"perdón";1;0,14
"paso";0,149;1
"par";1;0,14
"paganos";1;0,14
"once";0,001;1
"ofender";1;0,14
"ocupar";1;0,187
"notar";0,016;1
"necesidad";1;0,14
"nazareno";1;0,615
"muchedumbre";0,001;1
"muchacho";1;0,14
"motivo";0,016;1
"mellizo";0,001;1
"mateo";0,001;1
"matarás";1;0,14
"marido";1;0,187
"manifestar";1;0,615
"malvados";1;0,253
"madrugada";0,149;1
"lisiado";0,016;1
"libre";0,91;1
"levadura";0,638;1
"jornalero";1;0,615
"interior";1;0,14
"insultar";1;0,14
"instrucción";0,001;1
"indignar";0,638;1
"importar";1;0,14
"impedir";1;0,14
"humilde";1;0,14
"huir";0,016;1
"habitante";1;0,253
"gustar";0,016;1
"glorificará";1;0,253
"furioso";0,016;1
"forastero";1;0,14
"favor";1;0,253
"fantasma";0,016;1
"existir";1;0,14
"espada";1;0,14
"escoger";1;0,615
"escandalizar";1;0,14
"envío";1;0,14
"enseñanza";0,016;1
"enrollar";0,001;1
"encender";1;0,14
"edificó";1;0,14
"dolencia";0,001;1
"devolver";0,149;1
"destruir";1;0,14
"despreciar";1;0,14
"despoblado";0,149;1
"desembarcar";0,016;1
"desechar";0,016;1
"descubrir";0,016;1
"descendencia";1;0,14
"descansar";1;0,14
"denario";1;0,14
"decidir";1;0,615
"daño";1;0,14
"cuidar";1;0,14
"cuello";0,638;1
"correa";1;0,253
"convidó";1;0,14
"condena";1;0,14
"cometerás";1;0,14
"cesto";0,149;1
"celebrar";0,016;1
"carga";1;0,14
"caná";0,001;1
"camello";1;0,14
"cambista";0,149;1
"cadáver";0,001;1
"cabello";0,149;1
"boquete";1;0,615
"belén";0,149;1
"azotea";1;0,615
"ayunan";0,001;1
"ayudar";0,016;1
"asunto";1;0,615
"arca";1;0,615
"angustia";1;0,14
"améis";1;0,14
"amáis";1;0,14
"alejar";0,001;1
"alcanzar";0,016;1
"agarrándolo";1;0,14
"acta";1;0,14
"abías";0,91;1
"ésa";1;0,187
"ánimo";0,002;1
"zebedeos";0,002;1
"yugo";1;0,187
"válido";1;0,187
"tropezar";1;0,187
"tristeza";1;0,187
"tribu";1;0,187
"torpe";1;0,187
"tiranizan";1;0,187
"tienda";1;0,253
"tiberíades";0,002;1
"ternero";1;0,187
"tentación";1;0,187
"tema";1;0,187
"sácatelo";1;0,187
"sur";1;0,187
"suponed";1;0,187
"sumo";1;0,187
"soplar";1;0,187
"soltar";1;0,816
"sobrar";1;0,187
"sirvieran";0,002;1
"sirio";1;0,187
"siervos";1;0,187
"servicio";1;0,187
"seno";1;0,187
"seguro";1;0,816
"santuario";1;0,816
"salario";1;0,187
"saduceos";0,002;1
"sabio";1;0,187
"rodilla";0,002;1
"robo";1;0,816
"rezar";0,171;1
"respuesta";1;0,187
"rescatar";1;0,187
"recordar";1;0,187
"real";1;0,187
"prohibir";1;0,187
"procesar";1;0,187
"practicar";1;0,187
"postró";0,002;1
"poseer";1;0,187
"plata";0,392;1
"pilato";0,002;1
"pieza";1;0,187
"perseguirán";1;0,187
"perseguir";1;0,187
"pelo";1;0,187
"pedid";1;0,187
"pedazo";1;0,187
"pecho";0,392;1
"paciencia";1;0,187
"oscuro";1;0,816
"orientar";1;0,816
"ordenar";1;0,187
"ola";1;0,187
"odiarán";1;0,187
"odiar";1;0,187
"nuera";0,91;1
"noé";1;0,253
"necesario";1;0,187
"mostrar";1;0,253
"mitad";1;0,816
"miembro";1;0,187
"mente";1;0,187
"medianoche";1;0,187
"maná";1;0,187
"llegada";0,002;1
"llave";1;0,187
"juntar";0,052;1
"jericó";0,052;1
"jeremías";1;0,187
"israelita";1;0,187
"intención";0,052;1
"indignaron";0,392;1
"increparlo";0,002;1
"incienso";0,002;1
"impuras";0,392;1
"imposible";1;0,187
"hoyo";1;0,187
"honor";0,002;1
"hierba";0,009;1
"herencia";1;0,187
"hacerse";1;0,187
"guía";1;0,187
"futuro";1;0,187
"formar";0,002;1
"filipo";0,002;1
"establecer";0,002;1
"escuchad";1;0,253
"entráis";1;0,187
"entraréis";1;0,187
"enfrente";0,002;1
"ejemplo";0,392;1
"duda";1;0,187
"dividir";1;0,187
"difícil";1;0,187
"desposada";1;0,816
"despertar";0,002;1
"desearon";1;0,187
"darle";1;0,187
"córtatela";1;0,187
"corresponder";1;0,187
"conviden";1;0,187
"convertirse";1;0,187
"conversión";1;0,187
"conservar";1;0,187
"confiar";1;0,187
"confianza";1;0,187
"condenen";1;0,187
"concederlo";1;0,187
"comprended";1;0,187
"colocar";0,002;1
"cojos";0,052;1
"cobrar";1;0,816
"centurión";0,392;1
"cavó";1;0,187
"cautivo";1;0,187
"castigo";1;0,187
"calma";0,392;1
"blasfemia";1;0,187
"bebida";1;0,187
"bautizará";1;0,187
"bautizando";0,002;1
"barro";0,052;1
"añadir";0,392;1
"azote";1;0,187
"aun";1;0,816
"atónito";1;0,187
"atardecer";0,392;1
"arte";1;0,187
"arrojándose";1;0,816
"arrodillar";0,002;1
"arrestar";0,002;1
"arrastrar";0,392;1
"arramblar";1;0,187
"arder";1;0,187
"aprisa";0,392;1
"apodar";0,002;1
"apedrear";1;0,816
"apalearon";1;0,816
"anochecer";0,002;1
"amad";1;0,187
"alzar";0,002;1
"aliento";0,392;1
"ajustar";1;0,187
"agobiar";1;0,187
"admiraban";1;0,187
"actuar";1;0,187
"ázimos";0,009;1
"zorro";1;0,253
"zarza";1;0,253
"zaqueo";0,91;1
"zabulón";0,171;1
"vuelta";1;0,253
"volcar";0,009;1
"verse";0,91;1
"vendedor";0,91;1
"vencer";1;0,253
"velad";1;0,253
"varón";1;0,253
"valor";1;0,253
"untó";0,171;1
"tírate";1;0,253
"trozo";0,91;1
"tratad";1;0,253
"transfiguró";0,171;1
"tranquilo";0,171;1
"traed";0,171;1
"tiemble";1;0,253
"terminante";1;0,253
"tentar";0,171;1
"temed";1;0,253
"techo";0,91;1
"sígueme";1;0,253
"sácate";1;0,253
"sudario";0,171;1
"sostener";1;0,253
"sombra";0,91;1
"sobrecogidos";0,171;1
"siquiera";0,91;1
"sincero";1;0,253
"servirles";0,009;1
"servidumbre";1;0,253
"sentarán";1;0,253
"sellar";1;0,253
"sarepta";1;0,253
"saque";1;0,253
"sanedrín";0,91;1
"samaritanos";0,171;1
"saliva";0,91;1
"salid";1;0,253
"saldrás";1;0,253
"sacudir";1;0,253
"sacrificio";1;0,253
"saciaron";0,009;1
"robarás";1;0,253
"rezad";1;0,253
"reverencias";0,009;1
"retener";1;0,253
"resuciten";1;0,253
"resucitad";1;0,253
"respetar";1;0,253
"resolución";0,009;1
"reservar";1;0,253
"repudiarla";1;0,253
"repleto";0,171;1
"repetir";1;0,253
"repente";1;0,253
"repasar";0,009;1
"reparo";1;0,253
"reparas";1;0,253
"renegar";1;0,253
"recobrarla";1;0,253
"recobrar";1;0,253
"realmente";1;0,253
"quedo";0,009;1
"quedaréis";1;0,253
"publicano";0,91;1
"prostituta";1;0,253
"prostitución";1;0,253
"propietario";1;0,253
"prometer";1;0,253
"profetizó";1;0,253
"procurar";0,91;1
"prisa";0,009;1
"preséntale";1;0,253
"prestar";1;0,253
"presentarte";0,009;1
"preocupar";0,91;1
"premio";1;0,253
"predicando";0,171;1
"predicación";1;0,253
"pozo";1;0,253
"portándose";1;0,253
"poneos";1;0,253
"pollino";0,171;1
"polilla";1;0,253
"pierna";0,91;1
"pidas";1;0,253
"pesar";1;0,253
"perverso";1;0,253
"persona";0,171;1
"perla";1;0,253
"percibir";1;0,253
"pensamiento";0,91;1
"pena";1;0,253
"pecar";0,91;1
"pascual";0,171;1
"pasaje";1;0,253
"parálisis";0,171;1
"paráclito";1;0,253
"palacio";1;0,253
"oraba";1;0,253
"occidente";1;0,253
"obedecer";1;0,253
"nínive";1;0,253
"neftalí";0,171;1
"naamán";1;0,253
"mérito";1;0,253
"murmuraban";0,009;1
"mozo";0,91;1
"mostrador";0,009;1
"molino";1;0,253
"molestar";0,171;1
"mejilla";1;0,253
"mantener";1;0,253
"malvar";1;0,253
"maldades";0,91;1
"majestad";1;0,253
"luna";1;0,253
"lot";1;0,253
"lloraréis";1;0,253
"llamad";1;0,253
"llama";1;0,253
"linaje";1;0,253
"limpiad";1;0,253
"liberación";1;0,253
"leví";0,009;1
"lepra";1;0,253
"lectura";0,009;1
"lancha";0,009;1
"lagar";1;0,253
"juzgo";1;0,253
"jurista";0,91;1
"juramento";1;0,253
"jornada";1;0,253
"intervenir";0,009;1
"insistencia";0,171;1
"injusticia";1;0,253
"indicar";0,91;1
"incorporar";0,009;1
"imponiéndoles";1;0,253
"hombro";1;0,253
"hipocresía";0,171;1
"heredero";1;0,253
"heredar";1;0,253
"harina";1;0,253
"gozo";1;0,253
"genesaret";0,009;1
"generoso";1;0,253
"gastar";1;0,253
"garantizar";1;0,253
"gana";1;0,253
"galileos";0,171;1
"fundación";1;0,253
"fortuna";1;0,253
"felicitadme";1;0,253
"expresaban";1;0,253
"exclamar";0,171;1
"estropear";1;0,253
"estrado";1;0,253
"espiar";0,009;1
"episodio";1;0,253
"envidia";1;0,253
"entrabar|entrar";1;0,253
"enterase";0,91;1
"entendimiento";1;0,253
"entended";1;0,253
"engaño";1;0,253
"encontréis";1;0,253
"encadenar";0,009;1
"eliseo";1;0,253
"ejército";1;0,253
"edificáis";1;0,253
"edificar";0,009;1
"edad";1;0,253
"duro";1;0,253
"durar";1;0,253
"dudar";1;0,253
"doncellas";0,171;1
"divulgar";0,171;1
"disperso";1;0,253
"discurso";0,009;1
"disciplina";1;0,253
"diluvio";0,91;1
"deudor";1;0,253
"detesta";1;0,253
"detengáis";1;0,253
"despeñarlo";0,009;1
"designar";1;0,253
"deseáis";1;0,253
"desenrollándolo";1;0,253
"desenfreno";1;0,253
"desear";1;0,253
"descarriadas";1;0,253
"desates";1;0,253
"derrotará";0,009;1
"denunciarla";1;0,253
"defender";0,91;1
"dedicar";1;0,253
"danzó";0,171;1
"dadlo";1;0,253
"cásese";1;0,253
"cálculo";1;0,253
"cumpleaños";0,171;1
"copo";0,009;1
"convertíos";1;0,253
"conversar";0,009;1
"contéis";1;0,253
"contestadle";1;0,253
"contemplar";1;0,253
"consternar";0,91;1
"consistir";1;0,253
"conocierais";1;0,253
"conoceríais";1;0,253
"conoceréis";1;0,253
"conmover";0,171;1
"confiará";1;0,253
"comprendéis";1;0,253
"claridad";0,171;1
"circuncidar";0,91;1
"cintura";1;0,253
"cimiento";1;0,253
"ceñirá";1;0,253
"ceñida";0,91;1
"cesarea";0,009;1
"cerrar";1;0,253
"cepillo";0,171;1
"cenar";1;0,253
"cebado";1;0,253
"casi";0,171;1
"casarán";1;0,253
"cantar";0,171;1
"cansar";0,91;1
"candelero";0,91;1
"canasta";0,91;1
"callar";0,91;1
"cafarnaúm";0,171;1
"buscáis";1;0,253
"borracho";1;0,253
"blasfeme";1;0,253
"betfagé";0,009;1
"bendecía";1;0,253
"bebieron";0,171;1
"bebed";1;0,253
"bartolomé";0,009;1
"barranco";0,009;1
"azotarán";0,91;1
"ayunarán";1;0,253
"averiguad";1;0,253
"avanzar";0,91;1
"atrás";0,91;1
"asombro";0,91;1
"asomar";1;0,253
"asiento";0,009;1
"arrendará";1;0,253
"arrendar";1;0,253
"arquitecto";0,171;1
"aprobación";1;0,253
"aprender";1;0,253
"apremió";0,009;1
"apariencia";1;0,253
"amasa";1;0,253
"amainó";0,009;1
"alzaba";0,009;1
"alumbrar";1;0,253
"allanad";1;0,253
"alianza";1;0,253
"alfeo";0,009;1
"aguja";1;0,253
"adversario";1;0,253
"admirar";0,171;1
"administración";1;0,253
"adelantaran";0,009;1
"*zein_Mateo18-12-14";1;0,816
"*zein_Marcos1-14-20";0,123;1
"*zein_Mateo5-17-37";1;0,015
"*zein_Lucas3-10-18";0,275;1
"*zein_Mateo21-33-4345-46";1;0,383
"*zein_Marcos3-22-30";1;0,825
"*zein_Lucas14-17-14";0,524;1
"*ebanjelaria_Mateo";1;0,752
"*zein_Lucas14-17-11";0,471;1
"*zein_Lucas21-12-19";1;0,355
"*zein_Juan6-44-51";1;0,125
"*zein_Mateo5-38-48";1;0,125
"*zein_Juan15-18-21";1;0,355
"*zein_Lucas12-54-59";1;0,355
"*zein_Marcos9-38-40";0,91;1
"*zein_Mateo18-1-51012-14";1;0,476
"*zein_Juan21-15-19";0,664;1
"*zein_Juan1-19-28";0,845;1
"*zein_Mateo9-1-8";0,041;1
"*zein_Mateo13-31-35";0,873;1
"*zein_Lucas5-33-39";1;0,742
"*zein_Mateo25-1-13";0,845;1
"*zein_Mateo25-31-46";1;0,022
"*zein_Lucas6-12-19";0,005;1
"*zein_Lucas19-41-44";1;0,816
"*zein_Lucas4-1-13";1;0,302
"*zein_Lucas2-22-40";1;0,176
"*zein_Lucas6-1720-26";1;0,302
"*zein_Mateo13-24-43";1;0,885
"*zein_Mateo10-26-33";0,664;1
"*zein_Mateo28-8-15";0,016;1
"*zein_Marcos7-14-23";1;0,476
"*zein_Mateo13-44-52";1;0,466
"*zein_Lucas15-1-311-32";1;0,018
"*zein_Mateo23-13-22";1;0,161
"*zein_Mateo23-23-26";1;0,816
"*zein_Juan6-1-15";0,084;1
"*zein_Mateo18-21-19-1";1;0,254
"*zein_Juan14-21-26";1;0,596
"*zein_Marcos6-34-44";0,035;1
"*zein_Marcos9-41-50";1;0,272
"*zein_Mateo5-38-42";1;0,466
"*zein_Mateo10-1-7";0,006;1
"*zein_Mateo13-47-53";0,638;1
"*zein_Lucas17-11-19";0,845;1
"*zein_Mateo5-43-48";1;0,466
"*zein_Juan20-11-18";0,664;1
"*zein_Mateo15-21-28";1;0,687
"*zein_Mateo10-7-15";1;0,825
"*zein_Mateo8-23-27";0,295;1
"*zein_Juan19-25-27";0,638;1
"*zein_Marcos2-18-22";0,845;1
"*zein_Lucas1-57-6680";1;0,568
"*zein_Lucas9-57-62";1;0,272
"*zein_Lucas19-1-10";0,661;1
"*zein_Juan3-31-36";1;0,161
"*zein_Mateo3-13-17";0,471;1
"*zein_Lucas16-1-13";1;0,151
"*zein_Marcos2-1-12";0,109;1
"*zein_Lucas21-20-28";0,973;1
"*zein_Mateo13-1-23";0,906;1
"*zein_Mateo5-20-26";1;0,272
"*zein_Lucas7-1-10";0,661;1
"*zein_Juan17-20-26";1;0,272
"*zein_Lucas7-31-35";1;0,615
"*egutegia_NavidadYOct";1;0,425
"*zein_Marcos10-1-12";1;0,885
"*zein_Juan1-6-819-28";1;0,825
"*zein_Marcos1-6b-11";1;0,615
"*zein_Marcos12-28b-34";1;0,476
"*zein_Mateo12-46-50";0,873;1
"*zein_Juan3-16-18";1;0,615
"*zein_Lucas4-16-30";0,906;1
"*zein_Mateo11-25-27";1;0,253
"*zein_Lucas10-1-12";1;0,037
"*zein_Mateo8-28-34";0,123;1
"*zein_Juan6-52-59";1;0,476
"*zein_Marcos1-1-8";1;0,209
"*zein_Juan10-1-10";1;0,097
"*egutegia_OctavaDePas";0;1
"*zein_Marcos4-35-40";0,275;1
"*zein_Juan1-1-18";1;0,004
"*zein_Lucas10-1-9";1;0,081
"*zein_Lucas13-31-35";1;0,272
"*zein_Mateo16-13-20";0,275;1
"*zein_Mateo16-13-23";0,133;1
"*zein_Mateo10-16-23";1;0,302
"*zein_Juan20-19-23";0,226;1
"*zein_Mateo12-1-8";0,659;1
"*zein_Mateo2-13-1519-23";0,065;1
"*zein_Lucas21-5-11";1;0,209
"*zein_Marcos16-15-20";1;0,272
"*zein_Mateo8-18-22";0,471;1
"*zein_Lucas18-1-8";1;0,355
"*zein_Mateo13-10-17";1;0,24
"*zein_Mateo13-24-30";0,638;1
"*zein_Marcos10-28-31";1;0,615
"*ebanjelaria_Juan";1;0,046
"*zein_Mateo1-1-1618-23";1;0,059
"*zein_Juan13-21-3336-38";0,429;1
"*zein_Marcos10-17-27";0,661;1
"*zein_Lucas9-28b-36";0,109;1
"*zein_Marcos2-23-28";0,873;1
"*zein_Marcos3-20-35";0,906;1
"*zein_Marcos6-1-6";0,226;1
"*zein_Lucas10-17-24";1;0,383
"*zein_Juan18-33-37";0,664;1
"*zein_Marcos6-30-34";0,006;1
"*zein_Marcos8-27-35";0,012;1
"*zein_Lucas24-13-35";0,856;1
"*zein_Mateo11-16-19";0,873;1
"*zein_Lucas17-26-37";1;0,383
"*zein_Marcos9-2-13";0,661;1
"*zein_Marcos9-2-10";0,138;1
"*zein_Mateo6-7-15";1;0,209
"*egutegia_SemanaDeCua";1;0,026
"*zein_Marcos16-9-15";0,471;1
"*zein_Marcos6-7-13";1;0,816
"*zein_Juan16-5-11";1;0,209
"*zein_Mateo7-15-20";1;0,355
"*zein_Marcos8-22-26";0,659;1
"*zein_Mateo7-612-14";1;0,919
"*zein_Juan17-11b-19";1;0,161
"*zein_Marcos12-38-44";0,357;1
"*zein_Lucas12-35-38";1;0,816
"*zein_Lucas13-1-9";1;0,209
"*zein_Mateo12-14-21";0,845;1
"*zein_Mateo1-1-17";1;0,106
"*zein_Lucas12-1-7";0,138;1
"*zein_Lucas23-35-43";0,664;1
"*zein_Marcos11-1-10";0,006;1
"*zein_Mateo22-34-40";1;0,466
"*zein_Mateo14-22-36";0;1
"*zein_Mateo4-12-1723-25";0,171;1
"*zein_Mateo14-22-33";0;1
"*zein_Lucas7-11-17";0,275;1
"*zein_Lucas6-27-38";1;0,075
"*zein_Lucas4-21-30";1;0,568
"*zein_Juan11-1-45";0,046;1
"*zein_Mateo12-38-42";1;0,355
"*zein_Marcos10-2-16";1;0,813
"*zein_Mateo4-12-23";0,168;1
"*zein_Mateo14-1-12";0,393;1
"*zein_Lucas6-43-49";1;0,355
"*zein_Marcos6-53-56";0,016;1
"*zein_Juan6-30-35";1;0,355
"*zein_Lucas17-1-6";0,873;1
"*zein_Lucas1-1-4-4-14-21";0,33;1
"*zein_Juan3-5a7b-15";1;0,272
"*zein_Marcos13-24-32";1;0,355
"*zein_Juan3-1-8";1;0,38
"*zein_Juan8-51-59";1;0,24
"*zein_Marcos8-34-9-1";1;0,355
"*zein_Marcos7-24-30";0,845;1
"*zein_Mateo19-27-29";1;0,816
"*zein_Juan6-51-58";1;0,059
"*zein_Marcos16-15-18";1;0,466
"*zein_Marcos3-13-19";0,009;1
"*zein_Lucas11-1-4";0,171;1
"*zein_Juan15-26-16-4a";1;0,355
"*zein_Mateo13-44-46";0,91;1
"*zein_Lucas13-10-17";0,176;1
"*zein_Lucas12-13-21";1;0,161
"*zein_Mateo21-23-27";1;0,476
"*zein_Mateo10-17-22";1;0,209
"*zein_Lucas8-19-21";0,91;1
"*zein_Mateo13-36-43";0,392;1
"*zein_Lucas9-43-45";0,638;1
"*zein_Lucas5-12-16";0,018;1
"*zein_Lucas16-1-8";1;0,38
"*zein_Lucas21-34-36";0,91;1
"*zein_Lucas10-21-24";0,659;1
"*zein_Mateo19-23-30";1;0,981
"*zein_Marcos12-18-27";1;0,161
"*zein_Lucas11-27-28";0,91;1
"*zein_Lucas13-18-21";1;0,509
"*zein_Lucas14-12-14";0,873;1
"*zein_Juan5-17-30";1;0,095
"*zein_Lucas1-26-38";1;0,568
"*zein_Juan1-45-51";0,357;1
"*zein_Juan11-45-57";0,168;1
"*zein_Juan12-1-11";0,016;1
"*zein_Mateo23-1-12";0,275;1
"*zein_Juan21-20-25";0,226;1
"*zein_Mateo18-15-20";1;0,272
"*zein_Mateo4-1-11";1;0,687
"*zein_Lucas4-38-44";0,524;1
"*zein_Marcos1-12-15";0,638;1
"*zein_Lucas19-28-40";0,002;1
"*zein_Mateo10-24-33";1;0,885
"*zein_Lucas11-29-32";1;0,272
"*zein_Marcos8-27-33";0,002;1
"*zein_Juan1-43-51";0,035;1
"*zein_Marcos4-1-20";0,393;1
"*zein_Lucas22-14-20";0,659;1
"*zein_Lucas16-19-31";1;0,191
"*zein_Juan17-1-11a";1;0,059
"*zein_Mateo7-2124-27";1;0,816
"*zein_Marcos13-33-37";1;0,466
"*zein_Lucas11-37-41";0,295;1
"*zein_Juan20-2-8";0,006;1
"*zein_Mateo11-25-30";1;0,106
"*zein_Mateo9-35-10-16-8";0,659;1
"*zein_Mateo13-18-23";0,545;1
"*zein_Juan2-1-11";0,214;1
"*zein_Mateo2-13-18";0,226;1
"*zein_Lucas6-1-5";0,638;1
"*zein_Juan1-47-51";0,873;1
"*zein_Lucas10-1-1217-20";1;0,006
"*egutegia_SemanaDelTi";0,162;1
"*ebanjelaria_Marcos";0;1
"*zein_Juan2-13-25";1;0,757
"*zein_Juan14-23-29";1;0,125
"*zein_Juan2-13-22";0,973;1
"*zein_Marcos1-40-45";0,123;1
"*zein_Lucas6-39-45";1;0,742
"*zein_Lucas6-39-42";0,638;1
"*zein_Mateo6-1-616-18";1;0,468
"*zein_Mateo17-14-20";1;0,981
"*zein_Juan14-15-21";1;0,209
"*zein_Juan6-24-35";1;0,191
"*zein_Lucas2-22-35";1;0,12
"*zein_Lucas12-39-48";1;0,125
"*zein_Lucas9-18-22";0,006;1
"*zein_Juan15-12-17";1;0,209
"*zein_Mateo21-33-43";1;0,24
"*zein_Lucas20-27-38";1;0,125
"*egutegia_SemanaDeAdv";1;0,12
"*zein_Lucas1-46-56";1;0,106
"*zein_Lucas7-36-50";0,067;1
"*zein_Marcos7-1-814-1521-23";1;0,687
"*zein_Marcos8-11-13";0,149;1
"*zein_Marcos2-13-17";0,018;1
"*ebanjelaria_Lucas";1;0,014
"*zein_Marcos6-14-29";0,444;1
"*zein_Marcos3-20-21";0,545;1
"*zein_Lucas9-22-25";1;0,615
"*zein_Mateo10-7-13";0,659;1
"*zein_Lucas15-3-7";1;0,816
"*zein_Mateo24-37-44";1;0,209
"*zein_Mateo9-14-17";1;0,742
"*zein_Mateo9-14-15";0,171;1
"*zein_Juan20-24-29";0,357;1
"*zein_Marcos5-1-20";0,028;1
"*zein_Lucas21-25-2834-36";1;0,355
"*zein_Mateo19-16-22";1;0,272
"*zein_Mateo5-1-12a";1;0,302
"*zein_Lucas6-20-26";1;0,125
"*zein_Lucas11-14-23";1;0,24
"*zein_Lucas4-31-37";0,226;1
"*zein_Lucas10-38-42";0,471;1
"*zein_Marcos3-7-12";0,471;1
"*zein_Mateo5-17-19";1;0,615
"*zein_Mateo10-3442";1;0,097
"*zein_Lucas1-5-25";1;0,214
"*zein_Lucas9-51-56";0,018;1
"*zein_Mateo14-13-21";0,041;1
"*zein_Lucas2-41-51";0,973;1
"*zein_Lucas2-41-52";1;0,885
"*zein_Juan6-35-40";1;0,272
"*zein_Marcos14-12a22-25";0,638;1
"*zein_Lucas2-36-40";1;0,355
"*zein_Lucas17-7-10";1;0,919
"*zein_Lucas13-22-30";1;0,38
"*zein_Marcos12-28-34";1;0,476
"*zein_Marcos9-38-434547-48";1;0,272
"*zein_Marcos3-31-35";0,471;1
"*zein_Juan6-41-51";1;0,191
"*zein_Juan1-29-34";1;0,355
"*zein_Juan13-1-17";1;0,377
"*zein_Lucas6-36-38";1;0,816
"*zein_Lucas1-39-45";1;0,466
"*zein_Lucas12-32-48";1;0,022
"*zein_Mateo23-27-32";1;0,466
"*zein_Lucas14-1-6";0,016;1
"*zein_Mateo5-27-32";1;0,272
"*zein_Juan10-27-30";1;0,187
"*zein_Mateo9-18-26";0,138;1
"*zein_Juan3-13-17";1;0,615
"*egutegia_SemanaDeNav";0;1
"*zein_Marcos8-14-21";0,295;1
"*zein_Mateo11-28-30";1;0,253
"*zein_Mateo20-1-16";1;0,028
"*zein_Mateo5-13-16";1;0,919
"*zein_Lucas24-46-53";1;0,919
"*zein_Lucas15-1-10";1;0,596
"*zein_Mateo20-20-28";1;0,209
"*zein_Mateo28-16-20";0,471;1
"*zein_Lucas1-57-66";1;0,687
"*zein_Juan8-1-11";0,415;1
"*egutegia_FinDelTiemp";0,226;1
"*zein_Mateo9-9-13";0,295;1
"*zein_Lucas12-49-53";1;0,919
"*zein_Mateo15-1-210-14";0,659;1
"*zein_Lucas6-6-11";0,176;1
"*zein_Marcos10-13-16";0,295;1
"*zein_Marcos5-21-43";0,195;1
"*zein_Marcos12-13-17";0,659;1
"*zein_Juan3-14-21";1;0,209
"*zein_Mateo20-17-28";1;0,825
"*zein_Marcos3-1-6";0,018;1
"*zein_Mateo21-28-32";0,845;1
"*zein_Mateo13-54-58";1;0,816
"*zein_Lucas5-1-11";0,01;1
"*zein_Marcos8-1-10";0,176;1
"*zein_Juan10-22-30";1;0,596
"*zein_Lucas19-45-48";0,295;1
"*zein_Marcos9-13-28";0,28;1
"*zein_Marcos7-31-37";1;0,161
"*zein_Juan16-12-15";1;0,466
"*zein_Juan20-1-9";0,006;1
"*zein_Mateo17-1-9";0,006;1
"*zein_Juan3-22-30";0,08;1
"*zein_Juan14-1-6";1;0,272
"*zein_Juan14-27-31a";1;0,272
"*zein_Mateo25-14-30";1;0,013
"*zein_Marcos10-32-45";0,533;1
"*zein_Juan12-24-26";1;0,615
"*zein_Mateo10-3411-1";1;0,24
"*zein_Marcos4-26-34";0,471;1
"*zein_Juan14-1-12";1;0,017
"*zein_Marcos7-1-13";1;0,191
"*zein_Marcos11-27-33";1;0,272
"*zein_Juan9-1-41";1;0,68
"*zein_Juan16-20-23a";1;0,615
"*zein_Lucas5-27-32";0,471;1
"*zein_Lucas21-1-4";0,91;1
"*zein_Juan5-1-3a5-16";0,001;1
"*zein_Lucas16-9-15";1;0,272
"*zein_Juan8-31-42";1;0,036
"*zein_Lucas10-25-37";1;0,12
"*zein_Mateo18-21-35";1;0,167
"*zein_Lucas18-35-43";1;0,825
"*zein_Lucas9-1-6";0,638;1
"*zein_Lucas2-16-21";0,295;1
"*zein_Marcos12-35-37";1;0,816
"*zein_Lucas4-24-30";0,659;1
"*zein_Lucas24-35-48";0,524;1
"*zein_Marcos10-35-45";1;0,38
"*zein_Mateo13-1-9";0,123;1
"*zein_Lucas12-8-12";0,873;1
"*zein_Lucas1-67-79";1;0,028
"*zein_Mateo16-21-27";0,821;1
"*zein_Marcos4-21-25";0,638;1
"*zein_Juan16-29-33";1;0,272
"*zein_Lucas11-15-26";1;0,022
"*egutegia_SemanaSanta";0;1
"*zein_Marcos12-1-12";1;0,254
"*zein_Juan6-16-21";0,149;1
"*zein_Mateo6-24-34";1;0,028
"*zein_Marcos9-30-37";0,524;1
"*zein_Juan14-6-14";1;0,059
"*zein_Lucas18-9-14";0,471;1
"*zein_Lucas11-5-13";1;0,596
"*zein_Mateo2-1-12";0,065;1
"*zein_Lucas8-16-18";1;0,615
"*zein_Marcos11-11-26";0,415;1
"*zein_Lucas14-25-33";0,226;1
"*zein_Mateo8-5-17";0,656;1
"*zein_Mateo22-1-14";1;0,468
"*zein_Lucas11-1-13";1;0,825
"*zein_Mateo8-5-11";1;0,476
"*zein_Mateo24-42-51";1;0,272
"*zein_Mateo19-3-12";1;0,24
"*zein_Mateo1-1618-2124a";1;0,919
"*zein_Lucas7-19-23";0,053;1
"*zein_Juan1-35-42";0,002;1
"*zein_Marcos1-21-28";0,226;1
"*zein_Juan12-44-50";1;0,047
"*zein_Mateo5-33-37";1;0,919
"*zein_Mateo21-1-11";0,065;1
"*zein_Juan21-1-19";0;1
"*zein_Juan21-1-14";0;1
"*zein_Juan13-31-33a34-35";1;0,355
"*zein_Marcos6-45-52";0,002;1
"*egutegia_SemanaDePas";1;0
"*zein_Lucas17-5-10";1;0,615
"*zein_Juan4-5-42";1;0,044
"*zein_Juan16-23b-28";1;0,919
"*zein_Mateo7-21-29";1;0,919
"*zein_Juan4-43-54";0,533;1
"*zein_Mateo4-18-22";0,638;1
"*zein_Juan6-22-29";0,506;1
"*zein_Mateo11-20-24";0,295;1
"*zein_Lucas21-5-19";1;0,046
"*zein_Juan5-31-47";1;0,022
"*zein_Juan16-16-20";1;0,919
"*zein_Lucas9-46-50";0,659;1
"*zein_Mateo22-15-21";0,659;1
"*zein_Lucas9-7-9";0,392;1
"*zein_Lucas20-27-40";1;0,097
"*zein_Juan15-1-8";1;0,161
"*zein_Mateo17-22-27";0,357;1
"*zein_Mateo18-1-510";1;0,919
"*zein_Juan3-16-21";1;0,272
"*zein_Lucas21-29-33";1;0,615
"*zein_Lucas4-14-22a";0,415;1
"*zein_Mateo11-2-11";1;0,38
"*zein_Mateo7-1-5";1;0,816
"*zein_Mateo9-32-38";0,873;1
"*zein_Lucas3-15-1621-22";0,471;1
"*zein_Lucas19-11-28";1;0,377
"*zein_Lucas1-39-56";1;0,047
"*zein_Juan8-12-20";1;0,38
"*zein_Juan10-11-18";1;0,022
"*zein_Mateo16-13-19";0,506;1
"*zein_Lucas11-47-54";1;0,596
"*zein_Juan7-1-21025-30";0,275;1
"*zein_Marcos1-29-39";0,002;1
"*zein_Juan20-19-31";0,429;1
"*zein_Lucas8-1-3";0,002;1
"*zein_Juan7-40-53";1;0,568
"*zein_Juan13-16-20";1;0,742
"*zein_Juan19-31-37";0,873;1
"*zein_Marcos6-17-29";0,65;1
"*zein_Mateo1-18-24";1;0,596
"*zein_Mateo6-19-23";1;0,272
"*zein_Mateo9-27-31";0,226;1
"*zein_Lucas14-15-24";1;0,24
"*zein_Lucas8-4-15";1;0,919
"*zein_Marcos14-12-1622-26";0,214;1
"*zein_Mateo7-7-12";1;0,466
"*egutegia_TiempoDeNav";0;1
"*zein_Marcos10-46-52";0,176;1
"*zein_Marcos10-17-30";0,661;1
"*zein_Mateo26-14-25";0,242;1
"*zein_Juan14-7-14";1;0,097
"*zein_Mateo19-13-15";0,052;1
"*zein_Mateo17-10-13";0,873;1
"*zein_Juan8-21-30";1;0,302
"*zein_Lucas11-42-46";0,471;1
"*zein_Mateo16-24-28";1;0,355
"*zein_Juan15-9-11";1;0,816
"*egutegia_CuaresmaIni";0,935;1
"*zein_Lucas17-20-25";1;0,355
"*zein_Juan15-9-17";1;0,097
"*zein_Mateo15-29-37";0,029;1
"*zein_Lucas5-17-26";0,308;1
"*zein_Juan12-20-33";0,88;1
"*zein_Lucas9-11b-17";0,176;1
"*zein_Mateo8-1-4";0,053;1
"*zein_Juan10-31-42";0,821;1
"*zein_Juan6-60-69";0,973;1
"*zein_Lucas10-13-16";0,873;1
"*zein_Lucas3-1-6";1;0,919
"*zein_Mateo11-11-15";1;0,355
