"";"Coord. facteur 1";"Coord. facteur 2";"Coord. facteur 3";"Corr. facteur 1";"Corr. facteur 2";"Corr. facteur 3";"COR -facteur 1";"COR -facteur 2";"COR -facteur 3";"CTR -facteur 1";"CTR -facteur 2";"CTR -facteur 3";"mass";"chi.distance";"inertie"
"classe 1";-1,23061394382285;0,141796561824675;-0,181655371005256;-0,982914843071742;0,113255620102153;-0,145091611695953;0,977284176484169;0,00967338994136819;0,0130424335744622;0,58983504069618;0,00783101953044493;0,012852375109327;0,389481564664046;0,953790531848215;0,354317758554503
"classe 2";1,43845722639349;3,75461165888337;-1,30904192295634;0,340184805442883;0,887938697971005;-0,309579015424727;0,151824556283476;0,771166676687396;0,0770087670291294;0,109596116672714;0,746674483371418;0,0907629017338945;0,0529664982219727;2,82857403768114;0,423776005525022
"classe 3";1,04819318094327;-1,68215991974509;-2,90905594711347;0,297775214982936;-0,47787520549123;-0,826417091618137;0,130932343312961;0,25140211819238;0,617665538494658;0,0820484501002834;0,21131108670094;0,631963315528928;0,0746771476698484;2,21952207367489;0,36788040725744
"classe 4";0,672711295670402;-0,266066642109633;0,739998842696457;0,65005204760916;-0,257104595414139;0,715073116832168;0,538286345594364;0,0627779125407683;0,398935741864872;0,218520392530822;0,034183410397196;0,264421407627851;0,482874789444133;0,702528014480291;0,238320733055291
