"";"";"";"";"sentar";""
"1";"sentar";"-1.6061282573422";"0.214333001933329";"0.866871280887143";"134"
"2";"higuera";"-1.6061282573422";"0.214333001933329";"0.866871280887143";"135"
"3";"año";"-1.6061282573422";"0.214333001933329";"0.866871280887143";"137"
"4";"tres";"-1.29561409636107";"0.137269651672521";"0.856616797256811";"150"
"5";"mesías";"0.652156549793339";"-0.346127727236182";"0.855965385386851";"152"
"6";"vendar|vender";"-1.6061282573422";"0.214333001933329";"0.855433048804949";"154"
"7";"sumos";"-1.6061282573422";"0.214333001933329";"0.855433048804949";"156"
"8";"judea";"-1.6061282573422";"0.214333001933329";"0.855433048804949";"160"
"9";"empezar";"-1.6061282573422";"0.214333001933329";"0.855433048804949";"161"
"10";"después";"-1.6061282573422";"0.214333001933329";"0.855433048804949";"162"
"11";"cerrado";"-1.6061282573422";"0.214333001933329";"0.855433048804949";"164"
"12";"caná";"-1.6061282573422";"0.214333001933329";"0.855433048804949";"165"
"13";"cama";"-1.6061282573422";"0.214333001933329";"0.855433048804949";"166"
"14";"betania";"-1.6061282573422";"0.214333001933329";"0.855433048804949";"167"
"15";"andrés";"-1.6061282573422";"0.214333001933329";"0.855433048804949";"168"
"16";"sábado";"-1.25125493050662";"0.126260601635263";"0.84570389732781";"178"
"17";"muéstranos";"0.877985030506893";"-0.402173800153133";"0.844345038158217";"186"
"18";"tiberíades";"-1.6061282573422";"0.214333001933329";"0.844022834437592";"190"
"19";"perezca";"0.877985030506893";"-0.402173800153133";"0.836682193150306";"198"
"20";"israel";"0.877985030506893";"-0.402173800153133";"0.836682193150306";"199"
"21";"vender";"-1.6061282573422";"0.214333001933329";"0.832633633356363";"207"
"22";"tercero";"-1.6061282573422";"0.214333001933329";"0.832633633356363";"208"
"23";"sudario";"-1.6061282573422";"0.214333001933329";"0.832633633356363";"209"
"24";"samaría";"-1.6061282573422";"0.214333001933329";"0.832633633356363";"210"
"25";"suceder";"0.877985030506893";"-0.402173800153133";"0.829033356999812";"215"
"26";"elevar";"0.877985030506893";"-0.402173800153133";"0.829033356999812";"216"
"27";"válido";"0.877985030506893";"-0.402173800153133";"0.829033356999812";"217"
"28";"trabajo";"0.877985030506893";"-0.402173800153133";"0.829033356999812";"218"
"29";"tampoco";"0.877985030506893";"-0.402173800153133";"0.829033356999812";"219"
"30";"significar";"0.877985030506893";"-0.402173800153133";"0.829033356999812";"220"
"31";"principio";"0.877985030506893";"-0.402173800153133";"0.829033356999812";"221"
"32";"pidáis";"0.877985030506893";"-0.402173800153133";"0.829033356999812";"222"
"33";"dichosos";"0.877985030506893";"-0.402173800153133";"0.829033356999812";"224"
"34";"comunicar";"0.877985030506893";"-0.402173800153133";"0.829033356999812";"225"
"35";"comparación";"0.877985030506893";"-0.402173800153133";"0.829033356999812";"226"
"36";"dejar";"0.504804306247884";"-0.477797656262298";"0.823380783031453";"233"
"37";"paz";"0.877985030506893";"-0.402173800153133";"0.821398529706737";"238"
"38";"glorificará";"0.877985030506893";"-0.402173800153133";"0.821398529706737";"239"
"39";"razón";"0.877985030506893";"-0.402173800153133";"0.821398529706737";"240"
"40";"vid";"0.877985030506893";"-0.402173800153133";"0.821398529706737";"241"
"41";"surgir";"0.877985030506893";"-0.402173800153133";"0.821398529706737";"242"
"42";"siervo";"0.877985030506893";"-0.402173800153133";"0.821398529706737";"243"
"43";"serpiente";"0.877985030506893";"-0.402173800153133";"0.821398529706737";"244"
"44";"saltar";"0.975996607424909";"-0.830273775649714";"0.813007224113064";"259"
"45";"samaritanos";"-0.778090494725837";"0.00883073457117464";"0.805799666971253";"275"
"46";"delante";"0.47917394985509";"-0.706972415232422";"0.805176272816131";"277"
