decir;143;0;0;51
jesús;168;0;0;14
padre;3;10;14;122
os;1;2;4;99
ver;49;2;4;56
dar;7;12;5;86
dios;1;2;5;79
discípulo;88;1;0;5
mundo;0;5;12;52
hijo;8;2;3;68
hacer;13;0;12;49
ir;16;1;1;60
tiempo;74;0;0;1
venir;4;0;4;59
vida;0;15;9;34
crear|creer;4;4;3;48
enviar;4;2;0;52
saber;11;0;2;40
conocer;0;1;7;38
señor;19;3;0;28
judío;45;0;0;5
pan;7;29;0;8
hombre;7;4;5;31
hablar;4;0;0;35
palabra;6;0;13;23
ya;12;0;1;29
mismo;2;2;7;26
llegar;26;0;0;9
testimonio;2;0;1;26
querer;19;0;0;16
día;19;5;3;7
verdad;1;0;3;23
nadie;3;2;0;28
ahora;0;0;1;32
cielo;4;12;1;11
asegurar;0;2;2;28
uno;13;1;1;15
obra;0;0;15;12
más;12;0;1;14
quedar;18;0;1;6
luz;0;0;17;4
creer;8;0;0;20
preguntar;26;0;0;1
pedro;27;0;0;0
nombre;1;0;2;22
llamar;15;0;1;8
juan;15;0;4;5
eterno;0;2;4;19
echar;23;0;0;2
comer;3;18;0;0
así;2;0;1;22
morir;4;6;0;9
mano;7;2;0;6
allí;23;0;0;1
seguir;12;0;7;4
salir;13;0;2;8
oír;13;0;2;8
cómo;1;2;0;20
simón;20;0;2;0
poner;10;0;1;10
dónde;4;0;0;14
agua;8;0;0;11
oveja;5;0;14;0
hora;5;0;1;15
vuestro;0;0;0;13
templo;19;0;0;0
tanto;11;0;0;8
siempre;0;12;0;5
mis;0;0;15;2
espíritu;0;2;0;14
nacer;0;1;0;13
llevar;14;0;0;4
escribir;5;2;0;11
encontrar;14;0;0;4
casa;11;0;1;6
carne;0;15;0;2
voz;1;0;11;5
vivir;1;10;1;5
vez;13;0;0;4
subir;9;0;0;7
sepulcro;15;0;0;1
ojo;12;0;0;5
gente;14;0;0;3
bajar;2;6;0;9
amar;2;0;0;9
signo;6;2;0;8
recibir;3;0;2;9
pie;13;0;0;2
muerto;13;1;0;2
maría;15;0;0;0
hecho;5;1;0;10
guardar;1;0;12;3
volver;6;0;0;8
profeta;1;0;0;11
hermano;14;0;0;1
galilea;14;0;0;1
ciego;9;0;0;5
ama;0;0;12;2
ése;1;0;3;10
tierra;4;0;0;8
pasar;5;0;0;6
mujer;8;0;0;6
mesías;1;0;0;10
medio;7;0;0;6
junto;11;0;0;3
jerusalén;12;0;0;2
grande;5;0;1;8
gloria;1;0;0;11
fruto;0;0;0;11
felipe;11;0;0;3
escuchar;0;1;5;8
entregar;4;0;1;9
entrar;8;1;3;2
camino;3;0;0;11
alegría;3;0;0;2
vino;4;0;7;2
tomar;10;0;0;3
saber|ser;0;3;0;10
primero;11;0;1;1
glorificado;0;0;0;11
dejar;2;0;1;9
aquí;3;0;0;8
moisés;0;0;0;12
único;0;0;0;11
vuestra;0;0;1;4
vengar|venir;3;0;0;7
todavía;11;0;0;0
sitio;6;0;0;4
poco;1;0;0;8
pedir;3;0;0;7
maestro;0;0;0;11
levantar;10;0;0;1
fiesta;9;0;0;1
escritura;4;1;2;3
amor;0;0;3;6
acercar;11;0;0;0
sangre;1;8;0;1
madre;6;0;0;2
lázaro;10;0;0;0
juzgar;0;0;2;7
fariseos;10;0;0;0
dos;9;0;0;1
desierto;1;4;0;5
cuenta;0;0;0;10
condenar;1;0;0;9
bueno;0;0;8;2
beber;0;6;0;4
andar;9;0;0;1
acerca;1;0;4;5
abrahán;1;0;0;7
traer;1;0;1;1
solo;3;0;1;4
sacerdote;9;0;0;0
puerta;6;0;3;0
pez;9;0;0;0
orilla;8;0;0;1
mandamiento;0;0;6;0
lago;9;0;0;0
enseñar;6;0;0;3
costado;5;0;0;0
amigo;2;0;3;4
abierto;1;0;0;8
último;0;5;1;2
voluntad;0;0;0;6
vivo;0;6;0;2
tres;7;0;0;1
tomás;8;0;0;0
sólo;5;0;0;3
sábado;6;0;0;1
suelo;6;0;0;0
sacar;3;0;2;3
resucitar;7;1;0;0
red;8;0;0;0
pueblo;3;1;0;4
podar|poder;0;0;0;8
oído;0;0;0;8
nuevo;3;0;0;1
nicodemo;8;0;0;0
mandar;2;0;0;6
ley;0;0;0;8
fe;3;0;0;4
erar|ser;4;0;3;1
entender;1;0;0;7
enfermo;8;0;0;0
dar|distar;0;0;2;6
culto;0;0;0;6
creed;0;0;6;0
conmigo;0;0;0;8
cambio;0;0;5;3
barca;8;0;0;0
acudir;6;0;0;2
vendar|vender;5;0;0;0
suceder;0;0;0;4
propio;1;0;0;6
permanecer;1;0;4;2
pascua;6;0;0;0
natanael;7;0;0;0
muerte;1;0;0;6
matar;3;0;2;2
marta;7;0;0;0
llenar;6;0;0;0
lado;2;0;0;5
judas;7;0;0;0
gracia;2;0;0;4
elevar;0;0;0;4
crear;0;0;0;6
cosa;5;0;0;2
correr;5;0;0;0
cerca;5;0;0;1
aparecer;7;0;0;0
adonde;1;0;0;5
acordar;5;0;0;2
vuestros;0;4;0;0
vi;6;0;0;0
tiniebla;0;0;5;0
testigo;0;0;2;4
sentar;6;0;0;0
sed;0;0;0;6
santo;0;0;0;6
salvar;1;0;1;4
rey;3;0;0;3
rabí;0;0;0;6
quitar;2;0;0;2
pensar;1;0;0;5
pastor;0;0;6;0
nunca;0;0;0;6
noche;4;0;1;1
muéstranos;0;0;0;6
modo;0;2;0;4
higuera;6;0;0;0
guardará;0;0;6;0
detrás;2;1;0;3
debajo;6;0;0;0
cinco;5;0;0;1
bautizar;3;0;0;2
bajo;1;5;0;0
año;6;0;0;0
alimento;0;1;0;3
ahí;1;0;0;2
aceptar;0;0;2;4
sumos;5;0;0;0
servir;1;3;0;1
seis;5;0;0;0
saltar;0;0;1;4
resucitaré;0;4;0;1
reino;0;0;0;5
pescado;1;0;0;4
perezca;0;0;0;5
paz;0;0;0;3
paloma;4;1;0;0
mirar;3;0;0;2
mesa;4;0;0;1
mellizo;5;0;0;0
marchar;5;0;0;0
llorar;4;0;0;0
juicio;0;0;1;4
judea;5;0;0;0
israel;0;0;0;5
gritar;1;0;1;3
glorificará;0;0;0;3
existir;0;0;0;5
empezar;5;0;0;0
embargo;0;0;1;4
elegir;0;1;0;2
doce;4;0;1;0
después;5;0;0;0
delante;1;0;1;3
curar;3;0;0;2
convertir;1;0;0;2
coma;0;5;0;0
coger;5;0;0;0
cerrado;5;0;0;0
caná;5;0;0;0
caminar;1;0;4;0
cama;5;0;0;0
caer;1;0;0;4
cabeza;4;0;0;1
buscar;4;0;0;1
betania;5;0;0;0
aún;2;0;0;3
andrés;5;0;0;0
acusar;1;0;2;1
ángeles;1;0;0;3
válido;0;0;0;4
vista;4;0;0;0
trabajo;0;0;0;4
tiberíades;4;0;0;0
tampoco;0;0;0;4
significar;0;0;0;4
semana;4;0;0;0
sano;4;0;0;0
resurrección;0;3;0;1
realizar;0;0;4;0
razón;0;0;0;3
principio;0;0;0;4
pobre;2;1;0;0
piedra;4;0;0;0
pidáis;0;0;0;4
perfume;4;0;0;0
perder;0;0;3;1
pecador;0;0;0;4
nazaret;0;0;2;2
nación;1;0;0;3
maná;0;4;0;0
manifestar;1;0;0;3
malo;1;0;3;0
magdalena;4;0;0;0
ladrón;1;0;2;1
josé;1;0;0;3
jordán;3;0;0;1
jamás;2;0;0;2
iscariote;4;0;0;0
haz;0;2;1;1
estado;4;0;0;0
embarcar;4;0;0;0
dichosos;0;0;0;4
cumplir;0;0;3;1
cuerpo;4;0;0;0
cuatro;4;0;0;0
comunicar;0;0;0;4
comparación;0;0;0;4
comida;0;4;0;0
causa;1;0;1;2
cambista;4;0;0;0
cafarnaún;4;0;0;0
buey;4;0;0;0
bautizando;3;0;0;1
bastar;0;1;0;3
barro;4;0;0;0
amo;0;0;0;4
amará;0;0;4;0
amanecer;4;0;0;0
acabar;3;0;0;1
abundante;1;0;0;3
abrir;2;0;1;1
viento;1;0;0;2
viejo;2;0;0;1
vid;0;0;0;3
vender;3;0;0;0
tercero;3;0;0;0
tarde;2;0;0;1
surgir;0;0;0;3
sudario;3;0;0;0
sorprender;1;0;0;2
soplar;1;0;0;2
siervo;0;0;0;3
serpiente;0;0;0;3
segundo;2;0;0;1
sarmiento;1;0;0;2
samaría;3;0;0;0
samaritanos;2;0;0;1
rogar;0;0;1;2
retirar;3;0;0;0
recordar;0;0;0;3
recoger;3;0;0;0
príncipe;0;0;0;3
proceder;0;0;0;3
presentar;3;0;0;0
piscina;1;0;0;2
pierna;3;0;0;0
paráclito;0;0;0;3
parte;1;0;1;1
ocho;3;0;0;0
necesitar;1;0;0;2
monte;1;0;0;2
miedo;2;0;0;1
mal;1;1;1;0
lugar;2;0;0;1
linaje;0;0;0;3
lavar;1;0;0;2
juzgo;0;0;1;2
jacob;2;0;0;1
igual;1;0;1;1
hambre;0;0;0;3
habitar;0;2;0;1
fariseo;2;0;0;1
envío;0;0;0;3
enterar;3;0;0;0
derecha;3;0;0;0
cuándo;0;0;0;3
conocierais;0;0;0;3
conoceríais;0;0;0;3
conceder;0;0;1;2
comprender;1;0;0;2
cien;3;0;0;0
celebrar;3;0;0;0
buscáis;0;0;0;3
asomar;3;0;0;0
aprender;0;0;0;3
apodar;3;0;0;0
anunciar;2;0;0;1
además;0;0;1;2
adelantar;3;0;0;0
acaso;1;0;0;2
