"V1";"V2";"V3";"V4";"V5";"V6"
"***";"nb classes";"4";"***";"";""
"**";"classe";"1";"**";"";""
"****";"422";"1104";"38.22";"****";""
"168";"182";" 92.31";"269.944";"jesús";"1.167259e-60"
" 88";" 94";" 93.62";"133.511";"discípulo";"6.989509e-31"
"143";"194";" 73.71";"125.517";"decir";"3.922457e-29"
" 74";" 75";" 98.67";"124.490";"tiempo";"6.581105e-29"
" 45";" 50";" 90.00";" 59.455";"judío";"1.251428e-14"
" 27";" 27";"100.00";" 44.729";"pedro";"2.262824e-11"
" 26";" 27";" 96.30";" 39.526";"preguntar";"3.236594e-10"
" 23";" 24";" 95.83";" 34.481";"allí";"4.305359e-09"
" 23";" 25";" 92.00";" 31.325";"echar";"2.182140e-08"
" 19";" 19";"100.00";" 31.244";"templo";"2.275646e-08"
" 20";" 22";" 90.91";" 26.386";"simón";"2.795840e-07"
" 15";" 15";"100.00";" 24.576";"maría";"7.145024e-07"
" 15";" 16";" 93.75";" 21.197";"sepulcro";"4.143084e-06"
" 26";" 35";" 74.29";" 19.906";"llegar";"8.135612e-06"
" 14";" 15";" 93.33";" 19.558";"hermano";"9.761514e-06"
" 14";" 15";" 93.33";" 19.558";"galilea";"9.761514e-06"
" 11";" 11";"100.00";" 17.956";"todavía";"2.260514e-05"
" 11";" 11";"100.00";" 17.956";"acercar";"2.260514e-05"
" 10";" 10";"100.00";" 16.309";"lázaro";"5.381169e-05"
" 10";" 10";"100.00";" 16.309";"fariseos";"5.381169e-05"
" 13";" 15";" 86.67";" 15.112";"pie";"1.013238e-04"
"  9";"  9";"100.00";" 14.665";"sacerdote";"1.284378e-04"
"  9";"  9";"100.00";" 14.665";"pez";"1.284378e-04"
"  9";"  9";"100.00";" 14.665";"lago";"1.284378e-04"
" 14";" 17";" 82.35";" 14.238";"gente";"1.610419e-04"
" 12";" 14";" 85.71";" 13.543";"jerusalén";"2.331789e-04"
" 10";" 11";" 90.91";" 13.060";"levantar";"3.016467e-04"
"  8";"  8";"100.00";" 13.023";"tomás";"3.076423e-04"
"  8";"  8";"100.00";" 13.023";"red";"3.076423e-04"
"  8";"  8";"100.00";" 13.023";"nicodemo";"3.076423e-04"
"  8";"  8";"100.00";" 13.023";"enfermo";"3.076423e-04"
"  8";"  8";"100.00";" 13.023";"barca";"3.076423e-04"
" 13";" 16";" 81.25";" 12.728";"muerto";"3.602758e-04"
" 18";" 25";" 72.00";" 12.357";"quedar";"4.392293e-04"
" 14";" 18";" 77.78";" 12.123";"llevar";"4.980006e-04"
" 14";" 18";" 77.78";" 12.123";"encontrar";"4.980006e-04"
" 11";" 13";" 84.62";" 11.989";"primero";"5.350855e-04"
"  9";" 10";" 90.00";" 11.456";"fiesta";"7.125710e-04"
"  9";" 10";" 90.00";" 11.456";"dos";"7.125710e-04"
"  9";" 10";" 90.00";" 11.456";"andar";"7.125710e-04"
"  7";"  7";"100.00";" 11.385";"natanael";"7.404021e-04"
"  7";"  7";"100.00";" 11.385";"marta";"7.404021e-04"
"  7";"  7";"100.00";" 11.385";"judas";"7.404021e-04"
"  7";"  7";"100.00";" 11.385";"aparecer";"7.404021e-04"
" 13";" 17";" 76.47";" 10.695";"vez";"1.073970e-03"
"  8";"  9";" 88.89";"  9.864";"orilla";"1.685672e-03"
" 11";" 14";" 78.57";"  9.775";"junto";"1.768722e-03"
" 11";" 14";" 78.57";"  9.775";"felipe";"1.768722e-03"
"  6";"  6";"100.00";"  9.750";"suelo";"1.793549e-03"
"  6";"  6";"100.00";"  9.750";"pascua";"1.793549e-03"
"  6";"  6";"100.00";"  9.750";"llenar";"1.793549e-03"
"  6";"  6";"100.00";"  9.750";"vi";"1.793549e-03"
"  6";"  6";"100.00";"  9.750";"sentar";"1.793549e-03"
"  6";"  6";"100.00";"  9.750";"higuera";"1.793549e-03"
"  6";"  6";"100.00";"  9.750";"debajo";"1.793549e-03"
"  6";"  6";"100.00";"  9.750";"año";"1.793549e-03"
" 10";" 13";" 76.92";"  8.343";"tomar";"3.872021e-03"
"  7";"  8";" 87.50";"  8.286";"tres";"3.994999e-03"
"  7";"  8";" 87.50";"  8.286";"resucitar";"3.994999e-03"
"  5";"  5";"100.00";"  8.117";"costado";"4.384404e-03"
"  5";"  5";"100.00";"  8.117";"vendar|vender";"4.384404e-03"
"  5";"  5";"100.00";"  8.117";"correr";"4.384404e-03"
"  5";"  5";"100.00";"  8.117";"sumos";"4.384404e-03"
"  5";"  5";"100.00";"  8.117";"seis";"4.384404e-03"
"  5";"  5";"100.00";"  8.117";"mellizo";"4.384404e-03"
"  5";"  5";"100.00";"  8.117";"marchar";"4.384404e-03"
"  5";"  5";"100.00";"  8.117";"judea";"4.384404e-03"
"  5";"  5";"100.00";"  8.117";"empezar";"4.384404e-03"
"  5";"  5";"100.00";"  8.117";"después";"4.384404e-03"
"  5";"  5";"100.00";"  8.117";"coger";"4.384404e-03"
"  5";"  5";"100.00";"  8.117";"cerrado";"4.384404e-03"
"  5";"  5";"100.00";"  8.117";"caná";"4.384404e-03"
"  5";"  5";"100.00";"  8.117";"cama";"4.384404e-03"
"  5";"  5";"100.00";"  8.117";"betania";"4.384404e-03"
"  5";"  5";"100.00";"  8.117";"andrés";"4.384404e-03"
" 12";" 17";" 70.59";"  7.658";"ojo";"5.650566e-03"
"  6";"  7";" 85.71";"  6.728";"sábado";"9.489965e-03"
"  4";"  4";"100.00";"  6.488";"llorar";"1.086074e-02"
"  4";"  4";"100.00";"  6.488";"vista";"1.086074e-02"
"  4";"  4";"100.00";"  6.488";"tiberíades";"1.086074e-02"
"  4";"  4";"100.00";"  6.488";"semana";"1.086074e-02"
"  4";"  4";"100.00";"  6.488";"sano";"1.086074e-02"
"  4";"  4";"100.00";"  6.488";"piedra";"1.086074e-02"
"  4";"  4";"100.00";"  6.488";"perfume";"1.086074e-02"
"  4";"  4";"100.00";"  6.488";"magdalena";"1.086074e-02"
"  4";"  4";"100.00";"  6.488";"iscariote";"1.086074e-02"
"  4";"  4";"100.00";"  6.488";"estado";"1.086074e-02"
"  4";"  4";"100.00";"  6.488";"embarcar";"1.086074e-02"
"  4";"  4";"100.00";"  6.488";"cuerpo";"1.086074e-02"
"  4";"  4";"100.00";"  6.488";"cuatro";"1.086074e-02"
"  4";"  4";"100.00";"  6.488";"cambista";"1.086074e-02"
"  4";"  4";"100.00";"  6.488";"cafarnaún";"1.086074e-02"
"  4";"  4";"100.00";"  6.488";"buey";"1.086074e-02"
"  4";"  4";"100.00";"  6.488";"barro";"1.086074e-02"
"  4";"  4";"100.00";"  6.488";"amanecer";"1.086074e-02"
" 15";" 24";" 62.50";"  6.123";"llamar";"1.334713e-02"
" 15";" 24";" 62.50";"  6.123";"juan";"1.334713e-02"
"  5";"  6";" 83.33";"  5.199";"cerca";"2.260611e-02"
"  5";"  6";" 83.33";"  5.199";"cinco";"2.260611e-02"
"  3";"  3";"100.00";"  4.862";"vender";"2.746162e-02"
"  3";"  3";"100.00";"  4.862";"tercero";"2.746162e-02"
"  3";"  3";"100.00";"  4.862";"sudario";"2.746162e-02"
"  3";"  3";"100.00";"  4.862";"samaría";"2.746162e-02"
"  3";"  3";"100.00";"  4.862";"retirar";"2.746162e-02"
"  3";"  3";"100.00";"  4.862";"recoger";"2.746162e-02"
"  3";"  3";"100.00";"  4.862";"presentar";"2.746162e-02"
"  3";"  3";"100.00";"  4.862";"pierna";"2.746162e-02"
"  3";"  3";"100.00";"  4.862";"ocho";"2.746162e-02"
"  3";"  3";"100.00";"  4.862";"enterar";"2.746162e-02"
"  3";"  3";"100.00";"  4.862";"derecha";"2.746162e-02"
"  3";"  3";"100.00";"  4.862";"cien";"2.746162e-02"
"  3";"  3";"100.00";"  4.862";"celebrar";"2.746162e-02"
"  3";"  3";"100.00";"  4.862";"asomar";"2.746162e-02"
"  3";"  3";"100.00";"  4.862";"apodar";"2.746162e-02"
"  3";"  3";"100.00";"  4.862";"adelantar";"2.746162e-02"
" 19";" 34";" 55.88";"  4.632";"día";"3.137979e-02"
"  6";"  8";" 75.00";"  4.615";"madre";"3.168720e-02"
"  6";"  8";" 75.00";"  4.615";"acudir";"3.168720e-02"
"  9";" 14";" 64.29";"  4.078";"ciego";"4.343312e-02"
" 11";" 18";" 61.11";"  4.059";"casa";"4.393851e-02"
" 19";" 35";" 54.29";"  3.949";"querer";"4.690863e-02"
"  4";"  5";" 80.00";"  3.712";"paloma";"5.401842e-02"
"  4";"  5";" 80.00";"  3.712";"mesa";"5.401842e-02"
"  4";"  5";" 80.00";"  3.712";"doce";"5.401842e-02"
"  4";"  5";" 80.00";"  3.712";"cabeza";"5.401842e-02"
"  4";"  5";" 80.00";"  3.712";"buscar";"5.401842e-02"
" 13";" 23";" 56.52";"  3.330";"salir";"6.801644e-02"
" 13";" 23";" 56.52";"  3.330";"oír";"6.801644e-02"
"  5";"  7";" 71.43";"  3.289";"cosa";"6.974002e-02"
"  5";"  7";" 71.43";"  3.289";"acordar";"6.974002e-02"
" 11";" 19";" 57.89";"  3.168";"tanto";"7.510704e-02"
"  6";"  9";" 66.67";"  3.109";"puerta";"7.788156e-02"
"  6";"  9";" 66.67";"  3.109";"enseñar";"7.788156e-02"
"  3";"  4";" 75.00";"  2.299";"nuevo";"1.294341e-01"
"  3";"  4";" 75.00";"  2.299";"jordán";"1.294341e-01"
"  3";"  4";" 75.00";"  2.299";"bautizando";"1.294341e-01"
"  3";"  4";" 75.00";"  2.299";"acabar";"1.294341e-01"
"  9";" 16";" 56.25";"  2.234";"subir";"1.350101e-01"
"  8";" 14";" 57.14";"  2.149";"mujer";"1.426462e-01"
"  8";" 14";" 57.14";"  2.149";"entrar";"1.426462e-01"
"  4";"  6";" 66.67";"  2.067";"noche";"1.505455e-01"
"  6";" 10";" 60.00";"  2.026";"sitio";"1.545870e-01"
"  5";"  8";" 62.50";"  2.011";"sólo";"1.561580e-01"
"*****";"*";"*";"*";"*";"*"
" 86";" 96";" 89.58";"117.449";"aquel";"2.289192e-27"
"113";"164";" 68.90";" 76.767";"se";"1.923604e-18"
"202";"389";" 51.93";" 47.765";"a";"4.805004e-12"
" 21";" 25";" 84.00";" 22.698";"entonces";"1.895396e-06"
" 36";" 54";" 66.67";" 19.451";"otro";"1.032281e-05"
" 14";" 17";" 82.35";" 14.238";"entre";"1.610419e-04"
"128";"275";" 46.55";" 10.738";"él";"1.049618e-03"
" 30";" 52";" 57.69";"  8.758";"cuando";"3.081753e-03"
" 18";" 28";" 64.29";"  8.263";"mucho";"4.045989e-03"
"143";"321";" 44.55";"  7.665";"en";"5.631492e-03"
" 35";" 68";" 51.47";"  5.384";"con";"2.031923e-02"
"211";"504";" 41.87";"  5.205";"y";"2.252557e-02"
" 15";" 25";" 60.00";"  5.136";"donde";"2.342904e-02"
"  3";"  3";"100.00";"  4.862";"demás";"2.746162e-02"
"  3";"  3";"100.00";"  4.862";"cincuenta";"2.746162e-02"
"*";"*";"*";"*";"*";"*"
" 34";" 39";" 87.18";"41.031";"*egutegia_OctavaDePas";"1.497994e-10"
" 17";" 18";" 94.44";"24.492";"*zein_Juan5-1-3a5-16";"7.460259e-07"
" 16";" 18";" 88.89";"19.891";"*zein_Juan21-1-19";"8.198594e-06"
" 16";" 18";" 88.89";"19.891";"*zein_Juan21-1-14";"8.198594e-06"
" 10";" 10";"100.00";"16.309";"*zein_Juan20-1-9";"5.381169e-05"
" 16";" 20";" 80.00";"15.054";"*zein_Juan6-1-15";"1.044793e-04"
"  8";"  8";"100.00";"13.023";"*zein_Juan20-2-8";"3.076423e-04"
" 11";" 13";" 84.62";"11.989";"*zein_Juan2-13-22";"5.350855e-04"
" 12";" 15";" 80.00";"11.239";"*zein_Juan8-1-11";"8.011132e-04"
" 12";" 15";" 80.00";"11.239";"*zein_Juan2-13-25";"8.011132e-04"
" 30";" 50";" 60.00";"10.516";"*zein_Juan11-1-45";"1.183144e-03"
"  9";" 11";" 81.82";" 8.942";"*zein_Juan12-1-11";"2.787106e-03"
"  5";"  5";"100.00";" 8.117";"*zein_Juan6-16-21";"4.384404e-03"
"  6";"  7";" 85.71";" 6.728";"*egutegia_FinDelTiemp";"9.489965e-03"
"  6";"  7";" 85.71";" 6.728";"*zein_Juan20-19-23";"9.489965e-03"
" 10";" 14";" 71.43";" 6.621";"*zein_Juan20-19-31";"1.008113e-02"
"162";"374";" 43.32";" 6.208";"*egutegia_SemanaDeCua";"1.271830e-02"
"  8";" 11";" 72.73";" 5.601";"*zein_Juan20-11-18";"1.794734e-02"
"  9";" 13";" 69.23";" 5.356";"*zein_Juan1-35-42";"2.065348e-02"
" 25";" 47";" 53.19";" 4.657";"*egutegia_SemanaSanta";"3.092951e-02"
"  6";"  8";" 75.00";" 4.615";"*zein_Juan21-20-25";"3.168720e-02"
" 20";" 37";" 54.05";" 4.062";"*egutegia_TiempoDeNav";"4.384940e-02"
"  4";"  5";" 80.00";" 3.712";"*zein_Juan19-25-27";"5.401842e-02"
"  9";" 15";" 60.00";" 3.054";"*zein_Juan11-45-57";"8.056104e-02"
"  7";" 11";" 63.64";" 3.038";"*zein_Juan1-43-51";"8.131382e-02"
"  8";" 13";" 61.54";" 3.028";"*zein_Juan2-1-11";"8.183879e-02"
"  4";"  6";" 66.67";" 2.067";"*zein_Juan20-24-29";"1.505455e-01"
"  4";"  6";" 66.67";" 2.067";"*zein_Juan19-31-37";"1.505455e-01"
"  6";" 10";" 60.00";" 2.026";"*egutegia_SemanaDeNav";"1.545870e-01"
"  6";" 10";" 60.00";" 2.026";"*zein_Juan3-22-30";"1.545870e-01"
"**";"classe";"2";"**";"";""
"****";"62";"1104";"5.62";"****";""
"29";" 44";" 65.91";"314.290";"pan";"2.539210e-70"
"18";" 21";" 85.71";"259.111";"comer";"2.681112e-58"
"15";" 17";" 88.24";"222.347";"carne";"2.782996e-50"
"12";" 17";" 70.59";"137.507";"siempre";"9.343165e-32"
" 8";" 10";" 80.00";"105.339";"sangre";"1.029172e-24"
"10";" 17";" 58.82";" 92.218";"vivir";"7.764687e-22"
" 5";"  5";"100.00";" 84.415";"coma";"4.011803e-20"
"12";" 28";" 42.86";" 75.169";"cielo";"4.320170e-18"
" 6";"  8";" 75.00";" 73.189";"vivo";"1.178022e-17"
" 5";"  6";" 83.33";" 68.744";"bajo";"1.121263e-16"
" 4";"  4";"100.00";" 67.470";"vuestros";"2.138888e-16"
" 4";"  4";"100.00";" 67.470";"maná";"2.138888e-16"
" 4";"  4";"100.00";" 67.470";"comida";"2.138888e-16"
" 6";" 10";" 60.00";" 56.308";"beber";"6.194806e-14"
" 4";"  5";" 80.00";" 52.430";"resucitaré";"4.458606e-13"
" 5";"  8";" 62.50";" 49.194";"último";"2.319090e-12"
"15";" 58";" 25.86";" 47.340";"vida";"5.968255e-12"
" 3";"  4";" 75.00";" 36.461";"resurrección";"1.557118e-09"
" 6";" 17";" 35.29";" 28.691";"bajar";"8.490923e-08"
" 3";"  5";" 60.00";" 28.026";"servir";"1.196875e-07"
" 6";" 19";" 31.58";" 24.586";"morir";"7.107928e-07"
" 4";" 10";" 40.00";" 22.508";"desierto";"2.092260e-06"
" 2";"  3";" 66.67";" 21.153";"habitar";"4.241294e-06"
" 2";"  4";" 50.00";" 14.920";"haz";"1.121669e-04"
" 2";"  6";" 33.33";"  8.744";"modo";"3.106523e-03"
" 3";" 13";" 23.08";"  7.567";"saber|ser";"5.945817e-03"
"12";"110";" 10.91";"  6.458";"dar";"1.104684e-02"
" 5";" 34";" 14.71";"  5.468";"día";"1.936268e-02"
" 1";"  3";" 33.33";"  4.360";"elegir";"3.679231e-02"
" 1";"  3";" 33.33";"  4.360";"pobre";"3.679231e-02"
" 1";"  3";" 33.33";"  4.360";"mal";"3.679231e-02"
" 1";"  4";" 25.00";"  2.846";"alimento";"9.161293e-02"
" 1";"  4";" 25.00";"  2.846";"bastar";"9.161293e-02"
"*****";"*";"*";"*";"*";"*"
"22";"113";"19.47";"45.577";"del";"1.467560e-11"
"17";"124";"13.71";"17.264";"para";"3.252918e-05"
"30";"293";"10.24";"16.082";"yo";"6.066274e-05"
"13";"110";"11.82";" 8.866";"mío";"2.904547e-03"
"40";"527";" 7.59";" 7.414";"que";"6.471319e-03"
"14";"134";"10.45";" 6.717";"este";"9.547588e-03"
" 5";" 39";"12.82";" 3.959";"como";"4.662302e-02"
" 2";" 10";"20.00";" 3.939";"nuestro";"4.717694e-02"
" 7";" 65";"10.77";" 3.460";"tener";"6.285866e-02"
" 2";" 11";"18.18";" 3.310";"verdadero";"6.886655e-02"
"21";"286";" 7.34";" 2.171";"ser";"1.406155e-01"
"*";"*";"*";"*";"*";"*"
"13";" 14";"92.86";"203.607";"*zein_Juan6-51-58";"3.409940e-46"
" 8";" 10";"80.00";"105.339";"*zein_Juan6-52-59";"1.029172e-24"
"24";"125";"19.20";" 49.072";"*egutegia_SemanaDelTi";"2.467312e-12"
" 6";" 14";"42.86";" 37.102";"*zein_Juan6-41-51";"1.121117e-09"
" 4";"  7";"57.14";" 35.286";"*zein_Juan6-30-35";"2.846107e-09"
" 5";" 11";"45.45";" 33.268";"*zein_Juan6-44-51";"8.028722e-09"
" 4";" 14";"28.57";" 14.097";"*zein_Juan6-24-35";"1.736335e-04"
" 1";"  4";"25.00";"  2.846";"*zein_Juan10-27-30";"9.161293e-02"
"**";"classe";"3";"**";"";""
"****";"90";"1104";"8.15";"****";""
"17";"21";" 80.95";"151.524";"luz";"8.049223e-35"
"15";"17";" 88.24";"147.886";"mis";"5.023119e-34"
"12";"14";" 85.71";"113.927";"ama";"1.351794e-26"
"14";"19";" 73.68";"110.881";"oveja";"6.282472e-26"
"12";"16";" 75.00";" 96.893";"guardar";"7.317679e-23"
"15";"27";" 55.56";" 83.060";"obra";"7.958839e-20"
"11";"17";" 64.71";" 73.751";"voz";"8.861635e-18"
" 8";"10";" 80.00";" 69.572";"bueno";"7.366217e-17"
" 6";" 6";"100.00";" 67.969";"mandamiento";"1.660527e-16"
" 6";" 6";"100.00";" 67.969";"creed";"1.660527e-16"
" 6";" 6";"100.00";" 67.969";"pastor";"1.660527e-16"
" 6";" 6";"100.00";" 67.969";"guardará";"1.660527e-16"
" 5";" 5";"100.00";" 56.590";"tiniebla";"5.369434e-14"
" 4";" 4";"100.00";" 45.231";"realizar";"1.751518e-11"
" 4";" 4";"100.00";" 45.231";"amará";"1.751518e-11"
" 7";"13";" 53.85";" 36.683";"vino";"1.389953e-09"
" 4";" 5";" 80.00";" 34.628";"caminar";"3.991415e-09"
" 5";" 8";" 62.50";" 31.789";"cambio";"1.719043e-08"
"13";"42";" 30.95";" 30.313";"palabra";"3.676510e-08"
" 3";" 4";" 75.00";" 23.959";"perder";"9.840932e-07"
" 3";" 4";" 75.00";" 23.959";"malo";"9.840932e-07"
" 3";" 4";" 75.00";" 23.959";"cumplir";"9.840932e-07"
" 4";" 7";" 57.14";" 22.581";"permanecer";"2.014564e-06"
" 7";"23";" 30.43";" 15.576";"seguir";"7.924666e-05"
" 5";"14";" 35.71";" 14.386";"escuchar";"1.488707e-04"
" 4";"10";" 40.00";" 13.670";"acerca";"2.179061e-04"
" 2";" 4";" 50.00";"  9.389";"acusar";"2.182384e-03"
" 2";" 4";" 50.00";"  9.389";"nazaret";"2.182384e-03"
" 2";" 4";" 50.00";"  9.389";"ladrón";"2.182384e-03"
" 3";" 8";" 37.50";"  9.270";"erar|ser";"2.329965e-03"
"12";"69";" 17.39";"  8.391";"mundo";"3.771476e-03"
" 3";" 9";" 33.33";"  7.684";"amor";"5.570204e-03"
" 3";" 9";" 33.33";"  7.684";"puerta";"5.570204e-03"
" 3";" 9";" 33.33";"  7.684";"amigo";"5.570204e-03"
"12";"74";" 16.22";"  6.889";"hacer";"8.675035e-03"
" 7";"37";" 18.92";"  5.927";"mismo";"1.491084e-02"
" 2";" 6";" 33.33";"  5.109";"testigo";"2.380345e-02"
" 2";" 6";" 33.33";"  5.109";"aceptar";"2.380345e-02"
" 9";"58";" 15.52";"  4.435";"vida";"3.521282e-02"
" 2";" 7";" 28.57";"  3.923";"matar";"4.763503e-02"
" 3";"14";" 21.43";"  3.338";"ése";"6.769607e-02"
" 3";"14";" 21.43";"  3.338";"entrar";"6.769607e-02"
" 7";"46";" 15.22";"  3.200";"conocer";"7.363827e-02"
" 2";" 8";" 25.00";"  3.055";"sacar";"8.049502e-02"
" 2";" 8";" 25.00";"  3.055";"dar|distar";"8.049502e-02"
" 1";" 3";" 33.33";"  2.547";"traer";"1.104698e-01"
" 1";" 3";" 33.33";"  2.547";"rogar";"1.104698e-01"
" 1";" 3";" 33.33";"  2.547";"parte";"1.104698e-01"
" 1";" 3";" 33.33";"  2.547";"mal";"1.104698e-01"
" 1";" 3";" 33.33";"  2.547";"juzgo";"1.104698e-01"
" 1";" 3";" 33.33";"  2.547";"igual";"1.104698e-01"
" 1";" 3";" 33.33";"  2.547";"conceder";"1.104698e-01"
" 1";" 3";" 33.33";"  2.547";"además";"1.104698e-01"
" 2";" 9";" 22.22";"  2.399";"juzgar";"1.214059e-01"
" 4";"24";" 16.67";"  2.375";"juan";"1.232622e-01"
" 4";"25";" 16.00";"  2.104";"eterno";"1.469151e-01"
"*****";"*";"*";"*";"*";"*"
" 2";"  3";"66.67";"13.756";"según";"0.0002081710"
"38";"293";"12.97";"12.361";"yo";"0.0004384431"
"18";"110";"16.36";"11.002";"mío";"0.0009101059"
"13";" 80";"16.25";" 7.554";"si";"0.0059890485"
"11";" 64";"17.19";" 7.407";"sino";"0.0064959052"
"75";"786";" 9.54";" 7.039";"el";"0.0079737244"
"31";"292";"10.62";" 3.220";"no";"0.0727527481"
" 2";"  8";"25.00";" 3.055";"algo";"0.0804950194"
"12";"101";"11.88";" 2.065";"porque";"0.1507547864"
"*";"*";"*";"*";"*";"*"
" 9";" 12";"75.00";"72.404";"*zein_Juan10-11-18";"1.753970e-17"
" 8";" 12";"66.67";"55.477";"*zein_Juan10-1-10";"9.456334e-14"
"55";"429";"12.82";"20.422";"*egutegia_SemanaDePas";"6.210134e-06"
" 4";"  9";"44.44";"15.962";"*zein_Juan14-15-21";"6.463166e-05"
" 6";" 19";"31.58";"14.170";"*zein_Juan1-1-18";"1.669957e-04"
" 3";"  8";"37.50";" 9.270";"*zein_Juan3-16-21";"2.329965e-03"
" 3";"  9";"33.33";" 7.684";"*zein_Juan12-44-50";"5.570204e-03"
" 3";"  9";"33.33";" 7.684";"*zein_Juan14-21-26";"5.570204e-03"
" 3";"  9";"33.33";" 7.684";"*zein_Juan3-14-21";"5.570204e-03"
" 3";"  9";"33.33";" 7.684";"*zein_Juan15-9-17";"5.570204e-03"
" 6";" 27";"22.22";" 7.318";"*egutegia_NavidadYOct";"6.828425e-03"
" 1";"  3";"33.33";" 2.547";"*zein_Juan15-9-11";"1.104698e-01"
" 2";"  9";"22.22";" 2.399";"*zein_Juan10-22-30";"1.214059e-01"
"**";"classe";"4";"**";"";""
"****";"530";"1104";"48.01";"****";""
" 99";"106";" 93.40";"96.782";"os";"7.738751e-23"
"122";"149";" 81.88";"79.174";"padre";"5.687300e-19"
" 79";" 87";" 90.80";"69.303";"dios";"8.444442e-17"
" 59";" 67";" 88.06";"45.843";"venir";"1.281149e-11"
" 68";" 81";" 83.95";"45.245";"hijo";"1.739022e-11"
" 86";"110";" 78.18";"44.566";"dar";"2.458696e-11"
" 52";" 58";" 89.66";"42.540";"enviar";"6.923394e-11"
" 32";" 33";" 96.97";"32.672";"ahora";"1.091208e-08"
" 35";" 39";" 89.74";"28.214";"hablar";"1.086212e-07"
" 60";" 78";" 76.92";"28.115";"ir";"1.143166e-07"
" 48";" 59";" 81.36";"27.772";"crear|creer";"1.364626e-07"
" 38";" 46";" 82.61";"23.024";"conocer";"1.599941e-06"
" 52";" 69";" 75.36";"22.065";"mundo";"2.635719e-06"
" 26";" 29";" 89.66";"20.696";"testimonio";"5.381583e-06"
" 28";" 32";" 87.50";"20.593";"asegurar";"5.681770e-06"
" 28";" 33";" 84.85";"18.497";"nadie";"1.701298e-05"
" 40";" 53";" 75.47";"16.824";"saber";"4.100698e-05"
" 22";" 25";" 88.00";"16.391";"nombre";"5.153426e-05"
" 22";" 25";" 88.00";"16.391";"así";"5.153426e-05"
" 23";" 27";" 85.19";"15.326";"verdad";"9.044711e-05"
" 20";" 23";" 86.96";"14.276";"cómo";"1.578268e-04"
" 13";" 13";"100.00";"14.247";"vuestro";"1.603154e-04"
" 12";" 12";"100.00";"13.139";"moisés";"2.892057e-04"
" 11";" 11";"100.00";"12.033";"fruto";"5.226401e-04"
" 11";" 11";"100.00";"12.033";"glorificado";"5.226401e-04"
" 11";" 11";"100.00";"12.033";"único";"5.226401e-04"
" 11";" 11";"100.00";"12.033";"maestro";"5.226401e-04"
" 13";" 14";" 92.86";"11.427";"nacer";"7.237252e-04"
" 10";" 10";"100.00";"10.929";"cuenta";"9.466113e-04"
" 49";" 74";" 66.22";"10.536";"hacer";"1.170578e-03"
" 14";" 16";" 87.50";"10.145";"espíritu";"1.447054e-03"
" 11";" 12";" 91.67";" 9.265";"profeta";"2.336056e-03"
" 11";" 12";" 91.67";" 9.265";"gloria";"2.336056e-03"
"  8";"  8";"100.00";" 8.727";"podar|poder";"3.134644e-03"
"  8";"  8";"100.00";" 8.727";"oído";"3.134644e-03"
"  8";"  8";"100.00";" 8.727";"ley";"3.134644e-03"
"  8";"  8";"100.00";" 8.727";"conmigo";"3.134644e-03"
" 10";" 11";" 90.91";" 8.193";"mesías";"4.205191e-03"
" 19";" 25";" 76.00";" 8.030";"eterno";"4.600240e-03"
" 29";" 42";" 69.05";" 7.744";"ya";"5.389888e-03"
" 26";" 37";" 70.27";" 7.602";"mismo";"5.830517e-03"
"  9";" 10";" 90.00";" 7.129";"condenar";"7.583158e-03"
"  6";"  6";"100.00";" 6.534";"voluntad";"1.058542e-02"
"  6";"  6";"100.00";" 6.534";"culto";"1.058542e-02"
"  6";"  6";"100.00";" 6.534";"crear";"1.058542e-02"
"  6";"  6";"100.00";" 6.534";"sed";"1.058542e-02"
"  6";"  6";"100.00";" 6.534";"santo";"1.058542e-02"
"  6";"  6";"100.00";" 6.534";"rabí";"1.058542e-02"
"  6";"  6";"100.00";" 6.534";"nunca";"1.058542e-02"
"  6";"  6";"100.00";" 6.534";"muéstranos";"1.058542e-02"
" 14";" 18";" 77.78";" 6.497";"dónde";"1.080363e-02"
" 31";" 47";" 65.96";" 6.337";"hombre";"1.182474e-02"
" 20";" 28";" 71.43";" 6.314";"creer";"1.198044e-02"
"  8";"  9";" 88.89";" 6.076";"poco";"1.370451e-02"
"  8";"  9";" 88.89";" 6.076";"abierto";"1.370451e-02"
"  5";"  5";"100.00";" 5.440";"reino";"1.968370e-02"
"  5";"  5";"100.00";" 5.440";"perezca";"1.968370e-02"
"  5";"  5";"100.00";" 5.440";"israel";"1.968370e-02"
"  5";"  5";"100.00";" 5.440";"existir";"1.968370e-02"
" 11";" 14";" 78.57";" 5.307";"camino";"2.124028e-02"
"  9";" 11";" 81.82";" 5.089";"amar";"2.408232e-02"
"  7";"  8";" 87.50";" 5.035";"abrahán";"2.483439e-02"
"  7";"  8";" 87.50";" 5.035";"entender";"2.483439e-02"
" 15";" 21";" 71.43";" 4.705";"hora";"3.008001e-02"
" 10";" 13";" 76.92";" 4.407";"saber|ser";"3.579890e-02"
"  4";"  4";"100.00";" 4.348";"suceder";"3.705617e-02"
"  4";"  4";"100.00";" 4.348";"elevar";"3.705617e-02"
"  4";"  4";"100.00";" 4.348";"válido";"3.705617e-02"
"  4";"  4";"100.00";" 4.348";"trabajo";"3.705617e-02"
"  4";"  4";"100.00";" 4.348";"tampoco";"3.705617e-02"
"  4";"  4";"100.00";" 4.348";"significar";"3.705617e-02"
"  4";"  4";"100.00";" 4.348";"principio";"3.705617e-02"
"  4";"  4";"100.00";" 4.348";"pidáis";"3.705617e-02"
"  4";"  4";"100.00";" 4.348";"pecador";"3.705617e-02"
"  4";"  4";"100.00";" 4.348";"dichosos";"3.705617e-02"
"  4";"  4";"100.00";" 4.348";"comunicar";"3.705617e-02"
"  4";"  4";"100.00";" 4.348";"comparación";"3.705617e-02"
"  4";"  4";"100.00";" 4.348";"amo";"3.705617e-02"
"  6";"  7";" 85.71";" 4.013";"propio";"4.515406e-02"
"  6";"  7";" 85.71";" 4.013";"muerte";"4.515406e-02"
"  9";" 12";" 75.00";" 3.541";"dejar";"5.985567e-02"
"  3";"  3";"100.00";" 3.258";"paz";"7.107968e-02"
"  3";"  3";"100.00";" 3.258";"glorificará";"7.107968e-02"
"  3";"  3";"100.00";" 3.258";"razón";"7.107968e-02"
"  3";"  3";"100.00";" 3.258";"vid";"7.107968e-02"
"  3";"  3";"100.00";" 3.258";"surgir";"7.107968e-02"
"  3";"  3";"100.00";" 3.258";"siervo";"7.107968e-02"
"  3";"  3";"100.00";" 3.258";"serpiente";"7.107968e-02"
"  3";"  3";"100.00";" 3.258";"recordar";"7.107968e-02"
"  3";"  3";"100.00";" 3.258";"príncipe";"7.107968e-02"
"  3";"  3";"100.00";" 3.258";"proceder";"7.107968e-02"
"  3";"  3";"100.00";" 3.258";"paráclito";"7.107968e-02"
"  3";"  3";"100.00";" 3.258";"linaje";"7.107968e-02"
"  3";"  3";"100.00";" 3.258";"hambre";"7.107968e-02"
"  3";"  3";"100.00";" 3.258";"envío";"7.107968e-02"
"  3";"  3";"100.00";" 3.258";"cuándo";"7.107968e-02"
"  3";"  3";"100.00";" 3.258";"conocierais";"7.107968e-02"
"  3";"  3";"100.00";" 3.258";"conoceríais";"7.107968e-02"
"  3";"  3";"100.00";" 3.258";"buscáis";"7.107968e-02"
"  3";"  3";"100.00";" 3.258";"aprender";"7.107968e-02"
"  7";"  9";" 77.78";" 3.222";"juzgar";"7.265630e-02"
" 10";" 14";" 71.43";" 3.116";"ése";"7.751101e-02"
"  5";"  6";" 83.33";" 3.016";"adonde";"8.243667e-02"
"  5";"  6";" 83.33";" 3.016";"pensar";"8.243667e-02"
" 34";" 58";" 58.62";" 2.763";"vida";"9.648733e-02"
"  8";" 11";" 72.73";" 2.720";"aquí";"9.908987e-02"
"  6";"  8";" 75.00";" 2.352";"mandar";"1.250981e-01"
"  6";"  8";" 75.00";" 2.352";"dar|distar";"1.250981e-01"
"  4";"  5";" 80.00";" 2.060";"vuestra";"1.512442e-01"
"  4";"  5";" 80.00";" 2.060";"saltar";"1.512442e-01"
"  4";"  5";" 80.00";" 2.060";"pescado";"1.512442e-01"
"  4";"  5";" 80.00";" 2.060";"juicio";"1.512442e-01"
"  4";"  5";" 80.00";" 2.060";"embargo";"1.512442e-01"
"  4";"  5";" 80.00";" 2.060";"caer";"1.512442e-01"
"*****";"*";"*";"*";"*";"*"
"205";"293";" 69.97";"77.051";"yo";"1.666270e-18"
"190";"292";" 65.07";"46.299";"no";"1.015368e-11"
"181";"289";" 62.63";"33.535";"haber";"6.997830e-09"
"301";"527";" 57.12";"33.516";"que";"7.069109e-09"
" 57";" 73";" 78.08";"28.327";"vosotros";"1.024819e-07"
" 26";" 27";" 96.30";"25.856";"nosotros";"3.678197e-07"
" 51";" 66";" 77.27";"24.087";"todo";"9.209400e-07"
" 59";" 80";" 73.75";"22.899";"si";"1.707267e-06"
"169";"286";" 59.09";"18.998";"ser";"1.308828e-05"
" 74";"110";" 67.27";"18.167";"mío";"2.023449e-05"
" 30";" 40";" 75.00";"12.115";"poder";"5.001127e-04"
" 65";"101";" 64.36";"11.905";"porque";"5.598104e-04"
" 16";" 19";" 84.21";"10.152";"ni";"1.441675e-03"
" 66";"106";" 62.26";" 9.549";"tú";"2.000886e-03"
" 28";" 39";" 71.79";" 9.165";"como";"2.466758e-03"
" 42";" 64";" 65.62";" 8.448";"sino";"3.653933e-03"
" 17";" 22";" 77.27";" 7.702";"pues";"5.514737e-03"
" 17";" 22";" 77.27";" 7.702";"ese";"5.514737e-03"
" 10";" 12";" 83.33";" 6.066";"sin";"1.378450e-02"
" 72";"124";" 58.06";" 5.661";"para";"1.734854e-02"
"  5";"  5";"100.00";" 5.440";"encima";"1.968370e-02"
" 40";" 65";" 61.54";" 5.066";"tener";"2.439541e-02"
" 26";" 40";" 65.00";" 4.801";"quien";"2.843708e-02"
" 62";"108";" 57.41";" 4.238";"por";"3.953018e-02"
"  9";" 12";" 75.00";" 3.541";"nada";"5.985567e-02"
"  3";"  3";"100.00";" 3.258";"deber";"7.107968e-02"
"  7";"  9";" 77.78";" 3.222";"dentro";"7.265630e-02"
"  8";" 11";" 72.73";" 2.720";"verdadero";"9.908987e-02"
" 10";" 15";" 66.67";" 2.121";"sobre";"1.452738e-01"
"*";"*";"*";"*";"*";"*"
"242";"429";"56.41";"19.849";"*egutegia_SemanaDePas";"8.379833e-06"
" 15";" 18";"83.33";" 9.149";"*zein_Juan5-31-47";"2.489125e-03"
" 13";" 15";"86.67";" 9.105";"*zein_Juan8-31-42";"2.548721e-03"
"  9";" 10";"90.00";" 7.129";"*zein_Juan3-31-36";"7.583158e-03"
" 11";" 13";"84.62";" 7.063";"*zein_Juan17-1-11a";"7.868916e-03"
" 14";" 18";"77.78";" 6.497";"*zein_Juan14-1-12";"1.080363e-02"
" 11";" 14";"78.57";" 5.307";"*zein_Juan14-6-14";"2.124028e-02"
" 28";" 43";"65.12";" 5.247";"*zein_Juan4-5-42";"2.198275e-02"
"  7";"  8";"87.50";" 5.035";"*zein_Juan16-29-33";"2.483439e-02"
"  7";"  8";"87.50";" 5.035";"*zein_Juan17-20-26";"2.483439e-02"
"  8";" 10";"80.00";" 4.138";"*zein_Juan8-21-30";"4.192717e-02"
"  6";"  7";"85.71";" 4.013";"*zein_Juan15-26-16-4a";"4.515406e-02"
"  6";"  7";"85.71";" 4.013";"*zein_Juan3-5a7b-15";"4.515406e-02"
"  6";"  7";"85.71";" 4.013";"*zein_Juan14-27-31a";"4.515406e-02"
"  9";" 12";"75.00";" 3.541";"*zein_Juan14-7-14";"5.985567e-02"
" 12";" 17";"70.59";" 3.527";"*zein_Juan5-17-30";"6.037123e-02"
" 13";" 19";"68.42";" 3.228";"*zein_Juan1-1-18";"7.240292e-02"
"  5";"  6";"83.33";" 3.016";"*zein_Juan16-5-11";"8.243667e-02"
"  5";"  6";"83.33";" 3.016";"*zein_Juan13-31-33a34-35";"8.243667e-02"
"  5";"  6";"83.33";" 3.016";"*zein_Juan16-23b-28";"8.243667e-02"
"  5";"  6";"83.33";" 3.016";"*zein_Juan16-12-15";"8.243667e-02"
"  8";" 11";"72.73";" 2.720";"*zein_Juan15-1-8";"9.908987e-02"
"  6";"  8";"75.00";" 2.352";"*zein_Juan6-35-40";"1.250981e-01"
"  6";"  8";"75.00";" 2.352";"*zein_Juan14-1-6";"1.250981e-01"
"  6";"  8";"75.00";" 2.352";"*zein_Juan16-16-20";"1.250981e-01"
"  4";"  5";"80.00";" 2.060";"*zein_Juan3-16-18";"1.512442e-01"
"  4";"  5";"80.00";" 2.060";"*zein_Juan3-13-17";"1.512442e-01"
