"";"X";"V1"
"1";1;4
"2";2;4
"3";3;4
"4";4;3
"5";5;3
"6";6;4
"7";7;3
"8";8;3
"9";9;3
"10";10;4
"11";11;3
"12";12;4
"13";13;4
"14";14;4
"15";15;4
"16";16;4
"17";17;4
"18";18;4
"19";19;4
"20";20;1
"21";21;4
"22";22;0
"23";23;4
"24";24;4
"25";25;1
"26";26;0
"27";27;4
"28";28;1
"29";29;1
"30";30;0
"31";31;4
"32";32;4
"33";33;2
"34";34;4
"35";35;4
"36";36;1
"37";37;4
"38";38;1
"39";39;1
"40";40;4
"41";41;4
"42";42;1
"43";43;1
"44";44;1
"45";45;4
"46";46;1
"47";47;1
"48";48;1
"49";49;1
"50";50;1
"51";51;1
"52";52;1
"53";53;4
"54";54;3
"55";55;1
"56";56;0
"57";57;1
"58";58;4
"59";59;1
"60";60;4
"61";61;1
"62";62;4
"63";63;3
"64";64;1
"65";65;0
"66";66;1
"67";67;4
"68";68;1
"69";69;4
"70";70;1
"71";71;0
"72";72;1
"73";73;4
"74";74;1
"75";75;4
"76";76;4
"77";77;3
"78";78;1
"79";79;4
"80";80;0
"81";81;4
"82";82;4
"83";83;1
"84";84;0
"85";85;4
"86";86;1
"87";87;3
"88";88;3
"89";89;3
"90";90;3
"91";91;3
"92";92;4
"93";93;3
"94";94;4
"95";95;3
"96";96;1
"97";97;3
"98";98;4
"99";99;3
"100";100;3
"101";101;3
"102";102;4
"103";103;3
"104";104;3
"105";105;3
"106";106;3
"107";107;3
"108";108;3
"109";109;4
"110";110;4
"111";111;1
"112";112;1
"113";113;4
"114";114;4
"115";115;3
"116";116;3
"117";117;2
"118";118;4
"119";119;4
"120";120;3
"121";121;2
"122";122;4
"123";123;4
"124";124;1
"125";125;4
"126";126;3
"127";127;4
"128";128;4
"129";129;3
"130";130;0
"131";131;1
"132";132;1
"133";133;4
"134";134;1
"135";135;1
"136";136;1
"137";137;1
"138";138;1
"139";139;1
"140";140;1
"141";141;4
"142";142;1
"143";143;1
"144";144;1
"145";145;1
"146";146;4
"147";147;3
"148";148;3
"149";149;1
"150";150;4
"151";151;1
"152";152;4
"153";153;1
"154";154;4
"155";155;1
"156";156;4
"157";157;1
"158";158;1
"159";159;1
"160";160;1
"161";161;1
"162";162;4
"163";163;2
"164";164;2
"165";165;2
"166";166;4
"167";167;1
"168";168;4
"169";169;1
"170";170;1
"171";171;1
"172";172;1
"173";173;1
"174";174;4
"175";175;1
"176";176;0
"177";177;1
"178";178;1
"179";179;4
"180";180;1
"181";181;4
"182";182;2
"183";183;4
"184";184;3
"185";185;1
"186";186;1
"187";187;1
"188";188;1
"189";189;1
"190";190;4
"191";191;4
"192";192;1
"193";193;4
"194";194;1
"195";195;4
"196";196;4
"197";197;1
"198";198;1
"199";199;1
"200";200;4
"201";201;1
"202";202;1
"203";203;1
"204";204;1
"205";205;1
"206";206;1
"207";207;1
"208";208;1
"209";209;3
"210";210;2
"211";211;1
"212";212;1
"213";213;1
"214";214;1
"215";215;1
"216";216;1
"217";217;1
"218";218;4
"219";219;4
"220";220;4
"221";221;3
"222";222;1
"223";223;2
"224";224;4
"225";225;4
"226";226;3
"227";227;4
"228";228;1
"229";229;4
"230";230;1
"231";231;3
"232";232;4
"233";233;4
"234";234;4
"235";235;4
"236";236;1
"237";237;4
"238";238;4
"239";239;3
"240";240;1
"241";241;2
"242";242;4
"243";243;4
"244";244;3
"245";245;3
"246";246;3
"247";247;4
"248";248;4
"249";249;4
"250";250;4
"251";251;4
"252";252;4
"253";253;1
"254";254;4
"255";255;1
"256";256;1
"257";257;1
"258";258;4
"259";259;1
"260";260;4
"261";261;1
"262";262;1
"263";263;0
"264";264;4
"265";265;1
"266";266;4
"267";267;4
"268";268;4
"269";269;4
"270";270;1
"271";271;4
"272";272;4
"273";273;1
"274";274;2
"275";275;4
"276";276;4
"277";277;4
"278";278;1
"279";279;4
"280";280;1
"281";281;1
"282";282;1
"283";283;1
"284";284;2
"285";285;1
"286";286;2
"287";287;3
"288";288;4
"289";289;1
"290";290;1
"291";291;4
"292";292;4
"293";293;4
"294";294;4
"295";295;4
"296";296;1
"297";297;4
"298";298;4
"299";299;4
"300";300;0
"301";301;4
"302";302;4
"303";303;1
"304";304;0
"305";305;3
"306";306;4
"307";307;4
"308";308;4
"309";309;4
"310";310;4
"311";311;4
"312";312;4
"313";313;4
"314";314;4
"315";315;4
"316";316;4
"317";317;3
"318";318;4
"319";319;3
"320";320;4
"321";321;4
"322";322;1
"323";323;3
"324";324;4
"325";325;4
"326";326;4
"327";327;4
"328";328;4
"329";329;4
"330";330;1
"331";331;3
"332";332;4
"333";333;4
"334";334;3
"335";335;4
"336";336;4
"337";337;3
"338";338;3
"339";339;1
"340";340;3
"341";341;1
"342";342;4
"343";343;3
"344";344;3
"345";345;4
"346";346;4
"347";347;4
"348";348;1
"349";349;3
"350";350;3
"351";351;4
"352";352;4
"353";353;4
"354";354;4
"355";355;0
"356";356;4
"357";357;4
"358";358;4
"359";359;1
"360";360;4
"361";361;0
"362";362;4
"363";363;4
"364";364;4
"365";365;4
"366";366;4
"367";367;1
"368";368;4
"369";369;4
"370";370;4
"371";371;4
"372";372;4
"373";373;4
"374";374;4
"375";375;3
"376";376;4
"377";377;3
"378";378;4
"379";379;4
"380";380;4
"381";381;1
"382";382;4
"383";383;4
"384";384;4
"385";385;4
"386";386;4
"387";387;3
"388";388;4
"389";389;3
"390";390;4
"391";391;4
"392";392;4
"393";393;1
"394";394;4
"395";395;4
"396";396;4
"397";397;4
"398";398;0
"399";399;4
"400";400;4
"401";401;4
"402";402;1
"403";403;3
"404";404;4
"405";405;1
"406";406;0
"407";407;4
"408";408;3
"409";409;4
"410";410;4
"411";411;4
"412";412;4
"413";413;0
"414";414;1
"415";415;4
"416";416;4
"417";417;4
"418";418;4
"419";419;3
"420";420;4
"421";421;1
"422";422;4
"423";423;4
"424";424;4
"425";425;4
"426";426;4
"427";427;4
"428";428;1
"429";429;4
"430";430;3
"431";431;0
"432";432;1
"433";433;4
"434";434;3
"435";435;3
"436";436;0
"437";437;0
"438";438;4
"439";439;3
"440";440;4
"441";441;4
"442";442;4
"443";443;0
"444";444;1
"445";445;4
"446";446;4
"447";447;4
"448";448;4
"449";449;4
"450";450;1
"451";451;4
"452";452;4
"453";453;4
"454";454;4
"455";455;1
"456";456;4
"457";457;4
"458";458;0
"459";459;1
"460";460;0
"461";461;4
"462";462;4
"463";463;0
"464";464;1
"465";465;4
"466";466;0
"467";467;4
"468";468;4
"469";469;4
"470";470;4
"471";471;1
"472";472;4
"473";473;4
"474";474;4
"475";475;4
"476";476;4
"477";477;4
"478";478;4
"479";479;1
"480";480;0
"481";481;4
"482";482;4
"483";483;4
"484";484;0
"485";485;0
"486";486;4
"487";487;4
"488";488;1
"489";489;4
"490";490;4
"491";491;4
"492";492;4
"493";493;4
"494";494;3
"495";495;4
"496";496;4
"497";497;4
"498";498;0
"499";499;4
"500";500;4
"501";501;4
"502";502;1
"503";503;4
"504";504;3
"505";505;4
"506";506;4
"507";507;3
"508";508;4
"509";509;4
"510";510;4
"511";511;4
"512";512;1
"513";513;4
"514";514;4
"515";515;4
"516";516;4
"517";517;4
"518";518;4
"519";519;4
"520";520;1
"521";521;1
"522";522;4
"523";523;1
"524";524;4
"525";525;4
"526";526;4
"527";527;1
"528";528;4
"529";529;4
"530";530;3
"531";531;1
"532";532;1
"533";533;4
"534";534;1
"535";535;1
"536";536;1
"537";537;1
"538";538;1
"539";539;4
"540";540;3
"541";541;1
"542";542;1
"543";543;1
"544";544;1
"545";545;1
"546";546;1
"547";547;1
"548";548;1
"549";549;4
"550";550;4
"551";551;4
"552";552;3
"553";553;3
"554";554;1
"555";555;1
"556";556;1
"557";557;1
"558";558;1
"559";559;1
"560";560;4
"561";561;1
"562";562;1
"563";563;4
"564";564;1
"565";565;1
"566";566;1
"567";567;1
"568";568;1
"569";569;1
"570";570;1
"571";571;1
"572";572;1
"573";573;4
"574";574;1
"575";575;1
"576";576;4
"577";577;1
"578";578;1
"579";579;1
"580";580;1
"581";581;1
"582";582;4
"583";583;1
"584";584;1
"585";585;1
"586";586;1
"587";587;1
"588";588;1
"589";589;1
"590";590;1
"591";591;1
"592";592;1
"593";593;1
"594";594;1
"595";595;4
"596";596;1
"597";597;1
"598";598;0
"599";599;1
"600";600;1
"601";601;1
"602";602;4
"603";603;1
"604";604;4
"605";605;1
"606";606;1
"607";607;1
"608";608;1
"609";609;4
"610";610;1
"611";611;0
"612";612;1
"613";613;1
"614";614;1
"615";615;1
"616";616;1
"617";617;4
"618";618;1
"619";619;0
"620";620;1
"621";621;1
"622";622;0
"623";623;1
"624";624;1
"625";625;0
"626";626;0
"627";627;0
"628";628;4
"629";629;4
"630";630;1
"631";631;4
"632";632;1
"633";633;1
"634";634;1
"635";635;1
"636";636;1
"637";637;1
"638";638;1
"639";639;1
"640";640;1
"641";641;1
"642";642;0
"643";643;1
"644";644;1
"645";645;0
"646";646;0
"647";647;0
"648";648;4
"649";649;4
"650";650;1
"651";651;1
"652";652;1
"653";653;1
"654";654;1
"655";655;1
"656";656;1
"657";657;1
"658";658;1
"659";659;1
"660";660;1
"661";661;4
"662";662;1
"663";663;1
"664";664;1
"665";665;1
"666";666;4
"667";667;1
"668";668;1
"669";669;1
"670";670;1
"671";671;1
"672";672;1
"673";673;1
"674";674;1
"675";675;1
"676";676;1
"677";677;1
"678";678;1
"679";679;4
"680";680;1
"681";681;1
"682";682;1
"683";683;1
"684";684;4
"685";685;1
"686";686;1
"687";687;3
"688";688;4
"689";689;3
"690";690;4
"691";691;1
"692";692;1
"693";693;4
"694";694;4
"695";695;1
"696";696;4
"697";697;1
"698";698;1
"699";699;1
"700";700;1
"701";701;1
"702";702;1
"703";703;4
"704";704;4
"705";705;1
"706";706;1
"707";707;4
"708";708;4
"709";709;4
"710";710;4
"711";711;4
"712";712;2
"713";713;0
"714";714;4
"715";715;4
"716";716;1
"717";717;4
"718";718;4
"719";719;4
"720";720;4
"721";721;1
"722";722;4
"723";723;4
"724";724;4
"725";725;4
"726";726;4
"727";727;3
"728";728;3
"729";729;3
"730";730;1
"731";731;4
"732";732;4
"733";733;4
"734";734;4
"735";735;1
"736";736;4
"737";737;4
"738";738;4
"739";739;4
"740";740;3
"741";741;3
"742";742;3
"743";743;1
"744";744;1
"745";745;1
"746";746;1
"747";747;1
"748";748;4
"749";749;4
"750";750;4
"751";751;1
"752";752;3
"753";753;0
"754";754;0
"755";755;1
"756";756;4
"757";757;4
"758";758;4
"759";759;4
"760";760;4
"761";761;4
"762";762;4
"763";763;4
"764";764;4
"765";765;1
"766";766;0
"767";767;4
"768";768;4
"769";769;4
"770";770;4
"771";771;4
"772";772;4
"773";773;1
"774";774;4
"775";775;1
"776";776;1
"777";777;1
"778";778;1
"779";779;4
"780";780;2
"781";781;1
"782";782;4
"783";783;4
"784";784;1
"785";785;4
"786";786;4
"787";787;4
"788";788;1
"789";789;1
"790";790;1
"791";791;1
"792";792;1
"793";793;2
"794";794;4
"795";795;1
"796";796;4
"797";797;4
"798";798;4
"799";799;4
"800";800;4
"801";801;4
"802";802;1
"803";803;4
"804";804;4
"805";805;4
"806";806;4
"807";807;4
"808";808;4
"809";809;4
"810";810;4
"811";811;4
"812";812;4
"813";813;1
"814";814;4
"815";815;1
"816";816;1
"817";817;4
"818";818;4
"819";819;1
"820";820;2
"821";821;0
"822";822;4
"823";823;1
"824";824;4
"825";825;4
"826";826;4
"827";827;4
"828";828;4
"829";829;1
"830";830;1
"831";831;4
"832";832;4
"833";833;1
"834";834;1
"835";835;1
"836";836;1
"837";837;1
"838";838;4
"839";839;1
"840";840;1
"841";841;1
"842";842;1
"843";843;1
"844";844;1
"845";845;1
"846";846;1
"847";847;1
"848";848;1
"849";849;1
"850";850;1
"851";851;1
"852";852;3
"853";853;1
"854";854;1
"855";855;4
"856";856;4
"857";857;4
"858";858;4
"859";859;4
"860";860;4
"861";861;4
"862";862;4
"863";863;4
"864";864;4
"865";865;2
"866";866;4
"867";867;4
"868";868;1
"869";869;4
"870";870;4
"871";871;4
"872";872;4
"873";873;4
"874";874;3
"875";875;3
"876";876;4
"877";877;4
"878";878;4
"879";879;4
"880";880;4
"881";881;4
"882";882;4
"883";883;4
"884";884;4
"885";885;4
"886";886;1
"887";887;1
"888";888;1
"889";889;1
"890";890;1
"891";891;2
"892";892;4
"893";893;2
"894";894;1
"895";895;1
"896";896;1
"897";897;1
"898";898;1
"899";899;1
"900";900;1
"901";901;1
"902";902;0
"903";903;1
"904";904;1
"905";905;4
"906";906;1
"907";907;1
"908";908;1
"909";909;1
"910";910;1
"911";911;1
"912";912;1
"913";913;1
"914";914;1
"915";915;1
"916";916;4
"917";917;4
"918";918;4
"919";919;4
"920";920;4
"921";921;4
"922";922;1
"923";923;1
"924";924;4
"925";925;4
"926";926;4
"927";927;4
"928";928;4
"929";929;4
"930";930;2
"931";931;4
"932";932;2
"933";933;2
"934";934;2
"935";935;4
"936";936;1
"937";937;2
"938";938;4
"939";939;2
"940";940;2
"941";941;2
"942";942;4
"943";943;1
"944";944;2
"945";945;4
"946";946;4
"947";947;4
"948";948;4
"949";949;4
"950";950;4
"951";951;1
"952";952;4
"953";953;1
"954";954;4
"955";955;2
"956";956;4
"957";957;4
"958";958;4
"959";959;4
"960";960;2
"961";961;2
"962";962;2
"963";963;2
"964";964;2
"965";965;1
"966";966;4
"967";967;2
"968";968;4
"969";969;4
"970";970;4
"971";971;4
"972";972;2
"973";973;2
"974";974;2
"975";975;2
"976";976;1
"977";977;2
"978";978;2
"979";979;2
"980";980;2
"981";981;2
"982";982;2
"983";983;2
"984";984;2
"985";985;2
"986";986;2
"987";987;2
"988";988;2
"989";989;2
"990";990;1
"991";991;2
"992";992;2
"993";993;2
"994";994;2
"995";995;2
"996";996;2
"997";997;2
"998";998;2
"999";999;1
"1000";1000;1
"1001";1001;4
"1002";1002;1
"1003";1003;4
"1004";1004;2
"1005";1005;4
"1006";1006;4
"1007";1007;4
"1008";1008;4
"1009";1009;1
"1010";1010;1
"1011";1011;4
"1012";1012;4
"1013";1013;1
"1014";1014;1
"1015";1015;1
"1016";1016;1
"1017";1017;4
"1018";1018;4
"1019";1019;1
"1020";1020;4
"1021";1021;4
"1022";1022;4
"1023";1023;1
"1024";1024;1
"1025";1025;4
"1026";1026;4
"1027";1027;4
"1028";1028;4
"1029";1029;1
"1030";1030;0
"1031";1031;4
"1032";1032;4
"1033";1033;1
"1034";1034;4
"1035";1035;1
"1036";1036;1
"1037";1037;1
"1038";1038;1
"1039";1039;1
"1040";1040;4
"1041";1041;4
"1042";1042;1
"1043";1043;1
"1044";1044;1
"1045";1045;1
"1046";1046;1
"1047";1047;1
"1048";1048;1
"1049";1049;1
"1050";1050;4
"1051";1051;1
"1052";1052;1
"1053";1053;3
"1054";1054;4
"1055";1055;4
"1056";1056;4
"1057";1057;4
"1058";1058;4
"1059";1059;4
"1060";1060;4
"1061";1061;1
"1062";1062;1
"1063";1063;1
"1064";1064;0
"1065";1065;4
"1066";1066;4
"1067";1067;4
"1068";1068;0
"1069";1069;1
"1070";1070;4
"1071";1071;4
"1072";1072;4
"1073";1073;4
"1074";1074;4
"1075";1075;1
"1076";1076;4
"1077";1077;4
"1078";1078;4
"1079";1079;0
"1080";1080;4
"1081";1081;4
"1082";1082;4
"1083";1083;3
"1084";1084;4
"1085";1085;4
"1086";1086;4
"1087";1087;4
"1088";1088;4
"1089";1089;4
"1090";1090;4
"1091";1091;1
"1092";1092;4
"1093";1093;4
"1094";1094;4
"1095";1095;4
"1096";1096;4
"1097";1097;4
"1098";1098;3
"1099";1099;4
"1100";1100;1
"1101";1101;1
"1102";1102;4
"1103";1103;1
"1104";1104;1
"1105";1105;4
"1106";1106;4
"1107";1107;4
"1108";1108;4
"1109";1109;3
"1110";1110;1
"1111";1111;4
"1112";1112;1
"1113";1113;1
"1114";1114;4
"1115";1115;0
"1116";1116;4
"1117";1117;1
"1118";1118;1
"1119";1119;1
"1120";1120;1
"1121";1121;1
"1122";1122;1
"1123";1123;4
"1124";1124;4
"1125";1125;1
"1126";1126;1
"1127";1127;1
"1128";1128;4
"1129";1129;4
"1130";1130;4
"1131";1131;4
"1132";1132;4
"1133";1133;1
"1134";1134;4
"1135";1135;1
"1136";1136;4
"1137";1137;4
"1138";1138;4
"1139";1139;4
"1140";1140;4
"1141";1141;1
"1142";1142;1
"1143";1143;1
"1144";1144;4
"1145";1145;4
"1146";1146;4
"1147";1147;1
"1148";1148;4
"1149";1149;4
"1150";1150;1
"1151";1151;4
"1152";1152;4
"1153";1153;4
"1154";1154;4
"1155";1155;1
"1156";1156;1
"1157";1157;0
"1158";1158;0
