the;2297;sw
to;1719;sw
and;1514;sw
you;1381;sw
of;1156;sw
in;983;sw
god;865;nom
i;862;sw
that;836;sw
is;827;sw
for;679;sw
not;608;sw
we;543;sw
who;519;sw
with;518;sw
be;517;sw
a;498;sw
are;486;sw
as;441;sw
will;437;sw
have;424;sw
it;414;sw
but;414;sw
all;408;sw
christ;389;nr
do;360;sw
so;338;sw
he;336;sw
they;317;sw
his;306;sw
this;303;sw
by;293;sw
your;291;sw
what;278;sw
our;278;sw
from;278;sw
person;258;nom
lord;255;nom
us;247;sw
me;242;sw
one;241;sw
my;232;sw
has;224;sw
on;217;sw
was;211;sw
if;210;sw
jesus;205;nr
make;201;sw
then;197;sw
or;196;sw
because;190;sw
him;185;sw
those;180;sw
when;172;sw
them;166;sw
their;163;sw
am;163;sw
life;157;nom
were;151;sw
good;144;adj
give;143;nom
faith;142;nom
spirit;138;nom
law;138;adj
no;133;sw
which;132;sw
work;131;nom
know;127;ver
how;126;sw
thing;125;nom
should;125;sw
about;125;sw
live;123;adj
now;121;sw
love;121;ver
brother;120;nom
way;116;sw
must;112;sw
there;111;sw
sin;106;ver
only;102;sw
may;102;sw
at;102;sw
time;101;nom
body;101;nom
did;99;sw
own;98;ver
man;98;nom
sister;97;nom
through;96;sw
right;95;nom
put;95;nom
come;95;sw
been;95;sw
order;93;nom
even;91;sw
an;90;sw
bring;86;ver
being;85;nom
same;84;sw
can;84;sw
also;84;sw
like;82;sw
help;82;sw
want;80;sw
death;79;nom
power;77;nom
human;76;adj
speak;74;ver
message;74;nom
mean;74;sw
church;74;nom
say;72;sw
grace;72;nom
more;71;sw
would;70;sw
himself;69;sw
does;69;sw
up;68;sw
gentile;66;nom
believe;66;ver
another;65;sw
preach;62;ver
union;61;nom
truth;61;nom
teach;61;ver
others;61;sw
father;61;nom
world;60;nom
die;59;ver
write;58;ver
woman;58;ver
scripture;58;nom
obey;58;ver
just;58;sw
call;58;nom
show;57;ver
free;57;adj
belong;57;ver
much;56;sw
into;56;sw
says;55;sw
keep;55;ver
hope;55;nom
day;55;nom
any;55;sw
though;54;sw
think;54;sw
these;54;sw
some;54;sw
raise;54;ver
given;54;sw
let;53;nom
glory;53;nom
take;52;sw
such;52;sw
eat;52;ver
had;51;sw
gift;51;nom
true;50;adj
son;50;nom
slave;50;nom
heart;50;nom
always;50;sw
news;48;nom
gospel;48;nom
instead;47;sw
boast;47;ver
tell;46;ver
share;46;nom
receive;46;ver
promise;46;nom
many;46;sw
holy;46;adj
everything;46;sw
every;46;sw
child;46;nom
anyone;46;sw
yourselves;45;sw
other;45;sw
jews;45;nr
peace;44;nom
part;44;nom
out;44;sw
her;44;sw
evil;44;adj
word;43;nom
over;42;sw
great;42;adj
done;42;sw
before;42;sw
send;41;nom
pray;41;ver
very;40;sw
see;40;nom
judge;40;nom
go;40;sw
become;40;sw
apostle;40;nom
than;39;sw
save;39;ver
everyone;39;sw
able;39;sw
long;38;adj
each;38;sw
among;38;sw
well;37;sw
serve;37;nom
hear;37;ver
first;37;sw
comes;37;sw
while;36;sw
use;36;sw
under;36;sw
together;36;sw
shall;36;sw
rule;36;nom
mind;36;nom
greetings;36;sw
without;35;sw
spiritual;35;nom
why;34;sw
someone;34;sw
sake;34;nom
dont;34;nr
away;34;sw
wife;33;nom
whole;33;sw
need;33;ver
matter;33;nom
gives;33;sw
anything;33;sw
whom;32;sw
weak;32;adj
she;32;sw
set;32;ver
kind;32;adj
its;32;sw
husband;32;nom
desire;32;nom
too;31;sw
said;31;sw
nature;31;nom
get;31;sw
ever;31;sw
doing;31;sw
circumcise;31;ver
accept;31;ver
reveal;30;nom
friend;30;nom
could;30;sw
christs;30;nr
christian;30;nr
secret;29;nom
please;29;ver
nothing;29;sw
knowledge;29;nom
food;29;nom
dead;29;nom
authority;29;nom
wisdom;28;nom
whether;28;sw
really;28;sw
proclaim;28;ver
might;28;sw
however;28;sw
find;28;ver
down;28;sw
wrong;27;adj
thanks;27;sw
since;27;sw
servant;27;nom
drink;27;nom
different;27;sw
back;27;nom
after;27;sw
wants;26;sw
themselves;26;sw
full;26;adj
dear;26;adj
completely;26;nr
choose;26;ver
came;26;sw
suffer;25;ver
remember;25;ver
purpose;25;nom
letter;25;nom
heaven;25;nom
abraham;25;nr
worship;24;nom
understand;24;ver
trouble;24;nom
sure;24;sw
stand;24;nom
reason;24;nom
proud;24;adj
offer;24;nom
myself;24;sw
marry;24;ver
cannot;24;sw
service;23;nom
result;23;nom
place;23;nom
ask;23;ver
already;23;sw
still;22;sw
presence;22;nom
paul;22;nr
ourselves;22;sw
light;22;ver
encourage;22;ver
conscience;22;nom
command;22;ver
two;21;sw
ready;21;adj
pay;21;nom
here;21;sw
happy;21;adj
hand;21;nom
complete;21;adj
believer;21;nom
against;21;sw
according;21;sw
yourself;20;sw
win;20;nom
whoever;20;sw
used;20;sw
prayer;20;nom
praise;20;ver
nor;20;sw
last;20;sw
judgement;20;nom
bless;20;ver
again;20;sw
until;19;sw
try;19;sw
strong;19;adj
saying;19;sw
righteous;19;nr
never;19;sw
lead;19;nom
joy;19;nom
idol;19;nom
feel;19;ver
enemy;19;nom
continue;19;ver
act;19;nom
wish;18;nom
whose;18;sw
trying;18;sw
tongue;18;nom
timothy;18;nom
strange;18;adj
sent;18;sw
rich;18;adj
new;18;sw
going;18;sw
follow;18;nom
family;18;nom
else;18;sw
cross;18;adj
appear;18;ver
anger;18;nom
yet;17;sw
wise;17;adj
master;17;nom
leave;17;ver
known;17;sw
fight;17;nom
eternal;17;nom
eager;17;adj
decide;17;ver
create;17;ver
condemn;17;ver
break;17;nom
stop;16;ver
righteousness;16;nom
race;16;nom
present;16;nom
past;16;nom
mercy;16;nom
hard;16;adj
happen;16;ver
grow;16;ver
firm;16;adj
faithful;16;nom
example;16;sw
course;16;sw
control;16;ver
concern;16;nom
build;16;nom
both;16;sw
seen;15;sw
pure;15;adj
pass;15;nom
once;15;sw
old;15;sw
meet;15;nom
macedonia;15;nr
lose;15;ver
kept;15;sw
honour;15;ver
home;15;nom
forgive;15;ver
fill;15;ver
far;15;sw
destroy;15;ver
descendant;15;nom
care;15;nom
visit;14;nom
urge;14;nom
treat;14;nom
towards;14;sw
surely;14;nr
special;14;adj
real;14;adj
plan;14;ver
patience;14;nom
name;14;sw
moses;14;nr
lie;14;ver
knows;14;sw
kingdom;14;nom
hold;14;nom
fall;14;nom
earth;14;nom
clear;14;adj
change;14;ver
beg;14;ver
base;14;ver
baptize;14;ver
agree;14;ver
turn;13;ver
titus;13;nr
thank;13;sw
test;13;nom
temple;13;nom
talk;13;ver
stay;13;nom
sound;13;nom
salvation;13;nom
sad;13;adj
respect;13;nom
rather;13;sw
prison;13;nom
physical;13;nom
persecute;13;ver
head;13;nom
fool;13;nom
better;13;sw
best;13;sw
angel;13;nom
young;12;adj
widow;12;nom
wick;12;ver
wait;12;nom
standard;12;nom
something;12;sw
saviour;12;nom
ruler;12;nom
reject;12;nom
punish;12;ver
passion;12;nom
learn;12;ver
insult;12;ver
instruction;12;nom
endure;12;ver
end;12;nom
duty;12;nom
deed;12;nom
deceive;12;ver
commandment;12;nom
bread;12;nom
between;12;sw
bad;12;adj
allow;12;ver
witness;11;nom
warn;11;ver
using;11;sw
unless;11;sw
submit;11;ver
strength;11;nom
sow;11;nom
sinful;11;nr
read;11;ver
prove;11;ver
prophet;11;nom
oppose;11;ver
night;11;nom
mortal;11;nom
money;11;nom
look;11;sw
king;11;nom
join;11;nom
heavenly;11;adj
glorious;11;nr
foundation;11;nom
foolish;11;adj
fellowship;11;nom
especially;11;sw
despise;11;ver
claim;11;nom
cause;11;sw
born;11;nr
blood;11;nom
ashamed;11;nr
yes;10;sw
year;10;nom
welcome;10;ver
unbeliever;10;nom
trust;10;nom
teacher;10;nom
task;10;nom
sight;10;nom
sexual;10;nr
safe;10;adj
sacrifice;10;nom
proper;10;adj
pride;10;nom
possess;10;ver
peter;10;nom
people;10;nom
off;10;sw
none;10;sw
mother;10;nom
kindness;10;nom
kill;10;ver
jewish;10;nr
jerusalem;10;nr
itself;10;sw
indeed;10;sw
include;10;ver
immorality;10;nom
house;10;nom
hide;10;ver
guilty;10;adj
group;10;nom
gain;10;ver
firmly;10;nr
fault;10;nom
false;10;adj
fact;10;nom
difference;10;nom
deep;10;adj
danger;10;nom
curse;10;nom
consider;10;sw
circumcision;10;nom
certain;10;sw
blessing;10;nom
begin;10;ver
alone;10;sw
adam;10;nr
where;9;sw
went;9;sw
upon;9;sw
tree;9;nom
suffering;9;nom
soon;9;sw
shame;9;nom
self;9;sw
require;9;ver
prisoner;9;nom
perhaps;9;sw
partner;9;nom
open;9;adj
natural;9;nom
member;9;nom
leader;9;nom
lay;9;ver
later;9;sw
having;9;sw
havent;9;nr
force;9;nom
finish;9;ver
face;9;nom
explain;9;ver
entrust;9;ver
deserve;9;ver
depend;9;ver
dedicate;9;ver
darkness;9;nom
cup;9;nom
cover;9;ver
covenant;9;nom
commit;9;ver
cheer;9;nom
chance;9;nom
carry;9;nom
branch;9;nom
afraid;9;nr
actually;9;sw
upset;8;ver
three;8;sw
thought;8;nom
tear;8;ver
spread;8;nom
spend;8;ver
seed;8;nom
satan;8;nr
run;8;ver
ruin;8;ver
rescue;8;nom
remind;8;ver
remain;8;ver
religion;8;nom
placed;8;sw
persecution;8;nom
perfect;8;adj
parent;8;nom
ones;8;sw
motive;8;nom
most;8;sw
miracle;8;nom
little;8;sw
jew;8;nr
jealous;8;nr
israel;8;nr
immoral;8;nr
glad;8;adj
fully;8;nr
freedom;8;nom
eye;8;nom
defend;8;ver
confidence;8;nom
conduct;8;nom
clearly;8;sw
charge;8;ver
burden;8;nom
beauty;8;nom
approval;8;nom
apart;8;sw
answer;8;nom
ancestor;8;nom
alive;8;nr
action;8;nom
worthy;7;adj
wild;7;nom
weapon;7;nom
watch;7;nom
value;7;sw
teaching;7;nom
spiritually;7;nr
speech;7;nom
source;7;nom
sleep;7;nom
sinner;7;nom
shameful;7;nr
separate;7;ver
selfish;7;nr
rob;7;ver
quarrel;7;nom
public;7;nom
privilege;7;nom
perform;7;ver
patient;7;adj
ought;7;sw
often;7;sw
nonsense;7;nom
mark;7;nom
limit;7;ver
least;7;sw
learnt;7;nr
judea;7;nr
interest;7;nom
important;7;nr
immortal;7;nom
herself;7;sw
hate;7;nom
greedy;7;adj
gentle;7;adj
gather;7;nom
fear;7;ver
fail;7;nom
enough;7;sw
devil;7;nom
deal;7;nom
courage;7;nom
contrary;7;nom
condition;7;nom
clothe;7;ver
bold;7;adj
attention;7;nom
arrive;7;ver
argument;7;nom
along;7;sw
ahead;7;nr
age;7;nom
add;7;ver
achaia;7;nr
acceptable;7;nr
yours;6;sw
yeast;6;nom
wrongdoing;6;nom
worthless;6;nr
worldly;6;adj
water;6;nom
unite;6;ver
tried;6;sw
trap;6;nom
thanksgiving;6;nom
supreme;6;adj
start;6;nom
sincere;6;adj
selfcontrolled;6;nr
satisfy;6;ver
sadness;6;nom
rise;6;nom
reward;6;nom
remove;6;ver
refuse;6;nom
quite;6;sw
punishment;6;nom
prize;6;nom
pour;6;ver
possible;6;sw
plead;6;ver
plain;6;adj
pain;6;nom
messenger;6;nom
listen;6;ver
likeness;6;nom
language;6;nom
instruct;6;ver
inspire;6;ver
ill;6;adj
hungry;6;adj
guarantee;6;nom
greed;6;nom
gone;6;sw
foot;6;nom
followed;6;sw
flesh;6;nom
feelings;6;nr
experience;6;nom
exist;6;ver
except;6;sw
everywhere;6;sw
escape;6;nom
ephesus;6;nr
endurance;6;nom
elder;6;nom
doctrine;6;nom
creation;6;nom
convince;6;ver
choice;6;adj
bury;6;ver
beyond;6;sw
behalf;6;nom
became;6;sw
barnabas;6;nr
avoid;6;ver
attitude;6;nom
appeal;6;nom
although;6;sw
advantage;6;nom
account;6;nom
worry;5;ver
worker;5;nom
wine;5;nom
wickedness;5;nom
weakness;5;nom
victory;5;nom
veil;5;nom
useful;5;sw
unmarried;5;nom
universe;5;nom
thief;5;nom
thessalonica;5;nr
terrible;5;nr
taken;5;sw
surrender;5;nom
support;5;nom
strengthen;5;ver
stone;5;nom
spare;5;adj
socalled;5;nr
sober;5;adj
small;5;adj
sit;5;ver
sing;5;nom
shine;5;ver
seem;5;sw
saw;5;sw
root;5;nom
rid;5;ver
relation;5;nom
rebuke;5;nom
quiet;5;adj
quality;5;nom
provide;5;ver
proof;5;nom
produce;5;nom
prepare;5;ver
poor;5;adj
pleasure;5;nom
persons;5;nr
ours;5;sw
ordinary;5;adj
opportunity;5;nom
opinion;5;nom
olive;5;nom
obligation;5;nom
mature;5;adj
lazy;5;adj
laodicea;5;nr
keeps;5;sw
jealousy;5;nom
innocent;5;adj
ignorant;5;nr
humility;5;nom
humble;5;adj
high;5;adj
heathen;5;nom
harvest;5;nom
happiness;5;nom
hair;5;nom
groan;5;nom
getting;5;sw
future;5;nom
form;5;nom
fire;5;nom
finally;5;nr
failure;5;nom
earthly;5;adj
earn;5;ver
division;5;nom
disgrace;5;nom
devotion;5;nom
devote;5;ver
demon;5;nom
declare;5;ver
decision;5;nom
dark;5;adj
dare;5;nom
concerning;5;sw
clay;5;nom
christians;5;nr
book;5;nom
birth;5;nom
bind;5;ver
assure;5;ver
asking;5;sw
approve;5;ver
apollos;5;nr
abundant;5;nr
ability;5;nom
within;4;sw
willing;4;sw
whenever;4;sw
whatever;4;sw
weep;4;nom
wear;4;nom
waste;4;ver
vision;4;nom
view;4;nom
useless;4;nr
unclean;4;adj
tychicus;4;nr
tremble;4;ver
travel;4;nom
tolerate;4;ver
toil;4;ver
throughout;4;sw
supper;4;nom
superior;4;nom
succeed;4;ver
subject;4;nom
stumble;4;nom
strive;4;ver
stranger;4;nom
stir;4;nom
steal;4;nom
star;4;nom
sorrow;4;nom
sign;4;nom
side;4;nom
shake;4;ver
severe;4;adj
settle;4;ver
seems;4;sw
rome;4;nr
revelation;4;nom
rest;4;nom
request;4;nom
regard;4;ver
reap;4;ver
purity;4;nom
pull;4;ver
province;4;nom
pot;4;nom
plant;4;nom
pity;4;nom
personally;4;nr
pagan;4;nom
outside;4;sw
occasion;4;nom
obedience;4;nom
next;4;sw
necessary;4;sw
near;4;sw
nation;4;nom
mighty;4;adj
merely;4;sw
mention;4;nom
measure;4;nom
manage;4;ver
looking;4;sw
list;4;nom
liar;4;nom
legend;4;nom
large;4;adj
kiss;4;nom
joyful;4;adj
james;4;nr
increase;4;nom
imitate;4;ver
image;4;nom
hymn;4;nom
highly;4;nr
helper;4;nom
hell;4;nom
hateful;4;nr
harm;4;ver
guide;4;ver
greet;4;ver
gossip;4;nom
goodness;4;nom
goes;4;sw
gentleness;4;nom
generous;4;nr
fulfil;4;ver
foreigner;4;nom
field;4;nom
fellowjews;4;nr
fee;4;ver
expect;4;ver
excuse;4;nom
everyday;4;nr
error;4;nom
encouragement;4;nom
either;4;sw
drunkard;4;nom
doubt;4;nom
dispute;4;nom
disobey;4;ver
disobedient;4;nr
discourage;4;ver
destruction;4;nom
desert;4;ver
deny;4;ver
demand;4;nom
deceit;4;nom
david;4;nr
daughter;4;nom
cut;4;ver
creator;4;nom
corrupt;4;ver
corinth;4;nr
content;4;nom
common;4;adj
close;4;ver
city;4;nom
character;4;nom
certainly;4;sw
case;4;nom
careful;4;adj
capable;4;adj
buy;4;ver
burn;4;nom
bite;4;ver
behave;4;ver
becomes;4;sw
basis;4;nom
asia;4;nr
argue;4;ver
arent;4;nr
appoint;4;ver
apply;4;ver
angry;4;adj
altar;4;nom
allows;4;sw
adultery;4;nom
above;4;sw
worthwhile;3;nr
worth;3;nom
wonderful;3;nr
wonder;3;nom
winter;3;nom
whip;3;nom
wealth;3;nom
voice;3;nom
violent;3;nr
vegetable;3;nom
usual;3;nom
upright;3;nom
uncircumcised;3;nr
unbelieving;3;nr
trumpet;3;nom
truly;3;sw
treasure;3;nom
transform;3;nom
train;3;ver
took;3;sw
timid;3;adj
thousand;3;nom
thirsty;3;adj
third;3;sw
swell;3;adj
sweetsmelling;3;nr
supply;3;nom
stubborn;3;adj
straight;3;adj
store;3;nom
stephanas;3;nr
soul;3;nom
sorry;3;sw
sometimes;3;sw
solid;3;adj
soldier;3;nom
slavery;3;nom
slanderer;3;nom
single;3;nom
simply;3;nr
silas;3;nr
sensible;3;sw
selfcontrol;3;nr
second;3;sw
sea;3;nom
sacred;3;nr
room;3;nom
risk;3;nom
reverence;3;nom
represent;3;ver
repent;3;ver
repeat;3;ver
repay;3;ver
religious;3;nom
reflect;3;ver
redeem;3;ver
recognize;3;ver
reckon;3;ver
realize;3;ver
reach;3;nom
question;3;nom
puff;3;ver
psalm;3;nom
property;3;nom
properly;3;nr
progress;3;nom
profit;3;nom
profane;3;ver
priscilla;3;nr
prefer;3;ver
practice;3;nom
powerful;3;nr
poverty;3;nom
plainly;3;nr
pervert;3;nom
personal;3;nom
perish;3;ver
peaceful;3;adj
passover;3;nr
partial;3;nom
ox;3;nom
ownership;3;nom
owe;3;ver
outward;3;nom
orgy;3;nom
orderly;3;nom
onesimus;3;nr
obstacle;3;nom
object;3;nom
numb;3;adj
nobody;3;sw
neither;3;sw
needs;3;sw
moment;3;nom
merciful;3;nr
meeting;3;nom
meat;3;nom
material;3;nom
marri;3;nom
luke;3;nr
loyalty;3;nom
loss;3;nom
loaf;3;nom
lip;3;nom
less;3;sw
isaac;3;nr
invisible;3;nom
insist;3;ver
indecent;3;adj
indecency;3;nom
hurt;3;ver
humanity;3;nom
hour;3;nom
holiness;3;nom
heal;3;ver
harsh;3;adj
hardship;3;nom
handle;3;nom
guard;3;nom
gold;3;adj
godly;3;adj
gladly;3;adj
galatia;3;nr
function;3;nom
freely;3;nr
forget;3;ver
following;3;sw
follower;3;nom
fix;3;nom
fit;3;adj
figure;3;nom
fellowworkers;3;nr
fellowworker;3;nr
fellowchristians;3;nr
favour;3;nom
faultless;3;nr
external;3;nom
exactly;3;sw
epaphras;3;nr
entirely;3;sw
enable;3;ver
empty;3;adj
effort;3;nom
dough;3;nom
doesnt;3;nr
divorce;3;nom
divine;3;adj
distress;3;nom
disobedience;3;nom
disguise;3;nom
discipline;3;ver
disappoint;3;ver
disappear;3;ver
demonstrate;3;ver
demas;3;nr
defile;3;ver
defeat;3;ver
cultivate;3;ver
crop;3;nom
criticize;3;ver
convert;3;nom
considering;3;sw
confess;3;ver
compare;3;nom
comfort;3;ver
cloud;3;nom
chain;3;nom
ceremony;3;nom
catch;3;ver
business;3;nom
burnt;3;nr
benefit;3;nom
becoming;3;sw
battle;3;nom
batch;3;nom
baptism;3;nom
aquila;3;nr
appearance;3;nom
anyones;3;nr
announce;3;ver
animal;3;nom
ambition;3;nom
almost;3;sw
alert;3;adj
aim;3;nom
affair;3;nom
accuse;3;ver
accordance;3;nom
abrahams;3;nr
abandon;3;nom
wood;2;nom
week;2;nom
wash;2;ver
wander;2;ver
wall;2;nom
wage;2;nom
virgin;2;nom
vice;2;nom
valuable;2;nom
uphold;2;ver
unseen;2;nom
unity;2;nom
troas;2;nr
trick;2;nom
tribe;2;nom
tolerant;2;nr
title;2;nom
tire;2;ver
thresh;2;nom
thankful;2;adj
tent;2;nom
temptation;2;nom
tempt;2;ver
temporary;2;nom
tax;2;nom
tablet;2;nom
table;2;nom
system;2;nom
surprise;2;nom
suppose;2;ver
sum;2;ver
suddenly;2;nr
stupid;2;adj
struggle;2;nom
stomach;2;nom
spectacle;2;nom
spain;2;nr
sort;2;nom
song;2;nom
somebody;2;sw
solemnly;2;nr
snatch;2;ver
snake;2;nom
sincerity;2;nom
sinai;2;nr
silver;2;nom
silence;2;ver
shout;2;nom
shave;2;ver
sex;2;nom
sentence;2;nom
sens;2;nom
selves;2;sw
sell;2;ver
seemed;2;sw
seek;2;nom
savage;2;adj
satans;2;nr
sarah;2;nr
safely;2;nr
round;2;adj
rock;2;nom
righthand;2;nr
revenge;2;nom
return;2;ver
resurrection;2;nom
restrain;2;ver
resist;2;nom
reputation;2;nom
renew;2;ver
rejoice;2;ver
regret;2;nom
refer;2;ver
record;2;nom
recommend;2;ver
readiness;2;nom
purify;2;ver
provides;2;sw
protection;2;nom
prostitute;2;nom
proportion;2;nom
profess;2;ver
procession;2;nom
price;2;nom
prevent;2;ver
practise;2;nom
point;2;nom
plenty;2;nom
play;2;nom
piece;2;nom
physically;2;nr
philippi;2;nr
philemon;2;nr
persuade;2;ver
pauls;2;nr
passage;2;nom
palace;2;nom
opponent;2;nom
onesiphorus;2;nr
obtain;2;ver
observe;2;ver
obscene;2;adj
note;2;nom
neighbour;2;nom
neglect;2;nom
needy;2;adj
nearly;2;sw
muzzle;2;nom
mount;2;nom
moon;2;nom
modesty;2;nom
mod;2;adj
miss;2;ver
mine;2;nom
milk;2;nom
memory;2;nom
meal;2;nom
mass;2;nom
malice;2;nom
lust;2;nom
looks;2;sw
line;2;nom
lifeless;2;nr
lack;2;nom
journey;2;nom
jannes;2;nr
jambres;2;nr
israelite;2;nr
irritate;2;ver
inner;2;sw
inferior;2;nom
independent;2;nom
impurity;2;nom
idolatry;2;nom
hymenaeus;2;nr
hot;2;adj
honourable;2;nr
honest;2;adj
helpful;2;nr
helmet;2;nom
hebrew;2;nr
harshly;2;nr
harmful;2;nr
hagar;2;nr
grind;2;ver
grain;2;nom
got;2;sw
goodbye;2;nom
godless;2;nr
gobetween;2;nr
genuine;2;nr
generously;2;nr
gaius;2;nr
fragrance;2;nom
fourteen;2;nom
flatter;2;ver
five;2;sw
firstborn;2;nom
final;2;nom
filthy;2;adj
few;2;sw
festival;2;nom
fervently;2;nr
fellowservant;2;nr
fellowbelievers;2;nr
farmer;2;nom
fair;2;adj
fade;2;nom
expose;2;nom
expense;2;nom
exercise;2;nom
examine;2;ver
everyones;2;nr
everybody;2;sw
eve;2;nom
establish;2;ver
erastus;2;nr
epaphroditus;2;nr
enjoy;2;ver
elses;2;nr
effect;2;nom
early;2;adj
ear;2;nom
eagerness;2;nom
during;2;sw
drive;2;nom
dress;2;nom
draw;2;ver
disorder;2;nom
discussion;2;nom
disciple;2;nom
direction;2;nom
direct;2;adj
difficulty;2;nom
difficult;2;nr
didnt;2;nr
destine;2;ver
deeply;2;nr
deceitful;2;nr
decay;2;ver
damascus;2;nr
cry;2;nom
crush;2;nom
crucify;2;ver
criminal;2;nom
count;2;nom
correct;2;adj
corn;2;nom
consist;2;ver
confident;2;nom
condemnation;2;nom
conclusion;2;nom
conceit;2;ver
completion;2;nom
complaint;2;nom
complain;2;ver
compassion;2;nom
companion;2;nom
collect;2;nom
clean;2;adj
circumstance;2;nom
childbirth;2;nom
cheerfully;2;nr
cheap;2;adj
captive;2;nom
builder;2;nom
brightness;2;nom
bright;2;adj
briefly;2;nr
breastplate;2;nom
bother;2;nom
boldly;2;nr
bodily;2;nr
boastful;2;nr
blameless;2;nr
bird;2;nom
big;2;adj
besides;2;sw
benjamin;2;nom
beautiful;2;adj
beat;2;ver
beast;2;nom
bear;2;nom
attack;2;nom
athlete;2;nom
associate;2;nom
aside;2;sw
armour;2;nom
aristarchus;2;nr
archippus;2;nr
arabia;2;nr
anywhere;2;sw
antioch;2;nr
anothers;2;nr
amount;2;nom
amen;2;adj
ambassador;2;nom
alexander;2;nr
air;2;adj
ago;2;nr
afterwards;2;sw
addition;2;nom
activity;2;nom
active;2;nom
accusation;2;nom
accomplish;2;ver