ukan;9;1132
egin;4;540
jain;0;330
kristo;5;313
jainko;0;266
eman;0;253
egon;3;238
esan;0;203
on;0;199
jaun;1;204
bezala;1;184
bizi;2;163
nahi;1;151
hartu;1;128
espiritu;0;117
behar;1;121
jesu;2;114
lege;0;100
berri;0;110
senide;6;96
bete;0;94
buru;0;86
jakin;2;87
bide;0;86
agertu;0;87
sinesmen;0;89
gabe;0;80
horrela;0;89
bekatu;0;76
gauza;0;84
gorputz;0;72
egia;0;77
orain;1;79
gero;0;75
mundu;0;67
ote;0;68
hil;0;68
hitz;0;69
maitasun;0;70
aurre;0;64
alde;0;66
jainkoa;0;64
giza;0;64
ikusi;0;59
piztu;0;49
onartu;0;56
jarri;0;55
utzi;1;55
gertatu;0;55
zeuen;0;53
dohain;0;49
ongi;0;52
hala;0;53
horregatik;0;52
baino;0;49
menpe;0;44
idatzi;3;46
aita;0;48
liburu;0;49
joan;0;48
gogo;1;49
elkarte;8;39
agindu;0;47
oso;3;42
jesus;0;44
bake;0;45
sinetsi;1;44
maite;4;40
izen;5;39
bakarrik;0;44
irakatsi;0;40
gizaki;0;41
etorri;0;44
egun;0;42
lan;1;41
heriotza;0;43
eskatu;0;40
itxaropen;0;40
handi;0;40
judu;0;32
jarraitu;0;39
indar;0;39
ezagutu;0;36
eli;8;30
sandu;0;39
nola;0;37
jan;0;32
esku;3;35
bihotz;0;38
bakar;0;28
huts;0;37
saiatu;0;37
jokatu;0;32
harrotu;0;36
zuzen;0;35
herri;0;36
emakume;0;34
bakoitz;0;35
argi;0;33
zerbitzu;2;32
salbatu;0;34
gizon;0;30
fededun;4;31
fede;0;33
eraman;0;34
beti;0;35
mezu;0;34
bihurtu;0;33
kristau;3;29
berriro;0;33
seme;0;29
jo;0;25
gain;0;31
sortu;0;30
senar;0;25
gelditu;0;30
galdu;0;30
uste;0;29
garbi;0;30
aldu;0;30
adore;0;27
poz;0;27
ibili;0;29
era;0;29
otoitz;0;28
ezarri;0;27
bidali;0;28
apostolu;0;27
jasan;0;25
ezta;0;27
ezin;0;27
etxe;8;18
esklabo;0;24
entzun;0;26
deitu;0;26
atsegin;0;27
asmo;0;26
eragin;0;25
egintza;0;25
duenak;0;25
dezala;0;23
bizitu;0;24
santu;0;25
iritsi;0;24
harro;0;25
hain;0;24
zerbitz;1;23
sendo;0;24
semealaba;0;24
jakinduria;0;22
hildako;0;23
garai;0;24
zuengan;0;23
lagun;0;23
jesusen;2;20
iraun;0;23
grina;0;21
gai;1;22
ezakan;0;22
atera;0;22
anaia;1;22
ahal;0;23
zuenga;0;21
paulo;0;22
kontzientzia;0;21
hazi;0;19
ekarri;0;20
eduki;0;22
bildu;4;13
behin;0;22
bedi;0;21
adierazi;0;21
zeru;0;21
ulertu;0;19
mintzo;0;14
kristorekin;0;21
kontu;0;21
hizketa;0;3
heldu;0;20
grazia;0;21
ezkondu;0;19
atal;0;17
aintza;0;19
ahalmen;0;21
agur;17;1
horrelako;0;20
erakutsi;1;19
epai;0;20
betiko;0;20
aukeratu;0;19
arrotz;0;4
abraham;0;18
profeta;0;18
parte;2;17
orduan;0;19
onginahi;0;18
izukan;0;19
erabaki;0;19
oraindik;0;18
lagundu;0;17
jentil;0;17
irrika;0;17
etsai;0;18
eskaini;0;18
eliza;0;17
beza;0;17
txar;0;17
oinarritu;0;16
neurri;0;15
mintzatu;0;7
israel;0;16
irakaspen;0;17
irabazi;0;17
goraintzi;16;1
dadila;0;14
benetako;0;14
begi;0;16
balio;0;17
askatu;0;17
aitortu;0;16
zor;0;16
zabaldu;0;16
lur;0;16
jantzi;0;14
honela;0;16
hondatu;0;15
gutun;1;15
fruitu;1;15
erabat;0;15
enukan;0;16
elkartu;0;16
borroka;0;16
bizitza;0;16
beldur;0;16
atsekabe;0;16
ondoren;0;15
nolako;1;12
nizu;0;15
nagusi;0;14
lortu;0;15
haserre;0;15
eutsi;0;15
erruki;0;14
eitezi;0;14
aukera;0;15
zigor;0;14
salbamen;0;14
moises;0;14
maitatu;0;14
ikasi;0;14
hasi;0;13
halako;0;14
gaizki;0;14
etengabe;0;14
emazte;0;13
dizue;2;12
baliatu;0;13
aurrez;0;14
arazo;0;14
zoro;0;13
urruti;0;13
timoteo;0;13
sari;0;13
prestatu;0;13
prest;0;13
ondorengo;0;12
oker;0;13
lotu;0;12
libre;0;12
jokabide;0;13
jainkoar;0;13
israeldar;0;13
emaztu;0;11
edan;0;13
da;0;13
bitarte;0;13
barkatu;0;10
askatasun;0;13
arrisku;0;6
ardura;1;12
ahul;0;11
adimen;0;13
salbatzaile;0;12
noski;0;12
misterio;0;11
leial;0;12
jesusengan;0;12
jentila;0;12
jaunarengan;2;10
izaera;0;10
itzuli;0;11
irudi;0;10
haragi;0;12
gau;0;11
dizued;0;12
dezazuen;0;12
behartu;0;12
aztertu;0;11
azaldu;0;12
auzi;0;12
aurkitu;0;11
aberats;0;11
ziur;0;11
zaretu;0;11
zaiteztu;1;10
uzukan;0;11
ondorio;0;11
oinarri;0;11
nindu;0;11
jende;0;11
jakintsu;0;10
itun;0;11
irain;0;8
ipini;0;6
inolako;0;10
han;0;11
gorde;0;11
gaizto;0;11
gaitzetsi;0;11
gaitz;0;5
gainerako;0;10
eztabaida;0;11
erreinu;0;11
erantzun;0;11
eraiki;0;11
eginkizun;0;11
dudala;0;10
diotsuet;0;10
digu;0;11
burutu;0;11
bilatu;0;11
aitzakan;0;10
zintzo;1;9
zergatik;0;10
zentzu;0;10
zaindu;0;10
zain;0;10
zahar;0;10
ukrenentzan;0;8
sartu;0;10
pozik;0;10
partaide;0;10
onespen;0;8
nahigabe;0;10
merezi;0;10
maiteo;0;10
lankide;0;10
kristorengan;1;9
jaso;0;10
jabe;0;8
iritzi;1;9
hor;0;10
hemen;0;10
grin;0;10
gogor;0;10
gizonemakume;0;9
errebelde;0;10
erabili;0;9
egoki;0;10
eder;0;10
bertan;0;8
arrazoi;0;7
ahulezia;0;10
aginte;0;10
zuri;0;9
zuen;0;9
zaituztet;0;9
une;0;9
ukzuen;0;9
tenplu;0;8
predikatu;0;8
ospe;0;6
oinordeko;0;8
mazedonia;0;9
legepe;0;8
konfiantza;0;9
kendu;0;9
jerusalem;0;9
jauna;0;9
jaio;0;9
jainkoarentzat;0;9
jai;0;9
irakurri;0;8
ihes;0;9
hurko;0;9
helburu;0;9
gose;0;9
gaituela;0;8
eskubide;0;9
errudun;0;9
egoera;0;9
direneitu;0;9
di;0;9
bizirik;0;9
begira;0;7
balu;0;9
arekan;0;8
aldatu;0;9
akats;0;9
agintari;0;9
zuentzat;0;8
zoriontsu;0;7
zerbitzatu;0;8
zaitez;0;8
urte;0;8
toki;0;8
tito;0;8
tinko;0;8
suntsitu;0;8
pedro;0;8
pazientzia;0;8
otoitu;0;8
oparo;0;7
opari;0;8
ondasuna;0;6
non;0;8
moztu;0;7
madarikatu;0;7
lekuko;0;8
laster;0;8
laguntza;0;8
jun;0;8
jaunarengatik;1;7
jardun;1;7
indartsu;0;8
indarrez;0;8
ilunpe;0;8
haia;1;6
gurega;0;8
guraso;0;7
gezur;0;8
ezkutu;0;8
ezagun;0;8
eskuzabaltasun;0;8
errugabe;0;8
errege;0;6
erori;0;8
eredu;0;7
erdainkuntza;0;8
duen;0;8
ditudan;1;7
dit;0;8
did;0;8
dia;0;8
biezazkizuete;0;8
betetu;0;8
bereizi;1;7
benetan;0;8
askoz;0;8
arau;0;7
aldendu;0;8
aingeru;0;8
aho;0;8
zuzentzat;0;6
zorrotz;0;7
zentzarazi;0;7
zenbatez;0;7
zaiteztela;0;7
sentitu;0;7
salatu;0;7
poztu;0;7
ordaindu;0;7
ogi;0;7
noiz;0;6
neke;0;7
nahigabetu;0;5
nahasi;0;7
nago;0;7
lotsatu;0;7
kristorengatik;0;7
kopa;0;7
kondenatu;0;7
jakinaraz;0;7
itzazu;0;6
iragarri;0;7
inoiz;0;7
igo;0;6
hutsal;0;6
hiri;1;6
haur;0;7
gutxietsi;0;6
goretsi;0;7
gorabehera;0;6
ezagutza;0;7
espirituzko;0;6
eskuzabal;0;7
eskuratu;0;6
eroapen;0;7
erlijio;0;7
dudan;0;6
distira;0;6
dagoeneko;0;7
borondate;0;7
berez;0;7
bere;0;6
berdin;0;6
bekata;0;7
beharrezko;0;7
bataiatu;0;6
argitu;0;3
are;0;7
arduratu;0;7
antzeko;0;6
ama;1;5
alferrik;0;7
aldeko;0;7
aipatu;0;7
aintzarako;0;7
aholkatu;0;7
ahalegin;0;7
agerian;0;6
zertan;0;6
zentzudun;0;6
zedin;0;6
zaudete;0;6
zama;0;6
zaituztu;0;6
zaituztete;5;1
uko;0;6
uenakan;0;6
txertatu;0;4
sustrai;0;4
sufrimendu;0;6
sendotu;0;6
seinale;0;5
sasijainkoei;0;6
santua;0;5
sagaratu;0;6
preso;0;6
pertsona;0;6
pentsatu;0;6
ontzi;0;5
onginahiaz;0;6
nu;0;6
mesede;0;5
maila;0;6
lo;0;5
liluratu;0;4
leialtasun;0;6
legami;0;4
larri;0;6
lapur;0;6
lagungarri;0;5
kristoren;0;6
kartzela;0;5
kalte;0;6
jokaera;0;6
jatorri;0;5
isuri;0;6
iruditu;0;6
irizpide;0;6
irakasle;0;6
horrexega;0;6
hona;0;5
hobeki;0;6
hobe;0;5
hilkor;0;6
hilik;0;6
harrera;0;5
gurutziltzatu;0;6
gazte;0;6
gaixo;0;5
ezertan;0;6
ezazukan;0;6
ezazu;0;6
ezagut;0;6
etorrera;0;6
erregutu;0;6
erne;0;6
ea;0;6
dizuen;0;6
dituzun;0;5
dituena;0;6
diet;0;6
botere;0;6
bihozbera;0;6
bezain;0;6
begiratu;0;5
bazter;0;6
baliotsu;0;6
bain;0;6
baikara;0;6
badio;0;6
axola;0;6
ausartu;0;5
ahaltsu;0;6
agintzariaren;0;6
agintzaria;0;6
zuzendari;0;4
zorakeri;0;5
zigortu;0;5
zia;0;5
zaretenez;0;5
zareten;0;4
zaizuen;0;5
ukatu;0;5
sinesmenetik;0;5
sinesmenagatik;0;5
sinesgarri;0;4
semea;0;5
satanasen;0;5
sakon;0;5
profezi;0;4
ospetsu;0;5
ondare;0;5
oin;0;5
odol;0;5
nekagarri;0;5
mirari;0;5
min;0;4
maltzur;0;4
lotsagarri;0;5
lots;0;5
lizun;0;5
lehia;0;5
kutsatu;0;4
kezkatu;0;5
juzun;0;5
jentilentzat;0;5
jagokin;0;5
jadanik;0;5
izaki;0;3
itxaro;0;5
itsaso;0;5
ilun;0;4
igaro;0;5
honelako;0;5
hezi;0;5
hartzazue;0;5
harenga;0;5
hara;0;5
gurutze;0;5
gomendatu;1;4
gizonezko;0;4
gezurrezko;0;5
garaipen;0;5
gaitzespen;0;5
gaituen;0;5
gainditu;0;4
ezjakin;0;5
etortu;0;4
estali;0;5
errespetu;0;5
erdainduak;0;5
erdaindu;0;5
erasoaldi;0;5
epaile;0;5
entzule;0;5
emaitza;0;5
ekin;0;5
egokitu;0;5
egita;0;5
egintz;0;5
efeson;0;5
dutena;0;5
dugun;0;5
direnekin;0;5
direna;0;5
dion;0;5
dei;0;5
dagokidanez;0;5
bidaia;0;5
betie;0;5
betebetean;0;5
berezi;0;5
begirune;0;4
baztertu;0;5
batzar;0;4
baitzaituzte;0;5
bainau;0;5
azkenik;1;4
aurrera;0;5
aurkeztu;0;5
atzerritar;0;5
arma;0;5
aholku;0;5
agintzari;0;5
aditu;0;5
adiskide;1;4
abrahami;0;5
abiatu;0;5
zuzenetsi;0;4
zorion;0;4
zizuen;0;4
ziren;0;4
zilegi;0;4
zikin;0;4
zeuekin;0;4
zerikusi;0;4
zatkan;0;4
zatitu;0;4
zatiketa;0;4
zaitu;1;3
zaintzaile;0;4
ur;0;4
trebe;0;4
titori;0;4
timoteok;0;4
sutsu;0;4
su;0;3
sobera;0;4
sesio;0;4
satanasek;0;4
sare;0;4
salbamenerako;0;4
salbamenera;0;4
sagaratuak;0;4
profetek;0;4
probintzia;3;1
prediku;0;4
pertsegitu;0;4
pareko;0;4
oztopo;0;4
otordu;0;4
ostu;0;4
osoosorik;0;4
osasungarri;0;3
orduko;0;4
onginahiaren;0;4
okertu;0;4
obeditu;0;3
nizuena;0;4
nireganako;0;4
neurritsu;0;4
neurrigabe;0;4
neuregan;0;3
nazio;0;4
nagoela;0;4
nabari;0;4
muga;0;4
morroi;0;4
mazedoniatik;0;4
makurtu;0;4
lizunkeria;0;4
leku;0;4
langile;0;4
laguntzaile;3;1
kristogan;0;4
konpondu;0;3
justizia;0;4
jesusengatik;1;3
jentilei;0;4
jaunarengandik;0;4
jarraitzaile;0;4
janari;0;4
jakintza;0;4
jainkoarengana;0;4
jainkoarenak;0;4
izate;0;4
itxaron;0;4
itsutu;0;4
itsatsi;0;3
irudiko;0;3
indartu;0;4
ile;0;4
iezaiekan;0;3
hondamendi;0;4
hizkuntza;0;3
hizkera;0;4
hilzori;0;4
hilda;0;4
hazaraztu;0;4
haue;0;4
harreman;0;4
harrapatu;0;4
guztiz;0;4
guztiokin;0;4
gurutu;0;4
gorroto;0;4
gorri;0;4
goiko;0;4
goiagerpen;0;3
gobernatu;0;4
gizaseme;0;4
gintu;0;4
gidatu;0;3
gezurti;0;4
genizuen;0;4
galbide;0;4
gaiztakeria;0;4
faltsu;0;4
ezkongabe;0;4
ezkon;0;4
etsi;0;4
eskas;0;3
eroapena;0;4
eran;0;4
epe;0;4
enuttu;0;3
engainatu;0;4
emazn;0;4
egile;0;4
duenean;0;4
dudanik;0;4
dudalako;0;4
ditzazuen;0;4
dituzuen;0;4
diruzale;0;4
denei;0;4
deabrua;0;4
deabru;0;4
daiteke;0;4
dagokizuenez;0;4
bukatu;0;4
bota;0;4
bizileku;0;3
bikain;0;4
bihotzbihotzez;0;4
bihotu;0;4
biezaio;0;3
bezalaxe;0;4
betera;0;4
berritu;0;4
beronengan;0;4
bereizkeriari;0;4
belarri;0;4
behar_izan;0;4
begiruneaga;0;4
batasunagatik;0;3
banandu;0;3
banai;0;4
baliogabe;0;4
badabiltza;0;4
azpikeria;0;4
aurpegi;0;4
audekan;0;4
atsegingarri;0;4
asia;4;0
arretaz;0;4
arreba;4;0
argudio;0;3
arduradun;0;4
arbaso;0;4
apolo;0;4
alferrika;0;4
aldi;0;4
aldare;0;3
aitzakia;0;4
aintzat;0;4
aintzaren;0;4
ahoz;0;4
ahalako;0;4
agintzariak;0;4
adiskidetu;0;4
adar;0;4
aberastasun;0;4
zuritu;0;3
zuenetik;0;3
zori;0;3
zizun;0;3
zinez;0;3
zinetenok;0;3
zineten;0;3
zeundetu;0;3
zerbitzari;1;2
zerbitzadu;0;3
zenidaten;0;3
zaudetu;0;3
zapuztu;0;3
zaituztedala;0;3
zabarkerian;0;3
zabal;0;3
uttu;0;3
ustelkorra;0;3
ukaikan;0;3
txiki;0;3
tikiko;0;3
tesalonika;0;3
tentaldi;0;3
sinestedunak;0;3
sinestedun;0;3
sinesgogor;0;3
sinesgabe;0;3
silvano;0;3
sesiozale;0;3
semealabok;0;3
sasijainkoak;0;3
sara;0;3
santueta;0;3
santiago;0;3
saldu;0;3
sabela;0;3
priska;3;0
pertsegitzaile;0;3
paregabe;0;3
osatu;0;3
oroitu;0;3
ore;0;3
ondasun;0;3
nolatan;0;3
nolanahi;0;3
neurez;0;3
neskatxa;0;3
negu;0;3
negar;0;3
nahikoa;0;3
nabarmen;0;3
mozkor;0;3
misteriotsu;0;3
mendi;0;3
mendetasun;0;3
mendeku;0;3
markos;0;3
maitekiro;0;3
maita;0;3
luze;0;3
luzatu;0;3
luzaroan;0;3
lurralde;0;3
lotsa;0;3
leialtasuna;0;3
lehenik;0;3
lehengo;0;3
lehenago;0;3
legeko;0;3
lasterka;0;3
lapurreta;0;3
landu;0;3
landatu;0;3
kultua;0;3
kristorengandik;0;3
kristorenganako;0;3
koroa;0;3
korinton;0;3
kond;0;3
kezka;0;3
kantatu;0;3
joko;0;3
jezan;0;3
jatorriz;0;3
jarrera;0;3
jakinduriazko;0;3
jaitsi;0;3
izkitu;0;3
itxurakeria;0;3
itxi;0;3
iraunkor;0;3
irakatsiei;0;3
iragankor;0;3
inguratu;0;3
indargabetu;0;3
indarberritu;0;3
ilundu;0;3
ikuspegi;0;3
ikasbide;0;3
iekan;0;3
ia;0;3
hutsik;0;3
hutsegite;0;3
hornitu;0;3
hogeita;0;3
hilkorrean;0;3
hezurmamizko;0;3
herritar;1;2
herio;0;3
hel;0;3
hautatu;0;3
haserretu;0;3
hartzazu;0;3
harrigarri;0;3
handiagotzat;0;3
gutxiets;0;3
gurtu;0;3
guk;0;3
gorazarre;0;3
goraipatu;0;3
gogoratu;0;3
gizonemakumeen;0;3
gizonemakumeek;0;3
gizonemakumeak;0;3
ginela;0;3
ginel;0;3
geldi;0;3
gatibu;0;3
gaiztakeri;0;3
gaitasun;0;3
gainezka;0;3
gabiltza;0;3
finkatu;0;3
familia;0;3
ezkutua;0;3
ezinik;0;3
esteban;0;3
espirituzkoa;0;3
espirituagan;0;3
espero;0;3
eskuinalde;0;3
esklabotz;0;3
eskabide;0;3
eseri;0;3
errukitu;0;3
erregu;0;3
erortu;0;3
erorbide;0;3
ergel;0;3
erantsi;0;3
eraikin;0;3
eraginpe;0;3
epaitu;0;3
emakumeagandik;0;3
elkartasun;0;3
egokiera;0;3
egiteraino;0;3
egintzengatik;0;3
eginahal;0;3
egiaztatu;0;3
edzi;0;3
duzun;0;3
duzula;0;3
duzuenez;0;3
duzuela;0;3
dizuete;0;3
dituztenen;0;3
dirubilketa;0;3
direlaeta;0;3
diozu;0;3
diezazuela;0;3
diezaioten;0;3
dezakeela;0;3
deus;0;3
desagertu;0;3
defentsa;0;3
david;0;3
buztin;0;3
bultzatu;0;3
bizkor;0;3
bizkar;0;3
biezazkizute;0;3
betidanik;0;3
berezko;0;3
bekatupean;0;3
bekatuarentzat;0;3
bekaizkeriak;0;3
bekaizkeria;0;3
behe;0;3
begirun;0;3
bedeinkazio;0;3
batu;0;3
baketsu;0;3
baitzaudete;0;3
baitit;0;3
badaiteke;0;3
ausardia;0;3
aurrerantzean;0;3
atzera;0;3
atxiki;0;3
aski;0;3
arreta;0;3
argibide;0;3
ardozale;0;3
ardo;0;3
arbaxo;0;3
apaltasun;0;3
apal;0;3
altxatu;0;3
alferrikako;0;3
aituzkan;0;3
aitorpenaz;0;3
aintzaz;0;3
ahaztu;0;3
agurgarri;1;2
agian;0;3
adulteriorik;0;3
adoretu;0;3
adina;0;3
adibidez;0;3
