"";"Coord. facteur 1";"Coord. facteur 2";"Coord. facteur 3";"Coord. facteur 4";"Coord. facteur 5";"Coord. facteur 6";"Coord. facteur 7";"Coord. facteur 8";"Coord. facteur 9";"Corr. facteur 1";"Corr. facteur 2";"Corr. facteur 3";"Corr. facteur 4";"Corr. facteur 5";"Corr. facteur 6";"Corr. facteur 7";"Corr. facteur 8";"Corr. facteur 9";"COR -facteur 1";"COR -facteur 2";"COR -facteur 3";"COR -facteur 4";"COR -facteur 5";"COR -facteur 6";"COR -facteur 7";"COR -facteur 8";"COR -facteur 9";"CTR -facteur 1";"CTR -facteur 2";"CTR -facteur 3";"CTR -facteur 4";"CTR -facteur 5";"CTR -facteur 6";"CTR -facteur 7";"CTR -facteur 8";"CTR -facteur 9";"mass";"chi.distance";"inertie"
"classe 1";21,3042852996319;-2,00442174051306;0,943626831221854;-0,372893639782156;0,123014478474078;-0,289348006803518;-0,239565881720109;-0,29984411188424;-0,289977517721806;0,99412818509531;-0,0935329263120721;0,0440327387629393;-0,017400446536295;0,00574026110268032;-0,0135019318798503;-0,0111789338086495;-0,013991714745021;-0,013531306934582;0,989762640816121;0,00792485652749807;0,00170094693698116;0,000205304999713113;2,15787542516625e-05;0,0001144423570007;7,24139302606213e-05;0,000104744378826923;9,3071299344128e-05;0,986143557040981;0,00872940035598349;0,00193466941141075;0,000302117689494806;3,28790047023342e-05;0,000181906070703245;0,000124697037880138;0,000195342729889514;0,000182698448200109;0,00217273221075502;17,2673825462923;0,647827267789245
"classe 2";0,141171435154433;13,149382257936;22,6755422182964;-0,633620672796848;-0,150123041523912;-0,479041496442056;-0,385106365607494;-0,937774776624433;-0,766407647680541;0,00537674035715583;0,500815297234676;0,863634366485904;-0,0241324587996728;-0,00571767663208635;-0,0182450631308995;-0,0146673931273298;-0,0357166552984571;-0,0291898635500088;3,27725949604129e-05;0,257184003939473;0,740671471520742;0,000447000802788452;2,42341991081451e-05;0,000236544103727652;0,000141108648538158;0,000772603770103467;0,000490260420553619;2,88674620366647e-05;0,250452657997931;0,744783943355048;0,000581532003614746;3,26444723467538e-05;0,000332400152545274;0,000214820804390966;0,00127383165913164;0,000850813952450799;0,00144848814050335;19,8845828373488;0,572727336035321
"classe 3";-0,182584561255191;-1,10178852586524;0,58279302099975;-0,114537023166568;0,0368816080997717;0,0464090982747156;-0,106614489920262;-0,151989330669;-0,0914297040257935;-0,142297968247082;-0,858683053981996;0,454201944713908;-0,0892648621199245;0,0287438207382028;0,0361691062336927;-0,08309040587582;-0,118453459595657;-0,071256085568585;0,0227841788141833;0,750443235871764;0,20334197881257;0,00607057060371592;0,00060791346755719;0,000922699364826725;0,00449482522620454;0,00843478541240547;0,00289981242677036;0,0125972430983637;0,458716008257276;0,128344153723591;0,00495723136583696;0,000514004715633618;0,00081386742501845;0,00429516520460236;0,00872918325219234;0,00315879930367475;0,377874343653811;0,9753768233741;0,35949451576856
"classe 4";-0,138790537272927;-0,16546040522201;-0,118886321868712;-1,94315201605299;-5,71683032523071;-10,8887740755031;2,6441522467897;1,91864347150019;0,778934515814196;-0,0107604554721479;-0,0128281751607737;-0,00921727804972818;-0,150652927463171;-0,443226889708638;-0,844208624650849;0,205001602214495;0,148752775568601;0,0603909339774042;0,000184114496316459;0,000236685971834311;0,000118338248478597;0,0244351090085986;0,204265803529826;0,710354162388582;0,0386648431129746;0,0187974694717886;0,00294347377160616;0,000115095570668976;0,000163578817305024;8,44505881597945e-05;0,0225606938253117;0,195276283890414;0,708429880250314;0,0417745530397791;0,0219951767941517;0,00362527364432029;0,00597501357957632;8,24785342977738;0,406462763818575
"classe 5";-0,0108823572916042;1,12418819392505;-0,875965414344963;-3,41936923870507;1,3824402730969;-0,495649221743489;-0,849229365344847;-1,27208011229367;-0,477154684612377;-0,00253371610215715;0,261742346118373;-0,203949164302013;-0,796124467077736;0,321870628427034;-0,11540095408575;-0,197724266879107;-0,296175706915908;-0,111094910342158;9,4492691315273e-06;0,0912108238587715;0,0536314156589458;0,631650310041066;0,0997153006313965;0,0122871115166878;0,0332948705294813;0,0689800874526241;0,00922063104189702;6,08960689174091e-06;0,0649862290571016;0,0394563779874174;0,601222600277225;0,0982734156916869;0,01263258281518;0,037084574732895;0,0832093678497984;0,0117074329939345;0,0514213289878689;2,85462418606076;0,419026200469785
"classe 6";0,0133697638434925;1,15001634113365;-0,873078093990677;2,38481412672646;-4,09376608241647;-1,32468580590131;-13,8607587706344;1,15949780767539;0,410971777227245;0,000901553228118031;0,0775481868546371;-0,0588736183563597;0,160813377078326;-0,276051848781091;-0,0893265414806678;-0,934662119698777;0,0781875434557009;0,0277127507083806;1,37778387614216e-06;0,00922056915942287;0,0051467478744002;0,0296807692424078;0,0844688271259584;0,0084782862747707;0,85680640212808;0,00553625450614522;0,000660765904939556;8,09119071296211e-07;0,00598650002206418;0,00345041353524531;0,0257438820343747;0,0758596810498983;0,00794311282073333;0,869638935803542;0,00608561998010155;0,000764520195895892;0,00452652543907297;9,18455791265448;0,381840050927503
"classe 7";0,0443233093404645;0,820032816155944;-0,631416500478314;0,836180920544342;-1,77428956265231;0,503345548223491;0,567674053316271;-2,24438141348603;-1,49659669728528;0,0124017958552304;0,229447659299014;-0,176672244358051;0,233965947690694;-0,496451579800953;0,140837605011768;0,158836915074667;-0,627984699822854;-0,418752277154529;0,00025631315356339;0,0793569708409438;0,0455650105082958;0,0617645809750153;0,268579167326415;0,0207199014436525;0,0243265035194423;0,351109370836987;0,148322181395685;0,000142637489789443;0,0488238243071939;0,0289468415041804;0,0507656366621104;0,228569524589337;0,0183950847560165;0,0233973902144158;0,365731743546952;0,162621848887274;0,0726054680427304;2,23239890938513;0,361836965623791
"classe 8";-0,0319705137560647;0,642583172317024;-0,485208714543851;5,32891547447388;6,33703818563856;-4,94164261168279;-0,611854143093762;-3,34299983175689;-0,192191436591926;-0,00311686455170947;0,0626466226536637;-0,047303895523273;0,519525831463779;0,617809580238581;-0,481769883371027;-0,0596507927265872;-0,32591524025782;-0,0187370988288187;1,51244294469627e-05;0,00552655564617976;0,00305161709629696;0,284504990394242;0,388569948027114;0,226501520423963;0,00320516688336535;0,0883476570537635;0,000277420045626734;9,62337769165121e-06;0,00388764854860411;0,00221659058968014;0,267365867639423;0,378095012537488;0,229916937983552;0,00352471584390586;0,105220657162155;0,000347773404229939;0,00941517291327177;6,62880410465544;0,413712525911756
"classe 9";0,0450299977217587;0,576805400342806;-0,324563450110623;0,229247665451566;0,0540230307248692;0,200885318964436;0,206293382956422;0,56163902663213;0,490085216884395;0,0422843840035728;0,541635848931976;-0,304773845266498;0,215269749240796;0,0507290848718694;0,188636739896346;0,193715058042529;0,527394214413437;0,460203254578461;0,00262288054169073;0,389268604228434;0,119362242277436;0,0460274548045104;0,00246859214086786;0,0327204859131007;0,031850798434811;0,217987592380311;0,157691349278828;0,000950151982291922;0,155900627921356;0,0493615116759508;0,0246262946937537;0,00136756229448416;0,0189097430091703;0,0199415919058399;0,147809989038477;0,112546614025841;0,468585913452834;0,708986130028435;0,235540019680996
"classe 10";-0,0314908202006984;0,627610113529652;-0,487679914173412;0,560056714019411;1,91793742952097;-0,639623210361964;-0,0243935812528358;6,59337181627638;-10,8561736457374;-0,00244148898915698;0,048658725682611;-0,0378099120028954;0,0434212983932222;0,148698036006177;-0,0495901032540697;-0,00189123876911863;0,511185310139993;-0,841681107431309;1,14664179626189e-05;0,00411960684716881;0,00240892149146187;0,00245559248213519;0,0278128494113653;0,00296522012270656;3,98094354787643e-06;0,268545275216446;0,691677087067201;5,92525221403577e-06;0,0023535247151829;0,00142104762931562;0,00187414380885412;0,02197899175401;0,00244448471676871;3,55541274835727e-06;0,259749087987151;0,704194225144179;0,00597501357957632;7,49885848599745;0,335992213211937
