"V1";"V2";"V3";"V4";"V5";"V6"
"***";"nb classes";"10";"***";"";""
"**";"classe";"1";"**";"";""
"****";"3";"1148";"0.26";"****";""
"*****";"*";"*";"*";"*";"*"
"0";"797";"0";"-6.830";"el";"0.008964861"
"0";"545";"0";"-2.719";"que";"0.099188269"
"0";"515";"0";"-2.447";"y";"0.117738219"
"*";"*";"*";"*";"*";"*"
"**";"classe";"2";"**";"";""
"****";"4";"1148";"0.35";"****";""
"*****";"*";"*";"*";"*";"*"
"0";"545";"0";"-3.628";"que";"0.05681854"
"0";"515";"0";"-3.266";"y";"0.07074182"
"0";"409";"0";"-2.222";"de";"0.13609698"
"0";"402";"0";"-2.163";"a";"0.14136544"
"*";"*";"*";"*";"*";"*"
"0";"452";"0";"-2.607";"*egutegia_SemanaDePas";"0.1064074"
"0";"382";"0";"-2.002";"*egutegia_SemanaDeCua";"0.1571174"
"**";"classe";"3";"**";"";""
"****";"422";"1148";"36.76";"****";""
" 3";"149";" 2.01";"-88.922";"padre";"4.106159e-21"
" 1";"117";" 0.85";"-72.245";"os";"1.900240e-17"
" 1";" 88";" 1.14";"-52.026";"dios";"5.477304e-13"
" 7";"111";" 6.31";"-49.022";"dar";"2.531395e-12"
" 0";" 71";" 0.00";"-43.991";"mundo";"3.299485e-11"
" 0";" 58";" 0.00";"-35.507";"vida";"2.540798e-09"
" 4";" 67";" 5.97";"-29.015";"venir";"7.180393e-08"
" 0";" 46";" 0.00";"-27.854";"conocer";"1.307956e-07"
" 8";" 81";" 9.88";"-27.093";"hijo";"1.939188e-07"
" 4";" 62";" 6.45";"-25.897";"crear|creer";"3.600987e-07"
" 4";" 59";" 6.78";"-24.047";"enviar";"9.401050e-07"
" 0";" 34";" 0.00";"-20.366";"ahora";"6.394714e-06"
" 0";" 33";" 0.00";"-19.750";"asegurar";"8.828335e-06"
" 2";" 37";" 5.41";"-16.168";"mismo";"5.796652e-05"
" 0";" 27";" 0.00";"-16.072";"obra";"6.097194e-05"
" 0";" 25";" 0.00";"-14.855";"eterno";"1.160887e-04"
" 1";" 30";" 3.33";"-14.806";"verdad";"1.191696e-04"
" 4";" 41";" 9.76";"-13.337";"hablar";"2.602447e-04"
"13";" 74";"17.57";"-12.533";"hacer";"3.998884e-04"
" 0";" 21";" 0.00";"-12.434";"luz";"4.215736e-04"
" 1";" 26";" 3.85";"-12.397";"nombre";"4.301115e-04"
" 3";" 34";" 8.82";"-11.763";"nadie";"6.043533e-04"
" 2";" 29";" 6.90";"-11.413";"testimonio";"7.291914e-04"
" 0";" 19";" 0.00";"-11.230";"vuestro";"8.048831e-04"
" 0";" 19";" 0.00";"-11.230";"mis";"8.048831e-04"
" 1";" 23";" 4.35";"-10.606";"cómo";"1.127132e-03"
"16";" 80";"20.00";"-10.390";"ir";"1.266895e-03"
" 7";" 47";"14.89";"-10.079";"hombre";"1.499555e-03"
" 0";" 17";" 0.00";"-10.030";"siempre";"1.540050e-03"
" 0";" 17";" 0.00";"-10.030";"carne";"1.540050e-03"
" 6";" 42";"14.29";" -9.472";"palabra";"2.086697e-03"
" 0";" 16";" 0.00";" -9.432";"espíritu";"2.132632e-03"
" 0";" 16";" 0.00";" -9.432";"nacer";"2.132632e-03"
" 2";" 25";" 8.00";" -9.093";"así";"2.566049e-03"
" 7";" 44";"15.91";" -8.556";"pan";"3.443033e-03"
" 0";" 14";" 0.00";" -8.238";"ama";"4.101763e-03"
" 0";" 14";" 0.00";" -8.238";"escuchar";"4.101763e-03"
" 0";" 13";" 0.00";" -7.643";"saber|ser";"5.699230e-03"
" 1";" 17";" 5.88";" -7.077";"voz";"7.808648e-03"
" 1";" 17";" 5.88";" -7.077";"vivir";"7.808648e-03"
" 0";" 12";" 0.00";" -7.049";"moisés";"7.931446e-03"
" 1";" 16";" 6.25";" -6.497";"guardar";"1.080478e-02"
" 0";" 11";" 0.00";" -6.456";"fruto";"1.105909e-02"
" 0";" 11";" 0.00";" -6.456";"glorificado";"1.105909e-02"
" 0";" 11";" 0.00";" -6.456";"único";"1.105909e-02"
" 0";" 11";" 0.00";" -6.456";"vuestra";"1.105909e-02"
" 0";" 11";" 0.00";" -6.456";"maestro";"1.105909e-02"
" 4";" 28";"14.29";" -6.236";"cielo";"1.252133e-02"
"11";" 53";"20.75";" -6.123";"saber";"1.334575e-02"
" 0";" 10";" 0.00";" -5.864";"cuenta";"1.545583e-02"
" 0";" 10";" 0.00";" -5.864";"bueno";"1.545583e-02"
" 0";" 10";" 0.00";" -5.864";"beber";"1.545583e-02"
" 1";" 14";" 7.14";" -5.348";"profeta";"2.074983e-02"
" 1";" 14";" 7.14";" -5.348";"ése";"2.074983e-02"
" 0";"  9";" 0.00";" -5.273";"amor";"2.166187e-02"
" 0";"  9";" 0.00";" -5.273";"juzgar";"2.166187e-02"
" 3";" 22";"13.64";" -5.159";"comer";"2.312749e-02"
" 1";" 13";" 7.69";" -4.779";"mesías";"2.880964e-02"
" 0";"  8";" 0.00";" -4.683";"mandamiento";"3.046658e-02"
" 0";"  8";" 0.00";" -4.683";"último";"3.046658e-02"
" 0";"  8";" 0.00";" -4.683";"vivo";"3.046658e-02"
" 0";"  8";" 0.00";" -4.683";"podar|poder";"3.046658e-02"
" 0";"  8";" 0.00";" -4.683";"oído";"3.046658e-02"
" 0";"  8";" 0.00";" -4.683";"ley";"3.046658e-02"
" 0";"  8";" 0.00";" -4.683";"dar|distar";"3.046658e-02"
" 0";"  8";" 0.00";" -4.683";"conmigo";"3.046658e-02"
" 0";"  8";" 0.00";" -4.683";"cambio";"3.046658e-02"
" 2";" 17";"11.76";" -4.637";"bajar";"3.128425e-02"
" 1";" 12";" 8.33";" -4.215";"gloria";"4.006325e-02"
" 0";"  7";" 0.00";" -4.094";"crear";"4.303993e-02"
" 1";" 11";" 9.09";" -3.658";"pecado";"5.581701e-02"
" 0";"  6";" 0.00";" -3.506";"voluntad";"6.114962e-02"
" 0";"  6";" 0.00";" -3.506";"culto";"6.114962e-02"
" 0";"  6";" 0.00";" -3.506";"creed";"6.114962e-02"
" 0";"  6";" 0.00";" -3.506";"testigo";"6.114962e-02"
" 0";"  6";" 0.00";" -3.506";"sed";"6.114962e-02"
" 0";"  6";" 0.00";" -3.506";"santo";"6.114962e-02"
" 0";"  6";" 0.00";" -3.506";"rabí";"6.114962e-02"
" 0";"  6";" 0.00";" -3.506";"pastor";"6.114962e-02"
" 0";"  6";" 0.00";" -3.506";"nunca";"6.114962e-02"
" 0";"  6";" 0.00";" -3.506";"muéstranos";"6.114962e-02"
" 0";"  6";" 0.00";" -3.506";"modo";"6.114962e-02"
" 0";"  6";" 0.00";" -3.506";"guardará";"6.114962e-02"
" 0";"  6";" 0.00";" -3.506";"aceptar";"6.114962e-02"
" 1";" 10";"10.00";" -3.107";"sangre";"7.793872e-02"
" 1";" 10";"10.00";" -3.107";"desierto";"7.793872e-02"
" 1";" 10";"10.00";" -3.107";"condenar";"7.793872e-02"
" 1";" 10";"10.00";" -3.107";"acerca";"7.793872e-02"
" 0";"  5";" 0.00";" -2.919";"vuestros";"8.753940e-02"
" 0";"  5";" 0.00";" -2.919";"tiniebla";"8.753940e-02"
" 0";"  5";" 0.00";" -2.919";"saltar";"8.753940e-02"
" 0";"  5";" 0.00";" -2.919";"resucitaré";"8.753940e-02"
" 0";"  5";" 0.00";" -2.919";"reino";"8.753940e-02"
" 0";"  5";" 0.00";" -2.919";"perezca";"8.753940e-02"
" 0";"  5";" 0.00";" -2.919";"juicio";"8.753940e-02"
" 0";"  5";" 0.00";" -2.919";"israel";"8.753940e-02"
" 0";"  5";" 0.00";" -2.919";"existir";"8.753940e-02"
" 0";"  5";" 0.00";" -2.919";"embargo";"8.753940e-02"
" 0";"  5";" 0.00";" -2.919";"corazón";"8.753940e-02"
" 0";"  5";" 0.00";" -2.919";"coma";"8.753940e-02"
" 0";"  5";" 0.00";" -2.919";"améis";"8.753940e-02"
" 2";" 13";"15.38";" -2.584";"amar";"1.079313e-01"
" 2";" 13";"15.38";" -2.584";"dejar";"1.079313e-01"
" 1";"  9";"11.11";" -2.567";"poco";"1.091176e-01"
" 1";"  9";"11.11";" -2.567";"traer";"1.091176e-01"
" 1";"  9";"11.11";" -2.567";"abierto";"1.091176e-01"
" 0";"  4";" 0.00";" -2.333";"suceder";"1.266414e-01"
" 0";"  4";" 0.00";" -2.333";"elevar";"1.266414e-01"
" 0";"  4";" 0.00";" -2.333";"alimento";"1.266414e-01"
" 0";"  4";" 0.00";" -2.333";"válido";"1.266414e-01"
" 0";"  4";" 0.00";" -2.333";"tristeza";"1.266414e-01"
" 0";"  4";" 0.00";" -2.333";"trabajo";"1.266414e-01"
" 0";"  4";" 0.00";" -2.333";"tampoco";"1.266414e-01"
" 0";"  4";" 0.00";" -2.333";"significar";"1.266414e-01"
" 0";"  4";" 0.00";" -2.333";"resurrección";"1.266414e-01"
" 0";"  4";" 0.00";" -2.333";"realizar";"1.266414e-01"
" 0";"  4";" 0.00";" -2.333";"razón";"1.266414e-01"
" 0";"  4";" 0.00";" -2.333";"principio";"1.266414e-01"
" 0";"  4";" 0.00";" -2.333";"pidáis";"1.266414e-01"
" 0";"  4";" 0.00";" -2.333";"perder";"1.266414e-01"
" 0";"  4";" 0.00";" -2.333";"pecador";"1.266414e-01"
" 0";"  4";" 0.00";" -2.333";"nazaret";"1.266414e-01"
" 0";"  4";" 0.00";" -2.333";"maná";"1.266414e-01"
" 0";"  4";" 0.00";" -2.333";"mando";"1.266414e-01"
" 0";"  4";" 0.00";" -2.333";"haz";"1.266414e-01"
" 0";"  4";" 0.00";" -2.333";"elías";"1.266414e-01"
" 0";"  4";" 0.00";" -2.333";"dichosos";"1.266414e-01"
" 0";"  4";" 0.00";" -2.333";"cumplir";"1.266414e-01"
" 0";"  4";" 0.00";" -2.333";"comunicar";"1.266414e-01"
" 0";"  4";" 0.00";" -2.333";"comparación";"1.266414e-01"
" 0";"  4";" 0.00";" -2.333";"comida";"1.266414e-01"
" 0";"  4";" 0.00";" -2.333";"bastar";"1.266414e-01"
" 0";"  4";" 0.00";" -2.333";"amo";"1.266414e-01"
" 0";"  4";" 0.00";" -2.333";"amará";"1.266414e-01"
" 4";" 19";"21.05";" -2.050";"morir";"1.521750e-01"
" 1";"  8";"12.50";" -2.040";"abrahán";"1.532578e-01"
" 1";"  8";"12.50";" -2.040";"entender";"1.532578e-01"
"*****";"*";"*";"*";"*";"*"
" 20";"299";" 6.69";"-157.262";"yo";"4.485582e-36"
"  5";"117";" 4.27";" -59.142";"mío";"1.466708e-14"
" 58";"308";"18.83";" -58.201";"no";"2.366382e-14"
"139";"545";"25.50";" -56.539";"que";"5.510111e-14"
"  6";" 86";" 6.98";" -35.472";"si";"2.587759e-09"
"  5";" 78";" 6.41";" -33.158";"vosotros";"8.497550e-09"
" 73";"295";"24.75";" -24.650";"ser";"6.875521e-07"
" 22";"127";"17.32";" -23.206";"para";"1.455366e-06"
" 10";" 73";"13.70";" -17.834";"tener";"2.410548e-05"
"  9";" 66";"13.64";" -16.106";"todo";"5.989148e-05"
" 83";"302";"27.48";" -15.169";"haber";"9.832112e-05"
"  1";" 27";" 3.70";" -12.997";"nosotros";"3.120452e-04"
" 21";"102";"20.59";" -12.593";"porque";"3.871446e-04"
" 11";" 65";"16.92";" -11.663";"sino";"6.377245e-04"
"  5";" 42";"11.90";" -11.585";"como";"6.648979e-04"
"  5";" 40";"12.50";" -10.492";"poder";"1.198844e-03"
"  2";" 23";" 8.70";"  -7.951";"ni";"4.804763e-03"
" 29";"114";"25.44";"  -6.978";"del";"8.251896e-03"
" 38";"142";"26.76";"  -6.969";"este";"8.292548e-03"
"  0";" 11";" 0.00";"  -6.456";"verdadero";"1.105909e-02"
"  3";" 24";"12.50";"  -6.206";"pues";"1.273423e-02"
" 31";"114";"27.19";"  -4.983";"por";"2.560007e-02"
" 10";" 46";"21.74";"  -4.651";"quien";"3.104079e-02"
"  1";" 12";" 8.33";"  -4.215";"sin";"4.006325e-02"
" 33";"115";"28.70";"  -3.575";"tú";"5.865791e-02"
"  1";" 10";"10.00";"  -3.107";"nuestro";"7.793872e-02"
"280";"797";"35.13";"  -2.971";"el";"8.475244e-02"
"  0";"  5";" 0.00";"  -2.919";"encima";"8.753940e-02"
"  2";" 13";"15.38";"  -2.584";"nada";"1.079313e-01"
"*";"*";"*";"*";"*";"*"
"107";"452";"23.67";"-54.927";"*egutegia_SemanaDePas";"1.250815e-13"
"  0";" 19";" 0.00";"-11.230";"*zein_Juan1-1-18";"8.048831e-04"
"  1";" 19";" 5.26";" -8.244";"*zein_Juan14-1-12";"4.087805e-03"
"  1";" 18";" 5.56";" -7.659";"*zein_Juan5-31-47";"5.647884e-03"
"  0";" 12";" 0.00";" -7.049";"*zein_Juan10-11-18";"7.931446e-03"
"  1";" 16";" 6.25";" -6.497";"*zein_Juan8-31-42";"1.080478e-02"
"  1";" 14";" 7.14";" -5.348";"*zein_Juan14-6-14";"2.074983e-02"
"  1";" 14";" 7.14";" -5.348";"*zein_Juan6-51-58";"2.074983e-02"
"  0";"  9";" 0.00";" -5.273";"*zein_Juan12-44-50";"2.166187e-02"
"  1";" 13";" 7.69";" -4.779";"*zein_Juan17-1-11a";"2.880964e-02"
"  1";" 12";" 8.33";" -4.215";"*zein_Juan14-7-14";"4.006325e-02"
"  1";" 12";" 8.33";" -4.215";"*zein_Juan10-1-10";"4.006325e-02"
"  1";" 12";" 8.33";" -4.215";"*zein_Juan15-9-17";"4.006325e-02"
"  1";" 11";" 9.09";" -3.658";"*zein_Juan6-44-51";"5.581701e-02"
"  1";" 11";" 9.09";" -3.658";"*zein_Juan14-23-29";"5.581701e-02"
"  1";" 10";"10.00";" -3.107";"*zein_Juan17-11b-19";"7.793872e-02"
"  1";" 10";"10.00";" -3.107";"*zein_Juan3-31-36";"7.793872e-02"
"  2";" 14";"14.29";" -3.079";"*zein_Juan6-41-51";"7.929630e-02"
"  2";" 14";"14.29";" -3.079";"*zein_Juan6-24-35";"7.929630e-02"
"  3";" 17";"17.65";" -2.711";"*zein_Juan5-17-30";"9.963143e-02"
"  1";"  9";"11.11";" -2.567";"*zein_Juan16-5-11";"1.091176e-01"
"  1";"  9";"11.11";" -2.567";"*zein_Juan3-14-21";"1.091176e-01"
"  1";"  9";"11.11";" -2.567";"*zein_Juan14-15-21";"1.091176e-01"
"  1";"  9";"11.11";" -2.567";"*zein_Juan15-12-17";"1.091176e-01"
"  0";"  4";" 0.00";" -2.333";"*zein_Juan10-27-30";"1.266414e-01"
"  2";" 12";"16.67";" -2.106";"*zein_Juan8-21-30";"1.467191e-01"
"  1";"  8";"12.50";" -2.040";"*zein_Juan16-29-33";"1.532578e-01"
"  1";"  8";"12.50";" -2.040";"*zein_Juan6-35-40";"1.532578e-01"
"  1";"  8";"12.50";" -2.040";"*zein_Juan3-5a7b-15";"1.532578e-01"
"  1";"  8";"12.50";" -2.040";"*zein_Juan14-1-6";"1.532578e-01"
"  1";"  8";"12.50";" -2.040";"*zein_Juan3-16-21";"1.532578e-01"
"  1";"  8";"12.50";" -2.040";"*zein_Juan17-20-26";"1.532578e-01"
"  1";"  8";"12.50";" -2.040";"*zein_Juan14-27-31a";"1.532578e-01"
"**";"classe";"4";"**";"";""
"****";"8";"1148";"0.7";"****";""
"*****";"*";"*";"*";"*";"*"
"0";"545";"0.00";"-7.281";"que";"0.006967786"
"0";"402";"0.00";"-4.341";"a";"0.037199722"
"3";"797";"0.38";"-3.868";"el";"0.049209108"
"0";"299";"0.00";"-2.837";"yo";"0.092104370"
"0";"295";"0.00";"-2.786";"ser";"0.095084125"
"*";"*";"*";"*";"*";"*"
"**";"classe";"5";"**";"";""
"****";"62";"1148";"5.4";"****";""
"0";"195";"0.00";"-13.411";"decir";"0.0002502177"
"0";"182";"0.00";"-12.348";"jesús";"0.0004414498"
"0";" 75";"0.00";" -4.581";"tiempo";"0.0323273478"
"0";" 74";"0.00";" -4.516";"hacer";"0.0335838934"
"0";" 67";"0.00";" -4.062";"venir";"0.0438553815"
"1";" 94";"1.06";" -3.769";"discípulo";"0.0522061038"
"2";"117";"1.71";" -3.474";"os";"0.0623225858"
"2";"115";"1.74";" -3.354";"ver";"0.0670505842"
"0";" 53";"0.00";" -3.172";"saber";"0.0748998351"
"0";" 50";"0.00";" -2.984";"judío";"0.0840653063"
"1";" 80";"1.25";" -2.900";"ir";"0.0885916916"
"0";" 42";"0.00";" -2.489";"palabra";"0.1146558120"
"0";" 42";"0.00";" -2.489";"ya";"0.1146558120"
"0";" 41";"0.00";" -2.427";"hablar";"0.1192310875"
"0";" 37";"0.00";" -2.183";"llegar";"0.1395706206"
"0";" 35";"0.00";" -2.061";"querer";"0.1511116147"
"0";" 34";"0.00";" -2.000";"ahora";"0.1572669576"
"*****";"*";"*";"*";"*";"*"
"12";"402";"2.99";"-7.066";"a";"0.007857773"
" 3";"170";"1.76";"-5.164";"se";"0.023063901"
" 0";" 66";"0.00";"-3.998";"todo";"0.045559853"
" 0";" 65";"0.00";"-3.934";"sino";"0.047330914"
" 1";" 96";"1.04";"-3.896";"aquel";"0.048395931"
" 0";" 59";"0.00";"-3.551";"otro";"0.059516258"
" 3";"144";"2.08";"-3.547";"estar";"0.059665583"
" 0";" 55";"0.00";"-3.298";"también";"0.069365692"
" 0";" 53";"0.00";"-3.172";"cuando";"0.074899835"
" 4";"154";"2.60";"-2.736";"al";"0.098125635"
"10";"279";"3.58";"-2.380";"él";"0.122868719"
" 0";" 37";"0.00";"-2.183";"dicho";"0.139570621"
"*";"*";"*";"*";"*";"*"
"9";"382";"2.36";"-10.388";"*egutegia_SemanaDeCua";"0.001268551"
"0";" 54";"0.00";" -3.235";"*zein_Juan9-1-41";"0.072078368"
"0";" 39";"0.00";" -2.305";"*egutegia_OctavaDePas";"0.128973309"
"**";"classe";"6";"**";"";""
"****";"8";"1148";"0.7";"****";""
"*****";"*";"*";"*";"*";"*"
"1";"797";"0.13";"-12.299";"el";"0.0004533182"
"0";"515";"0.00";" -6.554";"y";"0.0104627242"
"0";"334";"0.00";" -3.306";"en";"0.0690445153"
"*";"*";"*";"*";"*";"*"
"**";"classe";"7";"**";"";""
"****";"90";"1148";"7.84";"****";""
"0";"195";"0.00";"-19.982";"decir";"7.817182e-06"
"0";"182";"0.00";"-18.399";"jesús";"1.791569e-05"
"0";" 94";"0.00";" -8.709";"discípulo";"3.165813e-03"
"0";" 75";"0.00";" -6.826";"tiempo";"8.984499e-03"
"0";" 59";"0.00";" -5.291";"enviar";"2.143814e-02"
"1";" 80";"1.25";" -5.168";"ir";"2.300231e-02"
"0";" 50";"0.00";" -4.447";"señor";"3.496277e-02"
"0";" 50";"0.00";" -4.447";"judío";"3.496277e-02"
"0";" 44";"0.00";" -3.892";"pan";"4.851416e-02"
"0";" 41";"0.00";" -3.617";"hablar";"5.719579e-02"
"4";"117";"3.42";" -3.524";"os";"6.048226e-02"
"4";"115";"3.48";" -3.365";"ver";"6.660379e-02"
"0";" 37";"0.00";" -3.252";"llegar";"7.132468e-02"
"0";" 35";"0.00";" -3.071";"querer";"7.970328e-02"
"0";" 34";"0.00";" -2.981";"nadie";"8.427204e-02"
"0";" 28";"0.00";" -2.441";"creer";"1.181708e-01"
"0";" 27";"0.00";" -2.352";"preguntar";"1.251139e-01"
"0";" 27";"0.00";" -2.352";"pedro";"1.251139e-01"
"0";" 25";"0.00";" -2.174";"echar";"1.403610e-01"
"0";" 24";"0.00";" -2.085";"allí";"1.487346e-01"
"3";" 81";"3.70";" -2.063";"hijo";"1.508735e-01"
"*****";"*";"*";"*";"*";"*"
" 0";" 96";"0.00";"-8.912";"aquel";"0.002833695"
"13";"302";"4.30";"-7.088";"haber";"0.007759459"
" 4";"115";"3.48";"-3.365";"tú";"0.066603792"
" 0";" 32";"0.00";"-2.800";"qué";"0.094254269"
" 0";" 28";"0.00";"-2.441";"mucho";"0.118170802"
" 0";" 27";"0.00";"-2.352";"nosotros";"0.125113884"
"25";"402";"6.22";"-2.249";"a";"0.133672782"
" 0";" 25";"0.00";"-2.174";"donde";"0.140360981"
" 1";" 46";"2.17";"-2.129";"quien";"0.144524944"
"*";"*";"*";"*";"*";"*"
"18";"382";"4.71";"-7.751";"*egutegia_SemanaDeCua";"0.005367284"
" 0";" 44";"0.00";"-3.892";"*zein_Juan4-5-42";"0.048514156"
" 0";" 39";"0.00";"-3.434";"*egutegia_OctavaDePas";"0.063857608"
" 1";" 54";"1.85";"-2.812";"*zein_Juan9-1-41";"0.093560439"
" 6";"130";"4.62";"-2.109";"*egutegia_SemanaDelTi";"0.146389795"
"**";"classe";"8";"**";"";""
"****";"11";"1148";"0.96";"****";""
"0";"195";"0";"-2.273";"decir";"0.1316820"
"0";"182";"0";"-2.093";"jesús";"0.1480223"
"*****";"*";"*";"*";"*";"*"
"1";"797";"0.13";"-19.047";"el";"1.275596e-05"
"0";"279";"0.00";" -3.566";"él";"5.898086e-02"
"*";"*";"*";"*";"*";"*"
"0";"382";"0";"-5.539";"*egutegia_SemanaDeCua";"0.01860028"
"**";"classe";"9";"**";"";""
"****";"530";"1148";"46.17";"****";""
"14";"182";" 7.69";"-128.828";"jesús";"7.394408e-30"
" 5";" 94";" 5.32";" -68.737";"discípulo";"1.124950e-16"
" 1";" 75";" 1.33";" -64.899";"tiempo";"7.884804e-16"
"51";"195";"26.15";" -37.857";"decir";"7.612937e-10"
" 5";" 50";"10.00";" -27.514";"judío";"1.559300e-07"
" 0";" 27";" 0.00";" -23.713";"pedro";"1.118217e-06"
" 1";" 27";" 3.70";" -20.061";"preguntar";"7.501199e-06"
" 0";" 22";" 0.00";" -19.236";"comer";"1.155176e-05"
" 0";" 22";" 0.00";" -19.236";"simón";"1.155176e-05"
" 1";" 24";" 4.17";" -17.399";"allí";"3.030329e-05"
" 0";" 19";" 0.00";" -16.569";"oveja";"4.691855e-05"
" 0";" 19";" 0.00";" -16.569";"templo";"4.691855e-05"
" 2";" 25";" 8.00";" -14.980";"echar";"1.086737e-04"
" 8";" 44";"18.18";" -14.418";"pan";"1.463864e-04"
" 0";" 15";" 0.00";" -13.034";"maría";"3.058232e-04"
" 1";" 16";" 6.25";" -10.403";"sepulcro";"1.258149e-03"
" 2";" 19";"10.53";"  -9.875";"mis";"1.675769e-03"
" 1";" 15";" 6.67";"  -9.542";"hermano";"2.008463e-03"
" 1";" 15";" 6.67";"  -9.542";"galilea";"2.008463e-03"
" 0";" 11";" 0.00";"  -9.525";"pecado";"2.027000e-03"
" 0";" 11";" 0.00";"  -9.525";"todavía";"2.027000e-03"
" 0";" 11";" 0.00";"  -9.525";"acercar";"2.027000e-03"
" 7";" 34";"20.59";"  -9.224";"día";"2.388540e-03"
" 0";" 10";" 0.00";"  -8.651";"lázaro";"3.268079e-03"
" 0";" 10";" 0.00";"  -8.651";"fariseos";"3.268079e-03"
" 2";" 17";"11.76";"  -8.217";"carne";"4.149309e-03"
" 1";" 13";" 7.69";"  -7.832";"primero";"5.133336e-03"
" 4";" 23";"17.39";"  -7.820";"seguir";"5.167685e-03"
" 0";"  9";" 0.00";"  -7.779";"sacerdote";"5.284432e-03"
" 0";"  9";" 0.00";"  -7.779";"puerta";"5.284432e-03"
" 0";"  9";" 0.00";"  -7.779";"pez";"5.284432e-03"
" 0";"  9";" 0.00";"  -7.779";"lago";"5.284432e-03"
" 0";"  9";" 0.00";"  -7.779";"costado";"5.284432e-03"
" 2";" 16";"12.50";"  -7.400";"muerto";"6.521253e-03"
" 9";" 37";"24.32";"  -7.340";"llegar";"6.745305e-03"
" 0";"  8";" 0.00";"  -6.909";"mandamiento";"8.576353e-03"
" 0";"  8";" 0.00";"  -6.909";"tomás";"8.576353e-03"
" 0";"  8";" 0.00";"  -6.909";"resucitar";"8.576353e-03"
" 0";"  8";" 0.00";"  -6.909";"red";"8.576353e-03"
" 0";"  8";" 0.00";"  -6.909";"nicodemo";"8.576353e-03"
" 0";"  8";" 0.00";"  -6.909";"enfermo";"8.576353e-03"
" 0";"  8";" 0.00";"  -6.909";"barca";"8.576353e-03"
" 2";" 15";"13.33";"  -6.593";"pie";"1.023937e-02"
" 6";" 27";"22.22";"  -6.379";"quedar";"1.154809e-02"
" 4";" 21";"19.05";"  -6.330";"luz";"1.186924e-02"
" 5";" 24";"20.83";"  -6.330";"juan";"1.187054e-02"
" 1";" 11";" 9.09";"  -6.143";"levantar";"1.319262e-02"
" 0";"  7";" 0.00";"  -6.040";"natanael";"1.398476e-02"
" 0";"  7";" 0.00";"  -6.040";"marta";"1.398476e-02"
" 0";"  7";" 0.00";"  -6.040";"llenar";"1.398476e-02"
" 0";"  7";" 0.00";"  -6.040";"judas";"1.398476e-02"
" 0";"  7";" 0.00";"  -6.040";"aparecer";"1.398476e-02"
" 2";" 14";"14.29";"  -5.796";"ama";"1.605947e-02"
" 2";" 14";"14.29";"  -5.796";"jerusalén";"1.605947e-02"
" 2";" 14";"14.29";"  -5.796";"entrar";"1.605947e-02"
" 3";" 17";"17.65";"  -5.647";"gente";"1.748077e-02"
" 1";" 10";"10.00";"  -5.309";"fiesta";"2.120999e-02"
" 1";" 10";"10.00";"  -5.309";"sangre";"2.120999e-02"
" 1";" 10";"10.00";"  -5.309";"dos";"2.120999e-02"
" 1";" 10";"10.00";"  -5.309";"andar";"2.120999e-02"
" 0";"  6";" 0.00";"  -5.173";"suelo";"2.294498e-02"
" 0";"  6";" 0.00";"  -5.173";"creed";"2.294498e-02"
" 0";"  6";" 0.00";"  -5.173";"pascua";"2.294498e-02"
" 0";"  6";" 0.00";"  -5.173";"vi";"2.294498e-02"
" 0";"  6";" 0.00";"  -5.173";"sentar";"2.294498e-02"
" 0";"  6";" 0.00";"  -5.173";"pastor";"2.294498e-02"
" 0";"  6";" 0.00";"  -5.173";"higuera";"2.294498e-02"
" 0";"  6";" 0.00";"  -5.173";"guardará";"2.294498e-02"
" 0";"  6";" 0.00";"  -5.173";"debajo";"2.294498e-02"
" 0";"  6";" 0.00";"  -5.173";"bajo";"2.294498e-02"
" 0";"  6";" 0.00";"  -5.173";"año";"2.294498e-02"
" 2";" 13";"15.38";"  -5.013";"vino";"2.515388e-02"
" 3";" 16";"18.75";"  -4.908";"guardar";"2.673642e-02"
" 1";"  9";"11.11";"  -4.485";"traer";"3.418410e-02"
" 1";"  9";"11.11";"  -4.485";"orilla";"3.418410e-02"
" 0";"  5";" 0.00";"  -4.307";"vendar|vender";"3.796067e-02"
" 0";"  5";" 0.00";"  -4.307";"correr";"3.796067e-02"
" 0";"  5";" 0.00";"  -4.307";"vuestros";"3.796067e-02"
" 0";"  5";" 0.00";"  -4.307";"tiniebla";"3.796067e-02"
" 0";"  5";" 0.00";"  -4.307";"sumos";"3.796067e-02"
" 0";"  5";" 0.00";"  -4.307";"seis";"3.796067e-02"
" 0";"  5";" 0.00";"  -4.307";"paloma";"3.796067e-02"
" 0";"  5";" 0.00";"  -4.307";"mellizo";"3.796067e-02"
" 0";"  5";" 0.00";"  -4.307";"marchar";"3.796067e-02"
" 0";"  5";" 0.00";"  -4.307";"judea";"3.796067e-02"
" 0";"  5";" 0.00";"  -4.307";"empezar";"3.796067e-02"
" 0";"  5";" 0.00";"  -4.307";"doce";"3.796067e-02"
" 0";"  5";" 0.00";"  -4.307";"después";"3.796067e-02"
" 0";"  5";" 0.00";"  -4.307";"dedo";"3.796067e-02"
" 0";"  5";" 0.00";"  -4.307";"corazón";"3.796067e-02"
" 0";"  5";" 0.00";"  -4.307";"coma";"3.796067e-02"
" 0";"  5";" 0.00";"  -4.307";"coger";"3.796067e-02"
" 0";"  5";" 0.00";"  -4.307";"cerrado";"3.796067e-02"
" 0";"  5";" 0.00";"  -4.307";"caná";"3.796067e-02"
" 0";"  5";" 0.00";"  -4.307";"caminar";"3.796067e-02"
" 0";"  5";" 0.00";"  -4.307";"cama";"3.796067e-02"
" 0";"  5";" 0.00";"  -4.307";"betania";"3.796067e-02"
" 0";"  5";" 0.00";"  -4.307";"andrés";"3.796067e-02"
" 0";"  5";" 0.00";"  -4.307";"améis";"3.796067e-02"
" 2";" 12";"16.67";"  -4.246";"alegría";"3.933262e-02"
" 4";" 18";"22.22";"  -4.219";"llevar";"3.997910e-02"
" 4";" 18";"22.22";"  -4.219";"encontrar";"3.997910e-02"
" 1";"  8";"12.50";"  -3.674";"tres";"5.526108e-02"
" 1";"  8";"12.50";"  -3.674";"nuevo";"5.526108e-02"
" 1";"  8";"12.50";"  -3.674";"erar|ser";"5.526108e-02"
" 4";" 17";"23.53";"  -3.558";"vez";"5.925574e-02"
" 3";" 14";"21.43";"  -3.490";"junto";"6.173945e-02"
" 3";" 14";"21.43";"  -3.490";"felipe";"6.173945e-02"
" 0";"  4";" 0.00";"  -3.442";"meter";"6.354274e-02"
" 0";"  4";" 0.00";"  -3.442";"llorar";"6.354274e-02"
" 0";"  4";" 0.00";"  -3.442";"vista";"6.354274e-02"
" 0";"  4";" 0.00";"  -3.442";"tiberíades";"6.354274e-02"
" 0";"  4";" 0.00";"  -3.442";"semana";"6.354274e-02"
" 0";"  4";" 0.00";"  -3.442";"sano";"6.354274e-02"
" 0";"  4";" 0.00";"  -3.442";"realizar";"6.354274e-02"
" 0";"  4";" 0.00";"  -3.442";"piedra";"6.354274e-02"
" 0";"  4";" 0.00";"  -3.442";"perfume";"6.354274e-02"
" 0";"  4";" 0.00";"  -3.442";"maná";"6.354274e-02"
" 0";"  4";" 0.00";"  -3.442";"mando";"6.354274e-02"
" 0";"  4";" 0.00";"  -3.442";"malo";"6.354274e-02"
" 0";"  4";" 0.00";"  -3.442";"magdalena";"6.354274e-02"
" 0";"  4";" 0.00";"  -3.442";"iscariote";"6.354274e-02"
" 0";"  4";" 0.00";"  -3.442";"estado";"6.354274e-02"
" 0";"  4";" 0.00";"  -3.442";"embarcar";"6.354274e-02"
" 0";"  4";" 0.00";"  -3.442";"elías";"6.354274e-02"
" 0";"  4";" 0.00";"  -3.442";"cuerpo";"6.354274e-02"
" 0";"  4";" 0.00";"  -3.442";"cuatro";"6.354274e-02"
" 0";"  4";" 0.00";"  -3.442";"comida";"6.354274e-02"
" 0";"  4";" 0.00";"  -3.442";"cambista";"6.354274e-02"
" 0";"  4";" 0.00";"  -3.442";"cafarnaún";"6.354274e-02"
" 0";"  4";" 0.00";"  -3.442";"buey";"6.354274e-02"
" 0";"  4";" 0.00";"  -3.442";"barro";"6.354274e-02"
" 0";"  4";" 0.00";"  -3.442";"amará";"6.354274e-02"
" 0";"  4";" 0.00";"  -3.442";"amanecer";"6.354274e-02"
" 6";" 22";"27.27";"  -3.222";"mano";"7.265751e-02"
" 1";"  7";"14.29";"  -2.880";"sábado";"8.966400e-02"
" 3";" 13";"23.08";"  -2.821";"tomar";"9.305130e-02"
" 2";" 10";"20.00";"  -2.779";"bueno";"9.549001e-02"
" 0";"  3";" 0.00";"  -2.580";"pobre";"1.082520e-01"
" 0";"  3";" 0.00";"  -2.580";"vender";"1.082520e-01"
" 0";"  3";" 0.00";"  -2.580";"tiemble";"1.082520e-01"
" 0";"  3";" 0.00";"  -2.580";"tercero";"1.082520e-01"
" 0";"  3";" 0.00";"  -2.580";"sudario";"1.082520e-01"
" 0";"  3";" 0.00";"  -2.580";"samaría";"1.082520e-01"
" 0";"  3";" 0.00";"  -2.580";"retirar";"1.082520e-01"
" 0";"  3";" 0.00";"  -2.580";"recoger";"1.082520e-01"
" 0";"  3";" 0.00";"  -2.580";"presentar";"1.082520e-01"
" 0";"  3";" 0.00";"  -2.580";"pregunta";"1.082520e-01"
" 0";"  3";" 0.00";"  -2.580";"pierna";"1.082520e-01"
" 0";"  3";" 0.00";"  -2.580";"ocho";"1.082520e-01"
" 0";"  3";" 0.00";"  -2.580";"mal";"1.082520e-01"
" 0";"  3";" 0.00";"  -2.580";"israelita";"1.082520e-01"
" 0";"  3";" 0.00";"  -2.580";"enterar";"1.082520e-01"
" 0";"  3";" 0.00";"  -2.580";"engaño";"1.082520e-01"
" 0";"  3";" 0.00";"  -2.580";"derecha";"1.082520e-01"
" 0";"  3";" 0.00";"  -2.580";"cien";"1.082520e-01"
" 0";"  3";" 0.00";"  -2.580";"celebrar";"1.082520e-01"
" 0";"  3";" 0.00";"  -2.580";"asomar";"1.082520e-01"
" 0";"  3";" 0.00";"  -2.580";"apodar";"1.082520e-01"
" 0";"  3";" 0.00";"  -2.580";"adelantar";"1.082520e-01"
" 1";"  6";"16.67";"  -2.112";"cerca";"1.461418e-01"
" 1";"  6";"16.67";"  -2.112";"noche";"1.461418e-01"
" 1";"  6";"16.67";"  -2.112";"cinco";"1.461418e-01"
"*****";"*";"*";"*";"*";"*"
"  9";" 96";" 9.38";"-57.060";"aquel";"4.227820e-14"
" 38";"170";"22.35";"-45.535";"se";"1.499202e-11"
"150";"402";"37.31";"-19.512";"a";"9.995182e-06"
"  3";" 29";"10.34";"-15.362";"entonces";"8.876986e-05"
" 16";" 59";"27.12";" -9.081";"otro";"2.583436e-03"
"135";"334";"40.42";" -6.262";"en";"1.233380e-02"
"  3";" 17";"17.65";" -5.647";"entre";"1.748077e-02"
"115";"279";"41.22";" -3.632";"él";"5.668828e-02"
"222";"515";"43.11";" -3.520";"y";"6.063449e-02"
"  0";"  3";" 0.00";" -2.580";"demás";"1.082520e-01"
"  0";"  3";" 0.00";" -2.580";"cincuenta";"1.082520e-01"
" 19";" 53";"35.85";" -2.380";"cuando";"1.228746e-01"
" 40";"102";"39.22";" -2.177";"un";"1.401165e-01"
"*";"*";"*";"*";"*";"*"
" 5";" 39";"12.82";"-18.063";"*egutegia_OctavaDePas";"2.136625e-05"
" 0";" 14";" 0.00";"-12.155";"*zein_Juan6-51-58";"4.896430e-04"
" 1";" 18";" 5.56";"-12.135";"*zein_Juan5-1-3a5-16";"4.947110e-04"
" 2";" 20";"10.00";"-10.713";"*zein_Juan6-1-15";"1.063825e-03"
" 0";" 11";" 0.00";" -9.525";"*zein_Juan12-1-11";"2.027000e-03"
" 2";" 18";"11.11";" -9.042";"*zein_Juan21-1-19";"2.637898e-03"
" 2";" 18";"11.11";" -9.042";"*zein_Juan21-1-14";"2.637898e-03"
"44";"130";"33.85";" -8.955";"*egutegia_SemanaDelTi";"2.767430e-03"
" 0";" 10";" 0.00";" -8.651";"*zein_Juan6-52-59";"3.268079e-03"
" 0";" 10";" 0.00";" -8.651";"*zein_Juan20-1-9";"3.268079e-03"
"13";" 50";"26.00";" -8.555";"*zein_Juan11-1-45";"3.445662e-03"
" 0";"  8";" 0.00";" -6.909";"*zein_Juan20-2-8";"8.576353e-03"
" 2";" 13";"15.38";" -5.013";"*zein_Juan2-13-22";"2.515388e-02"
" 0";"  5";" 0.00";" -4.307";"*zein_Juan6-16-21";"3.796067e-02"
" 4";" 18";"22.22";" -4.219";"*zein_Juan20-19-31";"3.997910e-02"
" 3";" 15";"20.00";" -4.187";"*zein_Juan8-1-11";"4.072683e-02"
" 3";" 15";"20.00";" -4.187";"*zein_Juan2-13-25";"4.072683e-02"
" 1";"  8";"12.50";" -3.674";"*egutegia_FinDelTiemp";"5.526108e-02"
" 1";"  8";"12.50";" -3.674";"*zein_Juan20-19-23";"5.526108e-02"
" 3";" 13";"23.08";" -2.821";"*zein_Juan2-1-11";"9.305130e-02"
" 3";" 12";"25.00";" -2.186";"*zein_Juan10-11-18";"1.392511e-01"
" 3";" 12";"25.00";" -2.186";"*zein_Juan10-1-10";"1.392511e-01"
" 3";" 12";"25.00";" -2.186";"*zein_Juan1-43-51";"1.392511e-01"
" 1";"  6";"16.67";" -2.112";"*zein_Juan19-31-37";"1.461418e-01"
" 2";"  9";"22.22";" -2.093";"*zein_Juan20-24-29";"1.480026e-01"
"**";"classe";"10";"**";"";""
"****";"10";"1148";"0.87";"****";""
"*****";"*";"*";"*";"*";"*"
"4";"797";"0.50";"-4.115";"el";"0.04250842"
"2";"515";"0.39";"-2.521";"y";"0.11237084"
"*";"*";"*";"*";"*";"*"
