"";"X";"V1"
"1";1;9
"2";2;9
"3";3;9
"4";4;7
"5";5;7
"6";6;9
"7";7;7
"8";8;7
"9";9;7
"10";10;9
"11";11;7
"12";12;9
"13";13;9
"14";14;9
"15";15;9
"16";16;9
"17";17;9
"18";18;9
"19";19;9
"20";20;3
"21";21;9
"22";22;2
"23";23;9
"24";24;9
"25";25;3
"26";26;2
"27";27;9
"28";28;3
"29";29;3
"30";30;10
"31";31;9
"32";32;9
"33";33;5
"34";34;9
"35";35;9
"36";36;3
"37";37;9
"38";38;3
"39";39;3
"40";40;9
"41";41;9
"42";42;3
"43";43;3
"44";44;3
"45";45;9
"46";46;3
"47";47;3
"48";48;3
"49";49;3
"50";50;3
"51";51;3
"52";52;3
"53";53;9
"54";54;7
"55";55;3
"56";56;1
"57";57;3
"58";58;9
"59";59;3
"60";60;9
"61";61;3
"62";62;9
"63";63;7
"64";64;3
"65";65;1
"66";66;3
"67";67;9
"68";68;3
"69";69;9
"70";70;3
"71";71;1
"72";72;3
"73";73;9
"74";74;3
"75";75;9
"76";76;9
"77";77;7
"78";78;3
"79";79;9
"80";80;2
"81";81;9
"82";82;9
"83";83;3
"84";84;2
"85";85;9
"86";86;3
"87";87;7
"88";88;7
"89";89;7
"90";90;7
"91";91;7
"92";92;9
"93";93;7
"94";94;9
"95";95;7
"96";96;3
"97";97;7
"98";98;9
"99";99;7
"100";100;7
"101";101;7
"102";102;9
"103";103;7
"104";104;7
"105";105;7
"106";106;7
"107";107;7
"108";108;7
"109";109;9
"110";110;9
"111";111;3
"112";112;3
"113";113;9
"114";114;9
"115";115;7
"116";116;7
"117";117;5
"118";118;9
"119";119;9
"120";120;7
"121";121;5
"122";122;9
"123";123;9
"124";124;3
"125";125;9
"126";126;7
"127";127;9
"128";128;9
"129";129;7
"130";130;6
"131";131;3
"132";132;3
"133";133;9
"134";134;3
"135";135;3
"136";136;3
"137";137;3
"138";138;3
"139";139;3
"140";140;3
"141";141;9
"142";142;3
"143";143;3
"144";144;3
"145";145;3
"146";146;9
"147";147;7
"148";148;7
"149";149;3
"150";150;9
"151";151;3
"152";152;9
"153";153;3
"154";154;9
"155";155;3
"156";156;9
"157";157;3
"158";158;3
"159";159;3
"160";160;3
"161";161;3
"162";162;9
"163";163;5
"164";164;5
"165";165;5
"166";166;9
"167";167;3
"168";168;9
"169";169;3
"170";170;3
"171";171;3
"172";172;3
"173";173;3
"174";174;9
"175";175;3
"176";176;0
"177";177;3
"178";178;3
"179";179;9
"180";180;3
"181";181;9
"182";182;5
"183";183;9
"184";184;7
"185";185;3
"186";186;3
"187";187;3
"188";188;3
"189";189;3
"190";190;9
"191";191;9
"192";192;3
"193";193;9
"194";194;3
"195";195;9
"196";196;9
"197";197;3
"198";198;3
"199";199;3
"200";200;9
"201";201;3
"202";202;3
"203";203;3
"204";204;3
"205";205;3
"206";206;3
"207";207;3
"208";208;3
"209";209;7
"210";210;5
"211";211;3
"212";212;3
"213";213;3
"214";214;3
"215";215;3
"216";216;3
"217";217;3
"218";218;9
"219";219;9
"220";220;9
"221";221;7
"222";222;3
"223";223;5
"224";224;9
"225";225;9
"226";226;7
"227";227;9
"228";228;3
"229";229;9
"230";230;3
"231";231;7
"232";232;9
"233";233;9
"234";234;9
"235";235;9
"236";236;3
"237";237;9
"238";238;9
"239";239;7
"240";240;3
"241";241;5
"242";242;9
"243";243;9
"244";244;7
"245";245;7
"246";246;7
"247";247;9
"248";248;9
"249";249;9
"250";250;9
"251";251;9
"252";252;9
"253";253;3
"254";254;9
"255";255;3
"256";256;3
"257";257;3
"258";258;9
"259";259;3
"260";260;9
"261";261;3
"262";262;3
"263";263;0
"264";264;9
"265";265;3
"266";266;9
"267";267;9
"268";268;9
"269";269;9
"270";270;3
"271";271;9
"272";272;9
"273";273;3
"274";274;5
"275";275;9
"276";276;9
"277";277;9
"278";278;3
"279";279;9
"280";280;3
"281";281;3
"282";282;3
"283";283;3
"284";284;5
"285";285;3
"286";286;5
"287";287;7
"288";288;9
"289";289;3
"290";290;3
"291";291;9
"292";292;9
"293";293;9
"294";294;9
"295";295;9
"296";296;3
"297";297;9
"298";298;9
"299";299;9
"300";300;6
"301";301;9
"302";302;9
"303";303;3
"304";304;8
"305";305;7
"306";306;9
"307";307;9
"308";308;9
"309";309;9
"310";310;9
"311";311;9
"312";312;9
"313";313;9
"314";314;9
"315";315;9
"316";316;9
"317";317;7
"318";318;9
"319";319;7
"320";320;9
"321";321;9
"322";322;3
"323";323;7
"324";324;9
"325";325;9
"326";326;9
"327";327;9
"328";328;9
"329";329;9
"330";330;3
"331";331;7
"332";332;9
"333";333;9
"334";334;7
"335";335;9
"336";336;9
"337";337;7
"338";338;7
"339";339;3
"340";340;7
"341";341;3
"342";342;9
"343";343;7
"344";344;7
"345";345;9
"346";346;9
"347";347;9
"348";348;3
"349";349;7
"350";350;7
"351";351;9
"352";352;9
"353";353;9
"354";354;9
"355";355;8
"356";356;9
"357";357;9
"358";358;9
"359";359;3
"360";360;9
"361";361;8
"362";362;9
"363";363;9
"364";364;9
"365";365;9
"366";366;9
"367";367;3
"368";368;9
"369";369;9
"370";370;9
"371";371;9
"372";372;9
"373";373;9
"374";374;9
"375";375;7
"376";376;9
"377";377;7
"378";378;9
"379";379;9
"380";380;9
"381";381;3
"382";382;9
"383";383;9
"384";384;9
"385";385;9
"386";386;9
"387";387;7
"388";388;9
"389";389;7
"390";390;9
"391";391;9
"392";392;9
"393";393;3
"394";394;9
"395";395;9
"396";396;9
"397";397;9
"398";398;0
"399";399;9
"400";400;9
"401";401;9
"402";402;3
"403";403;7
"404";404;9
"405";405;3
"406";406;6
"407";407;9
"408";408;7
"409";409;9
"410";410;9
"411";411;9
"412";412;9
"413";413;6
"414";414;3
"415";415;9
"416";416;9
"417";417;9
"418";418;9
"419";419;7
"420";420;9
"421";421;3
"422";422;9
"423";423;9
"424";424;9
"425";425;9
"426";426;9
"427";427;9
"428";428;3
"429";429;9
"430";430;7
"431";431;8
"432";432;3
"433";433;9
"434";434;7
"435";435;7
"436";436;8
"437";437;6
"438";438;9
"439";439;7
"440";440;9
"441";441;9
"442";442;9
"443";443;6
"444";444;3
"445";445;9
"446";446;9
"447";447;9
"448";448;9
"449";449;9
"450";450;3
"451";451;9
"452";452;9
"453";453;9
"454";454;9
"455";455;3
"456";456;9
"457";457;9
"458";458;8
"459";459;3
"460";460;8
"461";461;9
"462";462;9
"463";463;8
"464";464;3
"465";465;9
"466";466;8
"467";467;9
"468";468;9
"469";469;9
"470";470;9
"471";471;3
"472";472;9
"473";473;9
"474";474;9
"475";475;9
"476";476;9
"477";477;9
"478";478;9
"479";479;3
"480";480;8
"481";481;9
"482";482;9
"483";483;9
"484";484;10
"485";485;10
"486";486;9
"487";487;9
"488";488;3
"489";489;9
"490";490;9
"491";491;9
"492";492;9
"493";493;9
"494";494;7
"495";495;9
"496";496;9
"497";497;9
"498";498;0
"499";499;9
"500";500;9
"501";501;9
"502";502;3
"503";503;9
"504";504;7
"505";505;9
"506";506;9
"507";507;7
"508";508;9
"509";509;9
"510";510;9
"511";511;9
"512";512;3
"513";513;9
"514";514;9
"515";515;9
"516";516;9
"517";517;9
"518";518;9
"519";519;9
"520";520;3
"521";521;3
"522";522;9
"523";523;3
"524";524;9
"525";525;9
"526";526;9
"527";527;3
"528";528;9
"529";529;9
"530";530;7
"531";531;3
"532";532;3
"533";533;9
"534";534;3
"535";535;3
"536";536;3
"537";537;3
"538";538;3
"539";539;9
"540";540;7
"541";541;3
"542";542;3
"543";543;3
"544";544;3
"545";545;3
"546";546;3
"547";547;3
"548";548;3
"549";549;9
"550";550;9
"551";551;9
"552";552;7
"553";553;7
"554";554;3
"555";555;3
"556";556;3
"557";557;3
"558";558;3
"559";559;3
"560";560;9
"561";561;3
"562";562;3
"563";563;9
"564";564;3
"565";565;3
"566";566;3
"567";567;3
"568";568;3
"569";569;3
"570";570;3
"571";571;3
"572";572;3
"573";573;9
"574";574;3
"575";575;3
"576";576;9
"577";577;3
"578";578;3
"579";579;3
"580";580;3
"581";581;3
"582";582;9
"583";583;3
"584";584;3
"585";585;3
"586";586;3
"587";587;3
"588";588;3
"589";589;3
"590";590;3
"591";591;3
"592";592;3
"593";593;3
"594";594;3
"595";595;9
"596";596;3
"597";597;3
"598";598;0
"599";599;3
"600";600;3
"601";601;3
"602";602;9
"603";603;3
"604";604;9
"605";605;3
"606";606;3
"607";607;3
"608";608;3
"609";609;9
"610";610;3
"611";611;10
"612";612;3
"613";613;3
"614";614;3
"615";615;3
"616";616;3
"617";617;9
"618";618;3
"619";619;10
"620";620;3
"621";621;3
"622";622;4
"623";623;3
"624";624;3
"625";625;4
"626";626;4
"627";627;0
"628";628;9
"629";629;9
"630";630;3
"631";631;9
"632";632;3
"633";633;3
"634";634;3
"635";635;3
"636";636;3
"637";637;3
"638";638;3
"639";639;3
"640";640;3
"641";641;3
"642";642;4
"643";643;3
"644";644;3
"645";645;4
"646";646;4
"647";647;0
"648";648;9
"649";649;9
"650";650;3
"651";651;3
"652";652;3
"653";653;3
"654";654;3
"655";655;3
"656";656;3
"657";657;3
"658";658;3
"659";659;3
"660";660;3
"661";661;9
"662";662;3
"663";663;3
"664";664;3
"665";665;3
"666";666;9
"667";667;3
"668";668;3
"669";669;3
"670";670;3
"671";671;3
"672";672;3
"673";673;3
"674";674;3
"675";675;3
"676";676;3
"677";677;3
"678";678;3
"679";679;9
"680";680;3
"681";681;3
"682";682;3
"683";683;3
"684";684;9
"685";685;3
"686";686;3
"687";687;7
"688";688;9
"689";689;7
"690";690;9
"691";691;3
"692";692;3
"693";693;9
"694";694;9
"695";695;3
"696";696;9
"697";697;3
"698";698;3
"699";699;3
"700";700;3
"701";701;3
"702";702;3
"703";703;9
"704";704;9
"705";705;3
"706";706;3
"707";707;9
"708";708;9
"709";709;9
"710";710;9
"711";711;9
"712";712;5
"713";713;6
"714";714;9
"715";715;9
"716";716;3
"717";717;9
"718";718;9
"719";719;9
"720";720;9
"721";721;3
"722";722;9
"723";723;9
"724";724;9
"725";725;9
"726";726;9
"727";727;7
"728";728;7
"729";729;7
"730";730;3
"731";731;9
"732";732;9
"733";733;9
"734";734;9
"735";735;3
"736";736;9
"737";737;9
"738";738;9
"739";739;9
"740";740;7
"741";741;7
"742";742;7
"743";743;3
"744";744;3
"745";745;3
"746";746;3
"747";747;3
"748";748;9
"749";749;9
"750";750;9
"751";751;3
"752";752;7
"753";753;8
"754";754;0
"755";755;3
"756";756;9
"757";757;9
"758";758;9
"759";759;9
"760";760;9
"761";761;9
"762";762;9
"763";763;9
"764";764;9
"765";765;3
"766";766;6
"767";767;9
"768";768;9
"769";769;9
"770";770;9
"771";771;9
"772";772;9
"773";773;3
"774";774;9
"775";775;3
"776";776;3
"777";777;3
"778";778;3
"779";779;9
"780";780;5
"781";781;3
"782";782;9
"783";783;9
"784";784;3
"785";785;9
"786";786;9
"787";787;9
"788";788;3
"789";789;3
"790";790;3
"791";791;3
"792";792;3
"793";793;5
"794";794;9
"795";795;3
"796";796;9
"797";797;9
"798";798;9
"799";799;9
"800";800;9
"801";801;9
"802";802;3
"803";803;9
"804";804;9
"805";805;9
"806";806;9
"807";807;9
"808";808;9
"809";809;9
"810";810;9
"811";811;9
"812";812;9
"813";813;3
"814";814;9
"815";815;3
"816";816;3
"817";817;9
"818";818;9
"819";819;3
"820";820;5
"821";821;4
"822";822;9
"823";823;3
"824";824;9
"825";825;9
"826";826;9
"827";827;9
"828";828;9
"829";829;3
"830";830;3
"831";831;9
"832";832;9
"833";833;3
"834";834;3
"835";835;3
"836";836;3
"837";837;3
"838";838;9
"839";839;3
"840";840;3
"841";841;3
"842";842;3
"843";843;3
"844";844;3
"845";845;3
"846";846;3
"847";847;3
"848";848;3
"849";849;3
"850";850;3
"851";851;3
"852";852;7
"853";853;3
"854";854;3
"855";855;9
"856";856;9
"857";857;9
"858";858;9
"859";859;9
"860";860;9
"861";861;9
"862";862;9
"863";863;9
"864";864;9
"865";865;5
"866";866;9
"867";867;9
"868";868;3
"869";869;9
"870";870;9
"871";871;9
"872";872;9
"873";873;9
"874";874;7
"875";875;7
"876";876;9
"877";877;9
"878";878;9
"879";879;9
"880";880;9
"881";881;9
"882";882;9
"883";883;9
"884";884;9
"885";885;9
"886";886;3
"887";887;3
"888";888;3
"889";889;3
"890";890;3
"891";891;5
"892";892;9
"893";893;5
"894";894;3
"895";895;3
"896";896;3
"897";897;3
"898";898;3
"899";899;3
"900";900;3
"901";901;3
"902";902;0
"903";903;3
"904";904;3
"905";905;9
"906";906;3
"907";907;3
"908";908;3
"909";909;3
"910";910;3
"911";911;3
"912";912;3
"913";913;3
"914";914;3
"915";915;3
"916";916;9
"917";917;9
"918";918;9
"919";919;9
"920";920;9
"921";921;9
"922";922;3
"923";923;3
"924";924;9
"925";925;9
"926";926;9
"927";927;9
"928";928;9
"929";929;9
"930";930;5
"931";931;9
"932";932;5
"933";933;5
"934";934;5
"935";935;9
"936";936;3
"937";937;5
"938";938;9
"939";939;5
"940";940;5
"941";941;5
"942";942;9
"943";943;3
"944";944;5
"945";945;9
"946";946;9
"947";947;9
"948";948;9
"949";949;9
"950";950;9
"951";951;3
"952";952;9
"953";953;3
"954";954;9
"955";955;5
"956";956;9
"957";957;9
"958";958;9
"959";959;9
"960";960;5
"961";961;5
"962";962;5
"963";963;5
"964";964;5
"965";965;3
"966";966;9
"967";967;5
"968";968;9
"969";969;9
"970";970;9
"971";971;9
"972";972;5
"973";973;5
"974";974;5
"975";975;5
"976";976;3
"977";977;5
"978";978;5
"979";979;5
"980";980;5
"981";981;5
"982";982;5
"983";983;5
"984";984;5
"985";985;5
"986";986;5
"987";987;5
"988";988;5
"989";989;5
"990";990;3
"991";991;5
"992";992;5
"993";993;5
"994";994;5
"995";995;5
"996";996;5
"997";997;5
"998";998;5
"999";999;3
"1000";1000;3
"1001";1001;9
"1002";1002;3
"1003";1003;9
"1004";1004;5
"1005";1005;9
"1006";1006;9
"1007";1007;9
"1008";1008;9
"1009";1009;3
"1010";1010;3
"1011";1011;9
"1012";1012;9
"1013";1013;3
"1014";1014;3
"1015";1015;3
"1016";1016;3
"1017";1017;9
"1018";1018;9
"1019";1019;3
"1020";1020;9
"1021";1021;9
"1022";1022;9
"1023";1023;3
"1024";1024;3
"1025";1025;9
"1026";1026;9
"1027";1027;9
"1028";1028;9
"1029";1029;3
"1030";1030;4
"1031";1031;9
"1032";1032;9
"1033";1033;3
"1034";1034;9
"1035";1035;3
"1036";1036;3
"1037";1037;3
"1038";1038;3
"1039";1039;3
"1040";1040;9
"1041";1041;9
"1042";1042;3
"1043";1043;3
"1044";1044;3
"1045";1045;3
"1046";1046;3
"1047";1047;3
"1048";1048;3
"1049";1049;3
"1050";1050;9
"1051";1051;3
"1052";1052;3
"1053";1053;7
"1054";1054;9
"1055";1055;9
"1056";1056;9
"1057";1057;9
"1058";1058;9
"1059";1059;9
"1060";1060;9
"1061";1061;3
"1062";1062;3
"1063";1063;3
"1064";1064;10
"1065";1065;9
"1066";1066;9
"1067";1067;9
"1068";1068;10
"1069";1069;3
"1070";1070;9
"1071";1071;9
"1072";1072;9
"1073";1073;9
"1074";1074;9
"1075";1075;3
"1076";1076;9
"1077";1077;9
"1078";1078;9
"1079";1079;10
"1080";1080;9
"1081";1081;9
"1082";1082;9
"1083";1083;7
"1084";1084;9
"1085";1085;9
"1086";1086;9
"1087";1087;9
"1088";1088;9
"1089";1089;9
"1090";1090;9
"1091";1091;3
"1092";1092;9
"1093";1093;9
"1094";1094;9
"1095";1095;9
"1096";1096;9
"1097";1097;9
"1098";1098;7
"1099";1099;9
"1100";1100;3
"1101";1101;3
"1102";1102;9
"1103";1103;3
"1104";1104;3
"1105";1105;9
"1106";1106;9
"1107";1107;9
"1108";1108;9
"1109";1109;7
"1110";1110;3
"1111";1111;9
"1112";1112;3
"1113";1113;3
"1114";1114;9
"1115";1115;0
"1116";1116;9
"1117";1117;3
"1118";1118;3
"1119";1119;3
"1120";1120;3
"1121";1121;3
"1122";1122;3
"1123";1123;9
"1124";1124;9
"1125";1125;3
"1126";1126;3
"1127";1127;3
"1128";1128;9
"1129";1129;9
"1130";1130;9
"1131";1131;9
"1132";1132;9
"1133";1133;3
"1134";1134;9
"1135";1135;3
"1136";1136;9
"1137";1137;9
"1138";1138;9
"1139";1139;9
"1140";1140;9
"1141";1141;3
"1142";1142;3
"1143";1143;3
"1144";1144;9
"1145";1145;9
"1146";1146;9
"1147";1147;3
"1148";1148;9
"1149";1149;9
"1150";1150;3
"1151";1151;9
"1152";1152;9
"1153";1153;9
"1154";1154;9
"1155";1155;3
"1156";1156;3
"1157";1157;10
"1158";1158;10
