"";"classe 1";"classe 2";"classe 3";"classe 4";"classe 5";"classe 6";"classe 7";"classe 8";"classe 9"
"decir";-0,824;134,377;-1,654;-13,455;-1,654;-20,05;-2,28;-38,322;-0,353
"jesús";-0,759;285,918;-1,523;-12,388;-1,523;-18,46;-2,099;-129,656;-1,907
"padre";-0,6;-89,353;-1,205;0,562;-1,205;0,558;-1,662;87,271;-1,509
"os";-0,457;-72,576;-0,917;-3,494;24,003;-3,549;8,276;76,997;1,052
"ver";-0,448;1,818;1,995;-3,372;-0,899;-3,389;-0,011;0,298;0
"dar";-0,431;-49,292;-0,865;6,988;0,072;-1,911;-1,192;48,093;-1,083
"dios";-0,334;-52,262;-0,671;-1,838;-0,671;-0,625;-0,925;72,501;0,076
"discípulo";-0,359;141,773;-0,721;-3,785;-0,721;-8,736;-0,993;-69,136;-0,902
"mundo";-0,265;-44,181;-0,533;0,391;-0,533;8,543;-0,734;22,114;3,303
"hijo";-0,306;-27,263;-0,613;-1,477;-0,613;-2,079;-0,846;49,731;-0,768
"hacer";-0,277;-12,647;-0,557;-4,529;-0,557;7,627;-0,767;12,637;-0,697
"ir";-0,302;-10,5;-0,605;-2,913;-0,605;-5,189;0,076;28,518;0,141
"tiempo";-0,281;131,756;-0,565;-4,595;-0,565;-6,847;-0,779;-65,237;-0,707
"venir";-0,249;-29,17;-0,501;-4,074;-0,501;-0,351;-0,69;49,944;-0,627
"vida";-0,214;-35,66;-0,43;49,873;-0,43;4,946;-0,593;3,737;-0,538
"crear|creer";-0,23;-26,037;6,034;0,138;-0,461;-0,826;-0,636;25,552;0,414
"enviar";-0,218;-24,179;-0,438;-0,498;-0,438;-5,307;0,352;43,815;-0,548
"saber";-0,195;-6,191;-0,391;-3,181;-0,391;-1,281;-0,539;19,037;-0,49
"conocer";-0,168;-27,973;-0,337;-0,983;-0,337;3,582;-0,465;25,429;-0,422
"señor";-0,183;0,029;-0,368;0,035;-0,368;-4,46;-0,507;1,983;-0,461
"judío";-0,183;63,45;-0,368;-2,993;-0,368;-4,46;-0,507;-27,692;-0,461
"pan";-0,16;-8,627;-0,322;326,956;-0,322;-3,904;-0,444;-14,539;-0,403
"hombre";-0,172;-10,158;-0,345;0,917;-0,345;0,522;-0,475;7,627;-0,432
"hablar";-0,149;-13,419;-0,299;-2,434;-0,299;-3,628;6,858;26,118;-0,375
"palabra";-0,153;-9,544;-0,307;-2,496;-0,307;32,101;-0,423;1,259;-0,384
"ya";-0,153;-1,286;-0,307;-2,496;-0,307;-1,807;-0,423;9,084;-0,384
"mismo";-0,134;-16,251;-0,269;0;-0,269;6,456;-0,371;8,845;-0,337
"llegar";-0,134;18,344;-0,269;-2,189;-0,269;-3,262;7,939;-7,419;-0,337
"testimonio";-0,104;-11,475;-0,209;-1,703;-0,209;-0,8;-0,289;22,507;-0,262
"querer";-0,127;4,713;-0,254;-2,067;-0,254;-3,08;-0,35;-0,005;-0,318
"día";-0,123;5,451;-0,247;5,906;-0,247;0,045;-0,34;-9,309;-0,309
"verdad";-0,097;-13,059;-0,195;-1,583;-0,195;0,403;-0,268;16,827;-0,244
"nadie";-0,123;-11,832;-0,247;0,015;-0,247;-2,989;1,444;18,331;-0,309
"ahora";-0,123;-20,452;-0,247;-2,006;-0,247;-1,171;1,444;32,242;-0,309
"cielo";-0,101;-6,283;-0,202;78,564;-0,202;-0,729;-0,278;-0,566;-0,253
"asegurar";-0,119;-19,833;-0,239;0,028;-0,239;-0,152;-0,33;20,321;1,826
"uno";-0,108;0,555;-0,217;-0,261;-0,217;-0,872;-0,299;0,171;-0,271
"obra";-0,097;-16,14;-0,195;-1,583;-0,195;86,855;-0,268;-0,038;-0,244
"más";-0,097;0,684;-0,195;-1,583;-0,195;-0,66;-0,268;0,344;-0,244
"quedar";-0,097;10,559;-0,195;-1,583;-0,195;-0,66;-0,268;-6,442;13,637
"luz";-0,075;-12,486;-0,151;-1,225;-0,151;157,803;-0,208;-6,385;-0,188
"creer";-0,101;-0,846;-0,202;-1,643;-0,202;-2,449;-0,278;7,296;-0,253
"preguntar";-0,097;41,981;-0,195;-1,583;-0,195;-2,359;-0,268;-20,169;-0,244
"pedro";-0,097;47,375;-0,195;-1,583;-0,195;-2,359;-0,268;-23,83;-0,244
"nombre";-0,093;-12,456;-0,187;-1,523;-0,187;-0,001;2,328;15,719;-0,234
"llamar";-0,086;6,927;-0,172;-1,403;-0,172;-0,462;-0,238;-1,655;-0,216
"juan";-0,086;6,927;-0,172;-1,403;-0,172;2,625;-0,238;-6,389;-0,216
"eterno";-0,09;-14,918;-0,18;0,333;-0,18;2,338;-0,248;9,075;-0,225
"echar";-0,09;33,395;-0,18;-1,463;-0,18;-2,18;-0,248;-15,07;-0,225
"comer";-0,079;-5,197;4,784;255,661;-0,158;-1,914;-0,218;-19,331;-0,198
"así";-0,09;-9,144;-0,18;-1,463;-0,18;-0,526;-0,248;17,886;-0,225
"morir";-0,068;-2,073;-0,136;25,824;-0,136;-1,648;-0,187;0,009;-0,17
"mano";-0,079;-0,245;228,31;0,592;4,784;-1,914;-0,218;-3,262;-0,198
"allí";-0,086;36,639;-0,172;-1,403;-0,172;-2,091;-0,238;-17,494;-0,216
"seguir";-0,082;2,366;-0,165;-1,344;-0,165;16,516;-0,228;-7,883;-0,207
"salir";-0,082;3,901;-0,165;-1,344;-0,165;0,023;-0,228;-1,25;-0,207
"oír";-0,082;3,901;-0,165;-1,344;-0,165;0,023;-0,228;-1,25;-0,207
"cómo";-0,082;-10,658;-0,165;0,493;-0,165;-2,002;-0,228;15,614;-0,207
"simón";-0,079;28,161;-0,158;-1,284;-0,158;0,047;-0,218;-19,331;-0,198
"poner";-0,075;1,065;-0,151;-1,225;-0,151;-0,284;-0,208;0,015;-0,188
"dónde";-0,064;-1,683;-0,129;-1,047;-0,129;-1,56;-0,177;7,294;-0,161
"agua";-0,068;0,229;-0,136;-1,106;-0,136;-1,648;-0,187;1,047;-0,17
"oveja";-0,068;-0,922;-0,136;-1,106;-0,136;115,586;-0,187;-16,65;-0,17
"hora";-0,075;-1,565;-0,151;-1,225;-0,151;-0,284;-0,208;5,438;-0,188
"vuestro";-0,068;-11,277;-0,136;-1,106;-0,136;-1,648;81,973;3,807;20,795
"templo";-0,068;33,101;-0,136;-1,106;-0,136;-1,648;-0,187;-16,65;-0,17
"tanto";-0,068;3,675;-0,136;-1,106;-0,136;-1,648;-0,187;-0,136;-0,17
"siempre";-0,06;-10,072;-0,121;143,112;-0,121;-1,472;-0,167;-1,977;-0,152
"mis";-0,068;-11,277;26,895;-1,106;-0,136;134,809;-0,187;-9,939;-0,17
"espíritu";-0,057;-9,471;-0,114;1,59;-0,114;-1,384;-0,157;11,085;-0,143
"nacer";-0,057;-9,471;-0,114;0,022;32,573;-1,384;-0,157;7,978;-0,143
"llevar";-0,064;13,159;-0,129;-1,047;-0,129;-1,56;-0,177;-4,26;-0,161
"escribir";-0,064;-0,648;-0,129;1,159;-0,129;-1,56;-0,177;1,616;-0,161
"encontrar";-0,064;13,159;-0,129;-1,047;-0,129;-1,56;-0,177;-4,26;-0,161
"casa";-0,064;4,623;-0,129;-1,047;-0,129;-0,134;-0,177;-1,234;-0,161
"carne";-0,06;-10,072;-0,121;231,106;-0,121;-1,472;-0,167;-8,272;-0,152
"voz";-0,06;-7,114;-0,121;-0,988;-0,121;76,994;-0,167;-1,977;-0,152
"vivir";-0,06;-7,114;-0,121;96,108;-0,121;-0,093;-0,167;-1,977;-0,152
"vez";-0,06;11,636;-0,121;-0,988;-0,121;-1,472;-0,167;-3,595;-0,152
"subir";-0,057;2,623;-0,114;-0,929;-0,114;-1,384;-0,157;-0,042;-0,143
"sepulcro";-0,057;22,57;-0,114;-0,929;-0,114;-1,384;-0,157;-10,463;-0,143
"ojo";-0,06;8,437;-0,121;-0,988;-0,121;-1,472;-0,167;-1,977;-0,152
"gente";-0,06;15,349;-0,121;-0,988;-0,121;-1,472;-0,167;-5,694;-0,152
"bajar";-0,06;-4,668;-0,121;30,08;-0,121;-1,472;-0,167;0,307;-0,152
"amar";-0,046;-2,605;-0,093;-0,753;40,876;-1,122;-0,128;2,784;-0,116
"signo";-0,057;0,003;-0,114;1,59;-0,114;-1,384;-0,157;0,09;-0,143
"recibir";-0,05;-1,449;-0,1;-0,811;-0,1;0,808;-0,137;1,847;-0,125
"pie";-0,053;16,204;-0,107;-0,87;-0,107;-1,297;-0,147;-6,639;-0,134
"muerto";-0,057;13,742;-0,114;0,022;-0,114;-1,384;-0,157;-7,451;-0,143
"maría";-0,053;26,04;-0,107;-0,87;-0,107;-1,297;-0,147;-13,098;-0,134
"hecho";-0,057;-0,219;-0,114;0,022;-0,114;-1,384;-0,157;1,715;-0,143
"guardar";-0,057;-6,531;-0,114;-0,929;-0,114;100,997;-0,157;-4,95;-0,143
"volver";-0,053;0,065;-0,107;-0,87;-0,107;-1,297;5,201;0,303;-0,134
"profeta";79,074;-5,377;-0,1;-0,811;-0,1;-1,209;-0,137;5,941;-0,125
"hermano";-0,053;20,832;-0,107;-0,87;-0,107;-1,297;-0,147;-9,597;-0,134
"galilea";-0,053;20,832;-0,107;-0,87;-0,107;-1,297;-0,147;-9,597;-0,134
"ciego";-0,053;3,498;-0,107;-0,87;-0,107;-1,297;-0,147;-1,026;5,892
"ama";-0,05;-8,273;-0,1;-0,811;-0,1;118,618;-0,137;-5,838;-0,125
"ése";-0,05;-5,377;-0,1;-0,811;-0,1;3,603;-0,137;3,603;-0,125
"tierra";-0,043;-0,065;-0,085;-0,694;-0,085;-1,035;-0,118;2,026;-0,107
"pasar";-0,039;0,353;-0,078;-0,636;-0,078;-0,947;-0,108;0,305;-0,098
"mujer";-0,05;2,506;-0,1;-0,811;-0,1;-1,209;-0,137;-0,067;-0,125
"mesías";85,387;-4,806;-0,093;-0,753;-0,093;-1,122;-0,128;4,964;-0,116
"medio";-0,046;1,631;-0,093;-0,753;-0,093;-1,122;-0,128;0;-0,116
"junto";-0,05;10,598;-0,1;-0,811;-0,1;-1,209;-0,137;-3,523;-0,125
"jerusalén";-0,05;14,538;-0,1;-0,811;-0,1;-1,209;-0,137;-5,838;-0,125
"grande";-0,05;-0,008;-0,1;-0,811;-0,1;-0,01;-0,137;0,672;-0,125
"gloria";-0,043;-4,239;-0,085;-0,694;-0,085;-1,035;-0,118;10,044;-0,107
"fruto";-0,039;-6,483;-0,078;-0,636;-0,078;-0,947;-0,108;12,888;-0,098
"felipe";-0,05;10,598;-0,1;-0,811;-0,1;-1,209;-0,137;-3,523;-0,125
"escuchar";-0,05;-8,273;-0,1;0,083;-0,1;15,183;-0,137;0,672;-0,125
"entregar";-0,05;-0,418;-0,1;-0,811;-0,1;-0,01;-0,137;1,847;-0,125
"entrar";-0,05;2,506;-0,1;0,083;-0,1;3,603;-0,137;-5,838;-0,125
"camino";-0,05;-1,449;-0,1;-0,811;-0,1;-1,209;-0,137;5,941;-0,125
"alegría";-0,043;-0,732;-0,085;-0,694;-0,085;-1,035;419,538;-4,28;-0,107
"vino";-0,046;-0,209;-0,093;-0,753;-0,093;38,394;-0,128;-5,051;-0,116
"tomar";-0,046;9,071;-0,093;-0,753;-0,093;-1,122;-0,128;-2,849;-0,116
"saber|ser";-0,046;-7,675;-0,093;8,009;-0,093;-1,122;-0,128;4,964;-0,116
"primero";-0,046;12,888;-0,093;-0,753;-0,093;-0,001;-0,128;-7,879;-0,116
"glorificado";-0,039;-6,483;-0,078;-0,636;-0,078;-0,947;-0,108;12,888;-0,098
"dejar";-0,046;-2,605;-0,093;-0,753;-0,093;-0,001;-0,128;2,784;7,062
"aquí";-0,046;-1,073;40,876;-0,753;-0,093;-1,122;-0,128;1,23;-0,116
"pecado";-0,039;-3,679;-0,078;-0,636;-0,078;-0,947;-0,108;-9,572;1039,992
"moisés";-0,043;-7,078;-0,085;-0,694;-0,085;-1,035;-0,118;14,072;-0,107
"único";-0,039;-6,483;-0,078;-0,636;-0,078;-0,947;-0,108;12,888;-0,098
"vuestra";-0,039;-6,483;-0,078;-0,636;-0,078;0,023;335,176;-0,44;-0,098
"vengar|venir";-0,039;-0,438;-0,078;-0,636;-0,078;-0,947;-0,108;1,344;8,663
"todavía";-0,039;19,029;-0,078;-0,636;-0,078;-0,947;-0,108;-9,572;-0,098
"sitio";-0,035;2,322;-0,071;-0,578;-0,071;-0,861;-0,098;-0,16;-0,089
"poco";-0,032;-2,583;-0,064;-0,519;-0,064;-0,774;-0,088;6,622;-0,08
"pedir";-0,039;-0,438;-0,078;-0,636;-0,078;-0,947;7,716;1,344;-0,098
"maestro";-0,039;-6,483;-0,078;-0,636;-0,078;-0,947;-0,108;12,888;-0,098
"levantar";-0,039;13,944;-0,078;-0,636;-0,078;-0,947;-0,108;-6,181;-0,098
"fiesta";-0,035;12,243;-0,071;-0,578;-0,071;-0,861;-0,098;-5,343;-0,089
"escritura";-0,035;0,043;-0,071;0,414;-0,071;2,053;-0,098;-1,077;-0,089
"amor";-0,032;-5,295;-0,064;-0,519;-0,064;8,127;-0,088;1,515;-0,08
"acercar";-0,039;19,029;-0,078;-0,636;-0,078;-0,947;-0,108;-9,572;-0,098
"sangre";-0,035;-3,126;-0,071;109,573;-0,071;-0,861;-0,098;-5,343;-0,089
"madre";-0,028;5,037;-0,057;-0,461;-0,057;-0,687;-0,078;-1,468;-0,071
"lázaro";-0,035;17,284;-0,071;-0,578;-0,071;-0,861;-0,098;-8,694;-0,089
"juzgar";-0,032;-5,295;-0,064;-0,519;-0,064;2,584;-0,088;3,618;-0,08
"fariseos";-0,035;17,284;-0,071;-0,578;-0,071;-0,861;-0,098;-8,694;-0,089
"dos";-0,035;12,243;-0,071;-0,578;-0,071;-0,861;-0,098;-5,343;-0,089
"desierto";-0,035;-3,126;-0,071;23,56;-0,071;-0,861;-0,098;0,056;-0,089
"cuenta";-0,035;-5,888;-0,071;-0,578;-0,071;-0,861;-0,098;11,706;-0,089
"condenar";-0,035;-3,126;-0,071;-0,578;-0,071;-0,861;-0,098;7,753;-0,089
"bueno";-0,035;-5,888;-0,071;-0,578;-0,071;72,489;-0,098;-2,804;-0,089
"beber";-0,035;-5,888;-0,071;58,688;-0,071;-0,861;-0,098;-0,16;-0,089
"andar";-0,035;12,243;-0,071;-0,578;-0,071;-0,861;-0,098;-5,343;-0,089
"acerca";-0,035;-3,126;-0,071;-0,578;-0,071;14,388;-0,098;0,056;-0,089
"abrahán";-0,028;-2,054;-0,057;-0,461;-0,057;-0,687;-0,078;5,503;-0,071
"traer";-0,032;-2,583;568,979;-0,519;-0,064;0,132;-0,088;-4,515;-0,08
"solo";-0,028;0,001;-0,057;-0,461;-0,057;0,239;-0,078;0,045;-0,071
"sacerdote";-0,032;15,542;-0,064;-0,519;-0,064;-0,774;-0,088;-7,818;-0,08
"puerta";-0,032;3,464;-0,064;-0,519;-0,064;8,127;-0,088;-7,818;-0,08
"pez";-0,032;15,542;-0,064;-0,519;-0,064;-0,774;-0,088;-7,818;-0,08
"orilla";-0,032;10,553;-0,064;-0,519;-0,064;-0,774;-0,088;-4,515;-0,08
"mandamiento";-0,028;-4,702;-0,057;-0,461;68,573;50,143;-0,078;-6,943;-0,071
"lago";-0,032;15,542;-0,064;-0,519;-0,064;-0,774;-0,088;-7,818;-0,08
"enseñar";-0,032;3,464;-0,064;-0,519;-0,064;-0,774;-0,088;-0,612;-0,08
"costado";-0,032;1,363;250,208;-0,519;-0,064;-0,774;-0,088;-7,818;-0,08
"amigo";-0,032;-0,835;-0,064;-0,519;-0,064;8,127;-0,088;-0,012;-0,08
"abierto";-0,032;-2,583;-0,064;-0,519;-0,064;-0,774;-0,088;6,622;-0,08
"último";-0,028;-4,702;-0,057;51,259;-0,057;0,239;-0,078;-1,468;-0,071
"voluntad";-0,021;-3,521;-0,042;-0,345;-0,042;-0,515;-0,059;6,999;-0,053
"vivo";-0,028;-4,702;-0,057;76,166;-0,057;-0,687;-0,078;-1,468;-0,071
"tres";-0,028;8,879;-0,057;-0,461;-0,057;-0,687;-0,078;-3,699;-0,071
"tomás";-0,028;13,803;-0,057;-0,461;-0,057;-0,687;-0,078;-6,943;-0,071
"sólo";-0,028;2,277;-0,057;-0,461;-0,057;-0,687;-0,078;-0,25;-0,071
"sábado";-0,025;7,224;-0,05;-0,403;-0,05;-0,601;-0,068;-2,901;-0,062
"suelo";-0,021;10,334;-0,042;-0,345;-0,042;-0,515;-0,059;-5,198;-0,053
"sacar";-0,028;0,001;-0,057;-0,461;-0,057;3,268;-0,078;-0,25;-0,071
"resucitar";-0,028;8,879;-0,057;0,79;-0,057;-0,687;-0,078;-6,943;-0,071
"red";-0,028;13,803;-0,057;-0,461;-0,057;-0,687;-0,078;-6,943;-0,071
"pueblo";-0,028;0,001;-0,057;0,79;-0,057;-0,687;-0,078;0,045;-0,071
"podar|poder";-0,028;-4,702;-0,057;-0,461;-0,057;-0,687;-0,078;9,348;-0,071
"oído";-0,028;-4,702;-0,057;-0,461;-0,057;-0,687;-0,078;9,348;-0,071
"nuevo";-0,028;0,001;-0,057;-0,461;282,236;-0,687;-0,078;-3,699;-0,071
"nicodemo";-0,028;13,803;-0,057;-0,461;-0,057;-0,687;-0,078;-6,943;-0,071
"mandar";-0,028;-0,487;-0,057;-0,461;-0,057;-0,687;-0,078;2,671;-0,071
"ley";-0,028;-4,702;-0,057;-0,461;-0,057;-0,687;-0,078;9,348;-0,071
"fe";-0,025;0,109;-0,05;-0,403;-0,05;-0,601;-0,068;0,334;-0,062
"erar|ser";-0,028;0,598;-0,057;-0,461;-0,057;9,772;-0,078;-3,699;-0,071
"entender";-0,028;-2,054;-0,057;-0,461;-0,057;-0,687;-0,078;5,503;-0,071
"enfermo";-0,028;13,803;-0,057;-0,461;-0,057;-0,687;-0,078;-6,943;-0,071
"dar|distar";-0,028;-4,702;-0,057;-0,461;-0,057;3,268;-0,078;2,671;-0,071
"culto";-0,021;-3,521;-0,042;-0,345;-0,042;-0,515;-0,059;6,999;-0,053
"creed";-0,021;-3,521;-0,042;-0,345;-0,042;70,704;-0,059;-5,198;-0,053
"conmigo";-0,028;-4,702;-0,057;-0,461;-0,057;-0,687;-0,078;9,348;-0,071
"cambio";-0,028;-4,702;-0,057;-0,461;-0,057;33,21;-0,078;-0,25;-0,071
"barca";-0,028;13,803;-0,057;-0,461;-0,057;-0,687;-0,078;-6,943;-0,071
"acudir";-0,028;5,037;-0,057;-0,461;-0,057;-0,687;-0,078;-1,468;-0,071
"vendar|vender";-0,018;8,604;-0,035;-0,287;-0,035;-0,428;-0,049;-4,328;-0,044
"suceder";-0,014;-2,343;-0,028;-0,23;-0,028;-0,342;-0,039;4,658;-0,035
"propio";-0,025;-1,542;-0,05;-0,403;-0,05;-0,601;-0,068;4,403;-0,062
"permanecer";-0,025;-1,542;-0,05;-0,403;-0,05;23,619;-0,068;-0,889;-0,062
"pascua";-0,021;10,334;-0,042;-0,345;-0,042;-0,515;-0,059;-5,198;-0,053
"natanael";-0,025;12,067;-0,05;-0,403;-0,05;-0,601;-0,068;-6,07;-0,062
"muerte";-0,025;-1,542;-0,05;-0,403;-0,05;-0,601;-0,068;4,403;-0,062
"matar";-0,025;0,109;-0,05;-0,403;-0,05;4,171;-0,068;-0,889;-0,062
"marta";-0,025;12,067;-0,05;-0,403;-0,05;-0,601;-0,068;-6,07;-0,062
"llenar";-0,025;7,224;-0,05;-0,403;-0,05;-0,601;13,143;-6,07;-0,062
"lado";-0,025;-0,208;-0,05;-0,403;-0,05;-0,601;-0,068;1,79;-0,062
"judas";-0,025;12,067;-0,05;-0,403;-0,05;-0,601;-0,068;-6,07;-0,062
"gracia";-0,021;-0,032;-0,042;-0,345;-0,042;-0,515;-0,059;1,007;-0,053
"elevar";-0,014;-2,343;-0,028;-0,23;-0,028;-0,342;-0,039;4,658;-0,035
"crear";-0,025;-4,111;-0,05;-0,403;-0,05;-0,601;-0,068;4,403;14,635
"cosa";-0,025;3,617;-0,05;-0,403;-0,05;-0,601;-0,068;-0,889;-0,062
"correr";-0,018;8,604;-0,035;-0,287;-0,035;-0,428;-0,049;-4,328;-0,044
"cerca";-0,021;5,599;-0,042;-0,345;-0,042;-0,515;-0,059;-2,129;-0,053
"aparecer";-0,025;12,067;-0,05;-0,403;-0,05;-0,601;-0,068;-6,07;-0,062
"adonde";-0,025;-1,542;-0,05;-0,403;-0,05;-0,601;13,143;1,79;-0,062
"acordar";-0,025;3,617;-0,05;-0,403;-0,05;-0,601;-0,068;-0,889;-0,062
"vuestros";-0,018;-2,931;-0,035;54,546;-0,035;-0,428;-0,049;-4,328;21,221
"vi";-0,021;10,334;-0,042;-0,345;-0,042;-0,515;-0,059;-5,198;-0,053
"tiniebla";-0,018;-2,931;-0,035;-0,287;-0,035;58,868;-0,049;-4,328;-0,044
"testigo";-0,021;-3,521;-0,042;-0,345;-0,042;5,404;-0,059;1,007;-0,053
"sentar";-0,021;10,334;-0,042;-0,345;-0,042;-0,515;-0,059;-5,198;-0,053
"sed";-0,021;-3,521;-0,042;-0,345;-0,042;-0,515;-0,059;6,999;-0,053
"santo";-0,021;-3,521;-0,042;-0,345;-0,042;-0,515;-0,059;6,999;-0,053
"salvar";-0,021;-1,056;-0,042;-0,345;-0,042;0,646;-0,059;1,007;-0,053
"rey";-0,021;0,448;-0,042;-0,345;-0,042;-0,515;-0,059;0,033;-0,053
"rabí";-0,021;-3,521;-0,042;-0,345;-0,042;-0,515;-0,059;6,999;-0,053
"quitar";-0,021;-0,032;-0,042;-0,345;-0,042;-0,515;15,638;-0,407;17,378
"pensar";-0,021;-1,056;-0,042;-0,345;-0,042;-0,515;-0,059;3,329;-0,053
"pastor";-0,021;-3,521;-0,042;-0,345;-0,042;70,704;-0,059;-5,198;-0,053
"nunca";-0,021;-3,521;-0,042;-0,345;-0,042;-0,515;-0,059;6,999;-0,053
"noche";-0,021;2,303;-0,042;-0,345;-0,042;0,646;-0,059;-2,129;-0,053
"muéstranos";-0,021;-3,521;-0,042;-0,345;-0,042;-0,515;-0,059;6,999;-0,053
"modo";-0,021;-3,521;-0,042;9,179;-0,042;-0,515;-0,059;1,007;-0,053
"meter";-0,014;0,298;140,623;-0,23;-0,028;-0,342;-0,039;-3,459;-0,035
"higuera";-0,021;10,334;-0,042;-0,345;-0,042;-0,515;-0,059;-5,198;-0,053
"guardará";-0,021;-3,521;-0,042;-0,345;-0,042;70,704;-0,059;-5,198;-0,053
"detrás";-0,021;-0,032;-0,042;1,491;-0,042;-0,515;-0,059;0,033;-0,053
"debajo";-0,021;10,334;-0,042;-0,345;-0,042;-0,515;-0,059;-5,198;-0,053
"cinco";-0,021;5,599;-0,042;-0,345;-0,042;-0,515;-0,059;-2,129;-0,053
"bautizar";-0,018;1,156;-0,035;-0,287;-0,035;-0,428;-0,049;-0,08;-0,044
"bajo";-0,021;-1,056;-0,042;71,5;-0,042;-0,515;-0,059;-5,198;-0,053
"año";-0,021;10,334;-0,042;-0,345;-0,042;-0,515;-0,059;-5,198;-0,053
"alimento";-0,014;-2,343;-0,028;3,006;-0,028;-0,342;-0,039;1,331;-0,035
"ahí";-0,011;-0,016;-0,021;-0,172;-0,021;-0,257;-0,029;0,502;-0,027
"aceptar";-0,021;-3,521;-0,042;-0,345;-0,042;5,404;-0,059;1,007;-0,053
"sumos";-0,018;8,604;-0,035;-0,287;-0,035;-0,428;-0,049;-4,328;-0,044
"servir";-0,018;-0,613;-0,035;29,215;-0,035;-0,428;-0,049;-1,396;-0,044
"seis";-0,018;8,604;-0,035;-0,287;-0,035;-0,428;-0,049;-4,328;-0,044
"saltar";-0,018;-2,931;-0,035;-0,287;-0,035;1,022;-0,049;2,296;-0,044
"resucitaré";-0,018;-2,931;-0,035;54,546;-0,035;-0,428;-0,049;-1,396;-0,044
"reino";-0,018;-2,931;-0,035;-0,287;-0,035;-0,428;-0,049;5,827;-0,044
"pescado";-0,018;-0,613;-0,035;-0,287;-0,035;-0,428;-0,049;2,296;-0,044
"perezca";-0,018;-2,931;-0,035;-0,287;-0,035;-0,428;-0,049;5,827;-0,044
"paz";-0,011;-1,756;-0,021;-0,172;-0,021;-0,257;-0,029;3,49;-0,027
"paloma";-0,018;4,017;-0,035;2,086;-0,035;-0,428;-0,049;-4,328;-0,044
"mirar";-0,018;1,156;-0,035;-0,287;-0,035;-0,428;-0,049;-0,08;-0,044
"mesa";-0,018;4,017;-0,035;-0,287;-0,035;-0,428;-0,049;-1,396;-0,044
"mellizo";-0,018;8,604;-0,035;-0,287;-0,035;-0,428;-0,049;-4,328;-0,044
"marchar";-0,018;8,604;-0,035;-0,287;-0,035;-0,428;-0,049;-4,328;-0,044
"llorar";-0,014;6,877;-0,028;-0,23;-0,028;-0,342;-0,039;-3,459;-0,035
"juicio";-0,018;-2,931;-0,035;-0,287;-0,035;1,022;-0,049;2,296;-0,044
"judea";-0,018;8,604;-0,035;-0,287;-0,035;-0,428;-0,049;-4,328;-0,044
"israel";-0,018;-2,931;-0,035;-0,287;-0,035;-0,428;-0,049;5,827;-0,044
"gritar";-0,018;-0,613;-0,035;-0,287;-0,035;1,022;-0,049;0,38;-0,044
"glorificará";-0,011;-1,756;-0,021;-0,172;-0,021;-0,257;-0,029;3,49;-0,027
"existir";-0,018;-2,931;-0,035;-0,287;-0,035;-0,428;-0,049;5,827;-0,044
"empezar";-0,018;8,604;-0,035;-0,287;-0,035;-0,428;-0,049;-4,328;-0,044
"embargo";-0,018;-2,931;-0,035;-0,287;-0,035;1,022;-0,049;2,296;-0,044
"elegir";-0,011;-1,756;-0,021;4,578;-0,021;-0,257;-0,029;0,502;-0,027
"doce";-0,018;4,017;-0,035;-0,287;-0,035;1,022;-0,049;-4,328;-0,044
"después";-0,018;8,604;-0,035;-0,287;-0,035;-0,428;-0,049;-4,328;-0,044
"delante";-0,018;-0,613;-0,035;-0,287;-0,035;1,022;-0,049;0,38;-0,044
"dedo";-0,018;-0,613;455,189;-0,287;-0,035;-0,428;-0,049;-4,328;-0,044
"curar";-0,018;1,156;-0,035;-0,287;-0,035;-0,428;-0,049;-0,08;-0,044
"corazón";-0,018;-2,931;-0,035;-0,287;-0,035;-0,428;517,715;-4,328;-0,044
"convertir";-0,018;-0,613;-0,035;-0,287;-0,035;-0,428;80,441;-0,08;-0,044
"coma";-0,018;-2,931;-0,035;87,722;-0,035;-0,428;-0,049;-4,328;-0,044
"coger";-0,018;8,604;-0,035;-0,287;-0,035;-0,428;-0,049;-4,328;-0,044
"cerrado";-0,018;8,604;-0,035;-0,287;-0,035;-0,428;-0,049;-4,328;-0,044
"caná";-0,018;8,604;-0,035;-0,287;-0,035;-0,428;-0,049;-4,328;-0,044
"caminar";-0,018;-0,613;-0,035;-0,287;-0,035;36,086;-0,049;-4,328;-0,044
"cama";-0,018;8,604;-0,035;-0,287;-0,035;-0,428;-0,049;-4,328;-0,044
"caer";-0,018;-0,613;-0,035;-0,287;-0,035;-0,428;-0,049;2,296;-0,044
"cabeza";-0,018;4,017;-0,035;-0,287;-0,035;-0,428;-0,049;-1,396;-0,044
"buscar";-0,018;4,017;-0,035;-0,287;-0,035;-0,428;-0,049;-1,396;-0,044
"betania";-0,018;8,604;-0,035;-0,287;-0,035;-0,428;-0,049;-4,328;-0,044
"aún";-0,018;0,021;-0,035;-0,287;-0,035;-0,428;-0,049;0,38;-0,044
"andrés";-0,018;8,604;-0,035;-0,287;-0,035;-0,428;-0,049;-4,328;-0,044
"améis";-0,018;-2,931;-0,035;-0,287;713,742;-0,428;-0,049;-4,328;-0,044
"acusar";-0,014;-0,242;-0,028;-0,23;-0,028;9,842;-0,039;-0,732;-0,035
"ángeles";-0,014;-0,242;-0,028;-0,23;-0,028;-0,342;-0,039;1,331;-0,035
"válido";-0,014;-2,343;-0,028;-0,23;-0,028;-0,342;-0,039;4,658;-0,035
"vista";-0,014;6,877;-0,028;-0,23;-0,028;-0,342;-0,039;-3,459;-0,035
"tristeza";-0,014;-2,343;-0,028;-0,23;-0,028;-0,342;231,265;-0,732;-0,035
"trabajo";-0,014;-2,343;-0,028;-0,23;-0,028;-0,342;-0,039;4,658;-0,035
"tiberíades";-0,014;6,877;-0,028;-0,23;-0,028;-0,342;-0,039;-3,459;-0,035
"tampoco";-0,014;-2,343;-0,028;-0,23;-0,028;-0,342;-0,039;4,658;-0,035
"significar";-0,014;-2,343;-0,028;-0,23;-0,028;-0,342;-0,039;4,658;-0,035
"semana";-0,014;6,877;-0,028;-0,23;-0,028;-0,342;-0,039;-3,459;-0,035
"sano";-0,014;6,877;-0,028;-0,23;-0,028;-0,342;-0,039;-3,459;-0,035
"resurrección";-0,014;-2,343;-0,028;37,949;-0,028;-0,342;-0,039;-0,732;-0,035
"realizar";-0,014;-2,343;-0,028;-0,23;-0,028;47,053;-0,039;-3,459;-0,035
"razón";-0,014;-2,343;-0,028;-0,23;-0,028;-0,342;-0,039;1,331;26,989
"principio";-0,014;-2,343;-0,028;-0,23;-0,028;-0,342;-0,039;4,658;-0,035
"pobre";-0,011;1,149;-0,021;4,578;-0,021;-0,257;-0,029;-2,592;-0,027
"piedra";-0,014;6,877;-0,028;-0,23;-0,028;-0,342;-0,039;-3,459;-0,035
"pidáis";-0,014;-2,343;-0,028;-0,23;-0,028;-0,342;-0,039;4,658;-0,035
"perfume";-0,014;6,877;-0,028;-0,23;-0,028;-0,342;-0,039;-3,459;-0,035
"perder";-0,014;-2,343;-0,028;-0,23;-0,028;24,984;-0,039;-0,732;-0,035
"pecador";-0,014;-2,343;-0,028;-0,23;-0,028;-0,342;-0,039;4,658;-0,035
"nazaret";-0,014;-2,343;-0,028;-0,23;-0,028;9,842;-0,039;0,022;-0,035
"nación";-0,014;-0,242;-0,028;-0,23;-0,028;-0,342;-0,039;1,331;-0,035
"maná";-0,014;-2,343;-0,028;70,116;-0,028;-0,342;-0,039;-3,459;-0,035
"manifestar";-0,014;-0,242;-0,028;-0,23;-0,028;-0,342;-0,039;1,331;-0,035
"mando";-0,014;-2,343;-0,028;-0,23;140,623;9,842;-0,039;-3,459;-0,035
"malo";-0,014;-0,242;-0,028;-0,23;-0,028;24,984;-0,039;-3,459;-0,035
"magdalena";-0,014;6,877;-0,028;-0,23;-0,028;-0,342;-0,039;-3,459;-0,035
"ladrón";-0,014;-0,242;-0,028;-0,23;-0,028;9,842;-0,039;-0,732;-0,035
"josé";-0,014;-0,242;-0,028;-0,23;-0,028;-0,342;-0,039;1,331;-0,035
"jordán";-0,014;2,51;-0,028;-0,23;-0,028;-0,342;-0,039;-0,732;-0,035
"jamás";-0,014;0,298;-0,028;-0,23;-0,028;-0,342;-0,039;0,022;-0,035
"iscariote";-0,014;6,877;-0,028;-0,23;-0,028;-0,342;-0,039;-3,459;-0,035
"haz";-0,014;-2,343;-0,028;15,579;-0,028;1,628;-0,039;-0,732;-0,035
"estado";-0,014;6,877;-0,028;-0,23;-0,028;-0,342;-0,039;-3,459;-0,035
"embarcar";-0,014;6,877;-0,028;-0,23;-0,028;-0,342;-0,039;-3,459;-0,035
"elías";1145;-2,343;-0,028;-0,23;-0,028;-0,342;-0,039;-3,459;-0,035
"dichosos";-0,014;-2,343;-0,028;-0,23;-0,028;-0,342;-0,039;4,658;-0,035
"cumplir";-0,014;-2,343;-0,028;-0,23;-0,028;24,984;-0,039;-0,732;-0,035
"cuerpo";-0,014;6,877;-0,028;-0,23;-0,028;-0,342;-0,039;-3,459;-0,035
"cuatro";-0,014;6,877;-0,028;-0,23;-0,028;-0,342;-0,039;-3,459;-0,035
"comunicar";-0,014;-2,343;-0,028;-0,23;-0,028;-0,342;-0,039;4,658;-0,035
"comparación";-0,014;-2,343;-0,028;-0,23;-0,028;-0,342;-0,039;4,658;-0,035
"comida";-0,014;-2,343;-0,028;70,116;-0,028;-0,342;-0,039;-3,459;-0,035
"causa";-0,014;-0,242;-0,028;-0,23;-0,028;1,628;-0,039;0,022;-0,035
"cambista";-0,014;6,877;-0,028;-0,23;-0,028;-0,342;-0,039;-3,459;-0,035
"cafarnaún";-0,014;6,877;-0,028;-0,23;-0,028;-0,342;-0,039;-3,459;-0,035
"buey";-0,014;6,877;-0,028;-0,23;-0,028;-0,342;-0,039;-3,459;-0,035
"bautizando";-0,014;2,51;-0,028;-0,23;-0,028;-0,342;-0,039;-0,732;-0,035
"bastar";-0,014;-2,343;-0,028;3,006;-0,028;-0,342;-0,039;1,331;-0,035
"barro";-0,014;6,877;-0,028;-0,23;-0,028;-0,342;-0,039;-3,459;-0,035
"amo";-0,014;-2,343;-0,028;-0,23;-0,028;-0,342;-0,039;4,658;-0,035
"amará";-0,014;-2,343;-0,028;-0,23;-0,028;47,053;-0,039;-3,459;-0,035
"amanecer";-0,014;6,877;-0,028;-0,23;-0,028;-0,342;-0,039;-3,459;-0,035
"acabar";-0,014;2,51;-0,028;-0,23;-0,028;-0,342;-0,039;-0,732;-0,035
"abundante";-0,014;-0,242;-0,028;-0,23;-0,028;-0,342;-0,039;1,331;-0,035
"abrir";-0,014;0,298;-0,028;-0,23;-0,028;1,628;-0,039;-0,732;-0,035
"viento";-0,011;-0,016;-0,021;-0,172;-0,021;-0,257;-0,029;0,502;-0,027
"viejo";-0,011;1,149;-0,021;-0,172;-0,021;-0,257;-0,029;-0,203;-0,027
"vid";-0,011;-1,756;-0,021;-0,172;-0,021;-0,257;-0,029;3,49;-0,027
"vender";-0,011;5,153;-0,021;-0,172;-0,021;-0,257;-0,029;-2,592;-0,027
"tiemble";-0,011;-1,756;-0,021;-0,172;-0,021;-0,257;310,085;-2,592;-0,027
"tercero";-0,011;5,153;-0,021;-0,172;-0,021;-0,257;-0,029;-2,592;-0,027
"tarde";-0,011;1,149;-0,021;-0,172;-0,021;-0,257;-0,029;-0,203;-0,027
"surgir";-0,011;-1,756;-0,021;-0,172;-0,021;-0,257;-0,029;3,49;-0,027
"sudario";-0,011;5,153;-0,021;-0,172;-0,021;-0,257;-0,029;-2,592;-0,027
"sorprender";-0,011;-0,016;-0,021;-0,172;-0,021;-0,257;-0,029;0,502;-0,027
"soplar";-0,011;-0,016;-0,021;-0,172;-0,021;-0,257;-0,029;0,502;-0,027
"siervo";-0,011;-1,756;-0,021;-0,172;-0,021;-0,257;-0,029;3,49;-0,027
"señal";-0,011;-1,756;188,663;-0,172;-0,021;-0,257;-0,029;-0,203;-0,027
"serpiente";-0,011;-1,756;-0,021;-0,172;-0,021;-0,257;-0,029;3,49;-0,027
"segundo";-0,011;1,149;-0,021;-0,172;-0,021;-0,257;-0,029;-0,203;-0,027
"sarmiento";-0,011;-0,016;-0,021;-0,172;-0,021;-0,257;-0,029;0,502;-0,027
"samaría";-0,011;5,153;-0,021;-0,172;-0,021;-0,257;-0,029;-2,592;-0,027
"samaritanos";-0,011;1,149;-0,021;-0,172;-0,021;-0,257;-0,029;-0,203;-0,027
"rogar";-0,011;-1,756;-0,021;-0,172;-0,021;2,695;-0,029;0,502;-0,027
"retirar";-0,011;5,153;-0,021;-0,172;-0,021;-0,257;-0,029;-2,592;-0,027
"recordar";-0,011;-1,756;-0,021;-0,172;-0,021;-0,257;-0,029;3,49;-0,027
"recoger";-0,011;5,153;-0,021;-0,172;-0,021;-0,257;-0,029;-2,592;-0,027
"príncipe";-0,011;-1,756;-0,021;-0,172;-0,021;-0,257;-0,029;3,49;-0,027
"proceder";-0,011;-1,756;-0,021;-0,172;-0,021;-0,257;-0,029;3,49;-0,027
"presentar";-0,011;5,153;-0,021;-0,172;-0,021;-0,257;-0,029;-2,592;-0,027
"pregunta";-0,011;1,149;-0,021;-0,172;-0,021;-0,257;33,13;-2,592;-0,027
"plenitud";-0,011;-1,756;-0,021;-0,172;-0,021;-0,257;136,482;-0,203;-0,027
"piscina";-0,011;-0,016;-0,021;-0,172;-0,021;-0,257;-0,029;0,502;-0,027
"pierna";-0,011;5,153;-0,021;-0,172;-0,021;-0,257;-0,029;-2,592;-0,027
"paráclito";-0,011;-1,756;-0,021;-0,172;-0,021;-0,257;-0,029;3,49;-0,027
"parte";-0,011;-0,016;-0,021;-0,172;-0,021;2,695;-0,029;-0,203;-0,027
"ocho";-0,011;5,153;-0,021;-0,172;-0,021;-0,257;-0,029;-2,592;-0,027
"necesitar";-0,011;-0,016;-0,021;-0,172;-0,021;-0,257;-0,029;0,502;-0,027
"monte";-0,011;-0,016;-0,021;-0,172;-0,021;-0,257;-0,029;0,502;-0,027
"miedo";-0,011;1,149;-0,021;-0,172;-0,021;-0,257;-0,029;-0,203;-0,027
"mal";-0,011;-0,016;-0,021;4,578;-0,021;2,695;-0,029;-2,592;-0,027
"lugar";-0,011;1,149;-0,021;-0,172;-0,021;-0,257;-0,029;-0,203;-0,027
"linaje";-0,011;-1,756;-0,021;-0,172;-0,021;-0,257;-0,029;3,49;-0,027
"lavar";-0,011;-0,016;-0,021;-0,172;-0,021;-0,257;-0,029;0,502;-0,027
"juzgo";-0,011;-1,756;-0,021;-0,172;-0,021;2,695;-0,029;0,502;-0,027
"jacob";-0,011;1,149;-0,021;-0,172;-0,021;-0,257;-0,029;-0,203;-0,027
"intentar";-0,011;-1,756;-0,021;-0,172;46,172;-0,257;-0,029;0,502;-0,027
"igual";-0,011;-0,016;-0,021;-0,172;-0,021;2,695;-0,029;-0,203;-0,027
"hambre";-0,011;-1,756;-0,021;-0,172;-0,021;-0,257;-0,029;3,49;-0,027
"habitar";-0,011;-1,756;-0,021;22,034;-0,021;-0,257;-0,029;-0,203;-0,027
"fariseo";-0,011;1,149;-0,021;-0,172;-0,021;-0,257;-0,029;-0,203;-0,027
"esclavo";-0,011;-1,756;-0,021;-0,172;-0,021;-0,257;-0,029;0,502;36,608
"envío";-0,011;-1,756;-0,021;-0,172;-0,021;-0,257;-0,029;3,49;-0,027
"enterar";-0,011;5,153;-0,021;-0,172;-0,021;-0,257;-0,029;-2,592;-0,027
"derecha";-0,011;5,153;-0,021;-0,172;-0,021;-0,257;-0,029;-2,592;-0,027
"cuándo";-0,011;-1,756;-0,021;-0,172;-0,021;-0,257;-0,029;3,49;-0,027
"conocierais";-0,011;-1,756;-0,021;-0,172;-0,021;-0,257;-0,029;3,49;-0,027
"conoceríais";-0,011;-1,756;-0,021;-0,172;-0,021;-0,257;-0,029;3,49;-0,027
"condena";-0,011;-1,756;-0,021;4,578;-0,021;-0,257;-0,029;-0,203;36,608
"conceder";-0,011;-1,756;-0,021;-0,172;-0,021;2,695;-0,029;0,502;-0,027
"comprender";-0,011;-0,016;-0,021;-0,172;-0,021;-0,257;-0,029;0,502;-0,027
"cien";-0,011;5,153;-0,021;-0,172;-0,021;-0,257;-0,029;-2,592;-0,027
"celebrar";-0,011;5,153;-0,021;-0,172;-0,021;-0,257;-0,029;-2,592;-0,027
"buscáis";-0,011;-1,756;-0,021;-0,172;-0,021;-0,257;-0,029;3,49;-0,027
"asomar";-0,011;5,153;-0,021;-0,172;-0,021;-0,257;-0,029;-2,592;-0,027
"aprender";-0,011;-1,756;-0,021;-0,172;-0,021;-0,257;-0,029;3,49;-0,027
"apodar";-0,011;5,153;-0,021;-0,172;-0,021;-0,257;-0,029;-2,592;-0,027
"anunciar";-0,011;1,149;-0,021;-0,172;-0,021;-0,257;-0,029;-0,203;-0,027
"además";-0,011;-1,756;-0,021;-0,172;-0,021;2,695;-0,029;0,502;-0,027
"adelantar";-0,011;5,153;-0,021;-0,172;-0,021;-0,257;-0,029;-2,592;-0,027
"acaso";-0,011;-0,016;-0,021;-0,172;-0,021;-0,257;-0,029;0,502;-0,027
"el";-0,729;-3,35;-3,926;1,191;-12,419;8,699;-19,226;3,777;-4,18
"que";-3,646;-57,584;-7,318;7,522;5,143;0,837;1,145;33,442;-0,234
"y";-3,281;6,81;0,082;0,001;-6,586;0,309;0,001;-3,81;-2,543
"de";-2,205;-0,521;0,015;0,303;0,015;-1,842;-0,325;2,236;-0,131
"yo";-1,419;-158,245;-2,847;16,855;-0,005;13,137;-1,668;80,751;0,079
"a";-2,147;49,901;-4,309;-6,929;2,713;-2,15;-0,281;-18,619;-0,979
"en";-1,632;8,058;1,744;-1,277;-3,276;0,522;1,48;-5,671;-1,755
"haber";-1,419;-14,389;-0,005;-1,552;0,541;-6,893;0,605;33,038;-1,358
"no";1,121;-56,853;0,486;-1,078;-0,824;3,046;0,538;42,845;0,058
"él";-1,293;12,903;-0,616;-2,414;-0,616;0;-3,578;-3,813;-0,104
"ser";11,566;-25,042;-2,796;2,252;-0,741;-0,002;-1,614;19,34;0,095
"se";-0,7;75,236;-1,405;-5,193;-0,035;-1,078;8,23;-46,003;-1,759
"al";-0,624;0,886;-1,252;-2,758;-1,252;-0,999;-0,181;0,986;-0,103
"tú";35,952;-3,658;14,236;-1,966;0,054;-3,389;-1,24;6,339;-1,126
"estar";-0,577;1,638;-1,159;-3,57;-1,159;-1,208;10,92;0,004;-0,061
"este";-0,568;-7,099;-1,141;6,252;4,671;0,078;5,87;0,59;-0,054
"para";-0,501;-23,419;-1,005;17,72;-1,005;1,113;2,949;6,22;-1,259
"mío";-0,457;-59,446;1,919;8,256;0,046;10,187;8,276;15,076;-1,148
"por";7,18;-5,08;0,058;-0,262;-0,891;0,145;-0,009;3,339;1,135
"del";-0,444;-7,092;-0,891;47,647;-0,891;-1,179;-1,228;0,409;0
"un";-0,38;0,968;-0,762;-0,4;29,581;-0,093;-1,051;-1,509;1,646
"porque";-0,393;-12,733;-0,788;-1,338;-0,788;2,357;-1,086;13,694;0,015
"aquel";-0,367;125,18;-0,737;-3,913;-0,737;-8,939;-1,016;-57,428;-0,923
"si";10,432;-35,67;3,547;-1,733;-0,654;6,76;-0,902;18,626;2,265
"vosotros";-0,293;-33,339;-0,589;-0,013;-0,589;0,143;26,125;24,16;-0,737
"tener";-0,261;-16,32;5,007;3,061;5,007;1,311;-0,723;3,533;0,265
"con";-0,261;5,535;-0,525;-0,952;-0,525;-0,474;-0,723;-1,786;3,389
"todo";-0,246;-16,225;-0,493;-4,01;-0,493;0,146;-0,679;27,044;-0,617
"sino";-0,242;-11,765;-0,485;-3,945;-0,485;7,815;0,242;9,31;-0,607
"pero";-0,246;-1,959;-0,493;-0,778;0,673;0,729;9,459;0,388;0,333
"otro";-0,218;15,603;-0,438;-3,561;54,211;-1,716;-0,603;-9,194;-0,548
"también";-0,203;-0,423;-0,407;-3,308;-0,407;0,742;-0,56;2,359;-0,509
"cuando";-0,195;9,312;-0,391;-3,181;-0,391;-0,371;-0,539;-2,436;0,659
"quien";-0,157;-3,551;-0,314;0,213;-0,314;-1,89;-0,433;3,612;19,224
"como";-0,153;-11,663;-0,307;3,585;10,375;-1,807;-0,423;7,283;1,145
"poder";-0,145;-10,565;-0,292;-0,014;-0,292;-0,007;-0,402;13,743;-0,365
"dicho";-0,134;-0,049;-0,269;-2,189;2,213;-1,404;1,219;0,927;1,478
"qué";139,613;-1,078;2,793;1,008;-0,232;-2,808;-0,319;0,005;-0,29
"ni";46,967;-7,998;-0,165;-1,344;-0,165;-0,4;14,759;5,115;-0,207
"nosotros";-0,097;-13,059;-0,195;-1,583;-0,195;-2,359;-0,268;27,814;-0,244
"entonces";154,471;16,165;-0,209;-1,703;-0,209;-0,8;-0,289;-15,461;-0,262
"mucho";-0,101;9,279;-0,202;-1,643;-0,202;-2,449;-0,278;-1,291;-0,253
"donde";-0,09;5,883;-0,18;-1,463;-0,18;-2,18;-0,248;-0,406;-0,225
"pues";-0,086;-6,249;-0,172;-1,403;-0,172;0,008;2,648;5,94;3,071
"ese";-0,079;-1,924;-0,158;-1,284;-0,158;-1,914;-0,218;8,662;-0,198
"quién";-0,068;0,229;-0,136;-0,001;-0,136;-1,648;-0,187;0,313;-0,17
"antes";-0,071;-0,03;-0,143;-0,007;-0,143;-1,736;-0,197;1,539;-0,179
"entre";-0,06;15,349;-0,121;-0,988;-0,121;-1,472;-0,167;-5,694;-0,152
"sobre";-0,053;-0,678;-0,107;0,047;-0,107;-1,297;-0,147;2,539;-0,134
"hasta";-0,05;0,219;-0,1;-0,811;-0,1;-0,01;5,693;-0,067;-0,125
"verdadero";-0,039;-6,483;-0,078;3,535;-0,078;0,023;-0,108;3,123;-0,098
"nada";-0,046;-2,605;-0,093;0,133;-0,093;-1,122;6,262;2,784;-0,116
"sin";-0,043;-4,239;-0,085;-0,694;-0,085;0,004;-0,118;6,694;-0,107
"dentro";-0,032;-0,835;-0,064;-0,519;-0,064;-0,774;-0,088;3,618;-0,08
"nuestro";-0,035;-3,126;-0,071;4,19;-0,071;-0,861;-0,098;2,281;-0,089
"ninguno";-0,035;-0,204;-0,071;-0,578;-0,071;0,064;8,663;0,056;-0,089
"mientras";-0,035;0,749;-0,071;-0,578;-0,071;0,064;-0,098;-0,16;-0,089
"o";-0,028;0,598;-0,057;-0,461;-0,057;-0,687;-0,078;0,045;-0,071
"desde";-0,028;0,598;-0,057;-0,461;-0,057;-0,687;-0,078;0,045;-0,071
"aunque";-0,025;0,109;-0,05;1,082;-0,05;0,401;-0,068;-0,889;-0,062
"algo";-0,028;-0,487;-0,057;-0,461;-0,057;3,268;-0,078;0,045;-0,071
"alguno";-0,025;1,246;-0,05;-0,403;-0,05;-0,601;-0,068;-0,033;-0,062
"bien";-0,021;0,448;-0,042;1,491;-0,042;-0,515;-0,059;-0,407;-0,053
"encima";-0,018;-2,931;-0,035;-0,287;-0,035;-0,428;-0,049;5,827;-0,044
"cada";-0,018;0,021;-0,035;2,086;-0,035;-0,428;-0,049;-0,08;-0,044
"según";-0,011;-1,756;-0,021;-0,172;-0,021;14,362;-0,029;-0,203;-0,027
"hacia";-0,011;1,149;-0,021;-0,172;-0,021;-0,257;-0,029;-0,203;-0,027
"demás";-0,011;5,153;-0,021;-0,172;-0,021;-0,257;-0,029;-2,592;-0,027
"deber";-0,011;-1,756;-0,021;-0,172;-0,021;-0,257;-0,029;3,49;-0,027
"cincuenta";-0,011;5,153;-0,021;-0,172;-0,021;-0,257;-0,029;-2,592;-0,027
"ante";-0,011;-0,016;-0,021;-0,172;-0,021;-0,257;-0,029;0,502;-0,027
"*zein_Juan14-7-14";-0,043;-4,239;-0,085;-0,694;-0,085;1,299;-0,118;4,021;-0,107
"*zein_Juan5-1-3a5-16";-0,064;26,061;-0,129;-1,047;-0,129;-1,56;-0,177;-12,204;-0,161
"*egutegia_SemanaDeCua";-2,01;7,594;-0,253;-10,472;-1,577;-7,845;-5,561;1,057;1,256
"*zein_Juan8-31-42";-0,057;-6,531;-0,114;-0,929;-0,114;-0,058;-0,157;7,978;5,418
"*zein_Juan16-5-11";-0,032;-2,583;-0,064;-0,519;-0,064;-0,774;9,823;0,313;47,757
"*egutegia_SemanaDePas";-2,618;-55,773;-0,013;0,02;7,777;19,136;12,297;15,796;-0,379
"*zein_Juan6-44-51";-0,039;-3,679;-0,078;34,766;-0,078;-0,947;-0,108;-0,003;-0,098
"*zein_Juan17-11b-19";-0,035;-3,126;-0,071;-0,578;-0,071;2,053;-0,098;2,281;-0,089
"*zein_Juan15-18-21";-0,025;-1,542;-0,05;-0,403;-0,05;0,401;-0,068;1,79;-0,062
"*zein_Juan20-24-29";-0,032;0,224;139,248;-0,519;-0,064;-0,774;-0,088;-2,113;-0,08
"*zein_Juan3-16-18";-0,018;-0,613;-0,035;-0,287;-0,035;-0,428;-0,049;2,296;-0,044
"*zein_Juan21-15-19";-0,039;-0,001;-0,078;-0,636;-0,078;1,634;-0,108;-0,003;-0,098
"*zein_Juan1-19-28";124,666;-0,048;-0,064;-0,519;-0,064;-0,774;-0,088;-0,012;-0,08
"*zein_Juan16-29-33";-0,028;-2,054;-0,057;-0,461;-0,057;-0,687;-0,078;5,503;-0,071
"*egutegia_SemanaSanta";-0,172;5,62;-0,345;0,09;-0,345;-0,879;-0,475;-2,018;-0,432
"*zein_Juan6-16-21";-0,018;8,604;-0,035;-0,287;-0,035;-0,428;-0,049;-4,328;-0,044
"*zein_Juan14-6-14";-0,05;-5,377;-0,1;-0,811;-0,1;0,808;-0,137;5,941;-0,125
"*zein_Juan7-40-53";-0,046;0,015;9,27;-0,753;-0,093;-1,122;-0,128;0,302;-0,116
"*zein_Juan11-1-45";-0,183;12,034;-0,368;0,682;-0,368;-0,25;-0,507;-8,656;-0,461
"*zein_Juan15-26-16-4a";-0,025;-1,542;-0,05;-0,403;-0,05;-0,601;-0,068;4,403;-0,062
"*egutegia_SemanaDelTi";-0,505;0,553;5,621;50,036;-1,014;-2,003;-1,398;-8,226;-1,27
"*zein_Juan1-35-42";-0,046;5,922;-0,093;-0,753;-0,093;-1,122;-0,128;-1,274;-0,116
"*zein_Juan6-30-35";-0,025;-1,542;-0,05;36,796;-0,05;-0,601;-0,068;-0,889;-0,062
"*zein_Juan6-35-40";-0,028;-2,054;-0,057;0,79;-0,057;-0,687;-0,078;2,671;-0,071
"*zein_Juan12-44-50";-0,032;-5,295;-0,064;-0,519;-0,064;8,127;-0,088;1,515;-0,08
"*zein_Juan6-1-15";-0,071;16,281;-0,143;0,836;-0,143;-1,736;-0,197;-10,781;-0,179
"*zein_Juan3-5a7b-15";-0,028;-2,054;-0,057;-0,461;16,172;-0,687;-0,078;2,671;-0,071
"*zein_Juan21-1-19";-0,064;21,275;-0,129;-1,047;-0,129;-1,56;-0,177;-9,102;-0,161
"*zein_Juan14-21-26";-0,032;-0,835;-0,064;-0,519;-0,064;8,127;-0,088;-0,012;-0,08
"*zein_Juan21-1-14";-0,064;21,275;-0,129;-1,047;-0,129;-1,56;-0,177;-9,102;-0,161
"*zein_Juan3-1-8";-0,039;-1,664;-0,078;0,293;11,275;-0,947;-0,108;1,344;-0,098
"*zein_Juan8-51-59";-0,046;-0,209;-0,093;-0,753;-0,093;-0,001;-0,128;1,23;-0,116
"*zein_Juan13-31-33a34-35";-0,025;-1,542;-0,05;-0,403;18,74;-0,601;-0,068;1,79;-0,062
"*zein_Juan6-41-51";-0,05;-3,102;-0,1;38,796;-0,1;-1,209;-0,137;-0,067;-0,125
"*zein_Juan1-29-34";-0,025;-1,542;-0,05;1,082;-0,05;-0,601;-0,068;0,334;14,635
"*zein_Juan4-5-42";-0,16;-1,051;1,634;-0,068;-0,322;-3,904;-0,444;5,539;-0,403
"*zein_Juan16-23b-28";-0,025;-1,542;-0,05;-0,403;-0,05;-0,601;13,143;1,79;-0,062
"*zein_Juan4-43-54";-0,057;1,205;-0,114;0,022;-0,114;-1,384;-0,157;-0,042;-0,143
"*zein_Juan6-22-29";-0,035;0,043;-0,071;-0,578;-0,071;-0,861;-0,098;0,763;-0,089
"*zein_Juan20-11-18";-0,039;6,141;-0,078;-0,636;-0,078;-0,947;-0,108;-1,615;-0,098
"*zein_Juan5-31-47";-0,064;-7,699;-0,129;-1,047;-0,129;0,267;-0,177;10,094;-0,161
"*zein_Juan14-1-6";-0,028;-2,054;-0,057;-0,461;-0,057;0,239;-0,078;2,671;-0,071
"*zein_Juan19-25-27";-0,018;4,017;-0,035;-0,287;-0,035;-0,428;-0,049;-1,396;-0,044
"*zein_Juan15-1-8";-0,039;-1,664;-0,078;-0,636;-0,078;0,023;-0,108;3,123;-0,098
"*zein_Juan3-31-36";-0,035;-3,126;-0,071;-0,578;-0,071;-0,861;-0,098;7,753;-0,089
"*zein_Juan6-51-58";-0,05;-5,377;-0,1;211,595;-0,1;-1,209;-0,137;-12,214;-0,125
"*zein_Juan3-16-21";-0,028;-2,054;-0,057;-0,461;-0,057;9,772;-0,078;0,045;-0,071
"*zein_Juan10-27-30";-0,014;-2,343;-0,028;3,006;-0,028;1,628;-0,039;0,022;-0,035
"*zein_Juan3-13-17";-0,018;-0,613;-0,035;-0,287;-0,035;-0,428;-0,049;2,296;-0,044
"*zein_Juan16-20-23a";-0,018;-0,613;-0,035;-0,287;-0,035;-0,428;80,441;-0,08;-0,044
"*egutegia_SemanaDeNav";-0,039;1,493;-0,078;-0,636;-0,078;0,023;7,716;-1,615;-0,098
"*zein_Juan17-20-26";-0,028;-2,054;-0,057;-0,461;-0,057;-0,687;-0,078;5,503;-0,071
"*zein_Juan5-17-30";-0,06;-2,736;-0,121;0,007;-0,121;-0,093;-0,167;4,098;-0,152
"*zein_Juan8-12-20";-0,039;-0,438;-0,078;-0,636;-0,078;0,023;-0,108;1,344;-0,098
"*zein_Juan10-11-18";-0,043;-7,078;-0,085;-0,694;-0,085;75,48;-0,118;-2,211;-0,107
"*zein_Juan17-1-11a";-0,046;-4,806;-0,093;-0,753;-0,093;-0,001;-0,128;7,769;-0,116
"*zein_Juan1-45-51";-0,028;0,598;-0,057;-0,461;-0,057;0,239;-0,078;-0,25;-0,071
"*zein_Juan1-6-819-28";101,455;-0,438;-0,078;-0,636;-0,078;0,023;-0,108;-0,003;-0,098
"*zein_Juan7-1-21025-30";-0,039;1,493;-0,078;-0,636;-0,078;-0,947;-0,108;-0,003;-0,098
"*zein_Juan11-45-57";-0,053;3,498;-0,107;-0,87;-0,107;-1,297;-0,147;-0,242;-0,134
"*zein_Juan20-19-31";-0,064;2,748;67,207;-1,047;-0,129;-1,56;-0,177;-4,26;4,631
"*zein_Juan12-1-11";-0,039;9,648;-0,078;0,293;-0,078;0,023;-0,108;-9,572;-0,098
"*zein_Juan21-20-25";-0,028;5,037;-0,057;-0,461;-0,057;-0,687;-0,078;-1,468;-0,071
"*zein_Juan13-16-20";-0,028;-0,487;-0,057;0,79;-0,057;-0,687;-0,078;0,852;-0,071
"*zein_Juan8-1-11";-0,053;12,157;-0,107;-0,87;-0,107;-1,297;-0,147;-4,225;-0,134
"*zein_Juan19-31-37";-0,021;2,303;-0,042;-0,345;-0,042;0,646;-0,059;-2,129;-0,053
"*zein_Juan6-52-59";-0,035;-1,232;-0,071;109,573;-0,071;-0,861;-0,098;-8,694;-0,089
"*egutegia_FinDelTiemp";-0,028;5,037;-0,057;-0,461;-0,057;-0,687;-0,078;-3,699;12,579
"*zein_Juan10-1-10";-0,043;-4,239;-0,085;-0,694;-0,085;57,906;-0,118;-2,211;-0,107
"*egutegia_OctavaDePas";-0,142;43,936;-0,284;-2,311;-0,284;-3,444;-0,392;-18,19;-0,356
"*zein_Juan1-1-18";-0,068;-11,277;-0,136;-1,106;-0,136;15,008;-0,187;3,807;-0,17
"*zein_Juan1-43-51";-0,039;3,423;-0,078;-0,636;-0,078;0,023;-0,108;-1,615;-0,098
"*egutegia_NavidadYOct";-0,097;-0,62;-0,195;-1,583;-0,195;7,875;-0,268;0,038;-0,244
"*zein_Juan10-31-42";-0,043;0,121;-0,085;-0,694;10,188;1,299;-0,118;-0,819;-0,107
"*zein_Juan2-1-11";-0,046;3,442;-0,093;-0,753;-0,093;1,028;-0,128;-2,849;-0,116
"*egutegia_TiempoDeNav";25,751;3,077;-0,292;-0,688;-0,292;-1,644;-0,402;-1,288;1,267
"*zein_Juan20-19-23";-0,028;5,037;-0,057;-0,461;-0,057;-0,687;-0,078;-3,699;12,579
"*zein_Juan10-22-30";-0,032;-0,835;-0,064;0,575;-0,064;2,584;-0,088;-0,012;-0,08
"*zein_Juan3-14-21";-0,032;-2,583;-0,064;-0,519;-0,064;8,127;-0,088;0,313;-0,08
"*zein_Juan13-1-17";-0,064;0,453;-0,129;-1,047;-0,129;-1,56;-0,177;0,632;-0,161
"*zein_Juan8-21-30";-0,043;-2,124;-0,085;-0,694;-0,085;-1,035;-0,118;2,026;34,94
"*zein_Juan1-47-51";-0,018;1,156;-0,035;-0,287;-0,035;-0,428;-0,049;-0,08;-0,044
"*zein_Juan15-9-11";-0,014;-0,242;-0,028;-0,23;-0,028;1,628;24,38;-0,732;-0,035
"*zein_Juan15-9-17";-0,043;-4,239;-0,085;-0,694;44,567;4,919;6,928;-0,104;-0,107
"*zein_Juan2-13-25";-0,053;12,157;-0,107;-0,87;-0,107;-1,297;-0,147;-4,225;-0,134
"*zein_Juan2-13-22";-0,046;12,888;-0,093;-0,753;-0,093;-1,122;-0,128;-5,051;-0,116
"*ebanjelaria_Juan";0;0;0;0;0;0;0;0;0
"*zein_Juan16-12-15";-0,021;-1,056;-0,042;-0,345;-0,042;-0,515;-0,059;3,329;-0,053
"*zein_Juan20-1-9";-0,035;17,284;-0,071;-0,578;-0,071;-0,861;-0,098;-8,694;-0,089
"*zein_Juan13-21-3336-38";-0,064;0,453;-0,129;1,159;-0,129;-0,134;-0,177;-0,403;-0,161
"*zein_Juan12-20-33";-0,082;-0,043;-0,165;-0,052;-0,165;0,871;-0,228;0,022;-0,207
"*zein_Juan3-22-30";-0,039;1,493;-0,078;-0,636;-0,078;0,023;7,716;-1,615;-0,098
"*zein_Juan14-15-21";-0,032;-2,583;-0,064;-0,519;-0,064;16,764;-0,088;-0,012;-0,08
"*zein_Juan6-24-35";-0,05;-3,102;-0,1;14,839;-0,1;-1,209;-0,137;0,672;-0,125
"*zein_Juan16-16-20";-0,032;-0,835;-0,064;-0,519;-0,064;-0,774;9,823;1,515;-0,08
"*zein_Juan14-27-31a";-0,028;-2,054;-0,057;-0,461;-0,057;-0,687;11,275;2,671;-0,071
"*zein_Juan12-24-26";-0,021;-0,032;-0,042;1,491;-0,042;0,646;-0,059;-0,407;-0,053
"*zein_Juan15-12-17";-0,032;-2,583;-0,064;-0,519;60,57;0,132;-0,088;0,313;-0,08
"*zein_Juan14-1-12";-0,068;-8,286;-0,136;-1,106;-0,136;1,677;3,759;5,833;-0,17
"*zein_Juan18-33-37";-0,039;-0,001;-0,078;-0,636;-0,078;0,023;-0,108;0,305;-0,098
"*zein_Juan9-1-41";-0,199;0,368;-0,399;-3,244;-0,399;-2,825;-0,55;1,253;5,244
"*zein_Juan6-60-69";-0,046;-0,209;-0,093;0,133;-0,093;-1,122;-0,128;1,23;-0,116
"*zein_Juan20-2-8";-0,028;13,803;-0,057;-0,461;-0,057;-0,687;-0,078;-6,943;-0,071
"*zein_Juan14-23-29";-0,039;-3,679;-0,078;-0,636;-0,078;1,634;7,716;1,344;-0,098
"*egutegia_SemanaDeAdv";101,455;-0,438;-0,078;-0,636;-0,078;0,023;-0,108;-0,003;-0,098
