decir;0;143;0;0;0;0;0;51;1
jesús;0;168;0;0;0;0;0;14;0
padre;0;3;0;10;0;14;0;122;0
os;0;1;0;2;5;4;4;99;2
ver;0;49;2;2;0;4;1;56;1
dar;0;7;0;12;1;5;0;86;0
dios;0;1;0;2;0;5;0;79;1
discípulo;0;88;0;1;0;0;0;5;0
mundo;0;0;0;5;0;12;0;52;2
hijo;0;8;0;2;0;3;0;68;0
hacer;0;13;0;0;0;12;0;49;0
ir;0;16;0;1;0;1;1;60;1
tiempo;0;74;0;0;0;0;0;1;0
venir;0;4;0;0;0;4;0;59;0
vida;0;0;0;15;0;9;0;34;0
crear|creer;0;4;2;4;0;3;0;48;1
enviar;0;4;0;2;0;0;1;52;0
saber;0;11;0;0;0;2;0;40;0
conocer;0;0;0;1;0;7;0;38;0
señor;0;19;0;3;0;0;0;28;0
judío;0;45;0;0;0;0;0;5;0
pan;0;7;0;29;0;0;0;8;0
hombre;0;7;0;4;0;5;0;31;0
hablar;0;4;0;0;0;0;2;35;0
palabra;0;6;0;0;0;13;0;23;0
ya;0;12;0;0;0;1;0;29;0
mismo;0;2;0;2;0;7;0;26;0
llegar;0;26;0;0;0;0;2;9;0
testimonio;0;2;0;0;0;1;0;26;0
querer;0;19;0;0;0;0;0;16;0
día;0;19;0;5;0;3;0;7;0
verdad;0;1;0;0;0;3;0;23;0
nadie;0;3;0;2;0;0;1;28;0
ahora;0;0;0;0;0;1;1;32;0
cielo;0;4;0;12;0;1;0;11;0
asegurar;0;0;0;2;0;2;0;28;1
uno;0;13;0;1;0;1;0;15;0
obra;0;0;0;0;0;15;0;12;0
más;0;12;0;0;0;1;0;14;0
quedar;0;18;0;0;0;1;0;6;2
luz;0;0;0;0;0;17;0;4;0
creer;0;8;0;0;0;0;0;20;0
preguntar;0;26;0;0;0;0;0;1;0
pedro;0;27;0;0;0;0;0;0;0
nombre;0;1;0;0;0;2;1;22;0
llamar;0;15;0;0;0;1;0;8;0
juan;0;15;0;0;0;4;0;5;0
eterno;0;0;0;2;0;4;0;19;0
echar;0;23;0;0;0;0;0;2;0
comer;0;3;1;18;0;0;0;0;0
así;0;2;0;0;0;1;0;22;0
morir;0;4;0;6;0;0;0;9;0
mano;0;7;6;2;1;0;0;6;0
allí;0;23;0;0;0;0;0;1;0
seguir;0;12;0;0;0;7;0;4;0
salir;0;13;0;0;0;2;0;8;0
oír;0;13;0;0;0;2;0;8;0
cómo;0;1;0;2;0;0;0;20;0
simón;0;20;0;0;0;2;0;0;0
poner;0;10;0;0;0;1;0;10;0
dónde;0;4;0;0;0;0;0;14;0
agua;0;8;0;0;0;0;0;11;0
oveja;0;5;0;0;0;14;0;0;0
hora;0;5;0;0;0;1;0;15;0
vuestro;0;0;0;0;0;0;4;13;2
templo;0;19;0;0;0;0;0;0;0
tanto;0;11;0;0;0;0;0;8;0
siempre;0;0;0;12;0;0;0;5;0
mis;0;0;2;0;0;15;0;2;0
espíritu;0;0;0;2;0;0;0;14;0
nacer;0;0;0;1;2;0;0;13;0
llevar;0;14;0;0;0;0;0;4;0
escribir;0;5;0;2;0;0;0;11;0
encontrar;0;14;0;0;0;0;0;4;0
casa;0;11;0;0;0;1;0;6;0
carne;0;0;0;15;0;0;0;2;0
voz;0;1;0;0;0;11;0;5;0
vivir;0;1;0;10;0;1;0;5;0
vez;0;13;0;0;0;0;0;4;0
subir;0;9;0;0;0;0;0;7;0
sepulcro;0;15;0;0;0;0;0;1;0
ojo;0;12;0;0;0;0;0;5;0
gente;0;14;0;0;0;0;0;3;0
bajar;0;2;0;6;0;0;0;9;0
amar;0;2;0;0;2;0;0;9;0
signo;0;6;0;2;0;0;0;8;0
recibir;0;3;0;0;0;2;0;9;0
pie;0;13;0;0;0;0;0;2;0
muerto;0;13;0;1;0;0;0;2;0
maría;0;15;0;0;0;0;0;0;0
hecho;0;5;0;1;0;0;0;10;0
guardar;0;1;0;0;0;12;0;3;0
volver;0;6;0;0;0;0;1;8;0
profeta;2;1;0;0;0;0;0;11;0
hermano;0;14;0;0;0;0;0;1;0
galilea;0;14;0;0;0;0;0;1;0
ciego;0;9;0;0;0;0;0;5;1
ama;0;0;0;0;0;12;0;2;0
ése;0;1;0;0;0;3;0;10;0
tierra;0;4;0;0;0;0;0;8;0
pasar;0;5;0;0;0;0;0;6;0
mujer;0;8;0;0;0;0;0;6;0
mesías;2;1;0;0;0;0;0;10;0
medio;0;7;0;0;0;0;0;6;0
junto;0;11;0;0;0;0;0;3;0
jerusalén;0;12;0;0;0;0;0;2;0
grande;0;5;0;0;0;1;0;8;0
gloria;0;1;0;0;0;0;0;11;0
fruto;0;0;0;0;0;0;0;11;0
felipe;0;11;0;0;0;0;0;3;0
escuchar;0;0;0;1;0;5;0;8;0
entregar;0;4;0;0;0;1;0;9;0
entrar;0;8;0;1;0;3;0;2;0
camino;0;3;0;0;0;0;0;11;0
alegría;0;3;0;0;0;0;7;2;0
vino;0;4;0;0;0;7;0;2;0
tomar;0;10;0;0;0;0;0;3;0
saber|ser;0;0;0;3;0;0;0;10;0
primero;0;11;0;0;0;1;0;1;0
glorificado;0;0;0;0;0;0;0;11;0
dejar;0;2;0;0;0;1;0;9;1
aquí;0;3;2;0;0;0;0;8;0
pecado;0;1;0;0;0;0;0;0;10
moisés;0;0;0;0;0;0;0;12;0
único;0;0;0;0;0;0;0;11;0
vuestra;0;0;0;0;0;1;6;4;0
vengar|venir;0;3;0;0;0;0;0;7;1
todavía;0;11;0;0;0;0;0;0;0
sitio;0;6;0;0;0;0;0;4;0
poco;0;1;0;0;0;0;0;8;0
pedir;0;3;0;0;0;0;1;7;0
maestro;0;0;0;0;0;0;0;11;0
levantar;0;10;0;0;0;0;0;1;0
fiesta;0;9;0;0;0;0;0;1;0
escritura;0;4;0;1;0;2;0;3;0
amor;0;0;0;0;0;3;0;6;0
acercar;0;11;0;0;0;0;0;0;0
sangre;0;1;0;8;0;0;0;1;0
madre;0;6;0;0;0;0;0;2;0
lázaro;0;10;0;0;0;0;0;0;0
juzgar;0;0;0;0;0;2;0;7;0
fariseos;0;10;0;0;0;0;0;0;0
dos;0;9;0;0;0;0;0;1;0
desierto;0;1;0;4;0;0;0;5;0
cuenta;0;0;0;0;0;0;0;10;0
condenar;0;1;0;0;0;0;0;9;0
bueno;0;0;0;0;0;8;0;2;0
beber;0;0;0;6;0;0;0;4;0
andar;0;9;0;0;0;0;0;1;0
acerca;0;1;0;0;0;4;0;5;0
abrahán;0;1;0;0;0;0;0;7;0
traer;0;1;6;0;0;1;0;1;0
solo;0;3;0;0;0;1;0;4;0
sacerdote;0;9;0;0;0;0;0;0;0
puerta;0;6;0;0;0;3;0;0;0
pez;0;9;0;0;0;0;0;0;0
orilla;0;8;0;0;0;0;0;1;0
mandamiento;0;0;0;0;2;6;0;0;0
lago;0;9;0;0;0;0;0;0;0
enseñar;0;6;0;0;0;0;0;3;0
costado;0;5;4;0;0;0;0;0;0
amigo;0;2;0;0;0;3;0;4;0
abierto;0;1;0;0;0;0;0;8;0
último;0;0;0;5;0;1;0;2;0
voluntad;0;0;0;0;0;0;0;6;0
vivo;0;0;0;6;0;0;0;2;0
tres;0;7;0;0;0;0;0;1;0
tomás;0;8;0;0;0;0;0;0;0
sólo;0;5;0;0;0;0;0;3;0
sábado;0;6;0;0;0;0;0;1;0
suelo;0;6;0;0;0;0;0;0;0
sacar;0;3;0;0;0;2;0;3;0
resucitar;0;7;0;1;0;0;0;0;0
red;0;8;0;0;0;0;0;0;0
pueblo;0;3;0;1;0;0;0;4;0
podar|poder;0;0;0;0;0;0;0;8;0
oído;0;0;0;0;0;0;0;8;0
nuevo;0;3;0;0;4;0;0;1;0
nicodemo;0;8;0;0;0;0;0;0;0
mandar;0;2;0;0;0;0;0;6;0
ley;0;0;0;0;0;0;0;8;0
fe;0;3;0;0;0;0;0;4;0
erar|ser;0;4;0;0;0;3;0;1;0
entender;0;1;0;0;0;0;0;7;0
enfermo;0;8;0;0;0;0;0;0;0
dar|distar;0;0;0;0;0;2;0;6;0
culto;0;0;0;0;0;0;0;6;0
creed;0;0;0;0;0;6;0;0;0
conmigo;0;0;0;0;0;0;0;8;0
cambio;0;0;0;0;0;5;0;3;0
barca;0;8;0;0;0;0;0;0;0
acudir;0;6;0;0;0;0;0;2;0
vendar|vender;0;5;0;0;0;0;0;0;0
suceder;0;0;0;0;0;0;0;4;0
propio;0;1;0;0;0;0;0;6;0
permanecer;0;1;0;0;0;4;0;2;0
pascua;0;6;0;0;0;0;0;0;0
natanael;0;7;0;0;0;0;0;0;0
muerte;0;1;0;0;0;0;0;6;0
matar;0;3;0;0;0;2;0;2;0
marta;0;7;0;0;0;0;0;0;0
llenar;0;6;0;0;0;0;1;0;0
lado;0;2;0;0;0;0;0;5;0
judas;0;7;0;0;0;0;0;0;0
gracia;0;2;0;0;0;0;0;4;0
elevar;0;0;0;0;0;0;0;4;0
crear;0;0;0;0;0;0;0;6;1
cosa;0;5;0;0;0;0;0;2;0
correr;0;5;0;0;0;0;0;0;0
cerca;0;5;0;0;0;0;0;1;0
aparecer;0;7;0;0;0;0;0;0;0
adonde;0;1;0;0;0;0;1;5;0
acordar;0;5;0;0;0;0;0;2;0
vuestros;0;0;0;4;0;0;0;0;1
vi;0;6;0;0;0;0;0;0;0
tiniebla;0;0;0;0;0;5;0;0;0
testigo;0;0;0;0;0;2;0;4;0
sentar;0;6;0;0;0;0;0;0;0
sed;0;0;0;0;0;0;0;6;0
santo;0;0;0;0;0;0;0;6;0
salvar;0;1;0;0;0;1;0;4;0
rey;0;3;0;0;0;0;0;3;0
rabí;0;0;0;0;0;0;0;6;0
quitar;0;2;0;0;0;0;1;2;1
pensar;0;1;0;0;0;0;0;5;0
pastor;0;0;0;0;0;6;0;0;0
nunca;0;0;0;0;0;0;0;6;0
noche;0;4;0;0;0;1;0;1;0
muéstranos;0;0;0;0;0;0;0;6;0
modo;0;0;0;2;0;0;0;4;0
meter;0;2;2;0;0;0;0;0;0
higuera;0;6;0;0;0;0;0;0;0
guardará;0;0;0;0;0;6;0;0;0
detrás;0;2;0;1;0;0;0;3;0
debajo;0;6;0;0;0;0;0;0;0
cinco;0;5;0;0;0;0;0;1;0
bautizar;0;3;0;0;0;0;0;2;0
bajo;0;1;0;5;0;0;0;0;0
año;0;6;0;0;0;0;0;0;0
alimento;0;0;0;1;0;0;0;3;0
ahí;0;1;0;0;0;0;0;2;0
aceptar;0;0;0;0;0;2;0;4;0
sumos;0;5;0;0;0;0;0;0;0
servir;0;1;0;3;0;0;0;1;0
seis;0;5;0;0;0;0;0;0;0
saltar;0;0;0;0;0;1;0;4;0
resucitaré;0;0;0;4;0;0;0;1;0
reino;0;0;0;0;0;0;0;5;0
pescado;0;1;0;0;0;0;0;4;0
perezca;0;0;0;0;0;0;0;5;0
paz;0;0;0;0;0;0;0;3;0
paloma;0;4;0;1;0;0;0;0;0
mirar;0;3;0;0;0;0;0;2;0
mesa;0;4;0;0;0;0;0;1;0
mellizo;0;5;0;0;0;0;0;0;0
marchar;0;5;0;0;0;0;0;0;0
llorar;0;4;0;0;0;0;0;0;0
juicio;0;0;0;0;0;1;0;4;0
judea;0;5;0;0;0;0;0;0;0
israel;0;0;0;0;0;0;0;5;0
gritar;0;1;0;0;0;1;0;3;0
glorificará;0;0;0;0;0;0;0;3;0
existir;0;0;0;0;0;0;0;5;0
empezar;0;5;0;0;0;0;0;0;0
embargo;0;0;0;0;0;1;0;4;0
elegir;0;0;0;1;0;0;0;2;0
doce;0;4;0;0;0;1;0;0;0
después;0;5;0;0;0;0;0;0;0
delante;0;1;0;0;0;1;0;3;0
dedo;0;1;4;0;0;0;0;0;0
curar;0;3;0;0;0;0;0;2;0
corazón;0;0;0;0;0;0;5;0;0
convertir;0;1;0;0;0;0;2;2;0
coma;0;0;0;5;0;0;0;0;0
coger;0;5;0;0;0;0;0;0;0
cerrado;0;5;0;0;0;0;0;0;0
caná;0;5;0;0;0;0;0;0;0
caminar;0;1;0;0;0;4;0;0;0
cama;0;5;0;0;0;0;0;0;0
caer;0;1;0;0;0;0;0;4;0
cabeza;0;4;0;0;0;0;0;1;0
buscar;0;4;0;0;0;0;0;1;0
betania;0;5;0;0;0;0;0;0;0
aún;0;2;0;0;0;0;0;3;0
andrés;0;5;0;0;0;0;0;0;0
améis;0;0;0;0;5;0;0;0;0
acusar;0;1;0;0;0;2;0;1;0
ángeles;0;1;0;0;0;0;0;3;0
válido;0;0;0;0;0;0;0;4;0
vista;0;4;0;0;0;0;0;0;0
tristeza;0;0;0;0;0;0;3;1;0
trabajo;0;0;0;0;0;0;0;4;0
tiberíades;0;4;0;0;0;0;0;0;0
tampoco;0;0;0;0;0;0;0;4;0
significar;0;0;0;0;0;0;0;4;0
semana;0;4;0;0;0;0;0;0;0
sano;0;4;0;0;0;0;0;0;0
resurrección;0;0;0;3;0;0;0;1;0
realizar;0;0;0;0;0;4;0;0;0
razón;0;0;0;0;0;0;0;3;1
principio;0;0;0;0;0;0;0;4;0
pobre;0;2;0;1;0;0;0;0;0
piedra;0;4;0;0;0;0;0;0;0
pidáis;0;0;0;0;0;0;0;4;0
perfume;0;4;0;0;0;0;0;0;0
perder;0;0;0;0;0;3;0;1;0
pecador;0;0;0;0;0;0;0;4;0
nazaret;0;0;0;0;0;2;0;2;0
nación;0;1;0;0;0;0;0;3;0
maná;0;0;0;4;0;0;0;0;0
manifestar;0;1;0;0;0;0;0;3;0
mando;0;0;0;0;2;2;0;0;0
malo;0;1;0;0;0;3;0;0;0
magdalena;0;4;0;0;0;0;0;0;0
ladrón;0;1;0;0;0;2;0;1;0
josé;0;1;0;0;0;0;0;3;0
jordán;0;3;0;0;0;0;0;1;0
jamás;0;2;0;0;0;0;0;2;0
iscariote;0;4;0;0;0;0;0;0;0
haz;0;0;0;2;0;1;0;1;0
estado;0;4;0;0;0;0;0;0;0
embarcar;0;4;0;0;0;0;0;0;0
elías;4;0;0;0;0;0;0;0;0
dichosos;0;0;0;0;0;0;0;4;0
cumplir;0;0;0;0;0;3;0;1;0
cuerpo;0;4;0;0;0;0;0;0;0
cuatro;0;4;0;0;0;0;0;0;0
comunicar;0;0;0;0;0;0;0;4;0
comparación;0;0;0;0;0;0;0;4;0
comida;0;0;0;4;0;0;0;0;0
causa;0;1;0;0;0;1;0;2;0
cambista;0;4;0;0;0;0;0;0;0
cafarnaún;0;4;0;0;0;0;0;0;0
buey;0;4;0;0;0;0;0;0;0
bautizando;0;3;0;0;0;0;0;1;0
bastar;0;0;0;1;0;0;0;3;0
barro;0;4;0;0;0;0;0;0;0
amo;0;0;0;0;0;0;0;4;0
amará;0;0;0;0;0;4;0;0;0
amanecer;0;4;0;0;0;0;0;0;0
acabar;0;3;0;0;0;0;0;1;0
abundante;0;1;0;0;0;0;0;3;0
abrir;0;2;0;0;0;1;0;1;0
viento;0;1;0;0;0;0;0;2;0
viejo;0;2;0;0;0;0;0;1;0
vid;0;0;0;0;0;0;0;3;0
vender;0;3;0;0;0;0;0;0;0
tiemble;0;0;0;0;0;0;3;0;0
tercero;0;3;0;0;0;0;0;0;0
tarde;0;2;0;0;0;0;0;1;0
surgir;0;0;0;0;0;0;0;3;0
sudario;0;3;0;0;0;0;0;0;0
sorprender;0;1;0;0;0;0;0;2;0
soplar;0;1;0;0;0;0;0;2;0
siervo;0;0;0;0;0;0;0;3;0
señal;0;0;2;0;0;0;0;1;0
serpiente;0;0;0;0;0;0;0;3;0
segundo;0;2;0;0;0;0;0;1;0
sarmiento;0;1;0;0;0;0;0;2;0
samaría;0;3;0;0;0;0;0;0;0
samaritanos;0;2;0;0;0;0;0;1;0
rogar;0;0;0;0;0;1;0;2;0
retirar;0;3;0;0;0;0;0;0;0
recordar;0;0;0;0;0;0;0;3;0
recoger;0;3;0;0;0;0;0;0;0
príncipe;0;0;0;0;0;0;0;3;0
proceder;0;0;0;0;0;0;0;3;0
presentar;0;3;0;0;0;0;0;0;0
pregunta;0;2;0;0;0;0;1;0;0
plenitud;0;0;0;0;0;0;2;1;0
piscina;0;1;0;0;0;0;0;2;0
pierna;0;3;0;0;0;0;0;0;0
paráclito;0;0;0;0;0;0;0;3;0
parte;0;1;0;0;0;1;0;1;0
ocho;0;3;0;0;0;0;0;0;0
necesitar;0;1;0;0;0;0;0;2;0
monte;0;1;0;0;0;0;0;2;0
miedo;0;2;0;0;0;0;0;1;0
mal;0;1;0;1;0;1;0;0;0
lugar;0;2;0;0;0;0;0;1;0
linaje;0;0;0;0;0;0;0;3;0
lavar;0;1;0;0;0;0;0;2;0
juzgo;0;0;0;0;0;1;0;2;0
jacob;0;2;0;0;0;0;0;1;0
intentar;0;0;0;0;1;0;0;2;0
igual;0;1;0;0;0;1;0;1;0
hambre;0;0;0;0;0;0;0;3;0
habitar;0;0;0;2;0;0;0;1;0
fariseo;0;2;0;0;0;0;0;1;0
esclavo;0;0;0;0;0;0;0;2;1
envío;0;0;0;0;0;0;0;3;0
enterar;0;3;0;0;0;0;0;0;0
derecha;0;3;0;0;0;0;0;0;0
cuándo;0;0;0;0;0;0;0;3;0
conocierais;0;0;0;0;0;0;0;3;0
conoceríais;0;0;0;0;0;0;0;3;0
condena;0;0;0;1;0;0;0;1;1
conceder;0;0;0;0;0;1;0;2;0
comprender;0;1;0;0;0;0;0;2;0
cien;0;3;0;0;0;0;0;0;0
celebrar;0;3;0;0;0;0;0;0;0
buscáis;0;0;0;0;0;0;0;3;0
asomar;0;3;0;0;0;0;0;0;0
aprender;0;0;0;0;0;0;0;3;0
apodar;0;3;0;0;0;0;0;0;0
anunciar;0;2;0;0;0;0;0;1;0
además;0;0;0;0;0;1;0;2;0
adelantar;0;3;0;0;0;0;0;0;0
acaso;0;1;0;0;0;0;0;2;0
