ukan;1132
egin;540
jain;330
kristo;313
jainko;266
eman;253
egon;238
esan;203
on;199
jaun;204
bezala;184
bizi;163
nahi;151
hartu;128
espiritu;117
behar;121
jesu;114
lege;100
berri;110
senide;96
bete;94
buru;86
jakin;87
bide;86
agertu;87
sinesmen;89
gabe;80
horrela;89
bekatu;76
gauza;84
gorputz;72
egia;77
orain;79
gero;75
mundu;67
ote;68
hil;68
hitz;69
maitasun;70
aurre;64
alde;66
jainkoa;64
giza;64
ikusi;59
piztu;49
onartu;56
jarri;55
utzi;55
gertatu;55
zeuen;53
dohain;49
ongi;52
hala;53
horregatik;52
baino;49
menpe;44
idatzi;46
aita;48
liburu;49
joan;48
gogo;49
elkarte;39
agindu;47
oso;42
jesus;44
bake;45
sinetsi;44
maite;40
izen;39
bakarrik;44
irakatsi;40
gizaki;41
etorri;44
egun;42
lan;41
heriotza;43
eskatu;40
itxaropen;40
handi;40
judu;32
jarraitu;39
indar;39
ezagutu;36
eli;30
sandu;39
nola;37
jan;32
esku;35
bihotz;38
bakar;28
huts;37
saiatu;37
jokatu;32
harrotu;36
zuzen;35
herri;36
emakume;34
bakoitz;35
argi;33
zerbitzu;32
salbatu;34
gizon;30
fededun;31
fede;33
eraman;34
beti;35
mezu;34
bihurtu;33
kristau;29
berriro;33
seme;29
jo;25
gain;31
sortu;30
senar;25
gelditu;30
galdu;30
uste;29
garbi;30
aldu;30
adore;27
poz;27
ibili;29
era;29
otoitz;28
ezarri;27
bidali;28
apostolu;27
jasan;25
ezta;27
ezin;27
etxe;18
esklabo;24
entzun;26
deitu;26
atsegin;27
asmo;26
eragin;25
egintza;25
duenak;25
dezala;23
bizitu;24
santu;25
iritsi;24
harro;25
hain;24
zerbitz;23
sendo;24
semealaba;24
jakinduria;22
hildako;23
garai;24
zuengan;23
lagun;23
jesusen;20
iraun;23
grina;21
gai;22
ezakan;22
atera;22
anaia;22
ahal;23
zuenga;21
paulo;22
kontzientzia;21
hazi;19
ekarri;20
eduki;22
bildu;13
behin;22
bedi;21
adierazi;21
zeru;21
ulertu;19
mintzo;14
kristorekin;21
kontu;21
hizketa;3
heldu;20
grazia;21
ezkondu;19
atal;17
aintza;19
ahalmen;21
horrelako;20
erakutsi;19
epai;20
betiko;20
aukeratu;19
arrotz;4
abraham;18
profeta;18
parte;17
orduan;19
onginahi;18
izukan;19
erabaki;19
oraindik;18
lagundu;17
jentil;17
irrika;17
etsai;18
eskaini;18
eliza;17
beza;17
txar;17
oinarritu;16
neurri;15
mintzatu;7
israel;16
irakaspen;17
irabazi;17
dadila;14
benetako;14
begi;16
balio;17
askatu;17
aitortu;16
zor;16
zabaldu;16
lur;16
jantzi;14
honela;16
hondatu;15
gutun;15
fruitu;15
erabat;15
enukan;16
elkartu;16
borroka;16
bizitza;16
beldur;16
atsekabe;16
ondoren;15
nolako;12
nizu;15
nagusi;14
lortu;15
haserre;15
eutsi;15
erruki;14
eitezi;14
aukera;15
zigor;14
salbamen;14
moises;14
maitatu;14
ikasi;14
hasi;13
halako;14
gaizki;14
etengabe;14
emazte;13
dizue;12
baliatu;13
aurrez;14
arazo;14
zoro;13
urruti;13
timoteo;13
sari;13
prestatu;13
prest;13
ondorengo;12
oker;13
lotu;12
libre;12
jokabide;13
jainkoar;13
israeldar;13
emaztu;11
edan;13
da;13
bitarte;13
barkatu;10
askatasun;13
arrisku;6
ardura;12
ahul;11
adimen;13
salbatzaile;12
noski;12
misterio;11
leial;12
jesusengan;12
jentila;12
jaunarengan;10
izaera;10
itzuli;11
irudi;10
haragi;12
gau;11
dizued;12
dezazuen;12
behartu;12
aztertu;11
azaldu;12
auzi;12
aurkitu;11
aberats;11
ziur;11
zaretu;11
zaiteztu;10
uzukan;11
ondorio;11
oinarri;11
nindu;11
jende;11
jakintsu;10
itun;11
irain;8
ipini;6
inolako;10
han;11
gorde;11
gaizto;11
gaitzetsi;11
gaitz;5
gainerako;10
eztabaida;11
erreinu;11
erantzun;11
eraiki;11
eginkizun;11
dudala;10
diotsuet;10
digu;11
burutu;11
bilatu;11
aitzakan;10
zintzo;9
zergatik;10
zentzu;10
zaindu;10
zain;10
zahar;10
ukrenentzan;8
sartu;10
pozik;10
partaide;10
onespen;8
nahigabe;10
merezi;10
maiteo;10
lankide;10
kristorengan;9
jaso;10
jabe;8
iritzi;9
hor;10
hemen;10
grin;10
gogor;10
gizonemakume;9
errebelde;10
erabili;9
egoki;10
eder;10
bertan;8
arrazoi;7
ahulezia;10
aginte;10
zuri;9
zuen;9
zaituztet;9
une;9
ukzuen;9
tenplu;8
predikatu;8
ospe;6
oinordeko;8
mazedonia;9
legepe;8
konfiantza;9
kendu;9
jerusalem;9
jauna;9
jaio;9
jainkoarentzat;9
jai;9
irakurri;8
ihes;9
hurko;9
helburu;9
gose;9
gaituela;8
eskubide;9
errudun;9
egoera;9
direneitu;9
di;9
bizirik;9
begira;7
balu;9
arekan;8
aldatu;9
akats;9
agintari;9
zuentzat;8
zoriontsu;7
zerbitzatu;8
zaitez;8
urte;8
toki;8
tito;8
tinko;8
suntsitu;8
pedro;8
pazientzia;8
otoitu;8
oparo;7
opari;8
ondasuna;6
non;8
moztu;7
madarikatu;7
lekuko;8
laster;8
laguntza;8
jun;8
jaunarengatik;7
jardun;7
indartsu;8
indarrez;8
ilunpe;8
haia;6
gurega;8
guraso;7
gezur;8
ezkutu;8
ezagun;8
eskuzabaltasun;8
errugabe;8
errege;6
erori;8
eredu;7
erdainkuntza;8
duen;8
ditudan;7
dit;8
did;8
dia;8
biezazkizuete;8
betetu;8
bereizi;7
benetan;8
askoz;8
arau;7
aldendu;8
aingeru;8
aho;8
zuzentzat;6
zorrotz;7
zentzarazi;7
zenbatez;7
zaiteztela;7
sentitu;7
salatu;7
poztu;7
ordaindu;7
ogi;7
noiz;6
neke;7
nahigabetu;5
nahasi;7
nago;7
lotsatu;7
kristorengatik;7
kopa;7
kondenatu;7
jakinaraz;7
itzazu;6
iragarri;7
inoiz;7
igo;6
hutsal;6
hiri;6
haur;7
gutxietsi;6
goretsi;7
gorabehera;6
ezagutza;7
espirituzko;6
eskuzabal;7
eskuratu;6
eroapen;7
erlijio;7
dudan;6
distira;6
dagoeneko;7
borondate;7
berez;7
bere;6
berdin;6
bekata;7
beharrezko;7
bataiatu;6
argitu;3
are;7
arduratu;7
antzeko;6
ama;5
alferrik;7
aldeko;7
aipatu;7
aintzarako;7
aholkatu;7
ahalegin;7
agerian;6
zertan;6
zentzudun;6
zedin;6
zaudete;6
zama;6
zaituztu;6
uko;6
uenakan;6
txertatu;4
sustrai;4
sufrimendu;6
sendotu;6
seinale;5
sasijainkoei;6
santua;5
sagaratu;6
preso;6
pertsona;6
pentsatu;6
ontzi;5
onginahiaz;6
nu;6
mesede;5
maila;6
lo;5
liluratu;4
leialtasun;6
legami;4
larri;6
lapur;6
lagungarri;5
kristoren;6
kartzela;5
kalte;6
jokaera;6
jatorri;5
isuri;6
iruditu;6
irizpide;6
irakasle;6
horrexega;6
hona;5
hobeki;6
hobe;5
hilkor;6
hilik;6
harrera;5
gurutziltzatu;6
gazte;6
gaixo;5
ezertan;6
ezazukan;6
ezazu;6
ezagut;6
etorrera;6
erregutu;6
erne;6
ea;6
dizuen;6
dituzun;5
dituena;6
diet;6
botere;6
bihozbera;6
bezain;6
begiratu;5
bazter;6
baliotsu;6
bain;6
baikara;6
badio;6
axola;6
ausartu;5
ahaltsu;6
agintzariaren;6
agintzaria;6
zuzendari;4
zorakeri;5
zigortu;5
zia;5
zaretenez;5
zareten;4
zaizuen;5
ukatu;5
sinesmenetik;5
sinesmenagatik;5
sinesgarri;4
semea;5
satanasen;5
sakon;5
profezi;4
ospetsu;5
ondare;5
oin;5
odol;5
nekagarri;5
mirari;5
min;4
maltzur;4
lotsagarri;5
lots;5
lizun;5
lehia;5
kutsatu;4
kezkatu;5
juzun;5
jentilentzat;5
jagokin;5
jadanik;5
izaki;3
itxaro;5
itsaso;5
ilun;4
igaro;5
honelako;5
hezi;5
hartzazue;5
harenga;5
hara;5
gurutze;5
gomendatu;4
gizonezko;4
gezurrezko;5
garaipen;5
gaitzespen;5
gaituen;5
gainditu;4
ezjakin;5
etortu;4
estali;5
errespetu;5
erdainduak;5
erdaindu;5
erasoaldi;5
epaile;5
entzule;5
emaitza;5
ekin;5
egokitu;5
egita;5
egintz;5
efeson;5
dutena;5
dugun;5
direnekin;5
direna;5
dion;5
dei;5
dagokidanez;5
bidaia;5
betie;5
betebetean;5
berezi;5
begirune;4
baztertu;5
batzar;4
baitzaituzte;5
bainau;5
azkenik;4
aurrera;5
aurkeztu;5
atzerritar;5
arma;5
aholku;5
agintzari;5
aditu;5
adiskide;4
abrahami;5
abiatu;5
zuzenetsi;4
zorion;4
zizuen;4
ziren;4
zilegi;4
zikin;4
zeuekin;4
zerikusi;4
zatkan;4
zatitu;4
zatiketa;4
zaitu;3
zaintzaile;4
ur;4
trebe;4
titori;4
timoteok;4
sutsu;4
su;3
sobera;4
sesio;4
satanasek;4
sare;4
salbamenerako;4
salbamenera;4
sagaratuak;4
profetek;4
prediku;4
pertsegitu;4
pareko;4
oztopo;4
otordu;4
ostu;4
osoosorik;4
osasungarri;3
orduko;4
onginahiaren;4
okertu;4
obeditu;3
nizuena;4
nireganako;4
neurritsu;4
neurrigabe;4
neuregan;3
nazio;4
nagoela;4
nabari;4
muga;4
morroi;4
mazedoniatik;4
makurtu;4
lizunkeria;4
leku;4
langile;4
kristogan;4
konpondu;3
justizia;4
jesusengatik;3
jentilei;4
jaunarengandik;4
jarraitzaile;4
janari;4
jakintza;4
jainkoarengana;4
jainkoarenak;4
izate;4
itxaron;4
itsutu;4
itsatsi;3
irudiko;3
indartu;4
ile;4
iezaiekan;3
hondamendi;4
hizkuntza;3
hizkera;4
hilzori;4
hilda;4
hazaraztu;4
haue;4
harreman;4
harrapatu;4
guztiz;4
guztiokin;4
gurutu;4
gorroto;4
gorri;4
goiko;4
goiagerpen;3
gobernatu;4
gizaseme;4
gintu;4
gidatu;3
gezurti;4
genizuen;4
galbide;4
gaiztakeria;4
faltsu;4
ezkongabe;4
ezkon;4
etsi;4
eskas;3
eroapena;4
eran;4
epe;4
enuttu;3
engainatu;4
emazn;4
egile;4
duenean;4
dudanik;4
dudalako;4
ditzazuen;4
dituzuen;4
diruzale;4
denei;4
deabrua;4
deabru;4
daiteke;4
dagokizuenez;4
bukatu;4
bota;4
bizileku;3
bikain;4
bihotzbihotzez;4
bihotu;4
biezaio;3
bezalaxe;4
betera;4
berritu;4
beronengan;4
bereizkeriari;4
belarri;4
behar_izan;4
begiruneaga;4
batasunagatik;3
banandu;3
banai;4
baliogabe;4
badabiltza;4
azpikeria;4
aurpegi;4
audekan;4
atsegingarri;4
arretaz;4
argudio;3
arduradun;4
arbaso;4
apolo;4
alferrika;4
aldi;4
aldare;3
aitzakia;4
aintzat;4
aintzaren;4
ahoz;4
ahalako;4
agintzariak;4
adiskidetu;4
adar;4
aberastasun;4
zuritu;3
zuenetik;3
zori;3
zizun;3
zinez;3
zinetenok;3
zineten;3
zeundetu;3
zerbitzadu;3
zenidaten;3
zaudetu;3
zapuztu;3
zaituztedala;3
zabarkerian;3
zabal;3
uttu;3
ustelkorra;3
ukaikan;3
txiki;3
tikiko;3
tesalonika;3
tentaldi;3
sinestedunak;3
sinestedun;3
sinesgogor;3
sinesgabe;3
silvano;3
sesiozale;3
semealabok;3
sasijainkoak;3
sara;3
santueta;3
santiago;3
saldu;3
sabela;3
pertsegitzaile;3
paregabe;3
osatu;3
oroitu;3
ore;3
ondasun;3
nolatan;3
nolanahi;3
neurez;3
neskatxa;3
negu;3
negar;3
nahikoa;3
nabarmen;3
mozkor;3
misteriotsu;3
mendi;3
mendetasun;3
mendeku;3
markos;3
maitekiro;3
maita;3
luze;3
luzatu;3
luzaroan;3
lurralde;3
lotsa;3
leialtasuna;3
lehenik;3
lehengo;3
lehenago;3
legeko;3
lasterka;3
lapurreta;3
landu;3
landatu;3
kultua;3
kristorengandik;3
kristorenganako;3
koroa;3
korinton;3
kond;3
kezka;3
kantatu;3
joko;3
jezan;3
jatorriz;3
jarrera;3
jakinduriazko;3
jaitsi;3
izkitu;3
itxurakeria;3
itxi;3
iraunkor;3
irakatsiei;3
iragankor;3
inguratu;3
indargabetu;3
indarberritu;3
ilundu;3
ikuspegi;3
ikasbide;3
iekan;3
ia;3
hutsik;3
hutsegite;3
hornitu;3
hogeita;3
hilkorrean;3
hezurmamizko;3
herio;3
hel;3
hautatu;3
haserretu;3
hartzazu;3
harrigarri;3
handiagotzat;3
gutxiets;3
gurtu;3
guk;3
gorazarre;3
goraipatu;3
gogoratu;3
gizonemakumeen;3
gizonemakumeek;3
gizonemakumeak;3
ginela;3
ginel;3
geldi;3
gatibu;3
gaiztakeri;3
gaitasun;3
gainezka;3
gabiltza;3
finkatu;3
familia;3
ezkutua;3
ezinik;3
esteban;3
espirituzkoa;3
espirituagan;3
espero;3
eskuinalde;3
esklabotz;3
eskabide;3
eseri;3
errukitu;3
erregu;3
erortu;3
erorbide;3
ergel;3
erantsi;3
eraikin;3
eraginpe;3
epaitu;3
emakumeagandik;3
elkartasun;3
egokiera;3
egiteraino;3
egintzengatik;3
eginahal;3
egiaztatu;3
edzi;3
duzun;3
duzula;3
duzuenez;3
duzuela;3
dizuete;3
dituztenen;3
dirubilketa;3
direlaeta;3
diozu;3
diezazuela;3
diezaioten;3
dezakeela;3
deus;3
desagertu;3
defentsa;3
david;3
buztin;3
bultzatu;3
bizkor;3
bizkar;3
biezazkizute;3
betidanik;3
berezko;3
bekatupean;3
bekatuarentzat;3
bekaizkeriak;3
bekaizkeria;3
behe;3
begirun;3
bedeinkazio;3
batu;3
baketsu;3
baitzaudete;3
baitit;3
badaiteke;3
ausardia;3
aurrerantzean;3
atzera;3
atxiki;3
aski;3
arreta;3
argibide;3
ardozale;3
ardo;3
arbaxo;3
apaltasun;3
apal;3
altxatu;3
alferrikako;3
aituzkan;3
aitorpenaz;3
aintzaz;3
ahaztu;3
agian;3
adulteriorik;3
adoretu;3
adina;3
adibidez;3
