"";"newcol";"newcol";"newcol";"newcol";"newcol";"newcol";"newcol";"newcol";"newcol"
"1";3;4;7;8;11;13;15;17;19
"2";3;4;7;8;11;13;15;17;19
"3";3;4;7;8;11;13;15;17;19
"4";3;4;7;8;11;13;15;17;19
"5";3;4;7;8;11;13;15;17;19
"6";3;4;7;8;11;13;15;17;19
"7";3;4;7;8;11;13;15;17;19
"8";3;4;7;8;11;13;15;17;19
"9";3;4;7;8;11;13;15;17;19
"10";3;4;7;8;11;13;15;17;19
"11";3;4;7;8;11;13;15;17;19
"12";3;4;7;8;11;13;15;17;19
"13";3;4;7;8;11;13;15;17;19
"14";3;4;7;8;11;13;15;17;19
"15";3;4;7;8;11;13;15;17;19
"16";3;4;7;8;11;13;15;17;19
"17";3;4;7;8;11;13;15;17;19
"18";3;4;7;8;11;13;15;17;19
"19";3;4;7;8;11;13;15;17;19
"20";3;4;7;8;11;13;15;17;19
"21";3;4;7;8;11;13;15;17;19
"22";3;4;7;8;11;13;15;17;19
"23";3;4;7;8;11;13;15;17;19
"24";3;4;7;8;11;13;15;17;19
"25";3;4;7;8;11;13;15;17;19
"26";3;4;7;8;11;13;15;17;19
"27";3;4;7;8;11;13;15;17;19
"28";3;4;7;8;11;13;15;17;19
"29";3;4;7;8;11;13;15;17;19
"30";3;4;7;8;11;13;15;17;19
"31";3;4;7;8;11;13;15;17;19
"32";3;4;7;8;11;13;15;17;19
"33";3;4;7;8;11;13;15;17;19
"34";3;4;7;8;11;13;15;17;19
"35";3;4;7;8;11;13;15;17;19
"36";3;4;7;8;11;13;15;17;19
"37";3;4;7;8;11;13;15;17;19
"38";3;4;7;8;11;13;15;17;19
"39";3;4;7;8;11;13;15;17;19
"40";3;4;7;8;11;13;15;17;19
"41";3;4;7;8;11;13;15;17;19
"42";3;4;7;8;11;13;15;17;19
"43";3;4;7;8;11;13;15;17;19
"44";3;4;7;8;11;13;15;17;19
"45";3;4;7;8;11;13;15;17;19
"46";3;4;7;8;11;13;15;17;19
"47";3;4;7;8;11;13;15;17;19
"48";3;4;7;8;11;13;15;17;19
"49";3;4;7;8;11;13;15;17;19
"50";3;4;7;8;11;13;15;17;19
"51";3;4;7;8;11;13;15;17;19
"52";3;4;7;8;11;13;15;17;19
"53";3;4;7;8;11;13;15;17;19
"54";3;4;7;8;11;13;15;17;19
"55";3;4;7;8;11;13;15;17;19
"56";3;4;7;8;11;13;15;17;19
"57";3;4;7;8;11;13;15;17;19
"58";3;4;7;8;11;13;15;17;19
"59";3;4;7;8;11;13;15;17;19
"60";3;4;7;8;11;13;15;17;19
"61";3;4;7;8;11;13;15;17;19
"62";3;4;7;8;11;13;15;17;19
"63";3;4;7;8;11;13;15;17;19
"64";3;4;7;8;11;13;15;17;19
"65";3;4;7;8;11;13;15;17;19
"66";3;4;7;8;11;13;15;17;19
"67";3;4;7;8;11;13;15;17;19
"68";3;4;7;8;11;13;15;17;19
"69";3;4;7;8;11;13;15;17;19
"70";3;4;7;8;11;13;15;17;19
"71";3;4;7;8;11;13;15;17;19
"72";3;4;7;8;11;13;15;17;19
"73";3;4;7;8;11;13;15;17;19
"74";3;4;7;8;11;13;15;17;19
"75";3;4;7;8;11;13;15;17;19
"76";3;4;7;8;11;13;15;17;19
"77";3;4;7;8;11;13;15;17;19
"78";3;4;7;8;11;13;15;17;19
"79";3;4;7;8;11;13;15;17;19
"80";3;4;7;8;11;13;15;17;19
"81";3;4;7;8;11;13;15;17;19
"82";3;4;7;8;11;13;15;17;19
"83";3;4;7;8;11;13;15;17;19
"84";3;4;7;8;11;13;15;17;19
"85";3;4;7;8;11;13;15;17;19
"86";3;4;7;8;11;13;15;17;19
"87";3;4;7;8;11;13;15;17;19
"88";3;4;7;8;11;13;15;17;19
"89";3;4;7;8;11;13;15;17;19
"90";3;4;7;8;11;13;15;17;19
"91";3;4;7;8;11;13;15;17;19
"92";3;4;7;8;11;13;15;17;19
"93";3;4;7;8;11;13;15;17;19
"94";3;4;7;8;11;13;15;17;19
"95";3;4;7;8;11;13;15;17;19
"96";3;4;7;8;11;13;15;17;19
"97";3;4;7;8;11;13;15;17;19
"98";3;4;7;8;11;13;15;17;19
"99";3;4;7;8;11;13;15;17;19
"100";3;4;7;8;11;13;15;17;19
"101";3;4;7;8;11;13;15;17;19
"102";3;4;7;8;11;13;15;17;19
"103";3;4;7;8;11;13;15;17;19
"104";3;4;7;8;11;13;15;17;19
"105";3;4;7;8;11;13;15;17;19
"106";3;4;7;8;11;13;15;17;19
"107";3;4;7;8;11;13;15;17;19
"108";3;4;7;8;11;13;15;17;19
"109";3;4;7;8;11;13;15;17;19
"110";3;4;7;8;11;13;15;17;19
"111";3;4;7;8;11;13;15;17;19
"112";3;4;7;8;11;13;15;17;19
"113";3;4;7;8;11;13;15;17;19
"114";3;4;7;8;11;13;15;17;19
"115";3;4;7;8;11;13;15;17;19
"116";3;4;7;8;11;13;15;17;19
"117";3;4;7;8;11;13;15;17;19
"118";3;4;7;8;11;13;15;17;19
"119";3;4;7;8;11;13;15;17;19
"120";3;4;7;8;11;13;15;17;19
"121";3;4;7;8;11;13;15;17;19
"122";3;4;7;8;11;13;15;17;19
"123";3;4;7;8;11;13;15;17;19
"124";3;4;7;8;11;13;15;17;19
"125";3;4;7;8;11;13;15;17;19
"126";3;4;7;8;11;13;15;17;19
"127";3;4;7;8;11;13;15;17;19
"128";3;4;7;8;11;13;15;17;19
"129";3;4;7;8;11;13;15;17;19
"130";3;4;7;8;11;13;15;17;19
"131";3;4;7;8;11;13;15;17;19
"132";3;4;7;8;11;13;15;17;19
"133";3;4;7;8;11;13;15;17;19
"134";3;4;7;8;11;13;15;17;19
"135";3;4;7;8;11;13;15;17;19
"136";3;4;7;8;11;13;15;17;19
"137";3;4;7;8;11;13;15;17;19
"138";3;4;7;8;11;13;15;17;19
"139";3;4;7;8;11;13;15;17;19
"140";3;4;7;8;11;13;15;17;19
"141";3;4;7;8;11;13;15;17;19
"142";3;4;7;8;11;13;15;17;19
"143";3;4;7;8;11;13;15;17;19
"144";3;4;7;8;11;13;15;17;19
"145";3;4;7;8;11;13;15;17;19
"146";3;4;7;8;11;13;15;17;19
"147";3;4;7;8;11;13;15;17;19
"148";3;4;7;8;11;13;15;17;19
"149";3;4;7;8;11;13;15;17;19
"150";3;4;7;8;11;13;15;17;19
"151";3;4;7;8;11;13;15;17;19
"152";3;4;7;8;11;13;15;17;19
"153";3;4;7;8;11;13;15;17;19
"154";3;4;7;8;11;13;15;17;19
"155";3;4;7;8;11;13;15;17;19
"156";3;4;7;8;11;13;15;17;19
"157";3;4;7;8;11;13;15;17;19
"158";3;4;7;8;11;13;15;17;19
"159";3;4;7;8;11;13;15;17;19
"160";3;4;7;8;11;13;15;17;19
"161";3;4;7;8;11;13;15;17;19
"162";3;4;7;8;11;13;15;17;19
"163";3;4;7;8;11;13;15;17;19
"164";3;4;7;8;11;13;15;17;19
"165";3;4;7;8;11;13;15;17;19
"166";3;4;7;8;11;13;15;17;19
"167";3;4;7;8;11;13;15;17;19
"168";3;4;7;8;11;13;15;17;19
"169";3;4;7;8;11;13;15;17;19
"170";3;4;7;8;11;13;15;17;19
"171";3;4;7;8;11;13;15;17;19
"172";3;4;7;8;11;13;15;17;19
"173";3;4;7;8;11;13;15;17;19
"174";3;4;7;8;11;13;15;17;19
"175";3;4;7;8;11;13;15;17;19
"176";3;4;7;8;11;13;15;17;19
"177";3;4;7;8;11;13;15;17;19
"178";3;4;7;8;11;13;15;17;19
"179";3;4;7;8;11;13;15;17;19
"180";3;4;7;8;11;13;15;17;19
"181";3;4;7;8;11;13;15;17;19
"182";3;4;7;8;11;13;15;17;19
"183";3;4;7;8;11;13;15;17;19
"184";3;4;7;8;10;10;10;10;10
"185";3;4;7;8;11;13;15;17;19
"186";3;4;7;8;11;13;15;17;19
"187";3;4;7;8;11;13;15;17;19
"188";3;4;7;8;11;13;15;17;19
"189";3;4;7;8;11;13;15;17;19
"190";3;4;7;8;11;13;15;17;19
"191";3;4;7;8;11;13;15;17;19
"192";3;4;7;8;11;13;15;17;19
"193";3;4;7;8;11;13;15;17;19
"194";3;4;7;8;11;13;15;17;19
"195";3;4;7;8;11;13;15;17;19
"196";3;4;7;8;11;13;15;17;19
"197";3;4;7;8;11;13;15;17;19
"198";3;4;7;8;11;13;15;17;19
"199";3;4;7;8;11;13;15;17;19
"200";3;4;7;8;11;13;15;17;19
"201";3;4;7;8;11;13;15;17;19
"202";3;4;7;8;11;13;15;17;19
"203";3;4;7;8;11;13;15;17;19
"204";3;4;7;8;11;13;15;17;19
"205";3;4;7;8;11;13;15;17;19
"206";3;4;7;8;11;13;15;17;19
"207";3;4;7;8;11;13;15;17;19
"208";3;4;7;8;11;13;15;17;19
"209";3;4;7;8;11;13;15;17;19
"210";3;4;7;8;11;13;15;17;19
"211";3;4;7;8;11;13;15;17;19
"212";3;4;7;8;11;13;15;17;19
"213";3;4;7;8;11;13;15;17;19
"214";3;4;7;8;11;13;15;17;19
"215";3;4;7;8;11;13;15;17;19
"216";3;4;7;8;11;13;15;17;19
"217";3;4;7;8;11;13;15;17;19
"218";3;4;7;8;11;13;15;17;19
"219";3;4;7;8;11;13;15;17;19
"220";3;4;7;8;11;13;15;17;19
"221";3;4;7;8;11;13;15;17;19
"222";3;4;7;8;11;13;15;17;19
"223";3;4;7;8;11;13;15;17;19
"224";3;4;7;8;11;13;15;17;19
"225";3;4;7;8;11;13;15;17;19
"226";3;4;7;8;11;13;15;17;19
"227";3;4;7;8;11;13;15;17;19
"228";3;4;7;8;11;13;15;17;19
"229";3;4;7;8;11;13;15;17;19
"230";3;4;7;8;11;13;15;17;19
"231";3;4;7;8;11;13;15;17;19
"232";3;4;7;8;11;13;15;17;19
"233";3;4;7;8;11;13;15;17;19
"234";3;4;7;8;11;13;15;17;19
"235";3;4;7;8;11;13;15;17;19
"236";3;4;7;8;11;13;15;17;19
"237";3;4;7;8;11;13;15;17;19
"238";3;4;7;8;11;13;15;17;19
"239";3;4;7;8;11;13;15;17;19
"240";3;4;7;8;11;13;15;17;19
"241";3;4;7;8;11;13;15;17;19
"242";3;4;7;8;11;13;15;17;19
"243";3;4;7;8;11;13;15;17;19
"244";3;4;7;8;11;13;15;17;19
"245";3;4;7;8;11;13;15;17;19
"246";3;4;7;8;11;13;15;17;19
"247";3;4;7;8;11;13;15;17;19
"248";3;4;7;8;11;13;15;17;19
"249";3;4;7;8;11;13;15;17;19
"250";3;4;7;8;11;13;15;17;19
"251";3;4;7;8;11;13;15;17;19
"252";3;4;7;8;11;13;15;17;19
"253";3;4;7;8;11;13;15;17;19
"254";3;4;7;8;11;13;15;17;19
"255";3;4;7;8;11;13;15;17;19
"256";3;4;7;8;11;13;15;17;19
"257";3;4;7;8;11;13;15;17;19
"258";3;4;7;8;11;13;15;17;19
"259";3;4;7;8;11;13;15;17;19
"260";3;4;7;8;11;13;15;17;19
"261";3;4;7;8;11;13;15;17;19
"262";3;4;7;8;11;13;15;17;19
"263";3;4;7;8;11;13;15;17;19
"264";3;4;7;8;11;13;15;17;19
"265";3;4;7;8;11;13;15;17;19
"266";3;4;7;8;11;13;15;17;19
"267";3;4;7;8;11;13;15;17;19
"268";3;4;7;8;11;13;15;17;19
"269";3;4;7;8;11;13;15;17;19
"270";3;4;7;8;11;13;15;17;19
"271";3;4;7;8;11;13;15;17;19
"272";3;4;7;8;11;13;15;17;19
"273";3;4;7;8;11;13;15;17;19
"274";3;4;7;8;11;13;15;17;19
"275";3;4;7;8;11;13;15;17;19
"276";3;4;7;8;11;13;15;17;19
"277";3;4;7;8;11;13;15;17;19
"278";3;4;7;8;11;13;15;17;19
"279";3;4;7;8;11;13;15;17;19
"280";3;4;7;8;11;13;15;17;19
"281";3;4;7;8;11;13;15;17;19
"282";3;4;7;8;11;13;15;17;19
"283";3;4;7;8;11;13;15;17;19
"284";3;4;7;8;11;13;15;17;19
"285";3;4;7;8;11;13;15;17;19
"286";3;4;7;8;11;13;15;17;19
"287";3;4;7;8;11;13;15;17;19
"288";3;4;7;8;11;13;15;17;19
"289";3;4;7;8;11;13;15;17;19
"290";3;4;7;8;11;13;15;17;19
"291";3;4;7;8;11;13;15;17;19
"292";3;4;7;8;11;13;15;17;19
"293";3;4;7;8;11;13;15;17;19
"294";3;4;7;8;11;13;15;17;19
"295";0;0;0;0;0;0;0;0;0
"296";3;4;7;8;11;13;15;17;19
"297";3;4;7;8;11;13;15;17;19
"298";3;4;7;8;11;13;15;17;19
"299";3;4;7;8;11;13;15;17;19
"300";3;4;7;8;11;13;15;17;19
"301";3;4;7;8;11;13;15;17;19
"302";3;4;7;8;11;13;15;17;19
"303";3;4;7;8;11;13;15;17;19
"304";3;4;7;8;11;13;15;17;19
"305";3;4;7;8;11;13;15;17;19
"306";3;4;7;8;11;13;15;17;19
"307";3;4;7;8;11;13;15;17;19
"308";3;4;7;8;11;13;15;17;19
"309";3;4;7;8;11;13;15;17;19
"310";3;4;7;8;11;13;15;17;19
"311";3;4;7;8;11;13;15;17;19
"312";3;4;7;8;11;13;15;17;19
"313";3;4;7;8;11;13;15;17;19
"314";3;4;7;8;11;13;15;17;19
"315";3;4;7;8;11;13;15;17;19
"316";3;4;7;8;11;13;15;17;19
"317";3;4;7;8;11;13;15;17;19
"318";3;4;7;8;11;13;15;17;19
"319";3;4;7;8;11;13;15;17;19
"320";3;4;7;8;11;13;15;17;19
"321";3;4;7;8;11;13;15;17;19
"322";3;4;7;8;11;13;15;17;19
"323";3;4;7;8;11;13;15;17;19
"324";3;4;7;8;11;13;14;14;14
"325";3;4;7;8;11;13;15;17;19
"326";3;4;7;8;11;13;15;17;19
"327";3;4;7;8;11;13;15;17;19
"328";3;4;7;8;11;13;15;17;19
"329";3;4;7;8;11;13;15;17;19
"330";3;4;7;8;11;13;15;17;19
"331";3;4;7;8;11;13;15;17;19
"332";3;4;7;8;11;13;15;17;19
"333";3;4;7;8;11;13;15;17;19
"334";3;4;7;8;11;13;15;17;19
"335";3;4;7;8;11;13;15;17;19
"336";3;4;7;8;11;13;15;17;19
"337";3;4;7;8;11;13;15;17;19
"338";3;4;7;8;11;13;15;17;19
"339";3;4;7;8;11;13;15;17;19
"340";3;4;7;8;11;13;15;17;19
"341";3;4;7;8;11;13;15;17;19
"342";3;4;7;8;11;13;15;17;19
"343";3;4;7;8;11;13;15;17;19
"344";3;4;7;8;11;13;15;17;19
"345";3;4;7;8;11;13;15;17;19
"346";3;4;7;8;11;13;15;17;19
"347";3;4;7;8;11;13;15;17;19
"348";3;4;7;8;11;13;15;17;19
"349";3;4;7;8;11;13;15;17;19
"350";3;4;7;8;11;13;15;17;19
"351";3;4;7;8;11;13;15;17;19
"352";3;4;7;8;11;13;15;17;19
"353";3;4;7;8;11;13;15;17;19
"354";3;4;7;8;11;13;15;17;19
"355";3;4;7;8;11;13;15;17;19
"356";3;4;7;8;11;13;15;17;19
"357";3;4;7;8;11;13;15;17;19
"358";3;4;7;8;11;13;15;17;19
"359";3;4;7;8;11;13;15;17;19
"360";3;4;7;8;11;13;15;17;19
"361";3;4;6;6;6;6;6;6;6
"362";3;4;7;8;11;13;15;17;19
"363";3;4;7;8;11;13;15;17;19
"364";3;4;7;8;11;13;15;17;19
"365";3;4;7;8;11;13;15;17;19
"366";3;4;7;8;11;13;15;17;19
"367";3;4;7;8;11;13;15;17;19
"368";3;4;7;8;11;13;15;17;19
"369";3;4;7;8;11;13;15;17;19
"370";3;4;7;8;11;13;15;17;19
"371";3;4;7;8;11;13;15;17;19
"372";3;4;7;8;11;13;15;17;19
"373";3;4;7;8;11;13;15;17;19
"374";3;4;7;8;11;13;15;17;19
"375";3;4;7;8;11;13;15;17;19
"376";3;4;7;8;11;13;15;17;19
"377";3;4;7;8;11;13;15;17;19
"378";3;4;7;8;11;13;15;17;19
"379";3;4;7;8;11;13;15;17;19
"380";3;4;7;8;11;13;15;17;19
"381";3;4;7;8;11;13;15;17;19
"382";3;4;7;8;11;13;15;17;19
"383";3;4;7;8;11;13;15;17;19
"384";3;4;7;8;11;13;15;17;19
"385";3;4;7;8;11;13;15;17;19
"386";3;4;7;8;11;13;15;17;19
"387";3;4;7;8;11;13;15;17;19
"388";3;4;7;8;11;13;15;17;19
"389";3;4;7;8;11;13;15;17;19
"390";3;4;7;8;11;13;15;17;19
"391";3;4;7;8;11;13;15;17;19
"392";3;4;7;8;11;13;15;17;19
"393";3;4;7;8;11;13;15;17;19
"394";3;4;7;8;11;13;15;17;19
"395";3;4;7;8;11;13;15;17;19
"396";3;4;7;8;11;13;15;17;19
"397";3;4;7;8;11;13;15;17;19
"398";3;4;7;8;11;13;15;17;19
"399";3;4;7;8;11;13;15;17;19
"400";3;4;7;8;11;13;15;17;19
"401";3;4;7;8;11;13;15;17;19
"402";3;4;7;8;11;13;15;17;19
"403";3;4;7;8;11;13;15;17;19
"404";3;4;7;8;11;13;15;17;19
"405";3;4;7;8;11;13;15;17;19
"406";3;4;7;8;11;13;15;17;19
"407";3;4;7;8;11;13;15;17;19
"408";3;4;7;8;11;13;15;17;19
"409";3;4;7;8;11;13;15;17;19
"410";3;4;7;8;11;13;15;17;19
"411";3;4;7;8;11;13;15;17;19
"412";3;4;7;8;11;13;15;17;19
"413";3;4;7;8;11;13;15;17;19
"414";3;4;7;8;11;13;15;17;19
"415";3;4;7;8;11;13;15;17;19
"416";3;4;7;8;11;13;15;17;19
"417";3;4;7;8;11;13;15;17;19
"418";3;4;7;8;11;13;15;17;19
"419";3;4;7;8;11;13;15;17;19
"420";3;4;7;8;11;13;15;17;19
"421";3;4;7;8;11;13;15;17;19
"422";3;4;7;8;11;13;15;17;19
"423";3;4;7;8;11;13;15;17;19
"424";3;4;7;8;11;13;15;17;19
"425";3;4;7;8;11;13;15;17;19
"426";3;4;7;8;11;13;15;17;19
"427";3;4;7;8;11;13;15;17;19
"428";3;4;7;8;11;13;15;17;19
"429";3;4;7;8;11;13;15;17;19
"430";3;4;7;8;11;13;15;17;19
"431";3;4;7;8;11;13;15;17;19
"432";3;4;7;8;11;13;15;17;19
"433";3;4;7;8;11;13;15;17;19
"434";3;4;7;8;11;13;15;17;19
"435";3;4;7;8;11;13;15;17;19
"436";3;4;7;8;11;13;15;17;19
"437";3;4;7;8;11;13;15;17;19
"438";3;4;7;8;11;13;15;17;19
"439";3;4;7;8;11;13;15;17;19
"440";3;4;7;8;11;13;15;17;19
"441";3;4;7;8;11;13;15;17;19
"442";3;4;7;8;11;13;15;17;19
"443";3;4;7;8;11;13;15;17;19
"444";3;4;7;8;11;13;15;17;19
"445";3;4;7;8;11;13;15;17;19
"446";3;4;7;8;11;13;15;17;19
"447";3;4;7;8;11;13;15;17;19
"448";3;4;7;8;11;13;15;17;19
"449";3;4;7;8;11;13;15;17;19
"450";3;4;7;8;11;13;15;17;19
"451";3;4;7;8;11;13;15;17;19
"452";3;4;7;8;11;13;15;17;19
"453";3;4;7;8;11;13;15;17;19
"454";3;4;7;8;11;13;15;17;19
"455";3;4;7;8;11;13;15;17;19
"456";0;0;0;0;0;0;0;0;0
"457";3;4;7;8;11;13;15;17;19
"458";3;4;7;8;11;13;15;17;19
"459";3;4;7;8;11;13;15;17;19
"460";3;4;7;8;11;13;15;17;19
"461";3;4;7;8;11;13;15;17;19
"462";3;4;7;8;11;13;15;17;19
"463";3;4;7;8;11;13;15;17;19
"464";3;4;7;8;11;13;15;17;19
"465";3;4;7;8;11;13;15;17;19
"466";3;4;7;8;11;13;15;17;19
"467";3;4;7;8;11;13;15;17;19
"468";3;4;7;8;11;13;15;17;19
"469";3;4;7;8;11;13;15;17;19
"470";3;4;7;8;11;13;15;17;19
"471";3;4;7;8;11;13;15;17;19
"472";3;4;7;8;11;13;15;17;19
"473";3;4;7;8;11;13;15;17;19
"474";3;4;7;8;11;13;15;17;19
"475";3;4;7;8;11;13;15;17;19
"476";3;4;7;8;11;13;15;17;19
"477";3;4;7;8;11;13;15;17;19
"478";3;4;7;8;11;13;15;17;19
"479";3;4;7;8;11;13;14;14;14
"480";3;4;7;8;11;13;15;17;19
"481";3;4;7;8;11;13;15;17;19
"482";3;4;7;8;11;13;15;17;19
"483";3;4;7;8;11;13;14;14;14
"484";3;4;7;8;11;13;15;17;19
"485";3;4;7;8;11;13;15;17;19
"486";3;4;7;8;11;13;15;17;19
"487";3;4;7;8;11;13;15;17;19
"488";3;4;7;8;11;13;15;17;19
"489";3;4;7;8;11;13;15;17;19
"490";3;4;7;8;11;13;15;17;19
"491";3;4;7;8;11;13;14;14;14
"492";3;4;7;8;11;13;15;17;19
"493";3;4;7;8;11;13;15;17;19
"494";3;4;7;8;11;13;15;17;19
"495";3;4;7;8;11;13;15;17;19
"496";3;4;7;8;11;13;15;17;19
"497";3;4;7;8;11;13;15;17;19
"498";3;4;7;8;11;13;15;17;19
"499";3;4;7;8;11;13;15;17;19
"500";3;4;7;8;11;13;15;17;19
"501";3;4;7;8;11;13;15;17;19
"502";3;4;7;8;11;13;15;17;19
"503";3;4;7;8;11;13;15;17;19
"504";3;4;7;8;11;13;15;17;19
"505";3;4;7;8;11;13;14;14;14
"506";3;4;7;8;11;13;15;17;19
"507";3;4;7;8;11;13;15;17;19
"508";3;4;7;8;11;13;15;17;19
"509";3;4;7;8;11;13;15;17;19
"510";3;4;7;8;11;13;15;17;19
"511";3;4;7;8;11;13;15;17;19
"512";3;4;7;8;11;13;15;17;19
"513";3;4;7;8;11;13;15;17;19
"514";3;4;7;8;11;13;15;17;19
"515";3;4;7;8;11;13;15;17;19
"516";3;4;7;8;11;13;15;17;19
"517";3;4;7;8;11;13;15;17;19
"518";3;4;7;8;11;13;15;17;19
"519";3;4;7;8;11;13;15;17;19
"520";3;4;7;8;11;13;15;17;19
"521";3;4;7;8;11;13;15;17;19
"522";3;4;7;8;11;13;15;17;19
"523";3;4;7;8;11;13;15;17;19
"524";3;4;7;8;11;13;15;17;19
"525";3;4;7;8;11;13;15;17;19
"526";3;4;7;8;11;13;15;17;19
"527";3;4;7;8;11;13;15;17;19
"528";3;4;7;8;11;13;15;17;19
"529";3;4;7;8;11;13;15;17;19
"530";3;4;7;8;11;13;15;17;19
"531";3;4;7;8;11;13;15;17;19
"532";3;4;7;8;11;13;15;17;19
"533";3;4;7;8;11;13;15;17;19
"534";3;4;7;8;11;13;15;17;19
"535";3;4;7;8;11;13;15;17;19
"536";3;4;7;8;11;13;15;17;19
"537";3;4;7;8;11;13;15;17;19
"538";3;4;7;8;11;13;15;17;19
"539";3;4;7;8;11;13;15;17;19
"540";3;4;7;8;11;13;15;17;19
"541";3;4;7;8;11;13;15;17;19
"542";3;4;7;8;11;13;15;17;19
"543";3;4;7;8;11;13;15;17;19
"544";3;4;7;8;11;13;15;17;19
"545";3;4;7;8;11;13;15;17;19
"546";3;4;7;8;11;13;15;17;19
"547";3;4;7;8;11;13;15;17;19
"548";3;4;7;8;11;13;15;17;19
"549";3;4;7;8;11;13;15;17;19
"550";3;4;7;8;11;13;15;17;19
"551";3;4;7;8;11;13;15;17;19
"552";3;4;7;8;11;13;15;17;19
"553";3;4;7;8;11;13;15;17;19
"554";3;4;7;8;11;13;15;17;19
"555";3;4;7;8;11;13;15;17;19
"556";3;4;7;8;11;13;15;17;19
"557";3;4;7;8;11;13;15;17;19
"558";3;4;7;8;11;13;15;17;19
"559";3;4;7;8;11;13;15;17;19
"560";3;4;7;8;11;13;15;17;19
"561";3;4;7;8;11;13;14;14;14
"562";3;4;7;8;11;13;15;17;19
"563";3;4;7;8;11;13;15;17;19
"564";3;4;7;8;11;13;15;17;19
"565";3;4;7;8;11;13;14;14;14
"566";3;4;7;8;11;13;15;17;19
"567";3;4;7;8;11;13;15;17;19
"568";3;4;7;8;11;13;15;17;19
"569";3;4;7;8;11;13;15;17;19
"570";3;4;7;8;11;13;15;17;19
"571";3;4;7;8;11;13;15;17;19
"572";3;4;7;8;11;13;15;17;19
"573";3;4;7;8;11;13;15;17;19
"574";3;4;7;8;11;13;15;17;19
"575";3;4;7;8;11;13;15;17;19
"576";3;4;7;8;11;13;15;17;19
"577";3;4;7;8;11;13;15;17;19
"578";3;4;7;8;11;13;15;17;19
"579";3;4;7;8;11;13;15;17;19
"580";3;4;7;8;11;13;15;17;19
"581";3;4;7;8;11;13;15;17;19
"582";3;4;7;8;11;13;15;17;19
"583";3;4;7;8;11;13;15;17;19
"584";3;4;7;8;11;13;15;17;19
"585";3;4;7;8;11;13;15;17;19
"586";3;4;7;8;11;13;15;17;19
"587";3;4;7;8;11;13;15;17;19
"588";3;4;7;8;11;13;15;17;19
"589";3;4;7;8;11;13;15;17;19
"590";3;4;7;8;11;13;15;17;19
"591";3;4;7;8;11;13;15;17;19
"592";3;4;7;8;11;13;15;17;19
"593";3;4;7;8;11;13;15;17;19
"594";3;4;7;8;11;13;15;17;19
"595";3;4;7;8;11;13;15;17;19
"596";3;4;7;8;11;13;15;17;19
"597";3;4;7;8;11;13;15;17;19
"598";3;4;7;8;11;13;15;17;19
"599";3;4;7;8;11;13;15;17;19
"600";3;4;7;8;11;13;15;17;19
"601";3;4;7;8;11;13;15;17;19
"602";3;4;7;8;11;13;15;16;16
"603";3;4;7;8;11;13;15;17;19
"604";3;4;7;8;11;13;15;17;19
"605";3;4;7;8;11;13;15;16;16
"606";3;4;7;8;11;13;15;17;19
"607";3;4;7;8;11;13;15;17;19
"608";3;4;7;8;11;13;15;16;16
"609";3;4;7;8;11;13;15;16;16
"610";3;4;7;8;11;13;15;17;19
"611";3;4;7;8;11;13;15;16;16
"612";3;4;7;8;11;13;15;17;19
"613";3;4;7;8;11;13;15;16;16
"614";3;4;7;8;11;13;15;16;16
"615";3;4;7;8;11;13;15;16;16
"616";3;4;7;8;11;13;15;16;16
"617";3;4;7;8;11;13;15;16;16
"618";3;4;7;8;11;13;15;17;19
"619";3;4;7;8;11;13;15;16;16
"620";3;4;7;8;11;13;15;16;16
"621";3;4;7;8;11;13;15;16;16
"622";3;5;5;5;5;5;5;5;5
"623";3;4;7;8;11;13;15;16;16
"624";3;4;7;8;11;13;15;17;19
"625";3;4;7;8;11;13;15;17;19
"626";3;4;7;8;11;13;15;17;19
"627";3;4;7;8;11;13;15;17;19
"628";3;4;7;8;11;13;15;17;19
"629";3;4;7;8;11;13;15;17;19
"630";3;4;7;8;11;13;15;16;16
"631";3;4;7;8;11;13;15;16;16
"632";3;4;7;8;11;13;15;16;16
"633";3;4;7;8;11;13;15;16;16
"634";3;4;7;8;11;13;15;17;19
"635";3;4;7;8;11;13;15;17;19
"636";3;4;7;8;11;13;15;17;19
"637";3;4;7;8;11;13;15;17;19
"638";3;4;7;8;11;13;15;17;19
"639";3;4;7;8;11;13;15;17;19
"640";3;4;7;8;11;13;15;17;19
"641";3;4;7;8;11;13;15;17;19
"642";3;4;7;8;11;13;15;17;19
"643";3;4;7;8;11;13;15;17;19
"644";3;4;7;8;11;13;15;17;19
"645";3;4;7;8;11;13;15;17;19
"646";3;4;7;8;11;13;15;17;19
"647";3;4;7;8;11;13;15;17;19
"648";3;4;7;8;11;13;15;17;19
"649";3;4;7;8;11;13;15;17;19
"650";3;4;7;8;11;13;15;17;19
"651";3;4;7;8;11;13;15;17;19
"652";3;4;7;8;11;13;15;17;19
"653";3;4;7;8;11;13;15;17;19
"654";3;4;7;8;11;13;15;17;19
"655";3;4;7;8;11;13;15;17;19
"656";3;4;7;8;11;13;15;17;19
"657";3;4;7;8;11;13;15;17;19
"658";3;4;7;8;11;13;15;17;19
"659";3;4;7;8;11;13;15;17;19
"660";3;4;7;8;11;13;15;17;19
"661";3;4;7;8;11;13;15;17;19
"662";3;4;7;8;11;13;15;17;19
"663";3;4;7;8;11;13;15;17;19
"664";3;4;7;8;11;13;15;17;19
"665";3;4;7;8;11;13;15;17;19
"666";3;4;7;8;11;13;15;17;19
"667";3;4;7;8;11;13;15;17;19
"668";3;4;7;8;11;13;15;17;19
"669";3;4;7;8;11;13;15;17;19
"670";3;4;7;8;11;13;15;17;19
"671";3;4;7;8;11;13;15;17;19
"672";3;4;7;8;11;13;15;17;19
"673";3;4;7;8;11;13;15;17;19
"674";3;4;7;8;11;13;15;17;19
"675";3;4;7;8;11;13;15;17;19
"676";3;4;7;8;11;13;15;17;19
"677";3;4;7;8;11;13;15;17;19
"678";3;4;7;8;11;13;15;17;19
"679";3;4;7;8;11;13;15;17;19
"680";3;4;7;8;11;13;15;17;19
"681";3;4;7;8;11;13;15;17;19
"682";3;4;7;8;11;13;15;17;19
"683";3;4;7;8;11;13;15;17;19
"684";3;4;7;8;11;13;15;17;19
"685";3;4;7;8;11;13;15;17;19
"686";3;4;7;8;11;13;15;17;19
"687";3;4;7;8;11;13;15;17;19
"688";3;4;7;8;11;13;15;17;19
"689";3;4;7;8;11;13;15;17;19
"690";3;4;7;8;11;13;15;17;19
"691";3;4;7;8;11;13;15;17;19
"692";3;4;7;8;11;13;15;17;19
"693";3;4;7;8;11;13;15;17;19
"694";3;4;7;8;11;13;15;17;19
"695";3;4;7;8;11;13;15;17;19
"696";3;4;7;8;11;13;15;17;19
"697";3;4;7;8;11;13;15;17;19
"698";3;4;7;8;11;13;15;17;19
"699";0;0;0;0;0;0;0;0;0
"700";3;4;7;8;11;13;15;17;19
"701";3;4;7;8;11;13;15;17;19
"702";3;4;7;8;11;13;15;17;19
"703";3;4;7;8;11;13;15;17;19
"704";3;4;7;8;11;13;15;17;19
"705";3;4;7;8;11;13;15;17;19
"706";3;4;7;8;11;13;15;17;19
"707";3;4;7;8;11;13;15;17;19
"708";3;4;7;8;11;13;15;17;19
"709";3;4;7;8;11;13;15;17;19
"710";3;4;7;8;11;13;15;17;19
"711";3;4;7;8;11;13;15;17;19
"712";3;4;7;8;11;13;15;17;19
"713";3;4;7;8;11;13;15;17;19
"714";3;4;7;8;11;13;15;17;19
"715";3;4;7;8;11;13;15;17;19
"716";3;4;7;8;11;13;15;17;19
"717";3;4;7;8;11;13;15;17;19
"718";3;4;7;8;11;13;15;17;19
"719";3;4;7;8;11;13;15;17;19
"720";3;4;7;8;11;13;15;17;19
"721";3;4;7;8;11;13;15;17;19
"722";3;4;7;8;11;13;15;17;19
"723";3;4;7;8;11;13;15;17;19
"724";3;4;7;8;11;13;15;17;19
"725";3;4;7;8;11;13;15;17;19
"726";3;4;7;8;11;13;15;17;19
"727";3;4;7;8;11;13;15;17;18
"728";3;4;7;8;11;13;15;17;19
"729";3;4;7;8;11;13;15;17;19
"730";3;4;7;8;11;13;15;17;19
"731";3;4;7;8;11;13;15;17;19
"732";3;4;7;8;11;13;15;17;19
"733";3;4;7;8;11;13;15;17;19
"734";3;4;7;8;11;13;15;17;19
"735";3;4;7;8;11;13;15;17;19
"736";3;4;7;8;11;13;15;17;19
"737";3;4;7;8;11;13;15;17;19
"738";3;4;7;8;11;13;15;17;19
"739";3;4;7;8;11;13;15;17;19
"740";3;4;7;8;11;13;15;17;19
"741";3;4;7;8;11;13;15;17;19
"742";3;4;7;8;11;13;15;17;19
"743";3;4;7;8;11;13;15;17;19
"744";3;4;7;8;11;13;15;17;19
"745";3;4;7;8;11;13;15;17;19
"746";3;4;7;8;11;13;15;17;19
"747";3;4;7;8;11;13;15;17;19
"748";3;4;7;8;11;13;15;17;19
"749";3;4;7;8;11;13;15;17;19
"750";3;4;7;8;11;13;15;17;19
"751";3;4;7;8;11;13;15;17;19
"752";3;4;7;8;11;13;15;17;19
"753";3;4;7;8;11;13;15;17;19
"754";3;4;7;8;11;13;15;17;19
"755";3;4;7;8;11;13;15;17;19
"756";3;4;7;8;11;13;15;17;19
"757";3;4;7;8;11;13;14;14;14
"758";3;4;7;8;11;13;15;17;19
"759";3;4;7;8;11;13;15;17;19
"760";3;4;7;8;11;13;15;17;19
"761";3;4;7;8;11;13;15;17;19
"762";3;4;7;8;11;13;15;17;19
"763";3;4;7;8;11;13;15;17;19
"764";3;4;7;8;11;13;15;17;19
"765";3;4;7;8;11;13;15;17;19
"766";3;4;7;8;11;13;15;17;19
"767";3;4;7;8;11;13;15;17;19
"768";3;4;7;8;11;13;15;17;19
"769";3;4;7;8;11;13;15;17;19
"770";3;4;7;8;11;13;15;17;19
"771";3;4;7;8;11;13;15;17;19
"772";3;4;7;8;11;13;15;17;19
"773";3;4;7;8;11;13;15;17;19
"774";3;4;7;8;11;13;15;17;19
"775";3;4;7;8;11;13;15;17;19
"776";3;4;7;8;11;13;15;17;19
"777";3;4;7;8;11;13;15;17;19
"778";3;4;7;8;11;13;15;17;19
"779";3;4;7;8;11;13;15;17;19
"780";3;4;7;8;11;13;15;17;19
"781";3;4;7;8;11;13;15;17;19
"782";3;4;7;8;11;13;15;17;19
"783";3;4;7;8;11;13;15;17;19
"784";3;4;7;8;11;13;15;17;19
"785";3;4;7;8;11;13;15;17;19
"786";3;4;7;8;11;13;15;17;19
"787";3;4;7;8;11;13;15;17;19
"788";3;4;7;8;11;13;15;17;19
"789";3;4;7;8;11;13;15;17;19
"790";3;4;7;8;11;13;15;17;19
"791";3;4;7;8;11;13;15;17;19
"792";3;4;7;8;11;13;15;17;19
"793";3;4;7;8;11;13;15;17;19
"794";3;4;7;8;11;13;15;17;18
"795";3;4;7;8;11;13;15;17;19
"796";3;4;7;8;11;13;15;17;19
"797";3;4;7;8;11;13;15;17;19
"798";3;4;7;8;11;13;15;17;19
"799";3;4;7;8;11;13;15;17;19
"800";3;4;7;8;11;13;15;17;19
"801";3;4;7;8;11;13;15;17;19
"802";3;4;7;8;11;13;15;17;19
"803";2;2;2;2;2;2;2;2;2
"804";3;4;7;8;11;13;15;17;19
"805";3;4;7;8;11;13;15;17;19
"806";0;0;0;0;0;0;0;0;0
"807";3;4;7;8;11;13;15;17;19
"808";3;4;7;8;11;13;15;17;19
"809";3;4;7;8;11;13;15;17;19
"810";3;4;7;8;11;13;15;17;19
"811";3;4;7;8;11;13;15;17;19
"812";3;4;7;8;11;13;15;17;19
"813";3;4;7;8;11;13;15;17;19
"814";3;4;7;8;11;13;15;17;19
"815";3;4;7;8;11;13;15;17;19
"816";3;4;7;8;11;13;15;17;19
"817";3;4;7;8;11;13;15;17;19
"818";3;4;7;8;11;13;15;17;19
"819";3;4;7;8;11;13;15;17;19
"820";3;4;7;8;11;13;15;17;19
"821";3;4;7;8;11;13;15;17;19
"822";3;4;7;8;11;13;15;17;19
"823";3;4;7;8;11;13;15;17;19
"824";3;4;7;8;11;13;15;17;19
"825";3;4;7;8;11;13;15;17;19
"826";3;4;7;8;11;13;15;17;19
"827";3;4;7;8;11;13;15;17;19
"828";3;4;7;8;11;13;15;17;19
"829";3;4;7;8;11;13;15;17;19
"830";3;4;7;8;11;13;15;17;19
"831";3;4;7;8;11;13;15;17;19
"832";3;4;7;8;11;13;15;17;19
"833";3;4;7;8;11;13;15;17;19
"834";3;4;7;8;11;13;15;17;19
"835";3;4;7;8;11;13;15;17;19
"836";3;4;7;8;11;13;15;17;19
"837";3;4;7;8;11;13;15;17;19
"838";3;4;7;8;11;13;15;17;19
"839";3;4;7;8;11;13;15;17;19
"840";3;4;7;8;11;13;15;17;19
"841";3;4;7;8;11;13;15;17;19
"842";3;4;7;8;11;13;15;17;19
"843";3;4;7;8;11;13;15;17;19
"844";3;4;7;8;11;13;15;17;19
"845";3;4;7;8;11;13;15;17;19
"846";3;4;7;8;11;13;15;17;19
"847";3;4;7;8;11;13;15;17;19
"848";3;4;7;8;11;13;15;17;19
"849";3;4;7;8;10;10;10;10;10
"850";3;4;7;8;11;13;15;17;19
"851";3;4;7;8;10;10;10;10;10
"852";3;4;7;8;11;13;15;17;19
"853";3;4;7;8;11;13;15;17;19
"854";3;4;7;8;11;13;15;17;19
"855";3;4;7;8;11;13;15;17;19
"856";3;4;7;8;11;13;15;17;19
"857";3;4;7;8;11;13;15;17;19
"858";3;4;7;8;11;13;15;17;19
"859";3;4;7;8;11;13;15;17;19
"860";3;4;7;8;11;13;15;17;19
"861";3;4;7;8;11;13;15;17;19
"862";3;4;7;8;11;13;15;17;19
"863";3;4;7;8;11;13;15;17;19
"864";3;4;7;8;11;13;15;17;19
"865";3;4;7;8;11;13;15;17;19
"866";3;4;7;8;11;13;15;17;19
"867";3;4;7;8;11;13;15;17;19
"868";3;4;7;8;11;13;15;17;19
"869";3;4;7;8;11;13;15;17;19
"870";3;4;7;8;11;13;15;17;19
"871";3;4;7;8;11;13;15;17;19
"872";3;4;7;8;11;13;15;17;19
"873";3;4;7;8;11;13;15;17;19
"874";3;4;7;8;11;13;15;17;19
"875";3;4;7;8;11;13;15;17;19
"876";3;4;7;8;11;13;15;17;19
"877";3;4;7;8;11;13;15;17;19
"878";3;4;7;8;11;13;15;17;19
"879";3;4;7;8;11;13;15;17;19
"880";3;4;7;8;11;13;15;17;19
"881";3;4;7;8;11;13;15;17;19
"882";3;4;7;8;11;13;15;17;19
"883";3;4;7;8;11;13;15;17;19
"884";3;4;7;8;11;13;15;17;19
"885";3;4;7;8;11;13;15;17;19
"886";3;4;7;8;11;13;15;17;19
"887";3;4;7;8;11;13;15;17;19
"888";3;4;7;8;11;13;15;17;19
"889";3;4;7;8;11;13;15;17;19
"890";3;4;7;8;11;13;15;17;19
"891";3;4;7;8;11;13;15;17;19
"892";3;4;7;8;11;13;15;17;19
"893";3;4;7;8;11;13;15;17;19
"894";3;4;7;8;11;13;15;17;19
"895";3;4;7;8;11;13;15;17;19
"896";3;4;7;8;11;13;15;17;19
"897";3;4;7;8;11;13;15;17;19
"898";3;4;7;8;11;13;15;17;19
"899";3;4;7;8;11;13;15;17;19
"900";3;4;7;8;11;13;15;17;19
"901";3;4;7;8;11;13;15;17;19
"902";3;4;7;8;11;13;15;17;19
"903";3;4;7;8;11;13;15;17;19
"904";3;4;7;8;11;13;15;17;19
"905";3;4;7;8;11;13;15;17;19
"906";3;4;7;8;11;13;15;17;19
"907";3;4;7;8;11;13;15;17;19
"908";3;4;7;8;11;13;15;17;19
"909";3;4;7;8;11;13;15;17;19
"910";3;4;7;8;11;13;15;17;19
"911";3;4;7;8;11;13;15;17;19
"912";3;4;7;8;11;13;15;17;19
"913";3;4;7;8;11;13;15;17;19
"914";3;4;7;8;11;13;15;17;19
"915";3;4;7;8;11;13;15;17;19
"916";3;4;7;8;11;13;15;17;19
"917";3;4;6;6;6;6;6;6;6
"918";3;4;7;8;11;13;15;17;19
"919";3;4;7;8;11;13;15;17;19
"920";3;4;7;8;11;13;15;17;19
"921";3;4;7;8;11;13;15;17;19
"922";3;4;7;8;11;13;15;17;19
"923";3;4;7;8;11;13;15;17;19
"924";3;4;6;6;6;6;6;6;6
"925";3;4;7;8;11;13;15;17;19
"926";3;4;7;8;11;13;15;17;19
"927";3;4;7;8;11;13;15;17;19
"928";3;4;7;8;11;13;15;17;19
"929";3;4;7;8;11;13;15;17;19
"930";3;4;7;8;11;13;15;17;19
"931";3;4;7;8;11;13;15;17;19
"932";3;4;7;8;11;13;15;17;19
"933";3;4;7;8;11;13;15;17;19
"934";3;4;7;8;11;13;15;17;19
"935";3;4;7;8;11;13;15;17;19
"936";3;4;7;8;11;13;15;17;19
"937";3;4;7;8;11;13;15;17;19
"938";3;4;7;8;11;13;15;17;19
"939";3;4;7;8;11;13;15;17;19
"940";3;4;7;8;11;13;15;17;19
"941";3;4;7;8;11;13;15;17;19
"942";3;4;7;8;11;13;15;17;19
"943";3;4;7;8;11;13;15;17;19
"944";3;4;7;8;11;13;15;17;19
"945";3;4;7;8;11;13;15;17;19
"946";3;4;7;8;11;13;15;17;19
"947";3;4;7;8;11;13;15;17;19
"948";3;4;7;8;11;13;15;17;19
"949";3;4;7;8;11;13;15;17;19
"950";3;4;7;8;11;13;15;17;19
"951";3;4;7;8;11;13;15;17;19
"952";3;4;7;8;11;13;15;17;19
"953";3;4;7;8;11;13;15;17;19
"954";3;4;7;8;11;13;15;17;19
"955";3;4;7;8;11;13;15;17;19
"956";3;4;7;8;11;13;15;17;19
"957";3;4;7;8;11;13;15;17;19
"958";3;4;7;8;11;13;15;17;19
"959";3;4;7;8;11;13;15;17;19
"960";3;4;7;8;11;13;15;17;19
"961";3;4;7;8;11;13;15;17;19
"962";3;4;7;8;11;13;15;17;19
"963";3;4;7;8;11;13;15;17;19
"964";3;4;7;8;11;13;15;17;19
"965";3;4;7;8;11;13;15;17;19
"966";3;4;7;8;11;13;15;17;19
"967";3;4;7;8;11;13;15;17;19
"968";3;4;7;8;11;13;15;17;19
"969";3;4;7;8;11;13;15;17;19
"970";3;4;7;8;11;13;15;17;19
"971";3;4;7;8;11;13;15;17;19
"972";3;4;7;8;11;13;15;17;19
"973";3;4;7;8;11;13;15;17;19
"974";3;4;7;8;11;13;15;17;19
"975";3;4;7;8;11;13;15;17;19
"976";3;4;7;8;11;13;15;17;19
"977";3;4;7;8;11;13;15;17;19
"978";3;4;7;8;11;13;15;17;19
"979";3;4;7;8;11;13;15;17;19
"980";3;4;7;8;11;13;15;17;19
"981";3;4;7;8;11;13;15;17;19
"982";0;0;0;0;0;0;0;0;0
"983";3;4;7;8;11;13;15;17;19
"984";3;4;7;8;11;13;15;17;19
"985";3;4;7;8;11;13;15;17;19
"986";3;4;7;8;11;13;15;17;19
"987";3;4;7;8;11;13;15;17;19
"988";3;4;7;8;11;13;15;17;19
"989";3;4;7;8;11;13;15;17;19
"990";3;4;7;8;11;13;15;17;19
"991";3;4;7;8;11;13;15;17;19
"992";3;4;7;8;11;13;15;17;19
"993";3;4;7;8;11;13;15;17;19
"994";3;4;7;8;11;13;15;17;19
"995";3;4;7;8;11;13;15;17;19
"996";3;4;7;8;11;13;15;17;19
"997";3;4;7;8;11;13;15;17;19
"998";3;4;7;8;11;13;15;17;19
"999";3;4;7;8;11;13;15;17;19
"1000";3;4;7;8;11;13;15;17;19
"1001";3;4;7;8;11;13;15;17;19
"1002";3;4;7;8;11;13;15;17;19
"1003";3;4;7;8;11;13;15;17;19
"1004";3;4;7;8;11;13;15;17;19
"1005";3;4;7;8;11;13;15;17;19
"1006";3;4;7;8;11;13;15;17;19
"1007";3;4;7;8;11;13;15;17;19
"1008";3;4;7;8;11;13;15;17;19
"1009";3;4;7;8;11;13;15;17;19
"1010";3;4;7;8;11;13;15;17;19
"1011";3;4;7;8;11;13;15;17;19
"1012";3;4;7;8;11;13;15;17;19
"1013";3;4;7;8;11;13;15;17;19
"1014";3;4;7;8;11;13;15;17;19
"1015";3;4;7;8;11;13;15;17;19
"1016";3;4;7;8;11;13;15;17;19
"1017";3;4;7;8;11;13;15;17;19
"1018";3;4;7;8;11;13;15;17;19
"1019";3;4;7;8;11;13;15;17;19
"1020";3;4;7;8;11;13;15;17;19
"1021";3;4;7;8;11;13;15;17;19
"1022";3;4;7;8;11;13;15;17;19
"1023";3;4;7;8;11;13;15;17;19
"1024";3;4;7;8;11;13;15;17;19
"1025";3;4;7;8;11;13;15;17;19
"1026";3;4;7;8;11;13;15;17;19
"1027";3;4;7;8;11;13;15;17;19
"1028";3;4;7;8;11;13;15;17;19
"1029";3;4;7;8;11;13;15;17;19
"1030";3;4;7;8;11;13;15;17;19
"1031";3;4;7;8;11;13;15;17;19
"1032";3;4;7;8;11;13;15;17;19
"1033";3;4;7;8;11;13;15;17;19
"1034";3;4;7;8;11;13;15;17;19
"1035";3;4;7;8;11;13;15;17;19
"1036";3;4;7;8;11;13;15;17;19
"1037";3;4;7;8;11;13;15;17;19
"1038";3;4;7;8;11;13;15;17;19
"1039";3;4;7;8;11;13;15;17;19
"1040";3;4;7;8;11;13;15;17;19
"1041";3;4;7;8;11;13;15;17;19
"1042";3;4;7;8;11;13;15;17;19
"1043";3;4;7;8;11;13;15;17;19
"1044";3;4;7;8;11;13;15;17;19
"1045";3;4;7;8;11;13;15;17;19
"1046";3;4;7;8;11;13;15;17;19
"1047";3;4;7;8;11;13;15;17;19
"1048";3;4;7;8;11;13;15;17;19
"1049";3;4;7;8;11;13;15;17;19
"1050";3;4;7;8;11;13;15;17;19
"1051";3;4;7;8;11;13;15;17;19
"1052";3;4;7;8;11;12;12;12;12
"1053";3;4;7;8;11;13;15;17;19
"1054";3;4;7;8;11;13;15;17;19
"1055";3;4;7;8;11;13;15;17;19
"1056";3;4;7;8;11;13;15;17;19
"1057";3;4;7;8;11;13;15;17;19
"1058";3;4;7;8;11;13;15;17;19
"1059";3;4;7;8;11;13;15;17;19
"1060";3;4;7;8;11;13;15;17;19
"1061";3;4;7;8;11;13;15;17;19
"1062";3;4;7;8;11;13;15;17;19
"1063";3;4;7;8;11;13;15;17;19
"1064";3;4;7;8;11;13;15;17;19
"1065";3;4;7;8;11;13;15;17;19
"1066";3;4;7;8;11;13;15;17;19
"1067";3;4;7;8;11;13;15;17;19
"1068";3;4;7;8;11;13;15;17;19
"1069";3;4;7;8;11;13;15;17;19
"1070";3;4;7;8;11;13;15;17;19
"1071";3;4;7;8;11;13;15;17;19
"1072";3;4;7;8;11;13;15;17;19
"1073";3;4;7;8;11;13;15;17;19
"1074";3;4;7;8;11;13;15;17;19
"1075";3;4;7;8;11;13;15;17;19
"1076";3;4;7;8;11;12;12;12;12
"1077";3;4;7;8;11;13;15;17;19
"1078";3;4;7;8;11;12;12;12;12
"1079";3;4;7;8;11;12;12;12;12
"1080";3;4;7;8;11;13;15;17;19
"1081";3;4;7;8;11;13;15;17;19
"1082";3;4;7;8;11;13;15;17;19
"1083";3;4;7;8;11;13;15;17;19
"1084";3;4;7;8;11;13;15;17;19
"1085";3;4;7;8;11;13;15;17;19
"1086";3;4;7;8;11;13;15;17;19
"1087";3;4;7;8;11;12;12;12;12
"1088";3;4;7;8;11;13;15;17;19
"1089";3;4;7;8;11;13;15;17;19
"1090";3;4;7;8;11;13;15;17;19
"1091";3;4;7;8;11;12;12;12;12
"1092";3;4;7;8;11;13;15;17;19
"1093";3;4;7;8;11;12;12;12;12
"1094";3;4;7;8;11;13;15;17;19
"1095";3;4;7;8;11;12;12;12;12
"1096";3;4;7;8;11;13;15;17;19
"1097";3;4;7;8;11;13;15;17;19
"1098";3;4;7;8;11;13;15;17;19
"1099";3;4;7;8;11;13;15;17;19
"1100";3;4;7;8;11;13;15;17;19
"1101";3;4;7;8;11;13;15;17;19
"1102";3;4;7;8;11;13;15;17;19
"1103";3;4;7;8;11;12;12;12;12
"1104";3;4;7;8;11;13;15;17;19
"1105";3;4;7;8;11;12;12;12;12
"1106";3;4;7;8;11;13;15;17;19
"1107";3;4;7;8;11;13;15;17;19
"1108";3;4;7;8;11;13;15;17;19
"1109";3;4;7;8;11;13;15;17;19
"1110";3;4;7;8;11;13;15;17;19
"1111";3;4;7;8;11;12;12;12;12
"1112";3;4;7;8;11;13;15;17;19
"1113";3;4;7;8;11;13;15;17;19
"1114";3;4;7;8;11;13;15;17;19
"1115";3;4;7;8;11;13;15;17;19
"1116";3;4;7;8;11;13;15;17;19
"1117";3;4;7;8;11;13;15;17;19
"1118";3;4;7;8;11;12;12;12;12
"1119";3;4;7;8;11;13;15;17;19
"1120";3;4;7;8;11;12;12;12;12
"1121";3;4;7;8;11;13;15;17;19
"1122";3;4;7;8;11;13;15;17;19
"1123";3;4;7;8;11;13;15;17;19
"1124";3;4;7;8;11;12;12;12;12
"1125";3;4;7;8;11;13;15;17;19
"1126";3;4;7;8;11;12;12;12;12
"1127";3;4;7;8;11;12;12;12;12
"1128";3;4;7;8;11;12;12;12;12
"1129";3;4;7;8;11;13;15;17;19
"1130";3;4;7;8;11;13;15;17;19
"1131";3;4;7;8;11;13;15;17;19
"1132";3;4;7;8;11;13;15;17;19
"1133";3;4;7;8;11;13;15;17;19
"1134";3;4;7;8;11;13;15;17;19
"1135";3;4;7;8;11;13;15;17;19
"1136";3;4;7;8;11;13;15;17;19
"1137";3;4;7;8;11;13;15;17;19
"1138";3;4;7;8;11;13;15;17;19
"1139";3;4;7;8;11;13;15;17;19
"1140";3;4;7;8;11;12;12;12;12
"1141";3;4;7;8;11;13;15;17;19
"1142";3;4;7;8;11;13;15;17;19
"1143";3;4;7;8;11;13;15;17;19
"1144";3;4;7;8;11;13;15;17;19
"1145";3;4;7;8;11;13;15;17;19
"1146";3;4;7;8;11;13;15;17;19
"1147";3;4;7;8;11;13;15;17;19
"1148";3;4;7;8;11;13;15;17;19
"1149";3;4;7;8;11;13;15;17;19
"1150";3;4;7;8;11;13;15;17;19
"1151";3;4;7;8;11;13;15;17;19
"1152";3;4;7;8;11;13;15;17;19
"1153";3;4;7;8;11;13;15;17;19
"1154";3;4;7;8;11;13;15;17;19
"1155";3;4;7;8;11;13;15;17;19
"1156";3;4;7;8;11;13;15;17;19
"1157";3;4;7;8;11;13;15;17;19
"1158";3;4;7;8;11;13;15;17;19
"1159";3;4;7;8;11;13;15;17;19
"1160";3;4;7;8;11;13;15;17;19
"1161";3;4;7;8;11;13;15;17;19
"1162";3;4;7;8;11;13;15;17;19
"1163";3;4;7;8;11;13;15;17;19
"1164";3;4;7;8;11;13;15;17;19
"1165";3;4;7;8;11;13;15;17;19
"1166";3;4;7;8;11;13;15;17;19
"1167";3;4;7;8;11;13;15;17;19
"1168";3;4;7;8;11;13;15;17;19
"1169";3;4;7;8;11;13;15;17;19
"1170";3;4;7;8;11;13;15;17;19
"1171";3;4;7;8;11;13;15;17;19
"1172";3;4;7;8;11;13;15;17;19
"1173";3;4;7;8;11;13;15;17;19
"1174";3;4;7;8;11;13;15;17;19
"1175";3;4;7;8;11;13;15;17;19
"1176";3;4;7;8;11;13;15;17;19
"1177";3;4;7;8;11;13;15;17;19
"1178";3;4;7;8;11;13;15;17;19
"1179";3;4;7;8;11;13;15;17;19
"1180";3;4;7;8;11;13;15;17;19
"1181";3;4;7;8;11;13;15;17;19
"1182";3;4;7;8;11;13;15;17;19
"1183";3;4;7;8;11;13;15;17;19
"1184";3;4;7;8;11;13;15;17;19
"1185";3;4;7;8;11;13;15;17;19
"1186";3;4;7;8;11;13;15;17;19
"1187";3;4;7;8;11;13;15;17;19
"1188";3;4;7;8;11;13;15;17;19
"1189";3;4;7;8;11;13;15;17;19
"1190";3;4;7;8;11;13;15;17;19
"1191";3;4;7;8;11;13;15;17;19
"1192";3;4;7;8;11;13;15;17;19
"1193";3;4;7;8;11;13;15;17;19
"1194";3;4;7;8;11;13;15;17;19
"1195";3;4;7;8;11;13;15;17;19
"1196";3;4;7;8;11;13;15;17;19
"1197";3;4;7;8;11;13;15;17;19
"1198";3;4;7;8;11;13;15;17;19
"1199";3;4;7;8;11;13;15;17;19
"1200";3;4;7;8;11;13;15;17;19
"1201";3;4;7;8;11;13;15;17;19
"1202";3;4;7;8;11;13;15;17;19
"1203";3;4;7;8;10;10;10;10;10
"1204";3;4;7;8;10;10;10;10;10
"1205";3;4;7;8;11;13;15;17;19
"1206";3;4;7;8;11;13;15;17;19
"1207";3;4;7;8;10;10;10;10;10
"1208";3;4;7;8;11;13;15;17;19
"1209";3;4;7;8;10;10;10;10;10
"1210";3;4;7;8;11;13;15;17;19
"1211";3;4;7;8;11;13;15;17;19
"1212";3;4;7;8;11;13;15;17;19
"1213";3;4;7;8;11;13;15;17;19
"1214";3;4;7;8;11;13;15;17;19
"1215";3;4;7;8;11;13;15;17;19
"1216";3;4;7;8;11;13;15;17;19
"1217";3;4;7;8;11;13;15;17;19
"1218";3;4;7;8;11;13;15;17;19
"1219";3;4;7;8;11;13;15;17;19
"1220";3;4;7;8;11;13;15;17;19
"1221";3;4;7;8;11;13;15;17;19
"1222";3;4;7;8;11;13;15;17;19
"1223";3;4;7;8;11;13;15;17;19
"1224";3;4;7;8;11;13;15;17;19
"1225";3;4;7;8;11;13;15;17;19
"1226";3;4;7;8;11;13;15;17;19
"1227";3;4;7;8;11;13;15;17;19
"1228";3;4;7;8;11;13;15;17;19
"1229";3;4;7;8;11;13;15;17;19
"1230";3;4;7;8;11;13;15;17;19
"1231";3;4;7;8;11;13;15;17;19
"1232";3;4;7;8;11;13;15;17;19
"1233";3;4;7;8;11;13;15;17;19
"1234";3;4;7;8;11;13;15;17;19
"1235";3;4;7;8;11;13;15;17;19
"1236";3;4;7;8;11;13;15;17;19
"1237";3;4;7;8;11;13;15;17;19
"1238";3;4;7;8;11;13;15;17;19
"1239";3;4;7;8;11;13;15;17;19
"1240";3;4;7;8;11;13;15;17;19
"1241";3;4;7;8;11;13;15;17;19
"1242";3;4;7;8;11;13;15;17;19
"1243";3;4;7;8;11;13;15;16;16
"1244";3;4;7;8;11;13;15;16;16
"1245";3;4;7;8;11;13;15;16;16
"1246";3;5;5;5;5;5;5;5;5
"1247";3;4;7;8;11;13;15;16;16
"1248";3;4;7;8;11;13;15;17;19
"1249";3;4;7;8;11;13;15;17;19
"1250";3;4;7;8;11;13;15;17;19
"1251";3;4;7;8;11;13;15;17;19
"1252";3;4;7;8;11;13;15;17;19
"1253";3;4;7;8;11;13;15;17;19
"1254";3;4;7;8;11;13;15;17;19
"1255";3;4;7;8;11;13;15;17;19
"1256";3;4;7;8;11;13;15;17;19
"1257";3;4;7;8;11;13;15;17;19
"1258";3;4;7;8;11;13;15;17;19
"1259";3;4;7;8;11;13;15;16;16
"1260";3;4;7;8;11;13;15;17;19
"1261";3;4;7;8;11;13;15;17;19
"1262";3;4;7;8;11;13;15;17;19
"1263";3;4;7;8;11;13;15;17;19
"1264";3;4;7;8;11;13;15;17;19
"1265";3;4;7;8;11;13;15;17;19
"1266";3;4;7;8;11;13;15;17;19
"1267";3;4;7;8;11;13;15;17;19
"1268";3;4;7;8;11;13;15;17;19
"1269";3;4;7;8;11;13;15;17;19
"1270";3;4;7;8;11;13;15;17;19
"1271";3;4;7;8;11;13;15;17;19
"1272";3;4;7;8;11;13;15;17;19
"1273";3;4;7;8;11;13;15;17;19
"1274";3;4;7;8;11;13;15;17;19
"1275";3;4;7;8;11;13;15;17;19
"1276";3;4;7;8;11;13;15;17;19
"1277";3;4;7;8;11;13;15;17;19
"1278";3;4;7;8;11;13;15;17;19
"1279";3;4;7;8;11;13;15;17;19
"1280";3;4;7;8;11;13;15;17;19
"1281";3;4;7;8;11;13;15;17;19
"1282";3;4;7;8;11;13;15;17;19
"1283";3;4;7;8;11;13;15;17;19
"1284";3;4;7;8;11;13;15;17;19
"1285";3;4;7;8;11;13;15;17;19
"1286";3;4;7;8;11;13;15;17;19
"1287";3;4;7;8;11;13;15;17;19
"1288";3;4;7;8;11;13;15;17;19
"1289";3;4;7;8;11;13;15;17;19
"1290";3;4;7;8;11;13;15;17;19
"1291";3;4;7;8;11;13;15;17;19
"1292";3;4;7;8;11;13;15;17;19
"1293";3;4;7;8;11;13;15;17;19
"1294";3;4;7;8;11;13;15;17;19
"1295";3;4;7;8;11;13;15;17;19
"1296";3;4;7;8;11;13;15;17;19
"1297";3;4;7;8;11;13;15;17;19
"1298";3;4;7;8;11;13;15;17;19
"1299";3;4;7;8;11;13;15;17;19
"1300";3;4;7;8;11;13;15;17;19
"1301";3;4;7;8;11;13;15;17;19
"1302";3;4;7;8;11;13;15;17;19
"1303";3;4;7;8;11;13;15;17;19
"1304";3;4;7;8;11;13;15;17;19
"1305";3;4;7;8;11;13;15;17;19
"1306";3;4;7;8;11;13;15;17;19
"1307";3;4;7;8;11;13;15;17;19
"1308";3;4;7;8;11;13;15;17;19
"1309";3;4;7;8;11;13;15;17;19
"1310";3;4;7;8;11;13;15;17;19
"1311";3;4;7;8;11;13;15;17;19
"1312";3;4;7;8;11;13;15;17;19
"1313";3;4;7;8;11;13;15;17;19
"1314";3;4;7;8;11;13;15;17;19
"1315";3;4;7;8;11;13;15;17;19
"1316";3;4;7;8;11;13;15;17;19
"1317";3;4;7;8;11;13;15;17;19
"1318";3;4;7;8;11;13;15;17;19
"1319";3;4;7;8;11;13;15;17;19
"1320";3;4;7;8;11;13;15;17;19
"1321";3;4;7;8;11;13;15;17;19
"1322";3;4;7;8;11;13;15;17;19
"1323";3;4;7;8;11;13;15;17;19
"1324";3;4;7;8;11;13;15;17;19
"1325";3;4;7;8;11;13;15;17;19
"1326";3;4;7;8;11;13;15;17;19
"1327";3;4;7;8;11;13;15;17;19
"1328";3;4;7;8;11;13;15;17;19
"1329";3;4;7;8;11;13;15;17;19
"1330";3;4;7;8;11;13;15;17;19
"1331";3;4;7;8;11;13;15;17;19
"1332";3;4;7;8;11;13;15;17;19
"1333";3;4;7;8;11;13;15;17;19
"1334";3;4;7;8;11;13;15;17;19
"1335";3;4;7;8;11;13;15;17;19
"1336";3;4;7;8;11;13;15;17;19
"1337";3;4;7;8;11;13;15;17;19
"1338";3;4;7;8;11;13;15;17;19
"1339";3;4;7;8;11;13;15;17;19
"1340";3;4;7;8;11;13;15;17;19
"1341";3;4;7;8;11;13;15;17;19
"1342";3;4;7;8;11;13;15;17;19
"1343";3;4;7;8;11;13;15;17;19
"1344";3;4;7;8;11;13;15;17;19
"1345";3;4;7;8;11;13;15;17;19
"1346";3;4;7;8;11;13;15;17;19
"1347";3;4;7;8;11;13;15;17;19
"1348";3;4;7;8;11;13;15;17;19
"1349";3;4;7;8;11;13;15;17;19
"1350";3;4;7;8;11;13;15;17;19
"1351";3;4;7;8;11;13;15;17;19
"1352";3;4;7;8;11;13;15;17;19
"1353";3;4;7;8;11;13;15;17;19
"1354";3;4;7;8;11;13;15;17;19
"1355";3;4;7;8;11;13;15;17;19
"1356";3;4;7;8;11;13;15;17;19
"1357";3;4;7;8;11;13;15;17;19
"1358";3;4;7;8;11;13;15;17;19
"1359";3;4;7;8;11;13;15;17;19
"1360";3;4;7;8;11;13;15;17;19
"1361";3;4;7;8;11;13;15;17;19
"1362";3;4;7;8;11;13;15;17;19
"1363";3;4;7;8;11;13;15;17;19
"1364";3;4;7;8;11;13;15;17;19
"1365";3;4;7;8;11;13;15;17;19
"1366";3;4;7;8;11;13;15;17;19
"1367";3;4;7;8;11;13;15;17;19
"1368";3;4;7;8;11;13;15;17;19
"1369";3;4;7;8;11;13;15;17;19
"1370";3;4;7;8;11;13;15;17;19
"1371";3;4;7;8;11;13;15;17;19
"1372";3;4;7;8;11;13;15;17;19
"1373";3;4;7;8;11;13;15;17;19
"1374";3;4;7;8;11;13;15;17;19
"1375";3;4;7;8;11;13;15;17;19
"1376";3;4;7;8;11;13;15;17;19
"1377";3;4;7;8;11;13;15;17;19
"1378";3;4;7;8;11;13;15;17;19
"1379";3;4;7;8;11;13;15;17;19
"1380";3;4;7;8;11;13;15;17;19
"1381";3;4;7;8;11;13;15;17;19
"1382";3;4;7;8;11;13;15;17;19
"1383";3;4;7;8;11;13;15;17;18
"1384";3;4;7;8;11;13;15;17;19
"1385";3;4;7;8;11;13;15;17;19
"1386";3;4;7;8;11;13;15;17;19
"1387";3;4;7;8;11;13;15;17;19
"1388";3;4;7;8;11;13;15;17;19
"1389";3;4;7;8;11;13;15;17;19
"1390";3;4;7;8;11;13;15;17;19
"1391";3;4;7;8;11;13;15;17;19
"1392";3;4;7;8;11;13;15;17;19
"1393";3;4;7;8;11;13;15;17;19
"1394";3;4;7;8;11;13;15;17;19
"1395";3;4;7;8;11;13;15;17;19
"1396";3;4;7;8;11;13;15;17;19
"1397";3;4;7;8;11;13;15;17;19
"1398";3;4;7;8;11;13;15;17;19
"1399";3;4;7;8;11;13;15;17;19
"1400";3;4;7;8;11;13;15;17;19
"1401";3;4;7;8;11;13;15;17;19
"1402";3;4;7;8;11;13;15;17;19
"1403";3;4;7;8;11;13;15;17;19
"1404";3;4;7;8;11;13;15;17;19
"1405";3;4;7;8;11;13;15;17;19
"1406";3;4;7;8;11;13;15;17;19
"1407";3;4;7;8;11;13;15;17;19
"1408";3;4;7;8;11;13;15;17;19
"1409";3;4;7;8;11;13;15;17;19
"1410";3;4;7;8;11;13;15;17;19
"1411";3;4;7;8;11;13;15;17;19
"1412";3;4;7;8;11;13;15;17;19
"1413";3;4;7;8;11;13;15;17;19
"1414";3;4;7;8;11;13;15;17;19
"1415";3;4;7;8;11;13;15;17;19
"1416";3;4;7;8;11;13;15;17;19
"1417";3;4;7;8;11;13;15;17;19
"1418";3;4;7;8;11;13;15;17;19
"1419";3;4;7;8;11;13;15;17;19
"1420";3;4;7;8;11;13;15;17;19
"1421";3;4;7;8;11;13;15;17;19
"1422";3;4;7;8;11;13;15;17;19
"1423";3;4;7;8;11;13;15;17;19
"1424";3;4;7;8;11;13;15;17;19
"1425";3;4;7;8;11;13;15;17;19
"1426";3;4;7;8;11;13;15;17;19
"1427";3;4;7;8;11;13;15;17;19
"1428";3;4;7;8;11;13;15;17;19
"1429";3;4;7;8;11;13;15;17;19
"1430";3;4;7;8;11;13;15;17;19
"1431";3;4;7;8;11;13;15;17;19
"1432";3;4;7;8;11;13;15;17;19
"1433";3;4;7;8;11;13;15;17;19
"1434";3;4;7;8;11;13;15;17;19
"1435";3;4;7;8;11;13;15;17;19
"1436";3;4;7;8;11;13;15;17;19
"1437";3;4;7;8;11;13;15;17;19
"1438";3;4;7;8;11;13;15;17;19
"1439";3;4;7;8;11;13;15;17;19
"1440";3;4;7;8;11;13;15;17;19
"1441";3;4;7;8;11;13;15;17;19
"1442";3;4;7;8;11;13;15;17;19
"1443";3;4;7;8;11;13;15;17;19
"1444";3;4;7;8;11;13;15;17;19
"1445";3;4;7;8;11;13;15;17;19
"1446";3;4;7;8;11;13;15;17;19
"1447";3;4;7;8;11;13;15;17;19
"1448";3;4;7;8;11;13;15;17;19
"1449";3;4;7;8;11;13;15;17;19
"1450";3;4;7;8;11;13;15;17;19
"1451";3;4;7;8;11;13;15;17;19
"1452";3;4;7;8;11;13;15;17;19
"1453";3;4;7;8;11;13;15;17;19
"1454";3;4;7;8;11;13;15;17;19
"1455";3;4;7;8;11;13;15;17;19
"1456";3;4;7;8;11;13;15;17;19
"1457";3;4;7;8;11;13;15;17;19
"1458";3;4;7;8;11;13;15;17;19
"1459";3;4;7;8;11;13;15;17;19
"1460";3;4;7;8;11;13;15;17;19
"1461";3;4;7;8;11;13;15;17;19
"1462";3;4;7;8;11;13;15;17;19
"1463";3;4;7;8;11;13;15;17;19
"1464";3;4;7;8;11;13;15;17;19
"1465";3;4;7;8;11;13;15;17;19
"1466";3;4;7;8;11;13;15;17;19
"1467";3;4;7;8;11;13;15;17;19
"1468";3;4;7;8;11;13;15;17;19
"1469";3;4;7;8;11;13;15;17;19
"1470";3;4;7;8;11;13;15;17;19
"1471";3;4;7;8;11;13;15;17;19
"1472";3;4;7;8;11;13;15;17;19
"1473";3;4;7;8;11;13;15;17;19
"1474";3;4;7;8;11;13;15;17;19
"1475";3;4;7;8;11;13;15;17;19
"1476";3;4;7;8;11;13;15;17;19
"1477";3;4;7;8;11;13;15;17;19
"1478";3;4;7;8;11;13;15;17;19
"1479";3;4;7;8;11;13;15;17;19
"1480";3;4;7;8;11;13;15;17;19
"1481";3;4;7;8;11;13;15;17;19
"1482";3;4;7;8;11;13;15;17;19
"1483";3;4;7;8;11;13;15;17;19
"1484";3;4;7;8;11;13;15;17;19
"1485";3;4;7;8;11;13;15;17;19
"1486";3;4;7;8;11;13;15;17;19
"1487";3;4;7;8;11;13;15;17;19
"1488";3;4;7;8;11;13;15;17;19
"1489";3;4;7;8;11;13;15;17;19
"1490";3;4;7;8;11;13;15;17;19
"1491";3;4;7;8;11;13;15;17;19
"1492";3;4;7;8;11;13;15;17;19
"1493";3;4;7;8;11;13;15;17;19
"1494";3;4;7;8;11;13;15;17;19
"1495";3;4;7;8;11;13;15;17;19
"1496";3;4;7;9;9;9;9;9;9
"1497";3;4;7;8;11;13;15;17;19
"1498";3;4;7;8;11;13;15;17;19
"1499";3;4;7;8;11;13;15;17;19
"1500";3;4;7;8;11;13;15;17;19
"1501";3;4;7;8;11;13;15;17;19
"1502";3;4;7;9;9;9;9;9;9
"1503";3;4;7;8;11;13;15;17;19
"1504";3;4;7;8;11;13;15;17;19
"1505";3;4;7;8;11;13;15;17;19
"1506";3;4;7;8;11;13;15;17;19
"1507";3;4;7;8;11;13;15;17;19
"1508";3;4;7;8;11;13;15;17;19
"1509";3;4;7;8;11;13;15;17;19
"1510";3;4;7;8;11;13;15;17;19
"1511";3;4;7;8;11;13;15;17;19
"1512";3;4;7;8;11;13;15;17;19
"1513";3;4;7;8;11;13;15;17;19
"1514";3;4;7;8;11;13;15;17;19
"1515";3;4;7;8;11;13;15;17;19
"1516";3;4;7;8;11;13;15;17;19
"1517";3;4;7;8;11;13;15;17;19
"1518";3;4;7;8;11;13;15;17;19
"1519";3;4;7;8;11;13;15;17;19
"1520";3;4;7;8;11;13;15;17;19
"1521";3;4;7;8;11;13;15;17;19
"1522";3;4;7;8;11;13;15;17;19
"1523";3;4;7;8;11;13;15;17;19
"1524";3;4;7;8;11;13;15;17;19
"1525";3;4;7;8;11;13;15;17;19
"1526";3;4;7;8;11;13;15;17;19
"1527";3;4;7;8;11;13;15;17;19
"1528";3;4;7;8;11;13;15;17;19
"1529";3;4;7;8;11;13;15;17;19
"1530";3;4;7;8;11;13;15;17;19
"1531";3;4;7;8;11;13;15;17;19
"1532";3;4;7;8;11;13;15;17;19
"1533";3;4;7;8;11;13;15;17;19
"1534";3;4;7;8;11;13;15;17;19
"1535";3;4;7;8;11;13;15;17;19
"1536";3;4;7;8;11;13;15;17;19
"1537";3;4;7;8;11;13;15;17;19
"1538";3;4;7;8;11;13;15;17;19
"1539";3;4;7;8;11;13;15;17;19
"1540";3;4;7;8;11;13;15;17;19
"1541";3;4;7;8;11;13;15;17;19
"1542";3;4;7;8;11;13;15;17;19
"1543";3;4;7;8;11;13;15;17;19
"1544";3;4;7;8;11;13;15;17;19
"1545";3;4;7;8;11;13;15;17;19
"1546";3;4;7;8;11;13;15;17;19
"1547";3;4;7;8;11;13;15;17;19
"1548";3;4;7;8;11;13;15;17;19
"1549";3;4;7;8;11;13;15;17;19
"1550";3;4;7;8;11;13;15;17;19
"1551";3;4;7;8;11;13;15;17;19
"1552";3;4;7;8;11;13;15;17;19
"1553";3;4;7;8;11;13;15;17;19
"1554";3;4;7;8;11;13;15;17;19
"1555";3;4;7;8;11;13;15;17;19
"1556";3;4;7;8;11;13;15;17;19
"1557";3;4;7;8;11;13;15;17;19
"1558";3;4;7;8;11;13;15;17;19
"1559";3;4;7;8;11;13;15;17;19
"1560";3;4;7;8;11;13;15;17;19
"1561";3;4;7;8;11;13;15;17;19
"1562";3;4;7;8;11;13;15;17;19
"1563";3;4;7;8;11;13;15;17;19
"1564";3;4;7;8;11;13;15;17;19
"1565";3;4;7;8;11;13;15;17;19
"1566";3;4;7;8;11;13;15;17;19
"1567";3;4;7;8;11;13;15;17;19
"1568";3;4;7;8;11;13;15;17;19
"1569";3;4;7;8;11;13;15;17;19
"1570";3;4;7;8;11;13;15;17;19
"1571";3;4;7;8;11;13;15;17;19
"1572";3;4;7;8;11;13;15;17;19
"1573";3;4;7;8;11;13;15;17;19
"1574";3;4;7;8;11;13;15;17;19
"1575";3;4;7;8;11;13;15;17;19
"1576";3;4;7;8;11;13;15;17;19
"1577";3;4;7;8;11;13;15;17;19
"1578";3;4;7;8;11;13;15;17;19
"1579";3;4;7;8;11;13;15;17;19
"1580";3;4;7;8;11;13;15;17;19
"1581";3;4;7;8;11;13;15;17;19
"1582";3;4;7;8;11;13;15;17;19
"1583";3;4;7;8;11;13;15;17;19
"1584";3;4;7;8;11;13;15;17;19
"1585";3;4;7;8;11;13;15;17;19
"1586";3;4;7;8;11;13;15;17;19
"1587";3;4;7;8;11;13;15;17;19
"1588";3;4;7;8;11;13;15;17;19
"1589";3;4;7;8;11;13;15;17;19
"1590";3;4;7;8;11;13;15;17;19
"1591";3;4;7;8;11;13;15;17;19
"1592";3;4;7;8;11;13;15;17;19
"1593";3;4;7;8;11;13;15;17;19
"1594";3;4;7;8;11;13;15;17;19
"1595";3;4;7;8;11;13;15;17;19
"1596";3;4;7;8;11;13;15;17;19
"1597";3;4;7;8;11;13;15;17;19
"1598";3;4;7;8;11;13;15;17;19
"1599";3;4;7;8;11;13;15;17;19
"1600";3;4;7;8;11;13;15;17;19
"1601";3;4;7;8;11;13;15;17;19
"1602";3;4;7;8;11;13;15;17;19
"1603";3;4;7;8;11;13;15;17;19
"1604";3;4;7;8;11;13;15;17;19
"1605";3;4;7;8;11;13;15;17;19
"1606";3;4;7;8;11;13;15;17;19
"1607";3;4;7;8;11;13;15;17;19
"1608";3;4;7;8;11;13;15;17;19
"1609";3;4;7;8;11;13;15;17;19
"1610";3;4;7;8;11;13;15;17;19
"1611";3;4;7;8;11;13;15;17;19
"1612";3;4;7;8;11;13;15;17;19
"1613";3;4;7;8;11;13;15;17;19
"1614";3;4;7;8;11;13;15;17;19
"1615";3;4;7;8;11;13;15;17;19
"1616";3;4;7;8;11;13;15;17;19
"1617";3;5;5;5;5;5;5;5;5
"1618";3;4;7;8;11;13;15;17;19
"1619";3;4;7;8;11;13;15;17;19
"1620";3;4;7;8;11;13;15;17;19
"1621";3;4;7;8;11;13;15;17;19
"1622";3;4;7;8;11;13;15;17;19
"1623";3;4;7;8;11;13;15;17;19
"1624";3;4;7;8;11;13;15;17;19
"1625";3;4;7;8;11;13;15;17;19
"1626";3;4;7;8;11;13;15;17;19
"1627";3;4;7;8;11;13;15;17;19
"1628";3;4;7;8;11;13;15;17;19
"1629";3;4;7;8;11;13;15;17;19
"1630";3;4;7;8;11;13;15;17;19
"1631";3;4;7;8;11;13;15;17;19
"1632";3;4;7;8;11;13;15;17;19
"1633";3;4;7;8;11;13;15;17;19
"1634";3;4;7;8;11;13;15;17;19
"1635";3;4;7;8;11;13;15;17;19
"1636";3;4;7;8;11;13;15;17;19
"1637";3;4;7;8;11;13;15;17;19
"1638";3;4;7;8;11;13;15;17;19
"1639";3;4;7;8;11;13;15;17;19
"1640";3;4;7;8;11;13;15;17;19
"1641";3;4;7;8;11;13;15;17;19
"1642";3;4;7;8;11;13;15;17;19
"1643";3;4;7;8;11;13;15;17;19
"1644";3;4;7;8;11;13;15;17;19
"1645";3;4;7;8;11;13;15;17;19
"1646";3;4;7;8;11;13;15;17;19
"1647";3;4;7;8;11;13;15;17;19
"1648";3;4;7;8;11;13;15;17;19
"1649";3;4;7;8;11;13;15;17;19
"1650";3;4;7;8;11;13;15;17;19
"1651";3;4;7;8;11;13;15;17;19
"1652";3;4;7;8;11;13;15;17;19
"1653";3;4;7;8;11;13;15;17;19
"1654";3;4;7;8;11;13;15;17;19
"1655";3;4;7;8;11;13;15;17;19
"1656";3;4;7;8;11;13;14;14;14
"1657";3;4;7;8;11;13;15;17;19
"1658";3;4;7;8;11;13;15;17;19
"1659";3;4;7;8;11;13;15;17;19
"1660";3;4;7;8;11;13;15;17;19
"1661";3;4;7;8;11;13;15;17;19
"1662";3;4;7;8;11;13;15;17;19
"1663";3;4;7;8;11;13;15;17;19
"1664";3;4;7;8;11;13;15;17;19
"1665";3;4;7;8;11;13;15;17;19
"1666";3;4;7;8;11;13;15;17;19
"1667";3;4;7;8;11;13;15;17;19
"1668";3;4;7;8;11;13;15;17;19
"1669";3;4;7;8;11;13;15;17;19
"1670";3;4;7;8;11;13;15;17;19
"1671";3;4;7;8;11;13;15;17;19
"1672";3;4;7;8;11;13;15;17;19
"1673";3;4;7;8;11;13;15;17;19
"1674";3;4;7;8;11;13;15;17;19
"1675";3;4;7;8;11;13;15;17;19
"1676";3;4;7;8;10;10;10;10;10
"1677";3;4;7;8;11;13;15;17;19
"1678";3;4;7;8;11;13;15;17;19
"1679";3;4;7;8;11;13;15;17;19
"1680";3;4;7;8;11;13;15;17;19
"1681";3;4;7;8;11;13;15;17;19
"1682";3;4;7;8;11;13;15;17;19
"1683";3;4;7;8;11;13;15;17;19
"1684";3;4;7;8;11;13;15;17;19
"1685";3;4;7;8;11;13;15;17;19
"1686";3;4;7;8;11;13;15;17;19
"1687";3;4;7;8;11;13;15;17;19
"1688";3;4;7;8;11;13;15;17;19
"1689";3;4;7;8;11;13;15;17;19
"1690";3;4;7;8;11;13;15;17;19
"1691";3;4;7;8;11;13;15;17;19
"1692";3;4;7;8;11;13;15;17;19
"1693";3;4;7;8;11;13;15;17;19
"1694";3;4;7;8;11;13;15;17;19
"1695";3;4;7;8;11;13;15;17;19
"1696";3;4;7;8;11;13;15;17;19
"1697";3;4;7;8;11;13;15;17;19
"1698";3;4;7;8;11;13;15;17;19
"1699";3;4;7;8;11;13;15;17;19
"1700";3;4;7;8;11;13;15;17;19
"1701";3;4;7;8;11;13;15;17;19
"1702";3;4;7;8;11;13;15;17;19
"1703";3;4;7;8;11;13;15;17;19
"1704";3;4;7;8;11;13;15;17;19
"1705";3;4;7;8;11;13;15;17;19
"1706";3;4;7;8;11;13;15;17;19
"1707";3;4;7;8;11;13;15;17;19
"1708";3;4;7;8;11;13;15;17;19
"1709";3;4;7;8;11;13;15;17;19
"1710";3;4;7;8;11;13;15;17;19
"1711";3;4;7;8;11;13;15;17;19
"1712";3;4;7;8;11;13;15;17;19
"1713";3;4;7;8;11;13;15;17;19
"1714";3;4;7;8;11;13;15;17;19
"1715";3;4;7;8;11;13;15;17;19
"1716";3;4;7;8;11;13;15;17;19
"1717";3;4;7;8;11;13;15;17;19
"1718";3;4;7;8;11;13;15;17;19
"1719";3;4;7;8;11;13;15;17;19
"1720";3;4;7;8;11;13;15;17;19
"1721";3;4;7;8;11;13;15;17;19
"1722";3;4;7;8;11;13;15;17;19
"1723";3;4;7;8;11;13;15;17;19
"1724";3;4;7;8;11;13;15;17;19
"1725";3;4;7;8;11;13;15;17;19
"1726";3;4;7;8;11;13;15;17;19
"1727";3;4;7;8;11;13;15;17;19
"1728";3;4;7;8;11;13;15;17;19
"1729";3;4;7;8;11;13;15;17;19
"1730";3;4;7;8;11;13;15;17;19
"1731";3;4;7;8;11;13;15;17;19
"1732";3;4;7;8;11;13;15;17;19
"1733";3;4;7;8;11;13;15;17;19
"1734";3;4;7;8;11;13;15;17;19
"1735";3;4;7;8;11;13;15;17;19
"1736";3;4;7;8;11;13;15;17;19
"1737";3;4;7;8;11;13;15;17;19
"1738";3;4;7;8;11;13;15;17;19
"1739";3;4;7;8;11;13;15;17;19
"1740";3;4;7;8;11;13;15;17;19
"1741";3;4;7;8;11;13;15;17;19
"1742";3;4;7;8;11;13;15;17;19
"1743";3;4;7;8;11;13;15;16;16
"1744";3;4;7;8;11;13;15;17;19
"1745";3;4;7;8;11;13;15;17;19
"1746";3;4;7;8;11;13;15;17;19
"1747";3;4;7;8;11;13;15;17;19
"1748";3;4;7;8;11;13;15;17;19
"1749";3;4;7;8;11;13;15;17;19
"1750";3;4;7;8;11;13;15;17;19
"1751";3;4;7;8;11;13;15;17;19
"1752";3;4;7;8;11;13;15;17;19
"1753";3;4;7;8;11;13;15;17;19
"1754";3;4;7;8;11;13;15;17;19
"1755";3;4;7;8;11;13;15;17;19
"1756";3;4;7;8;11;13;15;17;19
"1757";3;4;7;8;11;13;15;17;19
"1758";3;4;7;8;11;13;15;17;19
"1759";3;4;7;8;11;13;15;17;19
"1760";3;4;7;8;11;13;15;17;19
"1761";3;4;7;8;11;13;15;17;19
"1762";3;4;7;8;11;13;15;17;19
"1763";3;4;7;8;11;13;15;17;19
"1764";3;4;7;8;11;13;15;17;19
"1765";3;4;7;8;11;13;15;17;19
"1766";3;4;7;8;11;13;15;17;19
"1767";3;4;7;8;11;13;15;17;19
"1768";3;4;7;8;11;13;15;17;19
"1769";3;4;7;8;11;13;15;17;19
"1770";3;4;7;8;11;13;15;17;19
"1771";3;4;7;8;11;13;15;17;19
"1772";3;4;7;8;11;13;15;17;19
"1773";3;4;7;8;11;13;15;17;19
"1774";3;4;7;8;11;13;15;17;19
"1775";3;4;7;8;11;13;15;17;19
"1776";3;4;7;8;11;13;15;17;19
"1777";3;4;7;8;11;13;15;17;19
"1778";3;4;7;8;11;13;15;17;19
"1779";3;4;7;8;11;13;15;17;19
"1780";3;4;7;8;11;13;15;17;19
"1781";3;4;7;8;11;13;15;17;19
"1782";3;4;7;8;11;13;15;17;19
"1783";3;4;7;8;11;13;15;17;19
"1784";3;4;7;8;11;13;15;17;19
"1785";3;4;7;8;11;13;15;17;19
"1786";3;4;7;8;11;13;15;17;19
"1787";3;4;7;8;11;13;15;17;19
"1788";3;4;7;8;11;13;15;17;19
"1789";3;4;7;8;11;13;15;17;19
"1790";3;4;7;8;11;13;15;17;19
"1791";3;4;7;8;11;13;15;17;19
"1792";3;4;7;8;11;13;15;17;19
"1793";3;4;7;8;11;13;15;17;19
"1794";3;4;7;8;11;13;15;17;19
"1795";3;4;7;8;11;13;15;17;19
"1796";3;4;7;8;11;13;15;17;19
"1797";3;4;7;8;11;13;15;17;19
"1798";3;4;7;8;11;13;15;17;19
"1799";3;4;7;8;11;13;15;17;19
"1800";3;4;7;8;11;13;15;17;19
"1801";3;4;7;8;11;13;15;17;19
"1802";3;4;7;8;11;13;15;17;19
"1803";3;4;7;8;11;13;15;17;19
"1804";3;4;7;8;11;13;15;17;19
"1805";3;4;7;8;11;13;15;17;19
"1806";3;4;7;8;11;13;15;17;19
"1807";3;4;7;8;11;13;15;17;19
"1808";3;4;7;8;11;13;15;17;19
"1809";3;4;7;8;11;13;15;17;19
"1810";3;4;7;8;11;13;15;17;19
"1811";3;4;7;8;11;13;15;17;19
"1812";3;4;7;8;11;13;15;17;19
"1813";3;4;7;8;11;13;15;17;19
"1814";3;4;7;8;11;13;15;17;19
"1815";3;4;7;8;11;13;15;17;19
"1816";3;4;7;8;11;13;15;17;19
"1817";3;4;7;8;11;13;15;17;19
"1818";3;4;7;8;11;13;15;17;19
"1819";3;4;7;8;11;13;15;17;19
"1820";3;4;7;8;11;13;15;17;19
"1821";3;4;7;8;11;13;15;17;19
"1822";3;4;7;8;11;13;15;17;19
"1823";3;4;7;8;11;13;15;17;19
"1824";3;4;7;8;11;13;15;17;19
"1825";3;4;7;8;11;13;15;17;19
"1826";3;4;7;8;10;10;10;10;10
"1827";3;4;7;8;11;13;15;17;19
"1828";3;4;7;8;11;13;15;17;19
"1829";3;4;7;8;11;13;15;17;19
"1830";3;4;7;8;11;13;15;17;19
"1831";3;4;7;8;11;13;15;17;19
"1832";3;4;7;8;11;13;15;17;19
"1833";3;4;7;8;11;13;15;17;19
"1834";3;4;7;8;11;13;15;17;19
"1835";3;4;7;8;11;13;15;17;19
"1836";3;4;7;8;11;13;15;17;19
"1837";3;4;7;8;11;13;15;17;19
"1838";3;4;7;8;11;13;15;17;19
"1839";3;4;7;8;11;13;15;17;19
"1840";3;4;7;8;11;13;15;17;19
"1841";3;4;7;8;11;13;15;17;19
"1842";3;4;7;8;11;13;15;17;19
"1843";3;4;7;8;11;13;15;17;19
"1844";3;4;7;8;11;13;15;17;19
"1845";3;4;7;8;11;13;15;17;19
"1846";3;4;7;8;11;13;15;17;19
"1847";3;4;7;8;11;13;15;17;19
"1848";3;4;7;8;11;13;15;17;19
"1849";3;4;7;8;11;13;15;17;19
"1850";3;4;7;8;11;13;15;17;19
"1851";3;4;7;8;11;13;15;17;19
"1852";3;4;7;8;11;13;15;17;19
"1853";3;4;7;8;11;13;15;17;19
"1854";3;4;7;8;11;13;15;17;19
"1855";3;4;7;8;11;13;15;17;19
"1856";3;4;7;8;11;13;15;17;19
"1857";3;4;7;8;11;13;15;17;19
"1858";3;4;7;8;11;13;15;17;19
"1859";3;4;7;8;11;13;15;17;19
"1860";3;4;7;8;11;13;15;17;19
"1861";3;4;7;8;11;13;15;17;19
"1862";3;4;7;8;11;13;15;17;19
"1863";3;4;7;8;11;13;15;17;19
"1864";3;4;7;8;11;13;15;17;19
"1865";3;4;7;8;11;13;15;17;19
"1866";3;4;7;8;11;13;15;17;19
"1867";3;4;7;8;11;13;15;17;19
"1868";3;4;7;8;11;13;15;17;19
"1869";3;4;7;8;11;13;15;17;19
"1870";3;4;7;8;11;13;15;17;19
"1871";3;4;7;8;11;13;15;17;19
"1872";3;4;7;8;11;13;15;17;19
"1873";3;4;7;8;11;13;15;17;19
"1874";3;4;7;8;11;13;15;17;19
"1875";3;4;7;8;11;13;15;17;19
"1876";3;4;7;8;11;13;15;17;19
"1877";3;4;7;8;11;13;15;17;19
"1878";3;4;7;8;11;13;15;17;19
"1879";3;4;7;8;11;13;15;17;19
"1880";3;4;7;8;11;13;15;17;19
"1881";3;4;7;8;11;13;15;17;19
"1882";3;4;7;8;11;13;15;17;19
"1883";3;4;7;8;11;13;15;17;19
"1884";3;4;7;8;11;13;15;17;19
"1885";3;4;7;8;11;13;15;17;19
"1886";3;4;7;8;11;13;15;17;19
"1887";3;4;7;8;11;13;15;17;19
"1888";3;4;7;8;11;13;15;17;19
"1889";3;4;7;8;11;13;15;17;19
"1890";3;4;7;8;11;13;15;17;19
"1891";3;4;7;8;11;13;15;17;19
"1892";3;4;7;8;11;13;15;17;19
"1893";3;4;7;8;11;13;15;17;19
"1894";3;4;7;8;11;13;15;17;19
"1895";3;4;7;8;11;13;15;17;19
"1896";3;4;7;8;11;13;15;17;19
"1897";3;4;7;8;11;13;15;17;19
"1898";3;4;7;8;11;13;15;17;19
"1899";3;4;7;8;11;13;15;17;19
"1900";3;4;7;8;11;13;15;17;19
"1901";3;4;7;8;11;13;15;17;19
"1902";3;4;7;8;11;13;15;17;19
"1903";3;4;7;8;11;13;15;17;19
"1904";3;4;7;8;11;13;15;17;19
"1905";3;4;7;8;11;13;15;17;19
"1906";3;4;7;8;11;13;15;17;19
"1907";3;4;7;8;11;13;15;17;19
"1908";3;4;7;8;11;13;15;17;19
"1909";3;4;7;8;11;13;15;17;19
"1910";3;4;7;8;11;13;15;17;19
"1911";3;4;7;8;11;13;15;17;19
"1912";3;4;7;8;11;13;15;17;19
"1913";3;4;7;8;11;13;15;17;19
"1914";3;4;7;8;11;13;15;17;19
"1915";3;4;7;8;11;13;15;17;19
"1916";3;4;7;8;11;13;15;17;19
"1917";3;4;7;8;11;13;15;17;19
"1918";3;4;7;8;11;13;15;17;19
"1919";3;4;7;8;11;13;15;17;19
"1920";3;4;7;8;11;13;15;17;19
"1921";3;4;7;8;11;13;15;17;19
"1922";3;4;7;8;11;13;15;17;19
"1923";3;4;7;9;9;9;9;9;9
"1924";3;4;7;8;11;13;15;17;19
"1925";3;4;7;8;11;13;15;17;19
"1926";3;4;7;8;11;13;15;17;19
"1927";3;4;7;8;11;13;15;17;19
"1928";3;4;7;8;11;13;15;17;19
"1929";3;4;7;8;11;13;15;17;19
"1930";3;4;7;8;11;13;15;17;19
"1931";3;4;7;8;11;13;15;17;19
"1932";3;4;7;8;11;13;15;17;19
"1933";3;4;7;8;11;13;15;17;19
"1934";3;4;7;8;11;13;15;17;19
"1935";3;4;7;8;11;13;15;17;19
"1936";3;0;0;0;0;0;0;0;0
"1937";3;4;7;8;11;13;15;17;19
"1938";3;4;7;8;11;13;15;17;19
"1939";3;4;7;8;11;13;15;17;19
"1940";3;4;7;8;11;13;15;17;19
"1941";3;4;7;8;11;13;15;17;19
"1942";3;4;7;8;11;13;15;17;19
"1943";3;4;7;8;11;13;15;17;19
"1944";3;4;7;8;11;13;15;17;19
"1945";3;4;7;8;11;13;15;17;19
"1946";3;4;7;8;11;13;15;17;19
"1947";3;4;7;8;11;13;15;17;19
"1948";3;4;7;8;11;13;15;17;19
"1949";3;4;7;8;11;13;15;17;19
"1950";3;4;7;8;11;13;15;17;19
"1951";3;4;7;8;11;13;15;17;19
"1952";3;4;7;8;11;13;15;17;19
"1953";3;4;7;8;11;13;15;17;19
"1954";3;4;7;8;11;13;15;17;19
"1955";3;4;7;8;11;13;15;17;19
"1956";3;4;7;8;11;13;15;17;19
"1957";3;4;7;8;11;13;15;17;19
"1958";3;4;7;8;11;13;15;17;19
"1959";3;4;7;8;11;13;15;17;19
"1960";3;4;7;8;11;13;15;17;19
"1961";3;4;7;8;11;13;15;17;19
"1962";3;4;7;8;11;13;15;17;19
"1963";3;4;7;8;11;13;15;17;19
"1964";3;4;7;8;11;13;15;17;19
"1965";3;4;7;8;11;13;15;17;19
"1966";3;4;7;8;11;13;15;17;19
"1967";3;4;7;8;11;13;15;17;19
"1968";3;4;7;8;11;13;15;17;19
"1969";3;4;7;8;11;13;15;17;19
"1970";3;4;7;8;11;13;15;17;19
"1971";3;4;7;8;11;13;15;17;19
"1972";3;4;7;8;11;13;15;17;19
"1973";3;4;7;8;11;13;15;17;19
"1974";3;4;7;8;11;13;15;17;19
"1975";3;4;7;8;11;13;15;17;19
"1976";3;4;7;8;11;13;15;17;19
"1977";3;4;7;8;11;13;15;17;19
"1978";3;4;7;8;11;13;15;17;19
"1979";3;4;7;8;11;13;15;17;19
"1980";3;4;7;8;11;13;15;17;19
"1981";3;4;7;8;11;13;15;17;19
"1982";3;4;7;8;11;13;15;17;19
"1983";3;4;7;8;11;13;15;17;19
"1984";3;4;7;8;11;13;15;17;19
"1985";3;4;7;8;11;13;15;17;19
"1986";3;4;7;8;11;13;15;17;19
"1987";3;4;7;8;11;13;15;17;19
"1988";3;4;7;8;11;13;15;17;19
"1989";3;4;7;8;11;13;15;17;19
"1990";3;4;7;8;11;13;15;17;19
"1991";3;4;7;8;11;13;15;17;19
"1992";3;4;7;8;11;13;15;17;19
"1993";3;4;7;8;11;13;15;17;19
"1994";3;4;7;8;11;13;15;17;19
"1995";3;4;7;8;11;13;15;17;19
"1996";3;4;7;8;11;13;15;17;19
"1997";3;4;7;8;11;13;15;17;19
"1998";3;4;7;8;11;13;15;17;19
"1999";3;4;7;8;11;13;15;17;19
"2000";3;4;7;8;11;13;15;17;19
"2001";3;4;7;8;11;13;15;17;19
"2002";3;4;7;8;11;13;15;17;19
"2003";3;4;7;8;11;13;15;17;19
"2004";3;4;7;8;11;13;15;17;19
"2005";3;4;7;8;11;13;15;17;19
"2006";3;4;7;8;11;13;15;17;19
"2007";3;4;7;8;11;13;15;17;19
"2008";3;4;7;8;11;13;15;17;19
"2009";3;4;7;8;11;13;15;17;19
"2010";3;4;7;8;11;13;15;17;19
"2011";3;4;7;8;11;13;15;17;19
"2012";3;4;7;8;11;13;15;17;19
"2013";3;4;7;8;11;13;15;17;19
"2014";3;4;7;8;11;13;15;17;19
"2015";3;4;7;8;11;13;15;17;19
"2016";3;4;7;8;11;13;15;17;19
"2017";3;4;7;8;11;13;15;17;19
"2018";3;4;7;8;11;13;15;17;19
"2019";3;4;7;8;11;13;15;17;19
"2020";3;4;7;8;11;13;15;17;19
"2021";3;4;7;8;11;13;15;17;19
"2022";3;4;7;8;11;13;15;17;19
"2023";3;4;7;8;11;13;15;17;19
"2024";3;4;7;8;11;13;15;17;19
"2025";3;4;7;8;11;13;15;17;19
"2026";3;4;7;8;11;13;15;17;19
"2027";3;4;7;8;11;13;15;17;19
"2028";3;4;7;8;11;13;15;17;19
"2029";3;4;7;8;11;13;15;17;19
"2030";3;4;7;8;11;13;15;17;19
"2031";3;4;7;8;11;13;15;17;19
"2032";3;4;7;8;11;13;15;17;19
"2033";3;4;7;8;11;13;15;17;19
"2034";3;4;7;8;11;13;15;17;19
"2035";3;4;7;8;11;13;15;17;19
"2036";3;4;7;8;11;13;15;17;19
"2037";3;4;7;8;11;13;15;17;19
"2038";3;4;7;8;11;13;15;17;19
"2039";3;4;7;8;11;13;15;17;19
"2040";3;4;7;8;11;13;15;17;19
"2041";3;4;7;8;11;13;15;17;19
"2042";3;4;7;8;11;13;15;17;19
"2043";3;4;7;8;11;13;15;17;19
"2044";3;4;7;8;11;13;15;17;19
"2045";3;4;7;8;11;13;15;17;19
"2046";3;4;7;8;11;13;15;17;19
"2047";3;4;7;8;11;13;15;17;19
"2048";3;4;7;8;11;13;15;17;19
"2049";3;4;7;8;11;13;15;17;19
"2050";3;4;7;8;11;13;15;17;19
"2051";3;4;7;8;11;13;15;17;19
"2052";3;4;7;8;11;13;15;17;19
"2053";3;4;7;8;11;13;15;17;19
"2054";3;4;7;8;11;13;15;17;19
"2055";3;4;7;8;11;13;15;17;19
"2056";3;4;7;8;11;13;15;17;19
"2057";3;4;7;8;11;13;15;17;19
"2058";3;4;7;8;11;13;15;17;19
"2059";3;4;7;8;11;13;15;17;19
"2060";3;4;7;8;11;13;15;17;19
"2061";3;4;7;8;11;13;15;17;19
"2062";3;4;7;8;11;13;15;17;19
"2063";3;4;7;8;11;13;15;17;19
"2064";3;4;7;8;11;13;15;17;19
"2065";3;4;7;8;11;13;15;17;19
"2066";3;4;7;8;11;13;15;17;19
"2067";3;4;7;8;11;13;15;17;19
"2068";3;4;7;8;11;13;15;17;19
"2069";3;4;7;8;11;13;15;17;19
"2070";3;4;7;8;11;13;15;17;19
"2071";3;4;7;8;11;13;15;17;19
"2072";3;4;7;8;11;13;15;17;19
"2073";3;4;7;8;11;13;15;17;19
"2074";3;4;7;8;11;13;15;17;19
"2075";3;4;7;8;11;13;15;17;19
"2076";3;4;7;8;11;13;15;17;19
"2077";3;4;7;8;11;13;15;17;19
"2078";3;4;7;8;11;13;15;17;19
"2079";3;4;7;8;11;13;15;17;19
"2080";3;4;7;8;11;13;15;17;19
"2081";3;4;7;8;11;13;15;17;19
"2082";3;4;7;8;11;13;15;17;19
"2083";3;4;7;8;11;13;15;17;19
"2084";3;4;7;8;11;13;15;17;19
"2085";3;4;7;8;11;13;15;17;19
"2086";3;4;7;8;11;13;15;17;19
"2087";3;4;7;8;11;13;15;17;19
"2088";3;4;7;8;11;13;15;17;19
"2089";3;4;7;8;11;13;15;17;19
"2090";3;4;7;8;11;13;15;17;19
"2091";3;4;7;8;11;13;15;17;19
"2092";3;4;7;8;11;13;15;17;19
"2093";3;4;7;8;11;13;15;17;19
"2094";3;4;7;8;11;13;15;17;19
"2095";3;4;7;8;11;13;15;17;19
"2096";3;4;7;8;11;13;15;17;19
"2097";3;4;7;8;11;13;15;17;19
"2098";3;4;7;8;11;13;14;14;14
"2099";3;4;7;8;11;13;15;16;16
"2100";3;4;7;8;11;13;15;16;16
"2101";3;4;7;8;11;13;15;16;16
"2102";3;4;7;8;11;13;15;17;19
"2103";3;4;7;8;11;13;15;17;19
"2104";3;4;7;8;11;13;15;17;19
"2105";3;4;7;8;11;13;15;17;19
"2106";3;4;7;8;11;13;15;17;19
"2107";3;4;7;8;11;13;15;17;19
"2108";3;4;7;8;11;13;15;17;19
"2109";3;4;7;8;11;13;15;17;19
"2110";3;4;7;8;11;13;15;17;19
"2111";3;4;7;8;11;13;15;17;19
"2112";3;4;7;8;11;13;15;17;19
"2113";3;4;7;8;11;13;15;17;19
"2114";3;4;7;8;11;13;15;17;19
"2115";3;4;7;8;11;13;15;17;19
"2116";3;4;7;8;11;13;15;17;19
"2117";3;4;7;8;11;13;15;17;19
"2118";3;4;7;8;11;13;15;17;19
"2119";3;4;7;8;11;13;15;17;19
"2120";3;4;7;8;11;13;15;17;19
"2121";3;4;7;8;11;13;15;17;19
"2122";3;4;7;8;11;13;15;17;19
"2123";3;4;7;8;11;13;15;17;19
"2124";3;4;7;8;11;13;15;17;19
"2125";3;4;7;8;11;13;15;17;19
"2126";3;4;7;8;11;13;15;17;19
"2127";3;4;7;8;11;13;15;17;19
"2128";3;4;7;8;11;13;15;17;19
"2129";3;4;7;8;11;13;15;17;19
"2130";3;4;7;8;11;13;15;17;19
"2131";3;4;7;8;11;13;15;17;18
"2132";3;4;7;8;11;13;15;17;19
"2133";3;4;7;8;11;13;15;17;19
"2134";3;4;7;8;11;13;15;17;19
"2135";3;4;7;8;11;13;15;17;18
"2136";3;4;7;8;11;13;15;17;19
"2137";3;4;7;8;11;13;15;17;19
"2138";3;4;7;8;11;13;15;17;19
"2139";3;4;7;8;11;13;15;17;19
"2140";3;4;7;8;11;13;15;17;19
"2141";3;4;7;8;11;13;15;17;19
"2142";3;4;7;8;11;13;15;17;19
"2143";3;4;7;8;11;13;15;17;19
"2144";3;4;7;8;11;13;15;17;19
"2145";3;4;7;8;11;13;15;17;19
"2146";3;4;7;8;11;13;15;17;19
"2147";3;4;7;8;11;13;15;17;19
"2148";3;4;7;8;11;13;15;17;19
"2149";3;4;7;8;11;13;15;17;19
"2150";3;4;7;8;11;13;15;17;19
"2151";3;4;7;8;11;13;15;17;19
"2152";3;4;7;8;11;13;15;17;19
"2153";3;4;7;8;11;13;15;17;19
"2154";3;4;7;8;11;13;15;17;19
"2155";3;4;7;8;11;13;15;17;19
"2156";3;4;7;8;11;13;15;17;19
"2157";3;4;7;8;11;13;15;17;19
"2158";3;4;7;8;11;13;15;17;19
"2159";3;4;7;8;11;13;15;17;19
"2160";3;4;7;8;11;13;15;17;19
"2161";3;4;7;8;11;13;15;17;19
"2162";3;4;7;8;11;13;15;17;19
"2163";3;4;7;8;11;13;15;17;19
"2164";3;4;7;8;11;13;15;17;19
"2165";3;4;7;8;11;13;15;17;19
"2166";3;4;7;8;11;13;15;17;19
"2167";3;4;7;8;11;13;15;17;19
"2168";3;4;7;8;11;13;15;17;19
"2169";3;4;7;8;11;13;15;17;19
"2170";3;4;7;8;11;13;15;17;19
"2171";3;4;7;8;11;13;15;17;19
"2172";3;4;7;8;11;13;15;17;19
"2173";3;4;7;8;11;13;15;17;19
"2174";3;4;7;8;11;13;15;17;19
"2175";3;4;7;8;11;13;15;17;19
"2176";3;4;7;8;11;13;15;17;19
"2177";3;4;7;8;11;13;15;17;19
"2178";3;4;7;8;11;13;15;17;19
"2179";3;4;7;8;11;13;15;17;19
"2180";3;4;7;8;11;13;15;17;19
"2181";3;4;7;8;11;13;15;17;19
"2182";3;4;7;8;11;13;15;17;19
"2183";3;4;7;8;11;13;15;17;19
"2184";3;4;7;8;11;13;15;17;19
"2185";3;4;7;8;11;13;15;17;19
"2186";3;4;7;8;11;13;15;17;19
"2187";3;4;7;8;11;13;15;17;19
"2188";3;4;7;8;11;13;15;17;19
"2189";3;4;7;8;11;13;15;17;19
"2190";3;4;7;8;11;13;15;17;19
"2191";3;4;7;8;11;13;15;17;19
"2192";3;4;7;8;11;13;15;17;19
"2193";3;4;7;8;11;13;15;17;19
"2194";3;4;7;8;11;13;15;17;19
"2195";3;4;7;8;11;13;15;17;19
"2196";3;4;7;8;11;13;15;17;19
"2197";3;4;7;8;11;13;15;17;19
"2198";3;4;7;8;11;13;15;16;16
"2199";3;4;7;8;11;13;15;17;19
"2200";3;4;7;8;11;13;15;16;16
"2201";3;4;7;8;11;13;15;17;19
"2202";3;4;7;8;11;13;15;17;19
"2203";3;4;7;8;11;13;15;16;16
"2204";3;4;7;8;11;13;15;16;16
"2205";3;4;7;8;11;13;15;17;19
"2206";3;4;7;8;11;13;15;17;19
"2207";3;4;7;8;11;13;15;17;19
"2208";3;4;7;8;11;13;15;16;16
"2209";3;4;7;8;11;13;15;17;19
"2210";3;4;7;8;11;13;15;17;19
"2211";3;4;7;8;11;13;15;17;19
"2212";3;4;7;8;11;13;15;17;19
"2213";3;4;7;8;11;13;15;17;19
"2214";3;4;7;8;11;13;15;17;19
"2215";3;4;7;8;11;13;15;17;19
"2216";3;4;7;8;11;13;15;17;19
"2217";3;4;7;8;11;13;15;17;19
"2218";3;4;7;8;11;13;15;17;19
"2219";3;4;7;8;11;13;15;17;19
"2220";3;4;7;8;11;13;15;17;19
"2221";3;4;7;8;11;13;15;17;19
"2222";3;4;7;8;11;13;15;17;19
"2223";3;4;7;8;11;13;15;17;19
"2224";3;4;7;8;11;13;15;17;19
"2225";3;4;7;8;11;13;15;17;19
"2226";3;4;7;8;11;13;15;17;19
"2227";3;4;7;8;11;13;15;17;19
"2228";3;4;7;8;11;13;15;17;19
"2229";3;4;7;8;11;13;15;17;19
"2230";3;4;7;8;11;13;15;17;19
"2231";3;4;7;8;11;13;15;17;19
"2232";3;4;7;8;11;13;15;17;19
"2233";3;4;7;8;11;13;15;17;19
"2234";3;4;7;8;11;13;15;17;19
"2235";3;4;7;8;11;13;15;17;19
"2236";3;4;7;8;11;13;15;17;19
"2237";3;4;7;8;11;13;15;17;19
"2238";3;4;7;8;11;13;15;17;19
"2239";3;4;7;8;11;13;15;17;19
"2240";3;4;7;8;11;13;15;17;19
"2241";3;4;7;8;11;13;15;17;19
"2242";3;4;7;8;11;13;15;17;19
"2243";3;4;7;8;11;13;15;17;19
"2244";3;4;7;8;11;13;15;17;19
"2245";3;4;7;8;11;13;15;17;19
"2246";3;4;7;8;11;13;15;17;19
"2247";3;4;7;8;11;13;15;17;19
"2248";3;4;7;8;11;13;15;17;19
"2249";3;4;7;8;11;13;15;17;19
"2250";3;4;7;8;11;13;15;17;19
"2251";3;4;7;8;11;13;15;17;19
"2252";3;4;7;8;11;13;15;17;19
"2253";3;4;7;8;11;13;15;17;19
"2254";3;4;7;8;11;13;15;17;19
"2255";3;4;7;8;11;13;15;17;19
"2256";3;4;7;8;11;13;15;17;19
"2257";3;4;7;8;11;13;15;17;19
"2258";3;4;7;8;11;13;15;17;19
"2259";3;4;7;8;11;13;15;17;19
"2260";3;4;7;8;11;13;15;17;19
"2261";3;4;7;8;11;13;15;17;19
"2262";3;4;7;8;11;13;15;17;19
"2263";3;4;7;8;11;13;15;17;19
"2264";3;4;7;8;11;13;15;17;19
"2265";3;4;7;8;11;13;15;17;19
"2266";3;4;7;8;11;13;15;17;19
"2267";3;4;7;8;11;13;15;17;19
"2268";3;4;7;8;11;13;15;17;19
"2269";3;4;7;8;11;13;15;17;19
"2270";3;4;7;8;11;13;15;17;19
"2271";3;4;7;8;11;13;15;17;19
"2272";3;4;7;8;11;13;15;17;19
"2273";3;4;7;8;11;13;15;17;19
"2274";3;4;7;8;11;13;15;17;19
"2275";3;4;7;8;11;13;15;17;19
"2276";3;4;7;8;11;13;15;17;19
"2277";3;4;7;8;11;13;15;17;19
"2278";3;4;7;8;11;13;15;17;19
"2279";3;4;7;8;11;13;15;17;19
"2280";3;4;7;8;11;13;15;17;19
"2281";3;4;7;8;11;13;15;17;19
"2282";3;4;7;8;11;13;15;17;19
"2283";3;4;7;8;11;13;15;17;19
"2284";3;4;7;8;11;13;15;17;19
"2285";3;4;7;8;11;13;15;17;19
"2286";3;4;7;8;11;13;15;17;19
"2287";3;4;7;8;11;13;15;17;19
"2288";3;4;7;8;11;13;15;17;19
"2289";3;4;7;8;11;13;15;17;19
"2290";3;4;7;8;11;13;15;17;19
"2291";3;4;7;8;11;13;15;17;19
"2292";3;4;7;8;11;13;15;17;19
"2293";3;4;7;8;11;13;15;17;19
"2294";3;4;7;8;11;13;15;17;19
"2295";3;4;7;8;11;13;15;17;19
"2296";3;4;7;8;11;13;15;17;19
"2297";3;4;7;8;11;13;15;17;19
"2298";3;4;7;8;11;13;15;17;19
"2299";3;4;7;8;11;13;15;17;19
"2300";3;4;7;8;11;13;15;17;19
"2301";3;4;7;8;11;13;15;17;19
"2302";3;4;7;8;11;13;15;17;19
"2303";3;4;7;8;11;13;15;17;19
"2304";3;4;7;8;11;13;15;17;19
"2305";3;4;7;8;11;13;15;17;19
"2306";3;4;7;8;11;13;15;17;19
"2307";3;4;7;8;11;13;15;17;19
"2308";3;4;7;8;11;13;15;17;19
"2309";3;4;7;8;11;13;15;17;19
"2310";3;5;5;5;5;5;5;5;5
"2311";3;4;7;8;11;13;15;17;19
"2312";3;4;7;8;11;13;15;17;19
"2313";3;4;7;8;11;13;15;17;19
"2314";3;4;7;8;11;13;15;17;19
"2315";3;4;7;8;11;13;15;17;19
"2316";3;4;7;8;11;13;15;17;19
"2317";3;4;7;8;11;13;15;17;19
"2318";3;4;7;8;11;13;15;17;19
"2319";3;4;7;8;11;13;15;17;19
"2320";3;4;7;8;11;13;15;17;19
"2321";3;4;7;8;11;13;15;17;19
"2322";3;4;7;8;11;13;15;17;19
"2323";3;4;7;8;11;13;15;17;19
"2324";3;4;7;8;11;13;15;17;19
"2325";3;4;7;8;11;13;15;17;19
"2326";3;4;7;8;11;13;15;17;19
"2327";3;4;7;8;11;13;15;17;19
"2328";3;4;7;8;11;13;15;17;19
"2329";3;4;7;8;11;13;15;17;18
"2330";3;4;7;8;11;13;15;17;19
"2331";3;4;7;8;11;13;15;17;19
"2332";3;4;7;8;11;13;15;17;19
"2333";3;4;7;8;11;13;15;17;19
"2334";3;4;7;8;11;13;15;17;19
"2335";3;4;7;8;11;13;15;17;19
"2336";3;4;7;8;11;13;15;17;19
"2337";3;4;7;8;11;13;15;17;19
"2338";3;4;7;8;11;13;15;17;19
"2339";3;4;7;8;11;13;15;17;19
"2340";3;4;7;8;11;13;15;17;19
"2341";3;4;7;8;11;13;15;17;19
"2342";3;4;7;8;11;13;15;17;19
"2343";3;4;7;8;11;13;15;17;19
"2344";3;4;7;8;11;13;15;17;19
"2345";3;4;7;8;11;13;15;17;19
"2346";3;4;7;8;11;13;15;17;19
"2347";3;4;7;8;11;13;15;17;19
"2348";3;4;7;8;11;13;15;17;19
"2349";3;4;7;8;11;13;15;17;19
"2350";3;4;7;8;11;13;15;17;19
"2351";3;4;7;8;11;13;15;17;19
"2352";3;4;7;8;11;13;15;17;19
"2353";3;4;7;8;11;13;15;17;19
"2354";3;4;7;8;11;13;15;17;19
"2355";3;4;7;8;11;13;15;17;19
"2356";3;4;7;8;11;13;15;17;19
"2357";3;4;7;8;11;13;15;17;19
"2358";3;4;7;8;11;13;15;17;19
"2359";3;4;7;8;11;13;15;17;19
"2360";3;4;7;8;11;13;15;17;19
"2361";3;4;7;8;11;13;15;17;19
"2362";3;4;7;8;11;13;15;17;19
"2363";3;4;7;8;11;13;15;17;19
"2364";3;4;7;8;11;13;15;17;19
"2365";3;4;7;8;11;13;15;17;19
"2366";3;4;7;8;11;13;15;16;16
"2367";3;4;7;8;11;13;15;17;19
"2368";3;4;7;8;11;13;15;17;19
"2369";3;4;7;8;11;13;15;17;19
"2370";3;4;7;8;11;13;15;17;19
"2371";3;4;7;8;11;13;15;17;19
"2372";3;4;7;8;11;12;12;12;12
"2373";3;4;7;8;11;13;15;17;19
"2374";3;4;7;8;11;13;15;17;19
"2375";3;4;7;8;11;13;15;17;19
"2376";3;4;7;8;11;13;15;17;19
"2377";3;4;7;8;11;13;15;17;19
"2378";3;4;7;8;11;13;15;17;19
"2379";3;4;7;8;11;13;15;17;19
"2380";3;4;7;8;11;13;15;17;19
"2381";3;4;7;8;11;13;15;17;19
"2382";3;4;7;8;11;13;15;17;19
"2383";3;4;7;8;11;13;15;17;19
"2384";3;4;7;8;11;13;15;17;19
"2385";3;4;7;8;11;12;12;12;12
"2386";3;4;7;8;11;13;15;17;19
"2387";3;4;7;8;11;13;15;17;19
"2388";3;4;7;8;11;13;15;17;19
"2389";3;4;7;8;11;13;14;14;14
"2390";3;4;7;8;11;13;15;17;19
"2391";3;4;7;8;11;13;15;17;19
"2392";3;4;7;8;11;13;15;17;19
"2393";3;4;7;8;11;13;15;17;19
"2394";3;4;7;8;11;13;15;17;19
"2395";3;4;7;8;11;13;15;17;19
"2396";3;4;7;8;11;13;15;17;19
"2397";3;4;7;8;11;13;15;17;19
"2398";3;4;7;8;11;13;15;17;19
"2399";3;4;7;8;11;13;15;17;19
"2400";3;4;7;8;11;13;15;17;19
"2401";3;4;7;8;11;13;15;17;19
"2402";3;4;7;8;11;13;15;17;19
"2403";3;4;7;8;11;13;15;17;19
"2404";3;4;7;8;11;13;15;17;19
"2405";3;4;7;8;11;13;15;17;19
"2406";3;4;7;8;11;13;15;17;19
"2407";3;4;7;8;10;10;10;10;10
"2408";3;4;7;8;11;13;15;17;19
"2409";3;4;7;8;11;13;15;17;19
"2410";3;4;7;8;11;13;15;17;19
"2411";3;4;7;8;11;13;15;17;19
"2412";3;4;7;8;11;13;15;17;19
"2413";3;4;7;8;11;13;15;17;19
"2414";3;4;7;8;11;13;15;17;19
"2415";3;4;7;8;11;13;15;17;19
"2416";3;4;7;8;11;13;15;17;19
"2417";3;4;7;8;11;13;15;17;19
"2418";3;4;7;8;11;13;15;17;19
"2419";3;4;7;8;11;13;15;17;19
"2420";3;4;7;8;11;13;15;17;19
"2421";3;4;7;8;11;13;15;17;19
"2422";3;4;7;8;11;13;15;17;19
"2423";3;4;7;8;11;13;15;17;19
"2424";3;4;7;8;11;13;15;17;19
"2425";3;4;7;8;11;13;15;17;19
"2426";3;4;7;8;11;13;15;17;19
"2427";3;4;7;8;11;13;15;17;19
"2428";3;4;7;8;11;13;15;17;19
"2429";3;4;7;8;11;13;15;17;19
"2430";3;4;7;8;11;13;15;17;19
"2431";3;4;7;8;11;13;15;17;19
"2432";3;4;7;8;11;13;15;17;19
"2433";3;4;7;8;11;13;15;17;19
"2434";3;4;7;8;11;13;15;17;19
"2435";3;4;7;8;11;13;15;17;19
"2436";3;4;7;8;11;13;15;17;19
"2437";3;4;7;8;11;13;15;17;19
"2438";3;4;7;8;11;13;15;17;19
"2439";3;4;7;8;11;13;15;17;19
"2440";3;4;7;8;11;13;15;17;19
"2441";3;4;7;8;11;13;15;17;19
"2442";3;4;7;8;11;13;15;17;19
"2443";3;4;7;8;11;13;15;17;19
"2444";3;4;7;8;11;13;15;17;19
"2445";3;4;7;8;11;13;15;17;19
"2446";3;4;7;8;11;13;15;16;16
"2447";3;4;7;8;11;13;15;17;19
"2448";3;4;7;8;11;13;15;17;19
"2449";3;4;7;8;11;13;15;17;19
"2450";3;4;7;8;11;13;15;17;19
"2451";3;4;7;8;11;13;15;17;19
"2452";3;4;7;8;11;13;15;17;19
"2453";3;4;7;8;11;13;15;17;19
"2454";3;4;7;8;11;13;15;17;19
"2455";3;4;7;8;11;13;15;17;19
"2456";3;4;7;8;11;13;15;17;19
"2457";3;4;7;8;11;13;15;17;19
"2458";3;4;7;8;11;13;15;17;19
"2459";3;4;7;8;11;13;15;17;19
"2460";3;4;7;8;11;13;15;17;19
"2461";3;4;7;8;11;13;15;17;19
"2462";3;4;7;8;11;13;15;17;19
"2463";3;4;7;8;11;13;15;17;19
"2464";3;4;6;6;6;6;6;6;6
"2465";3;4;7;8;11;13;15;17;19
"2466";3;4;7;8;11;13;15;17;19
"2467";3;4;6;6;6;6;6;6;6
"2468";3;4;7;8;11;13;15;17;19
"2469";3;4;7;8;11;13;15;17;19
"2470";3;4;7;8;11;13;15;17;19
"2471";3;4;7;8;11;13;15;17;19
"2472";3;4;7;8;11;13;15;17;19
"2473";3;4;7;8;11;13;15;17;19
"2474";3;4;7;8;11;13;15;17;19
"2475";3;4;7;8;11;13;15;17;19
"2476";3;4;7;8;11;13;15;17;19
"2477";3;4;7;8;11;13;15;17;19
"2478";3;4;7;8;11;13;15;17;19
"2479";3;4;7;8;11;13;15;17;19
"2480";3;4;7;8;11;13;15;17;19
"2481";3;4;7;8;11;13;15;17;19
"2482";3;4;7;8;11;13;15;17;19
"2483";3;4;7;8;11;13;15;17;19
"2484";3;4;7;8;11;13;15;17;19
"2485";3;4;7;8;11;13;15;17;19
"2486";3;4;7;8;11;13;15;17;19
"2487";3;4;7;8;11;13;14;14;14
"2488";3;4;7;8;11;13;15;17;19
"2489";3;4;7;8;11;13;15;17;19
"2490";3;4;7;8;11;13;15;17;19
"2491";3;4;7;8;11;13;15;17;19
"2492";3;4;7;8;11;13;15;17;19
"2493";3;4;7;8;11;13;15;17;19
"2494";3;4;7;8;11;13;15;17;19
"2495";3;4;7;8;11;13;15;17;19
"2496";3;4;7;8;11;13;15;17;19
"2497";3;4;7;8;11;13;15;17;19
"2498";3;4;7;8;11;13;15;17;19
"2499";3;4;7;8;11;13;15;17;19
"2500";3;4;7;8;11;13;15;17;19
"2501";3;4;7;8;11;13;15;17;19
"2502";3;4;7;8;11;13;15;17;19
"2503";3;4;7;8;11;13;15;17;19
"2504";3;4;7;8;11;13;15;17;19
"2505";3;4;7;8;11;13;15;17;19
"2506";3;4;7;8;11;13;15;17;19
"2507";3;4;7;8;11;13;15;17;19
"2508";3;4;7;8;11;13;15;17;19
"2509";3;4;7;8;11;13;15;17;19
"2510";3;4;7;8;11;13;15;17;19
"2511";3;4;7;8;11;13;15;17;19
"2512";3;4;7;8;11;13;15;17;18
"2513";3;4;7;8;11;13;15;17;19
"2514";3;4;7;8;11;13;15;17;19
"2515";3;4;7;8;11;13;15;17;19
"2516";3;4;7;8;11;13;15;16;16
"2517";3;4;7;8;11;13;15;17;19
"2518";3;4;7;8;11;13;15;17;19
"2519";3;4;7;8;11;13;15;17;19
"2520";3;4;7;8;11;13;15;17;19
"2521";3;4;7;8;11;13;15;17;19
"2522";3;4;7;8;11;13;15;17;19
"2523";3;4;7;8;11;13;15;17;19
"2524";3;4;7;8;11;13;15;17;19
"2525";3;4;7;8;11;13;15;17;19
"2526";3;4;7;8;11;13;15;17;19
"2527";3;4;7;8;11;13;15;17;19
"2528";3;4;7;8;11;13;15;17;19
"2529";3;4;7;8;11;13;15;17;19
"2530";3;4;7;8;11;13;15;17;19
"2531";3;4;7;8;11;13;15;17;19
"2532";3;4;7;8;11;13;15;17;19
"2533";3;4;7;8;11;13;15;17;19
"2534";3;4;7;8;11;13;15;17;19
"2535";2;2;2;2;2;2;2;2;2
"2536";3;4;7;8;11;13;15;17;19
"2537";3;4;7;8;11;13;15;17;19
"2538";3;4;7;8;11;13;15;17;19
"2539";3;4;7;8;11;13;15;17;19
"2540";3;4;7;8;11;13;15;17;19
"2541";3;4;7;8;11;13;15;17;19
"2542";3;4;7;8;11;13;15;17;19
"2543";3;4;7;8;11;13;15;17;19
"2544";3;4;7;8;11;13;15;17;19
"2545";3;4;7;8;11;13;15;17;19
"2546";3;4;7;8;11;13;15;17;19
"2547";3;4;7;8;11;13;15;17;19
"2548";3;4;7;8;11;13;15;17;19
"2549";3;4;7;8;11;13;15;17;19
"2550";3;4;7;8;11;13;15;17;19
"2551";3;4;7;8;11;13;15;17;19
"2552";3;4;7;8;11;13;15;17;19
"2553";3;4;7;8;11;13;15;17;19
"2554";3;4;7;8;11;13;15;17;19
"2555";3;4;7;8;11;13;15;17;19
"2556";3;4;7;8;11;13;15;17;19
"2557";3;4;7;8;11;13;15;17;19
"2558";3;4;7;8;11;13;15;17;19
"2559";3;4;7;8;11;13;15;17;19
"2560";3;4;7;8;11;13;15;17;19
"2561";3;4;7;8;11;13;15;17;19
"2562";3;4;7;8;11;13;15;17;19
"2563";3;4;7;8;11;13;15;17;19
"2564";3;4;7;8;11;13;15;17;19
"2565";3;4;7;8;11;13;15;17;19
"2566";3;4;7;8;11;13;15;17;19
"2567";3;4;7;8;11;13;15;17;19
"2568";3;4;7;8;11;13;15;17;19
"2569";3;4;7;8;11;13;15;17;19
"2570";3;4;7;8;11;13;15;17;19
"2571";3;4;7;8;11;13;15;17;19
"2572";3;4;7;8;11;13;15;17;19
"2573";3;4;7;8;11;13;15;17;19
"2574";3;4;7;8;11;13;15;17;19
"2575";3;4;7;8;11;13;15;17;19
"2576";3;4;7;8;11;13;15;17;19
"2577";3;4;7;8;11;13;15;17;19
"2578";3;4;7;8;11;13;15;17;19
"2579";3;4;7;8;11;13;15;17;19
"2580";3;4;7;8;11;13;15;17;19
"2581";3;4;7;8;11;13;15;17;19
"2582";3;4;7;8;11;13;15;17;19
"2583";3;4;7;8;11;13;15;17;19
"2584";3;4;7;8;11;13;15;17;19
"2585";3;4;7;8;11;13;15;17;19
"2586";3;4;7;8;11;13;15;17;19
"2587";3;4;7;8;11;13;15;17;19
"2588";3;4;7;8;11;13;15;17;19
"2589";3;4;7;8;11;13;15;17;19
"2590";3;4;7;8;11;13;15;16;16
"2591";3;4;7;8;11;13;15;17;19
"2592";3;4;7;8;11;13;15;17;19
"2593";3;4;7;8;11;13;15;16;16
"2594";3;4;7;8;11;13;15;17;19
"2595";3;4;7;8;11;13;15;17;19
"2596";3;4;7;8;11;13;15;17;19
"2597";3;4;7;8;11;13;15;17;19
"2598";3;4;7;8;11;13;15;17;19
"2599";3;4;7;8;11;13;15;17;19
"2600";3;4;7;8;11;13;15;17;19
"2601";3;4;7;8;11;13;15;17;19
"2602";3;4;7;8;11;13;15;17;19
"2603";3;4;7;8;11;13;15;17;19
"2604";3;4;7;8;11;13;15;17;19
"2605";3;4;7;8;11;13;15;17;19
"2606";3;4;7;8;11;13;15;17;19
"2607";3;4;7;8;11;13;15;17;19
"2608";3;4;7;8;11;13;15;17;19
"2609";3;4;7;8;11;13;15;17;19
"2610";3;4;7;8;11;13;15;17;19
"2611";3;4;7;8;11;13;15;17;19
"2612";3;4;7;8;11;13;15;17;19
"2613";3;4;7;8;11;13;15;17;19
"2614";3;4;7;8;11;13;15;17;19
"2615";3;4;7;8;11;12;12;12;12
"2616";3;4;7;8;11;13;15;17;19
"2617";3;4;7;8;11;13;15;17;19
"2618";3;4;7;8;11;13;15;17;19
"2619";3;4;7;8;11;13;15;17;19
"2620";3;4;7;8;11;13;15;17;19
"2621";3;4;7;8;11;13;15;17;19
"2622";3;4;7;8;11;13;15;17;19
"2623";3;4;7;8;11;13;15;17;19
"2624";3;4;7;8;11;13;15;17;19
"2625";3;4;7;8;11;13;15;17;19
"2626";3;4;7;8;11;13;15;17;19
"2627";3;4;7;8;11;13;15;17;19
"2628";3;4;7;8;11;13;15;17;19
"2629";3;4;7;8;11;13;15;17;19
"2630";3;4;7;8;11;13;15;17;19
"2631";3;4;7;8;11;13;15;17;19
"2632";3;4;7;8;11;13;15;17;19
"2633";3;4;7;8;11;13;15;17;19
"2634";3;4;7;8;11;13;15;17;19
"2635";3;4;7;8;11;13;15;17;19
"2636";3;4;7;8;11;13;15;17;19
"2637";3;4;7;8;11;13;15;17;19
"2638";3;4;7;8;11;13;15;17;19
"2639";3;4;7;8;11;13;15;17;19
"2640";3;4;7;8;11;13;15;17;19
"2641";3;4;7;8;11;13;15;17;19
"2642";3;4;7;8;11;13;15;16;16
"2643";3;4;7;8;11;13;15;17;19
"2644";3;4;7;8;11;13;15;17;19
"2645";3;4;7;8;11;13;15;16;16
"2646";3;4;7;8;11;13;15;17;19
"2647";3;4;7;8;11;13;15;17;19
"2648";3;4;7;8;11;13;15;17;19
"2649";3;4;7;8;11;13;15;17;19
"2650";3;4;7;8;11;13;15;17;19
"2651";3;4;7;8;11;13;15;17;19
"2652";3;4;7;8;11;13;15;17;19
"2653";3;4;7;8;11;13;15;17;19
"2654";3;4;7;8;11;13;15;17;19
"2655";3;4;7;8;11;13;15;17;19
"2656";3;4;7;8;11;13;15;17;19
"2657";3;4;7;8;11;13;15;17;19
"2658";3;4;7;8;11;13;15;17;19
"2659";3;4;7;8;11;13;15;17;19
"2660";3;4;7;8;11;13;15;17;19
"2661";3;4;7;8;11;13;15;17;19
"2662";3;4;7;8;11;13;15;17;19
"2663";3;4;7;8;11;13;15;17;19
"2664";3;4;7;8;11;13;15;17;19
"2665";3;4;7;8;11;13;15;17;19
"2666";3;4;7;8;11;13;15;17;19
"2667";3;4;7;8;11;13;15;16;16
"2668";3;4;7;8;11;13;15;17;19
"2669";3;4;7;8;11;13;15;17;19
