*Tx_1Ko_15_23;2
*Tx_1Ko_15_27;2
*Tx_Ga_3_1;1
*Tx_Ga_3_2;2
*Tx_1Ko_15_29;2
*Tx_1Ko_15_28;2
*Tx_Ga_3_8;3
*Tx_Ga_3_9;3
*Tx_Erm_12_21;3
*Tx_Erm_12_20;2
*Tx_2Ko_4_18;2
*K_Tt_2;13
*Tx_2Ko_4_16;2
*Tx_2Ko_4_15;2
*Tx_1Ko_3_20;2
*Tx_Tt_1_6;2
*Tx_Tt_1_7;2
*Tx_Tt_1_4;2
*Tx_Tt_1_5;2
*Tx_Erm_2_17;2
*K_1Ts_4;20
*Tx_Erm_2_12;2
*Tx_Tt_3_8;2
*Tx_2Ko_6_14;2
*Tx_2Ko_6_16;5
*Tx_2Ko_6_10;3
*Tx_Ga_2_12;2
*Tx_2Ko_6_13;2
*Tx_Ga_5_6;2
*Tx_Flp_2_27;2
*Tx_Ga_5_2;2
*Tx_Ga_5_1;2
*K_Erm_16;17
*Tx_Erm_4_18;3
*Tx_Ga_1_9;2
*Tx_Ef_5_28;2
*Tx_2Ko_11_29;2
*Tx_1Tm_5_24;2
*Tx_1Tm_5_25;2
*Tx_Erm_4_12;3
*Tx_Erm_4_13;2
*Tx_Ga_1_7;2
*Tx_Erm_4_16;2
*Tx_Erm_4_17;5
*K_Erm_11;57
*Tx_2Ko_3_6;2
*Tx_2Ko_3_3;2
*Tx_1Ts_4_15;2
*Tx_2Ko_3_1;2
*Tx_1Ts_4_17;2
*Tx_2Ko_1_9;2
*Tx_2Ko_1_8;1
*L_Korintoarrei1;575
*L_Korintoarrei2;363
*Tx_2Tm_4_17;2
*Tx_2Tm_4_16;2
*Tx_2Tm_4_14;2
*Tx_2Ko_1_6;2
*Tx_1Ko_7_16;2
*Tx_Erm_10_21;3
*Tx_2Ko_7_9;4
*Tx_1Ko_7_15;2
*Tx_1Ko_7_12;2
*Tx_1Ko_7_11;2
*Tx_2Ko_7_3;2
*Tx_2Ko_7_7;3
*Tx_2Ko_7_5;3
*Tx_2Ko_7_4;2
*Tx_2Ko_7_11;4
*Tx_2Ko_7_10;2
*Tx_2Tm_2_17;1
*Tx_1Ko_16_12;2
*Tx_Erm_10_19;2
*Tx_1Ko_14_15;2
*Tx_2Tm_2_19;2
*Tx_1Ko_16_19;0
*Tx_1Ko_11_25;3
*Tx_1Ko_11_24;2
*Tx_Erm_3_10;7
*Tx_1Ko_11_22;3
*Tx_Erm_13_11;2
*Tx_Erm_13_10;3
*Tx_Erm_13_12;2
*Tx_2Ko_12_7;2
*Tx_Ef_4_26;2
*Tx_Ef_4_29;2
*Tx_2Ko_12_20;2
*Tx_2Ko_9_11;2
*Tx_Erm_15_27;2
*Tx_Erm_15_24;2
*Tx_Erm_10_15;2
*Tx_2Ts_2_3;1
*Tx_2Ko_2_10;2
*Tx_Erm_11_33;4
*Tx_2Ko_2_16;3
*Tx_2Ts_2_8;2
*Tx_1Tm_1_5;2
*Tx_1Tm_1_4;2
*Tx_1Tm_1_3;1
*Tx_1Ko_11_6;2
*Tx_Erm_8_6;2
*L_Filemoni;24
*Tx_1Ts_1_8;2
*Tx_1Ts_1_5;2
*Tx_Kol_4_16;2
*Tx_Flp_1_17;2
*Tx_Kol_4_11;1
*Tx_Flp_1_15;2
*Tx_Kol_1_27;2
*Tx_Kol_1_24;2
*Tx_Kol_1_23;2
*Tx_1Ko_12_12;2
*Tx_1Ko_12_10;2
*Tx_1Ko_12_17;2
*K_1Tm_5;26
*Tx_Kol_2_18;2
*Tx_Erm_5_8;2
*Tx_Erm_5_7;2
*K_1Tm_4;19
*Tx_Kol_2_11;2
*Tx_Erm_5_3;2
*Tx_Erm_5_2;2
*K_1Tm_3;17
*K_1Tm_2;15
*Tx_1Tm_2_14;1
*Tx_Erm_7_8;2
*Tx_Erm_9_15;2
*K_1Tm_6;22
*Tx_Erm_9_13;3
*Tx_2Ko_6_12;2
*K_1Tm_1;22
*Tx_Erm_7_3;2
*Tx_1Ko_12_8;2
*Tx_Erm_7_7;3
*Tx_Erm_7_6;2
*Tx_1Ts_5_8;2
*Tx_1Ko_1_21;2
*Tx_1Ko_1_20;2
*Tx_1Ts_5_5;2
*Tx_Erm_1_7;2
*Tx_Erm_1_4;2
*Tx_Erm_9_17;2
*Tx_Erm_9_1;2
*Tx_Erm_9_7;2
*Tx_Erm_9_5;1
*Tx_Erm_9_4;2
*Tx_Erm_9_9;2
*Tx_Ga_3_16;2
*Tx_1Ko_10_29;2
*Tx_Ga_3_15;2
*Tx_Ga_3_12;5
*Tx_Ga_3_10;3
*Tx_Ga_3_11;2
*Tx_1Ko_10_20;2
*Tx_1Ko_10_21;2
*Tx_1Ko_10_22;2
*Tx_1Ko_10_23;1
*Tx_2Ko_8_5;2
*Tx_Ga_3_18;2
*Tx_2Ko_8_7;2
*Tx_Flp_4_21;0
*Tx_Ef_2_17;2
*Tx_Ef_2_14;2
*Tx_Ef_2_12;2
*Tx_1Ko_7_40;2
*Tx_Ef_2_10;2
*Tx_Erm_5_14;2
*Tx_2Ko_2_4;2
*Tx_Erm_7_2;2
*Tx_2Ko_2_3;3
*K_Erm_3;40
*K_Erm_2;38
*K_Erm_1;44
*Tx_2Tm_2_20;2
*K_Erm_6;31
*K_Erm_5;32
*Tx_2Ko_2_9;2
*Tx_2Tm_2_9;2
*Tx_Erm_3_4;3
*Tx_Erm_3_1;2
*Tx_Erm_3_3;2
*Tx_Erm_9_18;2
*Tx_Erm_3_9;2
*Tx_Erm_3_8;3
*Tx_2Ko_6_2;1
*Tx_1Ko_9_20;2
*Tx_Erm_16_25;2
*Tx_2Tm_4_8;2
*Tx_Erm_16_23;0
*Tx_1Ko_9_24;2
*Tx_Erm_16_20;2
*Tx_2Tm_4_3;2
*Tx_2Ko_6_8;2
*Tx_2Ko_6_9;2
*Tx_1Ko_5_10;2
*Tx_2Tm_4_6;2
*Tx_1Ts_2_2;2
*Tx_2Ko_4_8;2
*Tx_2Ko_4_9;2
*Tx_2Ko_4_2;3
*Tx_1Ko_3_18;1
*Tx_1Ko_3_19;2
*Tx_Flp_4_18;3
*Tx_1Ko_3_10;3
*Tx_1Ko_3_11;2
*Tx_Flp_4_10;2
*Tx_Flp_4_12;3
*Tx_1Ko_3_15;2
*Tx_1Ts_5_3;2
*Tx_Erm_13_1;2
*Tx_Erm_4_11;3
*Tx_Erm_4_2;2
*Tx_1Ko_1_26;2
*Tx_1Ko_1_10;3
*Tx_1Ko_1_12;2
*Tx_1Ko_1_13;3
*Tx_1Tm_2_6;2
*Tx_1Ko_1_18;2
*Tx_1Ko_1_19;2
*Tx_Flp_2_25;2
*Tx_1Ko_7_34;2
*Tx_2Ko_5_11;2
*Tx_2Ko_5_12;3
*Tx_2Ko_5_17;2
*Tx_2Ko_5_16;2
*Tx_1Ko_8_7;2
*Tx_1Ko_8_4;2
*Tx_1Ko_8_1;3
*Tx_2Ko_9_2;2
*Tx_2Ko_9_5;2
*Tx_2Ko_9_4;2
*Tx_1Ko_6_18;2
*L_Galaziarrei;208
*L_Filipostarrei;119
*Tx_1Ko_15_39;2
*Tx_1Ko_14_22;1
*Tx_1Ko_15_35;2
*K_Erm_15;42
*K_Erm_14;40
*K_Erm_13;22
*K_Erm_12;33
*Tx_1Ko_15_32;2
*K_Erm_10;38
*Tx_1Ko_4_3;2
*L_Kolosarrei;99
*Tx_1Ko_4_7;3
*Tx_1Ko_4_5;3
*Tx_1Ko_4_4;2
*Tx_1Ko_4_9;2
*Tx_1Ko_4_8;2
*K_1Ko_14;43
*K_1Ko_15;75
*K_1Ko_16;25
*Tx_Erm_4_22;2
*K_1Ko_10;42
*K_1Ko_11;43
*K_1Ko_12;40
*K_1Ko_13;3
*Tx_1Tm_5_11;2
*Tx_1Ko_6_7;2
*Tx_2Tm_4_21;1
*Tx_1Ko_6_3;1
*Tx_1Ko_6_2;2
*Tx_1Tm_6_5;3
*Tx_1Tm_6_2;2
*Tx_2Ko_8_9;2
*Tx_1Ko_10_18;2
*Tx_1Tm_4_8;2
*K_1Ko_6;28
*K_1Ko_7;63
*K_1Ko_4;35
*K_1Ko_5;18
*K_1Ko_2;19
*K_1Ko_3;34
*K_1Ko_1;43
*K_1Ko_8;18
*K_1Ko_9;46
*Tx_Erm_4_6;3
*Tx_1Ko_11_34;2
*Tx_Erm_4_3;2
*Tx_Erm_8_13;2
*Tx_Ga_3_21;2
*Tx_Erm_4_9;2
*Tx_Erm_6_1;2
*Tx_1Ko_10_13;3
*Tx_1Ko_10_16;2
*Tx_Erm_6_9;2
*Tx_1Ts_4_3;2
*Tx_1Ko_2_6;2
*Tx_Ga_3_19;2
*Tx_Erm_15_19;2
*Tx_1Ko_12_28;2
*L_Erromatarrei;607
*Tx_Erm_15_12;2
*Tx_Erm_15_11;2
*Tx_1Ts_4_1;2
*Tx_Erm_15_16;3
*Tx_1Tm_4_12;2
*Tx_1Ko_12_26;2
*Tx_1Tm_4_16;2
*Tx_1Tm_4_14;2
*Tx_Ga_1_10;3
*Tx_Ga_1_13;2
*Tx_1Ko_9_18;2
*Tx_1Ko_9_10;3
*Tx_1Ko_9_12;3
*Tx_Erm_1_13;3
*Tx_1Ko_9_15;3
*Tx_1Ko_9_16;2
*Tx_Erm_1_10;2
*K_Flp_3;29
*K_Flp_2;27
*K_Flp_1;35
*K_Flp_4;28
*Tx_2Tm_1_5;2
*Tx_Erm_2_9;2
*Tx_2Ko_10_7;1
*Tx_2Ko_10_8;2
*Tx_2Ko_8_23;2
*Tx_2Ko_8_22;2
*Tx_2Tm_1_8;3
*Tx_Erm_7_14;2
*Tx_2Tm_3_2;2
*Tx_2Ko_12_5;2
*K_2Ko_9;19
*Tx_Erm_7_10;2
*Tx_Erm_7_13;3
*K_2Ko_5;24
*K_2Ko_4;25
*K_2Ko_7;31
*K_2Ko_6;26
*K_2Ko_1;34
*K_2Ko_3;21
*K_2Ko_2;25
*Tx_Flp_1_27;3
*Tx_Erm_2_22;2
*Tx_Erm_8_30;2
*Tx_Erm_8_31;2
*Tx_Flp_1_28;2
*Tx_Erm_8_35;2
*Tx_1Ts_3_6;2
*Tx_1Ts_3_3;2
*Tx_Erm_8_3;2
*Tx_2Ko_13_11;3
*Tx_2Tm_4_10;2
*Tx_1Ts_3_9;2
*Tx_Erm_8_7;2
*Tx_Erm_8_5;2
*Tx_Erm_5_13;2
*Tx_Erm_5_12;2
*Tx_Erm_5_16;3
*Tx_1Ts_2_18;2
*Tx_1Ts_2_19;2
*Tx_1Ts_2_16;3
*Tx_1Ts_2_14;2
*Tx_1Ts_2_13;4
*Tx_Ga_4_31;2
*Tx_Ga_4_30;2
*Tx_Erm_12_2;2
*Tx_Erm_2_29;2
*Tx_Erm_9_20;2
*Tx_Erm_9_27;3
*Tx_Erm_9_29;2
*Tx_1Tm_6_10;1
*K_Erm_9;44
*Tx_1Ko_9_7;3
*K_Erm_8;51
*Tx_1Ko_7_18;1
*Tx_2Ko_11_23;3
*Tx_1Ko_9_1;2
*Tx_2Ko_11_21;2
*Tx_2Ko_7_14;2
*Tx_2Ko_7_13;2
*Tx_1Ko_9_8;2
*Tx_1Ko_9_9;2
*Tx_Erm_10_18;3
*Tx_1Ko_7_39;2
*Tx_Ga_2_20;2
*Tx_Ga_2_21;2
*Tx_1Ko_7_30;2
*Tx_1Ko_7_31;2
*Tx_1Ko_7_32;2
*Tx_Erm_10_13;3
*Tx_Erm_10_14;3
*Tx_1Ko_7_35;2
*Tx_Erm_10_16;2
*Tx_Ga_5_14;2
*Tx_Ga_5_15;2
*Tx_Ef_6_18;2
*Tx_Ga_5_17;3
*Tx_Ga_5_10;2
*Tx_Ga_5_11;2
*Tx_Ga_5_13;3
*Tx_2Ko_1_14;2
*Tx_2Ko_1_17;2
*Tx_2Ko_1_11;2
*Tx_2Ko_1_10;2
*Tx_1Ko_12_9;2
*Tx_2Ko_1_12;3
*Tx_2Ko_11_27;2
*K_Erm_7;38
*Tx_1Ko_12_3;2
*Tx_1Ko_7_5;2
*Tx_1Ko_7_7;2
*Tx_1Ko_14_9;2
*Tx_1Ko_14_5;1
*Tx_1Ko_14_4;1
*Tx_1Ko_14_7;2
*K_Erm_4;40
*Tx_1Ko_14_1;2
*Tx_1Ko_7_9;2
*Tx_1Ko_14_3;2
*Tx_1Ko_14_2;1
*Tx_Kol_2_8;1
*Tx_1Ko_5_1;2
*Tx_1Ko_7_17;2
*Tx_1Ko_16_2;2
*Tx_Kol_4_9;2
*Tx_1Ko_16_7;2
*Tx_1Ko_16_6;2
*K_Flm_1;24
*Tx_1Ko_6_11;1
*Tx_1Ko_6_13;3
*Tx_1Ko_6_12;2
*Tx_1Ko_6_15;2
*L_Titori;48
*Tx_1Ko_7_14;4
*Tx_Ga_4_21;2
*Tx_1Ko_16_15;2
*Tx_1Ko_4_17;2
*Tx_1Ko_3_9;2
*Tx_1Ko_4_15;2
*Tx_1Ko_4_13;2
*Tx_1Ko_4_12;2
*Tx_1Ko_4_10;2
*Tx_2Ts_2_13;2
*Tx_1Ko_3_3;3
*Tx_1Ko_3_5;2
*Tx_1Ko_4_19;2
*Tx_2Ts_2_14;2
*Tx_1Ko_9_22;2
*K_2Ts_1;14
*K_2Ts_2;17
*K_2Ts_3;23
*Tx_1Ko_5_6;2
*Tx_1Ko_5_7;2
*Tx_1Ko_10_7;2
*Tx_1Ko_9_21;2
*K_Tt_3;14
*Tx_Flp_2_12;3
*Tx_Flp_2_16;2
*Tx_1Ko_9_25;2
*Tx_Erm_16_2;2
*K_Tt_1;21
*Tx_Erm_16_4;2
*Tx_Flm_1_19;2
*Tx_Erm_16_7;1
*Tx_Erm_7_25;3
*Tx_Flm_1_11;2
*Tx_1Ts_2_9;2
*K_2Tm_2;24
*K_2Tm_3;20
*K_2Tm_1;21
*K_2Tm_4;26
*K_1Ts_3;15
*Tx_1Ko_9_26;2
*K_1Ts_2;29
*Tx_1Ko_15_49;1
*K_1Ts_1;12
*Tx_1Ko_15_41;2
*Tx_1Ko_15_43;2
*Tx_1Ko_15_42;2
*Tx_1Ko_15_45;1
*Tx_1Ko_15_44;2
*Tx_Erm_16_5;0
*Tx_Ef_6_20;2
*Tx_2Ko_13_9;2
*Tx_2Ko_13_7;2
*Tx_2Ko_13_5;3
*Tx_2Ko_13_4;4
*Tx_2Ko_13_3;3
*Tx_2Ko_13_2;2
*Tx_2Ko_13_1;2
*Tx_1Ko_5_11;3
*Tx_1Ko_14_27;0
*Tx_Erm_11_22;3
*Tx_1Ko_14_20;3
*Tx_Erm_11_20;2
*K_Kol_4;17
*Tx_Erm_11_26;3
*K_Kol_2;26
*K_Kol_1;25
*Tx_Erm_11_25;2
*Tx_2Ts_3_8;2
*Tx_2Ts_3_9;2
*Tx_Erm_7_21;2
*Tx_1Ko_6_20;2
*Tx_Erm_11_2;2
*Tx_Erm_11_1;2
*Tx_Erm_11_7;2
*Tx_Erm_11_6;2
*Tx_Erm_11_4;5
*Tx_Kol_2_13;2
*Tx_Erm_11_9;2
*Tx_Erm_11_8;3
*Tx_1Ko_14_36;2
*Tx_Erm_2_1;2
*Tx_Flp_1_7;2
*Tx_Erm_3_29;3
*Tx_1Ko_1_31;3
*Tx_2Ko_11_15;2
*K_Ef_2;27
*Tx_2Ko_11_16;2
*Tx_Erm_3_20;2
*Tx_2Ko_11_9;3
*Tx_Erm_10_20;3
*Tx_2Tm_3_11;2
*Tx_1Tm_1_15;2
*Tx_2Tm_3_15;2
*Tx_2Ko_11_2;2
*Tx_2Ko_11_7;2
*K_2Ko_8;32
*Tx_Erm_6_23;2
*Tx_Erm_6_21;2
*Tx_Ef_5_8;3
*Tx_Ef_5_4;1
*Tx_2Ko_1_20;2
*Tx_2Ko_1_23;2
*Tx_2Tm_1_18;2
*Tx_2Tm_1_10;2
*Tx_2Tm_1_12;1
*Tx_Flp_4_17;2
*Tx_Erm_1_29;2
*Tx_Erm_13_9;2
*Tx_Erm_13_4;3
*Tx_Erm_1_21;2
*Tx_Erm_1_26;2
*Tx_Erm_1_27;2
*Tx_Erm_13_3;2
*Tx_2Ko_12_9;2
*Tx_1Ko_15_15;2
*Tx_1Ko_11_5;2
*Tx_1Ko_15_10;3
*Tx_2Ko_8_10;2
*Tx_2Ko_8_11;2
*Tx_2Ko_8_15;2
*Tx_Erm_12_16;3
*Tx_Erm_12_17;1
*Tx_Erm_12_11;2
*Tx_2Ko_11_26;2
*Tx_2Ko_12_18;3
*Tx_Erm_12_19;3
*Tx_Erm_8_24;2
*Tx_1Ko_15_6;2
*Tx_Erm_8_26;2
*Tx_Erm_8_23;1
*Tx_1Ko_15_3;2
*Tx_1Ko_12_31;2
*Tx_Kol_1_9;2
*Tx_1Ko_12_30;1
*Tx_2Ko_12_14;3
*Tx_Erm_2_21;2
*Tx_Kol_3_5;2
*Tx_Erm_2_25;2
*Tx_Erm_2_24;2
*Tx_Tt_1_16;3
*Tx_Erm_2_28;2
*K_1Ts_5;27
*Tx_1Ko_14_21;2
*Tx_Ef_2_8;2
*Tx_1Ko_7_19;1
*Tx_Ef_2_3;3
*Tx_Ga_4_27;4
*Tx_Ga_4_24;3
*Tx_Ga_4_22;2
*Tx_Ga_4_23;2
*Tx_Erm_15_6;1
*Tx_Erm_9_30;2
*Tx_Erm_9_33;2
*Tx_Ga_4_29;2
*Tx_Flp_4_9;2
*Tx_Flp_4_3;2
*Tx_Ef_5_33;2
*Tx_Flp_4_1;2
*Tx_2Ts_3_12;2
*K_Ef_6;27
*Tx_1Ko_14_34;2
*Tx_Erm_8_9;2
*K_Ef_5;32
*K_Ef_4;33
*Tx_1Ko_2_15;2
*Tx_1Ko_2_14;2
*Tx_1Ko_2_11;2
*Tx_1Ko_2_12;2
*Tx_Erm_15_9;3
*K_Ef_3;19
*Tx_Ga_2_10;1
*K_Ef_1;9
*Tx_Erm_15_21;2
*Tx_Erm_15_3;1
*Tx_Ga_2_14;2
*Tx_Ga_2_17;2
*Tx_Ga_2_16;3
*Tx_1Ko_7_29;2
*Tx_1Ko_7_28;3
*Tx_Ef_6_4;2
*Tx_1Ko_7_23;2
*Tx_Ef_6_9;2
*Tx_1Ko_7_21;2
*Tx_1Ko_7_25;2
*Tx_Ga_5_21;2
*Tx_Erm_8_34;2
*Tx_Erm_14_14;2
*Tx_Erm_14_15;2
*Tx_Erm_14_11;3
*Tx_Erm_5_20;2
*Tx_Kol_3_15;2
*Tx_1Ko_16_20;0
*Tx_Kol_3_16;3
*Tx_Kol_3_11;2
*Tx_Kol_3_13;2
*Tx_1Ko_11_18;2
*L_Efesoarrei;147
*Tx_Ef_4_18;2
*Tx_Erm_5_15;2
*K_Kol_3;31
*Tx_Ef_4_16;2
*Tx_Ef_4_17;2
*Tx_Kol_4_12;1
*Tx_1Tm_1_20;2
*Tx_2Ko_2_17;2
*Tx_Ga_4_6;2
*Tx_Erm_10_8;4
*Tx_Ga_4_9;2
*Tx_Erm_10_5;2
*Tx_Ga_6_1;2
*Tx_Erm_1_17;3
*Tx_Ga_6_7;2
*Tx_Ga_6_8;2
*Tx_Ga_2_9;2
*Tx_Ga_2_4;2
*Tx_Ga_2_2;2
*Tx_2Ts_1_10;3
*Tx_Flm_1_20;2
*Tx_Erm_14_6;3
*Tx_Erm_14_4;3
*Tx_Erm_14_5;3
*Tx_Erm_14_2;2
*Tx_Ga_5_23;2
*Tx_1Tm_5_13;2
*Tx_Erm_8_15;3
*Tx_Erm_8_17;2
*Tx_1Ko_14_23;1
*Tx_1Tm_5_18;1
*Tx_Erm_14_8;3
*Tx_Erm_14_9;2
*Tx_Ga_6_15;1
*Tx_Ga_6_14;2
*Tx_Erm_12_6;2
*Tx_Erm_12_1;2
*Tx_Ga_6_13;2
*Tx_Erm_12_3;3
*Tx_1Ko_15_52;2
*Tx_1Ko_12_24;2
*Tx_Erm_12_8;2
*Tx_Erm_12_9;2
*Tx_1Ko_15_54;3
*Tx_Erm_14_20;2
*Tx_Erm_14_23;2
*Tx_Erm_14_22;2
*Tx_1Ko_3_7;2
*Tx_Erm_11_17;2
*Tx_Erm_11_15;2
*Tx_Erm_11_11;2
*Tx_Ga_4_17;1
*Tx_Ga_4_15;2
*Tx_Ga_4_14;2
*Tx_Kol_2_23;2
*Tx_Ga_4_12;2
*Tx_Erm_11_18;2
*L_Tesalonikarrei1;103
*L_Tesalonikarrei2;54
*K_Ga_6;22
*K_Ga_4;46
*K_Ga_5;39
*K_Ga_2;31
*K_Ga_3;45
*Tx_1Ko_1_30;2
*K_Ga_1;25
*Tx_Ef_3_5;2
*Tx_Erm_11_3;2
*Tx_1Ko_14_26;1
*Tx_Ef_3_6;2
*K_2Ko_11;42
*K_2Ko_10;25
*K_2Ko_13;25
*K_2Ko_12;34
*Tx_2Ts_3_6;2
*Tx_1Ko_8_8;2
*Tx_Flp_3_4;2
*Tx_Flp_3_1;2
*Tx_Flp_3_5;3
*Tx_2Ko_12_19;2
*Tx_Flp_3_9;2
*Tx_2Ko_12_15;2
*Tx_Erm_3_31;2
*Tx_2Ko_12_17;2
*Tx_2Ko_12_10;2
*Tx_2Ko_12_11;2
*Tx_2Ko_12_12;2
*Tx_2Ts_3_10;2
*L_Timoteori1;121
*L_Timoteori2;91
*Tx_1Tm_3_11;2
*Tx_2Ts_3_17;1
*Tx_Erm_6_13;2
*Tx_Erm_6_16;3
*Tx_Erm_6_19;3
*Tx_2Ko_10_18;2
*Tx_Kol_3_22;2
*Tx_2Ko_10_12;3
*Tx_2Ko_10_13;2
*Tx_2Ko_10_10;1
*Tx_Tt_3_15;1
*Tx_2Ko_10_15;3
*Tx_Erm_16_19;2
*Tx_Erm_1_32;3
*Tx_Erm_16_12;1
*Tx_Erm_16_16;0
*Tx_Flp_3_18;2
*Tx_Flp_3_15;2
*Tx_Flp_3_14;2
*Tx_Flp_3_12;2