"";"Coord. facteur 1";"Coord. facteur 2";"Coord. facteur 3";"Coord. facteur 4";"Coord. facteur 5";"Coord. facteur 6";"Corr. facteur 1";"Corr. facteur 2";"Corr. facteur 3";"Corr. facteur 4";"Corr. facteur 5";"Corr. facteur 6";"COR -facteur 1";"COR -facteur 2";"COR -facteur 3";"COR -facteur 4";"COR -facteur 5";"COR -facteur 6";"CTR -facteur 1";"CTR -facteur 2";"CTR -facteur 3";"CTR -facteur 4";"CTR -facteur 5";"CTR -facteur 6";"mass";"chi.distance";"inertie"
"classe 1";-0,0635104905291422;-0,829364135559413;-0,257470782305208;2,37222491996184;-0,480542724509775;0,6298262032797;-0,0239820685648068;-0,313174522798732;-0,0972230241529094;0,895771079827564;-0,181456771495481;0,237827405600573;0,000668879479302518;0,110613700311496;0,00842584240115071;0,558487207045571;0,0208934906582917;0,0293217451007731;0,00028229049647306;0,0481388626935617;0,00463939370177656;0,393837486454373;0,016161041150736;0,0277617458145377;0,0699850574431081;0,592150942225808;0,0245397521874569
"classe 2";0,802024070827523;0,0809474374858779;1,31936177011212;0,072078399769821;0,239752034461759;-0,636281194156533;0,474409307064277;0,0478816274013835;0,780422341289794;0,0426354581276107;0,141816936265886;-0,376369901350188;0,260696258289582;0,00257529914008127;0,540739720518722;0,00126012848348012;0,0127108515597381;0,073139096811307;0,13889678879054;0,00141489303841457;0,37587651471034;0,00112183160751116;0,0124120067173331;0,0874209606618444;0,215932195086103;0,378774643062028;0,0309798417423744
"classe 3";0,433497594898122;-1,78867814151355;0,0561867978850904;-3,49049628520487;-5,00910659024001;-4,10799719221892;0,0571476981083142;-0,235800243524257;0,00740706799991504;-0,460149791608323;-0,660347172811139;-0,541554523332249;0,00421114128190619;0,0695268105789413;5,42244905050074e-05;0,163397478870173;0,306787052105326;0,168569162584276;0,001914969221995;0,0326026433499301;3,21704383004013e-05;0,124154588243982;0,255687184045086;0,171968415535651;0,0101903338804106;1,61082247339643;0,0264413590616168
"classe 4";-0,814113343746615;-0,868181129118304;-0,23609598416224;-0,66861190972994;-2,37208976235971;0,988211838122799;-0,27886686687404;-0,29738727809348;-0,0808724582278295;-0,229026719501957;-0,812537031918644;0,338502668236466;0,0793829655606494;0,0875466912045682;0,00511723381837178;0,0320442678286642;0,367713744657313;0,0521373679436659;0,0340620132157433;0,0387365778179964;0,00286469089046252;0,0229746436194557;0,289176372284527;0,0501880903519749;0,0513925973103398;0,696758230165914;0,0249496686102359
"classe 5";0,45680877528789;0,379715384135019;1,44022585767366;0,0191645023305625;-0,0963837793711635;1,47202994291309;0,212904020961186;0,176973246742508;0,671243401569397;0,00893196415354617;-0,0449214097750729;0,686066272750453;0,0342318321532518;0,0229371330628696;0,260809234252385;3,60579409447979e-05;0,000831494198886265;0,158447715488251;0,0149414509893248;0,0103238166800421;0,148520056664377;2,62977740787518e-05;0,00066516869515507;0,155151931576073;0,071601793106827;0,595360832365116;0,025379579257978
"classe 6";-0,348255350051918;-0,844706074421152;-0,589312579083729;2,05978468578844;-1,04311018128902;0,220171929897447;-0,135956706060929;-0,329767957479583;-0,2300639375118;0,804127032169913;-0,407223677354938;0,0859537415619663;0,0166441154159794;0,0949593732861106;0,0365306193820564;0,348460325635921;0,0814733447321305;0,0029653806467157;0,0056180060920567;0,0330520077883083;0,0160871101169244;0,196530636941677;0,050401908383361;0,0022454868199207;0,0463219263650393;0,650921072589997;0,0196265188012781
"classe 7";0,0986469501506245;1,61133194521241;-0,929551439590602;-0,0261191637155657;-0,205431584342661;-0,164112538255044;0,0524302253699401;0,856412660546259;-0,494050666505872;-0,0138821690684859;-0,109185577949886;-0,0872247682630502;0,00299343028989692;0,774521250781206;0,203727270778293;0,000125592851820743;0,00708314784381566;0,00369297845643263;0,00209675471984612;0,559435907426572;0,186177485004048;0,000146993739639708;0,00909315794766018;0,00580315043405108;0,215466771182912;0,434770413314722;0,0407286737117984
"classe 8";-1,61177681267604;-0,179304830949;0,327835351787021;-0,973942963020952;0,702692932316723;0,84649656417233;-0,728397928741554;-0,0810318565507598;0,148156115246163;-0,440146570789179;0,317562625554228;0,382550697578435;0,600219861286855;0,00720354074182328;0,0190332350141694;0,13116324920305;0,0622474805343666;0,0737976240895974;0,367308698005443;0,00454574832085639;0,0151961290255733;0,134118427729429;0,0698156163276116;0,101314546509906;0,141390882590696;0,501661319744726;0,0355830063491201
"classe 9";-1,66504591528768;-0,786262816779285;-0,357266221458616;0,548929310843766;1,36702113199597;-2,17131336933776;-0,516236895260232;-0,243775785199636;-0,110768119517764;0,170192041279752;0,423836206832046;-0,673201899198249;0,279184697091575;0,0603720798332105;0,00985198140340935;0,0181600310767183;0,102678541259171;0,211629214530911;0,123532209786872;0,0275462990425347;0,00568737278736206;0,0134264322397645;0,0832680200943953;0,210074237056714;0,0445582147318913;0,75987350689733;0,0257282583557115
"classe 10";-1,24560253517225;-0,799425776405975;-0,645594077361737;0,529636873828892;0,945214859135654;-2,42333527435997;-0,400892659695385;-0,257292287614139;-0,207782113032826;0,170461707508207;0,304213975295168;-0,779941671632408;0,127326261441248;0,0508600515136983;0,0262167337769518;0,013777169802827;0,0400046203696594;0,214821356302326;0,0391843561612816;0,0161402420379136;0,0105262292290869;0,00708451583374416;0,0225639344232097;0,148313524762217;0,0252553707468829;0,84174662451578;0,0178943742169881
"classe 11";1,81868075490411;-1,09020819051336;-1,87777093719912;-0,939355946914006;1,14898444347492;0,671498992641328;0,556620823561211;-0,333666356352203;-0,5747058150281;-0,287496900914842;0,351655267402744;0,20551728020251;0,314777403729938;0,109690992997663;0,257203172523703;0,0502568828901949;0,068550236324637;0,0191281409524956;0,169500001171813;0,0609081830341179;0,180693274989531;0,0452186030606684;0,0676526885779753;0,0231072090922157;0,0512456213409108;0,781655864185583;0,0313103515643845
"classe 12";0,892254911016656;-1,42725334478871;-0,516822629581532;-1,25691842859919;-0,902827558495782;-0,253549843966496;0,378417193042231;-0,60531715525071;-0,21919136154051;-0,533075848348767;-0,382901193671061;-0,107533866236468;0,0816069833295544;0,20249441497376;0,02098615911061;0,0969188341339972;0,045587848570496;0,00293743016908352;0,028745539276093;0,0735520370979681;0,00964440877151892;0,0570435774413548;0,0294308077054434;0,0023212358096022;0,0361070964897239;0,7531581478064;0,0204816492253133
"classe 13";1,89645881334419;-2,13410535561775;-1,46409712423331;-0,458258417432081;2,13489535182792;0,834999998701133;0,47771795421111;-0,53758111559455;-0,368806049482166;-0,115435290308065;0,537780115631197;0,210336490483745;0,173808641392858;0,213440940574133;0,0794007853089652;0,00607365333038166;0,120178774192042;0,0150192729383262;0,0739169220725183;0,093602781671785;0,0440551636706992;0,00431596531432357;0,0936720936475067;0,0143294655752913;0,0205521397251549;1,09690401624574;0,024728302062519
