"";"X.L_Efesoarrei";"X.L_Erromatarrei";"X.L_Filemoni";"X.L_Filipostarrei";"X.L_Galaziarrei";"X.L_Kolosarrei";"X.L_Korintoarrei1";"X.L_Korintoarrei2";"X.L_Tesalonikarrei1";"X.L_Tesalonikarrei2";"X.L_Timoteori1";"X.L_Timoteori2";"X.L_Titori"
"déjà";-0,6304;-0,7926;-0,089;1,0942;-0,2401;-0,4121;-0,2504;0,5076;0,2231;1,047;-0,1388;0,7914;-0,1804
"devenir";-0,2128;1,0515;-0,2003;-0,2288;-0,4368;-0,1849;0,8115;-0,661;0,4885;-0,5002;-0,4929;-0,7191;0,2165
"obéissance";-0,3151;1,3518;1,0116;-0,2292;-0,3227;-0,206;-1,054;1,3845;-0,198;-0,1111;-0,2285;-0,1597;-0,0902
"aux";1,6531;-1,4274;-0,4454;1,1427;0,5413;0,7408;-0,297;-0,3561;-1,228;-1,1123;-0,2265;-0,9219;2,3332
"liberté";0,2597;-0,5569;0,9724;-0,2521;2,2403;-0,2266;-0,2471;0,3239;-0,2178;-0,1222;-0,2513;-0,1757;-0,0992
"siècle";1,2067;-0,5051;-0,1379;0,3206;0,4149;-0,6388;0,2887;-1,2672;-0,6139;-0,3445;1,1423;0,9997;0,3235
"voir";-0,9229;0,3749;-0,227;0,9203;2,5293;-0,2386;-0,6974;-1,2406;0,7177;-0,2009;0,5774;-0,3507;-0,4602
"mauvais";1,1566;-0,7929;-0,0623;0,2821;-0,1337;0,8692;-0,407;-0,4077;-0,2772;-0,1556;0,7983;0,3953;-0,1263
"chez";-1,1664;-1,5595;-0,1647;-0,8482;-0,6082;0,287;1,0791;2,4273;0,6438;0,6202;-0,3685;-0,2133;-0,3338
"chef";1,9891;-1,3736;-0,0578;-0,2979;-0,4195;0,9232;1,9708;-0,8608;-0,2574;-0,1444;-0,297;-0,2077;-0,1173
"tirer";0,7516;-1,1623;-0,0489;-0,2521;-0,355;0,3909;0,7056;0,7088;0,4041;-0,1222;-0,2513;-0,1757;-0,0992
"paraître";0,2142;-0,7126;-0,0578;0,3042;-0,4195;1,6986;-0,7102;0,5598;-0,2574;2,4201;-0,297;-0,2077;-0,1173
"christ";3,8997;-1,6804;1,3631;4,0585;1,5923;1,2714;-2,4329;-0,7731;-1,353;0,3021;-0,7657;-0,3146;-0,9791
"propre";-0,4893;-0,8518;1,05;-0,2712;-0,2752;-0,4806;0,6123;-2,288;0,4272;0,4534;1,9225;1,5044;-0,1348
"toute";3,9059;-0,8707;0,5851;-0,3582;-1,5734;1,4439;-2,1583;0,5338;-0,7264;0,3518;-0,3556;1,2097;0,4928
"mes";-0,6997;-0,3421;1,6301;6,5855;-0,7281;-0,6437;-0,6447;-0,8824;-0,6086;-0,2593;-1,3718;2,2409;-0,1872
"même";-0,3658;-0,4313;0,4798;3,0446;-1,122;-1,0412;2,4725;0,3217;-0,9772;-1,2905;-0,8274;-0,6861;-0,511
"connaissance";0,7051;-1,2718;-0,1469;0,2913;-0,5153;0,7091;0,8086;0,494;-0,6535;-0,3667;-0,3096;0,4742;0,3044
"prêcher";-0,5358;-0,5921;-0,0756;0,6644;0,9296;0,2568;-0,5896;0,3574;0,7596;-0,1889;0,2283;0,3326;-0,1533
"patience";-0,1445;0,3851;-0,0667;-0,3438;-0,1502;0,2932;-1,5811;0,446;0,3051;0,4966;0,263;0,3726;0,5724
"tels";-0,3467;-0,5569;-0,0489;0,3562;-0,355;-0,2266;1,1749;1,2385;-0,2178;-0,1222;-0,2513;-0,1757;-0,0992
"leurs";0,6625;1,5609;-0,2047;-0,5112;-0,8269;-0,4379;-3,7157;0,7109;-0,4131;-0,5113;0,6804;0,3024;2,6066
"couper";-0,3467;-0,5569;-0,0489;-0,2521;-0,355;-0,2266;5,7211;-0,7283;-0,2178;-0,1222;-0,2513;-0,1757;-0,0992
"agréable";-0,1445;0,3851;-0,0667;0,2621;-0,1502;0,82;-0,8717;-0,1925;-0,297;-0,1667;0,7504;0,3726;-0,1353
"ma";-1,6396;-1;0,3839;5,0021;0,5015;-0,2481;-0,5372;0,3396;-1,03;0,421;-1,1888;1,9655;-0,4693
"naître";-0,3782;-0,2988;-0,0534;0,3287;4,071;-0,2472;-0,6317;-0,7946;-0,2376;-0,1333;0,3296;0,4475;-0,1082
"joie";-0,8826;-0,6088;0,6031;2,5862;-0,4039;0,4264;-2,952;1,913;1,4649;-0,3112;-0,6399;-0,1357;-0,2526
"vos";2,2871;-1,0926;0,313;1,3117;-2,099;4,4125;-2,1257;0,6965;0,4829;0,6456;-1,4862;-1,039;-0,5867
"amour";1,0662;0,517;-0,1513;0,5962;-0,5382;-0,2769;-1,8627;0,2705;0,3457;0,6742;-0,3241;0,4574;0,2954
"jusqu";-0,2876;0,3924;-0,1647;0,5289;0,3011;-0,7625;0,2518;0,5805;-0,7328;0,2132;0,2426;0,4111;-0,3338
"nombre";-0,1445;-0,2306;-0,0667;-0,3438;-0,4841;0,2932;0,387;0,446;-0,297;-0,1667;0,7504;0,3726;-0,1353
"quoi";0,2874;-1,0566;-0,0445;1,0443;-0,3227;1,1228;-0,4803;0,8015;-0,198;0,6464;-0,2285;-0,1597;-0,0902
"nousmêmes";-0,4412;-0,4088;-0,0623;-0,3208;0,5768;-0,2884;-0,7903;2,8109;0,3263;0,5214;-0,3199;-0,2236;-0,1263
"ministre";0,5911;-0,4088;-0,0623;-0,3208;-0,1337;2,5002;-1,4757;0,4992;0,3263;-0,1556;0,2829;-0,2236;-0,1263
"incirconcis";0,2142;2,6762;-0,0578;-0,2979;0,624;0,337;-0,7102;-0,8608;-0,2574;-0,1444;-0,297;-0,2077;-0,1173
"exhorter";-0,39;-0,3792;-0,1246;0,3711;-0,9038;-0,2039;-0,9297;-0,3696;1,4649;0,2911;0,3725;0,5714;2,611
"céleste";2,8739;-1,3736;-0,0578;0,3042;-0,4195;-0,2678;0,8933;-0,3637;-0,2574;-0,1444;-0,297;0,4201;-0,1173
"boire";-0,5988;-0,4114;-0,0845;-0,4355;-0,6132;0,2262;5,7563;-1,2582;-0,3762;-0,2111;0,1993;-0,3035;-0,1714
"afin";0,8117;-0,9888;-0,1727;0,357;0,3477;-0,2485;-0,7296;1,025;-1,2454;0,4155;0,4988;-0,8118;2,0858
"sagesse";0,431;-2,2966;-0,1379;-0,7106;-1,0006;2,5753;4,9709;-1,2672;-0,6139;-0,3445;-0,7085;-0,1604;0,3235
"fin";-0,3782;0,3033;-0,0534;0,3287;-0,3872;-0,2472;0,6056;0,629;-0,2376;-0,1333;0,3296;-0,1917;-0,1082
"mettre";1,0002;-0,7128;-0,2047;0,6775;0,9645;-0,9481;-0,9736;0,7109;-0,1785;-0,5113;0,6804;-0,2997;0,2108
"vivre";-0,8982;1,8572;-0,2225;-0,2822;0,8367;-0,2293;-3,2419;-0,2308;0,7388;0,879;-0,2806;0,265;-0,1394
"vouloir";-2,3339;0,265;0,2743;-0,5842;1,0894;0,3468;-0,3367;0,454;-0,237;0,2512;1,0729;-0,3034;-0,2605
"l";0,5552;0,7088;-0,859;-0,4776;1,5874;-0,2915;0,9086;-2,228;-0,2747;0,4309;-0,2675;-1,0581;-1,1505
"espèce";1,9891;-0,7126;0,9042;-0,2979;-0,4195;-0,2678;-0,7102;-0,3637;0,3496;-0,1444;0,3051;0,4201;1,5479
"autre";-1,0481;-1,2103;-0,2493;-0,3511;0,6771;-0,5833;10,357;-1,059;-1,1093;-0,6225;-1,2803;-0,895;-0,5054
"langue";-0,8511;-1,3081;-0,1201;-0,2273;-0,8715;-0,5563;12,8445;-1,7881;-0,5347;-0,3;-0,617;-0,4314;-0,2436
"douceur";0,2142;-1,3736;-0,0578;0,3042;0,624;0,337;-0,7102;-0,3637;0,3496;-0,1444;0,3051;1,9897;0,6259
"ange";-0,4412;-0,7929;-0,0623;-0,3208;1,1327;0,314;0,4487;0,2155;-0,2772;0,5214;0,7983;-0,2236;-0,1263
"force";1,3303;-0,2988;-0,0534;-0,275;-0,3872;0,3625;-0,2974;-0,3208;-0,2376;0,5778;-0,2742;1,1697;-0,1082
"service";-0,3151;-0,2011;-0,0445;1,9071;-0,3227;1,1228;-0,2001;-0,6621;-0,198;-0,1111;-0,2285;0,5118;-0,0902
"toi";-0,9229;4,3249;4,8793;-0,5934;0,3003;-1,0512;-3,3313;-3,3787;-1,0102;-0,5669;0,3106;3,3437;0,5496
"ton";-0,4325;2,7056;3,6268;-0,6877;-0,4478;-0,6182;-1,0611;-1,9869;-0,5941;-0,3334;0,7048;1,6582;-0,2707
"autrement";-0,3151;0,8223;-0,0445;-0,2292;0,2804;-0,206;1,3555;-0,6621;-0,198;-0,1111;-0,2285;-0,1597;-0,0902
"et";0,9935;-1,6104;-0,3325;1,4303;-1,8835;2,9339;-3,6464;-1,6636;0,6033;1,4683;4,5773;1,8008;1,2892
"prendre";1,0358;-2,1702;-0,2003;2,1164;-0,2249;-0,1849;0,4278;-0,4277;0,4885;-0,1643;0,3896;-0,2897;-0,4061
"glorifier";-0,8247;0,513;-0,2092;0,6554;0,3595;-0,9687;-1,3695;4,4359;-0,9309;0,938;-1,0744;-0,7511;-0,4241
"impudicité";0,2355;-0,6339;-0,0534;-0,275;0,2291;0,3625;1,5591;-0,3208;0,3754;-0,1333;-0,2742;-0,1917;-0,1082
"commandement";0,2142;1,3716;-0,0578;-0,2979;-0,4195;-0,2678;-0,3508;-0,8608;-0,2574;-0,1444;1,5831;-0,2077;0,6259
"tandis_que";-0,5358;0,5259;-0,0756;0,2275;0,4604;-0,3502;0,2882;0,3574;-0,3366;-0,1889;0,6663;-0,2716;-0,1533
"alors";-0,3782;-1,2679;-0,0534;-0,275;1,3053;0,3625;1,0229;-0,3208;0,3754;0,5778;-0,2742;-0,1917;-0,1082
"manifester";1,0814;0,3775;-0,1068;-0,1882;-0,7746;-0,4945;-1,0762;0,35;-0,4752;-0,2667;0,4556;0,6689;1,8964
"revêtir";0,8191;-0,482;-0,0445;-0,2292;0,2804;0,4228;-0,2001;0,373;0,4364;-0,1111;-0,2285;-0,1597;-0,0902
"don";0,5375;0,9297;-0,1736;-0,4006;-0,6557;-0,8037;2,7769;-1,1429;-0,7724;-0,4335;-0,3989;-0,2318;-0,3519
"m";-1,1255;-2,2723;-0,3562;2,1078;1,2283;-0,9599;-0,4873;0,629;-0,9096;-0,8896;-0,2155;6,01;-0,2937
"coeur";0,9327;0,5501;0,9153;-0,1939;-1,1602;1,2608;-2,1694;1,1806;0,3076;0,3555;-0,7265;-0,436;-0,5325
"cependant";-0,3151;-0,2011;-0,0445;1,0443;-0,3227;-0,206;0,4327;0,373;-0,198;0,6464;-0,2285;-0,1597;-0,0902
"de";4,093;-1,6851;0,7276;1,422;-0,3773;0,4227;-6,8921;1,4192;0,7485;1,4051;-0,4745;0,7414;0,982
"du";1,3859;-0,3189;-0,5895;-3,1919;-2,8254;1,0208;2,3405;-1,0058;0,9262;1,4831;-0,4954;-0,7675;-1,0138
"révélation";0,7516;-0,2483;-0,0489;-0,2521;0,736;-0,2266;0,3627;0,3239;-0,2178;-0,1222;-0,2513;-0,1757;-0,0992
"nul";-0,3782;1,0195;-0,0534;0,3287;0,2291;-0,2472;0,6056;-0,7946;-0,2376;-0,1333;0,3296;-0,1917;-0,1082
"sorte";1,0358;-0,3165;-0,2003;-1,0317;-0,4368;0,812;-0,4648;1,3426;0,4885;-0,1643;-1,0286;-0,7191;0,2165
"bien";-0,3262;0,9482;0,6832;0,3723;0,2589;-1,009;-2,0589;1,3968;-0,3089;-0,424;0,876;-0,3772;-0,3107
"uns";1,3289;0,5296;-0,1691;-0,8711;1,2887;0,5898;-0,8457;-1,096;0,6216;-0,4223;-0,8686;0,397;0,2629
"une";-1,131;-0,5039;-0,5412;0,426;-0,7929;0,4651;1,3341;-0,3612;-0,6257;-0,2367;2,4228;-1,237;-0,2123
"demander";0,6388;0,2551;0,9042;0,3042;-0,4195;0,337;-0,3508;0,5598;-0,2574;-0,1444;-0,297;-0,2077;-0,1173
"vain";-0,4325;-1,5441;-0,1335;0,7023;1,7463;0,3895;0,5071;-1,2128;-0,2139;-0,3334;0,7048;-0,152;0,8997
"parler";-0,2514;-1,55;-0,276;-0,4248;-1,2394;-0,6743;6,7281;0,7997;0,2791;-0,6893;-1,4176;-0,991;-0,5596
"milieu";-0,3485;-1,2312;-0,1157;-0,214;-0,8392;-0,1809;-0,3018;2,1433;2,2797;0,856;-0,5942;-0,4154;-0,2346
"puissance";0,7448;-0,2631;-0,1914;-0,4631;-1,3882;0,4935;0,3455;0,3902;-0,3735;1,6403;-0,4611;0,3344;-0,388
"penser";0,2355;-0,2988;-0,0534;2,6076;0,6768;-0,2472;0,3047;-0,7946;-0,2376;-0,1333;-0,2742;-0,1917;-0,1082
"à";0,3613;0,5004;0,825;-0,4637;-0,6084;-0,5831;-2,4643;0,7374;0,9419;-0,3463;0,3863;0,7654;2,0165
"prophétie";-0,3467;-0,5569;-0,0489;-0,2521;-0,355;-0,2266;2,509;-0,7283;0,4041;-0,1222;0,9738;-0,1757;-0,0992
"confiance";0,2355;-1,2679;-0,0534;1,6772;0,2291;-0,2472;-1,2649;2,4664;-0,2376;0,5778;-0,2742;-0,1917;-0,1082
"voici";-0,1779;-0,316;-0,0756;-0,3896;0,9296;-0,3502;-0,3143;1,6123;0,2682;-0,1889;-0,3885;-0,2716;-0,1533
"il";0,3813;0,7527;-0,3356;-1,1881;-0,5891;0,3411;2,8709;-2,1725;-7,0761;0,3641;0,3121;1,8062;0,2827
"quand";-0,7284;0,6938;-0,1914;-0,9858;0,4306;-0,3961;1,8586;0,3902;-0,8517;-0,4779;-0,4611;-0,2701;-0,388
"insensé";0,8191;-0,482;-0,0445;-0,2292;-0,3227;-0,206;-1,054;2,1169;-0,198;-0,1111;0,3882;-0,1597;0,7269
"vousmêmes";-0,5043;-0,272;-0,0712;0,7046;-0,5163;-0,3296;-0,2705;-0,2211;3,2966;0,4738;-0,3656;-0,2556;-0,1443
"marcher";2,0988;-0,5086;-0,1157;0,8326;0,5461;0,9311;-1,8301;0,291;0,49;-0,2889;-0,5942;-0,4154;-0,2346
"elle";-0,8854;-0,6095;-0,3072;-0,9062;-0,5802;-0,4265;7,0508;-1,5939;-0,7414;-0,3214;0,8485;-1,1029;0,3809
"appeler";-0,1903;0,9256;-0,1914;-0,9858;0,4306;0,2231;1,5112;-2,8484;0,5229;0,5284;-0,4611;-0,6871;-0,388
"vérité";1,2751;-0,6197;-0,2181;-1,1234;0,3285;0,4005;-3,1528;0,4096;-0,9706;0,8981;1,417;2,0891;0,5737
"regarder";-0,6304;0,3563;-0,089;2,5388;-0,2401;-0,4121;-0,7894;0,8484;-0,396;0,3974;-0,1388;-0,3195;-0,1804
"auprès_de";-0,5043;-1,6907;0,8205;0,244;-0,1672;0,2742;-0,2705;1,7473;0,8016;0,4738;-0,3656;-0,2556;-0,1443
"autorité";0,7483;0,3128;-0,0934;-0,4813;-0,6778;1,1495;-0,2878;-0,3838;0,2103;-0,2334;-0,1505;-0,3355;1,1644
"foi";-0,4074;1,1891;0,3973;-0,5205;2,815;-0,3969;-6,9382;-3,1258;0,5939;0,5918;3,7173;0,9343;0,8354
"faiblesse";-0,3782;0,6032;-0,0534;-0,275;-0,3872;-0,2472;-0,2974;2,4664;-0,2376;-0,1333;-0,2742;-0,1917;-0,1082
"plus";-0,9798;0,9884;0,9798;0,2932;1,564;-2,2896;0,276;0,3968;-0,3507;0,2724;-2,5394;0,4286;-0,4793
"son";2,0178;0,9628;-0,5346;-1,2974;-0,6269;-0,4654;0,2814;-1,1547;0,5412;-0,3839;-0,3799;0,8413;-0,2588
"maître";1,0821;-0,2306;-0,0667;-0,3438;-0,1502;1,5268;-0,8717;-0,9933;-0,297;-0,1667;0,7504;0,3726;0,5724
"doctrine";-0,1445;-0,8746;-0,0667;-0,3438;-0,4841;0,2932;-0,8717;-0,9933;-0,297;-0,1667;5,3865;0,3726;2,4851
"lieu";4,1267;-0,6339;-0,0534;0,3287;-0,3872;-0,2472;-0,6317;-0,3208;0,3754;-0,1333;0,3296;-0,1917;-0,1082
"connaître";-0,2532;0,4299;-0,3384;-0,3496;-0,7041;0,8533;0,7221;0,7451;-0,4737;-0,3719;-1,0293;-0,3193;-0,2715
"fort";-0,5673;0,7572;0,7737;0,2124;-0,5809;-0,3708;0,7604;0,613;-0,3564;-0,2;-0,4113;-0,2875;-0,1624
"attacher";0,5091;-0,272;-0,0712;-0,3667;-0,1672;0,2742;-0,2705;-1,0595;-0,3168;-0,1778;2,118;-0,2556;1,3783
"ni";-0,3015;-1,2067;-0,4231;-0,8933;2,5182;1,1332;-0,2903;-3,4158;0,6035;-1,0566;2,0293;-0,8594;3,8171
"premier";-0,1609;-0,9576;-0,0712;0,244;-0,1672;0,2742;0,6016;-1,0595;-0,3168;-0,1778;2,118;0,3518;0,5486
"ne";-5,2799;0,7682;-1,5782;-4,4379;0,6889;-4,8214;9,8302;-0,2914;-0,6049;0,3277;0,5252;-1,8063;-0,473
"miséricorde";-0,3485;2,3396;-0,1157;-0,214;-0,3611;-0,1809;-1,8301;-0,5724;-0,5149;-0,2889;0,8353;1,181;0,3795
"dieu";-0,4934;3,1792;-1,1402;-0,701;-1,3125;-0,4143;-0,9566;-0,3448;1,8952;0,7337;-0,8216;-0,8733;0,4269
"séparer";-0,3151;0,431;1,0116;-0,2292;0,2804;-0,206;0,8249;-0,6621;0,4364;-0,1111;-0,2285;-0,1597;-0,0902
"promesse";0,6671;0,6721;-0,1023;-0,5272;4,8002;-0,4739;-2,4247;-0,4565;-0,4554;-0,2556;-0,1748;0,2434;-0,2075
"sujet";-1,5134;-0,2739;0,4105;0,3459;-0,2622;0,7413;-1,0813;1,8631;1,2107;0,4649;-0,5415;-0,7671;-0,4331
"corps";0,5605;-1,7479;-0,4498;-0,6355;-2,318;1,349;11,0505;-0,8601;-0,4735;-1,1234;-2,3104;-1,6151;-0,912
"chair";0,8115;0,9533;0,229;0,3327;4,4252;0,9641;-1,9359;-0,2684;-1,7241;-0,9675;-1,2332;-1,391;-0,7855
"donner";1,2772;-1,041;-0,4052;-0,832;-0,2832;-0,6967;-1,0329;1,0677;0,4178;0,7027;0,2993;1,3317;0,5409
"honte";-0,4412;-0,7929;-0,0623;0,7963;-0,4518;-0,2884;0,7819;0,2155;-0,2772;0,5214;-0,3199;1,8966;-0,1263
"me";-1,2158;-0,4692;0,6755;1,1749;-0,219;-0,6068;-1,4625;6,1994;-1,6646;-0,9341;-1,9211;1,0792;-0,3165
"piété";-0,3467;-1,1623;-0,0489;-0,2521;-0,355;-0,2266;-1,1594;-0,7283;-0,2178;-0,1222;8,1713;0,4779;1,6879
"affermir";-0,3151;0,431;-0,0445;-0,2292;-0,3227;0,4228;-0,4803;-0,2393;1,1524;1,6009;-0,2285;-0,1597;-0,0902
"droit";0,2874;-1,0566;-0,0445;-0,2292;0,2804;-0,206;2,8588;-0,6621;-0,198;0,6464;-0,2285;-0,1597;-0,0902
"délivrer";-0,3467;-0,2483;-0,0489;-0,2521;-0,355;0,3909;-1,1594;0,7088;0,4041;0,6103;-0,2513;2,2052;-0,0992
"falloir";-0,7249;-2,4306;-0,1023;-0,5272;-0,7423;-0,148;0,2422;-0,4565;-0,4554;1,7095;3,963;0,6968;1,9478
"demeure";-0,3782;-0,6339;-0,0534;0,3287;-0,3872;-0,2472;1,5591;0,2821;-0,2376;-0,1333;-0,2742;1,1697;-0,1082
"cette";-0,8432;0,3144;-0,2983;-0,2626;0,4596;-0,7518;-1,1828;5,1167;-0,3755;0,2948;-0,8668;-1,071;0,3961
"père";2,394;0,3002;0,3226;0,3901;0,3246;0,7778;-1,9928;-0,9867;0,8269;0,6719;-0,4352;-0,4802;-0,2024
"bon";0,3804;-1,258;-0,3295;-0,3294;-1,0312;-0,2596;-2,7497;-0,7934;-0,237;0,9303;5,3604;1,2925;4,6776
"entier";0,2142;-0,3524;-0,0578;0,3042;0,208;0,9232;-0,7102;-0,8608;0,9514;-0,1444;0,8509;-0,2077;0,6259
"consolation";-0,5043;-0,5288;0,8205;0,244;-0,5163;0,7749;-1,6866;4,0013;-0,3168;0,4738;-0,3656;-0,2556;-0,1443
"parmi";-0,5634;-0,7888;-0,2359;-0,6269;1,0831;1,009;1,0473;-0,2839;0,3742;0,4108;-1,2116;-0,3716;-0,1533
"ciel";-0,3151;-0,482;-0,0445;-0,2292;0,2804;1,1228;-0,2001;0,373;0,4364;0,6464;-0,2285;-0,1597;-0,0902
"satan";-0,3151;-0,482;-0,0445;-0,2292;-0,3227;-0,206;-0,2001;0,8015;0,4364;0,6464;1,0464;-0,1597;-0,0902
"vous";-0,3196;-15,9219;-2,5204;1,8401;1,6117;5,1037;0,9364;3,1553;19,817;4,8256;-20,4215;-13,9088;-7,4095
"volonté";2,3166;0,2866;-0,1379;-0,7106;-0,4701;0,7649;-0,7666;0,5709;-0,2253;-0,3445;-0,7085;0,5103;-0,2797
"manquer";-0,3151;-1,0566;-0,0445;0,3872;-0,3227;0,4228;0,4327;0,8015;0,4364;-0,1111;-0,2285;-0,1597;0,7269
"consoler";-0,1445;-1,585;-0,0667;-0,3438;-0,4841;0,2932;-0,8717;2,5942;1,5704;0,4966;-0,3428;0,3726;-0,1353
"car";-1,085;1,0753;-0,4082;-0,7061;0,5434;-1,3025;0,3643;0,7853;0,2941;-0,3166;-0,6992;0,4916;-0,4074
"sous";-0,4184;0,2861;-0,2003;-0,495;3,5869;0,812;-0,3138;-0,4277;-0,8913;-0,5002;0,3896;-0,7191;-0,4061
"offense";0,6388;2,6762;-0,0578;-0,2979;-0,4195;0,9232;-1,3703;-0,3637;-0,2574;-0,1444;-0,297;-0,2077;-0,1173
"conduire";0,2142;0,8901;-0,0578;-0,2979;0,624;-0,2678;-0,7102;-0,3637;0,9514;-0,1444;0,3051;-0,2077;-0,1173
"jugement";-0,4097;1,3716;-0,0578;-0,2979;-0,4195;-0,2678;0,8933;-0,8608;-0,2574;0,5483;0,3051;-0,2077;-0,1173
"mal";-0,8511;4,6183;-0,1201;-0,6189;-0,8715;-0,5563;-1,9211;-0,6126;1,5167;-0,3;-0,2262;0,5938;0,3673
"avant";-0,1779;-0,5921;-0,0756;0,2275;0,9296;0,2568;-0,3143;-1,1257;-0,3366;-0,1889;1,2728;1,6601;-0,1533
"si";-3,7881;0,4381;-0,5221;-1,8141;1,0535;-1,141;6,1276;1,1274;-3,6402;-0,8354;-0,4942;-0,8626;-2,1528
"sa";4,727;0,7705;-0,5212;-0,2188;-1,1413;0,7549;-0,8427;-1,3224;-1,5084;1,1158;-0,3547;-0,6962;0,3638
"se";-0,9356;-1,2363;-0,6417;-1,2354;-0,7374;-0,703;2,3752;1,989;-2,8557;-0,2963;1,4672;0,3771;0,2439
"main";0,384;-1,2998;0,7322;-0,4584;0,372;0,6262;-0,2504;-0,3489;0,2231;0,3974;1,0972;0,2833;-0,1804
"nom";0,5061;-0,2228;0,6031;1,2735;-0,9038;-0,2039;-0,2211;-1,1051;-0,1915;0,8043;-0,2396;0,5714;-0,2526
"non";-0,8909;-0,6697;-0,1511;-0,271;-0,2939;-0,3445;0,2814;3,9516;0,29;-0,3037;-1,0621;-0,3329;-0,448
"nation";-0,4412;5,05;-0,0623;-0,3208;0,5768;-0,2884;-1,4757;-0,4077;-0,2772;-0,1556;-0,3199;-0,2236;-0,1263
"en";1,1487;-2,0573;0,3262;2,6564;-0,7104;2,3504;-3,3155;1,6255;0,5268;-0,615;0,518;0,5751;-0,5894
"agir";0,4795;-0,4195;-0,129;-0,2544;-0,1835;0,4075;-0,9948;1,8085;-0,2026;0,2808;0,3547;-0,4633;-0,2616
"homme";-0,3478;-0,6063;-0,8337;-1,4705;0,3267;0,4354;3,0378;-2,1308;-0,807;-0,8357;1,2359;0,4394;1,0345
"ressusciter";-0,3675;-0,2382;-0,1869;-0,9629;-0,7282;0,5112;3,2849;-0,5637;0,5411;-0,4668;-0,96;-0,2604;-0,379
"éprouver";-0,5358;-0,5921;0,7963;0,2275;0,4604;-0,3502;-0,5896;0,6744;0,2682;0,4526;0,6663;0,3326;-0,1533
"juge";-0,5043;0,9563;-0,0712;-0,3667;-0,5163;0,2742;0,96;-1,0595;-0,3168;0,4738;0,2448;0,3518;-0,1443
"israël";-0,1779;4,6797;-0,0756;0,2275;-0,1847;-0,3502;-1,792;-0,2512;-0,3366;-0,1889;-0,3885;-0,2716;-0,1533
"plein";-0,6619;1,1932;-0,0934;0,5316;-0,6778;0,2001;-0,8591;0,4623;0,6198;-0,2334;-0,4799;-0,3355;1,1644
"postérité";-0,4727;2,1586;-0,0667;-0,3438;2,5137;-0,309;-1,5811;-0,4528;-0,297;-0,1667;-0,3428;0,3726;-0,1353
"aller";-1,1033;0,3066;-0,1558;0,2651;-0,5614;0,3127;0,9417;0,4272;0,3315;-0,389;0,2663;-0,1952;-0,3158
"plutôt";1,0141;-0,272;-0,0712;0,244;-0,1672;-0,3296;0,96;-0,4989;-0,3168;-0,1778;0,2448;-0,2556;-0,1443
"deux";1,1566;-1,4793;-0,0623;0,7963;0,5768;-0,2884;-0,191;-0,4077;0,3263;-0,1556;0,2829;0,3953;-0,1263
"pain";-0,3467;-1,1623;-0,0489;-0,2521;-0,355;-0,2266;3,3924;-0,2793;-0,2178;1,521;-0,2513;-0,1757;-0,0992
"paix";1,8116;0,513;0,4176;0,3593;-0,2495;0,4291;-1,7943;-1,069;0,4567;0,938;-0,5252;0,2925;0,2052
"digne";-0,1779;-0,5921;-0,0756;0,6644;-0,5486;0,2568;-1,0383;-1,1257;0,7596;1,1709;2,0193;-0,2716;1,3298
"abraham";-0,5988;1,9521;-0,0845;-0,4355;5,6326;-0,3915;-2,0029;-0,6422;-0,3762;-0,2111;-0,4342;-0,3035;-0,1714
"entendre";2,2798;-0,236;-0,1068;0,4539;-0,3194;0,514;-1,0762;-0,4943;-0,1489;-0,2667;-0,5485;1,2669;-0,2165
"justifier";-0,7249;2,9109;-0,1023;-0,5272;3,0737;-0,4739;-1,0026;-1,5231;-0,4554;-0,2556;-0,1748;-0,3674;0,4204
"saluer";-1,2926;3,9712;0,4646;0,4522;-1,3236;1,9599;-1,3816;-1,826;-0,3475;-0,1411;-0,9372;0,3579;0,6862
"dispute";-0,3151;-0,482;-0,0445;1,0443;0,2804;-0,206;-0,2001;-0,6621;-0,198;-0,1111;1,0464;0,5118;0,7269
"espérer";-0,1609;0,3322;0,8205;0,7046;-0,5163;-0,3296;-0,2705;1,1936;-0,3168;-0,1778;-0,3656;-0,2556;-0,1443
"établir";0,2355;0,6032;-0,0534;0,3287;-0,3872;-0,2472;-0,2974;-0,7946;-0,2376;-0,1333;0,9091;0,4475;0,6564
"monde";0,3454;-0,2992;-0,2181;-0,5602;-0,2752;0,7193;3,1832;-1,154;-0,9706;-0,5447;0,3349;-0,7831;-0,4422
"nouveau";0,4736;-0,316;-0,0756;-0,3896;1,5318;0,2568;-1,792;1,094;0,2682;-0,1889;0,2283;-0,2716;-0,1533
"leur";-0,3373;4,1467;-0,374;-0,2476;-0,564;-1,7321;-2,1187;-1,1049;-0,9721;-0,1915;1,1806;0,728;1,5283
"colère";1,7107;2,3285;-0,1023;-0,5272;-0,7423;0,5394;-2,4247;-1,5231;1,0936;-0,2556;-0,1748;-0,3674;0,4204
"ignorer";-0,3151;-0,2011;-0,0445;0,3872;-0,3227;-0,206;0,4327;0,373;0,4364;-0,1111;0,3882;-0,1597;-0,0902
"continuellement";0,2874;-0,2011;1,0116;-0,2292;-0,3227;-0,206;-1,054;-0,6621;1,1524;2,7727;-0,2285;0,5118;-0,0902
"parent";0,2355;0,6032;-0,0534;-0,275;-0,3872;0,3625;-1,2649;0,2821;-0,2376;-0,1333;1,6805;0,4475;-0,1082
"je";-5,9705;-3,2384;2,5156;7,0416;1,7989;-1,5582;2,2067;7,1658;-9,0112;-3,8117;-1,3678;-1,2284;-2,2693
"crucifier";-0,3151;-0,482;-0,0445;-0,2292;2,4114;-0,206;0,8249;-0,2393;-0,198;-0,1111;-0,2285;-0,1597;-0,0902
"tous";0,4232;-0,4436;-0,4259;0,9409;-0,7296;-0,5974;0,913;-1,0742;0,6685;0,5686;-0,4212;0,3251;0,3754
"tout";1,8879;-2,6633;-0,5524;2,7484;-0,6829;2,7328;1,3228;-2,6438;-0,7167;-0,2095;0,518;-1,2307;-0,2759
"seigneur";0,7505;-2,0021;0,8583;0,2941;-4,0434;-0,3808;1,2764;-1,1591;3,0218;5,8349;-1,4721;1,4674;-2,4159
"besoin";-0,2501;-0,8625;-0,0934;2,4393;-0,6778;-0,4327;-0,5129;0,7808;1,8926;-0,2334;-0,4799;-0,3355;0,4516
"seulement";-0,2876;0,3924;-0,1647;1,4018;0,9133;-0,3155;-1,5531;-0,2422;0,6438;0,2132;-0,3685;0,4111;-0,3338
"lorsque";-0,6111;-0,3933;-0,1691;-0,3853;0,2856;0,2751;0,3602;0,5436;-0,3095;1,1513;0,2317;-0,6072;0,7363
"mari";1,4293;-0,7452;-0,1602;-0,8252;-1,1621;0,2996;3,2609;-2,3845;-0,713;-0,4001;0,5525;-0,5752;1,4273
"fidèle";0,2582;-2,7478;-0,1157;-0,214;-0,8392;1,5171;-0,3018;-0,5724;-0,1698;0,3135;3,5931;0,6175;0,3795
"venir";0,3804;-0,4606;-0,3295;0,2744;1,4232;-0,4845;-0,4561;-0,4112;-0,237;0,2512;0,2763;0,889;-0,2605
"ceux";-1,8173;1,7969;-0,7757;-1,2826;0,9232;-0,7477;0,3772;-2,0031;0,603;0,5566;0,7369;0,3566;0,5407
"prédication";-0,4097;-0,3524;-0,0578;0,3042;0,624;-0,2678;0,5209;-0,8608;0,3496;-0,1444;0,3051;0,4201;0,6259
"apôtre";0,7383;-1,2021;-0,1424;-0,7335;1,1238;-0,2519;0,417;0,3187;-0,2369;-0,3556;0,3069;0,4918;0,3137
"soin";0,2874;-0,482;-0,0445;-0,2292;0,2804;-0,206;-0,4803;-0,2393;0,4364;-0,1111;1,0464;-0,1597;1,7691
"crainte";0,384;0,3563;-0,089;0,5612;-0,2401;0,2127;-0,7894;0,8484;0,2231;-0,2222;-0,1388;-0,3195;-0,1804
"utile";-0,3467;-0,5569;0,9724;0,3562;-0,355;-0,2266;-0,2471;-0,7283;-0,2178;-0,1222;0,9738;2,2052;0,6899
"par";2,2967;4,3201;-1,2767;-0,3594;2,1202;0,942;-5,2814;0,4211;-3,8083;0,7442;-2,5278;-1,2253;-0,5523
"pas";-4,5854;0,3827;-0,8819;-3,7071;-0,2846;-4,4619;10,5603;0,506;-0,8649;0,7944;0,3046;-1,1625;-1,523
"s";-0,2339;-1,0787;0,4213;0,4626;0,6708;-0,5504;0,3644;-1,4235;-0,7736;-0,23;1,476;1,7266;0,8943
"régner";-0,3782;1,0195;-0,0534;-0,275;-0,3872;0,9827;0,6056;-0,7946;-0,2376;-0,1333;-0,2742;0,4475;-0,1082
"devoir";0,3942;0,7519;1,097;-0,5112;-0,8269;-0,4379;-0,9736;-1,0272;-0,4131;0,4891;1,0698;0,6368;1,8355
"fruit";-0,1445;0,6827;-0,0667;0,7484;-0,1502;0,82;-0,8717;-0,4528;-0,297;-0,1667;-0,3428;0,3726;0,5724
"charger";-0,4412;-1,4793;-0,0623;-0,3208;-0,4518;0,314;-0,7903;1,4283;0,3263;0,5214;1,4949;1,0507;-0,1263
"faible";-0,7249;-1,0065;-0,1023;-0,5272;-0,2991;-0,4739;2,3361;1,4574;-0,1388;-0,2556;-0,5256;0,2434;-0,2075
"quelle";3,2636;-0,3294;-0,0979;-0,5042;-0,279;0,5665;-0,5676;0,719;-0,4356;-0,2445;-0,5027;-0,3515;-0,1985
"esprit";0,9666;0,4586;-0,2646;0,2872;1,6378;-1,5688;1,2222;-0,7326;-0,7158;-0,988;-1,3357;-0,2712;-0,7431
"moi";-1,1514;-0,6254;1,8476;2,2715;1,6715;-0,4288;0,5312;-0,3982;-1,881;-0,8827;-1,6165;1,5283;-0,6617
"gloire";0,5168;0,4992;-0,3473;0,9754;-1,122;-0,5325;-1,4498;1,9543;0,3368;0,2296;-0,3678;-0,3355;-0,2825
"mon";-2,5865;0,3912;2,8128;2,5049;-0,8159;-0,3281;0,6575;-0,5845;-0,9408;-0,9119;-0,4101;1,1185;-0,305
"tomber";-0,3782;1,0195;-0,0534;-0,275;-0,3872;-0,2472;0,3047;-0,3208;-0,2376;-0,1333;1,6805;-0,1917;-0,1082
"t";-0,3282;0,545;3,9451;-0,573;-0,8069;-0,5151;-1,1509;-0,5329;-0,495;-0,2778;2,1017;0,6425;1,0325
"aucun";-0,1953;-1,1268;-0,0801;-0,4125;0,4283;0,695;0,4643;0,613;0,2519;0,4329;-0,4113;-0,2875;0,5059
"laisser";-0,5358;0,5259;-0,0756;0,2275;-0,1847;-0,3502;-0,3143;-0,2512;-0,3366;1,1709;-0,3885;0,9066;0,5265
"quoique";-0,3151;-0,482;-0,0445;-0,2292;-0,3227;-0,206;-0,2001;2,9994;-0,198;-0,1111;0,3882;-0,1597;-0,0902
"imputer";-0,4727;5,6215;-0,0667;-0,3438;-0,1502;-0,309;-1,5811;-0,4528;-0,297;-0,1667;-0,3428;0,3726;-0,1353
"bienaimé";0,6388;0,2551;2,1248;-0,2979;-0,4195;2,6302;-0,7102;-0,8608;-0,2574;-0,1444;-0,297;0,4201;-0,1173
"livrer";0,6671;1,3664;-0,1023;-0,5272;-0,2991;-0,148;0,2422;-0,4565;-0,1388;-0,2556;-0,1748;-0,3674;-0,2075
"répandre";0,2874;0,8223;-0,0445;-0,2292;-0,3227;-0,206;-1,054;0,373;-0,198;0,6464;-0,2285;0,5118;0,7269
"peuple";-0,4727;2,1586;-0,0667;-0,3438;-0,4841;-0,309;0,6855;-0,4528;-0,297;-0,1667;-0,3428;-0,2396;0,5724
"porter";-0,4412;-0,7929;-0,0623;0,2821;1,1327;-0,2884;1,2178;0,2155;-0,2772;-0,1556;-0,3199;-0,2236;0,5981
"celles";0,8191;-1,0566;-0,0445;-0,2292;-0,3227;0,4228;0,4327;-0,2393;-0,198;-0,1111;1,9104;-0,1597;-0,0902
"on";-0,2244;0,5538;-0,2047;-1,0546;-0,4549;-0,9481;0,757;-1,0272;0,4723;1,5444;0,6804;-0,2997;0,2108
"ou";-1,0091;-0,3668;0,2086;-0,8779;-0,3131;-0,2531;4,1684;-0,2686;-0,6886;-0,2402;-0,5465;-0,847;-0,3749
"or";-0,4184;1,6521;-0,2003;-1,0317;1,4025;-0,9274;0,4278;-0,4277;-0,8913;-0,5002;-0,4929;0,6553;-0,4061
"remplir";1,6563;-0,272;-0,0712;0,244;-0,5163;1,4515;-0,9545;-0,4989;-0,3168;-0,1778;0,2448;0,9508;-0,1443
"égard";0,5061;-0,9339;-0,1246;-0,2407;-0,9038;-0,2039;-0,6055;2,4413;0,8961;0,8043;-0,6399;-0,4473;0,3555
"loi";-3,069;19,104;-0,5792;-1,0284;8,686;-2,6821;-2,9928;-8,6213;-2,5776;-1,4465;-1,0229;-2,0796;-0,3023
"envoyer";-0,3485;-1,2312;-0,1157;1,3753;0,5461;0,4676;-0,8032;0,8198;0,49;0,3135;-0,5942;0,2106;0,3795
"plusieurs";-0,6619;0,5351;-0,0934;-0,1512;-0,2594;-0,4327;0,8319;1,1848;-0,4158;-0,2334;-0,4799;-0,3355;-0,1894
"créer";2,1243;-1,2679;-0,0534;-0,275;-0,3872;1,7975;0,3047;-0,7946;-0,2376;-0,1333;0,9091;-0,1917;-0,1082
"fils";0,5141;1,1348;-0,178;-0,917;5,6157;0,2528;-2,3668;-0,502;-0,3347;-0,1355;-0,9143;-0,6392;-0,3609
"moimême";-0,6619;0,3128;0,7131;1,0435;-0,2594;-0,4327;0,5378;0,7808;-0,4158;-0,2334;-0,4799;-0,3355;-0,1894
"enseigner";-0,6304;-0,4624;-0,089;-0,4584;0,372;-0,4121;0,3583;-1,3244;-0,396;-0,2222;1,7635;1,4704;2,1194
"pensée";0,3588;-0,2896;-0,0934;2,4393;-0,2594;0,5953;-0,2878;-0,3838;-0,4158;-0,2334;-0,1505;-0,3355;-0,1894
"juif";-0,9141;1,8898;-0,129;-0,6647;1,2774;-0,2156;0,5587;-1,1588;0,4285;-0,3223;-0,6628;-0,4633;-0,2616
"fermer";0,4736;-0,316;-0,0756;1,2697;-0,1847;-0,3502;-0,3143;-0,2512;0,2682;0,4526;-0,3885;-0,2716;0,5265
"richesse";2,7077;0,7789;-0,0623;0,2821;-0,4518;0,314;-0,7903;-0,927;-0,2772;-0,1556;0,2829;-0,2236;-0,1263
"terre";1,3274;-0,4624;-0,089;1,0942;-0,6455;1,9114;-0,4601;-0,3489;-0,396;-0,2222;-0,457;0,2833;-0,1804
"sauveur";0,2355;-1,2679;-0,0534;0,3287;-0,3872;-0,2472;-1,2649;-0,7946;-0,2376;-0,1333;1,6805;0,4475;7,2108
"espérance";0,2839;0,6874;-0,1736;-0,4006;-0,6557;0,569;-1,7013;-0,7477;1,0253;0,1997;1,3215;-0,2318;1,3395
"souffrance";-0,3151;-0,482;-0,0445;0,3872;-0,3227;1,1228;-1,054;0,8015;-0,198;-0,1111;-0,2285;2,3317;-0,0902
"tu";-1,2386;4,4349;2,7436;-1,9497;-0,2277;-1,0419;-0,8053;-5,6336;-1,6844;-0,9453;1,5239;3,0094;0,5944
"former";1,0821;0,3851;-0,0667;-0,3438;-0,1502;0,2932;0,387;-0,4528;-0,297;-0,1667;0,263;-0,2396;-0,1353
"te";-1,3241;1,2739;6,6671;-0,4473;-1,3559;-0,8656;-1,9288;-1,8831;-0,8318;-0,4668;1,7126;2,4225;1,9714
"ta";-0,1609;0,3322;6,3694;-0,3667;-0,1672;-0,3296;-0,2705;-1,0595;-0,3168;-0,1778;0,2448;0,3518;-0,1443
"vers";-0,2501;0,3128;-0,0934;0,5316;0,7278;0,2001;-0,8591;-0,7413;0,2103;1,0106;-0,1505;0,7579;-0,1894
"péril";-0,3151;-0,482;-0,0445;-0,2292;-0,3227;-0,206;-0,4803;5,2616;-0,198;-0,1111;-0,2285;-0,1597;-0,0902
"périr";-0,3151;-0,482;-0,0445;-0,2292;-0,3227;-0,206;2,0297;0,373;-0,198;0,6464;-0,2285;-0,1597;-0,0902
"sans";-0,2848;0,6483;0,313;-0,2446;-2,099;0,4495;1,2777;-1,0583;0,2533;-0,7227;1,3172;-1,039;-0,2126
"sang";1,3303;0,3033;-0,0534;-0,275;0,2291;0,3625;0,6056;-0,7946;-0,2376;-0,1333;-0,2742;-0,1917;-0,1082
"tel";-0,3782;0,6032;-0,0534;-0,275;-0,3872;-0,2472;1,5591;0,2821;-0,2376;-0,1333;-0,2742;-0,1917;-0,1082
"conscience";-0,6619;-0,5154;-0,0934;-0,4813;-0,6778;-0,4327;1,198;0,2316;-0,4158;-0,2334;2,4447;0,2691;0,4516
"quelqu";-1,3557;-2,0137;-0,1914;-0,9858;-0,4013;-0,8862;3,628;1,4748;-0,8517;0,5284;0,752;-0,2701;-0,388
"sur";0,4335;0,4644;0,5851;-0,586;-1,1149;1,4439;-0,8631;1,2932;-0,2482;-1,0789;0,4217;-0,8843;0,2252
"contraire";0,4411;-0,6572;-0,0801;-0,4125;1,4473;-0,3708;0,4643;-0,2825;-0,3564;-0,2;0,2132;0,8655;-0,1624
"grâce";1,3479;-0,2673;1,2194;-0,2695;-0,3835;1,1449;-2,43;-0,2801;-0,2691;0,8008;-0,2669;-0,2363;0,464
"action";-0,2131;-0,4114;-0,0845;0,1985;-0,6132;1,2577;-0,2153;0,2874;0,237;-0,2111;1,1515;-0,3035;-0,1714
"aimer";3,1795;-0,3267;-0,1602;-0,8252;-0,2852;-0,3025;-0,741;0,3971;-0,2848;0,2204;-0,8228;0,4258;0,7727
"dire";-0,7225;0,3167;0,4947;-0,7914;0,3762;-1,5177;0,9198;0,6159;-0,9365;0,4954;-0,3222;-0,6559;1,5306
"vie";-0,3825;1,7867;-0,2582;0,7525;-0,687;0,2948;-2,0992;-0,2498;-0,5797;-0,6448;1,1209;0,4569;0,4746
"païen";0,7448;2,6565;-0,1914;-0,9858;3,1259;-0,3961;-2,0059;-1,9405;0,239;-0,4779;-0,4611;0,3344;-0,388
"souffrir";-0,5043;-0,5288;-0,0712;0,244;-0,1672;-0,3296;0,3339;-1,0595;1,4946;0,4738;-0,3656;2,6626;-0,1443
"estce";-0,6304;-0,7926;-0,089;-0,4584;0,7725;-0,4121;3,6666;-0,3489;0,2231;-0,2222;-0,457;-0,3195;-0,1804
"mort";-1,2997;5,6465;-0,5703;0,4725;-1,7991;0,2622;0,3831;-0,3454;0,2937;-1,4242;-2,929;-0,2951;-1,1562
"selon";2,3045;3,2032;-0,5881;-0,7307;0,3241;-0,5798;-2,4231;0,3914;-1,7614;-0,4573;-1,4952;0,2837;0,8643
"pourvoir";-0,3151;-1,0566;-0,0445;1,9071;-0,3227;-0,206;-1,054;1,3845;-0,198;-0,1111;1,0464;-0,1597;0,7269
"sauver";-0,2148;0,8728;-0,1424;-0,7335;-1,0329;-0,6594;0,6227;-1,3219;-0,2369;0,2525;1,6511;0,4918;0,3137
"des";0,3326;-0,4153;-1,1371;-1,4973;-0,5752;0,9399;1,9781;-3,1579;0,3978;-1,7189;3,3201;0,3587;0,4494
"ténèbres";1,3303;0,3033;-0,0534;-0,275;-0,3872;0,3625;-0,6317;0,2821;1,0113;-0,1333;-0,2742;-0,1917;-0,1082
"enfant";0,9327;-0,8188;0,3431;-0,3874;1,2339;-0,3176;-0,4433;-1,6014;0,5713;-0,6559;1,5139;-0,1933;0,9161
"glorieux";0,2874;-1,0566;-0,0445;-0,2292;-0,3227;1,1228;-0,4803;2,9994;-0,198;-0,1111;-0,2285;-0,1597;-0,0902
"église";1,6379;-2,2501;0,3378;-0,3998;-0,433;0,5197;1,6321;0,3191;-0,3043;0,3472;-0,2006;-0,959;-0,5415
"notre";-0,4944;-1,0295;1,4766;-0,6897;-1,9006;-1,0433;-4,9234;1,9437;7,1772;5,64;0,2702;-0,9117;1,1621
"dont";0,368;-0,9443;-0,1513;-0,3255;-1,0975;0,6831;0,7448;2,2574;-0,6733;-0,3779;0,2791;-0,5432;-0,3068
"manière";-0,5202;-0,4241;-0,1513;0,2779;0,6501;-0,2769;0,7448;0,2705;0,3457;0,6742;-0,3241;-0,5432;-0,3068
"édification";0,8191;-0,2011;-0,0445;-0,2292;-0,3227;-0,206;0,4327;0,8015;-0,198;-0,1111;-0,2285;-0,1597;-0,0902
"personne";0,2772;-1,8329;-0,2404;-0,6438;0,4634;0,6197;0,4243;0,453;0,6584;0,4009;0,2776;0,2327;0,5157
"idole";-0,4097;-0,7126;-0,0578;-0,2979;-0,4195;-0,2678;4,4947;-0,3637;0,3496;-0,1444;-0,297;-0,2077;-0,1173
"ces";-1,1499;-1,1215;-0,2671;-0,7469;-0,2448;0,8403;-0,3388;-0,8824;0,5555;0,3472;3,0549;1,6794;0,4556
"faire";0,4194;0,3503;1,0287;-0,3476;0,6151;0,8798;-1,152;0,3272;-0,4022;-0,3431;0,6448;-0,5984;-0,329
"porte";-0,3151;0,8223;-0,0445;0,3872;0,2804;1,1228;-0,4803;-0,2393;-0,198;-0,1111;-0,2285;-0,1597;-0,0902
"donnée";-0,1609;-0,9576;0,8205;0,244;-0,1672;0,7749;-0,2705;-0,4989;0,2858;0,4738;0,2448;0,3518;0,5486
"quelque";-0,7046;-1,9364;1,1656;2,9269;-0,19;-0,8656;1,6038;-0,5637;-0,3604;1,0489;-0,4454;-0,6711;0,235
"obéir";0,5091;1,4055;-0,0712;0,244;-0,1672;0,7749;-1,6866;-1,0595;-0,3168;1,2181;-0,3656;-0,2556;0,5486
"pur";-0,5988;-0,7241;-0,0845;1,8386;-0,2212;-0,3915;-2,0029;-0,3151;-0,3762;-0,2111;1,1515;1,5294;3,2702
"baptiser";-0,4097;-0,3524;-0,0578;-0,2979;0,208;-0,2678;4,4947;-0,8608;-0,2574;-0,1444;-0,297;-0,2077;-0,1173
"donc";-0,5131;2,0758;-0,17;-0,3328;0,3656;-0,2475;-0,2985;-0,2569;-0,6069;-0,6703;-0,3302;-0,3905;-1,0296
"prière";0,294;-0,4152;2,7415;1,4886;-0,7746;0,514;-1,0762;-0,4943;-0,1489;-0,2667;0,9122;0,2318;-0,2165
"passer";0,2355;-0,2988;-0,0534;-0,275;0,2291;0,3625;0,3047;0,629;-0,2376;-0,1333;-0,2742;-0,1917;0,6564
"avec";0,284;-2,8074;-0,5766;2,4788;-0,5902;1,2908;0,397;-0,4832;0,3326;0,4987;-0,2476;1,6261;-0,4017
"contre";1,6591;0,619;-0,1424;-0,7335;-0,2251;0,3564;0,6227;-0,4968;-0,6337;-0,3556;-0,2952;-0,5113;-0,2887
"saint";3,4665;0,6064;0,7154;-0,3806;-2,5515;0,7975;-0,9805;-0,7063;0,8529;-0,394;-1,0843;0,2621;0,3143
"ainsi";-0,4087;1,902;0,2704;-0,3394;0,3457;0,337;0,6011;-1,8588;0,616;-0,3646;-0,3373;-1,1989;-0,677
"part";0,3027;-1,3146;0,3839;0,5563;0,287;-0,2481;-0,994;3,2616;0,3868;-0,2072;-0,6076;-0,3611;-0,1486
"bouche";0,692;1,5547;-0,0534;-0,275;-0,3872;0,3625;-1,2649;-0,3208;-0,2376;0,5778;-0,2742;-0,1917;0,6564
"instruction";-0,3467;-0,5569;-0,0489;-0,2521;-0,355;1,0488;0,3627;-0,7283;-0,2178;1,521;0,3571;-0,1757;1,6879
"évangile";-0,357;-1,1146;0,2865;1,9852;1,9271;-0,4494;-0,8709;-0,3536;1,0158;0,2689;-0,5402;0,5948;-0,6409
"aussi";-0,2766;-0,2756;-0,7265;0,4831;0,4146;0,3144;-0,8512;0,8022;0,7158;-0,3895;-0,814;0,6247;-0,2454
"lequel";1,7107;-0,3713;-0,1023;0,4781;-0,2991;0,5394;0,2422;-0,8428;-0,4554;0,3518;-0,1748;0,2434;-0,2075
"jour";-0,2608;-0,2992;-0,2181;0,9755;-0,5103;-0,2201;-0,8465;0,6015;1,6753;0,4534;-0,5579;0,2738;-0,4422
"maison";-0,2314;-0,4624;0,7322;-0,1395;-0,6455;0,2127;-0,4601;-1,3244;-0,396;-0,2222;4,4041;1,4704;-0,1804
"produire";0,1952;0,4467;-0,0623;0,2821;-0,4518;-0,2884;-1,4757;1,4283;0,3263;-0,1556;0,2829;-0,2236;0,5981
"toujours";-0,6304;-2,1135;-0,089;1,0942;-0,6455;0,6262;-2,1083;1,2777;1,969;-0,2222;-0,457;1,4704;1,202
"combattre";-0,3467;-0,5569;-0,0489;0,3562;-0,355;0,3909;-0,2471;0,3239;-0,2178;-0,1222;0,9738;1,2387;-0,0992
"justice";-0,4269;8,88;-0,2715;0,416;-0,2559;-1,2574;-5,184;-0,4515;-1,2085;-0,2661;-0,7612;0,4214;0,4465
"quel";-0,3782;-0,2988;-0,0534;-0,275;0,2291;-0,2472;-0,2974;2,4664;0,3754;-0,1333;-0,2742;-0,1917;-0,1082
"plaire";-0,1953;-1,1268;-0,0801;-0,4125;0,873;0,2409;0,4643;-0,5936;2,1379;-0,2;-0,4113;0,3149;0,5059
"lettre";-0,788;-0,461;-0,1112;-0,573;-0,3401;-0,1697;-1,1509;3,5359;-0,1593;2,4748;-0,5713;0,2209;-0,2255
"salut";0,4113;-0,2167;-0,0845;1,1486;-0,6132;-0,3915;-2,0029;0,5576;0,6847;0,4145;-0,4342;0,8272;0,4867
"manger";-1,4503;1,2552;-0,2047;-1,0546;-0,8269;-0,4379;6,6024;-3,0472;-0,9111;0,9589;-1,0515;-0,7351;-0,4151
"croire";-0,5824;2,5335;-0,2404;-0,3276;0,4634;-1,113;-0,611;-1,8889;0,6584;1,3247;0,2776;-0,3822;-0,158
"ses";0,872;-0,2781;-0,1736;-0,1703;0,8419;1,4809;-0,8998;-0,7477;0,6002;0,1997;-0,3989;-0,2318;-0,3519
"dans";2,3989;-4,0846;0,8325;2,3407;-2,9833;2,0288;-4,0458;2,021;0,3589;0,4074;2,3598;0,4301;0,2897
"condamner";0,2597;0,7032;-0,0489;-0,2521;-0,355;0,3909;-0,2471;-0,2793;-0,2178;0,6103;-0,2513;-0,1757;0,6899
"paul";-0,1749;-2,111;2,5012;-0,2544;-0,1835;0,8264;0,5587;-0,6952;0,4285;0,7802;-0,2533;-0,1438;0,3444
"puisque";-0,5988;0,6743;-0,0845;0,1985;-0,6132;-0,3915;1,0252;0,2874;0,6847;-0,2111;-0,4342;-0,3035;-0,1714
"femme";0,9245;-3,9245;-0,3651;-1,8808;0,6335;-0,5817;8,4883;-5,4346;-0,9408;-0,9119;2,5144;-0,7005;0,6236
"effet";-1,5134;0,8648;0,4105;0,3459;-0,4916;-0,4663;-0,2713;0,4357;1,7158;-0,5336;-0,2589;-0,7671;0,1999
"grec";-0,4097;1,3716;-0,0578;-0,2979;0,624;0,337;0,5209;-0,8608;-0,2574;-0,1444;-0,297;-0,2077;-0,1173
"ils";-1,339;2,7925;-0,5792;-1,0284;-0,5539;0,5925;-1,5167;-0,4865;-0,5121;-0,2342;2,1588;-0,5153;1,2814
"c";0,8911;0,3558;0,3806;-1,0403;-0,6425;-0,5895;0,6743;1,487;0,348;-0,5122;-1,0328;-0,798;-0,8354
"recevoir";-1,2013;-0,9519;-0,276;0,4028;-0,2672;1,1755;0,604;-0,3198;0,5251;0,6855;0,6751;-0,2138;-0,5596
"point";-1,7267;3,3075;-0,664;-0,6637;-0,4318;-2,1576;2,305;-0,5548;-0,299;-0,9703;-1,305;-0,4294;-0,3909
"moins";0,4113;-1,2129;-0,0845;0,593;-0,6132;0,2262;0,4079;1,3791;0,237;-0,2111;0,1993;-0,3035;-0,1714
"demeurer";-0,5358;-1,0417;-0,0756;1,2697;0,4604;0,2568;-0,3143;0,6744;0,2682;0,4526;0,2283;-0,2716;-0,1533
"envers";0,4795;-0,2521;-0,129;-0,6647;-0,1835;-0,2156;-0,6578;0,4068;2,8172;-0,3223;-0,2533;-0,4633;0,3444
"luimême";2,1032;-0,3674;-0,1869;-0,1988;-0,19;-0,3824;-1,0687;-0,3528;0,5411;1,0489;-0,4454;-0,2604;0,6706
"éternel";-0,2314;0,6007;-0,089;-0,4584;-0,2401;-0,4121;-2,1083;0,2579;-0,396;1,047;1,0972;0,7914;1,202
"détruire";-0,1779;-0,5921;-0,0756;-0,3896;0,9296;0,2568;0,8541;-0,2512;-0,3366;0,4526;-0,3885;0,3326;-0,1533
"arrivée";-0,3467;-1,1623;-0,0489;-0,2521;0,2531;-0,2266;-0,555;2,7123;0,4041;0,6103;-0,2513;0,4779;-0,0992
"commettre";-0,1779;3,0287;-0,0756;-0,3896;-0,1847;-0,3502;0,2882;-0,5458;-0,3366;-0,1889;-0,3885;-0,2716;-0,1533
"gens";0,692;-0,2988;-0,0534;-0,275;0,2291;-0,2472;-0,2974;-0,7946;-0,2376;-0,1333;0,3296;0,4475;2,7808
"habiter";-0,2131;0,6743;-0,0845;-0,4355;-0,6132;1,2577;-0,4093;-0,3151;-0,3762;-0,2111;0,1993;1,5294;-0,1714
"puis";-0,5043;-0,272;-0,0712;1,3376;-0,1672;-0,3296;1,4102;-0,2211;-0,3168;-0,1778;-0,3656;-0,2556;-0,1443
"témoin";-0,3151;-0,482;-0,0445;0,3872;-0,3227;-0,206;-0,4803;0,373;1,1524;-0,1111;1,0464;0,5118;-0,0902
"cieux";2,4476;-1,0566;-0,0445;1,0443;-0,3227;2,0307;-1,054;-0,6621;0,4364;-0,1111;-0,2285;-0,1597;-0,0902
"mystère";2,7156;-0,7926;-0,089;-0,4584;-0,6455;2,7365;-0,2504;-1,3244;-0,396;0,3974;0,5629;-0,3195;-0,1804
"grand";-0,6342;-0,6336;-0,1736;-0,4006;-0,6557;0,2637;0,4897;1,3875;-0,7724;0,1997;0,8611;0,3834;0,2555
"arriver";-0,5673;0,4619;-0,0801;0,2124;-0,5809;0,2409;0,2486;0,3204;0,7208;-0,2;-0,4113;0,8655;-0,1624
"user";-0,5043;-0,5288;-0,0712;-0,3667;-0,1672;-0,3296;0,6016;1,1936;1,4946;-0,1778;-0,3656;-0,2556;-0,1443
"oeuvre";-0,5348;0,4548;0,6755;0,362;0,5975;0,2601;-2,5173;-1,423;-0,3173;0,4478;0,8565;1,0792;3,4696
"entre";-0,39;1,5902;-0,1246;-0,2407;-0,1704;-0,2039;-0,9297;0,2418;0,4479;-0,3112;-0,2396;-0,1357;0,3555
"y";-0,5057;-0,3115;-0,3651;0,383;0,6335;-0,5817;3,2352;-0,7877;-1,6249;-0,4165;-1,1398;0,2425;0,2971
"obtenir";-0,5358;1,7612;0,7963;0,2275;-0,1847;-0,3502;-1,0383;-0,5458;-0,3366;-0,1889;0,6663;0,9066;-0,1533
"royaume";0,1952;-0,7929;-0,0623;-0,3208;-0,1337;0,8692;0,7819;-0,927;0,3263;0,5214;-0,3199;1,0507;-0,1263
"d";-1,4832;0,6334;-0,578;0,5414;-0,4799;0,6737;-1,2127;-0,6716;-1,2782;-1,8463;4,2789;1,4968;1,6217
"frère";-2,4377;-1,7003;1,3123;0,5983;0,7866;-0,3891;1,4226;-1,0789;4,5284;2,1468;-1,0808;-1,3629;-1,2105
"autres";1,3783;-0,4127;-0,3428;0,2493;0,5045;-0,2846;-0,542;-0,4729;0,8909;-0,3793;-0,3575;0,519;-0,277
"pierre";0,2597;0,7032;-0,0489;-0,2521;0,736;-0,2266;-0,2471;0,3239;-0,2178;-0,1222;-0,2513;-0,1757;-0,0992
"bienaimés";-0,1445;-0,4677;-0,0667;1,4113;-0,4841;0,2932;-0,2293;-0,1925;0,3051;0,4966;0,263;-0,2396;-0,1353
"orgueil";-0,3467;-0,5569;-0,0489;-0,2521;-0,355;0,3909;0,7056;0,3239;-0,2178;-0,1222;0,9738;0,4779;-0,0992
"rien";-0,681;-1,3879;0,4646;0,4522;0,7766;-0,845;0,809;0,4459;-0,812;-0,4557;1,2429;-0,6551;1,2856
"peu";0,2142;-1,3736;-0,0578;-0,2979;0,208;-0,2678;-0,3508;3,0555;-0,2574;-0,1444;0,8509;-0,2077;-0,1173
"depuis";-0,3151;0,8223;-0,0445;0,3872;-0,3227;1,1228;-1,054;0,8015;-0,198;-0,1111;-0,2285;-0,1597;-0,0902
"temple";0,2874;-1,0566;-0,0445;-0,2292;-0,3227;-0,206;2,0297;0,373;-0,198;0,6464;-0,2285;-0,1597;-0,0902
"savoir";-0,6257;-0,3826;0,22;1,3799;-0,9722;0,6227;-1,2182;0,2902;2,1701;-0,2202;-0,2943;0,9701;-0,3513
"être";-0,5805;0,8515;0,3349;-1,0049;0,9733;-1,7294;4,0597;0,3757;-1,5714;-2,7284;-0,9817;-1,7187;-0,3703
"juste";-0,2501;2,1411;-0,0934;0,5316;-0,2594;0,2001;-2,2138;-1,3907;0,2103;1,0106;-0,1505;0,2691;0,4516
"travailler";-0,3082;-1,0803;-0,1068;0,4539;-0,3194;0,514;0,3798;-0,8944;1,0497;1,6596;0,4556;0,2318;-0,2165
"parce_que";-0,7284;0,6938;0,4481;-0,4631;-0,2014;-0,8862;-0,5797;1,1338;0,239;1,0254;0,4206;-0,6871;-0,388
"un";-1,4192;-3,5857;0,4895;-1,0323;0,3948;-2,3685;9,3199;-0,3309;-1,2323;-1,0281;1,1933;0,3342;0,4576
"présent";-0,2314;-0,252;-0,089;-0,4584;0,7725;-0,4121;-0,4601;1,2777;-0,396;-0,2222;-0,1388;0,2833;0,4686
"tite";-0,4412;-1,4793;-0,0623;-0,3208;0,5768;-0,2884;-1,4757;5,7364;-0,2772;-0,1556;-0,3199;0,3953;0,5981
"elles";-1,1979;-0,589;-0,1691;-0,3853;0,5406;0,2751;-0,3904;-1,096;-0,3095;-0,4223;6,6067;-0,2225;0,7363
"rester";0,2422;-0,3406;-0,1201;1,3231;-0,8715;-0,5563;-0,5548;-0,6126;1,5167;0,302;0,3915;0,5938;0,3673
"chacun";0,4704;-0,7749;-0,1869;-0,4473;-0,384;-0,3824;5,5868;-1,2862;0,2488;-0,1468;-0,96;-0,6711;-0,379
"au";-0,5289;-0,8338;1,0727;0,8838;-1,0024;0,3207;0,2809;1,7328;0,727;0,4098;-1,5074;-0,5223;-0,2419
"ennemi";-0,3467;0,3611;-0,0489;0,3562;0,2531;0,3909;-0,2471;-0,7283;0,4041;0,6103;-0,2513;0,4779;-0,0992
"croix";0,2597;-1,1623;-0,0489;0,9717;1,4071;1,9074;-0,2471;-0,7283;-0,2178;-0,1222;-0,2513;-0,1757;-0,0992
"pouvoir";0,8498;-0,2794;-0,276;0,4028;-0,7698;-0,3492;0,604;0,283;-0,3241;-0,6893;0,4051;0,4102;-0,5596
"concerner";-0,2314;0,9194;-0,089;-0,1395;-0,2401;0,2127;0,3583;-0,3489;-0,396;0,3974;-0,457;0,2833;-0,1804
"sage";-0,2131;0,4058;-0,0845;-0,4355;-0,6132;-0,3915;3,2148;-0,6422;-0,3762;-0,2111;-0,4342;0,2986;-0,1714
"bénir";0,7516;0,7032;-0,0489;-0,2521;0,736;-0,2266;-0,555;0,3239;-0,2178;-0,1222;-0,2513;-0,1757;-0,0992
"garder";-0,3692;-1,927;-0,1201;1,9517;0,5165;0,4464;-0,5548;-0,34;-0,1805;-0,3;0,8;1,8149;-0,2436
"apprendre";0,2754;-2,642;-0,1112;2,8567;0,2652;-0,1697;-0,742;-1,6556;0,5129;0,3256;0,8726;1,2228;1,0325
"accomplir";0,6388;0,2551;-0,0578;-0,2979;1,2145;-0,2678;-0,7102;0,2463;-0,2574;0,5483;-0,297;0,4201;-0,1173
"témoignage";-0,4412;0,7789;-0,0623;-0,3208;-0,4518;0,314;-0,407;0,2155;-0,2772;0,5214;0,7983;0,3953;-0,1263
"cela";1,1768;-0,395;-0,276;0,4028;0,3377;0,2577;-0,5379;0,4213;-0,3241;-0,2728;0,4051;-0,2138;-0,5596
"chose";-0,6518;-0,9804;-0,281;0,3796;-0,6973;0,9453;1,3122;-0,4472;-1,5677;-0,6217;1,8174;0,4691;0,3936
"les";1,8925;-0,3257;-1,2525;-2,5513;0,967;-0,3354;0,7097;-2,8177;-0,5579;-2,3787;3,49;0,5556;0,7247
"convoitise";0,8191;1,3518;-0,0445;-0,2292;-0,3227;-0,206;-1,054;-0,6621;0,4364;-0,1111;-0,2285;-0,1597;1,7691
"beaucoup";-0,9141;-0,2521;0,59;-0,2544;-0,4257;-0,5976;-0,2502;0,9787;0,4285;-0,3223;-0,2533;1,0671;0,3444
"bonté";0,5481;0,6827;-0,0667;-0,3438;-0,1502;0,2932;-0,4656;-0,1925;-0,297;0,4966;-0,3428;-0,2396;0,5724
"où";-0,9457;0,3196;-0,1335;1,1815;-0,4478;0,7949;1,3739;-0,7375;-0,5941;-0,3334;-0,2671;-0,152;-0,2707
"devant";0,3305;0,4059;-0,2225;-1,1464;-0,5292;-0,495;-1,1927;0,5687;0,7388;-0,5558;2,4343;0,9753;-0,4512
"pour";-0,9699;0,4821;0,9892;0,4527;-0,6029;0,8917;-0,8107;0,6671;0,6428;0,6825;-0,8054;-0,3719;-0,3482
"esclave";-0,39;1,5902;1,483;-0,6418;3,2367;-0,2039;-0,3768;-1,8544;-0,5545;-0,3112;-0,6399;-0,4473;-0,2526
"votre";0,66;-4,0588;-0,1845;1,0457;-0,8765;0,9776;-1,821;4,4027;4,0555;1,9454;-2,7457;-1,9194;-1,0838
"circoncire";-0,39;-0,2228;-0,1246;0,764;5,7689;0,8595;-0,9297;-1,8544;-0,5545;-0,3112;-0,6399;-0,4473;0,3555
"serviteur";0,3355;0,2744;-0,0979;0,5039;0,3242;1,1005;-0,5676;-0,4197;-0,4356;-0,2445;-0,5027;0,2559;1,1287
"macédoine";-0,4412;-0,7929;-0,0623;0,2821;-0,4518;-0,2884;-0,407;2,0643;1,653;-0,1556;0,2829;-0,2236;-0,1263
"charité";1,0002;-3,7265;1,938;-0,5112;-0,4549;0,7876;0,3938;-0,6947;0,8304;-0,1702;1,0698;0,6368;0,2108
"désirer";-0,3782;-0,2988;0,9368;0,3287;0,2291;-0,2472;-0,6317;-0,3208;1,0113;-0,1333;0,3296;1,1697;-0,1082
"puisqu";-0,3151;0,431;-0,0445;-0,2292;0,2804;-0,206;1,3555;-0,2393;-0,198;-0,1111;-0,2285;-0,1597;-0,0902
"ordre";-0,3467;-0,2483;-0,0489;-0,2521;-0,355;1,0488;0,3627;-0,2793;-0,2178;-0,1222;0,3571;-0,1757;1,6879
"comme";1,5919;-1,3411;1,0229;0,3574;-0,5535;-0,6363;1,3204;0,3176;1,7152;-0,3471;-1,4056;-0,8463;-1,3578
"le";1,1587;0,7824;-0,3267;0,5899;-3,0109;1,6127;0,7469;-2,519;-0,8226;1,4338;-0,4222;0,8668;-1,6587
"aucune";1,2389;0,5187;-0,0578;0,3042;-0,4195;-0,2678;-0,3508;-0,8608;-0,2574;0,5483;0,3051;-0,2077;0,6259
"vivant";-0,6619;1,1932;-0,0934;-0,4813;-0,6778;-0,4327;-0,5129;-0,3838;1,1899;-0,2334;1,0464;0,2691;0,4516
"eux";-0,3031;0,5296;-0,1691;-0,3853;0,2856;-0,7831;0,3602;0,343;0,2927;-0,4223;-0,3836;0,8044;0,2629
"annoncer";0,2272;-0,2228;-0,1246;0,764;0,8639;0,4264;-0,2211;-0,6536;0,4479;-0,3112;-0,6399;-0,1357;-0,2526
"circoncision";-0,4412;3,1573;-0,0623;-0,3208;0,5768;0,8692;-0,7903;-0,927;-0,2772;-0,1556;-0,3199;-0,2236;-0,1263
"oui";-0,3151;-0,482;1,0116;0,3872;-0,3227;-0,206;-0,4803;2,1169;0,4364;-0,1111;-0,2285;-0,1597;-0,0902
"servir";0,5643;0,2982;0,631;-0,214;0,2483;-0,5357;-0,5058;-0,9989;-0,1698;-0,2889;0,4115;2,672;-0,2346
"sentiment";0,2597;0,3611;-0,0489;3,8962;-0,355;-0,2266;-0,555;-0,2793;-0,2178;-0,1222;-0,2513;-0,1757;-0,0992
"réjouir";-0,5673;-0,6572;-0,0801;2,7592;-0,5809;0,2409;0,4643;1,0041;-0,3564;-0,2;-0,4113;-0,2875;-0,1624
"cause";0,7508;0,4617;0,3084;-0,2535;-0,5295;-0,3928;-0,6772;0,877;0,4696;-0,3004;-0,8491;0,3688;-0,2178
"semer";-0,3782;-1,2679;-0,0534;-0,275;1,3053;-0,2472;2,2179;0,2821;-0,2376;-0,1333;-0,2742;-0,1917;-0,1082
"nuit";-0,3782;-0,6339;-0,0534;-0,275;-0,3872;-0,2472;-0,6317;-0,3208;5,2451;0,5778;0,3296;0,4475;-0,1082
"temps";0,5375;-0,6336;1,2222;-0,8941;0,8419;0,569;-0,8998;-1,1429;0,281;0,5874;0,491;0,7807;0,7191
"que";-1,1822;-2,4601;1,7509;1,0398;-0,2959;-0,4273;1,4191;1,0388;0,5471;0,6661;-0,8138;-0,5676;-0,4662
"qui";-0,7388;6,3553;-1,3883;-0,5431;0,7849;0,4232;-1,6914;-2,2335;-0,5387;-0,6665;-0,3311;0,7611;-0,3241
"oeil";0,5481;0,6827;-0,0667;-0,3438;0,5341;0,2932;0,6855;-0,9933;-0,297;-0,1667;-0,3428;-0,2396;-0,1353
"parvenir";0,2874;0,431;-0,0445;1,9071;-0,3227;-0,206;-0,2001;-0,6621;-0,198;-0,1111;0,3882;-0,1597;-0,0902
"mourir";-0,6304;2,9536;-0,089;-0,4584;-0,6455;0,2127;0,6036;-1,3244;0,2231;-0,2222;-0,1388;-0,3195;-0,1804
"écriture";-0,3467;1,1714;-0,0489;-0,2521;0,736;-0,2266;-0,2471;-0,2793;-0,2178;-0,1222;-0,2513;0,4779;-0,0992
"celui";-0,5686;3,5139;-0,6685;-1,8182;1,6639;-1,5531;1,1022;0,3357;-1,463;-0,9792;-1,8104;-1,578;-0,7363
"permettre";-0,3151;-1,0566;-0,0445;-0,2292;-0,3227;-0,206;2,8588;-0,2393;0,4364;-0,1111;0,3882;-0,1597;-0,0902
"écrire";-1,0481;1,0983;0,9526;-0,6779;0,4283;-1,1543;0,8757;0,7961;-0,266;-0,6225;-0,6751;-0,895;-0,5054
"intelligence";1,1961;0,2744;-0,0979;0,5039;-0,71;0,5665;0,2762;-0,4197;-0,4356;-0,2445;-0,5027;0,2559;0,4356
"jérusalem";-0,3151;0,8223;-0,0445;-0,2292;3,4582;-0,206;-0,4803;-0,6621;-0,198;-0,1111;-0,2285;-0,1597;-0,0902
"encore";-0,9478;0,8667;-0,2315;0,5563;1,1183;-1,0718;-0,5372;0,9645;-0,495;0,421;-0,6076;-0,3611;-0,4693
"atil";-0,4412;0,7789;0,8742;-0,3208;-0,4518;-0,2884;0,4487;0,9052;-0,2772;-0,1556;-0,3199;-0,2236;-0,1263
"combat";-0,3151;-1,0566;1,0116;1,0443;-0,3227;0,4228;-0,4803;-0,6621;0,4364;-0,1111;1,9104;0,5118;-0,0902
"savezvous";-0,3782;-0,2988;-0,0534;-0,275;-0,3872;-0,2472;5,0374;-0,7946;-0,2376;-0,1333;-0,2742;-0,1917;-0,1082
"maintenant";0,3163;0,5257;1,0206;0,9203;0,8076;0,6775;-0,5019;-0,5948;-0,4811;-0,2009;-1,1659;-0,3507;-0,4602
"nous";-0,8813;-2,5878;-2,0344;-7,8231;-0,5826;-2,8818;-5,9635;29,6733;13,5127;2,2924;-5,434;-2,2416;-0,382
"avance";0,8191;0,8223;-0,0445;-0,2292;0,803;-0,206;-1,054;-0,2393;0,4364;-0,1111;-0,2285;-0,1597;-0,0902
"occasion";-0,4097;0,8901;-0,0578;0,3042;0,208;-0,2678;-0,7102;0,5598;-0,2574;-0,1444;0,3051;0,4201;-0,1173
"reconnaître";-0,4097;0,2551;0,9042;-0,2979;0,624;-0,2678;-0,3508;1,0021;-0,2574;-0,1444;-0,297;0,4201;-0,1173
"supporter";-0,1779;-0,5921;-0,0756;-0,3896;-0,5486;-0,3502;-0,3143;1,094;0,2682;0,4526;-0,3885;2,5586;-0,1533
"rendre";-0,8547;0,8199;0,6604;0,8144;-1,3084;0,6813;-0,3952;-0,9016;0,4717;0,4313;0,3446;0,6998;-0,7764
"tribulation";0,1952;-0,4088;-0,0623;0,2821;-0,4518;-0,2884;-0,7903;0,9052;2,5614;0,5214;-0,3199;-0,2236;-0,1263
"libre";-0,1445;-0,4677;-0,0667;-0,3438;3,4188;0,2932;0,6855;-0,9933;-0,297;-0,1667;-0,3428;-0,2396;-0,1353
"montrer";0,1952;0,7789;-0,0623;-0,3208;-0,4518;-0,2884;-0,7903;0,9052;0,3263;-0,1556;-0,3199;-0,2236;1,4868
"trouver";-0,6934;0,2744;-0,0979;0,5039;-0,279;-0,4533;-0,9302;3,3985;-0,4356;-0,2445;-0,5027;0,2559;0,4356
"compagnon";-0,4727;0,3851;4,877;0,7484;-0,4841;1,5268;-1,5811;-0,1925;-0,297;-0,1667;-0,3428;-0,2396;-0,1353
"qu";-0,3162;-0,456;-0,4179;-2,495;-1,2227;-1,0771;3,0356;-2,4273;-0,44;1,0006;4,501;-0,9159;1,2265
"irréprochable";-0,3467;-1,1623;-0,0489;1,7855;-0,355;-0,2266;-0,555;-0,7283;1,0779;-0,1222;0,9738;-0,1757;2,8991
"euxmêmes";-0,3467;0,7032;-0,0489;-0,2521;0,2531;-0,2266;-1,1594;1,2385;-0,2178;-0,1222;0,3571;0,4779;-0,0992
"injustice";-0,3151;1,3518;-0,0445;-0,2292;-0,3227;0,4228;0,4327;-0,6621;-0,198;0,6464;-0,2285;-0,1597;-0,0902
"lui";1,1543;0,51;0,3344;0,2747;-1,4756;5,6155;-1,0044;-0,4981;-1,0633;-0,3392;-2,5338;1,2893;-0,4105
"péché";-1,1031;18,175;-0,3518;-1,8119;-0,7594;-0,5447;-2,1977;-1,6;-0,8941;-0,394;-0,6514;-0,6647;-0,7132
"soumettre";0,7483;0,5351;-0,0934;-0,4813;-0,6778;0,2001;0,8319;-1,3907;-0,4158;-0,2334;-0,4799;0,2691;2,059
"timothée";-0,5358;-1,0417;0,7963;0,6644;-0,5486;0,2568;-0,5896;-0,2512;1,4245;0,4526;1,2728;0,3326;-0,1533
"lumière";3,295;-0,5288;-0,0712;-0,3667;-0,5163;0,2742;-0,9545;0,7428;0,2858;-0,1778;0,2448;-0,2556;-0,1443
"mais";-1,2721;0,5015;-0,3283;-0,2677;0,3652;-2,0476;2,4603;-0,5061;0,5064;-1,0585;-0,4456;-0,2869;-0,3045
"la";0,7647;7,4756;-0,8319;-1,0571;5,9412;0,4777;-9,2878;-2,6513;-2,3978;-1,6394;1,4845;0,6071;0,8379
"comment";-0,7565;1,6712;-0,1068;-0,5501;0,6114;-0,1588;-0,2344;-1,5894;0,5372;0,3383;0,4556;-0,3834;-0,2165
"ce";-1,1672;0,3368;-0,311;1,4203;-0,6323;-1,6131;2,6529;0,8258;-0,7719;-0,5306;-0,9875;-0,6371;-1,2478
"juger";-0,8511;-0,3406;-0,1201;-0,6189;-0,8715;-0,5563;4,6307;-1,0518;-0,1805;0,302;0,3915;0,2009;-0,2436
"zèle";-0,1445;-0,2306;-0,0667;0,2621;1,0587;-0,309;-1,5811;2,5942;-0,297;-0,1667;-0,3428;-0,2396;-0,1353
"après";0,9339;0,2648;-0,1201;-0,6189;0,5165;0,4464;0,2666;-1,7881;0,9315;-0,3;-0,2262;-0,4314;0,9758
"retenir";-0,3782;0,3033;0,9368;-0,275;-0,3872;-0,2472;-0,2974;-0,7946;0,3754;2,5259;-0,2742;0,4475;0,6564
"pourquoi";1,0238;-0,3609;0,3598;-0,3511;-0,3725;-0,5833;0,6759;0,4036;0,3392;-0,2328;-1,2803;-0,1735;-0,1676
"tristesse";-0,3782;-0,6339;-0,0534;0,907;-0,3872;-0,2472;-1,2649;5,4829;-0,2376;-0,1333;-0,2742;-0,1917;-0,1082
"moyen";0,5911;-0,7929;-0,0623;-0,3208;-0,1337;-0,2884;1,2178;0,9052;-0,2772;-0,1556;-0,3199;-0,2236;-0,1263
"folie";-0,3151;-1,0566;-0,0445;-0,2292;-0,3227;-0,206;2,8588;0,373;-0,198;-0,1111;-0,2285;0,5118;-0,0902
"attrister";0,2597;-0,5569;-0,0489;-0,2521;-0,355;-0,2266;-1,1594;6,0261;-0,2178;-0,1222;-0,2513;-0,1757;-0,0992
"nos";-0,2576;-1,0046;-0,1558;-0,8023;-0,2697;-0,2896;-0,6905;3,8122;1,7295;-0,389;-0,8;0,4413;-0,3158
"ensuite";-0,3151;-1,0566;-0,0445;-0,2292;0,803;-0,206;1,3555;-0,6621;0,4364;-0,1111;1,0464;-0,1597;-0,0902
"prier";0,2422;-2,8535;0,6168;-0,2273;-0,8715;0,8943;0,4439;0,4784;1,5167;1,5238;-0,2262;-0,4314;-0,2436
"autrefois";1,9891;-0,3524;0,9042;-0,2979;1,2145;0,9232;-1,3703;-0,8608;-0,2574;-0,1444;-0,297;-0,2077;0,6259
"recommander";-0,4727;-0,8746;-0,0667;-0,3438;-0,1502;-0,309;-1,5811;2,5942;0,3051;1,269;1,4145;-0,2396;-0,1353
"estil";-0,4097;1,3716;-0,0578;-0,2979;0,208;-0,2678;1,3758;-0,8608;-0,2574;-0,1444;-0,297;-0,2077;-0,1173
"avoir";-0,4032;0,314;-0,5002;0,3114;0,3917;0,2902;-0,5603;1,0388;0,8806;-0,5682;-2,5115;1,6809;-0,7163
"ministère";-0,2131;-0,4114;-0,0845;-0,4355;-0,6132;0,2262;-1,209;2,5543;-0,3762;-0,2111;1,1515;0,8272;-0,1714
"toutes";1,3456;-0,9465;-0,3473;-0,2026;-1,6724;2,0036;-0,7397;0,6849;-0,268;0,8698;0,2431;0,2691;-0,2825
"jésus";0,8205;-1,1828;1,6736;2,895;0,4742;-0,622;-3,6803;-2,0125;1,5776;2,5516;0,7182;1,3742;-0,2467
"prophète";1,1566;0,4467;-0,0623;-0,3208;-0,4518;-0,2884;0,7819;-0,927;0,3263;-0,1556;-0,3199;-0,2236;0,5981
"désir";-0,4727;0,6827;-0,0667;0,2621;1,0587;0,2932;-0,8717;-0,1925;0,3051;-0,1667;0,263;-0,2396;-0,1353
"j";-1,6381;-1,8392;2,1475;3,9212;-0,604;-1,304;0,6487;2,5743;-2,3321;-1,1131;-0,5961;1,4244;-0,8402
"marier";-0,6619;-0,8625;-0,0934;-0,4813;-0,2594;-0,4327;5,8543;-1,3907;-0,4158;-0,2334;1,0464;-0,3355;-0,1894
"quelquesuns";-0,7565;-0,6855;-0,1068;-0,1882;-0,7746;-0,4945;2,1627;-0,257;-0,4752;0,3383;2,1802;-0,3834;-0,2165
"celle";-0,7249;0,6721;-0,1023;0,4781;0,303;-0,148;0,6755;-1,5231;-0,4554;-0,2556;0,9542;0,2434;-0,2075
"chercher";-0,9141;0,8077;-0,129;-0,2544;0,8232;-0,2156;0,5587;-0,2161;-0,2026;-0,3223;-0,6628;-0,1438;-0,2616
"seul";1,4117;1,5582;-0,3384;-1,0333;-0,2708;-0,5083;0,8995;-3,0768;-0,8478;-0,8451;1,3923;-0,6292;-0,2715
"spirituel";0,3139;-0,6271;-0,1023;-0,5272;-0,2991;0,5394;5,0926;-1,5231;-0,4554;-0,2556;-0,5256;-0,3674;-0,2075
"fois";-0,5358;-1,0417;-0,0756;-0,3896;0,4604;-0,3502;0,2882;3,7323;0,2682;-0,1889;-0,3885;-0,2716;-0,1533
"membre";-0,2011;0,947;-0,1379;-0,7106;-1,0006;-0,2396;4,9709;-2,0532;-0,6139;-0,3445;-0,7085;-0,4953;-0,2797
"là";-0,5673;0,4619;-0,0801;-0,4125;-0,5809;-0,3708;0,4643;-0,2825;0,2519;1,1269;0,6292;-0,2875;0,5059
"honneur";-0,5358;1,2621;-0,0756;-0,3896;-0,5486;-0,3502;-0,3143;-1,1257;0,2682;-0,1889;2,0193;0,9066;-0,1533
"parole";0,3083;-1,5632;-0,3562;-0,669;-1,168;1,498;-1,2681;-0,3857;2,0376;0,8414;0,6447;1,5928;1,6084
