"";"X.L_Efesoarrei";"X.L_Erromatarrei";"X.L_Filemoni";"X.L_Filipostarrei";"X.L_Galaziarrei";"X.L_Kolosarrei";"X.L_Korintoarrei1";"X.L_Korintoarrei2";"X.L_Tesalonikarrei1";"X.L_Tesalonikarrei2";"X.L_Timoteori1";"X.L_Timoteori2";"X.L_Titori"
"art_def";3,5286;4,2925;-1,8408;-1,6784;1,979;1,3396;-1,0083;-7,5357;-1,36;-0,4536;0,8056;-0,5856;-0,6434
"pre";5,4269;-0,6589;0,6685;2,5248;-0,8929;3,7205;-19,0589;3,0786;0,6322;0,741;-0,4807;0,5768;0,9224
"adj_dem";-1,8823;-0,92;-0,2254;-0,7693;0,296;-0,2527;-0,9331;2,3316;0,6208;0,6253;0,9108;0,5849;0,4669
"ono";-0,2861;-0,6135;0,2517;1,2876;-1,7156;-0,9575;-0,7963;0,4615;0,8722;1,3413;0,5706;0,7255;0,2838
"pro_per";-6,1533;-5,496;2,0713;1,1656;0,7565;-0,6714;0,8138;14,0292;1,9592;0,7491;-6,8605;0,3043;-2,1751
"ver_sup";-0,9281;0,6738;0,9826;-0,5216;-0,3015;-0,4137;-1,013;-0,5017;0,3268;0,8817;1,5323;-0,3632;0,8956
"adv";0,3825;-0,3721;0,4278;0,6835;0,448;0,5404;-0,844;-1,0736;0,8505;0,8165;0,9062;-0,2413;-1,2816
"ver";-1,6013;-1,2194;-2,7348;-0,3348;0,4443;-0,6089;1,6804;0,5048;0,572;-0,4446;-0,5753;2,4937;0,3531
"adj_ind";1,2459;-1,2083;0,5261;0,5126;-1,3169;-0,2847;0,8894;0,5437;-1,6626;0,6702;-0,703;0,3466;0,8688
"adj_pos";2,2072;-0,9294;3,1498;3,4355;-3,965;0,8055;-6,873;1,3497;3,8522;3,3377;-3,0804;0,4548;-0,3475
"aux";-0,5493;0,9696;-0,3568;-0,7476;0,9944;-1,3033;2,6876;0,7226;-0,509;-2,1517;-3,6107;-0,7343;-0,9426
"nr";-5,0051;1,0185;3,1883;-1,6229;1,5829;0,4077;0,6693;-0,6474;-0,9367;-0,263;-1,3077;2,8424;-0,5834
"pro_ind";2,3497;-2,6529;-0,7802;2,5749;-0,6094;0,6228;5,5764;-2,5268;-0,3971;-0,6213;-1,3322;-1,623;-0,493
"adj";-0,843;-3,3369;-0,8862;-0,3539;-1,5604;-0,6363;0,3716;-0,9239;-3,4219;-2,3526;18,046;1,0117;13,2429
"pro_dem";-0,8054;2,2221;-0,9847;-0,6661;0,5126;-2,61;3,1704;0,4463;-0,8293;-0,8599;-1,2174;-1,7577;-2,1933
"nom";6,4119;1,7013;0,6161;0,4191;-0,9006;1,8489;-5,3784;-4,2316;0,386;0,3907;1,7173;0,4466;0,4449
"art_ind";-1,2891;-2,0709;-0,7616;-1,4285;-0,6223;-0,4178;9,5268;-1,9502;-0,7737;-1,7077;4,4282;-0,6474;0,4102
"adj_int";1,7239;-0,6596;-0,1783;-0,9115;0,2599;0,2536;-0,6653;1,6845;0,6006;-0,4279;-0,9721;0,3446;-0,381
"pro_pos";0,2167;-0,701;-0,0579;-0,2962;-0,4173;0,9244;-0,347;0,9964;-0,2506;-0,139;0,8089;-0,2188;0,6055
"nom_sup";-1,6074;2,1654;0,5569;-1,1011;0,3972;-1,7625;1,1185;-0,4006;-0,3798;-0,9243;-0,3568;0,2722;-0,4819
"adv_sup";-8,4617;1,0836;-0,8517;-2,3768;1,1769;-7,8318;9,1596;1,4633;-0,3189;0,3824;-1,1099;-2,2845;-1,2388
"adj_sup";-0,2393;0,3498;-0,1776;0,2555;-1,5336;-0,4365;-2,2264;-1,0849;-0,2206;1,1772;3,2132;0,8013;3,615
"adj_num";-0,1968;-2,0527;-0,1961;-0,2161;1,9365;-0,9052;1,4418;0,5496;-0,3716;-0,4707;0,365;-0,3029;-0,4192
"pro_rel";-1,0941;1,3967;0,3294;0,7509;0,4402;0,6271;0,3061;-0,59;-0,4209;0,3154;-1,1783;-0,442;-0,7239
"con";-1,2369;-0,3007;-0,7471;-1,1654;-0,4894;-0,7402;3,7193;-1,3175;-0,3006;0,5449;1,5442;-0,8626;-0,3502
