"";"classe 1";"classe 2";"classe 3";"classe 4";"classe 5";"classe 6";"classe 7";"classe 8";"classe 9";"classe 10";"classe 11";"classe 12"
"non";1;1;1;0,204;0;1;1;1;1;1;0;0,017
"autem";0,305;1;1;0,097;1;0,265;1;1;1;0,027;0;1
"enim";1;1;0,964;0;0;1;0,242;1;1;1;1;1
"dominus";1;1;0,071;1;1;0,176;1;0;0,872;1;1;1
"dei";1;1;0,099;1;0,494;0,788;0,438;0,026;0;1;1;0,713
"habeo";0,238;0,859;1;1;1;0,573;0,46;1;1;0;0;1
"iesu";1;1;1;1;1;1;1;0;0;1;1;1
"facio";1;1;1;0,696;0,044;1;1;0,095;1;1;0,08;1
"sicut";0,509;1;1;1;0,665;1;0,643;1;1;0,373;0;0,469
"gratia";1;1;0,059;1;1;1;1;0;0,342;1;1;1
"christi";1;1;1;1;1;0,795;1;0;0;1;1;1
"spiritus";1;1;1;1;1;0,023;0,444;1;0;1;1;1
"fides";1;1;0,82;1;1;0,285;0,844;1;0;1;1;1
"deo";1;1;0,536;1;1;1;1;0;1;1;1;0,329
"frater";1;1;1;1;1;1;1;0;1;1;0;1
"dico";0,793;1;1;1;0;1;1;1;1;0,437;1;1
"christo";1;1;0,239;1;1;1;1;0;1;1;1;1
"homo";1;0,732;1;0,068;0;1;1;1;1;1;0,881;0,205
"deus";1;1;0,003;1;0,397;0,511;0,711;0,886;0,021;0,767;1;1
"lex";1;1;0,926;0;0;1;1;1;1;1;1;1
"bonus";1;0;1;1;1;1;1;1;1;1;0,022;1
"caro";1;1;0,001;0;1;1;0,585;1;1;1;1;1
"corpus";0,135;1;1;0;1;1;1;1;0,704;0;1;1
"ergo";1;1;1;0,001;0,154;0,456;0,617;1;1;1;0,871;1
"gloria";1;1;0,064;1;1;1;1;0;0;1;1;1
"filius";1;1;0,323;1;0,951;1;1;0,001;0,002;1;1;1
"multus";1;1;1;1;1;1;0;0,06;1;0;1;1
"scio";1;1;1;1;1;1;0,955;1;1;0,996;0;0,55
"video";1;1;1;1;0,112;1;1;1;1;0,3;0;1
"pater";1;1;0;1;1;1;1;0;1;1;1;1
"mortuus";1;1;0;0;1;1;1;1;1;1;1;1
"sanctus";1;1;1;1;1;0,545;1;0;0;1;1;1
"vir";0;1;1;1;1;1;1;1;1;1;1;1
"venio";1;1;1;1;0,001;1;1;1;0,797;0,827;0,004;1
"nunc";1;1;1;0;0,504;1;0,826;1;1;0,013;1;1
"ita";0,891;1;1;0,77;1;1;0,086;1;1;0,905;0;0,101
"ecclesia";0;1;1;1;1;1;0,008;0;1;1;0,491;1
"Evangelium";1;1;0,67;1;1;1;0,747;0,661;0;1;0,233;1
"sino";0,173;1;1;1;1;1;0,018;1;0,019;1;0,283;0,254
"christus";0,891;1;0;0;0,377;1;1;1;1;0,905;1;1
"caritas";1;1;1;1;1;0;0,806;0,06;0,043;1;0,532;1
"loquor";0;0,081;1;1;1;1;0,665;1;1;1;0,272;0,003
"verbum";1;0,17;1;1;0,867;1;1;1;0;1;1;0
"Deus";1;1;1;1;0;1;1;0,621;1;0,269;0,893;1
"quidem";1;1;0,027;0,811;0,081;1;1;1;1;0;1;1
"gens";1;1;0,045;1;0;1;1;0,974;1;1;1;1
"accipio";1;1;0,895;0,275;1;1;0,58;0,633;1;1;0;0,955
"ne";1;0,214;1;1;1;1;1;1;1;1;0;0,34
"do";1;0,669;1;1;1;1;0,665;1;0;1;0,746;1
"credo";1;1;0,255;1;0,001;1;1;1;0,016;1;0,158;0,34
"dies";1;1;1;0,045;0,006;1;1;1;0,077;1;1;0,955
"virtus";1;1;1;1;1;0,068;0;1;0;1;1;1
"peccatum";1;1;0,021;0;0,737;1;1;1;1;1;1;1
"cor";1;0,386;1;1;1;0,001;1;1;0;1;0,477;1
"mundus";0,949;1;0,003;0,633;0,001;1;1;1;0,112;1;1;1
"fio";1;0,17;1;1;1;1;1;1;0,115;1;0,019;0,311
"opus";1;0;1;1;0,102;1;1;1;1;1;0,059;0,938
"nolo";1;0;1;0,001;1;1;1;1;1;1;1;1
"opero";1;0,794;1;0,011;1;1;0;1;1;1;0,022;0,254
"veritas";1;1;1;1;0;1;1;1;0,01;1;1;0,001
"pax";1;1;1;1;1;0,075;1;0;0,716;1;1;1
"christum";1;1;0;1;1;1;1;1;1;1;1;0,955
"volo";0,131;0,163;1;1;1;1;0,493;1;1;0,527;0;1
"mors";1;1;0;0;1;1;1;1;1;1;1;1
"vivo";1;1;1;0;1;1;1;1;1;1;1;1
"ago";0,949;0,616;0,738;1;1;1;1;0;1;1;1;0,2
"voco";1;1;1;1;1;1;1;0;0,041;1;1;1
"mulier";0;1;1;1;1;1;1;1;1;1;1;1
"magis";0,863;0,231;1;1;1;1;1;1;1;0,085;0;1
"glorior";1;1;1;1;1;1;0,917;1;0,979;0,26;0;1
"cognosco";1;1;1;1;0,031;1;1;0,001;1;1;0,052;0,742
"tempus";1;1;1;0;1;1;1;1;0;1;1;0,742
"sic";1;1;1;0,044;0,006;1;1;1;1;1;0,114;1
"possum";1;0,363;1;1;0,412;0,928;1;1;0,142;1;0,913;1
"iesum";1;1;0;1;1;1;1;1;1;1;1;1
"vita";1;1;0;0,416;1;0,951;1;1;1;1;1;0,763
"sermo";1;0;1;1;1;1;0,051;1;0,746;1;0,137;1
"saeculum";1;1;0,001;1;1;0,755;1;0;0,882;1;1;1
"manduco";1;1;1;0;1;1;1;1;1;1;1;1
"invicem";1;0;1;1;1;0,782;1;1;1;0,92;1;1
"diligo";0,025;0,85;0,902;1;1;0,808;0,917;0,552;1;1;0,013;1
"Spes";1;1;0,084;1;1;0,782;0,891;1;0;0,24;1;1
"voluntas";1;0,041;0,505;1;1;1;1;0,004;0,335;1;1;1
"abundo";1;0,362;1;1;1;1;1;0;1;1;0,086;1
"scriptum";1;1;1;1;0;1;1;1;1;1;0,093;0,698
"scribo";1;0,957;1;1;0,529;1;0,968;1;1;1;0,001;0
"vero";0,643;1;1;0,919;0,032;0;0,943;1;1;0,282;1;1
"membrum";1;0,79;1;0,025;1;1;1;1;1;0;1;1
"praedico";1;1;1;1;0,312;1;0,863;1;1;1;0;0,579
"itaque";0,61;0,003;1;0,466;0,739;1;1;1;1;1;0,608;1
"semper";1;1;0,864;1;1;1;1;0,001;0,931;0,001;0,27;1
"quomodo";1;1;1;0,641;0,846;0,7;0,011;1;1;1;0;1
"pecco";1;1;1;0;1;1;0,863;1;1;1;1;0,579
"jam";1;1;1;0;0,221;1;1;1;1;0,835;1;1
"circumcisio";1;1;0,184;0,054;1;1;1;0,85;1;0,366;1;1
"sapientia";1;0,238;1;1;0,017;1;1;1;0;1;1;1
"potestas";0,006;0,977;1;0,991;1;0,642;1;1;1;0,143;0,272;0
"placeo";1;0,238;1;1;1;1;0,776;1;1;1;0;0,503
"apostolus";1;1;1;1;0,008;0,728;0,18;0;1;1;1;1
"ambulo";1;1;1;0;1;1;1;0,306;1;1;0,651;0,038
"usque";1;1;1;1;0;1;1;1;0,024;1;1;0,529
"servio";1;0;1;1;0,001;1;1;1;1;1;1;1
"paulus";1;1;0,223;1;1;0,671;1;0;1;0,804;1;0,503
"numquid";0,338;1;1;1;0;1;1;1;1;1;1;0,423
"malus";1;0;1;1;1;1;0,806;1;1;1;1;1
"gaudeo";1;1;1;1;1;0,611;0,714;1;1;0;0,929;1
"oporteo";1;0,977;1;1;1;1;1;1;1;1;0;0,477
"uxor";0;1;1;1;1;1;0,541;1;1;1;0,546;1
"scientia";1;0,169;1;1;1;0,07;1;1;0;1;1;1
"iterum";1;0,57;1;1;0,017;1;1;1;1;0,804;0,009;0,038
"edo";1;1;1;0,868;1;1;1;0,01;1;1;0,185;1
"tribulatio";1;0,917;1;1;1;1;0;1;1;1;1;1
"mitto";1;1;1;1;1;1;1;1;0,619;1;0;0,45
"lingua";0;0,917;1;1;1;1;0,112;1;1;1;1;1
"doctrina";1;0;1;1;1;0,611;1;1;1;1;1;1
"spiritalis";0,241;0,254;1;0;1;1;1;1;0,403;1;1;1
"salvus";1;1;1;1;0;1;1;1;1;1;1;1
"quidam";1;0;1;1;0,413;1;1;1;1;1;1;0,014
"iustitiam";1;1;0,439;1;0;0,033;0,577;1;1;1;1;1
"ideo";0,06;1;0,617;1;1;1;0,714;0,547;1;0;1;0
"amen";1;1;0,171;1;1;1;1;0;1;0,741;1;1
"solum";1;1;0,019;1;1;1;1;1;1;0,708;0;1
"nomen";1;1;0,011;1;1;1;1;0;1;1;1;1
"misericordia";1;1;1;1;0;0,516;1;0,027;1;1;1;1
"ira";0,964;0,087;0,484;1;0;1;1;1;1;1;1;1
"facies";0,924;1;1;1;1;0;1;1;1;0,603;0;0,339
"dedo";0,338;1;0,019;1;0,024;1;0,681;1;0,197;0,708;1;0,423
"unusquisque";0,305;0;1;1;1;1;1;1;1;0,674;0,009;1
"resurgo";1;1;0;0;1;1;1;1;1;1;1;1
"quaero";1;1;1;1;0;1;1;1;1;1;1;1
"minister";1;1;1;1;1;1;0,058;0,746;0;1;1;1
"gaudium";1;1;1;1;1;0;1;0,001;0,165;0,674;1;1
"domus";0;1;1;0,601;1;1;1;1;1;0,566;0,013;1
"trado";0,924;0,011;1;0;1;1;1;1;1;1;1;1
"morior";1;1;1;0;1;1;1;1;1;1;1;1
"iustitiae";1;1;0,395;0,001;0,285;1;1;1;0,351;1;1;1
"disco";0,024;0,658;1;1;1;1;1;0,317;1;1;0;1
"conscientia";0,792;0;1;1;0,481;1;1;1;1;1;1;0,254
"spero";1;1;1;1;0,228;0,02;1;0,603;1;1;0,008;1
"saluto";1;1;1;1;1;1;1;0;1;1;1;1
"promissio";1;1;0;1;1;1;1;0,317;0,109;1;1;1
"pono";1;1;0,085;1;0,124;1;0,577;1;1;0,603;0,02;1
"patior";1;1;1;1;1;1;0,058;1;1;0,067;0;1
"patientia";1;0,658;0,085;1;1;0;0,058;1;1;1;1;1
"existimo";0,924;1;1;1;1;1;0,058;0,746;1;1;0,02;0
"caput";0;1;1;1;1;1;1;1;1;1;1;1
"ubi";1;1;1;0,077;0;1;1;1;1;1;1;1
"supra";0,152;1;0,307;1;1;1;0;1;1;1;1;1
"semen";1;1;0;1;1;1;1;1;1;1;1;1
"sapio";0,642;1;0,184;1;1;0;1;0,85;1;1;1;1
"salus";1;1;1;0,533;1;1;1;1;0;0,528;1;1
"probo";1;0,156;1;1;1;1;1;1;1;1;0,001;0,118
"pars";0,152;1;1;1;1;1;1;0,005;1;1;0,029;1
"oro";0;1;1;1;1;1;1;1;0,049;0,034;1;1
"oratio";1;1;1;1;1;1;0,503;0;0,301;1;1;1
"obsecro";1;1;1;1;1;0,449;1;0;1;1;1;1
"honor";1;0;0,003;1;1;1;1;1;1;0;1;1
"adhuc";1;1;1;0,005;0;1;1;1;1;1;1;1
"testimonium";1;0;1;1;1;1;1;1;0,066;1;1;1
"tantus";1;1;1;1;0,954;1;0;1;1;1;0,029;1
"sapiens";1;1;1;1;0;1;0,465;1;1;0,489;1;1
"laboro";1;0,855;0,904;1;1;1;0,386;1;1;1;0;0,002
"iesus";1;1;0;1;1;1;1;0,603;1;1;1;1
"fidelis";1;0,133;1;1;1;1;1;0;1;1;0,395;1
"doceo";0,152;0,024;1;1;1;1;1;0,036;1;1;0,395;1
"desiderium";1;0;1;0,533;1;0,415;1;1;1;1;0,939;1
"aliquando";1;0,101;1;0,105;1;1;0;1;1;0,448;1;1
"timor";1;0;1;1;1;1;0;1;1;1;0,095;0,226
"ministerium";0,792;0;0,307;1;1;1;1;0,036;1;1;1;1
"lego";1;1;0,904;0,333;0,018;1;1;1;1;1;1;0
"israhel";1;1;1;1;0;1;1;1;1;1;1;1
"invenio";1;1;0,957;1;0;1;1;1;1;1;0,324;1
"infidelis";0;1;1;0,784;1;1;1;1;1;1;1;1
"impleo";1;0,016;1;0,943;1;1;1;1;0;1;1;0,226
"ignoro";1;1;0,957;0,105;0;0,344;0,426;1;1;1;1;1
"epistula";1;0,324;1;1;1;1;1;1;1;0,407;1;0
"audio";1;1;1;1;1;1;1;1;0;1;0,004;0,254
"tamen";1;1;0,264;1;0,401;0,344;0;1;0,034;1;1;1
"servus";1;1;1;0,001;1;1;1;0,933;1;1;0,066;1
"qualis";1;1;1;1;1;1;0,004;1;1;1;0,001;0,118
"manifesto";1;0,074;0,021;1;1;1;1;1;0,023;1;1;1
"idolon";1;1;1;0,784;0;1;1;1;1;1;1;1
"factum";1;1;0,904;0,01;1;0,309;0;1;1;1;1;1
"evangelizo";1;1;1;1;0,467;1;0,263;1;0,399;1;0,015;1
"dilectio";1;0,855;1;1;1;0;0,386;0,933;0;1;1;1
"consolo";1;0,051;1;1;1;1;0,345;1;0,544;0,366;0,043;1
"ceterus";0,102;0,855;0,904;1;0,324;1;0,386;1;1;1;1;0,002
"aedificatio";0,126;0;1;1;1;1;1;1;1;0,448;0,764;0,226
"adventus";1;1;1;1;1;1;1;0,458;0;1;1;1
"sustineo";1;0,774;1;1;1;1;0,011;1;1;1;0;1
"suscito";1;1;0;1;1;0,167;1;1;1;1;1;0,094
"semet";0,694;0,01;0,904;1;0,094;1;1;1;1;1;1;1
"scitis";1;1;0,904;0,077;1;1;0;0,933;1;1;1;1
"propheta";1;1;1;1;0;1;1;1;1;1;1;1
"opera";0,694;0;0,904;0,333;1;1;1;1;1;1;1;1
"oboedio";1;1;1;0,699;1;1;1;0,763;1;0,323;1;0
"nullus";1;1;1;1;1;1;0,263;1;1;0;0,95;1
"nonne";0,47;1;1;1;0,001;1;1;1;0,328;1;1;1
"multo";0,694;0,855;0,904;1;1;1;1;1;1;0,407;0,001;1
"liber";1;1;0,848;0;0,667;1;1;1;1;1;0,198;1
"iniquitas";1;1;1;0,006;0,001;1;1;1;1;1;1;1
"evacuo";0,694;1;1;1;0;1;1;1;1;1;0,258;1
"eiusmodi";0,642;1;0,848;1;0,064;1;1;1;1;1;0,043;0,17
"dono";1;1;0,585;1;1;1;1;0;1;1;0,73;1
"divitia";1;1;0,184;1;1;0,005;1;0,319;0;1;1;1
"bibo";1;1;1;0;1;1;1;1;1;1;1;1
"vivus";1;1;1;0,611;0,002;1;1;1;1;1;0,95;1
"semino";1;1;1;0;1;1;1;1;1;1;1;1
"scriptura";1;0,207;0,788;0,699;0,005;1;1;1;1;1;1;1
"regnum";1;1;0,848;1;0,001;0,273;1;0,071;1;1;1;1
"quicumque";1;1;0,148;1;1;0,003;1;0,763;1;1;1;1
"plenitudo";1;1;0,585;1;0,808;1;0,182;1;0;1;1;1
"permaneo";1;1;1;1;0,04;0,237;1;1;0,095;1;0,145;1
"os";1;0,005;0,848;1;1;1;1;1;0;1;1;1
"mysterium";1;1;1;1;1;1;1;1;0;1;1;1
"maneo";0,642;1;1;1;0,253;1;1;1;1;1;0;1
"mandatum";1;1;0,788;0,003;0,04;1;1;1;1;1;1;1
"iustitia";1;1;1;1;0;1;1;1;0,544;1;1;1
"habito";0,06;1;0,788;0,699;1;1;1;1;0;0,323;1;1
"debeo";0;0,774;1;1;0,667;1;0,345;1;1;1;1;1
"contristo";1;1;1;1;1;1;0,143;1;0,872;0,001;0,61;0,051
"caelestis";1;1;0,038;1;1;1;1;0;1;1;1;1
"bene";0,06;0,003;1;1;1;1;1;1;1;0,323;0,485;0,144
"angelus";0,587;0,207;0;1;1;1;1;1;1;1;1;1
"absum";1;1;1;0,054;0;1;1;1;1;1;1;1
"tunc";1;1;0,657;1;1;1;0,003;1;0,328;1;0,065;1
"sto";1;0,156;1;1;1;1;1;0,671;0,005;1;0,394;1
"sensus";1;0;1;1;1;1;1;1;1;1;1;1
"reddo";0,587;0;1;1;1;1;1;1;1;1;1;1
"praesens";1;1;0,657;1;1;1;0,222;1;1;0,003;1;0
"oculus";1;0,003;0,788;0,699;1;1;1;1;1;0,323;1;1
"manus";0,06;0;1;1;1;1;1;1;1;0,323;1;0,144
"libero";1;1;0,788;0;1;1;1;1;0,095;1;1;1
"fructus";0,529;1;0,724;0,022;0,135;0,201;1;1;1;1;1;1
"exhorto";0,529;0;1;1;1;1;1;0,671;1;1;1;1
"exhibeo";0,47;1;1;0,001;1;1;0,222;1;1;1;1;0,094
"delictum";1;1;0,001;1;0,808;1;1;1;1;1;0,73;1
"deinde";1;1;1;1;0;1;1;1;1;1;1;1
"consequor";1;1;0,657;1;0,001;1;1;1;1;1;0,843;1
"baptizo";1;1;0;0,077;1;1;1;1;1;1;1;1
"audeo";1;1;1;1;0,925;1;1;1;1;0;1;0
"alter";1;1;1;1;0,089;1;1;1;1;0;0,843;1
"Servius";1;0,034;1;0;1;1;1;1;1;1;1;1
"tenebra";1;1;1;0;1;0;1;1;1;1;1;1
"talis";1;1;1;1;1;1;1;1;1;0,002;0,003;0,071
"similiter";0;0,422;1;0,429;1;1;1;1;1;1;0,73;1
"sanguis";1;1;1;0,001;0,925;1;1;1;0,002;1;1;1
"revelo";1;1;1;1;0;0,002;1;1;1;1;1;1
"revelatio";1;1;0,114;1;1;1;1;0,671;0,005;1;0,95;1
"perfectus";1;0,021;1;1;1;0,201;1;0,002;1;1;1;1
"nox";1;1;1;0;1;1;1;1;1;0,196;1;1
"notus";1;1;0,005;1;1;1;1;0,03;0,067;1;1;1
"nescitis";1;1;1;0,001;0,925;1;1;1;0,328;0,238;1;1
"necessitas";1;1;1;1;1;1;0;1;1;1;0;1
"intellego";1;1;1;1;0,002;1;0,263;1;0,067;1;1;1
"insipio";1;1;1;1;0,001;1;0,222;1;1;1;0,843;1
"infirmitas";1;1;1;0;1;1;0,182;1;1;1;0,038;1
"induo";1;1;0,085;1;0,925;0,167;1;1;0,328;1;0,843;1
"forte";0,47;0,512;1;1;1;1;1;1;1;1;0;1
"finis";1;1;1;0,115;0,001;1;1;1;1;1;1;1
"eligo";0,47;1;1;1;0,925;0,167;1;0,577;0,002;1;1;1
"destruo";1;1;0,724;0,022;0,002;1;1;1;1;1;1;1
"creatura";1;1;1;1;1;1;1;0,097;0;1;1;1
"contentio";1;0,011;1;1;0,925;1;1;1;1;1;0,307;0,094
"confundo";1;1;1;1;0,925;1;0,222;1;1;0,238;0,065;0,094
"commendo";0,47;1;1;1;0,925;1;0,222;1;1;1;1;0
"anima";1;1;1;0,611;1;1;0;1;1;1;0,1;1
"abrahae";1;1;0;1;1;1;1;1;0,96;1;1;1
"universus";0,345;1;0,51;1;1;1;1;0,384;0,194;1;0,61;1
"tristitia";1;1;1;0,96;1;1;1;1;1;1;0;1
"sollicitudo";1;0,001;1;1;1;1;0,222;1;0,328;1;0,307;1
"simul";1;1;1;0,001;0,925;1;1;1;1;1;1;1
"rogo";0,47;1;1;1;1;1;1;1;1;1;0;1
"quemadmodum";1;1;1;1;1;1;1;1;1;1;0;1
"propheto";0;1;1;1;1;1;1;1;1;1;1;1
"potens";1;0,512;0,657;1;0,925;1;0,003;1;1;1;0,307;1
"pietas";0,005;1;0;1;1;0,073;1;1;0,775;1;1;1
"passio";1;0,422;1;0,429;0,808;1;0,182;1;1;0,196;1;1
"operatio";1;1;0,657;1;1;0,167;0;1;0,045;0,238;1;0,094
"novus";1;1;1;0;0,195;1;1;1;1;1;1;1
"mens";0;1;0,51;1;1;1;1;1;0,872;1;1;1
"mecum";1;1;0;1;1;1;1;0,061;1;1;1;1
"labor";1;1;1;1;1;1;0;1;1;1;0,065;1
"infirmus";1;1;1;1;0;1;1;1;1;0,196;0,73;1
"fornicatio";0,408;0;1;0,429;1;1;1;1;1;1;1;1
"filia";0,47;1;0,657;1;0;1;1;1;1;1;1;1
"cuius";1;1;1;1;0,278;1;1;1;0;1;1;1
"crux";1;1;1;1;0;1;1;1;0,96;1;0,73;1
"confirmo";1;0,512;0,085;1;1;1;1;0,577;0;1;1;1
"circa";1;0,111;1;1;1;1;1;0,142;1;1;0,008;1
"caela";1;0,839;0,011;1;0,42;1;1;1;0,668;1;1;1
"aemulo";0;1;1;1;0,054;1;1;1;1;1;0,226;1
"actio";1;1;1;1;1;1;1;0;1;1;1;1
"abundans";1;1;1;1;1;1;0;1;1;0,003;0,307;0,094
"vobiscum";1;1;0,059;1;1;1;1;0;0,96;1;1;1
"vinculum";1;1;1;1;1;0;1;0,384;0,872;1;1;0
"utilis";1;0;0,038;1;1;1;1;1;1;1;0,61;1
"solus";1;1;0;1;1;1;1;1;0,96;0,196;0,73;1
"seduco";1;0;1;1;0,054;1;1;1;1;1;1;1
"sector";0,011;0,045;1;1;0,684;0;1;1;1;1;1;1
"sanctor";1;0,002;1;1;1;0,102;1;0,384;0,872;1;1;1
"sanctificatio";1;0,422;1;0,429;1;1;1;1;0;1;1;1
"sancio";1;0,332;1;1;1;1;1;1;0,015;0,155;1;1
"salvator";0,408;1;0;1;1;1;1;0,48;0,259;1;1;1
"resisto";1;0,102;1;1;1;1;1;1;0,552;1;0,246;1
"quaecumque";1;0;1;1;1;1;1;1;0,425;1;1;1
"prior";1;1;1;1;0;1;1;1;1;1;0,73;1
"pes";0,408;0,422;1;1;1;1;1;0,48;1;0,196;0,73;1
"persecutio";1;1;1;1;1;1;0;1;1;1;0,001;1
"periculum";1;1;1;1;0,455;1;0,002;0,279;1;1;1;1
"perficio";1;1;1;0,96;1;1;1;1;1;1;0;1
"peccator";1;1;1;1;0;1;1;1;0,259;1;1;1
"parvulus";0,154;0,004;1;0,72;1;1;1;1;1;1;1;1
"ostendeo";1;0,006;0,059;1;1;1;0,182;0,48;1;1;1;1
"ministro";1;0,102;1;0,72;1;1;1;0,126;1;1;1;1
"locum";0,408;1;1;1;0,278;1;1;0,009;1;0,196;1;1
"infirmis";1;1;1;0;1;1;1;1;1;0;1;1
"fiducia";1;1;1;1;1;1;0,182;0,009;0,96;0;1;1
"efficio";1;0,422;1;0,006;0,278;1;1;1;1;1;1;1
"desum";1;1;1;1;1;1;1;0,097;1;0;1;1
"consolatio";0,408;1;0,585;1;1;0;1;0,097;1;0,196;1;1
"circumcido";1;1;1;0;1;1;1;1;1;1;1;1
"carissimi";1;1;1;1;0,195;1;1;1;1;1;0,001;1
"benedictio";1;0,952;1;0,96;1;1;1;0,29;0,007;1;1;1
"auditus";1;1;1;0,96;1;1;0;1;1;1;1;0
"annus";0,408;1;1;1;0;1;1;1;1;1;0,73;1
"aemulatio";0,408;0,422;1;1;0,808;1;0,182;1;1;1;0,038;1
"adnuntio";1;1;0,51;0,339;0,684;1;1;1;1;1;1;0,051
"vocatio";1;1;1;1;1;1;1;0,384;0;1;1;1
"viduus";0,017;1;1;1;1;1;1;1;1;1;0,017;1
"unicuique";1;1;1;1;1;1;1;1;0;1;0,02;1
"totus";0,154;1;1;0,72;0,291;1;1;0,764;1;0,05;1;1
"timeo";0,345;0;1;1;1;1;1;1;1;1;0,61;1
"testamentum";1;1;1;0,96;0,001;1;1;1;0,775;1;1;1
"surgo";1;1;1;0;1;1;1;1;1;1;1;1
"stultus";1;1;1;0,011;0,005;1;1;1;1;1;1;1
"sollicitus";1;1;1;1;1;0,102;1;0,384;0,872;0,155;0,02;1
"sanus";1;0;1;1;1;0,102;1;1;0,872;1;1;1
"sanctifico";0,216;1;1;1;1;1;1;0,203;0;1;1;1
"resurrectio";1;1;1;0;1;1;1;1;0,872;1;1;1
"regno";1;1;0,004;0,105;1;1;1;0,764;1;1;0,965;1
"reconcilio";0,216;1;0,011;0,847;0,42;1;1;0,894;1;1;1;1
"proficio";1;0,102;1;1;1;1;0,045;1;1;1;0,023;1
"occasio";1;1;1;0,173;1;1;0,073;1;1;1;0,052;1
"nubo";1;1;1;0,577;1;1;0,023;0,618;1;1;0,143;1
"manifestus";1;0,712;1;0,105;1;1;1;1;1;1;0,246;0,01
"maledico";1;0,712;1;1;0,032;1;1;1;1;1;0,246;1
"magnus";1;0,952;1;1;1;1;1;1;1;0,116;0;1
"lucrum";0,28;1;1;0,96;0,125;1;1;1;1;1;0,487;1
"laus";1;1;0,51;1;1;1;1;0,384;0;1;1;1
"insto";1;0,247;1;0,253;1;1;0;1;1;1;1;1
"inmunditia";1;0;1;1;1;1;1;1;1;1;1;1
"inimicus";1;0,332;1;1;0;1;1;1;1;1;1;1
"imago";0,216;1;1;1;1;0,048;1;1;0;1;1;1
"heres";1;1;0;0,253;1;1;1;1;1;1;1;1
"graecus";1;1;1;0,339;0,029;1;0,143;1;0,872;1;1;1
"forma";1;1;1;0,001;1;1;1;1;0,775;1;0,487;0,034
"expecto";1;1;0,038;1;1;0,102;1;1;0;1;1;1
"esca";1;1;1;0;1;1;1;1;1;1;1;1
"dives";1;0,247;1;1;1;0,073;1;0,034;0,775;1;1;1
"curro";1;1;1;0,72;1;1;1;1;1;1;0,023;0,01
"claritas";1;1;1;1;1;0;1;1;1;1;1;1
"caelum";1;1;1;1;0,675;1;1;1;0,006;1;0,623;1
"blasphemo";0,345;0;1;1;0,684;1;1;1;1;1;1;1
"vivifico";1;1;0,431;0,025;0,125;1;1;1;1;1;1;1
"viscer";1;1;1;1;1;0;0,106;1;1;1;1;1
"venia";1;1;1;1;1;0;1;1;0,136;1;0,097;1
"venero";1;0,247;1;1;1;1;1;1;0,775;1;0,009;0,034
"usus";1;0;1;1;1;1;1;1;1;1;1;1
"timotheus";1;1;1;1;1;1;1;0;1;1;1;1
"teneo";0,005;0;1;0,96;1;1;1;1;1;1;1;1
"templum";1;1;1;1;1;1;0,045;0,764;0,047;0,05;1;1
"subdo";0;1;1;1;1;1;1;1;1;1;0,487;0,034
"simplicitas";1;0;1;1;1;1;1;0,034;1;1;1;1
"signum";0,154;1;1;1;1;0,028;1;1;0,047;1;1;0,01
"servo";1;1;1;1;1;1;1;1;0;0,081;0,364;1
"servitus";0,28;0,952;1;1;1;1;1;1;0,775;1;0,097;1
"sentio";1;0,839;1;1;1;0;1;1;1;0,081;1;1
"reputo";1;1;0;1;0,455;1;1;1;1;1;1;1
"repleo";0,28;0,952;0,431;1;1;1;1;1;0,007;1;1;1
"redemptio";1;1;1;1;1;1;1;1;0;1;1;1
"praeceptum";1;0,001;0,431;1;1;1;1;1;0,775;1;1;1
"persequor";1;0,952;1;1;1;1;0;1;1;1;1;1
"nosmet";1;1;1;1;1;1;0,073;1;1;1;1;0
"nescio";1;1;1;0,847;0,42;1;1;0,894;1;0,081;0,364;1
"natura";0,154;0,004;1;1;0,291;1;1;1;1;1;1;1
"modo";1;1;1;0,96;0,001;1;0,106;1;1;1;1;1
"misereo";1;0,712;1;1;0,001;1;1;1;1;1;0,965;1
"memoria";1;1;1;1;1;1;1;0;0,775;1;1;1
"memor";1;0,839;0,349;1;1;1;1;0,203;0,668;1;0,364;1
"mater";0;1;0,044;1;1;1;1;1;1;1;1;1
"littera";1;1;1;0,72;0,291;1;1;1;0,047;1;0,965;1
"iudicium";1;1;1;0,253;1;0,073;1;1;1;1;0;1
"insero";1;0,248;1;1;0,455;1;1;1;1;1;1;0
"infirmo";1;1;1;0;0,42;1;0,073;1;1;1;1;1
"inanis";1;0,169;1;0,847;1;1;0,073;1;1;1;0,364;1
"futurus";1;1;0;0,96;1;1;1;1;1;1;1;1
"exhortatio";0,216;0;1;1;1;1;1;0,894;1;1;1;1
"excido";1;0,024;1;1;0,001;1;1;1;1;1;1;1
"donum";1;1;1;1;1;1;1;1;0,003;1;0,052;1
"discedo";0;0,839;1;1;1;1;1;0,894;1;1;1;1
"desidero";1;0,169;1;1;1;1;1;0,894;0,086;1;0,364;1
"corrumpo";0,001;0,004;1;1;1;1;1;1;1;1;1;1
"convenio";0,28;0,247;1;0,96;1;1;1;1;1;1;0,009;1
"conprehendo";1;1;0,349;0,173;0,42;1;1;0,894;0,668;1;1;1
"conforto";1;1;1;1;1;0,073;1;0,29;0;1;1;1
"confido";1;1;1;1;1;0;1;1;1;1;1;1
"cito";1;0,247;1;1;1;0,073;1;0,29;1;1;0,097;1
"causa";1;0,011;1;1;1;1;0,073;1;1;0,081;0,364;1
"calix";1;1;1;0;1;1;1;1;0,552;1;1;1
"bonitas";1;1;1;1;0,291;0;1;0,764;0,552;1;1;1
"benedico";1;0,839;0,349;1;1;1;1;0,203;0,086;1;1;1
"audistis";1;1;1;1;1;1;0,106;1;0;1;1;1
"arbitro";1;0,247;1;0,96;0,125;1;1;1;1;1;1;0,034
"apollo";1;1;0,349;1;1;1;1;1;1;0;0,364;1
"agnitio";1;1;1;1;1;1;1;1;0;1;1;1
"aeternam";1;1;0;0,253;1;1;1;1;1;1;1;1
"aedifico";0,216;1;1;1;0,005;1;1;1;1;0,081;1;1
"absens";1;1;1;1;1;0,073;1;1;0,136;0,116;1;0
"vult";1;1;1;0,105;0,291;1;1;1;1;1;0,246;1
"vox";1;1;1;1;1;1;0;0,764;1;1;1;1
"virgo";0,002;1;1;1;1;1;0,073;1;1;1;0,003;1
"vas";1;0,011;1;1;1;1;1;0,894;1;0;1;1
"utor";1;1;1;0,72;1;1;1;1;1;0,05;0,023;1
"testis";1;1;0;1;1;1;1;0,894;0,086;1;1;1
"testificor";1;0,839;1;0,847;0,42;1;1;0,203;1;1;1;1
"tempto";1;0,001;1;1;1;1;1;1;1;1;0,143;1
"suscipio";1;0,102;1;1;1;0,028;1;0,764;1;1;0,246;1
"sperno";1;1;0,265;0,72;0,291;1;1;1;1;1;0,246;1
"reprobus";1;1;1;1;1;1;1;1;1;1;0;1
"recipio";1;0;1;1;1;1;1;0,894;1;1;1;1
"propterea";1;0;1;0,847;1;1;1;1;0,668;1;1;1
"prophetia";0,216;0,011;1;1;1;1;1;1;0,668;1;1;1
"princeps";1;0,839;1;0,173;1;1;1;0,203;1;1;1;0,021
"praesum";0,216;0;1;1;1;1;1;1;1;1;0,364;1
"praecipio";0,216;0,839;1;1;1;0;1;0,894;1;1;1;1
"possideo";1;0,712;1;1;0,032;1;1;1;1;0;1;1
"populus";1;1;1;0,847;0;1;1;1;1;1;1;1
"pereo";1;1;1;1;0;1;1;1;1;1;1;1
"particeps";1;0,839;1;0,011;0,42;1;1;1;1;1;1;1
"obsecratio";1;1;1;1;1;1;1;0,001;0,02;1;1;1
"nosco";1;1;1;1;0,001;1;1;1;1;1;0,246;1
"modus";1;1;1;0,847;1;1;0;1;1;1;1;1
"modicus";1;1;0,106;0,419;1;1;1;1;1;1;0,063;1
"minus";0,216;1;1;1;1;1;0;1;1;1;1;1
"meto";1;1;1;0;1;1;1;1;1;1;1;1
"merces";1;0,169;1;1;1;1;1;1;1;1;0;1
"medius";1;1;1;0,173;0,42;1;1;0,894;0,668;1;1;1
"malo";1;0;1;1;1;1;1;0,203;1;0,081;1;1
"macedonia";1;1;1;1;1;1;1;1;1;0,05;0;1
"libertas";1;1;1;0,72;0,291;1;1;0,764;0,552;1;0,965;1
"iudaeus";1;1;1;0;1;1;1;1;0,668;1;1;1
"iudaeis";1;1;1;0,847;0,42;1;0,073;0,894;0,668;1;1;1
"interitus";1;0,004;1;1;1;1;1;1;0,047;1;0,965;1
"inflo";1;0,839;1;1;1;1;1;1;1;1;0;1
"incredulitas";1;0,839;1;1;0;1;1;1;1;1;1;1
"hora";0,05;1;1;0,419;1;1;1;1;1;1;0,623;0,001
"gravo";1;0,712;1;0,72;1;1;0;1;1;1;0,246;1
"fundamentum";1;1;0,011;1;1;1;0,073;0,203;1;1;1;1
"foris";1;0,248;1;1;0,455;1;0,002;1;1;1;1;1
"error";1;0;1;1;1;1;1;1;1;1;1;0,021
"eripio";1;1;0,004;1;0,291;0,028;0,045;1;1;1;1;1
"duco";1;1;1;0,004;0,032;1;1;1;1;1;1;1
"domino";0,216;1;0,349;0;1;1;1;1;0,668;1;1;1
"deficio";1;1;1;0,004;0,291;1;0,045;1;1;1;1;1
"crucifigo";1;1;0;0,173;1;1;1;0,894;0,668;1;1;1
"cresco";0,216;1;1;1;1;1;1;0,016;0,086;1;1;1
"creo";0,154;1;0,265;1;1;1;1;0,126;0,552;1;1;1
"constituo";1;0,712;0,004;1;0,291;1;1;0,764;1;1;1;1
"consilium";1;1;1;0,847;1;1;1;1;0,086;1;0,003;1
"communico";1;0;1;1;1;1;1;1;1;1;1;1
"cogito";0;0,57;1;1;1;1;1;1;1;1;0,807;0,004
"cetero";1;1;1;1;1;1;1;0,894;0,003;1;0,052;1
"cado";1;1;1;1;0,005;1;1;1;1;1;0,052;1
"ascendo";1;1;1;1;0,011;1;1;1;1;1;0,143;1
"appareo";1;1;0;0,72;1;1;1;1;1;1;1;1
"alioquin";0,216;1;1;0,847;0,005;1;1;1;1;1;1;1
"agens";1;0,839;1;0,847;1;1;1;0;1;1;1;1
"aeternus";0,216;1;0,349;0,847;1;1;0,073;1;0,668;1;1;1
"absconditus";1;1;0,011;1;1;1;1;1;0;1;1;1
"abraham";1;1;1;1;0;1;1;1;0,668;1;1;1
"vultis";1;0,57;1;1;0,174;0,013;1;1;1;1;0,807;1
"vincio";1;0,712;1;1;1;1;1;0;0,552;1;1;1
"via";1;1;1;1;1;1;1;0;0,552;1;1;1
"vere";1;1;1;1;0,455;1;1;1;1;1;0,413;0
"velo";0;1;1;1;1;1;1;1;1;1;1;1
"vacuus";1;0,57;1;1;1;1;1;1;1;1;0,007;0,004
"superaedifico";1;1;1;1;1;1;0,023;0,065;1;1;0,143;1
"statuo";1;1;1;1;0,032;1;1;1;1;1;0,023;1
"soror";0;1;1;1;1;1;1;1;1;1;1;1
"saecularis";1;0;1;0,72;1;1;1;1;0,552;1;1;1
"sacramentum";1;1;0;1;1;1;1;1;1;1;1;1
"ratio";1;0,004;1;1;1;1;1;1;0,552;1;0,965;1
"quosdam";1;1;1;0,052;0,174;1;1;1;1;1;1;0,004
"querella";1;1;1;1;1;1;0,045;0,764;0;1;1;1
"prudentia";1;1;0,183;1;0,864;1;1;0,618;0,02;1;1;1
"proximus";1;0;1;1;1;1;1;1;1;1;1;1
"proprius";1;0,102;1;1;1;1;1;1;1;1;0,001;1
"propositum";1;0,712;0,265;1;1;0,028;1;0,764;0,047;1;1;1
"promitto";0,154;0;1;1;1;1;1;1;1;1;1;1
"principatus";0,097;0,57;0,001;1;0,864;1;1;1;1;1;1;1
"praesto";1;0,712;1;0,72;0,291;0,028;1;1;1;1;0,965;1
"praedicatio";1;1;1;0,72;1;1;1;1;0;1;1;1
"praedestino";1;1;0,265;1;1;1;1;1;0;1;1;1
"porto";1;0,018;1;1;1;0,004;1;1;0,292;1;1;1
"pervenio";1;1;1;1;1;0,028;1;1;0;1;1;1
"persona";1;0,004;1;1;1;1;1;0,126;1;1;0,965;1
"panis";1;1;1;0;1;1;1;0,764;1;1;1;1
"paenitentia";1;0,712;1;0,72;1;0,028;1;1;0,047;0,05;1;1
"ordino";1;0,712;1;0,72;1;1;1;0,126;1;1;0,246;1
"odor";1;1;0,183;0,577;0,864;1;1;0,618;1;1;0,807;1
"occido";1;1;1;0,105;0,001;1;1;1;1;1;1;1
"obsequium";1;1;1;0;1;1;1;0,764;0,552;1;1;1
"negotium";1;0,004;1;1;1;1;1;0,764;1;0,05;0,965;1
"necessarius";1;0,102;1;1;1;1;1;1;1;1;0,001;1
"multum";1;0,712;1;1;1;1;0;1;1;1;0,246;1
"mortalis";1;0,712;0,004;0,72;1;1;1;1;1;1;0,246;1
"mentior";1;0,004;1;1;1;1;1;0,764;1;1;0,965;1
"mensura";1;1;1;1;0,864;1;1;1;0,02;0,026;0,807;1
"masculus";1;0,018;1;0,419;0,675;1;1;1;1;1;1;1
"malitia";1;0;1;1;1;1;1;1;1;1;1;1
"magnum";1;1;0,004;0,105;1;0,028;0,045;1;1;1;1;1
"macedoniam";1;1;1;1;1;1;0,023;1;1;1;0;1
"iustus";1;1;0,265;0,72;0,291;1;1;1;0,552;1;0,965;1
"iustum";1;1;1;1;0,675;0,004;0,009;1;1;1;0,623;1
"iudaei";1;1;1;0,72;0,001;1;0,045;1;1;1;1;1
"invoco";1;1;1;1;1;0,028;1;0,126;1;1;0,246;1
"imitator";1;1;1;1;1;1;1;0;1;1;0,965;1
"humilitas";1;0,004;1;1;1;0;1;1;1;1;1;1
"huiusmodi";1;0,102;1;1;1;0,028;0,045;1;0,552;0,05;1;1
"genus";1;1;1;1;0,291;1;0;0,764;1;1;1;1
"fidelibus";0,097;1;1;1;1;1;1;0;1;1;1;1
"erubesco";1;0,712;1;0,72;0,032;1;1;1;1;1;0,965;1
"doctor";1;1;1;1;0;1;1;1;1;1;1;1
"dilectus";1;1;1;1;1;1;1;0;1;1;1;1
"custodio";1;1;0,183;0,577;0,864;1;1;0,065;1;1;1;1
"cura";0,154;1;0,265;1;1;1;1;1;1;1;0,246;0,01
"consentio";0,001;0,712;1;1;0,032;1;1;1;1;1;1;1
"confiteor";1;1;0;1;0,291;1;1;1;1;1;0,965;1
"confideo";1;1;1;1;1;1;1;1;1;1;0,001;0
"communicatio";1;1;1;1;1;1;1;0,006;0,001;1;1;1
"cogitatio";1;0,102;1;0,72;0,032;1;1;1;1;1;1;1
"cibus";1;1;1;0,001;0,864;1;1;0,618;1;1;1;1
"carnale";1;0;1;0,72;1;1;1;1;1;1;1;1
"beatus";1;0,712;0,265;0,105;1;1;1;1;0,047;1;1;1
"avaritia";1;0;1;1;1;1;0,045;1;1;1;0,965;1
"armum";1;0,57;1;0,001;0,864;1;1;1;1;1;1;1
"arguo";1;0;1;1;1;1;1;1;1;1;1;1
"adam";1;1;1;0,001;0,174;1;1;1;1;1;1;1
"abundantia";1;1;0,183;1;1;1;1;0,618;0,02;1;1;0,004
"vinum";0,097;0,051;1;0,052;1;1;1;1;1;1;1;1
"vigilo";1;0,414;1;0,419;1;1;1;0,455;0,292;1;1;1
"vetus";1;0,051;1;0,001;1;1;1;1;1;1;1;1
"venter";1;0,003;1;0,252;1;1;1;1;1;1;1;1
"velamen";1;1;1;1;0;1;1;1;1;1;1;1
"tribuo";1;0,051;1;1;1;1;0,023;1;1;0,026;0,807;1
"suppleo";1;1;1;1;1;1;1;0,065;1;0;1;0,004
"sublimitas";1;0,57;0,183;1;1;1;0,023;1;0,425;1;0,807;1
"subditus";0;0,57;1;1;1;1;1;1;1;1;0,143;1
"stultitia";1;1;1;1;0;1;1;1;1;1;1;1
"state";1;0,051;1;1;0,864;1;1;1;0,425;1;0,807;1
"socius";1;1;1;0,419;1;0,004;1;0,455;1;1;0,623;1
"societas";1;1;1;0,052;1;0,013;1;0,065;1;1;1;1
"singulus";0;1;1;1;1;1;1;1;1;0,026;0,807;1
"similitudo";1;1;1;0;1;1;1;1;0,425;1;1;1
"serva";1;1;1;1;1;1;1;1;1;1;0;1
"sensum";1;1;1;1;1;1;1;0;1;1;0,623;1
"scandalum";1;0,57;1;1;0,864;1;1;1;1;1;0,007;1
"saepe";1;1;1;1;0,011;1;1;0,618;1;1;0,807;1
"rogus";1;1;0,183;1;1;0,013;1;0,618;1;1;0,807;0,004
"rex";1;1;0;1;1;1;1;1;1;1;1;1
"res";1;1;1;1;1;1;1;0;1;1;1;1
"reliquus";0,097;1;1;1;1;1;1;0,618;1;0,026;0,143;1
"relinquo";0,097;0,57;1;0,577;0,174;1;1;1;1;1;1;1
"regula";1;1;1;1;0,864;0,013;1;0,618;0,425;1;0,807;1
"redimo";1;1;1;1;0;1;1;1;1;1;1;1
"redigo";1;1;1;1;1;1;1;0,618;0,425;0,026;0,143;1
"quare";1;1;1;1;1;1;1;1;1;1;0;1
"provoco";1;0,051;1;1;0,864;1;1;0,618;1;1;0,807;1
"prosum";1;0,57;1;0;1;1;1;1;1;1;1;1
"primitia";1;1;1;0,577;1;1;1;0,618;0;1;1;1
"praeparo";1;1;1;1;1;1;1;0,065;1;1;0,007;1
"potus";1;1;1;0,001;0,864;1;1;0,618;1;1;1;1
"potentia";1;0,57;1;0,577;1;0,013;1;1;0,02;1;1;1
"plus";1;1;1;1;1;1;1;1;1;1;0,001;0,001
"percipio";1;1;1;1;0,174;1;1;0,065;1;1;0,807;1
"paro";1;1;1;1;1;1;0,023;1;1;1;0,007;0,004
"parco";1;0;1;1;1;1;1;1;1;1;0,623;1
"pando";1;1;1;1;1;1;0;0,618;1;1;1;1
"offendiculum";1;1;1;0,577;1;1;1;1;1;1;0;1
"nomino";1;0,414;0,106;1;0,675;1;1;0,455;1;1;1;1
"nego";1;1;1;1;1;1;1;1;1;1;0;1
"modestia";1;1;1;1;1;0;1;1;0,02;1;1;1
"mendacium";1;0,051;1;1;0,864;1;1;0,618;1;1;1;0,004
"mare";1;1;0,183;0,052;0,864;1;1;0,618;1;1;1;1
"mansuetudo";1;0,57;1;1;1;0;1;1;1;1;1;1
"longanimitas";1;1;1;1;1;0;1;1;1;1;1;1
"laqueum";1;0;1;1;1;1;1;1;1;1;1;1
"lapis";1;1;1;1;0,864;1;0,023;0,618;1;1;0,143;1
"iustificati";1;1;0,001;0,577;1;1;1;0,065;1;1;1;1
"iudicat";1;0;1;1;1;1;1;1;1;1;1;1
"iudicas";1;1;1;1;0,455;1;1;1;1;1;0,017;1
"invidia";1;0;1;1;1;1;1;1;1;1;0,807;1
"intellectus";1;1;1;1;1;0,013;1;1;0;1;1;1
"instruo";1;0,051;1;1;1;1;1;0,618;0,02;1;1;1
"inreprehensibilis";1;0,414;1;0,419;1;0,004;1;1;0,292;1;1;1
"inlumino";1;1;0,001;0,577;1;1;1;1;0,02;1;1;1
"injuria";1;0,57;1;1;1;1;0,023;1;1;1;0,007;1
"iniquus";1;0,57;1;1;0,174;1;1;1;0,425;0,026;1;1
"indignatio";1;0;1;1;0,864;1;1;1;1;1;1;1
"immolo";1;1;1;0;1;1;1;1;1;1;1;1
"ignis";1;1;1;1;0;1;1;1;1;1;1;1
"hereditas";1;1;0,183;1;0,864;1;1;0,618;0,02;1;1;1
"gentil";1;1;1;0;1;1;1;1;1;1;0,807;1
"frango";1;0,248;1;1;1;1;1;0,279;0,16;1;1;1
"fleo";1;1;1;1;0,455;1;1;1;1;0;1;1
"excipio";1;1;0,001;1;1;1;0,023;0,065;1;1;1;1
"eundem";1;0,57;1;0,577;1;1;1;1;1;0,026;0,143;1
"esaias";1;1;1;1;0;1;1;1;1;1;1;1
"erro";1;0;1;1;0,675;1;1;1;1;1;1;1
"ephesi";1;1;1;0,577;0,174;1;1;0,618;1;1;0,807;1
"electio";1;0,57;1;0,577;0,174;1;1;1;1;1;0,807;1
"egeo";1;1;1;0,577;1;1;1;1;1;0;1;0,004
"eandem";1;1;1;0,577;0,864;0;1;1;0,425;1;1;1
"dormio";1;1;1;0,003;1;1;1;1;1;0,002;1;1
"domesticus";1;1;1;0,419;1;1;1;0,455;1;1;0,063;1
"divido";1;1;0,183;1;1;1;1;1;1;1;0;1
"dispensatio";1;1;0,106;1;1;1;1;1;0,006;1;0,623;1
"digne";1;1;1;1;1;1;1;0;0,425;1;1;1
"detrimentum";1;1;1;1;0,08;1;1;0,455;1;0,01;1;1
"defensio";1;0,248;1;1;1;0,001;1;1;1;1;0,413;1
"deduco";1;1;1;1;0,864;1;1;1;1;1;0;1
"damnatio";1;0;1;0,577;1;1;1;1;1;1;1;1
"daemonion";1;0,248;1;0,252;0,455;1;1;1;1;1;1;1
"corripio";1;0,57;1;1;0,864;1;1;0,618;0,425;1;0,807;1
"converso";1;0,051;1;1;1;1;0,023;1;0,425;1;0,807;1
"conversatio";1;0,57;0,183;1;1;1;0,023;1;0,02;1;1;1
"contumelia";1;0,57;1;1;1;1;0;1;1;0;1;1
"contemno";1;0,051;1;0,577;1;0,013;1;1;0,425;1;1;1
"confidentia";1;1;1;1;1;1;1;1;1;0,026;0,007;0,004
"concupiscentia";1;0,57;0,183;0,052;0,864;1;1;1;1;1;1;1
"cogo";1;0,414;1;1;0,675;1;0,009;1;1;1;0,623;1
"coepio";1;1;1;0,577;1;1;1;1;1;1;0;1
"circumvenio";0,097;1;1;1;0,864;1;1;1;1;1;0,007;1
"certus";1;1;0;1;1;1;1;1;0,292;1;0,623;1
"castitas";0;1;0,183;1;1;0,013;1;1;0,425;1;1;1
"carnalis";1;1;1;0;1;1;1;1;1;1;1;1
"benignitas";1;1;0,183;1;1;0;1;1;1;1;1;1
"benedictus";1;1;0,183;1;1;1;1;0;1;1;1;1
"apostola";1;1;1;1;0,455;1;0,002;1;1;1;0,413;1
"animus";1;0,051;1;1;1;1;1;0,618;1;1;0,143;1
"angustia";1;1;1;1;1;1;0;1;1;1;1;1
"ancilla";1;1;1;0,019;0,08;1;1;1;1;1;1;1
"anathema";1;1;0,106;1;1;1;1;0,024;1;1;0,623;1
"ample";1;1;1;1;1;1;1;1;1;1;0;1
"amo";0,05;1;0,106;1;1;1;1;0,024;1;1;1;1
"ambulate";1;1;0,106;0;1;1;1;1;1;1;1;1
"adsumo";1;1;0,183;0,052;0,864;1;1;1;0,425;1;1;1
"adoptio";1;1;0,183;1;0,864;1;1;0,618;0,425;1;0,807;1
"adiutores";1;0,248;0,044;1;1;1;1;1;0,16;1;1;1
"adduco";1;1;0;1;0,675;0,004;1;1;1;1;1;1
"achaia";1;1;1;1;1;1;1;0,455;1;1;0,001;1
"acceptio";1;0;1;1;0,864;1;1;1;1;1;1;1
"Lucas";1;1;1;0;0,864;1;1;1;1;1;1;1
"vosmet";1;0,414;1;1;0,675;1;1;1;0,292;1;0,623;1
"verus";1;0,414;1;1;0,08;1;1;1;0,292;1;1;1
"velut";1;1;1;0,419;1;1;1;1;1;1;0,001;1
"utique";1;1;1;1;0,08;1;1;1;1;1;0,623;0,001
"uniuscuiusque";1;1;1;1;0,455;1;1;0,279;1;0,002;1;1
"unianimis";1;1;1;1;1;0;1;0,455;0,292;1;1;1
"unde";0,017;1;0,044;1;1;1;1;1;1;1;0,413;1
"turpe";0;1;1;1;1;1;1;1;1;1;1;1
"tremor";1;0,414;1;1;1;1;0,009;1;1;1;0,063;1
"transfiguro";1;1;1;0,019;0,675;1;1;1;1;1;0,623;1
"traditio";1;0,414;1;1;0,675;1;0,009;0,455;1;1;1;1
"titum";1;1;1;1;1;1;1;1;1;1;0;1
"timotheum";1;1;0,106;1;1;1;1;0,024;0,292;1;1;1
"terrester";1;1;0,044;1;1;1;1;0,279;1;1;0,413;1
"temptatio";1;0,248;0,044;1;1;1;1;1;1;1;0,413;1
"tam";1;1;0,106;1;1;0,004;0,009;0,455;1;1;1;1
"taceo";0,05;1;1;1;0,675;1;1;1;0,292;1;0,623;1
"superabundo";1;1;1;1;1;1;1;0;0,292;1;1;1
"solvo";1;1;1;0;1;1;1;1;1;1;1;1
"solacium";1;1;0;1;1;0,004;1;1;1;1;0,623;1
"sobrietas";0,05;1;1;1;1;1;0,009;1;0,292;1;0,623;1
"sedeo";1;1;1;0,419;0,08;1;0,009;1;1;1;1;1
"scandalizo";1;1;1;0;1;1;1;1;1;1;1;1
"satanae";1;0,414;0,106;1;1;1;1;1;0,006;1;1;1
"salvo";1;0,414;0,106;1;1;1;1;1;0,006;1;1;1
"retribuo";1;1;1;1;0,08;1;0,009;0,455;1;1;1;1
"reputatum";1;1;1;1;0;1;1;1;1;1;1;1
"remissio";1;1;1;1;1;1;0,009;1;0;1;1;1
"reconciliatio";1;1;0;1;1;1;1;1;1;1;1;1
"quodcumque";1;1;1;0,419;1;1;1;0,455;1;1;0,063;1
"pudicus";0,017;1;1;1;1;0,001;1;1;0,16;1;1;1
"prudentes";0,05;0,414;1;0,419;1;0,004;1;1;1;1;1;1
"propono";1;1;0,106;1;0,675;1;1;1;0,006;1;1;1
"prope";1;1;1;1;1;1;1;1;0;1;1;1
"promptus";1;1;1;1;1;1;1;1;1;1;0,001;0,001
"prohibeo";0,05;1;1;1;0,08;1;1;0,455;1;1;1;1
"praevenio";1;0,414;1;1;0,08;1;1;1;1;1;0,623;1
"praevaricatio";1;1;1;0,419;0,002;1;1;1;1;1;1;1
"praesentia";1;1;0,106;1;1;1;1;1;1;0;0,623;1
"plenus";1;0,414;1;1;1;1;1;0,455;0,006;1;1;1
"plebes";1;1;1;1;0;1;1;1;1;1;1;1
"planto";1;0,414;1;0,419;1;1;1;1;1;0,01;0,623;1
"perhibeo";1;0;1;1;1;1;1;1;1;1;1;1
"pauper";1;1;1;0,252;0,455;1;1;1;1;1;0,413;1
"ostensio";1;1;1;1;1;1;1;0,455;0;1;1;1
"operarius";1;0,018;1;1;0,675;1;1;1;1;1;1;0,001
"onus";1;0,414;1;1;0,675;1;1;0,455;1;0,01;1;1
"offensio";1;0,414;1;1;1;1;1;1;1;1;0,001;1
"observo";1;0,414;1;0,419;0,675;1;1;1;1;1;0,623;1
"novum";1;1;1;0,419;0,08;1;1;1;0,292;1;1;1
"novitas";1;0,414;1;0,019;1;1;1;0,455;1;1;1;1
"nequitia";1;0;1;0,419;1;1;1;1;1;1;1;1
"naturalis";1;0;1;1;1;1;1;1;1;1;1;1
"mosi";1;1;1;1;0,002;1;1;1;1;1;0,623;1
"moses";1;1;1;1;0;1;1;1;1;1;1;1
"mortifico";1;1;1;0;0,675;1;1;1;1;1;1;1
"milium";0,05;0,414;1;1;0,675;1;1;0,455;1;1;1;1
"mendax";1;0,018;1;1;1;1;1;1;0,292;1;0,623;1
"manifestum";1;1;1;0,419;0,675;1;1;1;0,292;1;0,623;1
"lux";1;1;1;0,019;1;0,004;1;1;1;0,01;1;1
"lumen";1;0,248;1;1;1;0,001;1;0,279;1;1;1;1
"licet_est";1;1;1;1;0,023;1;1;1;1;0,002;1;1
"laudo";1;0,248;1;0,252;1;1;1;1;1;1;0,413;1
"iustificationem";1;1;1;0,019;0,675;1;1;1;1;1;0,623;1
"iusti";1;1;1;1;0;1;1;1;1;1;1;1
"invisibilis";1;1;0,044;1;1;1;1;1;0,001;1;1;1
"inutilis";1;0,003;1;1;0,455;1;1;1;1;1;1;1
"intro";0;1;1;0,419;0,675;1;1;1;1;1;1;1
"interpreto";0;1;1;1;1;1;1;1;1;1;1;1
"intermissio";1;1;1;1;1;1;1;0,024;0,292;1;1;0,001
"intendo";1;0,414;1;1;0,002;1;1;1;1;1;1;1
"inimicitia";1;1;1;0,419;0,002;1;1;1;1;1;1;1
"incorruptio";1;1;0;0,419;1;1;1;1;1;1;1;1
"impietas";1;1;1;0,252;0,023;1;1;1;1;1;1;1
"imperium";1;0,414;1;1;0,675;1;1;0,455;1;0,01;1;1
"humilio";1;0,414;1;1;0,08;1;1;1;1;1;0,623;1
"hostia";1;1;1;0,019;0,675;1;1;1;1;1;0,623;1
"hierosolyma";1;1;1;0,419;0,002;1;1;1;1;1;1;1
"gratis";1;1;1;0,019;0,675;1;1;0,455;1;1;1;1
"glorifico";1;1;1;1;0,675;1;1;0,455;0,006;1;1;1
"gloriatio";1;1;1;1;0,455;1;1;0,279;1;1;0,413;1
"genu";0,05;1;1;1;0,675;1;1;0,024;1;1;1;1
"generatio";1;1;1;1;0,675;1;1;0,455;0,006;1;1;1
"fructifico";1;1;1;0,019;1;1;1;0,455;0,292;1;1;1
"fingo";1;0,248;1;1;0,455;0,001;1;1;1;1;1;1
"fideli";0,05;1;1;1;1;1;1;0,024;0,292;1;1;1
"falsus";1;1;0,106;1;1;1;1;0;1;1;1;1
"fabula";1;0,248;1;1;0,455;1;1;1;1;1;1;0
"extollo";1;1;0,106;1;1;1;0,009;1;0,292;1;0,623;1
"expolio";1;0;1;1;1;1;1;1;1;1;1;1
"experimentum";1;1;1;1;0,675;1;1;0,024;1;1;1;0,001
"esurio";1;1;1;0,252;1;1;1;1;1;1;0,017;1
"elementum";1;1;1;0,419;0,002;1;1;1;1;1;1;1
"dormierunt";1;1;0,106;1;0,08;1;1;0,455;1;1;1;1
"donatio";1;1;0,106;1;1;1;1;0,455;0,006;1;1;1
"dissensio";1;0,414;1;1;0,675;1;1;1;1;1;0,063;1
"dimitto";0;1;1;1;1;1;1;1;1;1;1;1
"dijudico";0,05;1;1;0,419;0,675;1;1;1;1;1;1;0,001
"dignus";1;0,018;1;1;0,675;1;0,009;1;1;1;1;1
"diabolus";1;0;1;1;1;1;1;1;1;1;0,623;1
"detineo";1;1;1;0,003;0,455;1;1;1;1;1;1;1
"denuntio";1;1;1;0,419;1;1;1;0,024;1;1;0,623;1
"delinquo";1;1;1;0,252;1;1;1;1;1;1;0,017;1
"decet";0;0,018;1;1;1;1;1;1;1;1;1;1
"debitor";1;1;1;0;0,675;1;1;1;1;1;1;1
"david";1;0,414;0;1;0,675;1;1;1;1;1;1;1
"crimen";0,017;1;1;1;1;1;1;1;0,16;1;0,413;1
"creditum";1;1;0,044;1;1;1;1;1;0,001;1;1;1
"corruptio";1;1;1;0,019;0,675;1;1;1;0,292;1;1;1
"corona";1;1;1;1;1;1;1;1;0,292;1;0,001;1
"contendo";0,05;0,414;1;1;1;1;1;1;1;1;0,623;0,001
"confirmatus";1;1;1;1;0,08;1;1;0,455;0,292;1;1;1
"confessio";1;1;0,106;1;1;1;1;0,024;0,292;1;1;1
"concupisco";1;0,414;1;0,419;0,08;1;1;1;1;1;1;1
"civitas";1;1;0,106;1;1;1;1;0;1;1;1;1
"certo";1;1;1;1;1;1;0,002;1;0,16;1;0,413;1
"cephas";0,05;1;0,106;1;1;1;1;0,455;1;1;0,623;1
"carissimus";1;1;1;1;1;1;1;0;1;1;1;1
"avarus";1;1;1;1;0;1;1;1;1;1;1;1
"astutia";1;0,018;1;1;0,675;1;1;1;1;1;1;0,001
"alligo";1;1;1;0;0,675;1;1;1;1;1;1;1
"aliter";1;1;1;1;1;0,004;1;0,455;1;1;0,063;1
"aer";1;1;1;0,019;0,675;1;1;1;1;1;0,623;1
"adverso";1;0,018;1;1;0,675;1;0,009;1;1;1;1;1
"adprehendo";1;1;0;1;0,675;1;1;1;1;1;0,623;1
"adhereo";0,05;0,414;1;0,419;1;1;1;1;1;1;0,623;1
"abstineo";1;0,018;1;1;1;1;1;0,455;1;1;0,623;1
"Pan";1;1;1;0,252;1;1;1;1;0,16;0,002;1;1
"vindicta";1;0,248;1;1;0,023;1;1;1;1;1;1;1
"victoria";1;1;0,044;0,252;1;1;1;1;1;1;0,413;1
"utilitas";1;0,248;1;1;1;1;1;1;0,16;1;0,413;1
"ullus";1;0,248;1;1;0,455;1;1;0,279;1;1;1;1
"turpis";1;0,248;1;1;1;1;1;1;1;1;0,017;1
"trituro";1;0,248;1;1;0,023;1;1;1;1;1;1;1
"tribulo";1;0,248;1;1;1;1;0,002;1;0,16;1;1;1
"transfero";1;1;1;1;1;0,001;1;0,279;1;1;0,413;1
"tollo";1;0,248;1;0,252;1;1;1;1;1;1;0,413;1
"titus";1;1;1;0,252;1;1;1;0,279;1;1;0,413;1
"tito";1;1;1;1;0,455;1;1;0,005;1;1;1;1
"titi";1;1;1;1;1;1;1;1;0,001;0,002;1;1
"timotheo";1;1;1;1;1;1;1;0,005;1;1;0,413;1
"thesaurizo";1;1;0,044;1;0,023;1;1;1;1;1;1;1
"testa";1;1;1;1;1;0,001;0,002;1;0,16;1;1;1
"terreo";1;0,248;1;1;1;1;1;1;1;0,002;1;0
"tango";1;1;1;1;0,455;1;1;1;1;1;0,017;1
"subverto";1;1;1;1;0,455;1;1;1;1;1;0,017;1
"subiecti";1;0,248;1;1;0,023;1;1;1;1;1;1;1
"suavitas";1;1;1;0,252;1;0,001;1;1;1;1;0,413;1
"stipendium";1;0,248;0,044;0,252;1;1;1;1;1;1;1;1
"stimulus";1;1;0,044;0,003;1;1;1;1;1;1;1;1
"stephanae";1;1;1;0,252;1;1;1;0,279;1;0,002;1;1
"stabilis";1;1;1;0,252;1;1;1;1;0,16;1;0,413;1
"sollicite";1;1;1;1;0,455;1;1;1;1;0,002;1;0
"sol";1;1;1;0,252;1;0,001;1;1;1;1;0,413;1
"sinceritas";1;0,003;1;1;1;1;1;1;1;1;1;0
"simulacrum";1;0,248;1;0,252;0,455;1;1;1;1;1;1;1
"silvanus";1;1;0,044;1;1;1;1;0,005;1;1;1;1
"silentium";0;1;1;1;1;1;1;0,279;1;1;1;1
"signo";1;1;1;1;1;1;1;1;0;1;1;1
"serpens";1;0,003;1;1;1;1;1;1;0,16;1;1;1
"separo";1;1;1;1;0,455;1;0,002;0,279;1;1;1;1
"senex";1;1;1;1;1;0,001;1;0,005;1;1;1;1
"sempiternus";1;1;1;1;1;1;1;0,279;0,16;0,002;1;1
"seductor";1;0,248;1;1;1;1;1;1;1;0,002;0,413;1
"satanas";1;0,248;1;0,252;1;1;1;1;1;1;0,413;1
"rigo";1;0,248;1;1;1;1;1;1;1;0,002;0,413;1
"revelatum";1;1;1;1;0;1;1;1;1;1;1;1
"requies";1;1;1;1;1;1;0,002;1;0,16;1;0,413;1
"repromissio";1;1;0,044;0,252;1;1;1;1;0,16;1;1;1
"repello";1;0,248;1;1;0,023;1;1;1;1;1;1;1
"renovo";0,017;1;1;1;0,455;1;1;1;0,16;1;1;1
"remitto";1;0,248;1;0,252;1;0,001;1;1;1;1;1;1
"remaneo";1;1;1;1;1;1;1;1;1;0,002;0,017;1
"reficio";1;1;1;1;0,455;0,001;1;1;1;0,002;1;1
"recte";1;1;1;1;0,455;1;1;1;1;1;0,413;0
"recipeo";0,017;1;0,044;1;0,455;1;1;1;1;1;1;1
"rapax";1;1;1;1;0;1;1;1;1;1;1;1
"quoque";1;1;1;1;1;1;1;0,279;0,16;1;0,413;1
"quando";0,017;1;1;1;1;1;1;1;1;0,002;0,413;1
"puto";1;1;1;1;0,455;1;1;1;1;0,002;0,413;1
"psalmus";0,017;0,248;1;1;1;1;1;1;0,16;1;1;1
"provideo";1;0,248;0,044;1;1;1;1;1;1;1;0,413;1
"prodigium";1;1;1;1;1;0,001;1;1;0,001;1;1;1
"primogenitus";0,017;1;1;1;1;1;1;1;0,001;1;1;1
"presbyter";1;0,248;0,044;1;1;1;1;0,279;1;1;1;1
"praetereo";1;1;1;1;0,455;1;1;1;1;1;0,017;1
"postulo";1;1;1;1;1;1;1;1;0,001;1;0,413;1
"pignus";1;1;1;1;0,455;1;1;1;0,001;1;1;1
"piger";1;0,003;1;1;1;1;1;1;1;1;0,413;1
"peto";1;1;1;1;0,455;1;0;1;1;1;1;1
"permitto";0;1;1;1;0,455;1;1;1;1;1;1;1
"perierunt";1;0,003;1;1;1;1;1;0,279;1;1;1;1
"perditio";1;0,248;1;1;0,455;1;1;1;1;0,002;1;1
"pateo";0,017;1;1;1;1;1;1;1;0,16;1;0,413;1
"participo";1;1;1;0,252;1;1;1;0,279;1;0,002;1;1
"parcus";1;1;1;1;1;1;0,002;1;1;1;0,413;0
"ostium";1;1;1;1;1;1;0,002;1;0,001;1;1;1
"ordo";1;1;1;1;1;1;1;1;0,001;1;0,413;1
"omnino";1;1;1;0,252;1;1;1;1;1;1;0,017;1
"offendo";1;1;1;0,252;0,455;1;1;1;1;1;0,413;1
"occulo";1;1;0,044;1;1;1;1;1;1;1;0,413;0
"oblatio";1;1;1;0,003;1;1;1;1;0,16;1;1;1
"nutrio";0,017;1;1;1;0,455;1;1;1;1;1;0,413;1
"numquam";1;1;1;1;0,455;1;1;0,279;0,16;1;1;1
"nubes";1;1;0,044;0,003;1;1;1;1;1;1;1;1
"nosti";1;1;1;1;0,023;1;1;1;0,16;1;1;1
"nondum";1;0,248;1;0,252;1;1;1;1;1;1;0,413;1
"mundo";1;1;1;1;0,455;1;1;1;0,16;1;0,413;1
"mons";1;1;1;1;0,023;1;1;1;1;1;0,413;1
"moneo";1;1;1;1;1;1;1;1;0,16;1;0,017;1
"ministratio";1;0,248;1;1;0,455;1;1;1;1;1;0,413;1
"milito";1;0,248;1;0,003;1;1;1;1;1;1;1;1
"mediator";1;0,248;0,044;1;1;1;1;1;1;1;0,413;1
"manis";1;0,248;1;1;1;1;1;1;1;1;0,017;1
"maior";0,017;1;1;1;0,455;1;1;1;1;1;0,413;1
"luxuria";0,017;0,003;1;1;1;1;1;1;1;1;1;1
"iustificatus";1;0,248;1;0,252;0,455;1;1;1;1;1;1;1
"iustificat";1;1;0,044;1;0,455;1;1;1;0,16;1;1;1
"iuste";1;0,248;1;0,252;1;1;1;1;0,16;1;1;1
"iudicia";1;0,248;1;1;1;1;1;1;0,16;1;0,413;1
"iudicate";0;1;1;1;1;1;1;1;1;1;0,413;1
"iudaeo";1;0,248;1;1;0,455;1;1;1;1;1;0,413;1
"isaac";1;1;0,044;1;1;1;1;0,279;1;1;0,413;1
"instans";1;0,248;0,044;1;1;1;1;1;0,16;1;1;1
"inpedio";1;1;1;1;1;1;1;1;1;0,002;0,413;0
"inmundus";0,017;1;1;1;0,023;1;1;1;1;1;1;1
"inmortalitas";1;1;1;1;1;1;1;1;1;0,002;0,017;1
"inmaculatus";1;1;1;0,252;1;1;1;1;0,16;1;0,413;1
"inluminatio";1;1;0,044;1;1;0,001;1;1;0,16;1;1;1
"increpo";1;0,003;1;1;1;1;1;0,279;1;1;1;1
"incrementum";1;0,248;1;0,252;1;1;1;1;1;0,002;1;1
"incido";1;0,003;1;1;1;1;1;1;1;1;0,413;1
"incertus";1;1;1;1;0,455;0,001;0,002;1;1;1;1;1
"impius";1;1;1;0,252;0,023;1;1;1;1;1;1;1
"immo";1;1;0,044;1;0,023;1;1;1;1;1;1;1
"ignobilitas";1;1;1;0,252;1;1;1;1;1;0,002;0,413;1
"idoneus";1;1;0,044;1;0,455;1;1;0,279;1;1;1;1
"idiota";0;1;1;1;1;1;1;0,279;1;1;1;1
"ibi";1;1;1;1;0;1;1;1;1;1;1;1
"humanus";1;1;1;0,252;0,455;1;1;1;1;1;0,413;1
"hospes";1;1;1;0,252;1;1;1;0,279;0,16;1;1;1
"hodiernus";1;1;1;1;0;1;1;1;1;1;1;1
"habitus";0,017;0,248;1;0,252;1;1;1;1;1;1;1;1
"gladius";1;0,248;1;1;1;1;0,002;1;0,16;1;1;1
"gero";1;0;1;1;1;1;1;1;1;1;1;1
"furor";1;1;1;1;0,455;1;1;1;1;1;0,017;1
"fur";1;1;1;0,003;0,455;1;1;1;1;1;1;1
"fruor";1;1;1;1;1;0;1;1;1;1;0,413;1
"fraudo";1;0,003;1;1;1;1;1;1;1;1;0,413;1
"fortis";1;1;1;0,003;1;1;1;1;1;0,002;1;1
"forsitan";0,017;1;1;0,252;1;1;1;1;1;1;0,413;1
"fornicaria";1;0,248;1;1;0,455;1;1;1;1;1;1;0
"flecto";1;1;1;1;0,455;1;1;0,005;1;1;1;1
"firmus";1;1;0,044;1;1;1;1;1;1;1;0,017;1
"figura";1;1;1;0,252;0,023;1;1;1;1;1;1;1
"fidelem";0,017;0,248;1;1;1;1;1;0,279;1;1;1;1
"festinus";1;1;1;1;0,455;1;1;0,279;1;1;0,413;1
"expedio";1;1;1;1;0,455;1;1;1;1;0,002;0,413;1
"exemplum";1;0,248;1;1;0,455;1;1;1;0,16;1;1;1
"emo";1;1;1;0,003;1;1;1;1;1;0,002;1;1
"effugio";0,017;1;1;1;1;1;1;1;1;1;0,017;1
"dormeo";1;1;1;0,003;1;1;1;1;1;1;0,413;1
"domina";1;0,003;1;1;1;1;1;1;1;1;0,413;1
"dolus";1;0,003;1;1;1;1;1;1;1;1;0,413;1
"divisio";1;1;1;1;1;0,001;0,002;0,279;1;1;1;1
"distinctio";1;1;1;1;0,455;1;0,002;1;0,16;1;1;1
"dispensator";1;1;1;1;0,455;1;1;1;0,16;1;0,413;1
"digni";1;0,248;1;1;0,023;1;1;1;1;1;1;1
"diffidentia";1;1;1;0,252;0,455;1;1;1;0,16;1;1;1
"differo";1;1;1;0,252;1;0,001;1;1;0,16;1;1;1
"dictum";1;1;0,044;1;0,023;1;1;1;1;1;1;1
"dica";1;0,248;1;0,252;1;1;1;1;1;1;0,413;1
"destructio";1;1;1;0,252;1;1;1;1;1;1;0,413;0
"depositum";1;1;1;1;1;1;1;0,279;0,16;1;0,413;1
"depono";1;0;1;1;1;1;1;1;1;1;1;1
"debitum";0,017;0,248;1;1;1;1;1;1;1;1;0,413;1
"damno";1;1;1;0,003;0,455;1;1;1;1;1;1;1
"custos";1;0,248;1;1;1;1;1;0,279;0,16;1;1;1
"corinthi";1;1;1;1;1;1;1;0,005;1;0,002;1;1
"converto";1;1;1;1;0,455;1;1;1;1;1;0,413;0
"contradico";1;0,248;1;1;0,455;1;1;1;1;1;0,413;1
"considero";0,017;0,248;1;0,252;1;1;1;1;1;1;1;1
"condemno";1;1;0,044;1;0,455;1;1;1;1;1;0,413;1
"condemnatio";1;1;1;1;0,023;1;1;1;1;1;0,413;1
"concludo";1;1;1;1;0,023;1;1;1;0,16;1;1;1
"commisceo";1;1;1;1;0,455;1;1;1;1;1;1;0
"colo";1;1;1;1;0,455;1;0,002;0,279;1;1;1;1
"clarifico";1;1;1;1;0,455;1;1;0,279;1;1;0,413;1
"clamo";1;1;1;1;0,455;1;1;1;0,16;1;0,413;1
"certamen";1;1;0,044;1;1;1;1;1;0,16;1;0,413;1
"carissimo";1;1;1;1;1;1;1;0;1;1;1;1
"canto";0,017;1;1;1;0,455;1;1;1;0,16;1;1;1
"blasphemia";1;0;1;1;1;1;1;1;1;1;1;1
"aura";1;1;1;1;1;1;0,002;1;1;0,002;0,413;1
"audierunt";1;1;1;1;0,023;1;1;1;1;1;0,413;1
"apostolatus";1;1;1;1;0,455;1;1;0,005;1;1;1;1
"altus";1;0,003;1;1;0,455;1;1;1;1;1;1;1
"altitudo";1;1;1;1;1;1;1;0,279;0,001;1;1;1
"alienus";1;1;1;1;0,455;1;1;1;1;1;0,017;1
"alieno";1;0,248;1;1;1;0,001;1;1;0,16;1;1;1
"affectio";1;1;1;1;0,455;0;1;1;1;1;1;1
"aestimo";1;1;0,044;1;0,455;1;1;0,279;1;1;1;1
"adultero";1;1;1;1;0,455;1;1;1;1;1;1;0
"adtendo";1;0,003;1;1;1;1;1;1;1;1;0,413;1
"adquisitio";1;1;0,044;1;1;1;1;0,279;0,16;1;1;1
"adquiesco";1;1;1;1;0,023;1;1;0,279;1;1;1;1
"adimpleo";1;1;1;1;0,455;1;1;1;0,16;0,002;1;1
"accessa";1;1;1;1;1;1;1;0,279;0,16;0,002;1;1
"*K_Erm_9";1;1;0,374;1;0;1;1;1;1;0,946;0,608;1
"*K_Erm_8";1;1;0,009;0,458;1;0,282;1;1;0;1;1;1
"*K_Erm_3";1;1;1;1;0;1;0,891;1;0,476;1;1;1
"*K_Erm_2";1;0,57;0,703;1;0,004;0,093;0,776;1;1;1;1;1
"*K_Erm_1";1;0,453;0,902;1;0,024;1;1;0,254;0,061;1;1;1
"*K_Erm_7";1;0,977;1;0;1;1;1;1;1;1;1;1
"*K_Erm_6";1;1;0,573;0;1;1;1;1;1;1;1;1
"*K_Erm_5";1;1;0,011;0,091;0,413;0,516;1;1;1;1;1;1
"*K_Erm_4";1;1;0;0,311;0,002;1;1;1;1;1;1;1
"*L_Titori";0,417;0;0,32;1;1;1;1;1;1;0,505;1;0,864
"*K_Tt_2";0,642;0;0,848;1;1;0,273;1;1;1;1;1;1
"*K_Tt_3";1;0,034;0,009;1;1;1;1;1;1;0,323;1;0,144
"*K_Tt_1";0,102;0,074;1;1;1;1;1;0,933;0,615;0,407;0,672;1
"*K_Ef_6";1;0,024;0,529;1;1;1;1;0,429;0,034;1;1;0,395
"*L_Filemoni";0,05;1;1;1;1;0,001;1;0;1;1;1;0,423
"*K_Ga_6";1;0,024;1;0,464;1;1;1;1;0,754;1;0,395;1
"*K_Erm_16";0,529;1;0,724;1;1;1;1;0,002;1;0,281;1;1
"*K_Ef_3";1;1;0,439;1;1;1;0,058;0,019;0;0,603;1;1
"*K_Ef_2";1;1;1;0,311;1;1;1;0,004;0,025;1;1;1
"*K_Ef_1";1;1;0,014;1;1;1;1;0,037;0;1;1;1
"*K_Erm_15";1;1;0,825;1;0,131;1;1;0,187;0,155;0,892;1;1
"*K_Ef_5";0;0,075;1;0,919;1;1;1;1;1;1;1;1
"*K_Ef_4";1;0,038;1;1;0,986;0,134;1;1;0,007;0,892;1;1
"*K_Erm_14";1;0,111;1;0;1;1;1;0,884;1;1;1;1
"*K_Flm_1";0,05;1;1;1;1;0,001;1;0;1;1;1;0,423
"*K_Ga_4";1;1;1;0,419;0;1;0,218;1;1;1;1;1
"*L_Korintoarrei1";0;1;1;0;0,508;1;1;1;1;0,001;0,001;1
"*L_Korintoarrei2";1;1;1;1;1;0,747;0;0,685;1;0,009;0,001;0
"*L_Efesoarrei";0,073;0,317;0,627;1;1;1;1;0,006;0;1;1;1
"*L_Galaziarrei";1;1;0,53;0,532;0;1;0,127;1;1;1;1;1
"*K_Ga_5";1;0,033;1;0,416;1;0,001;1;1;1;1;0,855;0,423
"*L_Filipostarrei";1;1;1;1;1;0;1;0,025;1;0,244;0,104;0,152
"*K_2Ts_1";1;1;1;1;1;1;0,004;0,03;0,005;1;1;1
"*K_2Ts_2";1;0,455;1;1;0,481;1;0,465;1;0,253;1;1;0,254
"*K_2Ts_3";1;1;1;0,037;1;0,02;1;0,051;1;1;1;0
"*K_Erm_13";1;0;0,848;0,784;1;1;1;1;1;1;0,578;1
"*K_Erm_12";1;0;1;1;1;1;0,613;1;1;0,002;1;1
"*K_Erm_11";1;0,85;0,902;1;0;1;1;1;1;1;1;1
"*K_Erm_10";1;1;1;1;0;1;1;1;0,403;1;1;0,339
"*L_Kolosarrei";0,549;0,31;0,358;1;1;0,195;1;0,036;0;1;1;1
"*K_1Ko_14";0;0,529;1;1;1;1;0,007;1;1;1;1;1
"*K_1Ko_15";1;1;0,504;0;1;1;1;1;1;1;1;1
"*K_1Ko_16";1;1;0,439;1;1;1;0,577;0,746;0,944;0,603;0,003;1
"*K_1Ko_10";1;1;1;0,169;0,004;1;1;1;1;0,92;0,921;1
"*K_1Ko_11";0;1;1;0,008;1;1;1;1;1;1;1;0,698
"*K_1Ko_12";1;1;1;0,466;1;0,808;0,238;1;1;0;1;1
"*K_1Ko_13";0,06;1;1;1;1;1;1;1;1;1;0;1
"*K_Flp_1";1;1;1;1;1;0,134;1;0,449;0,882;0,219;0,086;0,001
"*K_2Tm_2";1;0,044;1;1;1;0,611;1;0,222;1;0,741;0,516;0,027
"*K_2Tm_3";1;0,264;1;0,784;1;0,005;0,345;1;0,544;1;0,198;1
"*K_2Tm_1";1;1;1;1;0,481;1;0,465;0,53;0,049;1;1;1
"*K_2Tm_4";1;0,169;1;1;1;1;1;0,051;0,82;0,528;0,939;0,282
"*K_Ga_2";1;1;1;0,601;0;1;1;1;1;1;0,546;1
"*K_Ga_3";1;1;0,001;0,754;0,045;1;0,199;1;0,882;1;1;1
"*K_Ga_1";1;1;0,529;1;0,066;1;0,003;0,037;1;1;0,779;1
"*K_1Ko_6";0,924;1;1;0,07;1;0,483;1;1;1;0,002;1;1
"*K_1Ko_7";0;1;1;1;1;1;0,363;1;1;1;0;1
"*K_1Ko_4";1;1;1;1;0,347;0,483;1;0,317;0,944;1;0,086;1
"*K_1Ko_5";1;1;1;1;0,808;1;1;1;0,96;0,196;0,73;0,071
"*K_1Ko_2";1;0,388;0,957;1;0,401;1;1;1;0,686;1;0,324;1
"*K_1Ko_3";1;0,855;0,147;1;0,251;1;0,681;1;0,565;0,708;0,855;1
"*K_1Ko_1";1;1;0,374;1;0,076;1;1;0,092;0,208;0,946;1;1
"*K_1Ko_8";1;1;0,724;0,022;0,467;1;1;1;1;1;0,1;1
"*K_1Ko_9";1;1;1;0,003;0,181;1;1;1;1;1;0,009;1
"*K_Kol_4";1;0,855;0,904;1;1;1;1;0,001;1;1;0,258;0,198
"*K_Kol_3";0,338;0,033;0,573;1;1;0,059;1;0,95;0,565;1;1;1
"*K_Kol_2";0,272;0,302;0,103;0,737;1;1;1;1;0,456;1;1;1
"*K_Kol_1";1;1;1;1;1;0,093;0,776;0,027;0;0,804;1;1
"*L_Erromatarrei";1;0,449;0,04;0;0;1;1;1;1;1;1;1
"*L_Tesalonikarrei1";1;1;1;1;1;1;0,002;0,178;1;1;0,004;0,752
"*L_Tesalonikarrei2";1;1;1;0,525;1;0,45;0,152;0,024;0,206;1;1;0,001
"*K_Flp_3";1;1;1;1;0,347;0;0,577;0,317;1;1;1;1
"*K_Flp_2";1;1;0,864;0,81;1;0;1;0,5;1;0,92;0,547;0,604
"*K_1Ts_5";1;0,302;1;0,091;1;1;1;0,816;1;1;0,327;0,367
"*K_1Ts_4";1;0,101;0,264;1;0,862;1;1;1;1;1;0,095;1
"*K_1Ts_3";1;1;1;1;1;1;0;0,763;0,472;0,323;0,145;1
"*K_1Ts_2";1;1;1;1;1;1;0,001;0,093;0,944;1;0,27;0,339
"*K_1Ts_1";1;1;0,585;1;1;1;0,182;0,009;1;1;0,226;1
"*K_Flp_4";1;1;1;1;1;0,549;1;0,037;0,165;0,094;0,387;1
"*K_2Ko_11";0,61;0,85;0,902;0,865;1;1;0,001;1;1;0,029;0,608;1
"*K_2Ko_10";1;1;1;1;1;0,415;1;1;0,301;0,528;0,47;0
"*K_2Ko_13";1;1;1;1;1;1;1;0,671;1;0,281;0,394;0
"*K_2Ko_12";0,924;1;1;1;1;0,483;0;1;1;0,603;0,003;0,339
"*K_2Ko_5";1;1;0,395;0,601;0,647;1;1;1;1;0,055;1;0,311
"*K_2Ko_9";1;1;1;0,866;1;1;1;0,015;1;1;0,066;1
"*K_2Ko_8";1;0,855;1;1;1;1;0,681;0,01;0,565;1;0,058;0,423
"*K_1Tm_4";1;0,003;0,788;1;1;1;1;0,763;0,095;1;1;1
"*K_1Tm_5";0,21;0,007;1;0,601;1;0,449;1;1;1;1;0,546;1
"*K_2Ko_4";1;1;0,053;1;1;0,415;0,038;1;1;1;0,171;0,282
"*K_2Ko_7";0,744;1;1;1;1;0,344;0,022;1;1;0,026;0,324;0,226
"*K_1Tm_6";0,838;0,004;0,053;1;1;0,02;1;0,603;1;0,528;1;1
"*K_1Tm_1";1;0,007;0,395;1;0,647;1;1;0,265;1;1;1;1
"*K_1Tm_3";0,001;0,207;0,788;1;1;1;1;1;1;1;0,027;1
"*K_1Tm_2";0;1;0,223;1;0,324;1;1;0,933;0,615;1;1;1
"*K_2Ko_6";1;1;1;0,533;0,563;0,02;0,038;1;1;0,528;1;1
"*K_2Ko_1";1;0,459;0,617;1;1;1;0,714;0,014;1;1;0,516;1
"*L_Timoteori1";0,001;0;0,061;1;1;0,724;1;0,579;1;1;1;1
"*L_Timoteori2";1;0,018;1;1;1;0,386;1;0,173;0,217;1;0,451;0,194
"*K_2Ko_3";1;0,932;1;1;0,03;0,344;1;1;1;0,026;1;0,003
"*K_2Ko_2";1;1;0,957;1;1;1;0,426;0,458;1;0,448;0,095;0,003
