"";"X";"V1"
"1";1;8
"2";2;5
"3";3;3
"4";4;9
"5";5;8
"6";6;8
"7";7;8
"8";8;3
"9";9;9
"10";10;8
"11";11;9
"12";12;2
"13";13;5
"14";14;5
"15";15;11
"16";16;5
"17";17;5
"18";18;5
"19";19;9
"20";20;9
"21";21;5
"22";22;5
"23";23;9
"24";24;2
"25";25;8
"26";26;2
"27";27;2
"28";28;11
"29";29;2
"30";30;0
"31";31;5
"32";32;5
"33";33;5
"34";34;11
"35";35;11
"36";36;6
"37";37;5
"38";38;2
"39";39;3
"40";40;5
"41";41;7
"42";42;2
"43";43;2
"44";44;5
"45";45;5
"46";46;5
"47";47;2
"48";48;3
"49";49;4
"50";50;5
"51";51;6
"52";52;0
"53";53;11
"54";54;5
"55";55;5
"56";56;5
"57";57;4
"58";58;0
"59";59;0
"60";60;4
"61";61;9
"62";62;11
"63";63;7
"64";64;5
"65";65;11
"66";66;5
"67";67;5
"68";68;5
"69";69;2
"70";70;4
"71";71;5
"72";72;5
"73";73;5
"74";74;1
"75";75;9
"76";76;4
"77";77;8
"78";78;8
"79";79;2
"80";80;2
"81";81;5
"82";82;5
"83";83;9
"84";84;4
"85";85;8
"86";86;9
"87";87;9
"88";88;5
"89";89;5
"90";90;5
"91";91;0
"92";92;5
"93";93;5
"94";94;5
"95";95;5
"96";96;11
"97";97;5
"98";98;5
"99";99;4
"100";100;4
"101";101;0
"102";102;0
"103";103;0
"104";104;0
"105";105;3
"106";106;3
"107";107;5
"108";108;3
"109";109;5
"110";110;3
"111";111;4
"112";112;9
"113";113;2
"114";114;5
"115";115;5
"116";116;3
"117";117;4
"118";118;3
"119";119;9
"120";120;11
"121";121;6
"122";122;9
"123";123;4
"124";124;4
"125";125;5
"126";126;4
"127";127;5
"128";128;3
"129";129;4
"130";130;5
"131";131;4
"132";132;11
"133";133;11
"134";134;3
"135";135;5
"136";136;5
"137";137;8
"138";138;3
"139";139;5
"140";140;4
"141";141;3
"142";142;4
"143";143;4
"144";144;4
"145";145;4
"146";146;4
"147";147;4
"148";148;4
"149";149;4
"150";150;4
"151";151;4
"152";152;4
"153";153;4
"154";154;4
"155";155;4
"156";156;4
"157";157;4
"158";158;4
"159";159;4
"160";160;4
"161";161;3
"162";162;4
"163";163;4
"164";164;4
"165";165;4
"166";166;4
"167";167;4
"168";168;5
"169";169;4
"170";170;4
"171";171;4
"172";172;4
"173";173;5
"174";174;4
"175";175;4
"176";176;11
"177";177;2
"178";178;4
"179";179;11
"180";180;2
"181";181;4
"182";182;2
"183";183;5
"184";184;4
"185";185;4
"186";186;3
"187";187;4
"188";188;3
"189";189;4
"190";190;4
"191";191;6
"192";192;3
"193";193;5
"194";194;11
"195";195;9
"196";196;4
"197";197;3
"198";198;4
"199";199;4
"200";200;9
"201";201;11
"202";202;9
"203";203;3
"204";204;5
"205";205;9
"206";206;0
"207";207;9
"208";208;5
"209";209;9
"210";210;5
"211";211;6
"212";212;11
"213";213;9
"214";214;8
"215";215;9
"216";216;9
"217";217;5
"218";218;2
"219";219;9
"220";220;3
"221";221;7
"222";222;5
"223";223;11
"224";224;3
"225";225;8
"226";226;2
"227";227;11
"228";228;8
"229";229;8
"230";230;3
"231";231;5
"232";232;3
"233";233;3
"234";234;9
"235";235;11
"236";236;2
"237";237;5
"238";238;11
"239";239;5
"240";240;5
"241";241;11
"242";242;0
"243";243;5
"244";244;5
"245";245;5
"246";246;10
"247";247;2
"248";248;8
"249";249;5
"250";250;5
"251";251;5
"252";252;5
"253";253;0
"254";254;5
"255";255;5
"256";256;5
"257";257;11
"258";258;11
"259";259;9
"260";260;2
"261";261;5
"262";262;5
"263";263;5
"264";264;5
"265";265;0
"266";266;9
"267";267;3
"268";268;9
"269";269;5
"270";270;5
"271";271;8
"272";272;11
"273";273;11
"274";274;5
"275";275;12
"276";276;5
"277";277;5
"278";278;5
"279";279;5
"280";280;5
"281";281;5
"282";282;5
"283";283;1
"284";284;4
"285";285;5
"286";286;5
"287";287;5
"288";288;2
"289";289;11
"290";290;5
"291";291;3
"292";292;5
"293";293;5
"294";294;3
"295";295;0
"296";296;0
"297";297;0
"298";298;0
"299";299;2
"300";300;2
"301";301;5
"302";302;5
"303";303;2
"304";304;5
"305";305;5
"306";306;0
"307";307;5
"308";308;9
"309";309;5
"310";310;5
"311";311;5
"312";312;9
"313";313;8
"314";314;5
"315";315;8
"316";316;4
"317";317;2
"318";318;11
"319";319;10
"320";320;10
"321";321;9
"322";322;2
"323";323;2
"324";324;2
"325";325;2
"326";326;2
"327";327;7
"328";328;2
"329";329;2
"330";330;10
"331";331;2
"332";332;2
"333";333;11
"334";334;5
"335";335;5
"336";336;2
"337";337;11
"338";338;2
"339";339;2
"340";340;2
"341";341;11
"342";342;5
"343";343;2
"344";344;2
"345";345;5
"346";346;2
"347";347;4
"348";348;4
"349";349;11
"350";350;3
"351";351;4
"352";352;5
"353";353;4
"354";354;11
"355";355;2
"356";356;8
"357";357;4
"358";358;4
"359";359;4
"360";360;11
"361";361;5
"362";362;2
"363";363;11
"364";364;8
"365";365;4
"366";366;2
"367";367;8
"368";368;0
"369";369;2
"370";370;4
"371";371;4
"372";372;2
"373";373;4
"374";374;11
"375";375;2
"376";376;5
"377";377;2
"378";378;3
"379";379;8
"380";380;2
"381";381;3
"382";382;5
"383";383;5
"384";384;5
"385";385;0
"386";386;9
"387";387;9
"388";388;8
"389";389;9
"390";390;8
"391";391;5
"392";392;9
"393";393;5
"394";394;5
"395";395;10
"396";396;5
"397";397;11
"398";398;0
"399";399;0
"400";400;4
"401";401;0
"402";402;9
"403";403;8
"404";404;4
"405";405;8
"406";406;8
"407";407;1
"408";408;8
"409";409;0
"410";410;8
"411";411;0
"412";412;0
"413";413;0
"414";414;0
"415";415;0
"416";416;0
"417";417;0
"418";418;0
"419";419;0
"420";420;0
"421";421;0
"422";422;0
"423";423;11
"424";424;2
"425";425;10
"426";426;8
"427";427;0
"428";428;8
"429";429;8
"430";430;9
"431";431;5
"432";432;3
"433";433;8
"434";434;8
"435";435;8
"436";436;8
"437";437;9
"438";438;9
"439";439;8
"440";440;9
"441";441;8
"442";442;8
"443";443;11
"444";444;10
"445";445;3
"446";446;3
"447";447;3
"448";448;4
"449";449;5
"450";450;5
"451";451;5
"452";452;5
"453";453;5
"454";454;5
"455";455;5
"456";456;9
"457";457;4
"458";458;11
"459";459;5
"460";460;5
"461";461;11
"462";462;9
"463";463;11
"464";464;2
"465";465;3
"466";466;11
"467";467;9
"468";468;5
"469";469;5
"470";470;9
"471";471;8
"472";472;11
"473";473;5
"474";474;11
"475";475;11
"476";476;2
"477";477;5
"478";478;2
"479";479;8
"480";480;2
"481";481;4
"482";482;4
"483";483;5
"484";484;9
"485";485;10
"486";486;2
"487";487;11
"488";488;2
"489";489;11
"490";490;3
"491";491;7
"492";492;5
"493";493;11
"494";494;5
"495";495;9
"496";496;9
"497";497;5
"498";498;5
"499";499;5
"500";500;11
"501";501;3
"502";502;3
"503";503;9
"504";504;5
"505";505;5
"506";506;2
"507";507;9
"508";508;11
"509";509;11
"510";510;8
"511";511;5
"512";512;4
"513";513;0
"514";514;11
"515";515;5
"516";516;11
"517";517;8
"518";518;8
"519";519;8
"520";520;11
"521";521;11
"522";522;5
"523";523;6
"524";524;11
"525";525;11
"526";526;10
"527";527;8
"528";528;9
"529";529;0
"530";530;4
"531";531;2
"532";532;12
"533";533;5
"534";534;5
"535";535;0
"536";536;0
"537";537;10
"538";538;9
"539";539;2
"540";540;2
"541";541;5
"542";542;1
"543";543;11
"544";544;11
"545";545;5
"546";546;5
"547";547;8
"548";548;10
"549";549;4
"550";550;6
"551";551;4
"552";552;4
"553";553;11
"554";554;4
"555";555;10
"556";556;4
"557";557;11
"558";558;1
"559";559;1
"560";560;1
"561";561;2
"562";562;5
"563";563;11
"564";564;11
"565";565;0
"566";566;1
"567";567;1
"568";568;1
"569";569;1
"570";570;1
"571";571;1
"572";572;1
"573";573;11
"574";574;0
"575";575;0
"576";576;9
"577";577;11
"578";578;4
"579";579;4
"580";580;11
"581";581;11
"582";582;7
"583";583;4
"584";584;7
"585";585;11
"586";586;10
"587";587;5
"588";588;11
"589";589;11
"590";590;1
"591";591;2
"592";592;11
"593";593;11
"594";594;11
"595";595;4
"596";596;11
"597";597;11
"598";598;11
"599";599;11
"600";600;4
"601";601;0
"602";602;3
"603";603;5
"604";604;4
"605";605;11
"606";606;5
"607";607;5
"608";608;4
"609";609;4
"610";610;5
"611";611;8
"612";612;0
"613";613;4
"614";614;1
"615";615;11
"616";616;4
"617";617;5
"618";618;5
"619";619;5
"620";620;4
"621";621;11
"622";622;4
"623";623;4
"624";624;11
"625";625;11
"626";626;11
"627";627;11
"628";628;11
"629";629;4
"630";630;5
"631";631;5
"632";632;4
"633";633;4
"634";634;11
"635";635;5
"636";636;11
"637";637;4
"638";638;3
"639";639;4
"640";640;4
"641";641;11
"642";642;4
"643";643;4
"644";644;5
"645";645;2
"646";646;2
"647";647;5
"648";648;11
"649";649;11
"650";650;5
"651";651;1
"652";652;9
"653";653;10
"654";654;5
"655";655;5
"656";656;4
"657";657;5
"658";658;5
"659";659;5
"660";660;5
"661";661;0
"662";662;0
"663";663;0
"664";664;5
"665";665;5
"666";666;8
"667";667;8
"668";668;11
"669";669;11
"670";670;8
"671";671;2
"672";672;1
"673";673;1
"674";674;1
"675";675;1
"676";676;1
"677";677;1
"678";678;1
"679";679;1
"680";680;1
"681";681;1
"682";682;1
"683";683;1
"684";684;5
"685";685;11
"686";686;11
"687";687;11
"688";688;11
"689";689;4
"690";690;4
"691";691;4
"692";692;4
"693";693;8
"694";694;4
"695";695;4
"696";696;4
"697";697;4
"698";698;4
"699";699;10
"700";700;12
"701";701;5
"702";702;2
"703";703;11
"704";704;4
"705";705;4
"706";706;8
"707";707;6
"708";708;8
"709";709;7
"710";710;9
"711";711;2
"712";712;9
"713";713;7
"714";714;11
"715";715;10
"716";716;4
"717";717;10
"718";718;10
"719";719;10
"720";720;4
"721";721;10
"722";722;4
"723";723;10
"724";724;2
"725";725;10
"726";726;10
"727";727;10
"728";728;10
"729";729;10
"730";730;10
"731";731;5
"732";732;5
"733";733;1
"734";734;5
"735";735;11
"736";736;11
"737";737;4
"738";738;11
"739";739;2
"740";740;5
"741";741;11
"742";742;5
"743";743;1
"744";744;11
"745";745;1
"746";746;11
"747";747;11
"748";748;1
"749";749;11
"750";750;1
"751";751;1
"752";752;1
"753";753;2
"754";754;7
"755";755;7
"756";756;11
"757";757;7
"758";758;7
"759";759;2
"760";760;1
"761";761;1
"762";762;1
"763";763;8
"764";764;10
"765";765;1
"766";766;2
"767";767;2
"768";768;5
"769";769;1
"770";770;1
"771";771;1
"772";772;11
"773";773;2
"774";774;1
"775";775;11
"776";776;5
"777";777;5
"778";778;1
"779";779;5
"780";780;2
"781";781;1
"782";782;1
"783";783;9
"784";784;5
"785";785;5
"786";786;1
"787";787;11
"788";788;11
"789";789;2
"790";790;4
"791";791;4
"792";792;0
"793";793;5
"794";794;0
"795";795;0
"796";796;7
"797";797;11
"798";798;5
"799";799;4
"800";800;4
"801";801;4
"802";802;3
"803";803;4
"804";804;4
"805";805;8
"806";806;3
"807";807;4
"808";808;4
"809";809;4
"810";810;9
"811";811;5
"812";812;11
"813";813;5
"814";814;0
"815";815;0
"816";816;4
"817";817;0
"818";818;8
"819";819;4
"820";820;2
"821";821;2
"822";822;4
"823";823;4
"824";824;4
"825";825;11
"826";826;4
"827";827;3
"828";828;6
"829";829;4
"830";830;4
"831";831;4
"832";832;4
"833";833;5
"834";834;0
"835";835;0
"836";836;0
"837";837;5
"838";838;5
"839";839;4
"840";840;11
"841";841;11
"842";842;4
"843";843;4
"844";844;3
"845";845;11
"846";846;11
"847";847;11
"848";848;0
"849";849;3
"850";850;11
"851";851;11
"852";852;5
"853";853;5
"854";854;7
"855";855;11
"856";856;11
"857";857;11
"858";858;9
"859";859;9
"860";860;8
"861";861;11
"862";862;10
"863";863;5
"864";864;8
"865";865;0
"866";866;3
"867";867;8
"868";868;8
"869";869;8
"870";870;8
"871";871;2
"872";872;8
"873";873;2
"874";874;11
"875";875;7
"876";876;4
"877";877;5
"878";878;8
"879";879;2
"880";880;5
"881";881;8
"882";882;11
"883";883;11
"884";884;2
"885";885;11
"886";886;3
"887";887;8
"888";888;3
"889";889;9
"890";890;11
"891";891;9
"892";892;11
"893";893;10
"894";894;11
"895";895;7
"896";896;11
"897";897;0
"898";898;11
"899";899;8
"900";900;12
"901";901;8
"902";902;5
"903";903;9
"904";904;11
"905";905;8
"906";906;5
"907";907;3
"908";908;12
"909";909;12
"910";910;12
"911";911;2
"912";912;10
"913";913;0
"914";914;5
"915";915;5
"916";916;11
"917";917;2
"918";918;8
"919";919;11
"920";920;10
"921";921;5
"922";922;5
"923";923;5
"924";924;0
"925";925;5
"926";926;6
"927";927;5
"928";928;12
"929";929;5
"930";930;9
"931";931;11
"932";932;6
"933";933;11
"934";934;7
"935";935;11
"936";936;3
"937";937;3
"938";938;4
"939";939;11
"940";940;3
"941";941;8
"942";942;5
"943";943;7
"944";944;11
"945";945;11
"946";946;0
"947";947;5
"948";948;2
"949";949;5
"950";950;10
"951";951;4
"952";952;10
"953";953;12
"954";954;2
"955";955;11
"956";956;11
"957";957;0
"958";958;8
"959";959;4
"960";960;5
"961";961;4
"962";962;3
"963";963;3
"964";964;8
"965";965;5
"966";966;2
"967";967;4
"968";968;2
"969";969;7
"970";970;7
"971";971;6
"972";972;5
"973";973;11
"974";974;4
"975";975;10
"976";976;9
"977";977;6
"978";978;5
"979";979;4
"980";980;8
"981";981;5
"982";982;5
"983";983;8
"984";984;11
"985";985;1
"986";986;5
"987";987;8
"988";988;7
"989";989;9
"990";990;11
"991";991;12
"992";992;10
"993";993;4
"994";994;2
"995";995;11
"996";996;10
"997";997;11
"998";998;7
"999";999;6
"1000";1000;8
"1001";1001;8
"1002";1002;2
"1003";1003;8
"1004";1004;5
"1005";1005;11
"1006";1006;9
"1007";1007;2
"1008";1008;8
"1009";1009;11
"1010";1010;11
"1011";1011;11
"1012";1012;7
"1013";1013;12
"1014";1014;11
"1015";1015;9
"1016";1016;2
"1017";1017;9
"1018";1018;8
"1019";1019;0
"1020";1020;11
"1021";1021;11
"1022";1022;8
"1023";1023;8
"1024";1024;2
"1025";1025;11
"1026";1026;11
"1027";1027;5
"1028";1028;11
"1029";1029;4
"1030";1030;11
"1031";1031;11
"1032";1032;5
"1033";1033;4
"1034";1034;8
"1035";1035;8
"1036";1036;8
"1037";1037;8
"1038";1038;8
"1039";1039;6
"1040";1040;12
"1041";1041;4
"1042";1042;4
"1043";1043;9
"1044";1044;12
"1045";1045;11
"1046";1046;11
"1047";1047;12
"1048";1048;10
"1049";1049;12
"1050";1050;12
"1051";1051;5
"1052";1052;9
"1053";1053;9
"1054";1054;11
"1055";1055;11
"1056";1056;12
"1057";1057;0
"1058";1058;1
"1059";1059;2
"1060";1060;11
"1061";1061;7
"1062";1062;2
"1063";1063;5
"1064";1064;2
"1065";1065;10
"1066";1066;9
"1067";1067;11
"1068";1068;11
"1069";1069;5
"1070";1070;4
"1071";1071;4
"1072";1072;11
"1073";1073;0
"1074";1074;10
"1075";1075;5
"1076";1076;11
"1077";1077;10
"1078";1078;3
"1079";1079;7
"1080";1080;7
"1081";1081;4
"1082";1082;8
"1083";1083;7
"1084";1084;2
"1085";1085;4
"1086";1086;11
"1087";1087;8
"1088";1088;3
"1089";1089;1
"1090";1090;11
"1091";1091;5
"1092";1092;10
"1093";1093;12
"1094";1094;11
"1095";1095;11
"1096";1096;3
"1097";1097;1
"1098";1098;0
"1099";1099;7
"1100";1100;7
"1101";1101;6
"1102";1102;7
"1103";1103;5
"1104";1104;7
"1105";1105;11
"1106";1106;11
"1107";1107;11
"1108";1108;11
"1109";1109;11
"1110";1110;2
"1111";1111;9
"1112";1112;12
"1113";1113;5
"1114";1114;4
"1115";1115;11
"1116";1116;11
"1117";1117;11
"1118";1118;5
"1119";1119;10
"1120";1120;12
"1121";1121;8
"1122";1122;0
"1123";1123;8
"1124";1124;3
"1125";1125;8
"1126";1126;8
"1127";1127;3
"1128";1128;8
"1129";1129;8
"1130";1130;11
"1131";1131;0
"1132";1132;11
"1133";1133;5
"1134";1134;5
"1135";1135;8
"1136";1136;7
"1137";1137;7
"1138";1138;0
"1139";1139;5
"1140";1140;5
"1141";1141;5
"1142";1142;11
"1143";1143;11
"1144";1144;5
"1145";1145;8
"1146";1146;7
"1147";1147;5
"1148";1148;5
"1149";1149;11
"1150";1150;4
"1151";1151;8
"1152";1152;0
"1153";1153;11
"1154";1154;0
"1155";1155;5
"1156";1156;8
"1157";1157;11
"1158";1158;11
"1159";1159;5
"1160";1160;5
"1161";1161;5
"1162";1162;5
"1163";1163;5
"1164";1164;5
"1165";1165;5
"1166";1166;5
"1167";1167;4
"1168";1168;4
"1169";1169;3
"1170";1170;11
"1171";1171;4
"1172";1172;7
"1173";1173;7
"1174";1174;5
"1175";1175;8
"1176";1176;3
"1177";1177;9
"1178";1178;5
"1179";1179;4
"1180";1180;4
"1181";1181;5
"1182";1182;9
"1183";1183;5
"1184";1184;3
"1185";1185;5
"1186";1186;3
"1187";1187;2
"1188";1188;11
"1189";1189;5
"1190";1190;9
"1191";1191;5
"1192";1192;5
"1193";1193;5
"1194";1194;8
"1195";1195;3
"1196";1196;4
"1197";1197;3
"1198";1198;4
"1199";1199;9
"1200";1200;5
"1201";1201;5
"1202";1202;5
"1203";1203;9
"1204";1204;4
"1205";1205;5
"1206";1206;5
"1207";1207;5
"1208";1208;11
"1209";1209;8
"1210";1210;4
"1211";1211;3
"1212";1212;2
"1213";1213;5
"1214";1214;11
"1215";1215;11
"1216";1216;5
"1217";1217;7
"1218";1218;5
"1219";1219;5
"1220";1220;4
"1221";1221;5
"1222";1222;5
"1223";1223;0
"1224";1224;11
"1225";1225;8
"1226";1226;7
"1227";1227;5
"1228";1228;4
"1229";1229;2
"1230";1230;4
"1231";1231;4
"1232";1232;5
"1233";1233;9
"1234";1234;0
"1235";1235;12
"1236";1236;11
"1237";1237;0
"1238";1238;6
"1239";1239;11
"1240";1240;0
"1241";1241;11
"1242";1242;2
"1243";1243;2
"1244";1244;4
"1245";1245;2
"1246";1246;5
"1247";1247;2
"1248";1248;5
"1249";1249;11
"1250";1250;6
"1251";1251;6
"1252";1252;3
"1253";1253;4
"1254";1254;2
"1255";1255;2
"1256";1256;5
"1257";1257;2
"1258";1258;11
"1259";1259;2
"1260";1260;2
"1261";1261;2
"1262";1262;4
"1263";1263;4
"1264";1264;11
"1265";1265;11
"1266";1266;11
"1267";1267;4
"1268";1268;9
"1269";1269;0
"1270";1270;8
"1271";1271;9
"1272";1272;8
"1273";1273;8
"1274";1274;8
"1275";1275;8
"1276";1276;9
"1277";1277;3
"1278";1278;8
"1279";1279;9
"1280";1280;9
"1281";1281;3
"1282";1282;0
"1283";1283;9
"1284";1284;8
"1285";1285;9
"1286";1286;9
"1287";1287;9
"1288";1288;8
"1289";1289;9
"1290";1290;9
"1291";1291;9
"1292";1292;3
"1293";1293;3
"1294";1294;1
"1295";1295;9
"1296";1296;4
"1297";1297;4
"1298";1298;2
"1299";1299;8
"1300";1300;3
"1301";1301;8
"1302";1302;8
"1303";1303;9
"1304";1304;11
"1305";1305;8
"1306";1306;0
"1307";1307;9
"1308";1308;9
"1309";1309;4
"1310";1310;5
"1311";1311;5
"1312";1312;9
"1313";1313;8
"1314";1314;4
"1315";1315;8
"1316";1316;8
"1317";1317;9
"1318";1318;8
"1319";1319;9
"1320";1320;3
"1321";1321;9
"1322";1322;5
"1323";1323;8
"1324";1324;9
"1325";1325;9
"1326";1326;3
"1327";1327;8
"1328";1328;8
"1329";1329;10
"1330";1330;7
"1331";1331;8
"1332";1332;0
"1333";1333;9
"1334";1334;9
"1335";1335;9
"1336";1336;9
"1337";1337;7
"1338";1338;8
"1339";1339;8
"1340";1340;6
"1341";1341;9
"1342";1342;9
"1343";1343;9
"1344";1344;8
"1345";1345;9
"1346";1346;5
"1347";1347;0
"1348";1348;0
"1349";1349;5
"1350";1350;2
"1351";1351;9
"1352";1352;2
"1353";1353;5
"1354";1354;10
"1355";1355;5
"1356";1356;6
"1357";1357;2
"1358";1358;11
"1359";1359;9
"1360";1360;2
"1361";1361;1
"1362";1362;5
"1363";1363;2
"1364";1364;4
"1365";1365;11
"1366";1366;2
"1367";1367;9
"1368";1368;2
"1369";1369;8
"1370";1370;8
"1371";1371;4
"1372";1372;2
"1373";1373;8
"1374";1374;5
"1375";1375;5
"1376";1376;4
"1377";1377;4
"1378";1378;5
"1379";1379;0
"1380";1380;2
"1381";1381;1
"1382";1382;2
"1383";1383;4
"1384";1384;5
"1385";1385;5
"1386";1386;2
"1387";1387;2
"1388";1388;1
"1389";1389;8
"1390";1390;2
"1391";1391;1
"1392";1392;1
"1393";1393;1
"1394";1394;1
"1395";1395;9
"1396";1396;11
"1397";1397;1
"1398";1398;11
"1399";1399;2
"1400";1400;1
"1401";1401;3
"1402";1402;1
"1403";1403;0
"1404";1404;3
"1405";1405;0
"1406";1406;8
"1407";1407;2
"1408";1408;2
"1409";1409;2
"1410";1410;11
"1411";1411;2
"1412";1412;9
"1413";1413;2
"1414";1414;4
"1415";1415;2
"1416";1416;5
"1417";1417;8
"1418";1418;9
"1419";1419;9
"1420";1420;9
"1421";1421;9
"1422";1422;12
"1423";1423;8
"1424";1424;11
"1425";1425;8
"1426";1426;3
"1427";1427;8
"1428";1428;8
"1429";1429;8
"1430";1430;8
"1431";1431;9
"1432";1432;11
"1433";1433;6
"1434";1434;6
"1435";1435;2
"1436";1436;0
"1437";1437;3
"1438";1438;11
"1439";1439;12
"1440";1440;12
"1441";1441;2
"1442";1442;11
"1443";1443;12
"1444";1444;5
"1445";1445;9
"1446";1446;10
"1447";1447;4
"1448";1448;4
"1449";1449;11
"1450";1450;11
"1451";1451;11
"1452";1452;8
"1453";1453;9
"1454";1454;10
"1455";1455;11
"1456";1456;11
"1457";1457;6
"1458";1458;6
"1459";1459;2
"1460";1460;1
"1461";1461;6
"1462";1462;4
"1463";1463;4
"1464";1464;5
"1465";1465;8
"1466";1466;8
"1467";1467;3
"1468";1468;11
"1469";1469;11
"1470";1470;11
"1471";1471;9
"1472";1472;12
"1473";1473;4
"1474";1474;10
"1475";1475;8
"1476";1476;6
"1477";1477;8
"1478";1478;8
"1479";1479;11
"1480";1480;6
"1481";1481;11
"1482";1482;2
"1483";1483;5
"1484";1484;11
"1485";1485;3
"1486";1486;4
"1487";1487;11
"1488";1488;2
"1489";1489;8
"1490";1490;11
"1491";1491;5
"1492";1492;7
"1493";1493;5
"1494";1494;8
"1495";1495;5
"1496";1496;4
"1497";1497;4
"1498";1498;8
"1499";1499;5
"1500";1500;8
"1501";1501;6
"1502";1502;6
"1503";1503;11
"1504";1504;5
"1505";1505;0
"1506";1506;3
"1507";1507;6
"1508";1508;11
"1509";1509;6
"1510";1510;3
"1511";1511;10
"1512";1512;9
"1513";1513;8
"1514";1514;8
"1515";1515;9
"1516";1516;8
"1517";1517;10
"1518";1518;11
"1519";1519;11
"1520";1520;9
"1521";1521;2
"1522";1522;11
"1523";1523;2
"1524";1524;5
"1525";1525;11
"1526";1526;9
"1527";1527;8
"1528";1528;0
"1529";1529;8
"1530";1530;8
"1531";1531;8
"1532";1532;8
"1533";1533;8
"1534";1534;9
"1535";1535;9
"1536";1536;9
"1537";1537;8
"1538";1538;9
"1539";1539;9
"1540";1540;8
"1541";1541;6
"1542";1542;8
"1543";1543;6
"1544";1544;9
"1545";1545;9
"1546";1546;0
"1547";1547;0
"1548";1548;1
"1549";1549;9
"1550";1550;0
"1551";1551;2
"1552";1552;4
"1553";1553;9
"1554";1554;10
"1555";1555;9
"1556";1556;9
"1557";1557;3
"1558";1558;8
"1559";1559;7
"1560";1560;11
"1561";1561;9
"1562";1562;9
"1563";1563;11
"1564";1564;9
"1565";1565;3
"1566";1566;8
"1567";1567;5
"1568";1568;0
"1569";1569;1
"1570";1570;4
"1571";1571;3
"1572";1572;0
"1573";1573;5
"1574";1574;2
"1575";1575;4
"1576";1576;3
"1577";1577;2
"1578";1578;1
"1579";1579;4
"1580";1580;11
"1581";1581;2
"1582";1582;2
"1583";1583;5
"1584";1584;0
"1585";1585;3
"1586";1586;3
"1587";1587;2
"1588";1588;5
"1589";1589;4
"1590";1590;2
"1591";1591;2
"1592";1592;9
"1593";1593;4
"1594";1594;6
"1595";1595;8
"1596";1596;6
"1597";1597;9
"1598";1598;9
"1599";1599;8
"1600";1600;1
"1601";1601;1
"1602";1602;0
"1603";1603;2
"1604";1604;2
"1605";1605;11
"1606";1606;8
"1607";1607;2
"1608";1608;11
"1609";1609;8
"1610";1610;9
"1611";1611;11
"1612";1612;0
"1613";1613;11
"1614";1614;8
"1615";1615;11
"1616";1616;8
"1617";1617;8
"1618";1618;3
"1619";1619;8
"1620";1620;2
"1621";1621;0
"1622";1622;0
"1623";1623;12
"1624";1624;2
"1625";1625;8
"1626";1626;8
"1627";1627;8
"1628";1628;8
"1629";1629;11
"1630";1630;7
"1631";1631;8
"1632";1632;11
"1633";1633;11
"1634";1634;5
"1635";1635;3
"1636";1636;7
"1637";1637;7
"1638";1638;2
"1639";1639;11
"1640";1640;7
"1641";1641;5
"1642";1642;8
"1643";1643;11
"1644";1644;11
"1645";1645;9
"1646";1646;8
"1647";1647;8
"1648";1648;12
"1649";1649;8
"1650";1650;5
"1651";1651;5
"1652";1652;11
"1653";1653;11
"1654";1654;9
"1655";1655;8
"1656";1656;11
"1657";1657;9
"1658";1658;7
"1659";1659;7
"1660";1660;11
"1661";1661;11
"1662";1662;7
"1663";1663;4
"1664";1664;8
"1665";1665;10
"1666";1666;8
"1667";1667;11
"1668";1668;9
"1669";1669;11
"1670";1670;3
"1671";1671;9
"1672";1672;2
"1673";1673;5
"1674";1674;11
"1675";1675;2
"1676";1676;5
"1677";1677;11
"1678";1678;11
"1679";1679;2
"1680";1680;0
"1681";1681;11
"1682";1682;3
"1683";1683;5
"1684";1684;0
"1685";1685;4
"1686";1686;2
"1687";1687;11
"1688";1688;4
"1689";1689;11
"1690";1690;4
"1691";1691;4
"1692";1692;0
"1693";1693;4
"1694";1694;9
"1695";1695;3
"1696";1696;4
"1697";1697;2
"1698";1698;11
"1699";1699;11
"1700";1700;11
"1701";1701;2
"1702";1702;8
"1703";1703;2
"1704";1704;2
"1705";1705;9
"1706";1706;8
"1707";1707;0
"1708";1708;12
"1709";1709;8
"1710";1710;8
"1711";1711;8
"1712";1712;8
"1713";1713;7
"1714";1714;5
"1715";1715;7
"1716";1716;9
"1717";1717;5
"1718";1718;9
"1719";1719;9
"1720";1720;9
"1721";1721;8
"1722";1722;8
"1723";1723;2
"1724";1724;5
"1725";1725;7
"1726";1726;5
"1727";1727;4
"1728";1728;4
"1729";1729;9
"1730";1730;9
"1731";1731;5
"1732";1732;12
"1733";1733;5
"1734";1734;9
"1735";1735;8
"1736";1736;2
"1737";1737;3
"1738";1738;2
"1739";1739;11
"1740";1740;4
"1741";1741;8
"1742";1742;6
"1743";1743;6
"1744";1744;8
"1745";1745;11
"1746";1746;4
"1747";1747;12
"1748";1748;4
"1749";1749;4
"1750";1750;8
"1751";1751;4
"1752";1752;12
"1753";1753;2
"1754";1754;8
"1755";1755;12
"1756";1756;8
"1757";1757;8
"1758";1758;8
"1759";1759;11
"1760";1760;2
"1761";1761;2
"1762";1762;0
"1763";1763;5
"1764";1764;11
"1765";1765;5
"1766";1766;2
"1767";1767;9
"1768";1768;8
"1769";1769;5
"1770";1770;8
"1771";1771;5
"1772";1772;3
"1773";1773;3
"1774";1774;2
"1775";1775;2
"1776";1776;2
"1777";1777;8
"1778";1778;3
"1779";1779;8
"1780";1780;5
"1781";1781;3
"1782";1782;9
"1783";1783;5
"1784";1784;1
"1785";1785;1
"1786";1786;1
"1787";1787;1
"1788";1788;1
"1789";1789;5
"1790";1790;5
"1791";1791;9
"1792";1792;2
"1793";1793;0
"1794";1794;11
"1795";1795;1
"1796";1796;11
"1797";1797;11
"1798";1798;2
"1799";1799;1
"1800";1800;2
"1801";1801;0
"1802";1802;0
"1803";1803;1
"1804";1804;8
"1805";1805;11
"1806";1806;11
"1807";1807;3
"1808";1808;2
"1809";1809;2
"1810";1810;8
"1811";1811;8
"1812";1812;9
"1813";1813;9
"1814";1814;0
"1815";1815;3
"1816";1816;2
"1817";1817;11
"1818";1818;9
"1819";1819;2
"1820";1820;2
"1821";1821;0
"1822";1822;11
"1823";1823;8
"1824";1824;1
"1825";1825;0
"1826";1826;11
"1827";1827;0
"1828";1828;4
"1829";1829;6
"1830";1830;11
"1831";1831;1
"1832";1832;2
"1833";1833;0
"1834";1834;2
"1835";1835;11
"1836";1836;0
"1837";1837;0
"1838";1838;0
"1839";1839;2
"1840";1840;2
"1841";1841;3
"1842";1842;2
"1843";1843;8
"1844";1844;2
"1845";1845;4
"1846";1846;4
"1847";1847;11
"1848";1848;2
"1849";1849;2
"1850";1850;8
"1851";1851;2
"1852";1852;1
"1853";1853;0
"1854";1854;0
"1855";1855;11
"1856";1856;2
"1857";1857;0
"1858";1858;6
"1859";1859;3
"1860";1860;8
"1861";1861;9
"1862";1862;3
"1863";1863;10
"1864";1864;6
"1865";1865;2
"1866";1866;3
"1867";1867;8
"1868";1868;2
"1869";1869;8
"1870";1870;8
"1871";1871;8
"1872";1872;9
"1873";1873;0
"1874";1874;2
"1875";1875;7
"1876";1876;2
"1877";1877;9
"1878";1878;3
"1879";1879;5
"1880";1880;11
"1881";1881;9
"1882";1882;9
"1883";1883;11
"1884";1884;5
"1885";1885;5
"1886";1886;5
"1887";1887;8
"1888";1888;8
"1889";1889;8
"1890";1890;2
"1891";1891;11
"1892";1892;11
"1893";1893;9
"1894";1894;3
"1895";1895;12
"1896";1896;8
"1897";1897;2
"1898";1898;11
"1899";1899;11
"1900";1900;2
"1901";1901;12
"1902";1902;0
"1903";1903;2
"1904";1904;5
"1905";1905;8
"1906";1906;10
"1907";1907;2
"1908";1908;6
"1909";1909;0
"1910";1910;11
"1911";1911;9
"1912";1912;2
"1913";1913;4
"1914";1914;0
"1915";1915;6
"1916";1916;11
"1917";1917;0
"1918";1918;4
"1919";1919;9
"1920";1920;11
"1921";1921;0
"1922";1922;6
"1923";1923;7
"1924";1924;11
"1925";1925;2
"1926";1926;11
"1927";1927;9
"1928";1928;2
"1929";1929;2
"1930";1930;8
"1931";1931;2
"1932";1932;2
"1933";1933;12
"1934";1934;2
"1935";1935;4
"1936";1936;9
"1937";1937;11
"1938";1938;11
"1939";1939;8
"1940";1940;3
"1941";1941;11
"1942";1942;2
"1943";1943;0
"1944";1944;0
"1945";1945;9
"1946";1946;8
"1947";1947;0
"1948";1948;10
"1949";1949;8
"1950";1950;8
"1951";1951;9
"1952";1952;2
"1953";1953;9
"1954";1954;8
"1955";1955;8
"1956";1956;1
"1957";1957;11
"1958";1958;0
"1959";1959;2
"1960";1960;10
"1961";1961;11
"1962";1962;2
"1963";1963;2
"1964";1964;5
"1965";1965;1
"1966";1966;11
"1967";1967;2
"1968";1968;6
"1969";1969;2
"1970";1970;8
"1971";1971;1
"1972";1972;0
"1973";1973;2
"1974";1974;2
"1975";1975;11
"1976";1976;2
"1977";1977;3
"1978";1978;4
"1979";1979;9
"1980";1980;5
"1981";1981;2
"1982";1982;12
"1983";1983;2
"1984";1984;2
"1985";1985;3
"1986";1986;5
"1987";1987;3
"1988";1988;3
"1989";1989;2
"1990";1990;0
"1991";1991;0
"1992";1992;11
"1993";1993;5
"1994";1994;10
"1995";1995;2
"1996";1996;8
"1997";1997;8
"1998";1998;1
"1999";1999;8
"2000";2000;8
"2001";2001;9
"2002";2002;9
"2003";2003;6
"2004";2004;8
"2005";2005;8
"2006";2006;8
"2007";2007;2
"2008";2008;6
"2009";2009;0
"2010";2010;11
"2011";2011;1
"2012";2012;11
"2013";2013;11
"2014";2014;1
"2015";2015;2
"2016";2016;6
"2017";2017;12
"2018";2018;8
"2019";2019;8
"2020";2020;0
"2021";2021;8
