dieu;563;nom
christ;382;nom
seigneur;267;nom
jésus;210;nom
homme;187;nom
chose;157;nom
esprit;151;nom
foi;135;nom
frère;134;nom
loi;130;nom
mort;128;nom
corps;101;nom
donner;91;ver
chair;87;nom
rendre;86;ver
oeuvre;84;nom
femme;82;nom
parole;80;nom
saint;79;nom
péché;79;nom
gloire;78;nom
seul;76;adj
connaître;76;ver
venir;74;ver
évangile;71;nom
cause;66;nom
père;63;nom
recevoir;62;ver
parler;62;ver
justice;61;nom
église;60;nom
enfant;59;nom
coeur;59;nom
vie;58;nom
écrire;56;ver
part;52;nom
voir;51;ver
vivre;50;ver
vérité;49;nom
propre;49;adj
monde;49;nom
jour;49;nom
sujet;48;nom
effet;48;nom
paix;47;nom
glorifier;47;ver
mettre;46;ver
manger;46;ver
charité;46;nom
sorte;45;nom
prendre;45;ver
devenir;45;ver
quelqu;43;nr
puissance;43;nom
païen;43;nom
appeler;43;ver
ressusciter;42;ver
luimême;42;nr
saluer;41;ver
fils;40;nom
temps;39;nom
grand;39;adj
espérance;39;nom
don;39;nom
seulement;37;adv
mari;36;nom
aimer;36;ver
aller;35;ver
manière;34;nom
amour;34;nom
connaissance;33;nom
sauver;32;ver
apôtre;32;nom
volonté;31;nom
siècle;31;nom
sagesse;31;nom
membre;31;nom
vain;30;adj
paul;29;nr
juif;29;nom
chercher;29;ver
agir;29;ver
égard;28;nom
nom;28;nom
joie;28;nom
exhorter;28;ver
esclave;28;nom
circoncire;28;ver
annoncer;28;ver
rester;27;ver
prier;27;ver
langue;27;nom
juger;27;ver
garder;27;ver
servir;26;ver
miséricorde;26;nom
milieu;26;nom
marcher;26;ver
fidèle;26;adj
envoyer;26;ver
lettre;25;nom
apprendre;25;ver
travailler;24;ver
quelquesuns;24;nr
prière;24;nom
manifester;24;ver
entendre;24;ver
spirituel;23;adj
promesse;23;nom
livrer;23;ver
justifier;23;ver
faible;23;adj
colère;23;nom
trouver;22;ver
serviteur;22;nom
intelligence;22;nom
vivant;21;adj
soumettre;21;ver
pensée;21;nom
moimême;21;nr
marier;21;ver
conscience;21;nom
besoin;21;nom
autorité;21;nom
éternel;20;adj
terre;20;nom
regarder;20;ver
présent;20;adj
mystère;20;nom
mourir;20;ver
maison;20;nom
main;20;nom
estce;20;nr
enseigner;20;ver
crainte;20;nom
concerner;20;ver
sage;19;adj
pur;19;adj
ministère;19;nom
habiter;19;ver
boire;19;ver
action;19;nom
abraham;19;nr
réjouir;18;ver
plaire;18;ver
contraire;18;nom
arriver;18;ver
éprouver;17;ver
timothée;17;nr
supporter;17;ver
prêcher;17;ver
obtenir;17;ver
nouveau;17;nom
laisser;17;ver
israël;17;nr
honneur;17;nom
fois;17;nom
fermer;17;ver
détruire;17;ver
digne;17;adj
demeurer;17;ver
commettre;17;ver
vousmêmes;16;nr
user;16;ver
souffrir;16;ver
remplir;16;ver
premier;16;adj
plutôt;16;adv
obéir;16;ver
lumière;16;nom
juge;16;nom
espérer;16;ver
donnée;16;nom
consolation;16;nom
auprès_de;16;nr
attacher;16;ver
zèle;15;nom
recommander;15;ver
postérité;15;nom
peuple;15;nom
patience;15;nom
oeil;15;nom
nombre;15;nom
maître;15;nom
libre;15;adj
imputer;15;ver
fruit;15;nom
former;15;ver
désir;15;nom
doctrine;15;nom
consoler;15;ver
compagnon;15;nom
bonté;15;nom
bienaimés;15;nr
agréable;15;adj
témoignage;14;nom
tribulation;14;nom
tite;14;nr
royaume;14;nom
richesse;14;nom
prophète;14;nom
produire;14;ver
porter;14;ver
nousmêmes;14;nr
nation;14;nom
moyen;14;nom
montrer;14;ver
ministre;14;nom
mauvais;14;adj
macédoine;14;nom
honte;14;nom
circoncision;14;nom
charger;14;ver
atil;14;nr
ange;14;nom
reconnaître;13;ver
prédication;13;nom
paraître;13;ver
offense;13;nom
occasion;13;nom
jugement;13;nom
incirconcis;13;adj
idole;13;nom
grec;13;nom
estil;13;nr
espèce;13;nom
entier;13;adj
douceur;13;nom
demander;13;ver
céleste;13;adj
conduire;13;ver
commandement;13;nom
chef;13;nom
bienaimé;13;nr
baptiser;13;ver
accomplir;13;ver
établir;12;ver
ténèbres;12;nom
tristesse;12;nom
tomber;12;ver
semer;12;ver
savezvous;12;nr
sauveur;12;nom
sang;12;nom
régner;12;ver
retenir;12;ver
penser;12;ver
passer;12;ver
parent;12;nom
nuit;12;nom
naître;12;ver
lieu;12;nom
impudicité;12;nom
gens;12;nom
fin;12;nom
faiblesse;12;nom
désirer;12;ver
demeure;12;nom
créer;12;ver
confiance;12;nom
bouche;12;nom
écriture;11;nom
utile;11;adj
tirer;11;ver
sentiment;11;nom
révélation;11;nom
prophétie;11;nom
piété;11;nom
pierre;11;nom
pain;11;nom
orgueil;11;nom
ordre;11;nom
liberté;11;nom
irréprochable;11;adj
instruction;11;nom
euxmêmes;11;nr
ennemi;11;nom
délivrer;11;ver
croix;11;nom
couper;11;ver
condamner;11;ver
combattre;11;ver
bénir;11;ver
attrister;11;ver
arrivée;11;nom
édification;10;nom
témoin;10;nom
temple;10;nom
séparer;10;ver
souffrance;10;nom
soin;10;nom
service;10;nom
satan;10;nom
répandre;10;ver
revêtir;10;ver
périr;10;ver
péril;10;nom
pourvoir;10;ver
porte;10;nom
permettre;10;ver
parvenir;10;ver
obéissance;10;nom
manquer;10;ver
jérusalem;10;nr
insensé;10;adj
injustice;10;nom
ignorer;10;ver
glorieux;10;adj
folie;10;nom
droit;10;nom
dispute;10;nom
crucifier;10;ver
convoitise;10;nom
continuellement;10;adv
combat;10;nom
cieux;10;nom
ciel;10;nom
avance;10;nom
autrement;10;adv
affermir;10;ver
édifier;9;ver
veuf;9;nom
vase;9;nom
travail;9;nom
toimême;9;nr
tenter;9;ver
tenir;9;ver
sentir;9;ver
sanctifier;9;ver
sainteté;9;nom
sain;9;adj
résurrection;9;nom
rapport;9;nom
présenter;9;ver
posséder;9;ver
pied;9;nom
peine;9;nom
partie;9;nom
pardonner;9;ver
moïse;9;nom
louange;9;nom
lien;9;nom
jalousie;9;nom
instruire;9;ver
iniquité;9;nom
image;9;nom
héritier;9;nom
exposer;9;ver
détourner;9;ver
déclarer;9;ver
dernier;9;adj
considérer;9;ver
assurance;9;nom
appartenir;9;ver
aliment;9;nom
vrai;8;adj
tête;8;nom
table;8;nom
souvenir;8;ver
semblable;8;adj
révéler;8;ver
réconcilier;8;ver
rebelle;8;adj
raison;8;nom
querelle;8;nom
pécher;8;ver
persécuter;8;ver
persuader;8;ver
parfait;8;adj
nouvelle;8;adj
mépriser;8;ver
mère;8;nom
monter;8;ver
miracle;8;nom
mesure;8;nom
lier;8;ver
libéralité;8;nom
impureté;8;nom
fondement;8;nom
faveur;8;nom
faux;8;adj
enseignement;8;nom
enflé;8;adj
domination;8;nom
disparaître;8;ver
dessein;8;nom
delà;8;adv
craindre;8;ver
courir;8;ver
confier;8;ver
cacher;8;ver
avènement;8;nom
attendre;8;ver
affliction;8;nom
affection;8;nom
acte;8;nom
accorder;8;ver
abondance;8;nom
abandonner;8;ver
étranger;7;nom
état;7;nom
élu;7;nom
éloigner;7;ver
âme;7;nom
visage;7;nom
vin;7;nom
viande;7;nom
usage;7;nom
séduire;7;ver
scandale;7;nom
sacrifier;7;ver
rédemption;7;nom
riche;7;adj
rejeter;7;ver
rappeler;7;ver
racheter;7;ver
pécheur;7;nom
prêt;7;adj
prêchons;7;nr
présence;7;nom
prophétiser;7;ver
pratiquer;7;ver
persévérance;7;nom
perdre;7;ver
partir;7;ver
nature;7;nom
lire;7;ver
levain;7;nom
jeune;7;adj
impur;7;adj
héritage;7;nom
gain;7;nom
famille;7;nom
faim;7;nom
face;7;nom
estimer;7;ver
ensemble;7;adv
empêcher;7;ver
empressement;7;nom
dépouiller;7;ver
docteur;7;nom
discours;7;nom
diriger;7;ver
céphas;7;nr
convenir;7;ver
charnel;7;adj
avantage;7;nom
audessus;7;nr
assister;7;ver
asseoir;7;ver
ancien;7;adj
affaire;7;nom
adam;7;nr
achaïe;7;nr
absent;7;adj
abord;7;nom
abonder;7;ver
abondamment;7;adv
éphèse;6;nr
élevé;6;adj
égarer;6;ver
éclat;6;nom
voile;6;nom
veiller;6;ver
tromper;6;ver
terrestre;6;adj
suivre;6;ver
soeur;6;nom
sobre;6;adj
servitude;6;nom
saisir;6;ver
réjouissezvous;6;nr
récompense;6;nom
ruse;6;nom
revenir;6;ver
renverser;6;ver
prémices;6;nom
promettre;6;ver
progrès;6;nom
prix;6;nom
pratique;6;adj
portant;6;adj
pleurer;6;ver
plaisir;6;nom
peur;6;nom
persévérer;6;ver
pauvre;6;adj
passion;6;nom
participer;6;ver
ouvrir;6;ver
odeur;6;nom
nécessaire;6;adj
méchant;6;adj
mortel;6;nom
modèle;6;nom
mentir;6;ver
langage;6;nom
justification;6;nom
invisible;6;adj
inquiéter;6;ver
informer;6;ver
impudique;6;adj
impie;6;adj
imitateur;6;nom
hériter;6;ver
honorer;6;ver
haut;6;adj
gagner;6;ver
fortifier;6;ver
exercer;6;ver
envie;6;nom
dormir;6;ver
division;6;nom
descendre;6;ver
cupidité;6;nom
conjurer;6;ver
conduite;6;nom
condamnation;6;nom
comprendre;6;ver
communion;6;nom
commencer;6;ver
changer;6;ver
capable;6;adj
aspirer;6;ver
approuver;6;ver
apparence;6;nom
apollos;6;nr
alliance;6;nom
aije;6;nr
adversaire;6;nom
adultère;6;nom
ôter;5;ver
éviter;5;ver
épreuve;5;nom
épargner;5;ver
écouter;5;ver
vocation;5;nom
vierge;5;adj
victoire;5;nom
ventre;5;nom
transgression;5;nom
survenir;5;ver
supérieur;5;adj
subsister;5;ver
sortir;5;ver
signe;5;nom
science;5;nom
sanctification;5;nom
salaire;5;nom
sacrifice;5;nom
résolution;5;nom
résister;5;ver
réprouvé;5;nom
règle;5;nom
roi;5;nom
retrancher;5;ver
reposer;5;ver
renier;5;ver
racine;5;nom
pureté;5;nom
puissant;5;adj
préparer;5;ver
précédemment;5;adv
près_de;5;adv
provoquer;5;ver
prochain;5;adj
prisonnier;5;nom
preuve;5;nom
premièrement;5;adv
piège;5;nom
peutêtre;5;nr
persécution;5;nom
perdition;5;nom
ouvrier;5;nom
oser;5;ver
opérer;5;ver
olivier;5;nom
offrir;5;ver
observer;5;ver
noncroyant;5;nr
nommer;5;ver
nombreux;5;adj
mériter;5;ver
méchanceté;5;nom
motif;5;nom
moissonner;5;ver
modéré;5;nom
louer;5;ver
lever;5;ver
jouir;5;ver
intérêt;5;nom
infidèle;5;nom
incrédulité;5;nom
incirconcision;5;nr
imposer;5;ver
immortalité;5;nom
humilité;5;nom
hui;5;nom
honnête;5;adj
heureux;5;adj
heure;5;nom
haïr;5;ver
glorifierai;5;nr
fonder;5;ver
excellence;5;nom
entendement;5;nom
détresse;5;nom
désordre;5;nom
dérober;5;ver
démon;5;nom
disposition;5;nom
culte;5;nom
créature;5;nom
création;5;nom
croyant;5;nom
couronne;5;nom
coupable;5;adj
corruptible;5;adj
contribuer;5;ver
conserver;5;ver
commun;5;adj
chute;5;nom
choisir;5;ver
chaîne;5;nom
chanter;5;ver
cesser;5;ver
cesse;5;nom
calomnie;5;nom
bâtir;5;ver
branche;5;nom
bientôt;5;adv
barnabas;5;nr
baptême;5;nom
avis;5;nom
aujourd;5;nr
augmenter;5;ver
assistance;5;nom
asservir;5;ver
arme;5;nom
apparaître;5;ver
anéantir;5;ver
annonce;5;nom
affranchi;5;nom
adoption;5;nom
achoppement;5;nom
achever;5;ver
accès;5;nom
accompagner;5;ver
abstenir;5;ver
évêque;4;nom
évident;4;adj
élection;4;nom
véritablement;4;adv
voyage;4;nom
voleur;4;nom
visible;4;adj
violent;4;adj
ville;4;nom
tychique;4;nr
trésor;4;nom
trouble;4;nom
trompette;4;nom
troisième;4;adj
tremblement;4;nom
tranquilliser;4;ver
tour;4;nom
tort;4;nom
surprendre;4;ver
supplication;4;nom
soutenir;4;ver
source;4;nom
solide;4;adj
semence;4;nom
secret;4;nom
sceau;4;nom
réunir;4;ver
résoudre;4;ver
réserver;4;ver
régler;4;ver
réconciliation;4;nom
ruine;4;nom
rudiment;4;nom
rompre;4;ver
revêtezvous;4;nr
reprendre;4;ver
repos;4;nom
repentance;4;nom
renouveler;4;ver
renoncer;4;ver
remporter;4;ver
recherche;4;nom
prétexte;4;nom
prédicateur;4;nom
prédestiner;4;ver
précepte;4;nom
profondeur;4;nom
profession;4;nom
profane;4;adj
plénitude;4;nom
pleinement;4;adv
plante;4;nom
placer;4;ver
passager;4;nom
ordonner;4;ver
ordonnance;4;nom
opposer;4;ver
ontils;4;nr
occuper;4;ver
objet;4;nom
nourriture;4;nom
nourrir;4;ver
naturel;4;adj
médiateur;4;nom
mer;4;nom
mention;4;nom
mensonge;4;nom
meilleur;4;adj
manifestation;4;nom
malédiction;4;nom
magistrat;4;nom
livre;4;nom
limite;4;nom
laodicée;4;nr
judée;4;nr
jourlà;4;nr
jacques;4;nom
invoquer;4;ver
instruit;4;adj
inimitié;4;nom
infâme;4;adj
impiété;4;nom
ignorance;4;nom
humain;4;adj
honteux;4;adj
hardiesse;4;nom
gratuitement;4;adv
grain;4;nom
genou;4;nom
foule;4;nom
fou;4;adj
fonction;4;nom
fille;4;nom
feu;4;nom
exister;4;ver
exemple;4;nom
estàdire;4;nr
estu;4;nr
entièrement;4;adv
enrichir;4;ver
enlever;4;ver
enfantement;4;nom
efforcer;4;ver
désobéissance;4;nom
déshonorer;4;ver
dépendre;4;ver
défense;4;nom
douleur;4;nom
diversité;4;nom
discussion;4;nom
destruction;4;nom
destiner;4;ver
cupide;4;adj
corrompre;4;adj
corinthe;4;nom
conviction;4;nom
convenable;4;adj
convaincre;4;ver
confus;4;adj
conformément;4;adv
compte;4;nom
combler;4;ver
captif;4;nom
bénédiction;4;nom
but;4;nom
briller;4;ver
bonheur;4;nom
beau;4;adj
barbare;4;nom
baiser;4;ver
avonsnous;4;nr
avancer;4;ver
autel;4;nom
attester;4;ver
assemblée;4;nom
assembler;4;ver
asie;4;nr
argent;4;nom
ardent;4;adj
approcher;4;ver
apparition;4;nom
année;4;nom
animosité;4;nom
animal;4;nom
anathème;4;nom
air;4;nom
adresser;4;ver
adresse;4;nom
accueillir;4;ver
acception;4;nom
êtesvous;3;nr
étoile;3;nom
éternellement;3;adv
ésaïe;3;nr
épée;3;nom
épaphras;3;nr
élève;3;nom
égal;3;adj
édifice;3;nom
éclater;3;ver
échapper;3;ver
âge;3;nom
voilé;3;adj
voie;3;nom
vil;3;adj
vif;3;adj
vieillard;3;nom
vieil;3;adj
vertu;3;nom
vengeance;3;nom
utilité;3;nom
tuer;3;ver
tribunal;3;nom
transformer;3;ver
tourner;3;ver
tentation;3;nom
taire;3;ver
superflu;3;adj
suisje;3;nr
suffire;3;ver
stéphanas;3;nr
soumission;3;nom
souiller;3;ver
sonde;3;nom
soif;3;nom
situation;3;nom
sincère;3;adj
simplicité;3;nom
simple;3;adj
silvain;3;nr
secourir;3;ver
satisfaire;3;ver
saluezvous;3;nr
répudier;3;ver
répondre;3;ver
réellement;3;adv
réduire;3;ver
réciproquement;3;adv
rébellion;3;nom
rome;3;nr
rocher;3;nom
retourner;3;ver
reprocher;3;ver
repentir;3;ver
repas;3;nom
regard;3;nom
recueillir;3;ver
rechercher;3;ver
ravisseur;3;nom
rang;3;nom
quitter;3;ver
pâte;3;nom
punir;3;ver
publier;3;ver
prouver;3;ver
prononcer;3;ver
prodige;3;nom
privé;3;adj
principalement;3;adv
prescrire;3;ver
premierné;3;nr
pousser;3;ver
possible;3;adj
poser;3;ver
place;3;nom
perte;3;nom
perfection;3;nom
particulier;3;adj
parfaire;3;ver
ouvrage;3;nom
outrage;3;nom
oreille;3;nom
opinion;3;nom
nuée;3;nom
nudité;3;nom
noncroyants;3;nr
mot;3;nom
moment;3;nom
menteur;3;nom
marquer;3;ver
marque;3;nom
marc;3;nom
manifeste;3;adj
malice;3;nom
malade;3;adj
légitime;3;adj
luc;3;nr
longanimité;3;nom
larme;3;nom
joug;3;nom
israélite;3;nom
isaac;3;nr
irrépréhensibles;3;nr
irriter;3;ver
inviter;3;ver
inutile;3;adj
intérieur;3;nom
interprète;3;nom
intercéder;3;ver
intelligent;3;adj
injuste;3;adj
inférieur;3;adj
incrédule;3;adj
incorruptible;3;adj
incorruptibilité;3;nom
impôt;3;nom
importer;3;ver
ignorant;3;adj
idolâtrie;3;nom
idolâtre;3;nom
hypocrisie;3;nom
honorable;3;adj
honnêteté;3;nom
hiver;3;nom
hauteur;3;nom
génération;3;nom
gré;3;nom
gratuit;3;adj
galatie;3;nr
fuir;3;ver
foutre;3;ver
forme;3;nom
fléchir;3;ver
fidélité;3;nom
favorable;3;adj
fable;3;nom
exprimer;3;ver
exhortation;3;nom
excès;3;nom
enté;3;nr
entrer;3;ver
entrailles;3;nom
ensevelir;3;ver
enivrer;3;ver
engager;3;ver
endurcissement;3;nom
encourager;3;ver
emporter;3;ver
désormais;3;adv
déshonnête;3;adj
dépôt;3;nom
dépourvu;3;adj
démas;3;nr
déguiser;3;ver
dégager;3;ver
droite;3;nom
dironsnous;3;nr
dignité;3;nom
différence;3;nom
diacre;3;nom
destinée;3;nom
david;3;nr
couvrir;3;ver
cours;3;nom
courage;3;nom
coup;3;nom
corruption;3;nom
convertir;3;ver
contrée;3;nom
consister;3;ver
considération;3;nom
complaire;3;ver
compassion;3;nom
comparer;3;ver
communiquer;3;ver
commencement;3;nom
cheveu;3;nom
captivité;3;nom
cantique;3;nom
calamité;3;nom
brûler;3;ver
bois;3;nom
boeuf;3;nom
blâmer;3;ver
bienveillant;3;adj
bienheureux;3;adj
bienfaisance;3;nom
bienaimée;3;nr
avezvous;3;nr
avertissement;3;nom
attirer;3;ver
atteindre;3;ver
assujettir;3;ver
assigner;3;ver
arroser;3;ver
arrogant;3;adj
arracher;3;ver
aquilas;3;nr
appel;3;nom
apostolat;3;nom
ami;3;nom
amener;3;ver
affligé;3;adj
adorer;3;ver
adonner;3;ver
accuser;3;ver
accomplissement;3;nom
accompli;3;adj
accabler;3;ver
abondant;3;adj
évangéliste;2;nom
éraste;2;nr
épaphrodite;2;nr
égarement;2;nom
égalité;2;nom
également;2;adv
éclairer;2;ver
ébranler;2;ver
âgé;2;adj
zélé;2;adj
vêtir;2;ver
volupté;2;nom
volontaire;2;adj
voix;2;nom
voiler;2;ver
vision;2;nom
vieux;2;adj
victime;2;nom
verge;2;nom
vendre;2;ver
vanter;2;ver
vanité;2;nom
unité;2;nom
unir;2;ver
uniquement;2;adv
témoigner;2;ver
troupeau;2;nom
troubler;2;ver
trompeur;2;adj
tromperie;2;nom
troas;2;nr
tribut;2;nom
tribu;2;nom
traverser;2;ver
travers;2;nom
transporter;2;ver
transgresses;2;nr
tranquille;2;adj
traiter;2;ver
tradition;2;nom
trace;2;nom
toucher;2;ver
thessalonique;2;nr
thessaloniciens;2;nr
tendre;2;ver
temporel;2;adj
tache;2;nom
sévérité;2;nom
séduction;2;nom
séducteur;2;nom
susciter;2;ver
surpasser;2;ver
surmonter;2;ver
surabondé;2;nr
suppléer;2;ver
supplier;2;ver
stérile;2;adj
spectacle;2;nom
souvenezvous;2;nr
soupirer;2;ver
sontils;2;nr
sommesnous;2;nr
solidement;2;adv
soleil;2;nom
soldat;2;nom
soimême;2;nr
sion;2;nr
sincérité;2;nom
sincèrement;2;adv
sinaï;2;nr
silence;2;nom
serpent;2;nom
seronsnous;2;nr
seratil;2;nr
seraitil;2;nr
seraitelle;2;nr
seraisje;2;nr
sein;2;nom
secte;2;nom
secours;2;nom
second;2;adj
scellé;2;nom
scandaliser;2;ver
sauvage;2;adj
sara;2;nom
saistu;2;nr
saisissant;2;adj
sachezle;2;nr
réveiller;2;ver
rétribution;2;nom
répéter;2;ver
rémission;2;nom
rébecca;2;nom
route;2;nom
rougir;2;ver
reçussions;2;nr
revête;2;nr
retour;2;nom
retentir;2;ver
reprendsles;2;nr
repousser;2;ver
repenti;2;adj
renouvellement;2;nom
renfermé;2;adj
rencontre;2;nom
remettre;2;ver
relation;2;nom
rejeton;2;nom
recommandation;2;nom
recommandable;2;adj
ravir;2;ver
rassasier;2;ver
raser;2;ver
rapprocher;2;ver
ramasser;2;ver
raconter;2;ver
race;2;nom
quoiqu;2;nr
quelquesunes;2;nr
quadrupède;2;nom
pédagogue;2;nom
purifier;2;ver
punition;2;nom
psaume;2;nom
prostitué;2;nom
promptement;2;adv
promis;2;adj
proie;2;nom
profit;2;nom
prisca;2;nr
prince;2;nom
presser;2;ver
portion;2;nom
plonger;2;ver
plaindre;2;ver
plaider;2;ver
pire;2;adj
philippes;2;nr
perverti;2;adj
pervers;2;adj
persécuteur;2;nom
persuasion;2;nom
pernicieux;2;adj
perfectionnement;2;nom
payer;2;ver
pauvreté;2;nom
patient;2;nom
partager;2;ver
pareillement;2;adv
pardonnezvous;2;nr
pardessus;2;nom
pacifique;2;adj
ouïe;2;nom
outrageux;2;adj
onésiphore;2;nr
onésime;2;nr
oisif;2;adj
oiseau;2;nom
offrande;2;nom
obéissant;2;adj
obscurcir;2;ver
néant;2;nom
noncroyante;2;nr
naufrage;2;nom
naturellement;2;adv
méprisestu;2;nr
méprisable;2;adj
mépris;2;nom
mémoire;2;nom
médisantes;2;nr
médire;2;ver
murmurer;2;ver
multiplier;2;ver
mont;2;nom
modestie;2;nom
miroir;2;nom
mener;2;ver
maudit;2;adj
masse;2;nom
marché;2;nom
malin;2;adj
malheureux;2;adj
malheur;2;nom
maladie;2;nom
macédoniens;2;nr
léger;2;adj
lèvre;2;nom
làdessus;2;nr
lutte;2;nom
lune;2;nom
long;2;adj
libation;2;nom
lecture;2;nom
laver;2;ver
lasser;2;ver
lait;2;nom
laissezvous;2;nr
labourer;2;ver
judaïsme;2;nom
jeûner;2;ver
jeunesse;2;nom
jeter;2;ver
jacob;2;nom
ivrognerie;2;nom
ivrogne;2;nom
issu;2;adj
irrépréhensible;2;nr
irréligieux;2;adj
inébranlable;2;adj
introduire;2;ver
interprétation;2;nom
instrument;2;nom
instant;2;nom
inspirer;2;ver
inspiration;2;nom
inquiétude;2;nom
injustement;2;adv
infirmité;2;nom
infirme;2;nom
infiniment;2;adv
infini;2;adj
inexcusable;2;adj
ineffable;2;adj
indigne;2;adj
inconnu;2;nom
incompréhensible;2;adj
imposteur;2;nom
imposition;2;nom
imiter;2;ver
ignorezvous;2;nr
idolâtrer;2;ver
hyménée;2;nom
hymne;2;nom
humilier;2;ver
humiliation;2;nom
humble;2;adj
hospitalier;2;adj
honnêtement;2;adv
hautain;2;adj
harpe;2;nom
généalogie;2;nom
gémissons;2;nr
guérison;2;nom
grandir;2;ver
glorifies;2;nr
gaïus;2;nr
fête;2;nom
fraude;2;nom
fraternel;2;adj
frapper;2;ver
fournir;2;ver
fortifiezvous;2;nr
forcer;2;ver
flûte;2;nom
flatteur;2;adj
finir;2;ver
figure;2;nom
fermeté;2;nom
fardeau;2;nom
fanfaron;2;nom
faitil;2;nr
exécution;2;nom
extérieur;2;nom
extrême;2;adj
extrémité;2;nom
exprès;2;adj
expressément;2;adv
expression;2;nom
exhortezvous;2;nr
exercice;2;nom
exciter;2;ver
excessif;2;adj
exceller;2;ver
excellent;2;adj
examiner;2;ver
eve;2;nr
estelle;2;nr
espagne;2;nr
entés;2;nr
entraîner;2;ver
enraciné;2;adj
enquérir;2;ver
engloutir;2;ver
engendrer;2;ver
enfler;2;ver
enflammé;2;adj
emparer;2;ver
emmuselleras;2;nr
efficacité;2;nom
efficace;2;adj
eau;2;nom
dévorer;2;ver
détacher;2;ver
désobéir;2;ver
désert;2;nom
dépenser;2;ver
dépasser;2;ver
départ;2;nom
découvrir;2;ver
décider;2;ver
double;2;adj
donnelui;2;nr
dominer;2;ver
divinité;2;nom
distribuer;2;ver
distinguer;2;ver
distinction;2;nom
distinct;2;adj
dissolution;2;nom
dispensation;2;nom
dispensateur;2;nom
discernement;2;nom
différer;2;ver
différend;2;nom
difficile;2;adj
damas;2;nom
côté;2;nom
célébrer;2;ver
cuirasse;2;nom
croître;2;ver
crier;2;ver
course;2;nom
corrompu;2;adj
corriger;2;ver
coordonner;2;ver
contredire;2;ver
contrainte;2;nom
contraindre;2;ver
continuel;2;adj
contester;2;ver
conséquent;2;adj
consolezvous;2;nr
consentir;2;ver
confusion;2;nom
conformité;2;nom
conforme;2;adj
confondre;2;ver
confirmer;2;ver
confession;2;nom
confesser;2;ver
conduisezvous;2;nr
condescendance;2;nom
concevoir;2;ver
comparaître;2;ver
communication;2;nom
combattant;2;nom
colonne;2;nom
collecte;2;nom
cohéritier;2;nom
cité;2;nom
châtiment;2;nom
châtier;2;ver
cher;2;adj
celuilà;2;nr
casque;2;nom
cas;2;nom
calomnier;2;ver
bête;2;nom
blasphémer;2;ver
blasphémateur;2;nom
bienséance;2;nom
benjamin;2;nom
battre;2;ver
avertir;2;ver
attente;2;nom
astucieux;2;adj
astu;2;nr
arrhe;2;nom
aristarque;2;nom
argile;2;nom
arabie;2;nr
apprécier;2;ver
approbation;2;nom
apporter;2;ver
antioche;2;nr
annuler;2;ver
annonçasse;2;nr
animé;2;adj
angoisse;2;nom
amertume;2;nom
ambassadeur;2;nom
amasser;2;ver
alexandre;2;nr
aiguillon;2;nom
aide;2;nom
agar;2;nr
affranchir;2;ver
affirmer;2;ver
affectionner;2;ver
acquérir;2;ver
accueil;2;nom
accroissement;2;nom
accord;2;nom
abuser;2;ver
abstenezvous;2;nr
absence;2;nom
abattre;2;ver
évodie;1;nr
évidence;1;nom
étroit;1;adj
étrange;1;adj
étonner;1;ver
étonnant;1;adj
éternité;1;nom
étendue;1;nom
étendre;1;ver
éteindre;1;ver
étaitce;1;nr
ésaü;1;nr
équitable;1;adj
éprouvé;1;adj
époux;1;nom
époque;1;nom
épier;1;ver
épaïnète;1;nr
éminent;1;adj
éloge;1;nom
élire;1;ver
élier;1;ver
élevezles;1;nr
élever;1;ver
élargissezvous;1;nr
élargir;1;ver
égoïste;1;adj
égarants;1;nr
égaler;1;ver
édifiezvous;1;nr
écrier;1;ver
écraser;1;ver
économe;1;nom
écharde;1;nom
écart;1;nom
çà;1;adv
zénas;1;nr
vêtement;1;nom
véritable;1;adj
véridique;1;adj
véracité;1;nom
voulonsnous;1;nr
voulionsnous;1;nr
voulezvous;1;nr
volontairement;1;adv
voisin;1;nom
voeu;1;nom
vivrionsnous;1;nr
vivifier;1;ver
vivifiant;1;adj
visser;1;ver
vingttrois;1;nr
vigne;1;nom
vieillir;1;ver
veuxtu;1;nr
vertueux;1;adj
vent;1;nom
venin;1;nom
venger;1;ver
veillezy;1;nr
veille;1;nom
varier;1;ver
vaquer;1;ver
valoir;1;ver
valeur;1;nom
vainqueur;1;nom
vaincre;1;ver
urbain;1;adj
union;1;nom
tôt;1;adv
tâcher;1;ver
tâche;1;nom
tuteur;1;nom
trône;1;nom
trésorier;1;nom
tryphène;1;nr
tryphose;1;nr
trophime;1;nr
troisièmement;1;adv
triste;1;adj
triompher;1;ver
triomphe;1;nom
triomphant;1;adj
tresse;1;nom
traître;1;nom
transgresseur;1;nom
trait;1;nom
train;1;nom
toutepuissante;1;nr
tourment;1;nom
touchant;1;adj
totalité;1;nom
timidité;1;nom
testament;1;nom
tertius;1;nr
terminer;1;ver
tenue;1;nom
tentateur;1;adj
tendresse;1;nom
tempérant;1;nr
tempérance;1;nom
tempslà;1;nr
tellement;1;adv
tarder;1;ver
sévèrement;1;adv
sévère;1;adj
sépulcre;1;nom
séparezvous;1;nr
séparation;1;nom
séjourneraije;1;nr
séduisant;1;adj
syrie;1;nr
syntyche;1;nr
supériorité;1;nom
suprême;1;adj
supportezvous;1;nr
suite;1;nom
suffisant;1;adj
successivement;1;adv
subvenir;1;ver
subsistes;1;nr
stimuler;1;ver
stature;1;nom
stade;1;nom
stachys;1;nr
splendeur;1;nom
spirituellement;1;adv
souvienstoi;1;nr
souverainement;1;adv
souverain;1;nom
soupçonner;1;ver
soupçon;1;nom
soupir;1;nom
souper;1;ver
soulager;1;ver
soulagement;1;nom
souillure;1;nom
souffrezvous;1;nr
souffleter;1;ver
souffle;1;nom
soucier;1;ver
souci;1;nom
sosthène;1;nr
sosipater;1;nr
sortie;1;nom
sordide;1;adj
sontelles;1;nr
sonner;1;ver
somptueux;1;adj
sommeil;1;nom
sollicitude;1;nom
sodome;1;nr
signature;1;nom
signal;1;nom
servisse;1;nr
servezles;1;nr
serontils;1;nr
seratelle;1;nr
serace;1;nr
semeur;1;nom
sembler;1;ver
semaine;1;nom
sel;1;nom
secondement;1;adv
seconde;1;nom
scythe;1;adj
savant;1;nom
sauraton;1;nr
satisfaction;1;nom
salutaire;1;adj
sacré;1;adj
sacrilège;1;nom
sable;1;nom
sabbat;1;nom
rôle;1;nom
révèlera;1;nr
réveilletoi;1;nr
réunissiez;1;nr
réunion;1;nom
rétrécir;1;ver
résumer;1;ver
résultat;1;nom
résonner;1;ver
résistâmes;1;nr
réserve;1;nom
réputation;1;nom
répréhensible;1;adj
réprimande;1;nom
réponse;1;nom
répondratil;1;nr
réjouistoi;1;nr
réjouissant;1;adj
réintégration;1;nom
régénération;1;nom
régnât;1;nr
régnerontils;1;nr
région;1;nom
réfuter;1;ver
réclamer;1;ver
réciproque;1;adj
récemment;1;adv
réalité;1;nom
réaliser;1;ver
ruiner;1;ver
rufus;1;nr
rudement;1;adv
ronger;1;ver
rigueur;1;nom
ride;1;nom
reçoisle;1;nr
revêtons;1;nr
revoir;1;nom
revivront;1;nr
revientil;1;nr
reviennentils;1;nr
retournezvous;1;nr
ressuscitentils;1;nr
ressentir;1;ver
resplendir;1;ver
respecter;1;ver
requête;1;nom
reptile;1;nom
représenter;1;ver
représentant;1;nom
reprise;1;nom
renvoyer;1;ver
renommée;1;nom
reniera;1;nr
renfermer;1;ver
rendezvous;1;nr
rendeznous;1;nr
remonter;1;ver
relèvetoi;1;nr
relâcher;1;ver
relatif;1;adj
rejoindre;1;ver
rejet;1;nom
rein;1;nom
regardezvous;1;nr
refuser;1;ver
redressezle;1;nr
redresser;1;ver
redouter;1;ver
redoublement;1;nom
redevable;1;adj
recouvres;1;nr
recourir;1;ver
reconnaîtraton;1;nr
reconnaissezvous;1;nr
reconnaissant;1;adj
recommandeleur;1;nr
recommandeles;1;nr
recevezmoi;1;nr
recevezle;1;nr
rebâtir;1;ver
rebut;1;nom
ravager;1;ver
rapporteur;1;nom
rapporter;1;ver
rappelleleur;1;nr
rançon;1;nom
ranimer;1;ver
ramener;1;ver
raisonner;1;ver
raisonnement;1;nom
raisonnable;1;adj
question;1;nom
quartus;1;nr
pécherionsnous;1;nr
pâque;1;nom
purifionsnous;1;nr
puissiezvous;1;nr
puissentils;1;nr
pudeur;1;nom
pudens;1;nr
publiquement;1;adv
prévoyant;1;adj
prévention;1;nom
prévenance;1;nom
prétoire;1;nom
prétendre;1;ver
présider;1;ver
préserver;1;ver
présentement;1;adv
préparemoi;1;nr
préjudice;1;nom
préférer;1;ver
préférence;1;nom
précipitation;1;nom
précieux;1;adj
provenir;1;ver
protester;1;ver
prospérité;1;nom
proposer;1;ver
propos;1;nom
propitiatoire;1;adj
prophétisons;1;nr
prophétisiez;1;nr
promulguer;1;ver
projet;1;nom
profond;1;adj
profitesen;1;nr
professer;1;ver
procéder;1;ver
procès;1;nom
procurer;1;ver
proclamer;1;ver
privilège;1;nom
priver;1;ver
prison;1;nom
priscille;1;nr
presse;1;nom
pressant;1;adj
prescription;1;nom
prendratil;1;nr
prendraije;1;nr
pratiquezle;1;nr
pourvoyez;1;nr
poursuivre;1;ver
potier;1;nom
porteratelle;1;nr
poncer;1;ver
poisson;1;nom
pointlà;1;nr
poids;1;nom
pleuvoir;1;ver
planter;1;ver
plaisanterie;1;nom
pitié;1;nom
pilate;1;nr
pieusement;1;adv
phygelle;1;nr
phoebé;1;nr
phlégon;1;nr
philémon;1;nr
philète;1;nr
philosophie;1;nom
philologue;1;nom
philippiens;1;nr
pharisien;1;nom
pharaon;1;nom
peuton;1;nr
petitsenfants;1;nr
persévérant;1;adj
persécutais;1;nr
persuasif;1;adj
persistiez;1;nr
persister;1;ver
perside;1;nr
permanent;1;adj
perle;1;nom
perfectionnezvous;1;nr
pentecôte;1;nom
pensestu;1;nr
pendre;1;ver
peindre;1;ver
paître;1;ver
pays;1;nom
patrobas;1;nr
patriarche;1;nom
pasteur;1;nom
passionné;1;adj
passeraije;1;nr
partiel;1;adj
particulièrement;1;adv
participation;1;nom
parricide;1;adj
parletil;1;nr
parjure;1;nom
parfum;1;nom
parfaitement;1;adv
paresseux;1;adj
paresse;1;nom
pareil;1;adj
parchemin;1;nom
paradis;1;nom
paisiblement;1;adv
paisible;1;adj
outrance;1;nom
oublier;1;ver
otez;1;nr
osetil;1;nr
orgueilleux;1;adj
oracle;1;nom
opération;1;nom
opprobre;1;nom
opposé;1;nom
ombre;1;nom
olympe;1;nom
oiseux;1;adj
oint;1;nom
offensive;1;nom
odorat;1;nom
occupetoi;1;nr
obstacle;1;nom
observation;1;nom
obscur;1;adj
nérée;1;nr
négliger;1;ver
nécessité;1;nom
nymphas;1;nr
nubile;1;adj
nu;1;adj
nouveauté;1;nom
nouscar;1;nr
nourrice;1;nom
notezle;1;nr
noble;1;adj
nicopolis;1;nr
narcisse;1;nom
naissance;1;nom
méprisezvous;1;nr
ménagement;1;nom
médisant;1;nom
médisance;1;nom
médecin;1;nom
mystérieux;1;adj
mutuel;1;adj
murmure;1;nom
muraille;1;nom
mur;1;nom
multipliera;1;nr
muet;1;adj
mourraiton;1;nr
mourraitil;1;nr
mourant;1;nom
mordre;1;ver
moquer;1;ver
montrezleur;1;nr
montagne;1;nom
mondain;1;adj
momentanément;1;adv
moissonnons;1;nr
moissonnerons;1;nr
mois;1;nom
moeurs;1;nom
modeste;1;adj
mobile;1;nom
militaire;1;adj
milet;1;nr
meurtrier;1;nom
meurtre;1;nom
metsle;1;nr
metil;1;nr
mesurer;1;ver
mentionner;1;ver
mensonger;1;adj
menace;1;nom
maudire;1;ver
marchezvous;1;nr
marche;1;nom
manteau;1;nom
manifestement;1;adv
maltraiter;1;ver
malséant;1;adj
malignité;1;nom
malhonnête;1;adj
malfaiteur;1;nom
maintenir;1;ver
magie;1;nom
légèreté;1;nom
légume;1;nom
lystre;1;nr
luxure;1;nom
lutter;1;ver
lucius;1;nr
loïs;1;nr
loyauté;1;nom
longueur;1;nom
logement;1;nom
lit;1;nom
lion;1;nom
linus;1;nr
libérateur;1;nom
librement;1;adv
las;1;adj
largeur;1;nom
largesse;1;nom
lapider;1;ver
laodicéens;1;nr
laboureur;1;nom
justus;1;nr
justifions;1;nr
junias;1;nr
julie;1;nr
jugestu;1;nr
jugerions;1;nr
jugeraitil;1;nr
judaïser;1;ver
judaïque;1;adj
joyeux;1;adj
jouer;1;ver
jointure;1;nom
joint;1;adj
jean;1;nom
jason;1;nr
jannès;1;nr
jambrès;1;nr
jaloux;1;adj
ivre;1;adj
issue;1;nom
isolement;1;nom
isaï;1;nr
irritation;1;nom
invoquerontils;1;nr
inutilement;1;adv
intérieurement;1;adv
intrigant;1;adj
intimider;1;ver
intervenir;1;ver
interroger;1;ver
interpréter;1;ver
intention;1;nom
intempérants;1;nr
intelligible;1;adj
insulter;1;ver
instruisezvous;1;nr
instituer;1;ver
instance;1;nom
insondable;1;adj
insister;1;ver
insensible;1;adj
inscrire;1;ver
injure;1;nom
ingénieux;1;adj
ingrat;1;nom
infructueux;1;adj
influence;1;nom
infliger;1;ver
inexprimable;1;adj
indulgent;1;adj
indispositions;1;nr
indiquer;1;ver
indignement;1;adv
indignation;1;nom
indigent;1;nom
incontinence;1;nom
inconsidéré;1;adj
incertain;1;adj
incapable;1;adj
inanimé;1;adj
inaltérable;1;adj
inaccessible;1;adj
impénitent;1;adj
impuni;1;adj
impossible;1;adj
imposeton;1;nr
impatient;1;adj
impatience;1;nom
immortel;1;adj
immoler;1;ver
imaginer;1;ver
illyrie;1;nr
illuminer;1;ver
ignominie;1;nom
icone;1;nr
hôte;1;nom
hésitation;1;nom
hébreux;1;nom
hébreu;1;nom
hâtetoi;1;nr
huitième;1;nom
hospitalité;1;nom
horreur;1;nom
hommeslà;1;nr
hiérapolis;1;nr
heurter;1;ver
hermès;1;nom
hermogène;1;nr
hermas;1;nr
hardiment;1;adv
habitude;1;nom
habitation;1;nom
habit;1;nom
générosité;1;nom
généralement;1;adv
guérir;1;ver
gueule;1;nom
gros;1;adj
graver;1;ver
grandeur;1;nom
graisse;1;nom
gouverneur;1;nom
gouverner;1;ver
gosier;1;nom
gomorrhe;1;nr
glorifiée;1;nr
glorifionsnous;1;nr
glorifiiez;1;nr
glorifiestu;1;nr
glorifierais;1;nr
glisser;1;ver
gentil;1;adj
genslà;1;nr
gardetoi;1;nr
gardela;1;nr
gangrène;1;nom
galate;1;nom
gage;1;nom
futilité;1;nom
futelle;1;nr
furtivement;1;adv
fréquenter;1;ver
fréquemment;1;adv
froid;1;adj
franc;1;adj
frais;1;adj
fouler;1;ver
fortunatus;1;nr
fortifietoi;1;nr
forteresse;1;nom
fortement;1;adv
forgeron;1;nom
forcestu;1;nr
fontils;1;nr
fondation;1;nom
foin;1;nom
flétrissure;1;nom
fléchira;1;nr
flottant;1;adj
fleuve;1;nom
flatter;1;ver
flamme;1;nom
flambeau;1;nom
fixer;1;ver
fixassent;1;nr
filet;1;nom
fiancer;1;ver
ferionsnous;1;nr
fenêtre;1;nom
favorablement;1;adv
faute;1;nom
fatiguer;1;ver
fasciner;1;ver
falsifions;1;nr
faitesvous;1;nr
faitesle;1;nr
fait;1;nom
faisonsle;1;nr
faisle;1;nr
faiblir;1;ver
facilement;1;adv
exécuter;1;ver
extravaguer;1;ver
exterminateur;1;nom
expérience;1;nom
exposant;1;nom
existentelles;1;nr
existant;1;adj
exiger;1;ver
exigence;1;nom
exhortés;1;nr
exhortele;1;nr
excuser;1;ver
exciterai;1;nr
excessivement;1;adv
exaucer;1;ver
examinezvous;1;nr
exagérer;1;ver
exactement;1;adv
eunice;1;nr
eubulus;1;nr
etesvous;1;nr
estomac;1;nom
esquiver;1;ver
espéreront;1;nr
esclavage;1;nom
erreur;1;nom
errant;1;adj
envoyâtes;1;nr
envisager;1;ver
envieux;1;adj
entrée;1;nom
entretenezvous;1;nr
entourer;1;ver
enter;1;ver
entendrontils;1;nr
entendezvous;1;nr
enseignetelle;1;nr
enseigneles;1;nr
enseignant;1;nom
enrôler;1;ver
enrichissons;1;nr
enorgueillir;1;ver
engagement;1;nom
enfermer;1;ver
enfantes;1;nr
enfantant;1;nr
enfance;1;nom
endurer;1;ver
endurcir;1;ver
endurci;1;adj
encre;1;nom
enceinte;1;adj
emprisonnement;1;nom
employer;1;ver
empire;1;nom
emmener;1;ver
embrasser;1;ver
embarrasser;1;ver
ellemême;1;nr
efféminé;1;adj
effrayer;1;ver
efforcetoi;1;nr
effacer;1;ver
dévoué;1;adj
dévoiler;1;ver
détourné;1;adj
désobéissant;1;adj
désintéressé;1;adj
déshonorant;1;adj
désespérer;1;ver
désespoir;1;nom
déroberas;1;nr
dépouillé;1;adj
dépouillonsnous;1;nr
dépouillement;1;nom
déposition;1;nom
déployer;1;ver
dépens;1;nom
départir;1;ver
démonstration;1;nom
démangeaison;1;nom
déloyal;1;adj
délaissé;1;adj
dégoût;1;nom
déférence;1;nom
définir;1;ver
défensif;1;adj
défendre;1;ver
défaut;1;nom
décourager;1;ver
déclareleur;1;nr
déclaration;1;nom
décidément;1;adv
déchu;1;adj
déchaîner;1;ver
décent;1;adj
débordant;1;adj
débauche;1;nom
dusséje;1;nr
durement;1;adv
dur;1;adj
duplicité;1;nom
droitement;1;adv
doux;1;adj
douter;1;ver
doute;1;nom
douer;1;ver
dos;1;nom
donnezvous;1;nr
donneznous;1;nr
donnezleur;1;nr
donnetoi;1;nr
donneratil;1;nr
domicile;1;nom
domestique;1;nom
divin;1;adj
divertir;1;ver
diton;1;nr
ditesmoi;1;nr
ditelle;1;nr
distraction;1;nom
dissolutions;1;nr
dissimulation;1;nom
disputeur;1;nom
disposer;1;ver
dispenser;1;ver
disje;1;nr
disette;1;nom
disentils;1;nr
discuter;1;ver
discoureur;1;nom
discerniez;1;nr
discerner;1;ver
dirontils;1;nr
diratil;1;nr
diaconesse;1;nom
devancerons;1;nr
dessin;1;nom
demeuré;1;nom
demeurerionsnous;1;nr
danger;1;nom
damascéniens;1;nr
dalmatie;1;nr
césar;1;nom
célébrezle;1;nr
cédâmes;1;nr
cymbale;1;nom
crétois;1;adj
créateur;1;nom
crète;1;nr
cruel;1;adj
croissions;1;nr
croissant;1;nom
croirontils;1;nr
crispus;1;nr
cri;1;nom
crescens;1;nr
cousin;1;nom
couronner;1;ver
courbé;1;adj
coucher;1;ver
correspondre;1;ver
corpsne;1;nr
corporellement;1;nr
corporel;1;adj
corinthien;1;nom
corbeille;1;nom
conçoive;1;nr
convoiter;1;ver
convertiront;1;nr
convenablement;1;adv
contribution;1;nom
contredisants;1;nr
contrairement;1;adv
contradicteur;1;nom
continuer;1;ver
continence;1;nom
contentement;1;nom
content;1;adj
contempler;1;ver
conte;1;nom
conséquence;1;nom
consumer;1;ver
consulter;1;ver
constituer;1;ver
constance;1;nom
considérésquels;1;nr
conseiller;1;nom
conseil;1;nom
consacrer;1;ver
connussiez;1;nr
conjurons;1;nr
congé;1;nom
conformez;1;nr
confirmé;1;adj
confirmation;1;nom
confiele;1;nr
confesses;1;nr
conducteur;1;nom
condamnezles;1;nr
condamneratil;1;nr
condamnable;1;adj
concourir;1;ver
concitoyen;1;nom
compter;1;ver
compléter;1;ver
complu;1;adj
complet;1;adj
compatriote;1;nom
compatissant;1;adj
compassions;1;nr
compagnie;1;nom
commençonsnous;1;nr
comble;1;nom
colosse;1;nom
collègue;1;nom
clément;1;adj
clouer;1;ver
clin;1;nom
claudia;1;nr
clameur;1;nom
circonstance;1;nom
circonspection;1;nom
cilicie;1;nr
chéri;1;nom
chloé;1;nr
chien;1;nom
chezvous;1;nr
chevelure;1;nom
chemin;1;nom
chaussure;1;nom
chaume;1;nom
chaste;1;adj
chasse;1;nom
charbon;1;nom
champ;1;nom
chagrin;1;nom
ceuxlà;1;nr
ceuxci;1;nr
censure;1;nom
cenchrées;1;nr
celleci;1;nr
ceinture;1;nom
causeur;1;nom
causer;1;ver
caslà;1;nr
carpus;1;nr
carchose;1;nr
captiver;1;ver
capacité;1;nom
calomniateur;1;nom
cabale;1;nom
bénignité;1;nom
bélial;1;nr
broncher;1;ver
brigand;1;nom
breuvage;1;nom
brebis;1;nom
bouleverser;1;ver
boue;1;nom
bouclier;1;nom
boucherie;1;nom
borné;1;adj
blé;1;nom
blessant;1;adj
blasphémés;1;nr
blasphémée;1;nr
bienséant;1;adj
bienfait;1;nom
balayure;1;nom
baal;1;nr
aïeul;1;nom
aîné;1;adj
avorton;1;nom
aveugler;1;ver
aveugle;1;adj
avertissezle;1;nr
aventure;1;nom
avenir;1;nom
avarice;1;nom
avancé;1;adj
avancement;1;nom
aussitôt;1;adv
auratil;1;nr
auprès_des;1;nr
attribuer;1;ver
attendezvous;1;nr
attendelle;1;nr
athènes;1;nr
athlète;1;nom
atelle;1;nr
asyncrite;1;nr
assurer;1;ver
assurancelà;1;nr
assoupissement;1;nom
associé;1;nom
association;1;nom
assiéger;1;ver
assistant;1;nom
assemblage;1;nom
assaisonner;1;ver
aspic;1;nom
arétas;1;nr
artémas;1;nr
arrêter;1;ver
arrêt;1;nom
armée;1;nom
aristobule;1;nr
ardeur;1;nom
ardemment;1;adv
architecte;1;nom
archippe;1;nr
archange;1;nom
appuyer;1;ver
appui;1;nom
approuvé;1;adj
appliqué;1;adj
appliquetoi;1;nr
appliquer;1;ver
application;1;nom
apphia;1;nr
apostasie;1;nom
aplanissent;1;nr
apercevoir;1;ver
apellès;1;nr
anéantissonsnous;1;nr
anéantiratelle;1;nr
antérieurement;1;adv
animer;1;ver
angulaire;1;adj
angoisser;1;ver
andronicus;1;nr
ancêtre;1;nom
analogie;1;nom
amènele;1;nr
amplias;1;nr
amoindrissement;1;nom
amasses;1;nr
amasseras;1;nr
altérons;1;nr
allassions;1;nr
ajouter;1;ver
airain;1;nom
aimable;1;adj
aigrissez;1;nr
aider;1;ver
agréé;1;adj
agité;1;adj
agissant;1;adj
affligiez;1;nr
affliger;1;ver
affectionnezvous;1;nr
admirer;1;ver
administrateur;1;nom
actuel;1;adj
acquitter;1;ver
acquisition;1;nom
acheter;1;ver
achaïcus;1;nr
accusé;1;nom
accusation;1;nom
accueillezvous;1;nr
accueillezle;1;nr
accompagnezle;1;nr
accessible;1;adj
accepter;1;ver
abîme;1;nom
abus;1;nom
absurde;1;adj
abstinence;1;nom
absolument;1;adv
absolu;1;adj
abreuver;1;ver
abondât;1;nr
abondiez;1;nr
abondez;1;nr
abomination;1;nom
abominable;1;adj
abaissant;1;adj