être;2083;aux
de;2024;pre
la;1409;art_def
et;1272;con
avoir;1098;aux
vous;958;pro_per
que;943;pro_rel
qui;921;pro_rel
à;920;pre
ne;844;adv_sup
le;771;art_def
les;738;art_def
en;733;pre
l;723;art_def
nous;653;pro_per
dieu;563;nom
pour;539;pre
je;523;pro_per
pas;480;adv_sup
il;478;pro_per
par;455;pre
dans;426;pre
des;417;art_ind
christ;382;nom
mais;374;con
d;374;pre
un;369;art_ind
ce;365;pro_dem
qu;312;con
car;308;con
seigneur;267;nom
du;259;art_def
avec;255;pre
une;244;art_ind
si;238;con
comme;236;con
faire;235;ver_sup
c;230;pro_dem
jésus;210;nom
tous;207;pro_ind
afin;198;adv_sup
homme;187;nom
notre;174;adj_pos
ceux;174;pro_dem
j;165;pro_per
aussi;163;adv_sup
au;162;art_def
chose;157;nom
lui;153;pro_per
esprit;151;nom
celui;150;pro_dem
point;149;nom_sup
se;144;pro_per
grâce;144;pre
moi;139;pro_per
foi;135;nom
frère;134;nom
selon;132;pre
loi;130;nom
ils;130;pro_per
s;129;pro_per
mort;128;nom
tout;124;pro_ind
votre;120;adj_pos
son;120;adj_pos
sa;117;adj_pos
même;116;pro_ind
donc;114;con
dire;113;ver_sup
plus;111;adv_sup
non;106;pro_per
corps;101;nom
aux;100;art_def
toute;97;adj_ind
sur;97;pre
ni;95;con
ou;94;con
donner;91;ver
savoir;90;ver_sup
chair;87;nom
rendre;86;ver
tu;85;pro_per
oeuvre;84;nom
me;84;pro_per
leur;84;pro_per
bien;83;adv_sup
y;82;pro_per
mon;82;adj_pos
femme;82;nom
parole;80;nom
m;80;pro_per
saint;79;nom
péché;79;nom
toutes;78;pro_ind
gloire;78;nom
autres;77;pro_ind
seul;76;adj
connaître;76;ver
ainsi;75;adv_sup
vouloir;74;ver_sup
venir;74;ver
bon;74;adj_sup
évangile;71;nom
elle;69;pro_per
cette;67;adj_dem
cause;66;nom
vos;65;adj_pos
sans;65;pre
père;63;nom
recevoir;62;ver
pouvoir;62;ver_sup
parler;62;ver
cela;62;pro_dem
justice;61;nom
église;60;nom
mes;60;adj_pos
ces;60;adj_dem
enfant;59;nom
coeur;59;nom
vie;58;nom
écrire;56;ver
pourquoi;56;con
autre;56;pro_ind
personne;54;nom_sup
croire;54;ver_sup
parmi;53;pre
part;52;nom
ma;52;adj_pos
encore;52;adv_sup
voir;51;ver
toi;51;pro_per
maintenant;51;adv_sup
vivre;50;ver
devant;50;pre
vérité;49;nom
propre;49;adj
monde;49;nom
jour;49;nom
sujet;48;nom
effet;48;nom
paix;47;nom
glorifier;47;ver
on;46;pro_per
mettre;46;ver
manger;46;ver
leurs;46;adj_pos
devoir;46;ver_sup
charité;46;nom
sous;45;pre
sorte;45;nom
prendre;45;ver
or;45;con
devenir;45;ver
quelqu;43;nr
quand;43;con
puissance;43;nom
païen;43;nom
parce_que;43;con
appeler;43;ver
te;42;pro_per
ressusciter;42;ver
quelque;42;adj_ind
luimême;42;nr
chacun;42;pro_ind
saluer;41;ver
rien;41;pro_ind
fils;40;nom
temps;39;nom
ses;39;adj_pos
grand;39;adj
espérance;39;nom
don;39;nom
uns;38;pro_ind
lorsque;38;con
eux;38;pro_per
elles;38;pro_per
seulement;37;adv
jusqu;37;pre
chez;37;pre
mari;36;nom
aimer;36;ver
nos;35;adj_pos
aller;35;ver
manière;34;nom
dont;34;pro_rel
amour;34;nom
connaissance;33;nom
sauver;32;ver
contre;32;pre
apôtre;32;nom
volonté;31;nom
siècle;31;nom
sagesse;31;nom
membre;31;nom
vain;30;adj
ton;30;nom_sup
où;30;pro_rel
paul;29;nr
juif;29;nom
envers;29;pre
chercher;29;ver
beaucoup;29;adv_sup
agir;29;ver
égard;28;nom
nom;28;nom
joie;28;nom
exhorter;28;ver
esclave;28;nom
entre;28;pre
circoncire;28;ver
annoncer;28;ver
rester;27;ver
prier;27;ver
mal;27;adv_sup
langue;27;nom
juger;27;ver
garder;27;ver
après;27;pre
servir;26;ver
miséricorde;26;nom
milieu;26;nom
marcher;26;ver
fidèle;26;adj
envoyer;26;ver
t;25;pro_per
lettre;25;nom
apprendre;25;ver
travailler;24;ver
quelquesuns;24;nr
prière;24;nom
manifester;24;ver
entendre;24;ver
comment;24;con
spirituel;23;adj
promesse;23;nom
livrer;23;ver
lequel;23;pro_rel
justifier;23;ver
falloir;23;ver_sup
faible;23;adj
colère;23;nom
celle;23;pro_dem
trouver;22;ver
serviteur;22;nom
quelle;22;adj_int
intelligence;22;nom
vivant;21;adj
vers;21;pre
soumettre;21;ver
plusieurs;21;adj_ind
plein;21;pre
pensée;21;nom
moimême;21;nr
marier;21;ver
juste;21;adj_sup
conscience;21;nom
besoin;21;nom
autorité;21;nom
éternel;20;adj
toujours;20;adv_sup
terre;20;nom
regarder;20;ver
présent;20;adj
mystère;20;nom
mourir;20;ver
maison;20;nom
main;20;nom
estce;20;nr
enseigner;20;ver
déjà;20;ono
crainte;20;nom
concerner;20;ver
salut;19;ono
sage;19;adj
pur;19;adj
puisque;19;con
moins;19;adv_sup
ministère;19;nom
habiter;19;ver
boire;19;ver
action;19;nom
abraham;19;nr
réjouir;18;ver
plaire;18;ver
là;18;ono
fort;18;adj_sup
contraire;18;nom
aucun;18;adj_ind
arriver;18;ver
éprouver;17;ver
voici;17;pre
timothée;17;nr
tandis_que;17;con
supporter;17;ver
prêcher;17;ver
obtenir;17;ver
nouveau;17;nom
laisser;17;ver
israël;17;nr
honneur;17;nom
fois;17;nom
fermer;17;ver
détruire;17;ver
digne;17;adj
demeurer;17;ver
commettre;17;ver
avant;17;pre
vousmêmes;16;nr
user;16;ver
ta;16;adj_pos
souffrir;16;ver
remplir;16;ver
puis;16;con
premier;16;adj
plutôt;16;adv
obéir;16;ver
lumière;16;nom
juge;16;nom
espérer;16;ver
donnée;16;nom
consolation;16;nom
auprès_de;16;nr
attacher;16;ver
zèle;15;nom
recommander;15;ver
postérité;15;nom
peuple;15;nom
patience;15;nom
oeil;15;nom
nombre;15;nom
maître;15;nom
libre;15;adj
imputer;15;ver
fruit;15;nom
former;15;ver
désir;15;nom
doctrine;15;nom
consoler;15;ver
compagnon;15;nom
bonté;15;nom
bienaimés;15;nr
agréable;15;adj
témoignage;14;nom
tribulation;14;nom
tite;14;nr
royaume;14;nom
richesse;14;nom
prophète;14;nom
produire;14;ver
porter;14;ver
nousmêmes;14;nr
nation;14;nom
moyen;14;nom
montrer;14;ver
ministre;14;nom
mauvais;14;adj
macédoine;14;nom
honte;14;nom
deux;14;adj_num
circoncision;14;nom
charger;14;ver
atil;14;nr
ange;14;nom
reconnaître;13;ver
prédication;13;nom
peu;13;nom_sup
paraître;13;ver
offense;13;nom
occasion;13;nom
jugement;13;nom
incirconcis;13;adj
idole;13;nom
grec;13;nom
estil;13;nr
espèce;13;nom
entier;13;adj
douceur;13;nom
demander;13;ver
céleste;13;adj
conduire;13;ver
commandement;13;nom
chef;13;nom
bienaimé;13;nr
baptiser;13;ver
autrefois;13;pro_ind
aucune;13;adj_ind
accomplir;13;ver
établir;12;ver
ténèbres;12;nom
tristesse;12;nom
tomber;12;ver
tel;12;adj_ind
semer;12;ver
savezvous;12;nr
sauveur;12;nom
sang;12;nom
régner;12;ver
retenir;12;ver
quel;12;adj_int
penser;12;ver
passer;12;ver
parent;12;nom
nul;12;adj_ind
nuit;12;nom
naître;12;ver
lieu;12;nom
impudicité;12;nom
gens;12;nom
force;12;adj_ind
fin;12;nom
faiblesse;12;nom
désirer;12;ver
demeure;12;nom
créer;12;ver
confiance;12;nom
bouche;12;nom
alors;12;adv_sup
écriture;11;nom
utile;11;adj
tirer;11;ver
tels;11;adj_ind
sentiment;11;nom
révélation;11;nom
prophétie;11;nom
piété;11;nom
pierre;11;nom
pain;11;nom
orgueil;11;nom
ordre;11;nom
liberté;11;nom
irréprochable;11;adj
instruction;11;nom
euxmêmes;11;nr
ennemi;11;nom
délivrer;11;ver
croix;11;nom
couper;11;ver
condamner;11;ver
combattre;11;ver
bénir;11;ver
attrister;11;ver
arrivée;11;nom
édification;10;nom
témoin;10;nom
temple;10;nom
séparer;10;ver
souffrance;10;nom
soin;10;nom
service;10;nom
satan;10;nom
répandre;10;ver
revêtir;10;ver
quoique;10;con
quoi;10;pro_rel
périr;10;ver
péril;10;nom
puisqu;10;con
pourvoir;10;ver
porte;10;nom
permettre;10;ver
parvenir;10;ver
oui;10;adv_sup
obéissance;10;nom
manquer;10;ver
jérusalem;10;nr
insensé;10;adj
injustice;10;nom
ignorer;10;ver
glorieux;10;adj
folie;10;nom
ensuite;10;adv_sup
droit;10;nom
dispute;10;nom
depuis;10;pre
crucifier;10;ver
convoitise;10;nom
continuellement;10;adv
combat;10;nom
cieux;10;nom
ciel;10;nom
cependant;10;con
celles;10;pro_dem
avance;10;nom
autrement;10;adv
affermir;10;ver
édifier;9;ver
veuf;9;nom
vase;9;nom
trois;9;adj_num
travail;9;nom
toimême;9;nr
tenter;9;ver
tenir;9;ver
sentir;9;ver
sanctifier;9;ver
sainteté;9;nom
sain;9;adj
résurrection;9;nom
rapport;9;nom
présenter;9;ver
posséder;9;ver
pied;9;nom
peine;9;nom
partie;9;nom
pardonner;9;ver
moïse;9;nom
mieux;9;adv_sup
louange;9;nom
lien;9;nom
laquelle;9;pro_rel
jamais;9;adv_sup
jalousie;9;nom
instruire;9;ver
iniquité;9;nom
image;9;nom
héritier;9;nom
exposer;9;ver
détourner;9;ver
déclarer;9;ver
dernier;9;adj
considérer;9;ver
cet;9;adj_dem
assurance;9;nom
appartenir;9;ver
aliment;9;nom
vrai;8;adj
tête;8;nom
toutefois;8;adv_sup
table;8;nom
souvenir;8;ver
semblable;8;adj
révéler;8;ver
réconcilier;8;ver
rebelle;8;adj
raison;8;nom
querelle;8;nom
pécher;8;ver
persécuter;8;ver
persuader;8;ver
parfait;8;adj
nouvelle;8;adj
mêmes;8;pro_ind
mépriser;8;ver
mère;8;nom
monter;8;ver
miracle;8;nom
mesure;8;nom
lorsqu;8;con
lier;8;ver
libéralité;8;nom
impureté;8;nom
fondement;8;nom
faveur;8;nom
faux;8;adj
enseignement;8;nom
enflé;8;adj
dès;8;pre
domination;8;nom
disparaître;8;ver
dessein;8;nom
delà;8;adv
dehors;8;ono
craindre;8;ver
courir;8;ver
confier;8;ver
cacher;8;ver
avènement;8;nom
attendre;8;ver
affliction;8;nom
affection;8;nom
acte;8;nom
accorder;8;ver
abondance;8;nom
abandonner;8;ver
étranger;7;nom
état;7;nom
élu;7;nom
éloigner;7;ver
âme;7;nom
visage;7;nom
vin;7;nom
viande;7;nom
usage;7;nom
tant;7;adv_sup
séduire;7;ver
scandale;7;nom
sacrifier;7;ver
rédemption;7;nom
riche;7;adj
rejeter;7;ver
rappeler;7;ver
racheter;7;ver
quiconque;7;pro_rel
pécheur;7;nom
prêt;7;adj
prêchons;7;nr
présence;7;nom
prophétiser;7;ver
pratiquer;7;ver
persévérance;7;nom
perdre;7;ver
partir;7;ver
o;7;nom_sup
néanmoins;7;con
nature;7;nom
loin;7;adv_sup
lire;7;ver
levain;7;nom
jeune;7;adj
impur;7;adj
héritage;7;nom
gain;7;nom
famille;7;nom
faim;7;nom
face;7;nom
estimer;7;ver
ensemble;7;adv
empêcher;7;ver
empressement;7;nom
dépouiller;7;ver
docteur;7;nom
discours;7;nom
diriger;7;ver
céphas;7;nr
convenir;7;ver
charnel;7;adj
avantage;7;nom
autrui;7;pro_ind
audessus;7;nr
assister;7;ver
asseoir;7;ver
ancien;7;adj
affaire;7;nom
adam;7;nr
achaïe;7;nr
absent;7;adj
abord;7;nom
abonder;7;ver
abondamment;7;adv
éphèse;6;nr
élevé;6;adj
égarer;6;ver
éclat;6;nom
voile;6;nom
veiller;6;ver
tromper;6;ver
tes;6;adj_pos
terrestre;6;adj
telles;6;adj_ind
telle;6;adj_ind
surtout;6;adv_sup
suivre;6;ver
souvent;6;adv_sup
soeur;6;nom
sobre;6;adj
sinon;6;con
servitude;6;nom
saisir;6;ver
réjouissezvous;6;nr
récompense;6;nom
ruse;6;nom
revenir;6;ver
renverser;6;ver
prémices;6;nom
promettre;6;ver
progrès;6;nom
prix;6;nom
pratique;6;adj
portant;6;adj
pleurer;6;ver
plaisir;6;nom
peur;6;nom
persévérer;6;ver
pauvre;6;adj
passion;6;nom
participer;6;ver
ouvrir;6;ver
odeur;6;nom
nécessaire;6;adj
méchant;6;adj
mortel;6;nom
modèle;6;nom
mentir;6;ver
lors;6;adv_sup
langage;6;nom
justification;6;nom
invisible;6;adj
inquiéter;6;ver
informer;6;ver
impudique;6;adj
impie;6;adj
imitateur;6;nom
ici;6;adv_sup
hériter;6;ver
honorer;6;ver
haut;6;adj
gagner;6;ver
fortifier;6;ver
exercer;6;ver
envie;6;nom
dormir;6;ver
division;6;nom
descendre;6;ver
cupidité;6;nom
conjurer;6;ver
conduite;6;nom
condamnation;6;nom
comprendre;6;ver
communion;6;nom
commencer;6;ver
changer;6;ver
capable;6;adj
autant;6;adv_sup
auparavant;6;adv_sup
aspirer;6;ver
approuver;6;ver
apparence;6;nom
apollos;6;nr
an;6;nom_sup
alliance;6;nom
aije;6;nr
adversaire;6;nom
adultère;6;nom
ôter;5;ver
éviter;5;ver
épreuve;5;nom
épargner;5;ver
écouter;5;ver
vocation;5;nom
vierge;5;adj
victoire;5;nom
ventre;5;nom
transgression;5;nom
survenir;5;ver
supérieur;5;adj
subsister;5;ver
sortir;5;ver
signe;5;nom
science;5;nom
sanctification;5;nom
salaire;5;nom
sacrifice;5;nom
résolution;5;nom
résister;5;ver
réprouvé;5;nom
règle;5;nom
roi;5;nom
retrancher;5;ver
reposer;5;ver
renier;5;ver
racine;5;nom
quelles;5;adj_int
pureté;5;nom
puissant;5;adj
préparer;5;ver
précédemment;5;adv
près_de;5;adv
provoquer;5;ver
prochain;5;adj
prisonnier;5;nom
preuve;5;nom
premièrement;5;adv
piège;5;nom
peutêtre;5;nr
persécution;5;nom
perdition;5;nom
ouvrier;5;nom
oser;5;ver
opérer;5;ver
olivier;5;nom
offrir;5;ver
observer;5;ver
noncroyant;5;nr
nommer;5;ver
nombreux;5;adj
mériter;5;ver
méchanceté;5;nom
motif;5;nom
moissonner;5;ver
modéré;5;nom
louer;5;ver
longtemps;5;adv_sup
lever;5;ver
jouir;5;ver
intérêt;5;nom
infidèle;5;nom
incrédulité;5;nom
incirconcision;5;nr
imposer;5;ver
immortalité;5;nom
humilité;5;nom
hui;5;nom
hors;5;pre
honnête;5;adj
heureux;5;adj
heure;5;nom
haïr;5;ver
glorifierai;5;nr
fonder;5;ver
excellence;5;nom
entendement;5;nom
détresse;5;nom
désordre;5;nom
dérober;5;ver
démon;5;nom
disposition;5;nom
diable;5;ono
culte;5;nom
créature;5;nom
création;5;nom
croyant;5;nom
couronne;5;nom
coupable;5;adj
corruptible;5;adj
contribuer;5;ver
conserver;5;ver
commun;5;adj
chute;5;nom
choisir;5;ver
chaîne;5;nom
chaque;5;adj_ind
chanter;5;ver
cesser;5;ver
cesse;5;nom
calomnie;5;nom
bâtir;5;ver
branche;5;nom
bientôt;5;adv
barnabas;5;nr
baptême;5;nom
avis;5;nom
aujourd;5;nr
augmenter;5;ver
assistance;5;nom
asservir;5;ver
arme;5;nom
apparaître;5;ver
anéantir;5;ver
annonce;5;nom
affranchi;5;nom
adoption;5;nom
achoppement;5;nom
achever;5;ver
accès;5;nom
accompagner;5;ver
abstenir;5;ver
évêque;4;nom
évident;4;adj
élection;4;nom
vôtre;4;pro_pos
véritablement;4;adv
voyage;4;nom
voleur;4;nom
visible;4;adj
violent;4;adj
ville;4;nom
tychique;4;nr
trésor;4;nom
trouble;4;nom
trompette;4;nom
troisième;4;adj
tremblement;4;nom
tranquilliser;4;ver
tour;4;nom
tort;4;nom
surprendre;4;ver
supplication;4;nom
soutenir;4;ver
source;4;nom
solide;4;adj
semence;4;nom
secret;4;nom
sceau;4;nom
réunir;4;ver
résoudre;4;ver
réserver;4;ver
régler;4;ver
réconciliation;4;nom
ruine;4;nom
rudiment;4;nom
rompre;4;ver
revêtezvous;4;nr
reprendre;4;ver
repos;4;nom
repentance;4;nom
renouveler;4;ver
renoncer;4;ver
remporter;4;ver
recherche;4;nom
prétexte;4;nom
prédicateur;4;nom
prédestiner;4;ver
précepte;4;nom
profondeur;4;nom
profession;4;nom
profane;4;adj
plénitude;4;nom
pleinement;4;adv
plante;4;nom
placer;4;ver
passager;4;nom
ordonner;4;ver
ordonnance;4;nom
opposer;4;ver
ontils;4;nr
occuper;4;ver
objet;4;nom
nourriture;4;nom
nourrir;4;ver
naturel;4;adj
médiateur;4;nom
mille;4;adj_num
mer;4;nom
mention;4;nom
mensonge;4;nom
meilleur;4;adj
manifestation;4;nom
malédiction;4;nom
magistrat;4;nom
livre;4;nom
limite;4;nom
laodicée;4;nr
judée;4;nr
jourlà;4;nr
jacques;4;nom
invoquer;4;ver
instruit;4;adj
inimitié;4;nom
infâme;4;adj
impiété;4;nom
ignorance;4;nom
humain;4;adj
honteux;4;adj
hardiesse;4;nom
gratuitement;4;adv
grain;4;nom
genou;4;nom
foule;4;nom
fou;4;adj
fonction;4;nom
fille;4;nom
feu;4;nom
exister;4;ver
exemple;4;nom
estàdire;4;nr
estu;4;nr
entièrement;4;adv
enrichir;4;ver
enlever;4;ver
enfantement;4;nom
efforcer;4;ver
désobéissance;4;nom
déshonorer;4;ver
dépendre;4;ver
défense;4;nom
douleur;4;nom
diversité;4;nom
discussion;4;nom
destruction;4;nom
destiner;4;ver
debout;4;adv_sup
cupide;4;adj
corrompre;4;adj
corinthe;4;nom
conviction;4;nom
convenable;4;adj
convaincre;4;ver
confus;4;adj
conformément;4;adv
compte;4;nom
combler;4;ver
combien;4;adv_sup
ceci;4;pro_dem
captif;4;nom
bénédiction;4;nom
but;4;nom
briller;4;ver
bonheur;4;nom
beau;4;adj
barbare;4;nom
baiser;4;ver
avonsnous;4;nr
avancer;4;ver
autel;4;nom
attester;4;ver
assemblée;4;nom
assembler;4;ver
asie;4;nr
argent;4;nom
ardent;4;adj
approcher;4;ver
apparition;4;nom
année;4;nom
animosité;4;nom
animal;4;nom
anathème;4;nom
air;4;nom
adresser;4;ver
adresse;4;nom
accueillir;4;ver
acception;4;nom
êtesvous;3;nr
étoile;3;nom
éternellement;3;adv
ésaïe;3;nr
épée;3;nom
épaphras;3;nr
élève;3;nom
égal;3;adj
édifice;3;nom
éclater;3;ver
échapper;3;ver
âge;3;nom
vôtres;3;pro_pos
volontiers;3;adv_sup
voilé;3;adj
voie;3;nom
vil;3;adj
vif;3;adj
vieillard;3;nom
vieil;3;adj
vertu;3;nom
vengeance;3;nom
utilité;3;nom
tuer;3;ver
trop;3;adv_sup
tribunal;3;nom
transformer;3;ver
tourner;3;ver
tiens;3;ono
tentation;3;nom
tandis_qu;3;con
taire;3;ver
superflu;3;adj
suivant;3;pre
suisje;3;nr
suffire;3;ver
stéphanas;3;nr
soumission;3;nom
souiller;3;ver
sonde;3;nom
soif;3;nom
situation;3;nom
sincère;3;adj
simplicité;3;nom
simple;3;adj
silvain;3;nr
secourir;3;ver
satisfaire;3;ver
saluezvous;3;nr
répudier;3;ver
répondre;3;ver
réellement;3;adv
réduire;3;ver
réciproquement;3;adv
rébellion;3;nom
rome;3;nr
rocher;3;nom
retourner;3;ver
reprocher;3;ver
repentir;3;ver
repas;3;nom
regard;3;nom
recueillir;3;ver
rechercher;3;ver
ravisseur;3;nom
rang;3;nom
quitter;3;ver
pâte;3;nom
punir;3;ver
publier;3;ver
prouver;3;ver
prononcer;3;ver
prodige;3;nom
privé;3;adj
principalement;3;adv
prescrire;3;ver
premierné;3;nr
pousser;3;ver
possible;3;adj
poser;3;ver
plupart;3;adv_sup
place;3;nom
perte;3;nom
perfection;3;nom
pendant;3;pre
partout;3;adv_sup
particulier;3;adj
parfaire;3;ver
ouvrage;3;nom
outrage;3;nom
oreille;3;nom
opinion;3;nom
nuée;3;nom
nudité;3;nom
noncroyants;3;nr
mot;3;nom
moment;3;nom
moindre;3;adj_sup
menteur;3;nom
marquer;3;ver
marque;3;nom
marc;3;nom
manifeste;3;adj
malice;3;nom
malade;3;adj
légitime;3;adj
luc;3;nr
longanimité;3;nom
lesquels;3;pro_rel
larme;3;nom
joug;3;nom
israélite;3;nom
isaac;3;nr
irrépréhensibles;3;nr
irriter;3;ver
inviter;3;ver
inutile;3;adj
intérieur;3;nom
interprète;3;nom
intercéder;3;ver
intelligent;3;adj
injuste;3;adj
inférieur;3;adj
incrédule;3;adj
incorruptible;3;adj
incorruptibilité;3;nom
impôt;3;nom
importer;3;ver
ignorant;3;adj
idolâtrie;3;nom
idolâtre;3;nom
hypocrisie;3;nom
honorable;3;adj
honnêteté;3;nom
hiver;3;nom
hauteur;3;nom
génération;3;nom
gré;3;nom
gratuit;3;adj
galatie;3;nr
fuir;3;ver
foutre;3;ver
forme;3;nom
fléchir;3;ver
fidélité;3;nom
favorable;3;adj
fable;3;nom
exprimer;3;ver
exhortation;3;nom
excès;3;nom
enté;3;nr
entrer;3;ver
entrailles;3;nom
ensevelir;3;ver
enivrer;3;ver
engager;3;ver
enfin;3;adv_sup
endurcissement;3;nom
encourager;3;ver
emporter;3;ver
désormais;3;adv
déshonnête;3;adj
dépôt;3;nom
dépourvu;3;adj
démas;3;nr
déguiser;3;ver
dégager;3;ver
droite;3;nom
dironsnous;3;nr
dignité;3;nom
différence;3;nom
diacre;3;nom
destinée;3;nom
dedans;3;adv_sup
david;3;nr
davantage;3;adv_sup
couvrir;3;ver
cours;3;nom
courage;3;nom
coup;3;nom
corruption;3;nom
convertir;3;ver
contrée;3;nom
consister;3;ver
considération;3;nom
complaire;3;ver
compassion;3;nom
comparer;3;ver
communiquer;3;ver
commencement;3;nom
cinq;3;adj_num
cheveu;3;nom
certaine;3;adj_ind
captivité;3;nom
cantique;3;nom
calamité;3;nom
brûler;3;ver
bois;3;nom
boeuf;3;nom
blâmer;3;ver
bienveillant;3;adj
bienheureux;3;adj
bienfaisance;3;nom
bienaimée;3;nr
avezvous;3;nr
avertissement;3;nom
auprès;3;pre
attirer;3;ver
atteindre;3;ver
assujettir;3;ver
assigner;3;ver
arroser;3;ver
arrogant;3;adj
arracher;3;ver
aquilas;3;nr
appel;3;nom
apostolat;3;nom
ami;3;nom
amener;3;ver
affligé;3;adj
adorer;3;ver
adonner;3;ver
accuser;3;ver
accomplissement;3;nom
accompli;3;adj
accabler;3;ver
abondant;3;adj
évangéliste;2;nom
éraste;2;nr
épaphrodite;2;nr
égarement;2;nom
égalité;2;nom
également;2;adv
éclairer;2;ver
ébranler;2;ver
âgé;2;adj
zélé;2;adj
vêtir;2;ver
volupté;2;nom
volontaire;2;adj
voix;2;nom
voilà;2;pre
voiler;2;ver
vive;2;ono
vision;2;nom
vieux;2;adj
victime;2;nom
verge;2;nom
vendre;2;ver
vanter;2;ver
vanité;2;nom
unité;2;nom
unir;2;ver
uniquement;2;adv
témoigner;2;ver
très;2;adv_sup
troupeau;2;nom
troubler;2;ver
trompeur;2;adj
tromperie;2;nom
troas;2;nr
tribut;2;nom
tribu;2;nom
traverser;2;ver
travers;2;nom
transporter;2;ver
transgresses;2;nr
tranquille;2;adj
traiter;2;ver
tradition;2;nom
trace;2;nom
toucher;2;ver
thessalonique;2;nr
thessaloniciens;2;nr
tendre;2;ver
temporel;2;adj
tard;2;adv_sup
tache;2;nom
sévérité;2;nom
séduction;2;nom
séducteur;2;nom
susciter;2;ver
surpasser;2;ver
surmonter;2;ver
surabondé;2;nr
suppléer;2;ver
supplier;2;ver
stérile;2;adj
spectacle;2;nom
souvenezvous;2;nr
soupirer;2;ver
sontils;2;nr
sommesnous;2;nr
solidement;2;adv
soleil;2;nom
soldat;2;nom
soimême;2;nr
sion;2;nr
sincérité;2;nom
sincèrement;2;adv
sinaï;2;nr
silence;2;nom
serpent;2;nom
seronsnous;2;nr
seratil;2;nr
seraitil;2;nr
seraitelle;2;nr
seraisje;2;nr
sein;2;nom
secte;2;nom
secours;2;nom
second;2;adj
scellé;2;nom
scandaliser;2;ver
sauvage;2;adj
sara;2;nom
saistu;2;nr
saisissant;2;adj
sachezle;2;nr
réveiller;2;ver
rétribution;2;nom
répéter;2;ver
rémission;2;nom
rébecca;2;nom
route;2;nom
rougir;2;ver
reçussions;2;nr
revête;2;nr
retour;2;nom
retentir;2;ver
reprendsles;2;nr
repousser;2;ver
repenti;2;adj
renouvellement;2;nom
renfermé;2;adj
rencontre;2;nom
remettre;2;ver
relation;2;nom
rejeton;2;nom
recommandation;2;nom
recommandable;2;adj
ravir;2;ver
rassasier;2;ver
raser;2;ver
rapprocher;2;ver
ramasser;2;ver
raconter;2;ver
race;2;nom
quoiqu;2;nr
quelquesunes;2;nr
quelques;2;adj_ind
quatorze;2;adj_num
quant;2;nom_sup
quadrupède;2;nom
pédagogue;2;nom
purifier;2;ver
punition;2;nom
puissamment;2;con
psaume;2;nom
près;2;pre
prostitué;2;nom
promptement;2;adv
promis;2;adj
proie;2;nom
profit;2;nom
prisca;2;nr
prince;2;nom
presser;2;ver
portion;2;nom
plonger;2;ver
plaindre;2;ver
plaider;2;ver
pire;2;adj
philippes;2;nr
perverti;2;adj
pervers;2;adj
persécuteur;2;nom
persuasion;2;nom
pernicieux;2;adj
perfectionnement;2;nom
payer;2;ver
pauvreté;2;nom
patient;2;nom
partager;2;ver
pareillement;2;adv
pardonnezvous;2;nr
pardessus;2;nom
pacifique;2;adj
ouïe;2;nom
outrageux;2;adj
onésiphore;2;nr
onésime;2;nr
oisif;2;adj
oiseau;2;nom
offrande;2;nom
obéissant;2;adj
obscurcir;2;ver
nôtre;2;pro_pos
néant;2;nom
nulle;2;adj_ind
noncroyante;2;nr
naufrage;2;nom
naturellement;2;adv
méprisestu;2;nr
méprisable;2;adj
mépris;2;nom
mémoire;2;nom
médisantes;2;nr
médire;2;ver
murmurer;2;ver
multiplier;2;ver
mont;2;nom
modestie;2;nom
miroir;2;nom
mener;2;ver
maudit;2;adj
masse;2;nom
marché;2;nom
malin;2;adj
malheureux;2;adj
malheur;2;nom
malgré;2;pre
maladie;2;nom
macédoniens;2;nr
léger;2;adj
lèvre;2;nom
làdessus;2;nr
lutte;2;nom
lune;2;nom
long;2;adj
libation;2;nom
lesquelles;2;pro_rel
lecture;2;nom
laver;2;ver
lasser;2;ver
lait;2;nom
laissezvous;2;nr
labourer;2;ver
judaïsme;2;nom
jeûner;2;ver
jeunesse;2;nom
jeter;2;ver
jadis;2;adv_sup
jacob;2;nom
ivrognerie;2;nom
ivrogne;2;nom
issu;2;adj
irrépréhensible;2;nr
irréligieux;2;adj
inébranlable;2;adj
introduire;2;ver
interprétation;2;nom
instrument;2;nom
instant;2;nom
inspirer;2;ver
inspiration;2;nom
inquiétude;2;nom
injustement;2;adv
infirmité;2;nom
infirme;2;nom
infiniment;2;adv
infini;2;adj
inexcusable;2;adj
ineffable;2;adj
indigne;2;adj
inconnu;2;nom
incompréhensible;2;adj
imposteur;2;nom
imposition;2;nom
imiter;2;ver
ignorezvous;2;nr
idolâtrer;2;ver
hyménée;2;nom
hymne;2;nom
humilier;2;ver
humiliation;2;nom
humble;2;adj
hospitalier;2;adj
honnêtement;2;adv
hautain;2;adj
harpe;2;nom
généalogie;2;nom
gémissons;2;nr
guérison;2;nom
grandir;2;ver
glorifies;2;nr
gaïus;2;nr
fête;2;nom
fraude;2;nom
fraternel;2;adj
frapper;2;ver
fournir;2;ver
fortifiezvous;2;nr
forcer;2;ver
flûte;2;nom
flatteur;2;adj
finir;2;ver
figure;2;nom
fermeté;2;nom
fardeau;2;nom
fanfaron;2;nom
faitil;2;nr
exécution;2;nom
extérieur;2;nom
extrême;2;adj
extrémité;2;nom
exprès;2;adj
expressément;2;adv
expression;2;nom
exhortezvous;2;nr
exercice;2;nom
exciter;2;ver
excessif;2;adj
excepté;2;pre
exceller;2;ver
excellent;2;adj
examiner;2;ver
eve;2;nr
estelle;2;nr
espagne;2;nr
entés;2;nr
entraîner;2;ver
enraciné;2;adj
enquérir;2;ver
engloutir;2;ver
engendrer;2;ver
enfler;2;ver
enflammé;2;adj
emparer;2;ver
emmuselleras;2;nr
efficacité;2;nom
efficace;2;adj
eau;2;nom
dévorer;2;ver
détacher;2;ver
désobéir;2;ver
désert;2;nom
dépenser;2;ver
dépasser;2;ver
départ;2;nom
découvrir;2;ver
décider;2;ver
duquel;2;pro_rel
double;2;adj
donnelui;2;nr
dominer;2;ver
dix;2;adj_num
divinité;2;nom
diverses;2;adj_ind
distribuer;2;ver
distinguer;2;ver
distinction;2;nom
distinct;2;adj
dissolution;2;nom
dispensation;2;nom
dispensateur;2;nom
discernement;2;nom
différer;2;ver
différend;2;nom
difficile;2;adj
dessus;2;adv_sup
damas;2;nom
côté;2;nom
célébrer;2;ver
cuirasse;2;nom
croître;2;ver
crier;2;ver
course;2;nom
corrompu;2;adj
corriger;2;ver
coordonner;2;ver
contredire;2;ver
contrainte;2;nom
contraindre;2;ver
continuel;2;adj
contester;2;ver
conséquent;2;adj
consolezvous;2;nr
consentir;2;ver
confusion;2;nom
conformité;2;nom
conforme;2;adj
confondre;2;ver
confirmer;2;ver
confession;2;nom
confesser;2;ver
conduisezvous;2;nr
condescendance;2;nom
concevoir;2;ver
comparaître;2;ver
communication;2;nom
combattant;2;nom
colonne;2;nom
collecte;2;nom
cohéritier;2;nom
cité;2;nom
châtiment;2;nom
châtier;2;ver
cher;2;adj
certains;2;adj_ind
certaines;2;adj_ind
cents;2;adj_num
celuilà;2;nr
casque;2;nom
cas;2;nom
calomnier;2;ver
bête;2;nom
blasphémer;2;ver
blasphémateur;2;nom
bienséance;2;nom
benjamin;2;nom
battre;2;ver
avertir;2;ver
auxquels;2;pro_rel
attente;2;nom
astucieux;2;adj
astu;2;nr
arrhe;2;nom
aristarque;2;nom
argile;2;nom
arabie;2;nr
apprécier;2;ver
approbation;2;nom
apporter;2;ver
antioche;2;nr
annuler;2;ver
annonçasse;2;nr
animé;2;adj
angoisse;2;nom
amertume;2;nom
amen;2;ono
ambassadeur;2;nom
amasser;2;ver
alexandre;2;nr
aiguillon;2;nom
aide;2;nom
agar;2;nr
affranchir;2;ver
affirmer;2;ver
affectionner;2;ver
acquérir;2;ver
accueil;2;nom
accroissement;2;nom
accord;2;nom
abuser;2;ver
abstenezvous;2;nr
absence;2;nom
abattre;2;ver