izan;2094;aux
eta;1413;con
ez;968;pre
ere;500;con
bera;411;art_def
ni;341;pro
guzti;279;art_def
gu;273;pro
bat;258;art_def
hau;254;art_def
baina;196;con
hori;191;art_def
zuek;179;pro
dena;140;art_def
baizik;129;con
zu;127;pro
beste;126;art_def
arte;105;adv_sup
neu;98;pro
bai;94;pre
hura;93;art_def
esker;89;adv_sup
beraz;87;con
ari;76;aux
inor;71;pro
ordea;63;con
berak;62;art_def
horiek;58;art_def
nor;53;pro
zer;52;art_def
berriz;51;con
edo;50;con
nahiz;49;con
elkar;48;pro
haiek;47;art_def
hots;46;con
arabera;45;adv_sup
zeu;44;pro
asko;43;art_def
ezer;42;pro
batzuk;39;art_def
zaitezte;38;aux
gehiago;38;art_def
bitart;37;adv_sup
arren;36;con
geu;33;pro
zeren;32;con
hauek;31;art_def
duzu;31;aux
lehen;28;art_def
berau;28;art_def
gaitu;25;aux
ezik;25;con
aurka;25;adv_sup
buruz;24;adv_sup
norbait;22;pro
nau;21;pro
dadin;20;art_def
barru;20;adv_sup
alegia;20;con
zein;19;art_def
zaituzte;19;aux
ezazue;19;aux
ala;19;con
lehenengo;18;art_def
edota;18;con
bi;18;art_def
akikan;18;aux
zerbait;17;pro
dezata;17;aux
bezalako;17;adv_sup
daiteu;16;aux
baldin;16;con
bestela;15;con
azken;15;art_def
gaitezen;14;aux
gainera;14;con
bila;14;adv_sup
oro;13;art_def
ikan;13;aux
edozein;13;art_def
ugari;12;art_def
itzazue;12;aux
erein;12;art_def
beraiek;12;pro
natzaizue;11;aux
kontra;11;adv_sup
harek;11;art_def
badakizue;11;aux
hiru;10;art_def
egizue;10;aux
baitugu;10;aux
zenbait;9;art_def
omen;9;pre
nitu;9;aux
baitut;9;aux
aldiz;9;con
izi;8;aux
gaituzte;8;aux
duten;8;aux
aitzitik;8;con
zinetu;7;aux
zigun;7;aux
zenbat;7;art_def
hainbeste;7;art_def
gehien;7;art_def
bit;7;adv_sup
bazarete;7;aux
zaitzatu;6;aux
testigu;6;aux
norbera;6;pro
nadin;6;aux
hurbil;6;adv_sup
dezake;6;aux
dezada;6;aux
behartsu;6;art_def
aurkako;6;adv_sup
ukzkion;5;aux
ordez;5;adv_sup
kontrako;5;adv_sup
kanpo;5;adv_sup
hirugarren;5;art_def
gutxi;5;art_def
ezakekan;5;aux
duzuena;5;art_def
berorren;5;art_def
berbera;5;art_def
berauek;5;art_def
behintzat;5;con
zid;4;aux
niregandik;4;pro
nauzue;4;aux
mila;4;art_def
izkikan;4;aux
iokan;4;aux
iitakn;4;aux
gutxiago;4;art_def
gisa;4;adv_sup
ditzala;4;aux
dagokia;4;aux
bazaio;4;aux
balute;4;aux
zuten;3;aux
zakan;3;aux
zaiteu;3;aux
nindun;3;aux
izaizkn;3;aux
guregandik;3;pro
gora;3;adv_sup
daitezke;3;aux
dagoenak;3;art_def
besterak;3;con
barren;3;adv_sup
baituzue;3;aux
baitiote;3;aux
baitakit;3;pro
baduzue;3;aux
zutenek;2;aux
zuk;2;pro
zizkida;2;aux
zidatu;2;aux
zeintzuk;2;pro
zazpi;2;art_def
zaituda;2;aux
za;2;aux
uztenekan;2;aux
ondoan;2;adv_sup
nintzaiek;2;aux
nazazue;2;aux
natzaio;2;aux
natzain;2;aux
inguru;2;adv_sup
iezaiozue;2;aux
idn;2;aux
horretarako;2;art_def
horrenbeste;2;art_def
har;2;art_def
hamar;2;art_def
hamalau;2;art_def
gintezen;2;con
gehiegi;2;art_def
franko;2;art_def
egiozue;2;aux
dizkio;2;aux
dizkia;2;aux
ditudala;2;aux
dirau;2;aux
diezaia;2;aux
bost;2;art_def
bitarteko;2;adv_sup
bihurtzeraino;2;art_def
bigarren;2;art_def
bezan;2;aux
best;2;art_def
beron;2;art_def
bazaituzte;2;aux
baza;2;aux
bana;2;art_def
baitituzue;2;aux
baitie;2;aux
badizuet;2;aux
zortzi;1;art_def
zizuetu;1;aux
zizta;1;con
zintuztetu;1;aux
zidan;1;aux
zidal;1;aux
zertxobait;1;pro
zenuke;1;adv_sup
zenidan;1;aux
zaituztegul;1;aux
zaitezke;1;aux
zaidal;1;aux
zabiltzate;1;aux
ukzkien;1;aux
pertson;1;art_def
ostera;1;con
nuela;1;aux
nornahi;1;pro
norbaitzu;1;pro
nendin;1;aux
naukazue;1;aux
lezake;1;aux
lehehenbiziko;1;art_def
laurehun;1;art_def
larunbata;1;art_def
jien;1;aux
jidan;1;aux
jendear;1;art_def
jakizue;1;aux
izkidakan;1;aux
iterri;1;aux
iezakan;1;aux
idakan;1;aux
hozka;1;art_def
hortaz;1;con
horien;1;art_def
honek;1;art_def
hirurogei;1;art_def
heura;1;pro
hemeretzi;1;art_def
handiagoko;1;art_def
hamaika;1;art_def
hamabost;1;art_def
hainbat;1;art_def
guztio;1;art_def
guztiek;1;art_def
gizonar;1;art_def
gatzaizkio;1;aux
gaituzue;1;aux
etsaiek;1;pro
esadazue;1;aux
eramatzadan;1;aux
emaiozue;1;aux
ehun;1;art_def
edozer;1;pro
edbiltzi;1;aux
dizkizud;1;aux
dizkigun;1;aux
diezad;1;aux
dakiena;1;art_def
bostehun;1;art_def
besteri;1;art_def
besteek;1;art_def
berek;1;art_def
bederen;1;con
bedeinka;1;art_def
bazaizkio;1;aux
bazait;1;aux
basapizti;1;art_def
banau;1;art_def
bakoitza;1;art_def
baitzarete;1;aux
baitzait;1;aux
baititut;1;aux
baititugu;1;aux
baitauzkate;1;aux
baikaitezke;1;aux
badituzue;1;aux
badituzte;1;aux
badaukazula;1;aux
aukatu;1;aux
atorkikan;1;aux
arkan;1;aux
aitukan;1;aux
aito;1;art_def
agikan;1;aux