"";"Coord. facteur 1";"Coord. facteur 2";"Coord. facteur 3";"Coord. facteur 4";"Corr. facteur 1";"Corr. facteur 2";"Corr. facteur 3";"Corr. facteur 4";"COR -facteur 1";"COR -facteur 2";"COR -facteur 3";"COR -facteur 4";"CTR -facteur 1";"CTR -facteur 2";"CTR -facteur 3";"CTR -facteur 4";"mass";"chi.distance";"inertie"
"nom";-1,46919163014162;0,91590449910097;1,003706639299;0,560823568283232;-0,706917912431409;0,440697648426284;0,482944625867764;0,269846504703338;0,743684522184852;0,124902183271029;0,116903544942895;0,0145097496012236;0,40578678598284;0,157703522607393;0,1893889356466;0,0591280453182162;0,18799271044495;0,0933950284022946;0,00163979110598863
"nr";-2,39124877915112;-4,46603719405178;0,460696742938005;-1,5782922872353;-0,448972286729109;-0,838527111487955;0,08649876665654;-0,29633449413762;0,387860267872216;0,584666533019693;0,00484884486331038;0,0226243542447793;0,194712034188537;0,679184776043195;0,00722725794233839;0,0848238811266641;0,0340520506992649;0,210487737120737;0,00150867908504332
"ver";-0,344646570102541;1,42869610894067;-1,02433982379014;-3,18596519331652;-0,0942925175581918;0,390879714536336;-0,280251101270352;-0,871654340970826;0,0437757506033803;0,325089690530111;0,130243491391116;0,500891067475392;0,00827190571537971;0,142146895107382;0,0730711207838894;0,706870256127443;0,069639822265905;0,0903018909071648;0,000567873160437653
"sw";0,65316442183346;-0,176219546045765;0,0351455658127107;0,15289681785523;0,940521027920516;-0,253746504014127;0,0506076916930528;0,220163051580973;0,961752887954214;0,0302527185950656;0,000937868116897358;0,00705652533382275;0,287814015703973;0,0209495671535379;0,0008333126544536;0,0157711655892495;0,674631938898786;0,0365115655713434;0,000899348073617174
"adj";-1,75220069615178;-0,0212701735412193;-4,65369638603719;1,99012465523235;-0,327139215670241;-0,00397118201398182;-0,868854001165038;0,37156007312893;0,281801428618935;1,79454913244549e-05;0,6695049930066;0,0486756328831402;0,103415258409268;1,52390884916978e-05;0,729479372972719;0,133406651838426;0,0336834776910949;0,180947229396934;0,00110286105236751
