"";"*K_1Ko_1";"*K_1Ko_10";"*K_1Ko_11";"*K_1Ko_12";"*K_1Ko_13";"*K_1Ko_14";"*K_1Ko_15";"*K_1Ko_16";"*K_1Ko_2";"*K_1Ko_3";"*K_1Ko_4";"*K_1Ko_5";"*K_1Ko_6";"*K_1Ko_7";"*K_1Ko_8";"*K_1Ko_9";"*K_1Tm_1";"*K_1Tm_2";"*K_1Tm_3";"*K_1Tm_4";"*K_1Tm_5";"*K_1Tm_6";"*K_1Ts_1";"*K_1Ts_2";"*K_1Ts_3";"*K_1Ts_4";"*K_1Ts_5";"*K_2Ko_1";"*K_2Ko_10";"*K_2Ko_11";"*K_2Ko_12";"*K_2Ko_13";"*K_2Ko_2";"*K_2Ko_3";"*K_2Ko_4";"*K_2Ko_5";"*K_2Ko_6";"*K_2Ko_7";"*K_2Ko_8";"*K_2Ko_9";"*K_2Tm_1";"*K_2Tm_2";"*K_2Tm_3";"*K_2Tm_4";"*K_2Ts_1";"*K_2Ts_2";"*K_2Ts_3";"*K_Ef_1";"*K_Ef_2";"*K_Ef_3";"*K_Ef_4";"*K_Ef_5";"*K_Ef_6";"*K_Erm_1";"*K_Erm_10";"*K_Erm_11";"*K_Erm_12";"*K_Erm_13";"*K_Erm_14";"*K_Erm_15";"*K_Erm_16";"*K_Erm_2";"*K_Erm_3";"*K_Erm_4";"*K_Erm_5";"*K_Erm_6";"*K_Erm_7";"*K_Erm_8";"*K_Erm_9";"*K_Flm_1";"*K_Flp_1";"*K_Flp_2";"*K_Flp_3";"*K_Flp_4";"*K_Ga_1";"*K_Ga_2";"*K_Ga_3";"*K_Ga_4";"*K_Ga_5";"*K_Ga_6";"*K_Kol_1";"*K_Kol_2";"*K_Kol_3";"*K_Kol_4";"*K_Tt_1";"*K_Tt_2";"*K_Tt_3"
"izukan";0;0;0;0;0;0;0;0;0;0;0;0;0;0;0;0;1;1;1;0;1;1;0;0;0;0;0;0;0;0;0;0;0;0;0;0;1;0;0;0;2;0;1;1;0;0;0;0;0;0;0;0;0;0;0;0;0;0;0;0;0;0;0;0;0;0;0;0;0;6;0;1;0;1;0;0;0;0;0;0;0;0;0;0;1;0;0
"nagusi";0;0;0;0;0;0;0;0;0;0;0;0;0;0;0;0;0;0;0;0;0;2;0;0;0;0;0;0;0;0;0;0;0;0;0;0;0;0;1;0;0;0;0;0;0;0;0;0;0;0;0;0;2;0;0;0;0;0;1;0;0;0;0;0;3;1;0;0;0;0;0;0;0;0;0;0;0;0;0;0;0;0;3;1;0;1;0
"bila";1;2;0;0;0;0;0;0;0;0;0;0;0;0;0;0;0;0;0;0;0;0;0;0;0;0;0;0;0;0;2;0;0;0;0;0;0;0;0;0;1;0;0;0;0;0;0;0;0;0;0;0;0;0;1;3;0;0;0;0;0;1;0;0;0;0;0;0;0;0;0;0;0;1;1;0;0;0;0;0;0;0;1;0;0;0;0
"txar";0;0;0;0;0;0;1;0;0;0;0;0;0;0;0;0;0;0;0;0;0;1;0;0;0;0;0;0;0;0;0;1;0;0;0;0;1;0;0;1;0;0;2;0;0;0;0;0;1;0;0;1;1;1;0;0;0;0;0;0;0;0;0;0;0;0;0;0;0;0;0;0;1;0;0;0;0;0;1;1;1;0;1;0;0;1;0
"ekarri";0;0;0;0;0;1;1;0;0;0;0;0;0;0;0;0;0;0;0;0;0;1;0;0;1;0;0;0;1;0;0;0;0;0;0;0;0;2;0;0;0;0;0;2;0;0;0;0;0;0;0;0;0;0;2;0;0;0;0;1;0;0;1;0;4;1;1;0;0;0;0;0;0;0;0;0;1;0;0;0;1;0;0;0;1;0;0
"aginte";0;0;0;0;0;0;1;0;0;0;0;0;0;0;0;0;0;1;0;0;0;0;0;0;0;0;0;0;0;0;0;0;0;0;0;0;0;0;0;0;0;0;0;0;0;0;0;1;0;1;0;0;1;0;0;0;0;1;0;0;0;0;0;0;0;2;0;0;0;0;0;0;0;0;0;0;0;0;0;0;0;2;0;0;0;0;0
"hori";1;2;1;4;0;4;5;0;4;2;2;3;1;3;5;12;4;0;0;1;2;2;1;1;0;0;3;3;3;2;3;1;2;5;0;2;0;4;2;3;2;2;0;1;2;1;0;1;1;3;2;2;2;1;1;4;1;2;3;1;5;9;0;2;1;0;3;3;4;6;1;3;6;1;0;2;1;2;2;2;5;1;2;1;3;0;1
"eragin";0;0;0;3;0;4;0;0;0;0;0;0;0;0;0;0;0;0;0;0;1;0;0;1;0;0;0;2;0;0;0;0;1;1;0;0;0;0;0;0;0;0;0;0;0;1;0;0;1;0;1;0;0;0;0;0;0;1;0;0;0;0;0;0;0;0;0;0;0;0;1;0;1;0;0;3;0;0;1;0;1;0;0;0;1;0;1
"onartu";1;1;0;0;0;0;1;0;1;0;0;0;1;0;0;1;2;0;0;1;2;0;1;1;0;0;0;0;0;1;0;0;0;0;0;0;0;0;2;0;0;0;1;0;1;1;2;0;0;0;0;1;0;1;2;0;0;0;2;1;1;0;4;9;3;1;0;3;1;0;0;0;0;1;0;4;2;0;0;0;0;1;0;0;0;0;1
"neu";1;1;1;0;1;0;2;2;0;0;6;0;0;2;0;5;2;0;0;0;0;0;0;1;1;0;0;4;3;4;6;1;1;3;0;0;2;1;4;0;1;0;0;3;0;0;2;0;0;1;0;0;0;1;0;3;4;0;1;2;1;0;0;0;0;0;4;0;2;3;1;2;1;2;2;3;0;1;0;1;0;1;0;2;0;0;0
"hazi";0;0;0;0;0;3;4;0;0;2;0;0;0;0;0;0;0;0;0;1;0;0;0;0;0;0;0;0;2;0;1;0;0;0;0;0;0;0;0;2;0;0;0;0;0;0;0;0;1;1;2;0;0;1;0;0;0;0;0;1;0;0;0;0;0;0;0;0;0;0;0;0;0;0;0;0;0;0;0;0;1;0;0;0;0;0;0
"ongi";1;0;1;0;0;0;0;1;0;0;0;0;0;3;2;0;0;0;3;0;1;0;1;2;0;0;2;1;0;1;0;2;0;0;0;0;2;0;1;0;0;0;0;1;0;0;1;0;1;0;0;0;1;0;0;0;2;3;1;2;0;1;2;0;0;3;3;0;0;0;0;1;0;1;0;0;0;0;0;1;1;0;0;1;1;2;0
"ardura";0;0;0;0;0;0;0;0;0;0;0;0;0;0;0;1;0;0;1;1;0;0;0;0;0;0;0;0;0;0;0;0;0;0;0;0;0;2;2;0;0;0;0;0;0;0;0;0;0;0;0;0;1;0;0;0;1;0;0;0;0;0;0;0;0;0;0;0;0;0;0;0;0;1;0;1;0;2;0;0;0;0;0;0;0;0;0
"bakarrik";0;0;0;0;0;4;1;1;1;0;0;0;0;0;1;1;0;0;2;0;3;0;0;0;1;0;0;0;1;0;0;0;0;2;0;0;0;1;0;0;0;1;0;1;0;0;0;0;0;0;0;0;1;1;0;2;0;0;2;1;0;1;1;3;1;0;4;1;0;0;0;2;1;0;0;0;0;2;0;0;0;0;1;0;1;0;0
"bitarte";1;0;1;0;0;0;0;0;0;1;0;0;0;1;0;0;0;0;0;1;0;0;0;0;0;0;0;0;0;0;0;0;0;0;1;1;0;0;0;0;0;0;0;0;0;0;0;0;0;0;0;0;0;0;0;0;0;0;0;0;0;0;0;0;0;0;3;0;0;0;0;1;0;0;0;0;0;2;0;0;0;0;0;0;0;0;0
"gaizto";0;0;0;0;0;0;0;0;0;0;0;0;0;0;0;0;1;0;0;0;0;0;0;0;0;0;0;0;0;0;0;0;0;0;0;0;0;0;0;0;0;0;1;0;0;3;0;0;1;0;0;0;1;0;0;0;0;0;0;0;0;0;0;0;1;0;0;1;0;0;0;1;0;0;1;0;0;0;0;0;0;0;0;0;0;0;0
"hura";1;0;0;0;0;2;7;1;1;0;0;0;0;1;0;0;1;0;0;0;0;1;0;0;0;0;0;0;0;2;1;1;1;5;0;4;1;3;0;1;1;0;0;1;1;2;0;2;0;0;1;0;1;2;2;5;0;3;1;2;0;1;1;2;0;8;2;2;0;0;0;1;6;0;1;1;2;0;0;1;3;0;3;0;1;0;0
"egizue";0;1;1;0;0;0;0;0;0;0;0;0;0;0;0;1;0;0;0;0;0;0;0;0;0;0;0;0;0;0;0;0;0;0;0;0;0;0;0;0;0;0;0;0;0;0;2;0;0;0;0;0;0;0;0;0;0;0;0;0;0;0;0;0;0;0;0;0;0;0;0;2;0;1;0;0;0;0;0;0;0;0;2;0;0;0;0
"ere";5;7;7;4;1;12;20;3;9;6;3;4;3;6;6;8;4;4;7;0;6;2;4;15;0;3;2;10;7;13;10;3;6;2;8;4;2;6;12;3;4;5;3;5;0;2;2;1;6;0;5;8;4;10;3;10;1;6;8;8;8;7;7;10;8;6;4;14;12;4;9;11;7;5;3;9;3;9;6;5;1;4;3;7;5;3;2
"era";0;0;0;4;0;0;0;0;1;0;0;0;0;1;0;1;0;0;0;0;1;0;0;0;0;1;0;1;0;1;0;0;0;0;0;0;0;0;1;2;0;0;2;0;0;0;1;0;0;1;1;1;1;0;0;0;0;0;0;0;0;0;1;1;0;2;1;2;0;0;0;0;0;0;0;0;0;0;0;0;1;0;0;0;0;0;0
"jesu";10;0;0;0;0;0;2;1;1;1;0;0;1;0;1;0;3;0;0;0;0;2;2;1;0;0;4;4;0;0;0;2;0;0;2;0;0;0;1;0;1;1;0;0;3;3;3;2;0;0;0;1;2;6;0;0;0;1;0;5;5;1;3;0;5;3;1;4;0;2;5;1;0;1;3;3;4;1;2;2;1;0;0;0;2;1;1
"gorde";0;0;1;0;0;0;0;0;0;0;1;0;0;0;0;0;0;0;1;0;1;0;0;0;0;0;0;0;0;0;0;0;0;0;0;0;0;0;0;0;0;1;0;1;0;0;0;0;0;1;0;0;0;0;0;0;0;0;1;0;0;0;0;0;0;0;0;0;0;0;0;0;0;0;0;0;0;0;0;0;1;1;1;0;0;0;0
"edozein";1;0;0;0;0;0;1;0;0;0;0;0;0;0;0;0;0;0;0;0;0;0;0;0;0;0;0;1;1;0;0;0;0;0;0;0;0;0;0;0;0;1;1;0;0;0;0;1;0;0;1;0;0;0;0;0;0;1;0;0;0;0;0;0;0;0;0;0;0;0;0;0;0;2;0;0;0;0;1;0;0;0;0;0;0;0;1
"hor";0;0;0;0;0;0;1;0;0;0;1;1;0;0;0;0;0;0;0;0;1;1;0;0;0;0;0;0;0;0;0;0;0;1;0;0;0;0;0;0;0;0;0;0;0;0;0;0;0;0;0;0;0;0;0;0;0;0;0;1;0;0;0;0;0;0;0;0;0;0;0;2;0;0;1;0;0;0;0;0;0;0;0;0;0;0;0
"lan";0;0;0;0;0;0;2;3;0;3;1;0;0;0;0;4;0;0;0;1;0;0;0;2;0;1;1;0;2;0;1;0;1;0;0;0;1;0;0;0;0;1;0;1;0;1;4;0;0;0;1;0;0;0;0;0;0;0;0;1;3;0;0;2;0;0;0;0;0;0;2;2;0;0;0;1;0;0;0;0;0;0;0;1;0;0;0
"entzun";0;0;0;0;0;0;0;0;2;0;0;0;0;0;0;0;0;1;0;0;0;0;1;0;0;0;0;0;0;0;2;0;0;0;0;0;1;0;0;0;1;2;0;2;0;0;0;0;0;0;2;0;0;0;2;1;0;0;0;2;0;1;0;0;0;0;0;0;0;0;2;0;0;1;2;0;0;1;0;0;1;0;0;0;0;0;0
"eginkizun";0;0;0;0;0;0;0;0;0;0;0;0;0;0;0;2;0;0;1;0;0;0;0;0;0;0;0;0;0;0;0;0;1;0;0;0;0;0;0;0;0;1;0;0;0;0;0;0;0;1;0;0;0;0;0;0;1;0;0;1;0;0;1;0;0;0;0;0;0;0;0;0;0;0;0;0;0;0;0;0;1;0;0;1;0;0;0
"ordea";1;0;0;1;0;1;0;0;2;2;2;0;1;1;1;1;0;0;0;1;2;1;0;0;1;0;2;0;1;0;1;0;1;0;0;0;1;0;0;0;0;1;2;1;0;1;2;0;0;1;0;1;1;0;2;0;0;1;0;1;0;1;0;2;0;1;3;1;0;1;0;0;1;0;1;1;4;4;1;0;1;0;1;0;0;1;1
"zer";0;0;0;0;0;4;4;0;0;1;1;0;0;0;1;1;1;0;0;0;1;2;0;0;0;0;0;0;0;2;0;0;0;0;0;2;0;1;0;0;0;0;0;0;0;1;0;1;0;0;3;1;0;0;1;3;2;0;0;0;0;2;2;1;0;2;2;2;1;0;1;0;0;0;0;3;0;1;1;1;0;0;0;0;0;0;0
"zeu";0;0;0;0;0;0;0;0;0;0;0;0;1;3;1;0;0;0;0;3;1;0;0;0;0;0;1;0;0;0;2;0;1;1;0;0;0;0;0;0;0;1;1;3;0;0;0;0;0;0;0;0;0;0;4;1;0;2;4;0;0;9;0;0;0;0;0;0;0;1;0;0;0;0;0;0;0;0;2;1;0;0;0;0;0;1;0
"jabe";0;0;0;0;0;0;2;0;0;0;0;0;0;3;0;0;0;0;0;0;0;0;0;0;0;0;0;0;0;0;0;0;0;0;0;0;1;0;0;0;1;0;0;0;0;0;0;0;0;0;0;0;0;0;0;0;0;0;0;0;0;0;0;0;0;0;0;0;0;0;0;0;0;0;0;0;0;1;1;0;0;0;0;0;1;0;0
"eztabaida";1;0;0;0;0;0;0;0;0;1;0;0;0;0;0;0;1;1;0;0;0;1;0;0;0;0;0;0;0;0;1;0;0;0;0;0;0;0;0;0;0;2;0;0;0;0;0;0;0;0;0;0;0;0;0;0;0;0;1;0;0;0;0;0;0;0;0;0;0;0;0;1;0;0;0;0;0;0;0;0;0;0;0;0;0;0;1
"haiek";0;7;0;0;0;0;2;1;0;0;0;0;0;0;0;0;0;0;0;0;0;0;0;1;0;0;0;0;0;1;0;0;0;0;0;0;3;0;3;0;0;0;0;0;0;0;0;0;0;0;0;0;1;1;2;7;0;1;0;3;1;1;6;0;0;0;0;1;1;0;0;0;0;0;0;2;0;0;0;0;0;2;0;0;0;0;0
"erruki";0;0;0;0;0;0;0;0;0;0;0;0;0;0;0;0;1;0;0;0;0;0;0;0;0;0;0;0;0;0;0;0;0;0;1;0;0;0;0;0;3;0;0;0;0;0;0;0;0;0;0;0;0;1;0;4;0;0;0;0;0;0;0;0;0;0;0;0;3;0;0;0;0;0;0;0;0;0;0;1;0;0;0;0;0;0;1
"ahul";0;0;1;0;0;0;1;0;1;0;0;0;0;0;0;3;0;0;0;0;0;0;0;0;0;0;1;0;0;0;1;3;0;0;0;0;0;0;0;0;0;0;0;0;0;0;0;0;0;0;0;0;0;0;0;0;0;0;0;0;0;0;0;0;0;0;2;0;0;0;0;0;0;0;0;0;0;0;0;0;0;0;0;0;0;0;0
"gorputz";0;2;2;15;1;0;6;0;0;0;0;1;8;0;0;1;0;0;0;0;0;0;0;1;0;0;1;0;0;0;4;0;0;0;1;6;0;0;0;0;0;0;0;0;0;0;0;1;3;1;5;4;0;0;0;0;2;0;0;0;0;2;0;1;0;3;1;2;0;0;0;0;2;0;0;0;0;0;0;1;3;3;1;0;0;0;0
"aberats";1;0;0;0;0;0;0;0;0;0;0;0;0;0;0;0;0;1;0;0;0;3;0;0;0;0;0;0;0;0;0;0;0;0;0;0;1;0;3;1;0;0;0;0;0;0;0;0;0;0;0;0;0;0;0;0;0;0;0;0;0;0;0;0;0;0;0;0;0;0;1;0;0;0;0;0;0;0;0;0;1;0;0;0;0;0;0
"etxe";1;0;2;0;0;1;0;2;0;1;0;0;0;0;0;0;0;0;4;0;3;0;0;0;0;0;0;0;0;0;0;0;0;0;0;0;0;0;0;0;1;1;1;2;0;0;0;0;0;0;0;0;0;0;0;0;0;0;0;0;3;0;0;0;0;0;0;0;0;1;0;0;0;1;0;0;0;2;0;0;0;0;0;1;0;0;0
"bezalako";0;0;0;0;0;0;2;1;0;0;0;0;0;0;1;0;0;0;0;0;0;0;0;0;0;0;0;0;1;3;0;0;0;0;0;0;0;1;0;0;0;0;1;0;0;0;0;0;0;0;0;0;0;0;0;0;0;0;0;0;0;0;0;0;1;2;0;1;0;0;0;0;0;0;0;0;0;2;0;0;0;0;0;1;0;0;0
"inor";5;1;0;2;0;2;0;0;4;3;1;0;2;1;0;1;1;0;0;1;1;1;0;1;1;2;1;0;0;2;1;0;0;0;0;1;1;2;1;0;1;0;0;1;0;1;2;0;1;0;0;2;0;0;0;0;1;3;0;0;0;0;2;0;1;0;0;1;1;0;0;0;0;0;1;2;2;0;0;2;0;3;2;0;0;2;1
"iraun";0;0;0;0;0;0;1;1;0;0;0;0;0;0;0;0;0;1;0;0;0;0;0;0;1;0;1;0;0;0;0;0;0;1;0;0;0;0;0;0;0;0;1;0;0;1;0;0;0;0;1;0;0;0;0;3;0;0;1;0;0;1;0;0;1;0;0;0;0;0;0;0;0;1;0;1;0;1;1;0;1;1;0;1;1;0;0
"merezi";0;0;0;0;0;0;1;0;0;0;1;0;0;0;0;0;0;0;0;0;1;0;0;0;0;0;0;0;0;0;0;0;0;0;0;0;0;0;0;0;0;0;0;0;0;0;0;0;1;0;0;0;0;1;0;0;2;0;0;0;0;0;1;0;0;0;0;0;1;0;0;0;0;0;0;0;0;0;0;0;0;0;1;0;0;0;0
"sandu";2;0;0;1;0;0;3;0;1;1;0;0;0;0;0;0;0;0;0;1;0;0;0;0;0;0;0;0;0;0;0;0;0;0;0;0;0;0;1;1;0;0;1;0;0;0;0;0;0;0;0;0;0;0;1;3;1;0;1;5;0;1;1;3;0;0;0;0;2;0;0;0;0;0;0;0;5;3;0;0;0;0;0;0;0;0;1
"nahigabe";0;0;0;0;0;0;0;0;0;0;0;0;0;0;0;0;0;0;0;0;0;0;0;0;0;0;0;0;0;0;0;0;2;0;0;0;0;6;0;0;0;0;0;0;0;0;0;0;0;0;0;0;0;0;0;0;0;0;0;0;0;0;0;0;0;0;0;0;1;0;0;1;0;0;0;0;0;0;0;0;0;0;0;0;0;0;0
"arrotz";0;0;0;3;0;15;0;0;0;0;0;0;0;0;0;0;1;0;0;0;0;0;0;0;0;0;0;0;0;0;0;0;0;0;0;0;0;0;0;0;0;0;0;0;0;0;0;0;1;0;0;0;0;0;0;0;0;0;0;0;0;0;0;0;0;0;0;0;0;0;0;0;0;0;0;0;0;0;0;0;0;0;0;0;0;0;0
"lege";0;0;0;0;0;1;1;0;0;0;0;0;0;0;0;7;2;0;0;0;0;0;0;0;0;0;0;0;0;0;0;0;0;3;0;0;0;0;0;0;0;1;0;0;0;0;0;0;1;0;0;0;0;0;4;0;0;2;0;0;0;19;8;4;3;0;20;5;2;0;0;0;3;0;0;7;12;3;5;2;0;0;0;0;0;0;1
"barkatu";0;0;0;0;0;0;0;0;0;0;0;0;0;0;0;0;0;0;0;0;0;0;0;0;0;0;0;0;0;1;0;0;5;0;0;0;0;0;0;0;0;0;0;0;0;0;0;0;0;0;1;0;0;0;0;1;0;0;0;0;0;0;0;1;0;0;0;0;0;0;0;0;0;0;0;0;0;0;0;0;0;1;3;0;0;0;0
"aurre";1;0;1;0;0;0;0;0;1;0;0;0;1;1;0;0;0;0;0;0;2;3;1;2;4;1;0;0;2;0;3;0;2;1;1;1;0;1;3;2;0;2;0;2;2;0;0;0;0;2;0;0;1;0;0;2;0;0;1;0;1;1;1;5;0;0;0;2;2;0;1;0;0;0;1;4;2;0;0;1;1;1;0;0;0;0;1
"digu";0;0;0;0;0;0;0;0;1;0;0;0;0;0;0;0;0;0;0;0;0;0;0;0;1;0;0;1;0;0;0;0;0;0;0;1;0;0;0;0;0;0;0;0;0;0;1;0;0;0;0;0;0;1;0;0;0;0;0;0;0;0;0;0;2;0;0;1;0;0;0;0;0;0;0;0;0;0;0;0;1;0;0;0;0;1;0
"norbait";0;1;2;0;0;2;0;0;0;1;0;0;1;0;0;0;0;0;0;0;1;0;0;0;0;0;0;0;0;1;1;0;1;1;0;0;0;0;0;0;0;0;0;0;0;0;1;0;0;0;0;0;0;0;0;0;0;0;0;0;0;0;0;0;2;2;0;1;0;0;0;0;1;0;1;0;0;0;0;2;0;0;0;0;0;0;0
"jainko";6;3;3;2;0;3;5;0;8;8;2;0;3;3;2;1;5;3;3;2;1;4;5;6;4;1;0;4;1;1;1;3;2;2;6;0;6;3;1;0;2;4;2;1;5;4;0;1;7;3;4;4;3;10;1;6;3;4;3;4;2;6;6;3;6;4;2;13;8;1;3;1;1;2;5;3;3;4;2;1;5;3;4;2;4;5;1
"profeta";0;0;2;1;0;9;0;0;0;0;0;0;0;0;0;0;0;0;0;0;0;0;0;1;0;0;0;0;0;0;0;0;0;0;0;0;0;0;0;0;0;0;0;0;0;0;0;0;1;0;1;0;0;1;0;2;0;0;0;0;1;0;0;0;0;0;0;0;0;0;0;0;0;0;0;0;0;0;0;0;0;0;0;0;0;0;0
"eduki";0;0;0;0;0;1;0;0;1;0;1;0;0;1;0;0;0;0;0;0;0;1;0;0;0;0;0;2;0;0;0;0;0;0;0;0;0;0;0;1;0;0;0;1;0;0;0;0;0;0;1;0;1;2;0;1;0;1;0;0;1;0;0;1;0;0;0;0;0;1;0;0;0;3;0;0;0;0;0;0;1;0;0;0;0;0;0
"atsegin";0;1;0;0;0;0;0;0;0;0;0;0;0;3;1;0;0;1;0;0;1;0;0;2;0;1;0;0;0;0;0;0;0;0;0;0;0;0;0;0;0;1;1;0;0;0;0;0;0;0;0;2;1;0;0;0;0;0;1;3;0;0;0;0;0;0;1;0;0;0;0;0;0;1;2;0;0;0;0;0;1;1;1;1;0;0;0
"iritsi";0;0;0;0;0;0;0;0;0;0;1;0;2;0;0;0;0;0;0;0;0;0;0;0;0;0;1;0;1;0;0;0;1;0;0;1;0;1;0;0;1;1;1;0;0;1;0;0;0;0;1;0;0;1;0;1;0;0;0;1;0;0;0;0;2;0;0;0;3;0;0;0;2;0;0;0;0;0;0;0;2;0;0;0;0;0;0
"gaitezen";0;0;1;0;0;0;0;0;0;0;0;0;0;0;0;0;0;1;0;0;0;0;0;0;0;0;2;0;0;0;0;0;0;0;0;0;0;1;0;0;0;0;0;0;0;0;1;0;1;0;2;0;0;0;0;0;0;1;1;1;0;0;0;0;0;0;0;0;0;0;0;0;0;0;0;0;0;0;0;1;0;0;0;0;0;1;0
"ezakan";0;3;0;0;0;2;1;0;0;0;0;1;0;0;0;0;0;0;0;0;0;1;0;0;0;0;1;0;0;0;0;0;0;0;1;1;0;1;0;0;0;0;0;0;0;0;1;0;0;0;0;0;0;0;0;0;0;0;1;0;0;0;1;0;0;1;0;0;0;0;0;0;1;0;0;0;1;0;1;0;0;0;0;0;0;2;2
"ezta";1;0;1;0;0;1;1;0;1;0;0;1;0;1;1;0;0;1;2;0;0;0;0;2;0;0;0;0;0;0;0;0;0;0;1;0;0;1;1;0;0;0;0;0;0;1;0;0;1;0;1;1;0;0;0;0;0;0;1;0;0;0;0;1;0;1;0;0;2;0;0;0;0;0;1;0;1;0;0;0;0;0;0;0;0;0;0
"izan";30;36;34;33;5;43;96;25;12;26;21;14;19;46;14;38;23;10;16;13;28;14;11;29;10;11;18;27;26;37;43;29;13;26;18;24;11;13;32;18;18;22;18;17;13;15;13;6;19;20;25;32;17;34;26;48;22;23;33;24;17;25;25;30;34;33;38;41;44;13;26;31;17;11;16;32;37;37;26;15;22;19;20;9;15;10;14
"jainkoa";4;3;1;0;0;3;1;0;0;0;0;0;0;0;0;0;0;0;0;0;1;0;2;4;2;1;0;2;0;0;0;1;2;0;0;0;0;0;1;1;1;0;0;0;1;1;0;1;1;2;0;0;0;1;1;2;1;0;5;1;1;0;0;4;0;3;0;1;1;1;1;0;0;1;0;0;2;0;0;1;2;0;2;1;0;0;1
"aldu";0;3;2;0;0;0;0;0;0;2;0;1;6;0;0;1;0;0;0;0;0;0;0;0;0;0;0;0;0;1;2;2;0;0;0;0;1;0;0;0;0;0;0;0;0;0;0;0;0;0;0;0;0;0;0;0;0;1;0;0;0;2;2;0;0;1;1;0;0;0;0;0;0;0;0;0;1;1;0;0;0;0;0;0;0;0;0
"alde";1;0;1;0;0;0;0;0;0;0;0;0;0;0;0;0;1;2;0;0;0;1;0;1;1;1;0;0;0;3;1;1;0;1;1;0;0;1;0;1;1;1;0;1;1;0;2;1;0;0;2;2;2;0;2;0;1;0;0;2;0;0;1;0;4;0;2;6;0;2;3;0;1;2;0;1;1;1;0;0;4;3;0;2;0;0;1
"gogo";0;1;1;0;0;0;0;0;0;0;0;0;0;1;0;1;0;0;0;0;0;0;2;2;1;0;0;1;1;2;0;0;0;0;0;0;0;0;2;1;2;2;1;0;1;2;0;0;0;0;0;0;2;2;0;3;1;0;0;0;1;0;0;0;0;0;1;5;0;2;1;0;0;0;1;0;2;0;1;0;0;0;3;0;0;1;0
"apostolu";1;0;0;1;0;0;3;0;0;0;0;0;0;0;0;2;1;1;0;0;0;0;0;1;0;0;0;1;0;0;1;0;0;0;0;0;0;0;0;0;2;0;0;0;0;0;0;1;1;1;1;0;0;2;0;1;0;0;0;0;1;0;0;0;0;0;0;0;0;0;0;0;0;0;2;2;0;0;0;0;1;0;0;0;1;0;0
"bat";4;10;3;20;0;8;8;2;1;2;2;4;6;8;5;3;1;1;0;2;5;1;1;2;1;3;2;2;0;2;2;1;1;1;2;2;1;2;4;1;1;2;0;1;2;1;0;0;7;2;8;5;2;3;3;4;3;0;7;7;1;0;5;0;9;1;5;2;1;2;2;3;1;5;5;3;6;5;1;4;1;3;3;1;4;0;1
"hildako";0;0;0;0;0;0;7;0;0;0;0;0;0;0;0;0;0;0;0;0;0;0;0;0;0;2;0;0;0;0;0;0;0;0;0;0;0;0;0;0;0;1;0;0;0;0;0;1;0;0;0;0;0;1;2;0;0;0;1;0;0;0;0;1;0;2;1;2;0;0;0;0;1;0;1;0;0;0;0;0;0;1;0;0;0;0;0
"bai";3;2;0;0;0;7;2;3;1;0;2;0;1;2;0;2;0;0;0;2;0;1;0;3;1;0;0;7;1;0;0;0;2;1;1;4;0;2;0;1;0;0;1;0;0;0;0;0;3;2;0;0;0;2;2;5;0;0;0;1;0;1;5;1;2;0;0;3;0;5;4;2;0;0;2;0;0;0;0;0;0;0;1;0;1;0;0
"aurkitu";0;0;0;0;0;0;0;0;0;0;0;0;0;0;0;0;1;0;0;0;0;0;0;1;0;0;0;0;0;0;2;0;1;0;0;0;0;0;0;1;1;0;0;0;0;0;0;0;0;0;0;0;0;0;0;1;0;0;0;0;0;0;1;0;0;0;0;0;0;0;1;0;0;0;0;0;0;1;0;1;0;0;0;0;0;0;0
"gehiago";0;0;0;0;0;1;2;0;0;0;1;0;0;0;0;0;0;0;0;0;0;0;0;1;2;1;0;1;1;3;1;0;0;0;0;0;0;2;2;1;0;1;0;0;0;0;0;0;0;0;1;0;0;0;0;1;0;0;1;0;0;0;0;0;4;1;0;1;1;2;1;1;2;0;0;0;1;1;0;0;0;0;0;0;0;0;0
"bizitza";0;0;0;0;0;0;1;0;0;1;0;0;0;1;0;0;0;1;0;0;0;0;0;0;0;1;0;0;0;0;0;0;1;0;0;0;0;1;0;0;0;1;0;0;0;0;0;0;0;1;1;0;0;0;0;0;0;0;0;0;0;0;0;0;1;1;0;1;0;0;0;0;0;0;0;1;0;0;0;1;0;0;0;0;0;1;0
"lotu";0;0;0;0;0;0;0;0;0;0;0;0;0;1;0;0;0;0;0;0;0;0;0;0;0;0;0;0;0;0;0;0;0;0;0;0;0;0;0;0;0;2;0;0;0;0;0;0;0;0;0;1;1;0;0;0;0;0;0;0;0;0;0;0;0;3;2;0;0;0;0;0;0;0;0;0;1;0;0;1;0;1;0;0;0;0;0
"sortu";0;1;1;0;0;0;0;0;0;0;1;0;0;0;0;0;1;0;0;2;1;2;0;0;0;0;0;0;0;0;0;0;0;0;0;1;0;1;1;2;0;2;0;0;1;0;0;0;2;0;1;0;0;1;0;1;0;0;0;1;1;0;0;0;0;0;0;0;2;1;0;0;0;0;0;1;0;1;1;0;1;0;0;0;0;0;0
"kristorengan";0;0;0;0;0;0;1;0;0;0;0;0;0;0;0;0;0;0;0;0;0;0;0;0;0;0;0;0;0;0;0;0;0;0;0;0;0;0;0;0;0;0;0;0;0;0;0;1;0;0;0;0;0;0;0;0;0;0;0;1;2;0;0;0;0;0;0;0;0;0;1;0;1;1;0;0;0;0;0;0;0;2;0;0;0;0;0
"mintzatu";0;0;0;2;0;9;0;0;0;0;0;0;0;0;0;0;0;0;0;0;0;0;0;0;0;0;0;0;0;1;1;0;0;0;0;0;1;0;0;0;0;0;0;0;0;0;0;0;0;0;0;0;0;0;0;0;0;0;0;0;0;0;1;0;0;0;0;0;0;0;0;0;0;0;0;0;1;0;0;0;0;0;0;0;0;1;0
"erreinu";0;0;0;0;0;0;2;0;0;0;1;0;2;0;0;0;0;0;0;0;0;0;0;1;0;0;0;0;0;0;0;0;0;0;0;0;0;0;0;0;0;0;0;1;0;0;0;0;0;0;0;1;0;0;0;0;0;0;0;0;0;0;0;0;0;0;0;0;0;0;0;0;0;0;0;0;0;0;1;0;2;0;0;0;0;0;0
"honela";1;0;0;2;0;1;1;0;1;0;0;0;0;0;0;1;0;0;0;0;0;0;0;0;0;0;0;0;0;0;0;0;0;0;0;0;0;0;2;0;0;0;0;0;0;0;1;0;0;0;0;0;0;0;0;0;0;0;1;0;0;0;0;0;1;0;1;1;1;0;0;0;0;0;0;1;0;0;0;0;0;0;0;0;0;0;0
"betiko";0;0;0;0;0;0;1;0;0;0;0;0;0;0;0;0;1;0;0;0;0;1;0;1;0;0;0;0;0;0;0;0;0;0;2;1;0;0;0;1;0;1;0;0;0;0;0;0;0;0;0;0;0;0;0;2;0;0;0;0;0;1;0;0;2;1;0;0;0;1;0;0;0;0;0;0;0;0;0;1;0;0;0;0;2;0;1
"heldu";0;0;0;0;0;2;0;1;1;0;0;0;0;0;0;0;0;0;0;0;0;0;1;0;0;0;0;0;1;0;0;0;0;0;0;0;0;0;0;1;0;0;1;0;0;1;0;0;0;0;2;0;0;0;0;2;0;0;0;1;0;0;2;0;0;0;0;0;0;0;0;0;2;0;0;0;2;0;0;0;0;0;0;0;0;1;0
"batzuk";0;4;0;0;0;0;3;0;0;0;1;0;1;0;1;3;1;0;0;1;1;0;0;0;0;0;0;0;0;1;0;0;0;0;0;0;0;0;0;0;0;3;1;0;0;0;1;0;1;0;4;0;0;0;0;3;0;0;0;0;0;1;2;0;0;0;0;0;2;0;2;0;0;0;0;2;0;0;0;0;0;0;0;0;0;0;0
"arrazoi";0;0;0;0;0;0;0;0;0;0;0;1;1;0;0;0;0;0;0;0;0;0;0;0;0;0;0;0;0;1;0;0;0;0;0;0;0;0;1;0;1;0;1;1;0;0;0;0;0;0;0;0;0;0;0;0;0;0;0;0;0;0;0;0;0;0;0;0;0;0;0;0;1;0;0;0;0;0;0;0;0;1;0;0;1;0;0
"fededun";1;0;0;0;0;1;0;1;0;0;0;0;2;0;0;1;0;0;0;0;1;0;0;0;0;0;0;1;0;0;0;0;0;0;0;0;0;0;1;2;0;0;0;0;0;0;0;1;0;2;1;1;1;1;1;0;0;0;0;2;2;0;1;0;0;0;0;1;0;3;1;0;0;2;0;0;0;0;0;0;3;0;0;0;0;1;0
"asko";1;0;0;7;0;0;0;1;0;0;1;0;0;0;2;0;0;0;0;0;0;3;1;0;0;0;0;2;0;2;0;0;1;0;0;0;1;0;2;1;1;1;1;0;0;0;0;0;0;0;0;0;0;1;0;0;2;0;0;0;1;0;0;4;1;0;0;1;0;0;0;0;2;0;1;0;1;0;0;0;0;0;0;0;1;0;0
"eutsi";0;0;0;0;0;0;1;0;0;1;0;0;0;2;0;0;1;0;0;1;0;0;0;0;0;0;1;0;0;0;0;0;0;0;0;0;0;0;0;0;0;0;0;0;0;1;0;0;0;0;1;0;1;0;0;1;0;0;1;1;0;0;0;0;0;0;0;0;0;0;0;1;1;0;0;0;0;0;0;0;0;0;0;0;0;0;0
"errebelde";0;0;0;0;0;0;0;0;0;0;0;0;0;0;0;0;1;0;0;0;0;0;0;0;0;0;0;0;0;0;0;0;0;0;0;0;0;0;0;0;0;0;1;0;0;0;0;0;0;0;0;1;0;0;0;3;0;0;0;0;0;0;0;0;0;0;0;0;0;0;0;0;0;0;0;0;0;0;0;0;0;0;1;0;2;0;1
"ezkondu";0;0;0;0;0;0;0;0;0;0;0;0;0;14;0;0;0;0;2;1;3;0;0;0;0;0;0;0;0;0;0;0;0;0;0;0;0;0;0;0;0;0;0;0;0;0;0;0;0;0;0;0;0;0;0;0;0;0;0;0;0;0;0;0;0;0;0;0;0;0;0;0;0;0;0;0;0;0;0;0;0;0;0;0;1;0;0
"burutu";0;0;0;0;0;0;0;0;0;0;0;0;0;0;0;0;0;0;0;0;1;0;0;0;0;0;0;0;0;0;1;0;0;0;0;0;0;0;2;0;0;0;0;0;0;1;0;0;0;0;0;0;0;0;0;0;0;0;0;1;0;0;1;0;0;0;0;0;0;0;1;3;0;0;0;0;0;0;0;0;0;0;0;0;0;0;0
"garai";0;1;0;0;0;0;0;0;0;0;0;0;0;0;0;0;0;1;0;1;0;1;0;0;0;0;0;0;0;0;0;0;0;0;0;0;0;0;0;0;0;0;0;2;0;1;0;0;2;1;0;2;0;0;0;1;0;1;0;0;0;0;0;0;1;0;1;0;0;0;0;0;0;0;1;0;2;0;0;1;1;1;1;0;1;0;0
"jaunarengan";2;0;0;0;0;0;0;0;0;0;0;0;0;0;0;0;0;0;0;0;0;0;1;0;0;0;0;0;2;0;0;0;0;0;0;0;0;0;0;0;0;0;0;0;0;0;0;1;1;1;0;0;0;0;0;0;0;0;0;0;2;0;0;0;0;0;0;1;0;0;0;0;1;0;0;0;0;0;0;0;0;0;0;0;0;0;0
"lortu";0;0;0;0;0;0;0;0;0;0;0;0;0;1;0;1;0;0;0;0;0;0;0;0;0;0;0;0;0;0;0;0;1;0;0;0;0;0;0;0;0;0;0;0;0;0;0;0;0;0;0;0;0;0;3;3;0;0;0;0;0;0;0;0;0;0;0;0;0;0;0;0;2;0;0;0;1;0;1;0;0;2;0;0;0;0;0
"aurrez";0;0;0;0;0;0;1;0;0;0;0;0;0;0;0;0;0;0;0;0;0;0;0;1;1;0;0;0;1;0;0;0;0;0;0;0;0;0;0;0;0;0;0;0;0;1;0;0;1;1;1;0;0;1;0;0;0;0;0;0;0;0;0;0;0;0;0;2;1;0;0;0;0;0;0;1;1;0;0;0;0;0;0;0;0;0;0
"zabaldu";0;0;0;0;0;0;0;0;0;0;0;1;0;0;0;0;0;0;0;0;0;0;1;0;0;0;0;0;1;0;0;0;1;0;0;0;1;0;0;0;1;0;0;0;0;0;0;0;0;0;0;0;1;1;1;0;0;0;0;1;0;0;1;0;2;0;0;0;0;0;0;0;0;1;1;0;0;0;0;0;0;0;0;1;0;0;0
"sinesmen";0;0;0;0;1;0;2;1;2;0;0;0;0;0;0;0;5;2;1;3;1;2;2;0;3;0;1;2;1;0;0;1;0;0;0;1;0;0;1;0;1;2;3;1;1;0;0;0;1;2;2;0;0;3;0;0;2;0;3;0;0;0;4;9;2;0;0;0;0;1;1;1;1;0;1;2;10;0;2;0;1;1;0;0;1;0;1
"zigor";0;0;0;0;0;0;0;0;0;0;1;0;0;0;0;0;0;0;0;0;0;0;0;0;0;0;0;0;0;0;0;0;1;0;0;1;1;0;0;0;0;0;0;0;1;0;0;0;1;0;0;0;0;1;0;1;1;1;0;0;0;2;0;0;0;0;0;0;1;0;0;0;0;0;0;0;0;0;1;0;0;0;0;0;0;0;0
"espiritu";0;0;0;12;0;9;1;0;12;2;0;2;3;1;0;0;0;0;0;2;0;0;2;0;0;1;2;1;0;1;1;1;0;5;0;1;1;0;0;0;3;0;0;0;0;1;0;0;3;2;3;1;3;1;0;0;0;0;1;4;0;1;0;0;1;0;2;21;1;0;1;0;1;0;0;0;3;3;8;2;2;1;0;0;0;0;2
"menpe";0;0;0;0;0;1;7;0;0;2;0;0;1;0;0;2;0;0;0;0;0;0;0;0;0;1;1;1;0;0;0;0;0;0;0;0;0;0;0;1;0;0;1;0;0;0;0;0;2;0;0;5;0;2;0;0;0;3;0;0;0;0;0;0;0;3;1;3;0;0;0;0;1;0;0;0;1;5;1;0;1;0;1;0;0;2;2
"eli";1;1;2;1;0;4;0;3;0;0;1;0;1;1;0;0;0;0;0;0;1;0;1;1;0;0;0;1;0;1;1;0;0;0;0;0;0;0;6;0;0;0;0;0;2;0;0;0;0;0;0;0;0;0;0;0;0;0;0;0;5;0;0;0;0;0;0;0;0;1;0;0;0;1;2;0;0;0;0;0;0;0;0;2;0;0;0
"han";0;0;0;0;0;0;0;0;0;0;1;1;0;0;0;0;0;0;0;0;0;0;0;0;0;0;0;0;0;0;1;0;1;1;0;0;0;0;0;0;0;0;0;0;0;0;0;0;0;0;0;0;0;0;0;0;0;0;0;2;0;0;0;0;0;0;0;0;0;0;0;0;1;0;1;1;0;0;0;0;0;0;1;0;0;0;0
"ezer";1;0;1;0;2;0;0;0;1;1;0;0;1;1;2;0;0;1;0;2;1;2;1;0;0;0;0;0;0;1;2;1;1;0;0;0;2;0;0;0;0;1;0;0;0;0;1;0;0;0;0;0;0;0;0;0;0;0;1;0;0;0;0;0;0;0;1;1;0;2;0;0;2;0;0;1;1;0;2;1;0;1;0;0;1;0;2
"hau";4;2;7;0;0;2;6;1;2;5;1;4;0;10;1;1;7;4;1;2;2;4;0;1;0;4;2;4;3;2;1;2;3;0;5;9;0;3;7;2;6;4;0;2;0;3;3;2;2;7;3;1;5;5;5;3;3;1;2;6;3;1;1;3;2;2;3;1;5;4;9;2;1;1;4;1;5;6;3;1;3;1;5;3;2;4;1
"onespen";0;0;0;0;0;0;0;0;0;0;0;0;0;0;0;0;0;0;0;0;0;0;0;1;0;0;1;0;0;0;0;0;0;0;0;0;0;0;0;0;0;0;0;0;0;0;0;0;0;0;0;0;0;0;1;0;0;1;0;0;0;0;0;0;0;0;0;0;4;0;0;0;0;0;1;1;0;0;0;0;0;0;0;0;0;0;0
"anaia";1;0;0;0;0;0;0;1;0;0;0;0;0;0;0;1;0;0;0;0;0;0;0;0;1;0;0;1;0;0;1;0;1;0;0;0;0;0;3;1;0;0;0;0;0;0;0;0;0;0;0;0;1;0;0;0;0;0;0;0;1;0;0;0;0;0;0;0;0;4;0;1;0;0;1;1;0;0;0;0;1;0;0;2;0;0;0
"azken";0;1;0;0;0;0;2;1;0;1;1;0;0;0;0;0;0;0;0;1;0;0;0;0;0;0;0;0;0;1;0;0;0;0;0;0;0;0;0;0;1;0;1;1;0;1;0;0;0;0;0;0;0;0;0;0;0;0;1;0;0;0;0;0;0;0;0;0;1;0;0;0;0;0;0;0;0;0;0;0;0;0;0;1;0;0;0
"jasan";0;0;0;0;0;0;0;0;0;0;1;0;1;0;0;1;0;0;0;0;0;0;0;3;0;0;1;4;0;2;1;0;0;0;0;0;1;0;1;0;0;1;2;1;1;0;0;0;0;1;0;0;0;0;0;0;0;0;0;0;0;0;0;0;0;0;0;0;1;0;0;0;0;0;0;0;0;0;0;0;4;0;0;0;0;0;0
"daiteu";0;1;1;0;0;0;0;0;0;0;0;0;0;0;0;0;0;1;0;0;1;0;0;0;0;0;0;0;0;0;0;0;0;0;0;1;0;0;0;0;0;0;0;0;0;1;0;0;0;0;0;0;0;0;0;0;0;0;0;1;0;0;1;0;0;0;0;0;0;0;0;0;0;0;0;0;0;0;0;0;1;2;1;0;0;2;2
"sendo";2;0;0;0;0;0;2;1;0;1;0;0;0;1;0;0;0;0;0;0;0;0;0;0;2;0;0;3;0;0;0;0;0;0;0;0;0;0;0;0;0;2;0;0;0;1;0;0;0;1;0;0;1;0;0;0;0;0;0;0;0;0;0;0;1;0;0;0;0;0;1;0;0;0;0;1;0;0;1;0;1;2;0;0;0;0;0
"baino";2;1;1;0;0;3;1;0;0;0;3;0;0;1;0;0;2;1;0;0;2;0;0;1;0;0;0;0;1;3;4;0;0;0;0;1;0;0;2;0;2;1;1;1;0;1;0;0;0;1;0;0;0;0;0;0;2;1;0;1;1;0;0;0;1;0;0;0;0;2;0;1;0;1;2;0;1;1;0;0;0;1;0;0;1;0;0
"bizi";1;1;0;0;0;0;5;0;0;1;0;0;1;8;0;3;1;1;1;2;1;2;1;2;2;2;2;1;0;1;1;3;0;1;3;5;3;1;0;1;3;0;2;2;0;0;3;1;3;1;6;4;2;3;2;3;2;3;5;0;3;1;0;0;3;7;6;12;1;0;4;5;3;2;0;5;7;0;3;2;2;0;5;0;2;0;2
"baina";2;3;2;7;0;12;6;2;2;4;1;2;6;8;3;3;1;1;1;0;2;1;0;3;0;0;0;1;3;3;4;2;3;1;5;2;3;1;0;2;1;1;3;1;0;2;1;0;1;0;1;1;0;4;1;6;0;1;1;2;1;5;4;4;4;1;6;6;4;0;3;4;3;1;2;4;1;3;4;1;1;3;0;0;1;0;1
"arabera";0;0;0;1;0;0;0;0;0;4;0;0;0;0;0;0;0;0;0;0;0;1;0;1;0;0;0;0;0;1;0;0;0;0;0;1;0;2;1;0;0;1;0;1;1;0;0;0;0;0;3;0;0;0;0;0;2;0;3;1;1;2;0;3;0;0;2;5;1;0;0;0;1;1;0;0;0;0;2;0;0;0;2;0;1;0;0
"gainerako";0;0;1;0;0;1;0;0;0;0;0;0;0;1;0;0;0;0;0;0;1;0;0;0;0;0;1;0;0;0;0;0;0;0;0;0;0;0;0;0;0;0;0;0;0;0;0;0;0;0;0;0;0;0;0;1;0;0;0;0;0;0;0;0;0;0;0;0;0;0;1;0;1;2;0;1;0;0;0;0;0;0;0;0;0;0;0
"buru";0;1;15;0;0;3;0;1;0;1;2;0;1;2;0;1;0;1;0;2;0;1;0;0;0;1;1;0;5;1;3;0;0;1;2;2;0;1;2;0;1;1;2;0;0;2;0;1;0;0;1;7;0;2;0;0;4;2;2;0;0;5;0;0;0;2;0;1;0;1;0;0;0;0;1;1;1;0;3;1;0;3;0;0;1;1;1
"gaitz";0;0;0;0;0;0;0;0;0;0;0;0;0;0;0;0;0;0;0;0;0;1;0;0;0;0;2;0;0;0;0;0;0;0;0;0;0;0;0;0;0;0;0;1;0;0;0;0;0;0;0;0;0;0;0;0;4;1;0;0;1;0;0;0;0;0;0;0;1;0;0;0;0;0;0;0;0;0;0;0;0;0;0;0;0;0;0
"dudala";0;0;0;0;0;0;1;0;0;0;0;0;0;0;0;0;0;0;0;0;0;0;0;0;0;0;0;1;1;0;0;1;0;0;0;0;0;0;1;0;0;0;0;0;0;0;0;0;0;0;0;0;0;1;0;0;0;0;0;1;0;0;0;0;0;0;2;0;0;0;0;0;0;0;0;0;0;0;1;0;1;0;0;0;0;0;0
"halako";0;0;0;0;0;0;2;0;0;0;0;0;0;0;0;0;0;0;0;0;0;0;0;0;0;0;0;0;0;0;1;0;0;0;0;0;0;0;0;0;0;0;0;0;0;1;1;0;1;0;0;1;0;0;0;0;0;0;1;0;0;0;0;0;0;0;0;1;0;0;0;0;0;0;0;0;0;1;0;1;0;1;1;0;0;0;1
"irrika";0;1;0;1;0;3;0;0;0;0;0;0;0;0;0;0;0;0;0;0;0;0;0;0;1;0;0;0;0;0;0;0;0;0;0;1;0;2;0;0;1;0;0;1;0;0;0;0;0;0;0;0;0;2;1;0;0;0;0;0;0;0;0;0;0;0;0;1;0;0;1;1;0;1;0;0;0;0;0;0;0;0;0;0;0;0;0
"gauza";3;2;2;1;0;2;7;0;1;2;1;0;1;5;4;1;0;0;1;2;3;2;0;0;0;0;1;0;0;0;0;0;1;0;1;0;1;0;0;0;0;1;1;2;0;1;0;0;0;2;1;1;0;0;0;1;0;0;3;1;0;2;0;0;0;0;0;3;1;0;1;1;7;0;0;0;1;0;0;0;0;2;3;0;1;3;2
"lankide";0;0;0;0;0;0;0;0;0;1;0;0;0;0;0;0;0;0;0;0;0;0;0;0;1;0;0;0;0;0;0;0;0;0;0;0;1;0;1;0;0;0;0;0;0;0;0;0;0;0;0;0;0;0;0;0;0;0;0;0;0;0;0;0;0;0;0;0;0;2;1;0;0;1;0;0;0;0;0;0;1;0;0;1;0;0;0
"gaitzetsi";0;1;2;0;0;0;0;0;0;0;0;0;0;0;0;0;0;0;1;0;0;0;0;0;0;0;0;0;0;0;0;0;0;0;0;0;0;1;0;0;0;0;0;0;0;0;0;0;0;0;0;0;0;0;0;0;0;0;0;0;0;2;0;0;0;0;0;0;0;0;0;0;0;0;0;0;0;1;1;0;0;1;0;0;0;0;1
"bera";12;4;8;11;0;6;10;2;6;3;4;1;7;13;2;5;4;3;2;1;6;1;2;4;2;13;3;8;5;4;4;2;0;1;3;4;2;2;7;3;4;4;1;3;10;4;1;3;9;9;9;12;3;6;4;5;4;2;6;3;3;3;10;4;10;6;0;19;6;2;3;8;3;2;4;4;2;6;3;6;8;4;3;1;4;2;3
"bildu";0;0;2;0;0;3;0;1;0;0;1;1;0;0;0;0;0;0;0;0;0;0;0;0;0;0;0;0;0;0;0;0;0;0;0;0;0;0;2;3;0;0;0;0;0;0;0;0;0;0;0;0;0;0;0;0;0;1;0;1;1;0;0;0;0;0;0;0;0;1;0;0;0;0;0;1;0;0;0;3;0;0;0;1;0;0;0
"lehenengo";0;0;0;1;0;0;3;0;0;0;0;0;0;0;0;0;0;1;0;0;1;0;0;0;0;0;0;0;1;0;0;0;0;0;0;0;0;0;1;0;0;0;0;1;0;0;0;0;0;0;0;0;0;2;0;1;0;0;0;0;0;2;1;0;0;0;0;0;0;0;1;0;0;0;0;0;0;0;0;0;0;0;0;0;0;0;2
"ni";8;4;7;0;0;6;7;5;2;4;6;3;2;6;2;7;8;1;0;1;0;1;0;1;0;1;1;9;5;12;12;7;9;2;0;0;5;6;4;7;9;4;3;5;0;0;0;2;0;2;1;1;3;3;3;5;1;0;2;2;14;1;2;0;0;0;15;1;9;11;9;14;8;11;8;8;1;5;2;3;4;2;0;4;1;0;1
"hizketa";0;0;0;5;0;15;0;0;0;0;0;0;0;0;0;0;0;0;0;0;0;0;0;0;0;0;0;0;0;0;0;0;0;0;0;0;0;0;0;0;0;0;0;0;0;0;0;0;0;0;0;0;0;0;0;0;0;0;0;0;0;0;0;0;0;0;0;0;0;0;0;0;0;0;0;0;0;0;0;0;0;0;0;1;0;0;0
"zaindu";0;0;0;1;0;0;0;0;0;0;0;0;0;0;0;0;0;0;0;0;1;1;0;1;0;0;1;0;0;0;0;0;0;0;0;0;0;0;0;0;2;0;0;0;0;0;1;0;0;0;0;1;0;0;0;0;0;0;0;0;0;0;0;0;0;0;0;0;0;0;0;0;0;1;0;0;0;0;0;0;0;0;0;0;0;0;0
"arrisku";0;0;0;0;0;0;1;0;0;0;0;0;0;0;0;0;0;0;0;0;0;0;0;0;0;0;0;0;0;9;0;0;0;0;0;0;0;0;0;0;0;0;0;0;0;0;0;0;0;0;0;0;0;0;0;0;0;0;0;0;1;0;0;0;0;0;0;1;0;0;0;1;0;0;0;0;0;0;0;0;0;0;0;0;0;0;0
"galdu";2;0;0;0;0;0;2;0;1;1;0;0;0;1;2;0;0;0;0;0;0;2;0;0;0;0;0;1;1;1;0;0;2;1;3;2;0;0;0;0;0;0;0;0;0;1;0;0;0;1;1;0;0;1;0;0;0;0;1;0;0;2;0;0;0;0;0;1;0;0;0;0;1;0;0;0;0;0;0;0;0;0;0;0;0;0;0
"etorri";2;1;1;0;0;0;3;2;0;0;0;0;0;0;0;0;2;0;0;0;0;0;1;0;2;0;2;0;0;2;0;0;0;0;1;1;1;0;0;0;0;0;0;3;1;0;0;1;3;0;0;0;0;0;1;4;0;0;0;0;0;0;1;0;0;0;1;0;1;0;0;0;1;1;0;3;1;1;0;0;0;1;0;0;0;0;0
"bedi";3;1;0;0;0;0;0;1;0;2;0;0;0;1;0;0;0;0;1;0;0;0;0;0;0;0;0;0;2;0;0;0;0;0;0;0;0;0;0;0;0;0;0;0;0;0;0;0;0;0;2;0;0;0;0;0;2;0;1;0;1;0;0;0;0;1;0;0;1;0;0;0;0;0;1;0;0;0;0;0;0;0;2;0;0;0;0
"erabili";0;0;0;0;0;0;0;0;1;0;2;0;0;0;0;0;1;0;0;0;0;0;0;0;0;0;0;0;0;0;0;0;0;0;0;0;0;0;0;0;0;0;0;1;0;1;0;1;0;1;0;0;0;0;0;0;0;0;0;0;0;0;0;0;0;0;0;0;0;0;0;0;0;0;0;0;0;0;0;0;0;2;0;0;0;0;0
"dadila";0;0;0;0;0;4;0;0;0;0;0;0;0;2;0;0;0;0;0;0;0;0;0;0;0;0;0;0;0;0;0;0;0;0;0;0;0;0;0;1;0;0;0;0;0;0;0;0;0;2;2;0;0;0;0;0;0;0;1;0;0;0;0;0;0;0;0;0;0;1;2;0;0;0;0;0;0;0;0;0;0;0;0;2;0;0;0
"zaitezte";1;0;1;0;0;4;1;1;0;0;0;0;0;0;0;0;0;0;0;0;0;0;0;0;0;2;1;0;0;0;0;2;0;0;0;0;0;0;1;0;0;0;0;0;0;0;0;0;0;0;2;4;1;0;0;0;4;1;1;0;0;0;0;0;0;1;0;0;0;0;0;2;2;0;0;0;0;1;1;1;0;0;3;0;0;0;0
"jarri";0;0;0;1;0;0;7;2;0;1;2;0;0;0;1;1;2;0;0;0;1;1;0;1;0;0;0;2;1;0;0;0;0;0;0;0;0;0;0;1;0;2;2;1;0;1;1;1;0;2;0;0;1;0;0;0;0;1;2;2;2;0;0;0;0;6;0;0;0;0;0;1;4;1;0;1;1;0;1;0;0;0;1;0;0;0;0
"zaiteztu";0;0;0;0;0;0;0;0;0;0;0;0;0;0;0;0;0;0;0;0;0;0;0;0;1;1;0;0;0;0;0;0;0;0;0;0;0;0;0;0;0;0;0;0;0;0;0;0;0;2;0;0;1;0;0;1;0;0;0;0;0;0;0;0;0;1;0;0;0;0;0;2;0;0;0;0;0;1;0;0;1;0;0;0;0;0;0
"oso";0;0;0;0;0;1;0;1;0;0;0;0;0;1;0;0;0;1;0;0;1;0;0;0;0;1;1;1;0;2;1;0;1;1;0;0;1;1;1;0;0;0;0;1;0;0;0;0;1;1;2;0;0;0;2;3;0;0;0;0;2;0;1;0;0;0;0;1;2;1;0;1;0;1;0;2;0;0;2;0;1;2;2;1;1;1;0
"aitortu";0;0;0;0;0;3;0;0;0;0;0;0;0;0;0;0;0;0;0;0;0;0;0;0;0;0;0;0;0;0;0;1;0;0;0;0;0;0;0;0;1;0;0;0;0;0;0;0;0;0;0;0;0;0;3;0;0;0;0;0;0;1;1;1;0;0;1;1;1;0;0;0;0;0;0;1;0;1;0;0;0;0;0;0;1;0;0
"dizue";0;1;1;0;0;0;0;0;0;0;0;0;0;0;0;0;0;0;0;0;0;0;0;0;0;0;0;0;0;0;0;0;0;0;0;0;0;0;0;1;0;0;0;0;0;0;0;0;0;0;0;0;1;0;0;0;0;0;0;0;1;0;0;0;0;1;0;0;0;0;1;0;1;1;0;0;0;0;2;0;1;0;0;2;0;0;0
"ondoren";0;1;1;0;0;0;4;1;0;0;0;0;0;0;0;1;0;0;0;0;1;0;0;0;0;0;0;0;0;0;0;0;0;0;0;0;0;0;0;0;0;0;0;0;0;0;0;0;0;0;0;0;0;0;0;0;0;0;0;1;0;0;0;0;0;0;0;0;0;0;0;0;0;1;0;0;0;0;0;0;1;1;0;1;0;0;1
"edan";0;4;6;0;0;0;1;0;0;0;0;0;0;0;0;1;0;0;0;0;1;0;0;0;0;0;0;0;0;0;0;0;0;0;0;0;0;0;0;0;0;0;0;0;0;0;0;0;0;0;0;0;0;0;0;0;0;0;0;0;0;0;0;0;0;0;0;0;0;0;0;0;0;0;0;0;0;0;0;0;0;0;0;0;0;0;0
"epai";0;0;0;0;0;0;0;0;0;0;3;2;3;0;0;0;0;0;0;0;0;0;0;0;0;0;0;0;0;0;0;0;0;0;0;0;0;0;0;0;0;0;0;1;1;0;0;0;0;0;0;0;0;1;0;0;0;1;1;0;0;6;1;0;0;0;0;0;0;0;0;0;0;0;0;0;0;0;0;0;0;0;0;0;0;0;0
"bake";1;0;0;0;0;1;0;1;0;0;0;0;0;2;0;0;1;0;0;0;0;0;0;0;0;0;2;1;0;0;0;2;0;0;0;0;0;0;0;0;1;1;0;0;1;0;3;1;5;0;1;0;2;1;0;1;1;0;2;0;1;1;0;0;3;0;0;1;0;1;1;0;0;2;1;0;0;0;1;1;1;0;1;0;1;0;0
"urruti";0;0;0;0;0;0;0;0;0;0;0;1;0;0;0;0;0;0;0;0;0;0;0;1;0;0;0;0;2;0;0;2;0;0;0;0;0;0;0;0;0;0;1;0;1;0;0;0;2;0;1;0;0;0;0;0;0;0;0;0;0;0;0;0;0;0;0;0;0;0;0;0;0;0;0;0;0;0;0;0;1;1;0;0;0;0;0
"zintzo";0;0;1;0;0;0;0;0;0;0;1;0;0;0;0;0;0;0;0;0;0;0;0;0;0;0;0;0;0;1;0;0;0;0;0;0;0;0;0;0;0;0;1;0;0;0;0;0;0;0;0;0;0;2;0;0;0;0;0;0;1;0;0;0;0;0;0;0;0;0;0;0;0;1;0;0;2;0;0;0;0;0;0;0;0;0;0
"itun";0;0;1;0;0;0;0;0;0;0;0;0;0;0;0;0;0;0;0;0;0;0;0;0;0;0;0;0;0;0;0;0;0;4;0;0;0;0;0;0;0;0;0;0;0;0;0;0;1;0;0;0;0;0;0;1;0;0;0;0;0;0;0;0;0;0;0;0;1;0;0;0;0;0;0;0;1;2;0;0;0;0;0;0;0;0;0
"gizonemakume";0;0;0;0;0;0;0;0;0;0;0;0;0;0;0;0;0;0;0;1;0;0;0;0;0;0;0;0;0;0;0;0;0;0;1;0;0;0;0;0;0;0;0;0;0;0;0;0;0;0;0;0;0;1;0;1;1;0;0;0;0;0;1;0;3;0;0;0;0;0;0;0;0;0;0;0;0;0;0;0;0;0;0;0;0;1;0
"gaitu";1;2;1;0;0;0;0;0;0;0;2;0;1;0;1;0;0;0;0;0;0;0;1;0;0;1;1;2;0;0;0;0;0;0;0;3;0;1;0;0;0;0;0;0;0;0;0;0;1;0;0;0;0;0;0;0;0;0;0;0;0;0;0;0;2;0;0;1;0;0;0;0;0;0;0;0;1;0;1;0;1;0;0;0;0;0;1
"horiek";0;2;0;1;0;0;0;1;0;0;1;0;1;0;0;0;0;0;0;1;1;2;0;0;1;1;0;0;3;5;3;0;0;0;0;0;0;0;2;1;0;3;3;0;1;1;0;0;1;0;0;1;0;0;0;0;0;0;1;0;3;0;0;0;0;0;0;2;0;0;0;0;2;1;0;2;1;1;2;1;0;4;2;0;0;0;0
"behar";0;3;3;1;0;1;3;4;0;0;1;2;2;1;4;3;2;1;4;0;3;1;1;0;1;2;2;2;1;5;3;1;3;1;0;1;0;2;1;2;0;2;2;0;1;3;3;0;0;0;4;1;1;2;0;1;1;1;0;2;1;2;2;0;0;1;0;2;2;1;1;1;0;2;1;1;3;2;1;0;1;1;0;1;6;1;3
"horregatik";1;0;2;3;0;0;0;0;2;0;1;0;0;0;0;0;0;0;1;1;1;0;0;1;2;0;1;1;0;0;1;1;0;1;5;1;0;1;1;1;1;1;0;0;1;1;0;1;0;1;0;2;0;2;0;0;0;1;0;2;0;1;0;2;0;0;1;1;0;1;0;0;0;0;0;0;2;0;0;0;1;0;0;0;1;0;0
"ahulezia";1;0;0;0;0;0;0;0;0;0;0;0;0;0;0;0;0;0;0;0;0;0;0;0;0;0;0;0;0;1;4;1;0;0;0;0;0;0;0;0;0;0;0;0;0;0;0;0;0;0;0;0;0;0;0;0;0;0;0;1;0;0;0;0;0;1;0;1;0;0;0;0;0;0;0;0;0;0;0;0;0;0;0;0;0;0;0
"jokatu";0;0;0;0;0;0;0;1;0;1;0;1;0;1;0;0;0;0;1;0;0;1;0;1;0;1;0;1;2;0;1;1;0;1;1;0;1;0;1;0;0;0;0;0;0;0;1;0;0;0;0;2;1;0;0;0;0;4;3;0;0;0;2;0;0;0;0;0;0;0;1;0;0;0;0;1;0;0;3;0;0;0;1;1;0;0;0
"libre";0;0;0;1;0;0;0;0;0;0;0;0;0;3;0;1;0;0;0;0;0;0;0;0;0;0;0;0;0;0;0;0;0;0;0;0;0;0;0;0;0;0;0;0;0;0;0;0;0;0;0;0;1;0;0;0;0;0;0;0;0;0;0;0;0;1;0;0;0;0;0;0;0;0;0;0;1;3;1;0;0;0;1;0;0;0;0
"noski";0;0;0;0;0;0;2;0;0;0;0;0;0;0;2;1;0;0;0;0;0;0;0;0;0;0;0;1;0;0;0;0;0;0;0;0;0;1;0;0;0;0;0;0;0;0;1;0;0;1;0;0;0;0;0;1;0;0;0;0;0;0;1;0;0;0;0;0;0;0;0;0;0;0;1;0;0;0;0;0;0;0;0;0;0;0;0
"orain";0;0;0;1;0;0;0;1;0;2;2;0;0;1;0;1;0;0;0;1;0;0;0;1;2;0;0;1;0;0;2;3;1;1;1;3;0;1;2;0;1;0;0;0;0;2;1;0;1;2;0;1;0;1;0;4;0;2;0;2;1;0;2;0;1;3;1;5;0;2;3;2;1;0;3;2;1;4;0;0;3;0;1;0;0;0;1
"aukera";0;0;0;0;0;0;0;1;0;0;0;0;0;1;0;0;0;0;0;0;0;0;0;0;0;0;0;0;0;0;0;0;1;0;0;1;0;1;1;0;0;0;0;0;0;0;0;0;0;0;1;0;0;1;0;1;0;0;1;0;0;0;0;0;0;0;0;0;1;0;1;0;0;1;0;0;0;1;0;0;0;0;0;1;0;0;0
"judu";2;0;0;1;0;0;0;0;0;0;0;0;0;0;0;3;0;0;0;0;0;0;0;2;0;0;0;0;0;1;0;0;0;0;0;0;0;0;0;0;0;0;0;0;0;0;0;0;1;0;0;0;0;2;1;0;0;0;0;1;0;7;4;0;0;0;0;0;1;0;0;0;0;0;0;9;2;0;1;0;0;0;1;0;1;0;0
"berau";1;2;0;0;0;0;0;0;1;0;0;0;0;1;2;1;1;0;0;0;0;0;1;1;0;0;0;1;0;0;0;0;1;0;1;0;0;0;0;0;1;0;0;0;0;0;0;1;0;0;0;1;0;1;1;0;0;0;0;0;1;0;0;0;1;0;0;0;0;0;0;0;0;0;2;0;1;2;1;0;0;0;1;0;0;0;0
"esku";0;1;0;2;0;0;0;1;0;0;1;1;0;0;0;0;1;1;0;1;1;1;0;1;0;1;0;0;0;2;0;0;0;0;1;3;0;0;1;1;2;0;0;0;0;0;1;0;0;0;1;0;0;0;2;0;0;0;0;2;0;0;0;0;0;0;2;0;1;1;0;0;0;1;0;1;2;0;0;0;0;1;0;1;0;0;0
"beraz";0;2;3;1;0;5;1;1;0;1;2;1;1;3;2;1;1;1;0;0;0;1;0;0;0;2;1;0;0;0;1;0;1;1;0;5;0;2;1;0;0;2;0;0;0;1;0;0;1;0;1;3;0;2;1;2;2;3;2;1;0;0;1;2;2;1;1;2;1;1;0;1;0;0;1;1;2;3;1;1;0;2;2;0;0;0;0
"berak";1;0;0;0;0;3;1;1;0;1;0;0;0;1;0;2;0;0;1;1;3;2;0;1;0;0;0;0;3;1;1;0;0;0;0;0;0;0;2;1;0;0;1;1;1;0;1;0;0;0;2;2;0;7;1;5;0;0;0;0;3;3;0;1;0;0;0;0;0;0;0;0;1;0;0;0;0;0;1;1;1;1;0;0;1;2;0
"begi";1;0;0;3;0;0;1;0;0;1;0;0;0;0;1;0;0;0;0;0;0;0;0;0;0;0;0;0;0;0;1;0;0;0;1;0;0;0;0;0;0;0;0;0;0;0;0;1;0;0;0;0;0;0;0;2;0;0;0;0;0;0;0;0;0;0;0;2;0;0;0;0;0;0;1;0;1;1;0;0;0;0;0;0;0;0;0
"asmo";0;0;0;0;0;0;1;0;0;1;2;0;0;1;0;0;0;0;0;0;0;0;0;1;0;0;0;3;0;0;0;0;1;0;0;0;0;1;1;0;0;0;1;0;0;0;0;0;0;4;0;0;0;1;0;1;0;0;0;0;0;0;0;0;0;0;0;1;0;0;2;0;0;0;0;0;0;0;0;0;3;1;0;0;0;0;1
"zuengan";0;0;0;0;0;0;0;1;0;0;2;0;0;0;0;0;0;0;0;0;0;0;1;0;1;0;0;0;0;0;3;1;2;0;0;0;0;0;1;1;0;0;0;0;0;0;0;0;0;0;0;0;0;2;0;0;0;0;0;3;0;0;0;0;0;0;0;0;0;1;0;3;0;0;0;0;0;0;0;0;1;0;0;0;0;0;0
"atal";0;0;0;12;0;0;0;0;0;0;0;0;3;0;0;0;0;0;0;0;0;0;0;0;0;0;0;0;0;0;0;0;0;0;0;0;0;0;0;0;0;0;0;0;0;0;0;0;0;0;2;1;0;0;0;0;3;0;0;0;0;0;0;0;0;0;0;0;0;0;0;0;0;0;0;0;0;0;0;0;0;0;0;0;0;0;0
"haserre";0;1;0;0;0;0;0;0;0;0;0;0;0;0;0;0;0;1;0;0;0;0;0;0;0;0;0;0;0;0;1;0;0;0;0;0;0;1;0;0;0;0;0;0;0;0;0;0;0;0;2;1;0;1;0;0;0;1;0;0;0;1;1;0;0;0;0;0;1;0;0;0;0;0;0;0;0;0;1;0;0;0;2;0;0;0;0
"dadin";0;1;1;0;0;0;0;1;0;0;1;0;0;0;1;0;0;0;2;0;0;0;0;0;0;0;0;0;0;0;1;0;0;0;4;0;1;0;0;0;0;0;0;0;0;0;1;0;1;0;0;0;0;0;0;0;0;0;0;0;0;0;2;0;0;1;0;0;0;0;0;0;0;0;0;0;1;0;0;0;0;0;0;0;1;0;0
"goraintzi";0;0;0;0;0;0;0;1;0;0;0;0;0;0;0;0;0;0;0;0;0;0;0;0;0;0;0;0;0;0;0;0;0;0;0;0;0;0;0;0;0;0;0;0;0;0;0;0;0;0;0;0;0;0;0;0;0;0;0;0;13;0;0;0;0;0;0;0;0;0;0;0;0;0;0;0;0;0;0;0;0;0;0;3;0;0;0
"jain";12;2;3;6;0;3;11;0;3;6;1;0;6;7;3;1;2;3;1;3;1;4;1;4;0;6;3;9;1;2;3;1;0;0;3;6;2;2;2;5;5;3;1;1;4;3;2;4;4;3;3;1;4;11;3;13;5;0;2;6;2;8;15;16;10;1;1;10;12;0;2;2;4;3;3;8;12;5;3;1;7;2;3;1;3;0;2
"horrelako";0;0;1;0;0;0;0;2;0;0;0;1;0;1;1;0;0;0;0;0;0;0;0;0;0;0;0;2;1;1;0;0;1;0;0;0;0;0;0;0;0;1;0;0;0;0;0;0;0;0;0;0;0;2;0;0;0;0;0;0;1;1;1;0;0;0;0;0;0;0;0;0;0;0;0;1;0;0;2;0;0;0;0;0;0;0;0
"deitu";5;0;0;0;0;0;0;0;0;0;0;0;0;3;1;0;0;0;0;0;0;1;0;1;0;1;0;0;0;0;0;0;0;0;0;0;0;0;0;0;0;1;0;0;0;1;0;1;1;0;0;0;0;2;0;0;0;0;0;0;0;0;0;1;0;0;0;3;1;0;0;0;1;0;0;0;0;0;2;0;0;0;1;0;0;0;0
"akikan";0;0;0;0;0;0;0;0;0;1;0;1;6;0;0;2;0;0;1;0;0;0;1;2;0;0;1;0;0;0;0;0;0;0;0;0;0;0;0;0;0;0;0;0;0;0;1;0;0;0;0;0;0;0;0;0;0;0;0;0;0;0;0;0;0;1;1;0;0;0;0;0;0;0;0;0;0;0;0;0;0;0;0;0;0;0;0
"hala";1;1;1;0;0;4;0;1;1;1;0;0;0;3;0;2;1;0;1;1;1;0;0;2;1;2;0;1;0;1;2;0;0;0;0;1;0;0;0;0;2;1;0;0;1;0;0;1;1;0;0;0;0;1;0;1;0;0;1;1;1;2;1;0;1;0;1;0;1;1;0;0;0;1;1;1;1;0;1;0;1;0;0;0;0;0;0
"nor";1;0;2;0;0;1;0;0;3;0;2;0;0;1;0;3;0;0;0;0;2;0;0;2;0;2;0;0;0;2;0;0;2;0;0;2;0;0;0;0;1;1;0;0;0;0;0;0;0;0;2;0;0;0;3;3;2;1;2;0;0;0;0;0;0;0;1;3;3;0;0;2;0;0;0;0;1;0;1;2;0;0;0;0;0;0;0
"zain";1;0;0;0;0;0;0;1;0;0;0;0;0;0;0;0;0;0;0;0;1;0;1;0;0;0;0;0;0;0;0;0;0;0;0;0;0;0;0;0;0;0;0;1;0;0;0;0;0;0;0;0;0;0;0;0;0;0;0;0;0;0;0;0;0;0;0;2;0;0;0;0;0;0;0;0;1;0;0;0;0;0;0;0;0;2;0
"erein";0;0;0;0;0;0;5;0;0;0;0;0;0;0;0;1;0;0;0;0;0;0;0;0;0;0;0;0;0;0;0;0;0;0;0;0;0;0;0;3;0;0;0;0;0;0;0;0;0;0;0;0;0;0;0;0;0;0;0;0;0;0;0;0;0;0;0;0;0;0;0;0;0;0;0;0;0;0;0;3;0;0;0;0;0;0;0
"ez";15;25;15;14;6;25;28;5;16;11;13;10;17;36;11;27;6;4;9;3;17;6;2;12;3;11;11;11;13;15;26;10;11;8;14;9;6;12;8;6;6;11;2;5;2;4;12;1;9;2;15;9;4;8;15;19;10;20;17;6;2;16;11;13;10;10;16;29;18;6;6;9;5;5;11;18;12;15;14;7;0;15;16;1;11;2;6
"ukan";28;21;35;18;4;28;34;15;21;23;13;10;15;27;11;26;8;10;10;9;13;18;8;14;9;12;10;26;23;18;26;8;15;12;16;16;12;9;26;21;11;13;8;11;12;10;8;10;11;10;15;17;6;27;23;34;13;11;16;28;19;32;31;33;13;11;20;35;30;11;29;18;20;9;14;28;22;17;9;10;14;13;8;7;15;3;9
"argi";0;0;0;0;0;2;0;0;1;1;0;0;0;0;0;0;0;0;0;2;0;0;0;0;0;0;3;0;0;2;1;0;0;0;4;1;1;0;0;1;1;0;1;0;0;0;0;1;0;1;0;5;0;0;0;0;0;1;0;1;2;1;0;0;0;0;0;0;0;0;0;1;1;0;0;0;0;0;0;0;1;0;0;0;0;0;0
"egon";2;4;4;1;0;4;5;6;0;3;2;2;0;14;1;2;1;2;0;1;3;1;2;3;1;3;3;3;1;6;1;5;1;2;1;6;3;5;3;1;4;4;3;1;1;1;1;1;1;3;5;1;3;5;1;2;1;0;4;3;1;4;2;6;7;2;7;7;6;0;5;4;1;7;2;4;5;7;2;4;1;6;3;1;2;2;2
"idatzi";1;1;0;0;0;1;0;1;0;0;1;0;0;1;0;3;1;0;1;0;0;0;1;0;0;1;1;1;0;0;0;1;2;3;0;0;0;2;0;1;1;0;1;0;1;0;0;1;0;1;0;0;0;1;0;0;0;0;0;3;2;2;0;0;0;0;1;0;0;2;1;0;1;1;2;0;2;0;0;1;1;0;0;1;1;0;0
"badakizue";0;0;0;1;0;0;0;1;0;0;0;0;0;0;0;0;0;0;0;0;0;0;0;1;2;1;0;0;0;0;0;0;0;0;0;0;0;0;0;0;0;0;0;0;0;1;0;0;0;0;0;0;1;0;0;0;0;0;0;0;0;0;0;0;0;1;0;0;0;0;0;0;0;1;0;0;0;1;0;0;0;0;0;0;0;0;0
"elkar";1;0;1;0;0;0;0;2;0;0;0;0;0;2;0;0;0;0;0;0;0;0;0;0;1;3;2;0;0;0;0;2;0;0;0;0;2;1;0;0;0;0;0;0;0;0;0;0;0;0;4;1;0;2;0;0;3;1;1;3;1;0;0;0;0;0;0;0;0;0;1;1;0;0;0;0;0;0;7;1;0;0;4;0;0;0;1
"zaretu";1;0;0;0;0;1;0;0;0;0;0;0;0;0;0;0;0;0;0;0;0;0;0;0;0;0;0;1;0;0;0;0;1;0;0;0;0;0;0;0;0;0;0;0;1;0;0;1;0;0;0;0;0;0;0;0;0;0;0;0;0;0;0;0;0;0;0;0;0;0;1;0;0;1;1;0;1;0;0;0;1;0;0;0;0;0;0
"salbatzaile";0;0;0;0;0;0;0;0;0;0;0;0;0;0;0;0;1;0;0;1;0;0;0;0;0;0;0;0;0;0;0;0;0;0;0;0;0;0;0;0;1;0;0;0;0;0;0;0;0;0;0;1;0;0;0;0;0;0;0;0;0;0;1;0;0;0;0;0;0;0;0;0;1;0;0;0;0;0;0;0;0;0;0;0;2;2;2
"pozik";0;0;0;0;0;0;0;1;0;0;0;0;0;1;0;0;0;0;0;0;0;0;0;0;0;0;0;0;0;0;1;1;0;0;0;0;1;0;0;0;0;0;0;0;0;0;0;0;0;0;0;0;0;0;0;0;0;0;0;1;0;0;0;0;0;0;0;0;0;0;1;1;0;0;0;0;0;0;0;0;1;1;0;0;0;0;0
"ukrenentzan";1;0;0;0;0;0;0;0;0;0;0;0;0;0;0;0;0;0;0;0;0;0;0;0;0;0;0;0;0;0;0;0;4;0;1;0;0;0;0;0;0;0;0;0;0;0;0;0;0;0;0;0;1;0;0;0;0;0;0;0;0;0;0;2;0;0;0;1;0;0;0;0;0;0;0;0;0;0;0;0;0;0;0;0;0;0;0
"egun";1;1;0;0;0;0;3;0;0;1;0;1;0;0;0;0;0;0;0;0;1;0;0;1;2;0;4;1;0;0;0;0;0;0;2;0;0;0;1;0;2;0;1;1;1;1;1;0;0;0;0;0;0;0;2;1;0;1;3;0;0;2;0;0;0;0;0;0;0;0;3;1;1;0;1;0;0;1;0;0;2;0;0;0;0;0;0
"fruitu";0;0;0;0;0;1;2;0;0;0;0;0;0;0;0;3;0;0;0;0;0;0;0;0;0;0;0;0;1;0;0;0;0;0;0;0;0;0;0;0;0;0;0;0;0;0;0;0;0;0;0;1;0;0;0;0;0;0;0;0;1;0;0;0;0;2;2;0;0;0;0;0;0;0;0;0;0;0;1;0;2;0;0;0;0;0;0
"edota";0;0;0;0;0;6;0;0;0;0;0;0;0;0;0;0;0;1;0;0;1;0;0;0;0;0;0;1;0;0;0;0;0;0;0;0;1;0;0;0;0;0;0;0;0;0;0;0;0;0;0;2;0;0;0;0;0;0;0;0;0;1;0;0;0;0;0;0;1;1;0;1;1;0;0;0;0;1;0;0;0;0;0;0;0;0;0
"bertan";0;2;0;0;0;0;0;0;0;0;0;2;0;0;0;0;1;0;0;0;0;0;0;0;0;0;0;1;0;0;0;0;0;1;0;0;0;0;0;0;0;0;0;0;0;1;0;0;0;0;0;0;0;0;0;0;0;0;0;0;0;0;0;0;0;0;0;0;0;0;0;0;0;0;0;0;0;1;0;0;0;0;0;0;0;0;1
"zor";1;1;0;0;0;0;0;0;0;0;0;0;0;2;0;1;0;0;0;0;2;0;0;0;0;1;0;0;0;0;0;0;0;0;0;1;0;0;0;0;0;0;0;0;0;0;0;0;0;0;0;0;0;0;0;0;0;1;0;1;1;0;0;1;0;0;0;0;0;2;0;0;0;0;0;0;0;0;0;0;1;0;0;0;0;0;0
"bete";1;0;0;0;0;0;1;1;0;0;0;0;0;2;0;1;2;0;3;0;1;1;0;1;2;0;1;0;0;0;0;0;0;4;0;1;0;3;0;1;1;0;1;1;1;1;0;2;1;3;2;1;3;1;2;0;0;3;0;8;0;5;1;3;0;0;0;2;3;1;1;2;1;0;1;1;5;2;3;2;1;1;1;3;0;4;1
"beti";0;0;1;1;0;0;0;0;0;0;0;0;0;0;0;0;0;0;0;0;0;0;1;0;1;1;2;0;0;2;0;0;1;0;2;1;1;1;0;0;0;0;1;0;2;1;0;0;0;0;0;0;1;1;0;0;1;0;0;0;0;0;0;0;0;0;0;0;0;1;2;2;1;0;0;0;0;1;0;0;0;0;2;3;0;1;0
"ezarri";0;0;1;1;0;0;0;0;0;3;0;0;0;1;0;2;1;0;0;1;2;0;0;0;0;0;0;1;3;1;0;0;1;0;0;0;0;0;0;0;0;1;0;0;0;1;0;1;0;0;0;0;0;1;0;0;0;2;0;0;0;0;0;0;0;0;0;0;0;0;0;0;0;0;0;1;0;1;0;0;0;0;0;0;2;0;0
"abraham";0;0;0;0;0;0;0;0;0;0;0;0;0;0;0;0;0;0;0;0;0;0;0;0;0;0;0;0;0;0;0;0;0;0;0;0;0;0;0;0;0;0;0;0;0;0;0;0;0;0;0;0;0;0;0;1;0;0;0;0;0;0;0;10;0;0;0;0;3;0;0;0;0;0;0;0;5;1;0;0;0;0;0;0;0;0;0
"uzukan";2;0;0;0;0;0;0;0;0;0;0;0;0;0;0;0;0;0;0;0;0;0;0;0;1;0;0;2;0;0;0;0;1;0;0;0;0;0;1;0;0;0;0;0;0;1;0;0;0;0;2;0;0;0;0;0;0;0;0;0;0;0;0;0;0;0;0;0;0;0;0;0;0;0;0;0;0;0;0;0;0;0;1;0;0;0;0
"geu";0;0;1;0;0;0;0;0;0;0;1;0;0;0;0;1;0;0;0;0;0;1;0;3;2;0;1;2;0;0;0;0;0;0;3;5;0;1;0;0;1;0;0;0;0;0;1;0;3;0;0;0;0;0;0;0;0;0;0;2;0;0;0;0;1;0;1;3;0;0;0;0;0;0;0;0;0;0;0;0;0;0;0;0;0;0;0
"jentil";1;1;0;2;0;0;0;0;0;0;0;0;0;0;0;0;0;0;0;0;0;0;0;0;0;1;0;0;0;0;0;0;0;0;0;0;0;0;0;0;0;0;0;1;0;0;0;0;1;1;0;0;0;0;0;1;0;0;0;3;0;1;1;0;0;0;0;0;1;0;0;0;0;0;0;2;1;0;0;0;0;0;0;0;0;0;0
"zahar";0;0;0;0;0;0;0;0;0;0;0;1;0;0;0;0;0;0;0;0;0;0;0;0;0;0;0;0;0;0;0;1;0;0;0;0;0;0;0;0;0;0;0;0;0;0;0;0;0;0;1;0;0;0;0;0;0;0;0;0;0;0;0;0;0;1;1;0;2;0;0;0;0;0;0;0;0;0;0;0;0;0;1;0;0;2;0
"alegia";1;0;0;0;0;0;0;0;0;0;0;0;0;0;0;0;0;0;0;0;0;0;0;0;0;0;0;0;0;0;0;0;1;2;1;0;0;0;0;0;0;0;0;0;0;0;0;0;0;1;0;0;0;2;1;0;0;0;0;0;0;1;0;1;0;0;2;2;1;0;0;0;2;0;0;0;0;0;0;0;2;0;0;0;0;0;0
"kristorekin";0;2;0;1;0;0;1;0;0;0;0;0;0;0;0;0;0;0;0;0;0;0;0;0;0;1;0;0;0;0;0;0;0;0;0;0;0;0;0;0;0;0;0;0;0;0;0;0;1;1;0;0;0;0;0;0;1;0;0;0;0;0;0;0;0;3;0;1;0;0;1;0;0;0;0;1;1;0;0;0;0;4;2;0;0;0;0
"ondorengo";0;0;0;0;0;0;0;0;0;0;0;0;0;0;0;0;0;0;0;0;0;0;0;0;0;0;0;0;0;0;0;0;0;0;0;0;0;0;0;0;0;0;0;0;0;0;0;0;0;0;0;0;0;0;0;0;0;0;0;0;0;0;0;5;0;0;0;0;4;0;0;0;0;0;0;0;4;0;0;0;0;0;0;0;0;0;0
"adore";0;0;0;0;0;1;0;0;0;0;0;0;0;0;0;0;0;0;0;1;0;0;0;1;2;1;2;6;0;0;0;1;1;0;1;0;0;3;0;0;0;0;0;1;0;1;0;0;0;1;0;0;1;0;0;0;0;0;0;1;0;0;0;0;0;0;0;0;0;1;0;1;0;0;0;0;0;0;0;0;0;1;0;1;0;1;0
"zeuen";1;1;3;0;0;1;0;0;0;0;0;1;4;1;0;0;0;0;0;0;0;0;0;1;1;0;1;1;0;0;1;1;2;0;0;1;1;2;1;0;0;0;0;0;0;0;0;0;1;1;1;2;1;0;0;0;6;0;0;0;0;0;0;0;0;4;0;0;0;0;0;2;0;3;0;0;0;0;0;0;1;4;2;2;0;0;0
"kristau";0;0;1;0;0;2;1;1;1;0;3;1;0;8;0;2;0;0;1;0;0;0;0;0;0;1;0;0;0;0;2;0;0;0;0;0;0;0;0;0;0;0;0;0;0;0;0;0;0;0;0;0;0;0;0;0;0;0;0;0;2;0;0;0;0;0;0;0;0;1;1;0;1;2;0;0;0;0;0;0;1;0;0;1;0;0;0
"jo";0;1;0;1;0;2;0;0;0;0;0;0;2;0;0;5;1;0;0;0;4;0;0;0;0;0;0;0;0;0;3;0;2;0;0;0;2;0;0;0;0;0;0;0;0;0;0;0;0;0;1;0;0;2;0;0;1;0;0;0;0;0;1;0;0;0;0;0;0;0;0;0;4;0;0;0;0;0;0;0;0;0;0;0;0;0;0
"jesusen";0;0;0;0;0;0;0;0;0;0;0;0;0;0;0;0;0;0;0;1;1;1;1;0;0;0;0;0;0;0;0;0;0;0;4;0;0;0;0;0;1;1;1;1;0;0;0;1;0;2;1;0;0;0;0;0;0;0;0;0;0;0;0;0;0;0;0;0;0;0;0;0;1;2;0;0;0;0;0;1;1;0;0;2;0;0;0
"bide";2;0;0;2;0;1;2;0;1;0;1;0;1;0;2;1;1;1;0;0;0;0;0;0;1;0;0;2;0;1;1;0;1;0;0;0;1;0;0;1;2;0;1;1;1;1;0;0;2;2;1;0;0;1;7;2;0;0;2;5;1;2;4;0;4;1;4;2;2;0;1;1;2;1;0;2;8;0;2;0;0;1;1;1;0;0;1
"zentzu";1;0;0;0;0;1;1;0;1;0;0;0;0;0;0;0;0;0;0;0;0;0;0;0;0;1;0;0;1;0;0;0;0;0;0;0;0;0;0;0;0;0;0;0;0;0;0;0;0;0;1;1;0;1;0;0;0;0;0;0;0;0;1;0;0;0;0;0;0;0;0;0;0;0;0;0;0;0;0;0;0;0;0;0;0;0;0
"berri";1;0;1;0;0;0;1;0;0;0;1;1;0;0;0;9;1;0;0;0;0;0;1;5;2;0;0;0;2;2;0;0;1;1;2;2;0;1;1;1;3;1;0;1;1;1;0;0;2;2;2;0;5;6;4;1;0;1;0;4;1;1;1;0;0;1;2;0;0;2;6;3;0;3;7;4;1;1;0;1;7;0;2;3;0;0;0
"erantzun";0;0;0;0;0;1;0;0;0;0;1;0;0;1;0;0;0;0;0;0;0;0;0;0;0;0;0;0;0;0;0;0;0;0;0;1;1;0;0;0;0;0;0;0;0;0;0;0;0;0;0;0;0;1;0;1;0;0;0;0;1;0;0;0;0;0;0;0;0;0;0;0;0;1;0;0;1;0;0;0;0;0;0;1;0;0;0
"natzaizue";0;1;0;0;0;0;0;0;0;0;0;0;0;0;0;0;0;0;0;0;0;0;0;0;0;0;0;0;0;0;2;0;0;0;0;0;1;0;0;0;0;0;0;0;0;0;0;0;0;1;0;0;0;0;0;1;0;0;0;0;0;0;0;0;0;1;1;0;0;0;0;0;0;0;0;0;1;1;0;0;1;0;0;0;0;0;0
"poz";0;0;0;1;0;0;0;0;0;0;0;0;0;0;0;0;0;0;0;0;0;0;1;2;1;0;0;2;0;0;0;1;3;0;0;0;0;2;1;0;1;0;0;0;0;0;0;0;0;0;0;0;0;0;0;0;0;0;0;1;0;0;0;0;0;0;0;0;0;1;1;4;1;2;0;0;0;3;1;0;0;0;0;0;0;0;0
"ugari";0;0;0;0;0;1;0;0;0;0;0;0;0;0;0;0;0;0;0;0;0;0;0;0;0;0;0;2;0;0;0;0;0;0;1;0;0;0;0;1;0;0;0;0;0;0;0;0;1;0;0;0;0;0;0;0;0;0;0;0;0;0;0;0;3;1;0;0;1;0;0;0;0;1;0;0;0;0;0;0;0;0;0;0;0;0;0
"izen";3;0;0;1;0;0;1;1;0;0;1;2;2;0;0;0;0;0;1;0;0;1;0;0;0;2;1;0;0;0;0;0;1;0;0;0;0;0;0;0;0;2;0;0;0;1;2;0;0;0;1;1;0;1;0;0;2;0;0;1;5;4;0;0;0;0;0;0;0;1;0;1;0;1;0;0;1;1;0;0;0;0;1;3;0;0;0
"salbamen";0;0;0;0;0;0;0;0;0;0;0;0;0;0;0;0;0;0;0;0;0;0;0;0;0;0;1;1;0;0;0;0;0;0;0;1;0;0;0;0;0;1;0;1;0;0;0;0;0;0;0;0;1;0;1;1;0;1;0;0;0;0;0;0;0;0;0;0;0;0;0;1;0;0;0;0;2;0;2;0;0;0;0;0;0;0;0
"barru";0;0;0;0;0;0;0;0;1;0;0;0;0;0;0;0;0;0;0;1;0;0;0;0;1;0;0;0;2;0;0;1;1;0;1;1;1;1;0;0;0;0;0;0;0;0;0;1;0;1;0;0;0;0;0;0;0;0;0;0;0;2;0;0;0;0;1;2;2;0;0;0;0;0;0;0;0;0;0;0;0;0;0;0;0;0;0
"dezata";0;0;0;0;0;0;0;0;0;0;0;0;0;0;0;0;1;1;0;1;1;0;0;0;0;0;0;0;0;1;0;0;0;0;1;0;0;0;0;1;0;1;0;0;0;0;1;0;0;0;0;0;0;1;0;2;0;0;0;1;0;0;0;0;0;0;0;0;0;0;0;0;0;0;0;0;1;0;0;0;0;0;0;1;1;1;0
"arte";4;0;3;0;1;1;4;2;1;0;2;3;2;0;1;0;0;0;1;0;0;1;3;2;1;1;2;1;1;2;2;1;0;0;0;0;2;1;1;0;3;1;1;0;2;0;1;1;1;1;4;2;1;3;3;3;0;0;0;1;1;0;0;1;0;2;1;4;4;0;2;1;1;0;1;3;5;2;0;0;1;1;0;0;1;0;0
"gaizki";0;0;0;0;0;0;0;0;0;0;1;0;0;0;0;0;0;0;0;0;0;1;0;0;0;0;0;0;0;1;0;0;0;0;0;0;1;0;0;0;0;0;0;0;0;0;0;0;0;0;0;0;0;0;0;0;1;2;0;0;0;1;0;0;0;0;2;0;0;1;0;0;0;0;0;0;0;0;0;0;0;0;1;0;1;1;0
"jokabide";0;0;0;0;0;0;0;0;0;0;0;0;0;0;1;0;0;0;0;0;0;0;0;0;0;0;0;0;0;0;1;0;0;0;0;0;1;1;0;0;0;0;0;1;0;0;0;0;1;0;0;0;0;1;0;0;0;0;0;0;0;0;0;0;0;0;1;0;1;0;1;0;0;0;1;0;0;0;0;0;0;0;1;0;0;0;1
"balio";0;1;0;0;0;0;2;0;0;1;0;0;0;1;0;0;0;0;0;2;0;0;0;0;0;0;0;0;0;0;0;0;0;0;0;0;0;0;0;2;0;0;0;0;0;0;0;0;0;0;0;0;0;0;0;0;0;1;0;0;0;0;0;1;0;0;0;0;0;0;0;0;1;0;0;0;0;0;3;1;0;1;0;0;0;0;0
"salbatu";2;1;0;0;0;0;2;0;0;0;0;1;0;2;0;1;1;2;0;1;0;0;0;1;0;0;0;0;0;0;0;0;2;0;0;0;0;0;0;0;1;0;0;0;0;2;0;0;2;0;0;0;0;1;4;2;0;0;0;0;1;0;0;0;2;0;0;1;1;0;0;0;1;0;0;0;0;0;0;0;0;0;0;0;0;0;1
"jende";0;0;0;0;0;0;0;0;0;0;0;1;0;0;0;1;0;0;0;0;0;1;0;0;0;0;1;0;0;0;0;0;0;1;0;0;0;0;0;0;0;0;1;0;0;0;0;0;1;0;1;0;0;0;0;0;0;0;0;0;1;0;0;0;0;0;0;0;0;0;0;0;0;1;0;0;0;0;0;0;0;0;0;0;1;0;0
"partaide";0;0;0;0;0;0;0;0;0;0;0;0;0;0;0;1;0;0;0;0;1;0;0;0;0;0;0;0;0;0;0;1;1;0;0;0;0;0;0;0;0;0;0;0;0;0;0;0;0;1;0;1;0;0;0;1;0;0;0;1;0;0;0;0;0;0;0;0;0;0;1;0;1;0;0;0;0;0;0;0;0;0;0;0;0;0;0
"jaun";7;5;8;2;0;3;4;5;2;3;2;3;4;10;2;3;3;0;0;0;0;2;3;2;4;8;5;3;2;2;1;2;0;4;2;3;0;0;3;0;4;4;1;5;7;6;7;2;0;0;2;6;6;2;6;3;1;1;4;2;3;0;0;1;3;1;2;0;2;3;1;3;1;2;2;0;0;0;1;2;2;1;4;1;0;0;0
"ezazue";0;0;0;0;0;2;0;1;0;0;0;1;0;0;0;0;0;0;0;0;0;0;0;0;0;1;0;0;0;0;0;1;0;0;0;0;0;0;0;0;0;0;0;0;0;0;1;0;0;0;1;1;2;0;0;0;1;0;0;1;1;0;0;0;0;0;0;0;0;0;0;0;0;1;0;0;1;0;1;0;0;0;0;2;0;0;0
"ikasi";1;0;0;0;0;0;0;0;0;0;1;0;0;0;0;0;1;0;0;0;1;0;0;0;0;1;0;1;0;0;0;0;0;0;0;0;0;0;0;0;0;0;2;0;0;0;0;0;0;0;2;0;0;0;0;0;0;0;0;0;0;0;0;0;0;0;0;0;0;0;0;0;0;2;1;0;0;0;0;0;0;0;0;0;0;0;1
"moises";0;0;0;0;0;1;0;0;0;0;0;0;0;0;0;3;0;0;0;0;0;0;0;0;0;0;0;0;0;0;0;0;0;2;0;0;0;0;0;0;0;0;1;0;0;0;0;0;0;0;0;0;0;0;1;0;0;0;0;0;0;2;0;0;1;0;0;0;0;0;0;0;0;0;0;1;1;0;1;0;0;0;0;0;0;0;0
"bilatu";0;1;0;0;0;0;0;0;0;0;0;0;0;0;0;0;0;0;0;0;0;0;0;1;0;0;0;0;0;0;0;0;0;0;0;0;0;0;1;0;0;0;0;0;0;0;0;0;0;0;0;0;0;0;0;0;0;0;0;3;0;0;1;0;0;0;0;0;1;0;0;1;0;0;1;1;0;0;0;0;0;0;0;0;0;0;0
"maitasun";0;0;0;0;3;1;0;1;0;0;1;0;0;0;1;0;2;1;0;1;0;1;1;1;2;2;2;0;0;0;0;2;2;0;1;1;1;2;2;1;2;1;1;1;1;0;0;0;1;3;2;1;2;0;0;0;2;0;1;1;0;0;0;0;2;0;0;2;0;4;3;1;0;0;0;0;0;0;2;0;1;1;1;0;0;1;1
"zerbitz";0;0;0;0;0;0;0;0;0;1;0;0;0;0;0;0;0;0;0;1;0;0;0;0;0;0;0;0;0;0;0;0;0;1;1;0;1;0;0;0;0;0;0;0;0;0;0;0;0;1;0;0;1;1;0;0;1;2;0;3;1;0;0;0;0;0;0;0;0;1;0;0;0;0;1;0;0;0;1;1;3;0;0;1;1;0;0
"heriotza";1;0;1;0;0;0;6;0;0;1;1;0;0;0;0;0;0;0;0;0;0;0;0;0;0;0;0;0;0;0;0;0;1;1;3;0;0;2;0;0;1;0;0;0;0;0;0;0;2;0;0;0;0;0;0;1;0;0;0;0;0;0;0;1;6;7;2;3;0;0;0;0;1;0;0;0;0;0;0;1;1;0;0;0;0;0;0
"jesusengan";0;0;0;0;0;0;0;0;0;0;0;0;0;0;0;0;0;0;1;0;0;0;0;0;0;0;0;0;0;0;0;0;0;0;0;0;0;0;0;0;2;1;0;0;0;0;0;1;2;1;0;0;0;0;0;0;0;0;0;0;0;0;1;0;0;0;0;0;0;0;0;0;1;0;0;0;1;0;0;0;1;0;0;0;0;0;0
"eitezi";0;0;0;0;0;2;0;0;0;0;0;0;0;2;0;0;0;1;1;0;0;2;0;0;0;0;0;0;0;0;0;0;0;0;0;0;0;0;0;0;0;1;0;0;0;0;0;0;0;0;0;1;0;0;0;0;0;0;0;0;0;0;0;0;0;0;0;0;0;0;0;0;0;1;0;0;0;0;0;0;0;0;0;0;0;3;1
"jakintsu";5;0;0;0;0;0;0;0;0;4;0;0;0;0;0;0;0;0;0;0;0;0;0;0;0;0;0;0;0;0;0;0;0;0;0;0;0;0;0;0;0;0;0;0;0;0;0;0;0;0;0;0;0;0;0;0;1;0;0;0;1;0;0;0;0;0;0;0;0;0;0;0;0;0;0;0;0;0;0;0;0;0;0;0;0;0;0
"on";1;3;3;2;0;4;2;2;0;0;1;1;1;3;1;9;3;2;2;2;3;1;2;4;2;0;1;1;3;2;0;0;1;0;4;2;1;0;4;5;3;5;2;3;2;2;2;0;3;3;4;0;4;8;4;4;2;0;1;6;3;6;2;0;1;0;8;2;2;4;8;2;3;2;7;4;2;3;1;2;6;0;3;0;1;2;6
"emakume";0;0;13;0;0;2;0;0;0;0;0;0;0;6;0;1;0;5;1;0;1;0;0;0;0;0;0;0;0;0;0;0;0;0;0;0;0;0;0;0;0;0;2;0;0;0;0;0;0;0;0;0;0;1;0;0;0;0;0;0;0;0;0;0;0;0;0;0;0;0;0;0;0;1;0;0;0;2;0;0;0;0;0;0;0;1;0
"jakinduria";7;0;0;1;0;0;0;0;6;1;0;0;0;0;0;0;0;0;0;0;0;0;0;0;0;0;0;0;0;0;0;0;0;0;0;0;1;0;0;0;0;0;1;0;0;0;0;1;0;2;0;0;0;0;0;1;0;0;0;0;0;0;0;0;0;0;0;0;0;0;0;0;0;0;0;0;0;0;0;0;1;1;1;0;0;0;0
"hiru";0;1;0;0;0;2;0;0;0;0;0;0;0;0;0;0;0;0;0;0;1;0;0;0;0;0;0;0;0;2;1;2;0;0;0;0;0;0;0;0;0;0;0;0;0;0;0;0;0;0;0;0;0;0;0;0;0;0;0;0;0;0;0;0;0;0;0;0;0;0;0;0;0;0;1;0;0;0;0;0;0;0;0;0;0;0;0
"mundu";7;0;1;0;1;1;0;0;4;3;2;2;2;4;1;0;1;0;0;0;0;2;0;0;0;0;0;0;0;0;0;0;0;0;1;2;0;1;0;0;1;0;0;2;0;0;0;3;3;0;0;0;2;3;1;2;1;0;0;0;0;0;2;1;2;0;0;0;2;0;0;1;0;0;1;0;0;1;0;2;1;5;2;0;1;2;0
"indar";3;1;0;0;0;0;2;0;0;0;0;0;0;0;0;0;1;0;0;0;0;0;1;0;0;0;1;0;1;0;2;0;0;0;1;0;1;0;0;0;4;0;1;0;0;2;0;2;1;1;0;0;1;1;0;0;0;0;0;1;0;0;0;0;0;0;0;2;1;0;0;0;1;0;0;0;2;2;1;0;2;1;0;0;0;0;0
"erabaki";0;0;0;0;0;0;0;0;1;0;0;1;1;1;0;0;0;0;0;0;0;0;0;1;1;0;0;0;0;0;0;2;1;0;0;0;0;0;1;1;1;0;0;0;0;0;0;0;1;0;0;0;0;1;0;1;0;1;0;0;1;0;0;0;1;0;0;0;1;0;0;0;0;0;0;0;0;0;0;0;0;0;0;0;0;0;0
"horrela";3;0;1;1;0;1;1;1;1;0;0;2;0;0;1;0;1;0;0;0;1;1;1;1;1;3;0;2;0;2;0;0;0;0;1;1;0;0;1;1;0;1;1;0;1;0;0;0;1;3;2;1;0;1;0;2;3;0;0;5;0;1;3;4;1;1;5;3;2;0;2;2;1;0;0;0;3;0;2;2;3;1;1;0;0;1;1
"aztertu";0;0;2;0;0;0;0;0;1;0;0;0;0;0;0;0;0;0;1;0;0;0;0;1;0;0;1;0;0;0;0;2;0;0;0;0;0;0;0;0;0;0;0;0;0;0;0;0;0;0;0;1;0;1;0;0;0;0;0;0;0;0;0;0;0;0;0;1;0;0;0;0;0;0;0;0;0;0;0;1;0;0;0;0;0;0;0
"harro";2;0;0;0;0;0;0;0;0;1;1;1;0;0;0;0;0;0;0;0;0;0;0;1;0;0;0;0;3;1;1;0;0;0;0;0;0;1;1;1;0;0;1;0;1;0;0;0;1;0;0;0;0;1;0;2;0;0;0;0;0;1;0;0;3;0;0;0;0;0;0;0;0;0;0;0;0;0;0;0;0;0;0;0;1;0;0
"zeru";0;0;0;0;0;0;1;0;0;0;0;0;0;0;1;0;0;0;0;0;0;0;1;0;0;1;0;0;0;0;1;0;0;0;0;2;0;0;0;0;0;0;0;1;1;0;0;1;1;2;1;0;1;1;0;0;0;0;0;0;0;0;0;0;0;0;0;0;0;0;0;0;1;0;1;0;0;0;0;0;1;0;1;1;0;0;0
"oro";0;0;1;0;0;0;0;0;0;0;0;0;0;0;0;0;0;0;0;0;0;0;0;0;0;0;0;1;2;0;0;2;0;0;0;0;0;0;0;0;0;0;0;0;0;0;0;1;0;2;0;1;1;0;0;0;0;0;1;0;0;0;0;0;0;0;0;0;0;0;0;0;0;0;0;0;0;0;1;0;0;0;0;0;0;0;0
"zuzen";0;0;0;0;0;0;1;0;0;0;0;0;0;0;0;2;1;0;0;0;0;0;1;1;0;0;0;1;0;0;0;1;2;1;0;1;0;0;0;0;0;1;0;0;3;0;1;0;0;0;1;0;1;0;2;0;0;0;0;1;0;1;3;1;2;0;1;0;0;0;0;0;0;1;0;1;0;0;0;0;0;1;0;1;2;0;0
"ibili";1;1;0;0;0;0;0;1;0;0;1;0;1;1;1;2;0;0;0;0;2;0;0;0;1;0;0;0;0;0;1;1;0;0;0;0;1;0;0;0;1;1;1;0;0;0;0;0;0;0;0;0;0;1;0;1;0;1;0;0;1;0;0;1;0;0;0;0;0;0;0;0;0;0;0;1;0;0;1;1;0;1;1;0;0;0;1
"hauek";1;1;1;0;0;0;0;1;0;0;1;0;0;0;0;0;2;0;0;3;3;0;0;0;0;2;0;0;0;0;0;0;0;0;0;0;0;0;0;0;1;0;1;0;0;1;0;0;0;0;0;0;0;0;0;0;0;0;0;2;0;0;0;1;0;0;0;0;1;0;2;0;0;1;0;0;0;0;0;0;2;0;0;2;0;0;2
"zeren";1;0;1;0;0;1;1;0;1;0;0;0;0;1;0;0;0;1;1;1;2;1;0;1;0;1;0;0;0;0;1;0;1;0;0;0;1;0;0;0;0;0;0;0;0;1;1;0;1;0;0;0;0;0;1;0;0;1;0;1;0;0;1;0;1;0;0;1;0;0;0;0;0;0;0;1;1;1;1;2;0;0;0;0;0;0;0
"hasi";0;0;3;0;0;1;0;0;0;0;0;0;0;0;0;0;0;0;0;0;0;0;0;0;0;0;0;0;0;0;0;0;0;1;0;0;0;0;1;0;0;0;0;0;0;0;0;0;0;0;0;0;0;0;0;0;0;1;1;1;0;0;0;0;0;0;0;0;0;0;1;0;0;1;0;1;1;0;0;0;0;0;0;0;1;0;0
"adimen";1;0;0;0;0;3;0;0;0;0;0;0;0;0;0;0;0;0;0;0;0;0;0;0;0;0;0;0;0;0;0;0;0;2;1;0;0;0;0;0;0;0;0;0;0;0;0;0;0;0;1;0;0;1;0;1;0;0;0;0;0;0;0;0;0;0;2;0;0;0;0;0;0;0;0;0;0;0;0;0;0;0;0;0;1;0;0
"buruz";1;0;0;1;0;0;0;0;0;0;0;0;0;0;0;0;0;0;0;0;0;0;0;0;1;2;0;0;0;0;0;0;0;0;0;0;0;0;1;1;1;1;0;0;0;1;0;0;0;0;0;0;0;2;1;1;0;0;0;0;1;0;0;0;0;0;0;0;1;0;0;0;0;0;0;0;2;0;0;1;3;1;0;0;0;0;1
"beste";1;2;1;7;1;4;6;0;0;4;1;1;3;2;1;5;1;0;0;0;2;2;0;1;0;0;1;4;1;2;2;1;1;1;1;1;2;0;6;0;0;2;1;0;0;0;0;0;3;0;4;0;0;2;1;0;1;1;2;2;0;2;2;0;1;0;4;2;3;0;4;3;0;0;5;1;1;4;0;3;0;2;1;0;1;0;0
"maitatu";0;0;0;0;0;0;0;0;0;0;0;0;0;0;0;0;0;0;0;0;0;1;0;0;0;1;0;0;0;0;0;0;0;0;0;0;0;0;0;0;0;0;0;0;0;1;0;0;1;0;0;2;0;0;0;0;0;2;0;0;0;0;0;0;0;0;0;0;0;0;0;1;0;0;0;0;0;0;2;0;0;0;2;0;0;1;0
"zoro";1;0;0;0;0;0;1;0;0;1;1;0;0;0;0;0;0;0;0;0;0;1;0;0;0;0;0;0;0;5;1;0;0;0;0;0;0;0;0;0;0;1;0;0;0;0;0;0;0;0;0;0;0;0;0;0;0;0;0;0;0;0;0;0;0;0;0;0;0;0;0;0;0;0;0;0;0;0;0;0;0;0;0;0;0;0;1
"israel";0;1;0;0;0;0;0;0;0;0;0;0;0;0;0;0;0;0;0;0;0;0;0;0;0;0;0;0;0;0;0;0;0;0;0;0;0;0;0;0;0;0;0;0;0;0;0;0;1;0;0;0;0;0;2;7;0;0;0;0;0;0;0;0;0;0;0;0;5;0;0;0;0;0;0;0;0;0;0;1;0;0;0;0;0;0;0
"borroka";0;0;0;0;0;0;1;0;0;0;0;0;0;0;0;0;1;0;0;1;0;1;0;0;0;0;0;0;2;0;0;0;0;0;0;0;0;1;0;0;0;0;0;1;0;0;0;0;0;0;0;0;1;0;0;0;0;0;0;0;0;0;0;0;0;0;1;0;0;0;2;1;0;1;0;0;0;0;0;0;1;1;0;0;0;0;0
"esklabo";0;0;0;1;0;0;0;0;0;0;0;0;0;4;0;1;0;0;0;0;0;0;0;0;0;0;0;0;0;0;0;0;0;0;0;0;0;0;0;0;0;0;0;0;0;0;0;0;0;0;0;0;4;0;0;0;0;0;0;0;0;0;0;0;0;6;0;1;0;2;0;0;0;0;0;1;1;2;0;0;0;0;2;1;0;1;0
"eder";0;0;0;0;0;1;0;1;0;0;0;0;0;0;0;0;1;1;0;0;0;0;0;1;0;0;0;0;0;0;0;0;1;0;0;0;0;0;0;0;1;0;0;0;0;0;0;0;0;0;0;0;0;0;2;0;0;0;0;0;0;0;0;0;0;0;0;0;0;0;1;0;0;0;0;0;0;0;0;0;0;0;0;0;0;0;0
"ipini";0;0;0;0;0;0;1;0;0;0;0;0;0;0;0;2;0;0;0;0;2;0;0;0;0;0;0;1;0;0;0;0;0;0;2;0;0;0;0;0;0;0;0;0;0;0;0;0;0;0;0;0;0;0;0;0;0;0;0;1;0;0;0;0;0;0;0;0;1;0;0;0;0;0;0;0;1;0;0;0;0;0;0;0;0;0;0
"duzu";1;0;2;0;0;0;0;0;0;0;0;0;0;0;0;0;0;0;0;0;0;0;2;0;0;0;1;0;0;0;0;0;0;0;0;0;0;2;0;1;0;0;0;0;1;0;2;1;0;0;1;0;0;0;0;0;0;0;1;0;2;0;0;0;0;1;0;0;0;0;2;0;1;1;1;0;1;0;0;0;4;1;1;1;0;0;0
"maite";0;0;0;0;0;1;0;2;1;0;2;0;0;0;1;0;0;0;0;0;0;0;0;0;0;0;0;0;0;0;2;0;0;0;0;0;0;0;1;1;2;0;0;0;0;1;0;1;0;0;0;4;2;1;0;0;1;3;0;0;4;0;0;0;0;0;0;2;2;3;0;1;0;0;0;1;0;0;0;0;3;0;0;3;1;0;0
"mezu";1;0;0;0;0;1;1;0;0;0;0;0;0;0;0;0;0;0;0;0;0;0;2;2;0;0;0;0;0;0;0;0;1;0;1;1;1;0;0;0;0;1;0;1;0;0;1;0;0;0;0;0;0;0;5;0;0;0;0;0;2;0;0;0;0;0;0;0;0;0;1;1;0;0;0;0;2;0;0;1;4;0;1;1;2;0;0
"jarraitu";0;0;0;1;0;0;1;2;0;1;0;1;0;5;0;0;1;0;0;2;1;0;1;0;0;0;0;0;0;0;0;0;0;0;0;0;0;0;0;0;1;0;1;0;0;0;3;0;2;0;0;0;0;0;0;0;0;0;0;1;0;0;0;1;0;1;0;4;0;0;3;0;0;0;0;1;0;0;3;0;0;1;1;0;1;0;0
"senar";0;0;0;0;0;1;0;0;0;0;0;0;0;16;0;0;0;0;0;0;0;0;0;0;0;0;0;0;0;1;0;0;0;0;0;0;0;0;0;0;0;0;0;0;0;0;0;0;0;0;0;5;0;0;0;0;0;0;0;0;0;0;0;0;0;0;5;0;0;0;0;0;0;0;0;0;0;0;0;0;0;0;1;0;0;2;0
"irakatsi";0;0;0;0;0;1;1;0;4;0;1;0;0;0;0;1;2;1;1;4;0;2;0;0;0;2;0;0;0;0;0;0;0;0;0;0;0;0;0;0;0;5;1;1;0;0;0;0;0;0;0;0;1;0;0;0;0;0;0;0;0;3;2;0;0;1;0;0;0;0;0;0;0;0;0;0;0;0;0;0;2;2;1;0;3;3;0
"irain";0;0;0;0;0;0;0;0;0;0;1;0;0;0;0;0;0;0;0;0;0;1;0;1;0;1;0;0;0;0;0;0;0;0;0;0;1;1;0;0;0;0;0;0;0;0;0;0;0;0;1;0;0;0;0;0;0;0;0;2;0;0;0;0;0;0;0;0;0;0;0;0;0;0;0;0;0;0;0;0;0;0;1;0;0;0;1
"lehen";0;0;0;0;0;0;1;1;0;0;1;0;0;0;0;0;0;1;0;0;1;0;0;0;0;1;0;0;0;0;0;0;0;1;0;0;0;1;0;0;1;1;0;1;0;2;0;0;1;0;0;0;1;0;0;1;0;0;0;0;2;0;0;0;1;1;0;0;0;1;0;0;0;0;2;0;1;2;1;0;0;0;0;0;1;0;0
"diotsuet";0;0;0;0;0;0;0;0;0;0;0;0;0;4;0;0;0;0;0;0;0;0;0;0;0;0;0;0;0;1;0;0;0;0;0;0;0;0;0;0;0;0;0;0;0;0;0;0;0;0;0;0;0;0;0;0;1;0;0;0;0;0;0;0;0;0;0;0;0;0;0;0;1;0;1;0;0;0;2;0;0;1;0;0;0;0;0
"esker";3;3;1;0;0;4;2;1;0;0;0;0;0;0;0;0;1;0;0;2;0;0;1;1;1;0;1;2;0;0;0;0;1;1;1;0;0;0;1;3;1;0;1;0;1;1;0;1;1;2;0;1;0;4;0;2;0;0;2;0;1;0;1;3;6;1;1;3;0;2;4;0;1;1;0;2;4;1;1;0;4;1;3;1;0;0;1
"nindu";1;0;0;0;0;0;0;0;0;0;0;0;0;0;0;0;0;0;0;0;0;0;0;0;0;0;0;1;0;0;0;0;0;0;0;0;0;2;0;0;1;0;0;2;0;0;0;0;0;0;0;0;0;1;0;0;0;0;0;0;0;0;0;0;0;0;1;0;0;0;0;0;0;0;0;2;0;0;0;0;0;0;0;0;0;0;0
"nahiz";1;3;0;2;3;0;1;1;0;0;0;0;0;2;1;1;0;0;0;1;1;0;0;1;0;0;2;0;0;1;0;1;0;0;0;3;4;0;0;0;0;0;0;0;0;0;0;0;0;1;0;0;1;2;0;0;0;0;2;0;0;1;1;0;0;0;0;0;1;0;1;0;0;3;1;0;0;0;0;1;0;1;2;0;1;0;1
"mintzo";0;1;0;1;0;10;0;0;0;0;0;1;0;0;0;0;0;0;0;0;0;0;0;0;0;0;0;0;0;0;1;1;1;0;0;0;0;0;0;0;0;0;0;0;0;0;0;0;0;0;0;0;0;0;0;2;1;0;0;0;0;0;0;0;0;1;1;0;0;0;0;0;0;0;0;0;0;0;0;0;0;0;0;0;0;0;0
"erabat";0;0;2;0;0;0;0;0;0;0;0;0;0;0;0;0;0;0;0;1;0;0;0;0;0;0;1;0;0;0;0;0;0;0;0;0;0;0;0;0;0;0;0;0;0;1;0;2;0;1;0;0;0;0;0;0;0;1;0;0;0;0;0;1;0;3;0;0;0;0;0;0;0;0;0;0;0;1;1;0;0;0;0;1;0;0;0
"oraindik";0;0;0;1;0;0;1;0;0;1;0;0;0;0;1;0;0;0;0;0;0;0;0;0;1;0;0;1;0;0;0;0;0;0;0;0;1;2;0;0;0;0;0;0;0;0;0;0;0;0;0;0;0;0;0;0;0;0;0;0;0;0;0;0;2;1;1;0;0;0;1;0;0;0;2;0;0;1;0;0;0;1;0;0;0;0;0
"ziur";0;0;0;0;0;0;0;0;0;0;0;0;0;0;0;0;0;0;0;0;0;0;0;0;0;0;0;0;0;0;0;0;1;0;0;0;0;0;0;0;2;0;0;0;0;0;0;0;0;0;0;0;0;0;0;0;0;0;1;1;0;0;1;1;0;0;0;1;0;0;3;0;0;0;0;0;0;0;0;0;0;0;0;0;0;0;0
"hots";2;0;0;0;0;0;2;0;0;0;0;0;0;1;0;4;0;0;0;0;0;0;1;2;0;0;0;1;0;2;0;0;1;0;1;0;1;0;0;0;0;0;0;1;0;1;0;0;1;1;0;0;1;3;4;0;0;0;0;0;1;1;0;0;0;0;0;1;0;1;1;0;0;0;4;3;0;1;0;0;2;0;0;1;0;0;0
"inolako";0;0;0;0;0;0;0;0;0;0;0;0;0;0;0;0;0;0;0;0;1;0;0;0;0;0;0;0;0;0;0;1;0;0;0;0;0;1;0;0;0;0;0;0;0;0;0;0;0;0;2;1;0;0;0;0;0;0;0;0;0;0;0;2;0;0;0;2;0;0;0;0;0;0;0;0;0;1;0;0;0;0;0;0;0;0;0
"esan";4;4;2;8;0;9;10;0;1;2;2;3;1;4;1;6;2;2;0;1;3;0;1;0;1;1;1;3;3;3;5;2;2;1;1;0;2;3;4;4;0;1;0;1;0;1;1;0;0;1;7;0;3;2;5;6;2;2;5;4;0;6;6;7;0;1;2;2;17;2;0;1;2;1;1;3;5;6;2;0;0;2;4;1;3;1;1
"erakutsi";0;0;1;0;0;0;0;0;0;0;0;0;0;0;0;0;1;0;0;1;0;0;0;0;0;0;0;0;0;0;0;0;0;0;0;0;2;0;1;2;0;0;0;0;1;0;0;1;0;1;0;0;0;0;0;0;0;0;0;0;1;1;1;0;1;0;0;0;4;0;0;0;0;0;0;0;0;0;0;1;0;0;0;0;0;0;0
"duenak";0;1;1;0;0;0;0;0;1;0;0;0;1;0;0;1;0;0;1;0;0;0;0;0;0;0;0;0;1;0;1;0;0;0;1;0;0;0;0;2;0;0;0;0;0;0;1;0;0;0;0;1;0;1;2;0;1;3;2;0;0;1;0;0;0;0;0;0;1;0;0;0;0;0;0;0;0;0;0;1;0;0;1;0;0;0;0
"bezala";0;6;6;2;0;10;8;1;1;5;6;1;0;10;3;2;0;0;1;0;1;0;0;4;2;3;5;2;1;6;4;1;3;2;0;2;2;1;2;4;0;4;2;1;1;0;2;0;2;0;4;6;5;2;0;1;1;2;1;3;2;3;3;4;3;3;1;1;2;3;1;6;1;1;0;4;5;2;2;0;1;4;3;0;0;0;0
"herri";1;2;0;0;0;1;0;0;0;0;0;0;0;0;0;0;0;0;0;0;0;0;0;0;0;0;0;0;0;1;0;0;0;0;0;0;1;0;0;0;1;0;0;0;0;0;0;0;5;0;0;0;0;2;3;3;0;0;0;1;1;0;2;4;0;0;0;0;2;0;0;0;0;0;0;0;2;0;0;1;1;0;1;0;0;1;0
"beldur";0;0;0;0;0;0;0;0;1;0;0;0;0;0;0;0;0;0;0;0;0;0;0;0;1;0;0;0;0;1;3;0;0;0;0;0;0;2;0;0;0;0;0;0;0;0;0;0;0;0;0;0;0;0;0;0;0;4;0;0;0;0;1;0;0;0;0;0;0;0;1;0;0;0;0;1;0;1;0;0;0;0;0;0;0;0;0
"jakin";1;1;3;0;0;2;1;0;1;1;0;0;0;0;4;0;1;0;2;0;1;0;1;0;1;0;0;2;1;3;5;0;2;0;2;7;0;1;0;0;2;2;1;0;0;0;1;2;0;1;0;0;1;4;0;0;0;1;1;3;0;2;1;0;0;2;3;2;2;2;6;2;0;1;1;1;2;0;0;0;1;1;1;2;0;0;2
"misterio";0;0;0;0;1;0;1;0;0;0;0;0;0;0;0;0;0;0;1;0;0;0;0;0;0;0;0;0;0;0;0;0;0;0;0;0;0;0;0;0;0;0;0;0;0;0;0;0;0;2;0;1;1;0;0;0;0;0;0;0;2;0;0;0;0;0;0;0;0;0;0;0;0;0;0;0;0;0;0;0;0;0;0;3;0;0;0
"semealaba";0;0;0;0;0;0;0;0;0;0;1;0;0;1;0;0;0;0;2;0;2;0;0;0;0;0;0;0;0;0;0;0;0;0;0;0;1;0;0;0;0;0;0;0;0;0;0;0;0;0;0;1;0;0;0;0;0;0;0;0;0;0;0;0;0;0;0;6;3;0;0;1;0;0;0;0;1;4;0;0;0;0;1;0;0;0;0
"zerbitzu";0;0;0;1;0;0;0;1;0;0;0;0;0;0;0;2;1;0;1;0;0;2;0;0;1;0;0;0;0;0;0;0;0;4;1;1;1;0;3;1;0;0;0;1;0;0;0;0;0;0;0;0;1;0;0;1;1;0;0;1;2;0;0;0;0;4;0;0;0;0;1;1;0;0;0;1;0;0;0;0;0;0;0;1;0;0;0
"gabe";1;2;3;1;0;2;4;0;1;0;1;2;0;1;0;3;1;1;3;1;2;3;1;1;1;1;0;0;2;5;2;0;0;0;0;2;0;0;0;1;0;0;0;0;0;0;0;0;2;0;0;1;2;2;1;0;1;1;2;2;1;3;2;1;0;0;0;0;2;1;2;2;2;0;0;0;1;2;0;1;1;0;0;0;4;4;0
"eliza";0;0;0;0;0;0;1;0;0;0;0;0;0;0;0;0;0;0;1;0;0;0;0;0;0;0;0;0;0;0;0;0;0;0;0;0;0;0;0;0;0;0;0;0;0;0;0;2;0;2;0;8;0;0;0;0;0;0;0;0;0;0;0;0;0;0;0;0;0;0;0;0;1;0;1;0;0;0;0;0;2;0;0;0;0;0;0
"nahi";4;4;4;4;0;4;2;3;1;0;4;1;0;7;0;5;1;2;2;0;2;1;0;2;0;2;1;2;4;1;3;1;1;0;0;4;0;2;2;0;1;2;1;1;2;1;2;1;1;0;2;1;1;2;1;3;2;2;0;4;1;1;0;0;0;0;7;1;9;5;3;3;4;1;5;2;1;4;2;1;3;1;0;1;0;0;1
"arren";1;0;0;2;0;0;0;0;0;0;0;0;0;0;2;1;0;0;0;0;1;0;0;0;0;1;0;0;1;0;1;1;1;1;0;0;2;0;4;0;0;1;0;0;0;0;0;0;0;0;0;0;0;0;0;0;2;0;0;0;0;1;0;2;2;0;1;2;1;1;0;0;0;0;0;1;1;2;0;0;0;0;0;0;0;0;0
"onginahi";0;0;0;0;0;0;1;0;0;0;0;0;0;0;0;0;1;0;0;0;0;0;0;0;0;0;0;0;0;0;0;0;0;0;0;0;1;0;1;0;1;0;0;0;0;0;0;0;2;1;0;1;0;0;0;4;0;0;0;0;0;0;0;0;2;1;0;0;0;0;0;0;0;0;0;1;0;0;1;0;0;0;0;0;0;1;0
"askatasun";0;1;0;0;0;0;0;0;0;0;0;0;0;1;1;0;0;0;0;0;0;0;0;0;0;0;0;0;0;0;0;0;0;2;0;0;0;0;0;0;0;0;0;0;0;0;0;0;0;0;0;0;0;0;0;0;0;0;2;0;0;0;0;0;0;0;0;1;1;1;0;0;0;0;0;1;0;0;2;0;0;0;0;0;0;0;0
"prestatu";0;0;0;0;0;1;0;0;1;0;0;0;0;0;0;0;0;0;0;0;0;0;0;0;0;0;0;1;0;0;0;0;0;0;1;1;0;0;0;2;0;0;0;0;0;0;0;1;0;0;0;1;0;0;0;0;0;1;0;0;0;0;0;0;0;0;0;0;0;1;0;0;0;0;0;0;0;0;0;0;2;0;0;0;0;0;0
"hil";0;3;1;0;0;0;14;0;0;0;0;0;0;1;1;1;0;0;0;0;0;0;1;1;0;3;1;2;0;0;0;0;0;1;0;4;0;0;0;0;0;0;0;1;0;0;0;0;0;0;0;0;0;0;0;2;0;2;6;0;0;0;0;2;5;5;7;3;0;0;3;0;0;0;0;1;0;1;0;1;0;1;0;0;0;0;0
"etengabe";1;0;0;0;0;0;1;0;0;0;0;0;0;0;0;0;0;0;0;0;1;0;1;2;0;0;0;0;0;0;0;0;0;0;0;0;0;0;0;0;1;0;0;0;0;0;0;1;0;0;0;1;1;0;0;0;0;0;0;0;0;0;0;0;0;0;0;0;1;0;0;0;0;0;0;0;0;0;0;0;2;1;0;0;0;0;0
"zaituzte";4;0;0;0;0;0;1;0;0;0;0;0;0;1;0;0;0;0;0;0;0;0;0;0;0;0;0;0;0;0;0;0;1;0;0;0;0;0;0;0;0;0;0;1;0;1;1;0;1;0;0;0;0;1;0;1;0;0;0;0;0;0;0;0;0;0;0;0;0;0;1;0;0;0;0;0;1;0;0;0;1;2;0;0;0;0;1
"egia";0;0;1;0;0;0;2;0;0;1;2;1;0;1;0;1;1;3;3;1;0;2;0;0;0;1;0;1;1;1;2;3;0;0;1;1;2;2;1;0;0;3;3;1;0;3;0;0;0;0;4;1;1;3;0;0;1;0;0;0;0;2;0;1;1;0;0;0;1;0;2;3;1;1;0;3;0;1;2;0;2;1;1;0;5;0;0
"egoki";0;0;0;0;0;1;0;0;0;0;0;0;0;1;0;0;1;1;0;0;0;0;0;0;0;0;0;0;0;0;0;0;0;0;0;0;0;0;0;0;0;0;0;0;0;0;0;0;0;0;1;0;1;0;0;0;0;0;0;0;0;0;0;0;0;0;0;0;0;0;1;0;0;0;0;0;0;1;0;0;0;1;0;1;0;0;0
"baitugu";1;1;0;0;0;0;1;0;0;0;0;0;0;0;0;0;0;0;0;0;0;0;0;0;0;0;0;0;0;0;0;0;0;0;0;2;0;0;0;0;0;0;0;0;0;0;1;0;0;0;0;0;0;0;0;0;0;1;0;0;0;0;0;0;1;0;0;0;0;0;0;0;0;0;0;0;0;0;0;1;1;0;0;0;0;0;0
"eman";2;4;5;5;1;6;4;4;1;2;0;0;1;8;0;0;5;2;1;4;3;1;2;5;1;4;4;7;3;2;2;1;6;0;1;2;1;4;6;6;7;4;2;4;3;3;5;3;1;3;7;4;6;6;3;2;6;0;8;6;4;2;1;3;4;3;2;3;1;2;3;3;1;2;4;3;4;2;2;1;7;1;1;7;2;3;0
"itzazue";0;0;0;1;0;0;0;0;0;0;0;0;0;0;0;0;0;0;0;0;0;0;0;0;0;0;0;0;0;0;0;0;0;0;0;0;0;0;0;0;0;0;0;0;0;0;0;0;0;0;0;2;2;0;0;0;1;0;0;0;0;0;0;0;0;0;0;0;0;0;0;1;0;1;0;0;0;0;0;0;0;0;3;1;0;0;0
"ikan";0;0;0;0;0;0;0;0;0;0;0;0;0;0;0;0;0;0;0;0;0;0;0;0;0;0;0;1;0;0;0;0;0;0;1;0;0;0;0;0;0;0;0;0;0;0;0;0;0;0;0;0;0;0;0;0;0;0;0;1;1;0;0;0;3;1;0;2;0;0;0;0;0;1;0;0;1;0;1;0;0;0;0;0;0;0;0
"askatu";1;0;0;0;0;0;0;0;0;0;0;0;0;0;0;0;0;0;0;0;0;0;1;0;0;0;0;0;0;0;0;0;0;0;0;0;0;0;0;0;0;0;0;0;0;0;0;0;0;0;0;0;0;0;0;0;0;0;0;0;0;0;0;0;0;2;3;3;0;0;0;0;0;0;1;0;1;1;1;0;0;2;0;0;0;1;0
"baliatu";0;0;0;0;0;0;0;0;0;0;0;0;0;2;0;3;0;0;0;1;0;0;0;2;0;0;0;0;1;0;1;0;0;0;0;0;0;0;0;0;0;0;0;0;0;0;0;0;0;0;0;1;0;0;0;0;0;0;0;0;0;0;0;0;0;0;1;0;0;0;0;0;0;0;0;0;1;0;0;0;0;0;0;1;0;0;0
"enukan";0;0;0;1;0;0;1;0;0;0;0;0;0;0;0;0;0;0;0;0;0;0;0;1;0;0;0;0;0;0;1;0;0;0;0;0;0;1;0;0;0;0;0;0;1;0;1;0;2;0;0;0;0;0;0;0;0;0;0;0;0;0;0;0;0;2;0;0;0;0;1;1;0;1;0;0;0;0;0;0;2;0;0;0;0;0;0
"itzuli";0;0;0;0;0;0;2;0;0;0;0;0;0;0;0;0;0;0;0;0;1;0;1;0;0;0;1;0;0;0;0;0;0;1;0;0;0;0;0;0;0;0;0;0;0;0;0;0;0;0;0;0;0;0;0;1;1;0;0;0;0;0;0;0;0;1;0;0;2;0;0;0;0;0;0;0;0;1;0;0;0;0;0;0;0;0;0
"gau";0;0;1;0;0;0;0;0;0;0;0;0;0;0;0;0;0;0;0;0;1;0;0;1;1;0;4;0;0;1;0;0;0;0;0;0;0;0;0;0;1;0;0;0;0;0;1;0;0;0;0;0;0;0;0;0;0;1;0;0;0;0;0;0;0;0;0;0;0;0;0;0;0;0;0;0;0;0;0;0;0;0;0;0;0;0;0
"gai";0;0;1;0;0;0;0;0;1;0;0;0;0;0;0;0;0;0;0;0;0;0;0;1;0;1;0;0;0;0;0;0;1;2;0;0;0;0;1;1;0;1;0;0;2;0;0;0;0;0;1;0;1;0;0;0;0;0;0;1;1;0;0;0;1;0;0;0;1;0;0;1;0;0;0;0;1;0;1;0;1;0;0;0;1;0;0
"ahal";0;1;0;0;0;0;0;2;0;0;0;0;0;0;0;2;0;0;0;0;0;0;0;1;1;0;0;2;0;1;0;0;0;0;0;0;0;0;2;0;0;0;0;0;0;0;0;0;0;1;0;0;2;0;0;0;2;0;0;1;0;0;0;0;0;0;0;0;0;0;1;1;0;0;0;0;0;1;0;1;0;0;0;1;0;0;0
"ahalmen";0;0;0;0;0;0;0;0;0;0;0;1;1;0;0;0;0;0;0;0;0;0;0;0;0;0;0;0;0;0;0;3;0;0;0;0;0;0;0;0;0;0;0;0;2;1;0;1;0;1;0;0;1;1;0;1;0;1;0;1;0;0;0;1;0;1;0;0;2;0;0;0;1;0;0;0;0;0;0;0;1;0;0;0;0;0;0
"beza";0;1;2;0;0;0;0;0;0;2;0;0;0;3;0;0;0;0;0;0;0;0;0;0;0;0;0;0;2;0;0;0;0;0;1;0;0;0;0;1;0;1;0;0;0;0;0;0;0;0;1;1;0;0;0;0;2;0;0;0;0;0;0;0;0;0;0;0;0;0;0;0;0;0;0;0;0;0;0;1;0;0;0;0;0;0;0
"egintza";0;0;0;2;0;0;0;0;0;0;0;0;0;0;0;0;0;0;0;0;3;1;0;0;0;0;0;0;0;0;1;0;0;0;0;0;0;0;3;1;0;0;0;0;0;1;0;0;0;0;0;0;0;1;0;0;0;1;1;1;0;0;0;0;0;0;0;1;0;0;1;0;0;0;0;0;0;0;1;0;2;0;0;0;1;1;3
"gelditu";0;1;1;0;0;2;0;2;0;0;0;0;1;4;0;0;1;0;0;0;2;0;0;0;1;0;0;0;0;0;0;1;0;0;0;0;0;0;0;1;0;0;0;0;0;0;0;0;0;0;0;2;0;0;0;3;0;0;0;1;0;0;0;1;0;1;2;0;0;0;1;0;1;0;0;0;0;0;0;1;0;0;0;0;1;0;0
"agertu";3;0;1;0;0;1;5;0;1;1;1;0;0;0;0;0;0;0;1;0;0;1;0;1;1;0;1;1;0;1;3;1;1;2;3;3;1;2;2;0;2;1;1;1;4;4;0;0;1;1;0;0;0;3;1;0;0;0;1;1;1;1;4;0;0;0;1;2;0;0;3;1;0;4;1;1;2;1;1;0;2;1;2;0;0;4;1
"fede";0;0;0;0;0;1;0;0;0;0;0;0;0;0;1;0;0;0;0;1;0;2;0;0;0;0;0;1;1;0;1;1;0;0;0;0;0;0;0;0;2;0;0;0;0;0;0;0;0;0;0;0;2;3;2;0;0;0;0;6;2;0;0;1;0;0;0;0;2;1;0;0;0;0;0;0;2;0;0;1;0;0;0;0;1;1;0
"emazte";0;0;0;0;0;0;0;0;0;0;0;1;0;3;0;0;0;0;0;0;0;0;0;0;0;1;0;0;0;0;0;0;0;0;0;0;0;0;0;0;0;0;0;0;0;0;0;0;0;0;0;6;0;0;0;0;0;0;0;0;0;0;0;0;0;0;0;0;0;0;0;0;0;0;0;0;0;1;0;0;0;0;2;0;0;0;0
"grina";0;0;0;0;0;0;0;0;0;0;0;0;0;2;0;0;0;0;0;0;1;1;0;0;0;0;0;0;0;0;0;0;0;0;0;0;0;0;0;0;0;0;1;0;0;0;0;0;2;0;1;0;0;2;0;0;0;1;0;0;0;0;0;0;0;0;1;3;0;0;0;0;0;0;0;0;0;0;3;2;0;0;1;0;0;1;1
"nola";0;0;0;0;0;3;2;0;0;1;0;0;0;3;0;0;1;0;2;0;0;0;1;0;1;1;1;0;0;0;0;0;0;0;0;0;0;0;0;0;0;0;0;0;0;0;1;2;0;2;0;1;0;0;4;1;0;0;0;0;1;2;1;0;0;1;0;1;0;0;1;2;0;0;0;0;0;1;0;0;2;0;0;0;0;0;0
"emaztu";0;0;0;0;0;0;0;0;0;0;0;0;0;9;0;0;0;0;0;0;0;0;0;0;0;0;0;0;0;0;0;0;0;0;0;0;0;0;0;0;0;0;0;0;0;0;0;0;0;0;0;2;0;0;0;0;0;0;0;0;0;0;0;0;0;0;2;0;0;0;0;0;0;0;0;0;0;0;0;0;0;0;0;0;0;0;0
"dizued";0;0;1;0;0;0;0;0;0;0;0;0;0;0;0;0;0;0;0;0;0;0;0;0;0;0;0;1;0;1;1;0;1;0;0;0;0;1;0;1;0;0;0;0;0;0;0;0;0;0;1;0;0;0;0;0;0;0;0;0;0;0;0;0;0;0;0;0;0;0;0;0;0;0;2;0;0;0;1;1;0;0;0;0;0;0;0
"grin";0;0;0;0;0;0;0;0;0;2;0;0;0;0;0;0;0;0;0;0;0;0;0;0;0;1;0;0;0;0;0;0;0;0;0;0;0;0;0;0;0;0;0;1;0;0;0;0;0;0;0;0;0;0;0;0;0;0;0;0;0;0;0;0;0;1;1;3;0;0;0;0;0;0;0;0;0;0;1;0;0;0;0;0;0;0;0
"prest";0;0;0;0;0;0;0;0;0;0;0;0;0;2;0;0;0;0;0;0;0;0;0;1;0;0;1;0;2;0;1;0;0;0;0;0;0;0;0;2;0;0;1;0;0;0;0;0;0;0;0;0;0;0;0;0;1;0;0;0;0;0;0;0;1;0;0;0;0;0;0;0;0;0;0;0;0;0;0;0;0;0;0;0;0;0;1
"seme";1;0;0;0;0;0;1;0;0;0;1;0;0;0;0;0;2;0;0;0;1;0;1;0;0;0;0;1;0;0;0;0;0;0;0;0;0;0;0;0;1;1;0;0;0;0;0;0;0;0;0;0;0;2;0;0;0;0;0;0;0;0;0;0;0;0;0;3;3;1;0;1;0;0;1;0;0;9;0;0;1;0;0;0;1;0;0
"bihotz";0;0;0;0;0;0;0;0;0;0;0;0;0;0;0;0;1;0;0;0;0;0;0;2;0;0;0;0;0;0;0;0;0;2;1;0;4;1;1;0;1;1;0;0;0;0;1;0;0;1;0;0;0;1;3;2;1;0;0;1;0;5;0;0;1;1;0;1;1;1;0;0;0;0;0;0;0;1;1;0;0;0;2;0;0;0;1
"santu";1;0;0;0;0;1;2;0;0;0;0;0;1;0;0;0;0;0;0;0;0;0;2;0;1;0;0;0;0;0;0;1;0;0;0;0;1;0;0;0;2;0;1;0;0;0;0;0;0;1;0;1;0;2;0;0;1;0;1;1;0;0;1;0;1;0;0;0;1;0;0;0;0;0;0;0;0;0;0;0;1;0;1;0;0;0;0
"bi";0;0;0;0;0;2;0;0;0;0;0;0;0;0;0;1;0;0;0;0;1;0;0;0;0;0;0;1;0;0;1;2;0;0;0;0;0;0;0;0;0;0;0;0;0;0;0;0;3;0;0;2;0;0;0;0;0;0;0;0;0;0;0;0;0;0;0;0;0;0;0;0;0;0;0;1;0;3;1;0;0;0;0;0;0;0;0
"ezik";1;0;0;0;0;0;0;0;2;0;0;0;0;0;0;0;0;0;0;0;1;0;1;2;0;0;0;0;0;0;0;0;2;0;0;0;0;0;3;1;0;0;0;0;0;0;0;1;0;0;0;0;0;1;0;0;0;1;0;0;1;0;0;1;0;0;0;1;1;0;1;1;0;1;1;0;0;0;0;1;0;0;0;0;0;0;0
"gutun";0;0;0;0;0;0;0;0;0;0;0;1;0;0;0;0;0;0;0;0;0;0;0;0;0;0;1;1;3;0;0;0;1;1;0;0;0;2;0;0;0;0;0;0;0;2;2;0;0;0;0;0;0;0;0;0;0;0;0;0;1;0;0;0;0;0;0;0;0;0;0;0;0;0;0;0;0;0;0;0;0;0;0;1;0;0;0
"gizaki";3;0;0;0;1;2;6;0;3;0;0;0;0;1;0;0;0;2;0;0;0;1;0;1;0;1;0;0;1;0;1;0;0;0;0;0;0;0;1;0;0;0;2;0;0;0;0;0;0;0;1;0;2;1;0;0;0;1;0;0;0;1;0;0;2;1;1;0;0;0;0;0;0;0;4;0;0;0;0;0;0;0;2;0;0;0;3
"bakar";0;2;0;5;0;0;0;0;0;0;0;0;0;0;2;1;1;2;0;0;0;0;0;0;0;0;0;0;0;1;0;0;0;0;0;0;0;0;0;0;0;0;0;0;0;0;0;0;2;0;7;1;0;0;0;0;0;0;0;0;1;0;1;0;6;0;0;0;1;0;0;0;0;0;0;1;3;0;1;0;0;0;0;1;0;0;0
"aitzakan";0;0;0;0;0;0;0;0;0;0;0;0;0;0;0;0;0;0;0;0;0;0;0;0;1;0;1;0;0;0;0;0;0;0;0;0;0;0;0;0;0;0;0;0;0;2;0;0;0;1;0;1;1;0;0;0;0;0;0;0;0;0;0;0;0;0;0;0;0;0;0;0;0;0;0;0;0;0;1;0;1;2;0;0;0;0;0
"eskaini";0;2;0;0;0;0;0;0;0;0;0;1;0;0;4;1;0;0;0;0;0;0;0;0;0;0;0;0;0;1;0;0;1;0;0;0;0;0;0;0;0;0;0;1;0;0;0;0;0;0;0;2;0;0;0;0;0;0;0;0;0;0;0;0;0;2;0;1;0;0;0;1;0;0;0;1;0;0;0;0;0;0;0;0;0;0;0
"harek";0;0;0;0;0;0;0;0;0;0;0;0;0;0;0;0;1;0;0;0;0;0;0;0;0;0;0;2;0;0;0;0;0;0;0;0;0;0;0;0;0;0;0;0;0;0;0;0;0;0;0;0;0;0;3;0;0;0;0;2;0;0;0;0;0;1;0;0;1;0;0;0;0;0;0;0;0;0;0;0;0;1;0;0;0;0;0
"senide";3;1;1;1;0;2;5;4;1;1;0;0;3;2;4;0;0;0;0;1;0;1;1;4;1;5;6;1;0;2;0;1;0;0;0;0;0;0;1;1;0;0;0;1;1;3;5;0;0;0;0;0;1;1;1;1;2;0;5;3;1;0;0;0;0;0;2;2;1;0;2;0;3;3;2;0;1;3;2;3;1;1;0;1;0;0;0
"benetako";0;0;1;1;0;0;0;0;0;0;0;0;0;0;0;0;0;0;0;0;0;0;0;0;0;0;0;0;0;0;0;0;0;0;0;0;1;0;0;0;0;1;1;0;0;0;0;0;0;0;1;0;0;0;0;0;0;0;0;0;0;4;0;0;0;0;0;1;4;0;0;0;0;0;0;0;1;0;0;0;0;0;1;0;0;0;0
"israeldar";0;0;0;0;0;0;0;0;0;0;0;0;0;0;0;0;0;0;0;0;0;0;0;0;0;0;0;0;0;0;0;0;0;4;0;0;0;0;0;0;0;0;0;0;0;0;0;0;0;0;0;0;0;0;1;6;0;0;0;0;0;0;0;0;0;0;0;0;1;0;0;0;1;0;0;0;0;0;0;0;0;0;0;0;0;0;0
"jentila";0;0;0;0;0;0;0;0;0;0;0;1;2;0;0;0;0;1;0;0;0;0;0;0;0;0;0;0;0;1;0;0;0;0;0;0;0;0;0;0;0;0;0;0;0;0;0;0;0;0;0;0;0;0;0;1;0;0;0;1;1;0;0;0;0;0;0;0;1;0;0;0;0;0;0;3;0;0;0;0;0;0;0;0;0;0;0
"oinarritu";0;0;0;0;0;0;1;0;1;0;0;0;0;0;0;0;1;0;0;0;0;0;0;1;0;1;0;0;0;0;0;0;0;2;0;0;0;0;0;0;1;0;0;0;0;0;0;0;0;0;0;0;0;0;0;0;0;0;0;0;0;1;0;0;0;0;0;0;2;0;0;0;0;0;0;1;1;0;0;0;1;2;0;0;1;0;0
"beraiek";0;0;0;0;0;0;0;0;0;0;0;0;0;0;2;0;0;0;0;0;0;0;1;0;0;0;1;0;0;0;0;0;0;0;0;0;0;0;0;0;0;0;0;0;0;0;0;0;1;0;0;0;0;1;1;0;0;0;0;0;0;1;0;0;0;0;0;0;2;0;0;0;0;0;0;1;0;0;0;0;0;0;0;0;0;1;0
"hondatu";1;0;0;0;0;0;0;0;0;2;0;0;1;0;0;0;0;0;0;0;0;1;0;0;0;0;0;0;1;0;0;1;0;0;1;1;0;0;0;0;0;0;0;0;0;2;0;0;0;0;1;0;0;0;0;2;0;0;1;0;0;0;0;0;0;0;0;0;1;0;0;0;0;0;0;0;0;0;0;0;0;0;0;0;0;0;0
"joan";0;1;1;0;0;0;0;9;1;0;4;0;0;0;0;0;1;0;1;1;0;0;1;1;0;0;0;2;1;0;4;1;2;0;0;1;0;0;0;2;0;0;0;2;0;0;0;0;1;1;1;0;0;1;0;0;0;0;0;3;0;0;0;0;0;0;0;0;0;0;2;2;0;0;1;1;0;0;0;0;0;0;0;1;0;0;0
"nau";0;0;0;0;0;0;1;0;0;0;0;0;1;0;0;0;0;1;0;0;0;0;0;0;0;0;0;2;0;0;1;0;1;0;0;0;0;3;0;1;1;0;1;1;0;0;0;0;0;1;0;0;0;0;0;0;0;0;0;0;0;0;1;0;0;0;1;0;0;1;1;0;0;1;0;0;0;0;0;0;1;0;0;0;0;0;0
"uste";2;1;1;0;0;1;0;0;0;1;0;0;0;2;0;0;0;0;0;0;0;0;0;1;0;0;0;1;1;1;1;0;0;1;0;2;0;0;1;0;0;0;0;0;0;0;0;0;0;0;1;0;0;0;0;0;0;0;3;0;0;0;0;0;0;0;0;0;0;0;1;0;5;1;0;0;2;0;0;0;0;0;0;0;0;0;0
"gu";11;4;1;1;0;0;9;0;5;1;8;3;2;0;2;3;5;1;2;1;0;3;6;9;12;2;6;9;1;2;0;1;2;1;11;4;3;0;2;0;5;1;0;1;8;9;9;2;5;3;0;3;2;2;3;1;0;0;0;3;3;0;2;6;6;4;2;9;3;4;3;0;5;3;4;5;0;3;2;2;3;1;0;1;2;5;5
"edo";1;2;3;2;0;4;0;0;0;1;1;2;0;2;0;1;0;0;0;0;3;0;0;0;0;1;0;0;1;3;1;2;0;1;0;0;0;0;0;0;0;0;0;0;0;3;0;0;0;0;0;1;1;1;0;0;0;0;2;1;0;0;1;0;0;0;0;0;1;0;0;0;0;0;2;2;0;1;1;0;0;1;1;0;0;0;0
"sinetsi";0;0;0;0;0;0;1;0;0;0;0;0;0;0;0;0;1;0;0;0;0;0;0;1;0;1;0;0;0;1;0;0;0;0;3;0;0;0;0;0;0;0;0;0;1;2;0;2;0;0;0;0;0;0;9;0;0;1;0;0;2;0;2;7;0;1;0;0;1;0;1;0;0;0;0;1;4;0;0;0;1;2;0;0;0;0;1
"agur";0;0;0;0;0;0;0;4;0;0;0;0;0;0;0;0;0;0;0;0;0;0;0;0;0;0;0;0;0;0;0;1;1;0;0;0;0;0;0;0;0;0;0;1;0;0;1;0;0;0;0;0;0;0;0;0;0;0;0;0;5;0;0;0;0;0;0;0;0;1;0;0;0;3;0;0;0;0;0;0;0;0;0;3;0;0;1
"zein";0;0;0;0;0;0;0;0;0;0;0;0;1;0;0;0;0;0;0;0;0;0;0;1;0;0;0;0;0;0;0;0;0;0;0;0;1;0;1;0;0;0;0;0;0;0;0;2;1;1;0;1;0;1;0;0;0;1;0;0;0;0;0;0;0;0;0;1;1;0;0;0;0;1;2;0;0;0;0;0;2;1;0;0;0;0;0
"zuenga";0;0;0;0;0;0;0;0;0;1;0;0;1;0;0;1;0;0;0;0;0;0;0;1;0;0;0;1;0;0;0;1;0;0;0;0;0;3;1;1;0;0;0;0;1;0;0;0;0;0;0;0;0;0;0;0;0;0;0;0;0;0;0;0;0;0;0;4;0;0;1;0;0;0;0;1;0;1;0;0;2;0;1;0;0;0;0
"liburu";2;0;0;0;0;1;5;0;1;1;0;0;0;0;0;0;0;0;0;1;0;0;0;0;0;0;0;0;0;0;0;0;0;1;0;0;0;0;1;1;0;0;3;1;0;0;0;0;0;0;0;0;0;1;1;3;1;0;1;5;0;1;2;3;0;0;0;0;3;0;0;0;0;1;0;0;7;3;0;0;0;0;0;0;0;0;0
"behartu";0;0;0;0;0;0;0;0;0;0;0;0;0;2;0;0;0;0;0;0;0;0;0;0;0;0;0;0;1;0;1;0;0;0;0;0;0;0;0;1;0;0;0;0;0;0;0;0;0;0;0;0;0;0;0;0;0;0;0;0;0;0;0;0;0;0;1;1;0;1;0;0;0;0;0;2;0;0;1;1;0;0;0;0;0;0;0
"zu";3;2;0;1;0;2;3;3;0;1;3;1;2;0;1;0;1;0;1;1;0;2;0;3;2;0;1;1;0;2;1;5;2;0;1;1;0;1;2;0;6;1;2;2;1;2;3;1;0;1;0;0;0;0;0;10;2;0;6;5;2;5;2;2;0;0;0;0;1;9;1;1;0;1;0;1;3;4;0;1;0;0;0;1;0;1;1
"gainera";0;1;0;0;0;0;0;0;0;0;1;0;1;0;0;0;0;0;0;0;1;0;0;1;0;0;1;0;0;0;0;0;0;0;0;0;0;0;1;0;0;0;0;0;0;0;0;0;0;0;0;0;0;0;0;1;0;0;0;2;0;0;1;1;0;0;0;0;0;1;0;0;0;1;0;0;0;0;0;0;0;0;0;0;0;0;0
"jantzi";0;0;0;0;0;0;2;0;0;0;0;0;0;0;0;0;0;1;0;0;0;1;0;0;0;0;0;0;0;1;0;0;0;0;0;4;0;0;0;0;0;0;0;0;0;0;0;0;0;0;1;0;1;0;0;0;0;0;0;0;0;0;0;0;0;0;0;1;0;0;1;0;0;0;0;0;1;0;0;0;1;0;1;0;0;0;0
"irudi";0;1;1;0;0;0;1;0;0;0;0;0;0;0;0;0;0;0;0;0;0;0;0;0;0;0;0;0;0;0;0;0;0;1;1;0;0;0;0;0;0;0;0;0;0;0;0;0;0;0;1;0;0;1;0;0;0;0;0;0;0;0;0;0;1;0;0;0;0;0;0;0;0;0;0;0;0;3;0;0;0;0;1;0;0;0;0
"gero";0;1;0;3;0;1;6;1;0;0;1;1;0;3;0;1;1;1;1;2;0;2;0;1;1;4;0;1;2;0;0;2;0;1;0;0;1;1;2;1;0;1;1;0;2;0;0;0;0;0;1;0;0;1;0;2;0;0;0;0;0;0;0;0;1;2;2;3;1;1;1;1;1;0;1;1;1;2;1;2;1;2;4;0;1;0;0
"gogor";0;0;0;0;0;0;0;0;0;0;0;0;0;0;0;1;0;0;0;0;0;0;0;0;0;0;0;0;2;0;0;0;0;0;0;0;0;0;1;0;0;0;0;1;0;0;0;0;0;0;0;0;1;0;0;0;0;0;0;0;0;0;0;0;0;0;0;0;0;0;0;0;0;0;1;1;0;0;0;0;0;2;0;0;0;0;0
"eraman";0;0;2;0;0;1;0;1;0;0;0;0;0;0;0;0;0;0;0;0;0;0;0;0;0;2;0;2;1;0;2;0;0;1;0;0;0;3;1;0;0;1;1;1;1;0;0;0;0;0;4;0;1;1;0;0;0;0;0;2;0;0;0;0;0;0;0;2;0;0;0;0;0;0;0;1;0;0;0;2;1;0;1;0;0;0;0
"kontu";0;1;1;0;0;0;0;0;0;0;0;0;0;0;1;1;1;0;0;1;0;0;0;0;0;0;0;0;0;0;1;0;0;0;0;1;0;0;0;1;0;0;0;2;0;0;2;0;0;0;0;0;1;0;0;0;1;0;1;0;0;0;0;0;0;2;0;0;2;0;0;0;0;1;0;0;0;0;0;0;0;0;0;0;0;0;0
"itxaropen";0;0;0;0;0;0;1;1;0;0;0;0;0;0;0;1;1;0;0;1;1;0;1;1;0;1;1;3;2;0;0;0;0;1;0;0;0;0;0;0;0;0;0;0;0;1;1;0;1;0;1;0;0;0;0;0;0;0;0;5;0;0;0;0;3;0;0;2;0;1;1;1;1;0;0;0;0;0;1;0;4;0;0;0;1;1;0
"ezagutu";2;0;0;0;1;0;1;0;3;0;0;0;0;0;0;2;0;1;0;1;0;0;0;0;0;1;0;0;0;0;1;0;0;1;0;0;0;0;0;0;0;2;0;0;0;0;0;1;0;1;1;0;0;1;0;1;0;0;0;0;0;3;0;0;0;0;1;2;0;0;0;1;1;0;2;0;0;3;0;0;3;1;1;0;1;0;0
"zuek";1;2;3;2;0;2;3;3;0;3;2;2;1;0;0;3;0;0;0;0;0;0;3;11;3;1;3;10;3;4;5;3;5;1;0;1;3;6;6;5;0;0;0;0;3;0;5;1;4;0;2;0;2;5;0;3;0;0;1;3;1;0;0;0;0;0;1;5;1;0;6;4;1;4;1;0;2;6;4;2;2;2;4;4;0;0;0
"saiatu";0;1;0;0;0;2;0;1;0;0;0;0;0;0;0;1;0;0;0;2;0;1;1;1;0;2;1;0;0;0;0;1;0;0;0;0;0;0;0;0;0;2;0;1;0;0;0;0;1;0;2;1;0;0;0;0;4;0;2;1;0;0;1;0;0;0;0;0;3;0;0;1;0;0;1;1;0;0;0;1;0;0;0;1;0;0;0
"eraiki";0;1;0;0;0;0;0;0;0;5;0;0;0;0;0;0;0;0;0;0;0;0;0;0;0;0;0;0;0;0;0;0;0;0;0;0;0;0;0;0;0;0;0;0;0;0;0;0;1;0;1;0;0;0;0;0;0;0;1;1;0;0;0;0;0;0;0;0;0;0;0;0;0;0;0;1;0;0;0;0;0;0;0;0;0;0;0
"etsai";0;0;0;0;0;0;2;0;0;0;0;0;0;0;0;0;0;0;0;0;1;0;0;1;0;0;0;0;0;0;0;0;0;0;0;0;0;0;0;0;0;0;1;0;0;1;1;0;1;0;0;0;1;1;0;1;2;0;0;0;0;0;0;0;1;0;0;0;0;0;1;0;1;0;0;0;0;1;0;0;1;0;0;0;0;0;0
"aukeratu";2;0;0;0;0;0;0;1;0;0;0;0;1;1;0;0;0;0;0;0;0;0;1;0;0;0;0;0;0;0;0;0;0;0;0;0;0;0;1;0;0;1;0;0;0;1;0;0;0;0;0;0;0;0;0;2;0;0;0;0;0;0;0;0;0;0;0;3;2;0;0;0;0;0;1;2;0;0;0;0;0;0;1;0;0;0;0
"zerbait";1;1;0;0;0;0;0;0;0;0;0;0;0;0;1;0;0;0;0;0;0;0;0;0;0;0;0;0;0;0;0;0;0;0;0;0;0;0;0;0;0;0;0;0;0;0;0;0;0;0;1;0;0;0;0;0;0;0;5;0;0;0;0;1;0;0;0;0;0;3;0;0;0;0;0;0;1;1;0;1;0;0;1;0;0;0;0
"gertatu";0;3;2;1;0;2;2;0;0;0;0;1;0;0;2;1;0;0;0;0;1;0;1;1;3;1;0;0;0;1;1;0;0;0;2;0;0;2;1;3;0;1;2;0;1;2;0;0;0;0;0;0;0;1;0;4;0;0;1;0;0;0;0;1;1;0;2;0;1;0;2;0;0;0;0;2;1;1;0;0;0;0;0;2;0;0;0
"handi";0;0;1;1;0;0;0;1;0;0;0;0;0;1;0;1;0;0;1;0;0;1;0;1;2;1;1;1;1;1;1;0;1;2;0;0;1;2;0;0;0;1;0;1;1;1;0;1;0;0;0;1;0;0;1;1;1;0;0;1;0;0;0;0;0;0;0;0;2;0;0;1;0;3;0;0;0;0;0;1;1;0;0;0;0;1;0
"sartu";0;0;0;0;0;2;1;0;0;0;0;0;0;0;0;0;0;0;0;0;1;0;0;0;0;0;0;0;1;0;1;0;0;0;0;0;0;0;0;0;0;0;1;0;0;0;0;0;0;0;1;0;0;0;0;0;0;0;0;0;0;0;0;0;1;0;0;0;0;0;0;0;0;0;0;1;0;0;0;0;0;0;0;0;0;0;0
"baizik";1;3;2;1;0;1;3;0;4;1;2;2;1;3;0;2;1;1;1;0;1;1;1;3;0;2;2;3;3;1;3;1;2;3;2;2;1;3;2;0;4;1;0;0;0;0;1;0;2;0;4;3;2;1;0;1;3;2;2;2;1;1;0;3;0;2;2;4;3;1;1;3;1;1;2;1;1;3;1;0;0;0;1;0;0;2;2
"dohain";1;0;0;7;1;6;0;0;1;1;0;0;0;1;0;1;0;0;0;0;0;0;0;0;0;0;1;0;0;1;0;0;0;0;1;0;0;0;0;3;1;1;0;0;0;1;0;0;1;1;2;0;0;2;0;1;2;0;1;1;0;0;1;2;6;1;0;1;0;0;1;0;1;0;0;1;1;0;0;0;0;0;0;0;0;0;0
"bestela";1;0;0;0;0;0;0;0;0;0;0;1;0;0;0;1;0;0;0;0;0;0;0;1;0;0;0;0;0;1;0;0;0;0;0;0;0;2;0;0;2;0;0;0;0;0;0;0;0;0;0;0;0;0;0;2;0;0;0;0;0;0;0;0;0;0;0;0;0;0;0;0;1;0;0;1;0;1;1;0;0;0;0;0;0;0;0
"zergatik";0;2;0;0;0;0;0;0;0;0;1;0;1;0;0;0;0;0;0;0;0;0;0;0;0;0;0;0;0;0;0;0;0;0;0;0;0;0;0;0;0;0;0;0;0;0;0;0;0;0;0;0;0;0;0;0;0;0;1;0;0;1;1;0;0;0;0;0;1;0;0;0;0;0;0;1;0;0;0;0;0;1;0;0;0;0;0
"atera";0;1;0;0;0;0;0;0;0;1;0;1;0;0;0;0;0;0;0;0;0;1;0;0;0;0;0;3;0;0;1;2;1;0;0;0;0;0;0;0;0;0;1;3;0;0;1;0;0;0;1;0;0;0;1;0;0;0;0;0;0;0;1;0;0;0;0;1;0;0;0;0;0;1;0;0;0;1;0;0;1;0;0;0;0;0;0
"eskatu";1;0;0;0;0;1;0;1;0;0;2;0;0;0;0;0;1;1;0;0;1;0;0;1;1;1;2;0;0;0;2;1;0;0;0;1;1;0;3;1;0;1;0;0;0;1;0;0;0;2;2;0;0;1;1;0;1;0;0;0;0;0;0;0;0;0;0;1;1;2;2;0;0;2;1;1;0;0;0;0;1;0;0;0;0;0;0
"kontzientzia";0;4;0;0;0;0;0;0;0;0;1;0;0;0;6;0;2;0;1;0;0;0;0;0;0;0;0;2;0;0;0;0;0;0;0;0;0;0;0;1;0;0;0;0;0;0;0;0;0;0;0;0;0;0;0;0;0;1;1;0;0;1;0;0;0;0;0;0;1;0;0;0;0;0;0;0;0;0;0;0;0;0;0;0;1;0;0
"baldin";0;0;0;0;0;0;0;0;0;0;1;0;0;2;0;1;0;0;0;0;2;0;0;0;0;0;0;0;0;0;0;0;1;0;0;0;0;0;0;0;0;0;0;0;0;0;0;0;0;0;0;0;0;0;0;2;0;0;1;0;0;0;0;0;1;0;0;2;1;0;0;0;0;0;0;1;1;0;0;0;0;0;0;0;0;0;0
"lagun";0;1;0;0;0;0;1;0;0;0;0;0;0;0;0;0;0;0;0;0;0;0;0;0;0;0;0;2;0;0;1;0;0;0;0;0;0;0;2;0;0;0;0;0;0;0;0;0;0;0;2;0;0;0;0;0;0;4;0;2;1;0;0;0;0;0;0;1;0;0;0;2;0;1;0;0;0;0;2;0;0;0;0;0;0;1;0
"lagundu";0;0;0;1;0;3;0;0;0;0;0;0;0;0;0;0;0;0;0;0;2;0;0;0;0;0;1;0;1;0;1;0;0;0;0;0;1;0;0;0;0;0;0;0;0;0;0;0;0;0;0;0;0;0;0;0;0;1;0;2;1;0;0;0;0;0;0;0;0;0;0;2;0;1;0;0;0;0;0;1;0;0;0;0;0;0;0
"oker";0;0;0;0;0;0;0;0;0;0;0;0;0;0;0;0;0;0;0;0;1;0;0;1;0;0;0;0;0;0;0;1;0;0;0;0;0;0;0;0;0;0;2;0;0;0;1;0;0;0;1;0;0;2;0;0;0;0;0;0;0;0;0;0;0;0;0;0;0;0;0;0;0;0;0;1;0;0;0;0;0;0;0;0;2;0;1
"hemen";0;0;0;0;0;0;0;0;0;0;1;1;0;0;0;0;0;0;0;0;0;0;0;0;0;0;0;1;0;0;0;0;0;0;0;1;0;0;0;0;0;0;0;0;0;0;0;0;0;0;0;0;0;0;0;0;0;0;0;1;0;0;0;0;0;0;0;0;1;0;1;0;0;0;0;0;0;1;0;1;0;0;0;1;0;0;0
"egin";9;15;19;6;1;16;12;9;2;6;5;4;10;10;6;15;6;6;0;3;5;5;4;11;2;7;12;3;1;11;2;2;5;5;8;5;2;10;7;5;5;7;3;5;4;3;9;1;9;3;8;7;8;13;13;10;6;8;2;13;7;23;6;15;8;7;16;15;10;7;11;10;2;3;7;8;12;5;4;3;7;5;3;4;2;5;3
"dezala";0;0;3;0;0;3;0;1;0;0;0;0;0;5;0;0;0;0;0;0;1;0;0;0;1;2;1;0;0;0;1;0;0;0;0;0;0;0;1;0;0;0;0;0;0;0;1;0;0;0;1;0;0;0;0;0;0;0;3;1;0;0;0;0;0;0;0;0;0;0;0;0;0;1;0;0;0;0;0;0;0;0;0;0;0;0;0
"aintza";0;0;0;0;0;0;0;0;1;0;0;0;0;0;0;0;1;0;0;0;0;0;0;1;0;0;0;0;0;0;0;0;0;1;2;0;0;0;1;0;0;1;0;0;1;1;0;2;0;2;0;0;0;1;0;0;0;0;0;0;1;1;0;0;1;0;0;0;1;0;1;0;0;1;0;0;0;0;0;0;0;0;0;0;0;0;0
"behin";0;0;0;0;0;0;1;1;0;0;0;0;0;0;0;0;0;0;2;0;2;0;0;3;0;1;0;0;0;1;0;0;0;0;1;0;0;0;0;0;0;0;0;0;0;0;0;0;0;0;0;0;0;0;0;1;0;0;0;1;0;0;1;0;1;2;0;0;0;0;0;0;0;1;0;1;0;0;0;0;0;0;0;0;1;0;1
"gizon";0;0;8;0;0;0;2;0;0;0;0;0;0;2;0;0;0;1;1;0;0;1;0;0;0;0;0;0;1;0;2;0;0;0;0;0;0;0;0;0;0;1;1;0;0;1;1;0;0;0;0;0;0;0;0;2;0;0;0;0;0;0;0;0;5;0;4;0;0;1;0;0;0;0;0;0;0;0;0;0;0;1;0;0;0;0;0
"bitart";2;0;0;0;0;0;1;0;0;0;0;0;0;0;0;0;0;0;0;0;0;0;0;0;0;0;1;1;0;0;0;0;1;0;0;4;0;0;0;1;0;0;0;0;0;0;0;0;1;3;2;0;0;1;0;0;0;0;0;0;1;0;1;0;4;1;1;1;0;0;0;0;1;1;0;0;3;0;0;0;0;3;0;0;1;0;1
"jesus";0;0;1;2;0;0;0;1;0;0;0;2;0;0;0;1;3;1;0;0;0;0;1;1;2;3;1;1;0;2;0;0;0;0;2;0;0;0;0;0;2;0;0;0;3;1;0;1;3;1;0;0;0;0;1;0;0;0;1;0;0;0;0;2;0;0;0;1;0;1;2;1;1;0;0;0;0;0;0;0;0;1;1;0;0;0;0
"dezazuen";0;1;0;0;0;0;0;1;0;0;1;0;0;0;0;0;0;0;0;0;0;0;0;0;0;0;0;1;0;0;0;0;0;0;0;0;0;0;1;1;0;0;0;0;0;0;0;1;0;0;0;0;1;0;0;0;0;0;0;0;0;0;0;0;0;0;0;0;0;0;1;0;0;0;0;0;0;0;0;0;0;0;2;1;0;0;0
"utzi";0;1;0;2;0;0;2;0;0;0;0;1;1;0;0;0;4;0;0;0;0;2;1;0;1;0;0;0;0;0;0;0;1;0;1;2;0;1;1;0;2;1;0;3;0;0;0;0;0;0;0;2;0;5;0;3;3;1;4;1;0;0;4;0;0;0;0;0;2;1;0;0;0;0;0;0;1;0;0;0;0;0;0;0;2;0;1
"bakoitz";0;0;2;4;0;0;1;1;0;4;0;0;0;6;0;0;0;0;0;0;0;1;0;0;0;1;0;0;0;0;0;0;0;0;0;0;0;0;0;1;0;0;0;0;0;0;0;0;0;0;2;1;1;1;0;0;4;0;1;0;0;1;0;0;0;0;0;0;0;0;1;0;0;0;0;0;0;0;0;1;0;0;0;1;1;0;0
"iritzi";1;0;0;0;0;1;0;0;0;0;0;0;0;3;0;0;0;0;0;0;0;0;0;0;0;0;0;0;0;0;0;0;0;0;0;0;0;0;0;0;0;0;0;0;0;0;0;0;0;0;0;0;0;0;0;0;0;0;1;0;0;0;0;0;0;0;0;1;0;0;0;1;0;0;0;0;0;0;1;0;0;0;0;1;0;0;0
"ikusi";0;0;0;0;0;0;0;1;2;1;1;0;0;0;1;1;0;0;1;1;0;0;0;2;4;0;0;1;0;0;1;0;0;1;4;1;0;3;2;1;1;0;1;0;0;0;0;0;0;1;0;1;0;2;0;2;0;0;0;3;0;0;0;1;0;0;2;1;0;0;5;3;0;3;2;1;1;0;0;0;0;2;0;1;0;0;0
"ari";0;2;0;0;0;3;1;1;0;1;1;0;0;2;0;4;2;0;0;0;4;0;0;2;1;0;0;0;2;1;2;2;1;1;4;0;0;0;1;0;0;0;0;0;3;1;0;1;1;2;1;0;1;1;0;0;0;0;0;0;1;1;0;0;0;0;3;1;0;0;4;0;1;0;1;0;2;0;1;1;7;3;0;1;0;0;0
"berriro";0;0;0;0;0;0;1;0;0;0;1;0;0;2;0;0;0;0;0;0;1;0;0;0;1;1;0;1;0;1;1;0;2;1;0;1;0;0;0;0;0;0;0;0;0;0;0;0;0;0;0;0;0;0;0;2;0;0;0;0;0;0;0;0;0;1;0;1;0;1;2;1;1;0;1;3;0;3;3;0;0;0;0;0;0;0;0
"maiteo";0;1;0;0;0;0;1;0;0;0;0;0;0;0;0;0;0;0;0;0;0;0;1;0;0;0;0;0;0;0;1;0;0;0;0;0;0;1;0;0;0;0;0;0;0;1;0;0;0;0;0;0;0;0;0;0;1;0;0;0;0;0;0;0;0;0;0;0;0;0;0;1;0;2;0;0;0;0;0;0;0;0;0;0;0;0;0
"kristo";19;1;4;1;0;0;14;1;2;2;1;1;3;1;3;2;6;1;1;1;1;3;2;1;1;0;5;6;5;3;1;4;6;3;3;8;1;0;2;1;6;4;2;1;3;3;4;6;9;9;6;9;4;5;3;0;0;1;3;11;7;1;3;0;7;4;2;10;2;6;14;4;6;3;6;5;5;2;3;5;9;7;6;2;2;1;1
"haragi";0;1;0;0;0;0;3;0;0;0;0;0;0;0;5;0;0;0;0;0;1;0;0;0;0;0;0;0;0;0;1;0;0;0;0;0;0;0;0;0;0;0;0;0;0;0;0;0;0;0;0;0;0;0;0;0;0;0;1;0;0;0;0;0;0;0;0;0;0;0;0;0;0;0;0;0;0;0;0;0;0;0;0;0;0;0;0
"aurka";1;0;0;0;0;0;0;1;0;0;0;0;3;0;2;0;0;0;0;0;0;0;0;0;0;0;0;0;1;0;0;1;0;0;0;0;0;0;0;0;0;1;2;0;0;1;0;0;0;0;0;1;3;0;0;1;0;2;0;1;0;0;0;0;0;0;0;1;0;0;0;0;0;0;0;0;1;0;1;0;0;0;1;0;0;0;0
"dena";2;10;2;4;0;11;12;1;1;1;1;0;6;6;3;3;1;0;0;0;1;1;0;0;0;1;1;1;0;0;0;0;0;1;0;3;0;0;1;2;0;1;1;0;0;0;2;2;0;0;6;3;0;2;2;0;1;1;3;1;1;2;6;0;2;0;1;1;2;0;1;3;3;2;0;1;1;2;0;1;3;1;3;1;2;0;0
"jan";0;8;6;0;0;0;1;0;0;1;0;0;0;0;2;1;0;0;0;2;0;1;0;0;0;0;0;0;0;1;0;0;0;0;0;0;0;0;0;0;0;0;0;0;0;0;2;0;0;0;0;1;0;0;0;0;2;0;11;0;0;0;0;0;0;0;0;0;0;0;0;0;0;0;0;0;0;0;0;0;0;0;0;0;0;0;0
"bizitu";1;0;0;0;0;0;0;0;0;0;0;0;0;3;0;1;0;0;0;0;0;0;0;1;0;3;0;0;0;0;0;0;0;0;0;1;0;0;0;0;0;0;0;0;0;0;1;0;0;0;1;0;0;0;0;0;0;0;0;0;0;0;0;0;0;2;0;3;0;0;3;0;0;1;0;2;0;0;1;0;0;1;0;0;0;1;0
"atsekabe";0;0;0;0;0;0;0;0;0;0;0;0;0;0;0;0;0;0;0;0;0;1;1;0;2;1;0;2;0;0;0;0;1;0;0;0;1;2;0;0;0;0;0;0;0;0;0;0;0;1;0;0;0;0;0;0;0;0;0;0;0;1;0;0;1;0;0;1;0;0;0;0;0;0;0;0;0;0;0;0;1;0;0;0;0;0;0
"azaldu";0;0;0;1;0;0;0;0;0;0;0;0;0;0;0;0;0;0;0;0;1;0;0;0;0;0;0;0;0;0;0;0;0;0;1;0;0;1;0;0;0;0;0;0;1;0;0;0;0;0;0;0;0;0;0;0;0;0;0;0;1;1;1;0;1;0;1;1;1;0;0;0;0;0;0;0;0;0;0;0;0;0;0;0;0;0;0
"jaso";0;0;0;0;0;0;0;0;0;1;1;0;0;0;0;2;0;1;0;0;0;0;0;0;0;0;0;0;0;0;0;0;0;0;0;1;0;0;0;0;0;0;0;0;0;0;0;0;0;0;0;0;0;1;0;0;0;0;0;0;0;0;0;0;0;0;0;0;0;0;0;0;0;0;0;0;0;0;1;1;0;0;1;0;0;0;0
"izaera";0;0;0;0;0;0;0;0;0;0;0;1;0;0;0;0;0;0;0;0;0;0;0;0;0;0;0;0;0;0;0;0;0;0;0;0;0;0;0;0;0;0;0;0;0;0;0;0;0;0;2;0;0;0;0;0;0;0;0;0;0;0;0;0;0;2;1;2;0;0;0;0;0;0;0;0;0;0;1;0;0;2;1;0;0;0;0
"lur";0;2;0;0;0;0;1;0;0;0;0;0;0;0;1;2;0;0;0;0;0;0;0;0;0;0;0;0;0;0;0;0;1;0;1;1;0;0;0;0;0;0;0;0;0;0;0;0;0;1;1;0;0;0;0;0;0;0;0;1;0;0;0;0;0;0;0;1;2;0;0;0;1;0;0;0;0;0;0;0;0;0;0;0;0;0;0
"otoitz";0;0;4;0;0;4;0;0;0;0;0;0;0;0;0;0;0;2;0;1;0;0;1;0;0;0;1;0;0;0;0;0;0;0;0;0;0;0;0;1;1;0;0;0;0;0;2;1;0;0;0;0;1;1;0;0;0;0;0;1;0;0;0;0;0;0;0;1;0;1;1;0;0;1;0;0;0;0;0;0;1;0;0;2;0;0;0
"irakaspen";0;0;1;0;0;2;0;0;0;0;0;0;0;0;0;0;2;1;0;2;0;0;0;0;0;1;0;0;0;0;0;0;0;0;0;0;0;0;0;0;0;0;1;1;0;0;0;0;0;0;1;0;0;0;0;0;0;0;0;0;1;0;0;0;0;0;0;0;0;0;0;0;0;0;0;0;0;0;0;1;0;1;0;0;1;1;0
"ala";1;0;1;0;0;0;0;0;0;0;1;0;0;0;0;2;0;0;0;0;0;0;0;0;0;0;0;0;0;0;2;1;1;0;0;0;0;0;0;0;0;0;0;0;0;0;0;0;0;0;0;0;0;0;1;0;0;0;2;0;0;0;1;1;0;0;0;0;0;0;2;0;0;0;1;0;2;0;0;0;0;0;0;0;0;0;0
"agindu";0;0;0;0;0;2;0;1;0;0;0;0;0;5;0;0;1;2;0;0;0;1;0;0;0;1;0;0;0;1;0;0;0;0;0;0;0;0;1;1;1;0;0;0;0;0;3;0;2;0;0;0;0;1;0;0;0;1;0;0;0;1;0;1;0;0;8;0;0;1;0;0;1;0;1;1;3;1;1;0;0;2;0;1;3;0;0
"huts";1;0;0;0;0;3;2;0;0;2;0;0;0;0;0;1;1;0;0;0;1;0;1;1;0;0;0;0;0;1;1;0;0;0;0;1;0;0;0;1;0;0;0;0;0;0;0;0;2;1;0;0;0;0;2;2;0;0;0;0;0;0;2;3;1;0;0;0;3;0;1;0;0;0;0;0;2;2;0;0;0;0;0;0;0;0;0
"hitz";2;0;2;3;1;12;0;0;3;1;1;0;0;0;0;0;0;0;0;3;1;2;1;3;0;1;0;1;0;2;1;0;0;0;3;0;1;0;1;0;1;2;0;1;0;3;0;0;0;0;2;1;2;0;2;1;1;0;0;1;1;0;3;0;0;0;0;0;1;0;0;0;0;0;0;0;0;0;0;1;0;0;0;1;1;2;0
"eta";20;20;19;12;8;20;37;13;10;9;16;10;13;24;8;15;24;18;14;16;19;23;12;19;16;14;19;23;16;13;20;9;10;9;9;13;15;14;13;12;18;15;20;15;19;18;13;9;19;18;26;24;17;24;9;25;11;10;15;26;26;24;15;10;10;9;11;21;23;18;24;21;14;15;11;17;15;13;11;6;21;27;21;12;12;15;16
"guzti";3;7;1;13;3;5;16;2;1;0;2;2;1;2;3;5;1;5;1;4;3;5;3;0;2;0;5;3;0;2;2;1;4;2;3;2;3;6;2;2;2;1;4;6;3;4;3;2;2;6;8;4;4;3;3;4;5;1;2;5;4;3;3;3;7;1;1;3;4;1;4;1;4;6;1;0;7;0;1;2;6;4;4;1;0;5;4
"sari";0;0;0;0;0;0;1;0;0;3;0;0;0;0;0;3;0;0;0;0;0;0;0;0;0;0;0;0;0;0;0;0;0;0;0;1;0;0;0;0;0;1;0;0;0;0;0;0;0;0;0;0;0;0;0;0;0;0;0;0;0;0;0;1;0;0;0;0;0;0;0;0;1;0;0;0;0;0;0;0;1;0;1;0;0;0;0
"piztu";0;0;0;0;0;0;23;0;0;0;0;0;2;0;0;0;0;0;0;0;0;0;1;0;0;2;0;1;0;0;0;0;0;0;3;1;0;0;0;0;0;2;0;0;0;0;0;1;1;0;0;1;0;1;1;2;0;0;1;0;0;0;0;2;0;2;3;3;0;0;0;0;0;0;1;0;0;0;0;0;0;3;2;0;0;0;0
"ezin";0;3;2;1;0;0;1;0;1;1;0;0;0;1;0;1;0;0;0;1;1;1;0;0;0;0;0;1;0;0;1;0;0;2;0;0;0;0;0;1;0;0;0;0;0;0;0;0;0;0;0;0;0;1;0;0;0;0;0;0;0;0;0;0;0;0;0;2;1;0;0;1;0;0;0;0;2;0;0;0;0;0;0;0;0;1;0
"grazia";1;0;0;0;0;0;0;1;0;0;0;0;0;0;0;0;1;0;0;0;0;0;0;0;0;0;1;1;0;0;0;1;0;0;0;0;0;0;0;0;1;0;0;0;1;0;1;1;0;0;0;0;1;1;0;0;0;0;0;0;1;0;0;0;0;0;0;0;0;2;1;0;0;1;1;0;0;0;0;1;1;0;0;0;1;0;0
"ote";4;2;1;3;0;1;0;0;0;2;0;0;3;0;1;9;0;0;0;0;0;0;0;0;2;0;0;2;0;2;6;1;0;4;0;0;3;0;0;0;0;2;0;0;0;1;0;0;0;0;0;0;0;0;1;4;0;0;1;0;0;1;3;1;3;1;1;0;2;1;0;0;0;0;2;0;2;3;0;0;0;0;0;0;0;0;0
"giza";1;1;0;0;0;0;1;0;5;4;1;0;0;0;0;1;1;0;0;0;0;0;0;2;0;0;0;2;3;1;0;0;0;0;0;3;0;0;0;0;0;0;0;0;0;0;0;0;1;0;2;0;0;2;0;0;0;1;0;0;0;0;1;0;0;1;2;9;3;0;0;0;2;0;1;1;3;2;5;0;0;4;0;0;0;0;0
"ulertu";0;0;0;0;0;2;0;0;1;0;0;0;0;0;3;0;1;0;0;0;0;0;0;0;0;0;0;3;0;0;0;0;0;0;0;0;0;0;0;0;0;0;0;0;0;0;0;0;0;2;0;1;0;0;3;0;0;0;0;1;0;0;0;0;0;1;1;0;0;0;0;0;1;0;0;0;0;0;0;0;0;1;0;0;0;0;0
"leial";1;1;0;0;0;0;0;0;0;0;1;0;0;0;0;0;0;0;0;0;0;0;0;0;0;0;1;0;0;0;0;0;0;0;0;0;0;0;0;0;0;0;0;0;0;0;2;0;0;0;0;0;1;0;0;0;0;0;0;0;0;0;2;0;0;0;0;0;0;0;0;0;0;0;0;0;0;0;0;0;1;0;0;2;0;0;0
"harrotu";2;0;0;0;0;0;0;0;0;0;1;1;0;0;1;2;0;0;0;0;0;0;0;0;0;0;0;1;4;6;4;0;0;0;0;2;0;0;0;1;0;0;0;0;0;0;0;0;0;0;0;0;0;0;0;2;0;0;0;1;0;2;1;1;0;0;0;0;0;0;0;1;2;0;0;0;0;0;0;2;0;0;0;0;0;0;0
"timoteo";0;0;0;0;0;0;0;1;0;0;1;0;0;0;0;0;2;0;0;0;0;1;0;0;3;0;0;1;0;0;0;0;0;0;0;0;0;0;0;0;1;0;0;0;0;0;0;0;0;0;0;0;0;0;0;0;0;0;0;0;0;0;0;0;0;0;0;0;0;1;0;1;0;0;0;0;0;0;0;0;1;0;0;0;0;0;0
"arazo";0;2;0;0;0;0;0;0;0;0;0;1;1;1;0;0;0;0;0;0;0;0;0;0;0;1;0;0;0;0;0;0;1;0;0;0;0;1;2;0;0;0;0;0;0;0;0;0;0;0;0;0;0;0;0;0;0;0;1;0;0;0;0;0;0;0;0;0;1;0;0;1;0;0;0;1;0;0;0;0;0;0;0;0;0;0;0
"parte";0;1;0;0;0;0;0;2;0;0;0;0;0;0;1;4;1;0;0;0;0;0;0;0;0;0;0;1;0;0;0;0;0;0;0;0;0;0;1;0;0;1;0;0;0;0;0;0;2;0;0;2;0;0;0;0;0;0;0;0;0;0;0;0;0;0;0;1;0;0;0;0;1;0;0;0;0;0;0;0;1;0;0;0;0;0;0
"paulo";3;0;0;0;0;0;0;0;0;1;0;0;0;0;0;0;1;0;0;0;0;0;1;1;0;0;0;1;1;0;0;0;0;0;0;0;0;0;0;0;1;0;0;0;1;0;0;1;0;1;0;0;0;1;0;0;0;0;0;0;0;0;0;0;0;0;0;0;0;2;1;0;0;0;1;0;0;0;1;0;2;0;0;0;1;0;0
"irabazi";0;0;0;0;0;0;1;0;0;0;0;0;0;0;1;9;0;0;1;0;0;1;0;0;0;0;0;0;0;0;0;0;1;0;0;0;0;0;0;0;0;0;0;0;0;0;1;0;0;0;0;0;0;0;0;0;0;0;0;0;0;0;0;0;0;0;0;0;0;0;0;0;0;0;0;0;0;0;0;0;0;0;0;0;2;0;0
"hartu";2;3;2;0;0;2;3;0;2;3;4;0;0;2;2;5;1;0;0;1;2;2;0;1;0;2;1;8;2;5;1;1;0;0;0;1;2;2;3;0;2;1;1;2;1;1;1;0;0;0;2;1;3;3;0;1;2;0;1;4;2;2;0;0;1;2;3;3;3;1;1;1;0;4;3;2;6;3;1;1;0;2;1;3;0;0;0
"orduan";0;0;0;0;0;1;1;0;0;0;2;0;0;0;0;1;0;0;0;0;0;0;0;0;0;0;1;0;0;0;1;1;0;0;0;1;0;0;0;0;0;0;0;0;1;0;0;0;0;0;0;0;0;0;1;1;0;0;0;0;0;1;0;0;0;1;2;0;0;0;0;0;0;0;1;0;0;0;1;0;0;0;1;0;0;0;0
"jainkoar";0;0;1;0;0;0;0;0;1;0;1;0;0;0;0;0;0;0;0;0;0;0;0;0;0;0;0;1;0;0;0;0;0;1;1;2;0;0;0;0;0;0;0;0;0;0;0;0;0;0;0;0;0;0;1;0;0;1;0;1;0;0;0;0;0;0;0;0;0;0;1;0;0;0;0;0;0;0;0;0;1;0;0;0;0;0;0
"nolako";0;0;0;0;0;0;1;0;0;1;0;0;0;0;0;0;0;0;0;0;0;0;1;0;0;1;0;1;0;0;0;0;1;0;0;0;0;5;0;0;0;0;1;0;0;0;0;0;0;0;0;0;0;0;0;0;0;0;0;0;0;0;0;0;0;0;0;0;0;0;0;0;0;0;0;0;0;0;0;1;1;1;0;0;0;0;0
"elkarte";1;1;2;2;0;7;0;3;0;0;1;0;0;1;0;0;1;0;1;1;2;0;1;1;0;0;0;1;0;1;1;0;0;0;0;0;0;0;6;0;0;0;0;0;2;0;0;0;0;0;0;0;0;1;0;0;0;0;0;0;6;0;0;0;0;0;0;0;0;1;0;0;0;1;1;1;0;0;0;0;0;0;0;2;0;0;1
"bidali";1;0;0;0;0;0;0;1;0;0;1;0;0;0;0;0;0;0;0;0;0;0;0;0;3;0;0;0;0;0;2;0;0;0;0;0;0;0;2;0;0;0;0;0;0;1;0;0;0;0;0;0;1;0;0;0;0;0;0;0;0;0;0;0;0;0;0;1;0;1;0;5;0;2;0;0;0;2;0;0;0;0;0;4;0;0;1
"elkartu";1;0;0;0;0;0;0;0;0;0;0;2;2;1;0;0;0;0;0;0;0;0;0;0;0;0;0;0;0;0;0;0;0;0;0;0;0;0;0;0;0;0;0;0;0;1;0;0;2;0;1;2;0;0;0;0;1;0;0;0;0;0;0;0;0;0;2;0;0;0;0;0;0;0;0;0;0;0;0;0;0;0;1;0;0;0;0
"hain";0;0;0;0;0;0;1;0;0;0;0;0;0;0;0;2;1;0;0;0;0;0;1;2;0;0;0;1;2;1;0;0;3;1;0;1;0;0;0;0;0;0;0;0;1;0;0;0;2;0;0;0;0;0;1;0;0;0;0;1;0;0;0;1;0;0;0;0;0;0;1;0;0;0;0;0;0;0;0;0;0;1;0;0;1;0;0
"bihurtu";2;0;1;0;0;0;1;0;0;0;1;0;0;2;1;0;0;0;0;1;2;1;0;0;0;0;0;0;0;1;0;0;0;1;1;0;0;0;0;0;0;0;0;1;0;0;0;0;0;0;0;1;0;1;0;1;0;0;1;0;0;1;1;0;0;2;1;0;0;3;0;0;0;0;0;2;0;3;0;0;1;0;0;0;0;0;0
"oinarri";0;0;0;0;0;0;0;0;1;4;0;0;0;0;0;0;0;0;1;0;0;0;0;0;0;0;0;1;0;0;0;0;0;0;0;0;0;0;0;0;0;1;0;0;0;0;0;0;1;1;0;0;0;0;0;0;0;0;0;1;0;0;0;0;0;0;0;0;0;0;0;0;0;0;0;0;0;0;0;0;0;0;0;0;0;0;0
"da";1;0;0;0;0;0;0;0;0;0;0;0;0;1;0;0;0;0;0;0;0;0;0;0;0;0;1;0;0;0;0;0;0;0;0;0;0;0;0;0;1;2;0;0;0;0;0;0;0;0;0;0;0;0;4;0;0;0;0;0;0;0;0;0;0;0;0;0;1;0;0;0;0;0;2;0;0;0;0;0;0;0;0;0;0;0;0
"adierazi";0;0;0;2;0;1;1;0;1;0;0;0;0;0;0;1;0;0;0;0;0;0;0;1;0;0;1;0;0;0;2;0;1;0;0;0;0;0;0;0;0;0;0;0;0;0;0;0;0;0;0;0;1;0;0;0;0;0;0;1;1;0;1;1;0;0;0;0;1;0;0;0;0;0;1;0;1;1;0;0;0;0;0;2;0;0;0
"auzi";0;0;0;0;0;0;0;0;0;0;0;0;5;0;0;0;0;0;0;0;1;1;0;0;0;0;0;0;0;0;0;2;0;0;0;0;0;0;0;0;0;0;0;1;0;0;0;0;0;0;0;0;0;0;0;0;0;0;0;0;0;0;1;0;0;0;0;0;0;0;0;0;0;0;0;0;0;0;0;0;0;0;0;0;0;0;1
"nizu";0;0;0;0;0;0;3;0;1;1;0;1;0;0;0;0;0;0;0;0;0;0;0;0;3;0;0;0;0;0;0;0;2;0;0;0;0;3;0;0;0;0;0;0;0;0;0;0;0;0;0;0;0;0;0;0;0;0;0;0;0;0;0;0;0;0;0;0;0;0;0;0;0;0;0;0;1;0;0;0;0;0;0;0;0;0;0
"aita";1;0;0;0;0;0;1;0;0;0;1;0;0;0;1;0;1;0;0;0;0;0;2;1;2;0;0;3;0;1;0;0;0;0;0;0;1;0;0;0;1;0;0;0;2;1;0;2;0;1;1;1;1;1;0;0;0;0;0;1;0;0;0;10;0;1;0;0;0;1;1;1;0;1;3;0;0;1;0;0;3;0;1;0;1;0;0
"berriz";1;0;1;0;0;3;1;1;1;0;0;0;1;2;0;0;0;0;0;1;1;0;0;0;0;0;0;0;0;0;0;0;1;1;1;0;0;1;1;0;0;1;1;1;0;0;0;0;1;0;0;0;0;0;2;1;0;0;3;1;0;2;1;0;1;2;3;4;2;0;1;0;0;0;0;0;1;1;2;1;0;0;0;0;1;0;0
"bekatu";1;0;0;0;0;0;4;0;0;0;0;2;3;2;2;0;0;0;0;0;1;0;0;1;0;0;0;0;0;0;1;0;0;0;0;3;0;0;0;0;0;0;0;0;0;0;0;0;1;0;2;0;0;0;0;1;0;0;1;0;0;2;3;3;14;15;14;3;0;0;0;0;0;0;1;1;0;0;1;0;1;4;0;0;0;0;0
"ondorio";0;0;0;0;0;0;0;0;0;0;0;0;0;0;0;0;0;0;0;0;0;0;0;0;0;0;0;0;0;0;0;0;0;0;0;1;0;1;0;0;0;0;0;0;0;0;0;0;0;0;0;0;0;0;0;0;0;0;0;0;0;0;0;0;4;3;0;0;1;0;0;0;0;0;0;0;0;0;0;0;0;1;0;0;0;0;0
"kontra";0;0;0;0;0;0;2;0;0;0;0;0;0;0;1;1;2;0;0;0;0;0;0;0;0;0;0;0;0;0;0;0;0;0;0;0;0;0;0;0;0;0;0;1;0;0;0;0;0;0;0;0;0;0;0;0;0;0;0;0;0;1;0;0;0;0;1;0;0;0;0;0;0;0;0;0;0;0;0;0;0;0;0;0;1;1;0
"gain";0;0;0;0;0;0;1;0;0;2;0;0;0;0;0;0;2;0;0;0;0;0;0;0;0;0;0;1;2;1;0;0;0;0;0;2;0;0;1;0;0;0;0;1;0;1;0;3;1;1;1;0;0;1;0;0;0;1;0;1;0;0;0;0;2;1;0;0;1;1;0;1;0;0;0;0;0;0;0;0;0;1;2;0;0;0;0
"garbi";0;0;0;0;0;1;0;0;0;0;0;0;0;0;0;0;2;1;1;2;0;0;0;1;0;0;0;0;0;2;0;0;0;1;2;0;1;2;0;0;1;2;0;0;0;0;0;0;0;0;0;1;0;0;0;0;0;0;0;0;0;0;2;0;0;0;0;0;0;0;3;1;0;1;0;0;0;0;0;0;0;0;0;0;1;2;0
"neurri";0;0;1;0;0;0;0;0;0;0;0;0;0;0;0;0;0;0;0;0;0;0;0;1;0;0;0;0;8;0;0;0;1;0;0;0;0;0;0;0;0;0;0;0;0;0;0;0;0;0;2;0;1;0;0;0;1;0;0;0;0;0;0;0;1;0;0;0;0;0;0;0;0;0;0;0;0;0;0;0;0;0;0;0;0;1;0
