"";"";"";"";"may";""
"1";"may";"-0.0536186453570859";"0.175614501216394";"1.90187772402999";"6"
"2";"you";"0.0421835086731729";"-0.124151307310396";"1.47575629935399";"11"
"3";"says";"0.0788337545110973";"0.24590560232397";"1.23012073299961";"13"
"4";"through";"-0.00783114966807908";"0.314823637792039";"1.17676410731625";"17"
"5";"by";"-0.00940025740463032";"0.242877004983533";"1.15746988325744";"18"
"6";"beyond";"-0.271938413659634";"0.31025670337931";"1.15365590873419";"19"
"7";"him";"0.0261953443269076";"0.234100769066664";"1.10315732534063";"24"
"8";"am";"-0.0178045418712957";"0.166234902453736";"1.09689499377048";"25"
"9";"for";"0.101636875412489";"-0.033382575056306";"1.05175158176635";"27"
"10";"the";"0.0160836813485768";"0.00395605043629352";"1.04203618886312";"28"
"11";"name";"0.336225544853255";"-0.138214859710571";"1.04014383321731";"29"
"12";"from";"0.175765036506706";"-0.0145683687062234";"1.03511055737589";"30"
"13";"among";"-0.0372758189145021";"0.349892010697502";"1.02850682143665";"32"
"14";"known";"-0.0618631397190676";"0.335406366725279";"1.02792155680392";"33"
"15";"about";"0.0109217262061413";"-0.0383449320894433";"1.0174550742887";"34"
"16";"always";"-0.0522586288072079";"0.327162723019614";"1.00785673431203";"36"
"17";"of";"-0.0113791004430884";"0.048336285249033";"0.998853413378618";"37"
"18";"herself";"0.121151987850328";"0.433354810077938";"0.986055626743047";"38"
"19";"along";"-0.135137722311707";"0.0593135288840594";"0.955875480515565";"42"
"20";"according";"0.0573035030775301";"0.389043005569478";"0.952734560319945";"44"
"21";"soon";"-0.0770902076232441";"0.163361507820411";"0.950676379694864";"45"
"22";"will";"0.0871706951701333";"-0.111425475553266";"0.946813633118884";"46"
"23";"least";"0.00893229934593746";"0.294822043480568";"0.945028575989075";"48"
"24";"ever";"-0.0629073005316193";"0.294586119313849";"0.944687171619986";"49"
"25";"knows";"-0.0626458243068417";"0.376066456328429";"0.941955936667273";"51"
"26";"himself";"-0.0977200613556377";"0.0725757922666442";"0.940941477970551";"52"
"27";"ours";"0.0865832540274733";"0.422300603163586";"0.935917956539667";"54"
"28";"and";"0.00163363109623848";"0.0164514848522994";"0.932894089270592";"56"
"29";"its";"0.0430811371538923";"0.393365990084534";"0.930231135191696";"57"
"30";"came";"0.15504061396047";"0.122034627950418";"0.927860813429163";"59"
"31";"used";"0.538501302525088";"-0.331958981399399";"0.922544659681918";"61"
"32";"sorry";"-0.202915470991121";"-0.0263563514682069";"0.921344867184833";"62"
"33";"ones";"-0.0464942584478795";"0.441848694128091";"0.920584023162291";"63"
"34";"not";"0.177273048766465";"-0.150738102917935";"0.918291736684121";"64"
"35";"take";"0.199044709565733";"0.147030163063903";"0.91621404723795";"65"
"36";"how";"-0.161128359868211";"0.120639225832653";"0.914906956224866";"66"
"37";"getting";"-0.134173491455437";"0.0663082855809418";"0.914867938582684";"67"
"38";"nobody";"0.036284434315049";"0.43114231084215";"0.911190525807067";"70"
"39";"does";"0.168539192439466";"0.145098324474966";"0.907444832157631";"71"
"40";"alone";"0.0087068854786351";"0.439559496584337";"0.907132691020178";"72"
"41";"everywhere";"0.043281037149565";"0.356947660557955";"0.90307485623329";"73"
"42";"clearly";"0.0288340448784978";"0.354557719751596";"0.902274994568567";"74"
"43";"doing";"0.077701784275773";"0.0402593335713912";"0.902187204873658";"75"
"44";"what";"-0.250849838756826";"-0.141032868875926";"0.896851542305322";"80"
"45";"example";"-0.111417397155748";"0.179011412012473";"0.895632240987146";"81"
"46";"we";"0.0646178327408843";"-0.0757646248734156";"0.891047668030806";"84"
"47";"another";"-0.528751562009283";"-0.240440545990501";"0.889623524091177";"85"
"48";"can";"-0.519645615320635";"-0.124003211460025";"0.888413977183547";"86"
"49";"way";"0.0135817686545594";"0.0938171437489847";"0.888374959541365";"87"
"50";"ought";"0.0180106875822333";"0.486873975460291";"0.888043309582822";"88"
"51";"why";"0.333013205649692";"-0.296518475332485";"0.88668744651701";"89"
"52";"should";"0.314396366788385";"-0.282130776831397";"0.885672987820288";"90"
"53";"when";"-0.0495936623475154";"-0.0635920208756311";"0.884044001259206";"93"
"54";"now";"-0.0295866236160649";"0.0473340329920944";"0.88401473802757";"94"
"55";"here";"0.134812449726538";"-0.10494386358594";"0.883848913048298";"95"
"56";"want";"0.023886144551521";"-0.146151100062639";"0.883322174878846";"96"
"57";"outside";"-0.0291351948595691";"0.629647402508904";"0.882610102909031";"97"
"58";"but";"-0.0430708172725988";"0.00936469329361226";"0.87739149326724";"101"
"59";"them";"-0.0672698977922799";"0.139481995125192";"0.87666966688688";"102"
"60";"very";"0.250274654041603";"-0.2549319835274";"0.876211209591246";"103"
"61";"everything";"-0.0476494619879508";"0.350476217501296";"0.875860050811611";"104"
"62";"do";"0.224316052334103";"-0.16447460936935";"0.875499137621431";"105"
"63";"necessary";"-0.101248847972001";"0.102148469060192";"0.874962645041434";"106"
"64";"saying";"0.460986677308236";"-0.410527375221155";"0.874787065651617";"108"
"65";"might";"-0.0300710159450885";"0.362033098122151";"0.874513942156345";"109"
"66";"also";"0.0319410735196631";"-0.0426636756790694";"0.87365555402835";"110"
"67";"away";"0.242709261099181";"-0.0168764154656617";"0.873401939354169";"111"
"68";"well";"0.246187581282119";"-0.0112386966052446";"0.873323904069806";"112"
"69";"something";"0.402789604919253";"-0.528066390106219";"0.872475270352356";"113"
"70";"next";"0.0863452494667248";"0.346484085900028";"0.872397235067993";"114"
"71";"down";"0.429363578403444";"-0.322288994913917";"0.871431548423998";"116"
"72";"first";"-0.127904597364754";"-0.756438408412251";"0.868593014955285";"118"
"73";"that";"0.0776087724625772";"-0.0205826879837734";"0.868085785606924";"119"
"74";"have";"-0.00567030621963506";"0.0690096117800235";"0.867890697396016";"120"
"75";"make";"0.067975815622931";"0.166614063793091";"0.867890697396016";"121"
"76";"towards";"-0.0325223296935468";"0.508275500367192";"0.867568801848017";"122"
"77";"unless";"-1.24921300603564";"-0.549882460723812";"0.86752002979529";"123"
"78";"cause";"0.378199769846326";"-0.130828297159468";"0.867402976868746";"124"
"79";"on";"0.293004751331122";"-0.243729289561479";"0.867246906300019";"125"
"80";"gives";"-0.393146036935785";"0.0950538648556608";"0.866105640266207";"126"
"81";"whether";"0.170820659823688";"0.17146430221285";"0.866047113802934";"127"
"82";"within";"-0.0790900745115587";"0.362968758376773";"0.866027604981844";"128"
"83";"better";"0.318499906362653";"-0.158686663670595";"0.865939815286935";"129"
"84";"where";"-0.0968688918897895";"0.53245381401315";"0.865832516770935";"130"
"85";"whoever";"0.130307947146786";"0.161042385619324";"0.865559393275664";"131"
"86";"seen";"0.0338038202752473";"0.365838503224804";"0.865247252138211";"132"
"87";"merely";"-0.0789271562691366";"0.377533952506603";"0.864193775799307";"133"
"88";"like";"0.349528356391145";"-0.451950439887082";"0.86376458173531";"134"
"89";"no";"-0.087234722290267";"0.064943846370004";"0.863179317102585";"135"
"90";"apart";"-0.00373403493765701";"0.441920201914539";"0.862789140680769";"136"
"91";"been";"0.276775972270849";"-0.102970130938774";"0.862057559889864";"137"
"92";"any";"-0.0721506867272739";"0.00360515394090825";"0.861881980500047";"138"
"93";"into";"0.228701739070409";"0.0544617327177505";"0.861355242330595";"139"
"94";"upon";"-0.121074606463557";"0.290335303013949";"0.860965065908779";"140"
"95";"done";"0.134037156231207";"-0.0310242407487515";"0.860360292454963";"141"
"96";"someone";"-0.281850555725423";"-0.762217381477119";"0.859628711664058";"142"
"97";"their";"-0.00669574230453362";"0.0427093284684957";"0.858399655935337";"143"
"98";"had";"-0.0776281679135632";"-0.110487083291836";"0.858165550082247";"144"
"99";"think";"0.161113770108496";"-0.0160386702152681";"0.857443723701887";"145"
"100";"then";"0.0664971710728103";"-0.40933916519205";"0.857277898722616";"146"
"101";"placed";"-0.134784469142599";"0.322828277568213";"0.856146387099349";"148"
"102";"use";"-0.217067314102568";"-0.0921608320996662";"0.855229472508081";"149"
"103";"are";"0.0743635550189309";"-0.021249174900594";"0.854917331370628";"150"
"104";"much";"-0.210028263360979";"0.0099957905863964";"0.853171291883";"151"
"105";"were";"0.149382338458696";"-0.0674069630366537";"0.8514740244481";"152"
"106";"mean";"0.231655280358591";"0.0545384776378261";"0.849289036485929";"153"
"107";"sent";"-0.135440443635461";"0.20078604743064";"0.849162229148839";"154"
"108";"instead";"-0.0671721226322442";"0.354305641405636";"0.849006158580113";"155"
"109";"who";"-0.101783153656745";"-0.091279667514446";"0.848752543905932";"156"
"110";"just";"0.150617154005658";"0.0950329537815615";"0.848576964516115";"157"
"111";"was";"-0.107847597406577";"0.165309596650718";"0.846606573585943";"159"
"112";"since";"-0.0659096651884512";"0.312048242831088";"0.846226151574672";"160"
"113";"be";"0.058784819099325";"-0.0497704140024211";"0.845660395763039";"162"
"114";"these";"0.0976712853457972";"0.0432280344053";"0.845133657593587";"163"
"115";"up";"0.0896622789035991";"0.248694132361365";"0.844538638550317";"165"
"116";"become";"0.00741934194237569";"0.389707701542222";"0.844499620908136";"166"
"117";"keeps";"-0.103855153807471";"0.285103736407777";"0.844480112087045";"167"
"118";"far";"-0.00270305180786152";"0.430434441603847";"0.844265515055046";"168"
"119";"while";"0.443705079469735";"-0.417380636061178";"0.844206988591774";"169"
"120";"went";"0.372935543504771";"-0.639053885680671";"0.843719268064503";"170"
"121";"other";"-0.0278530002717145";"-0.3412491715339";"0.843602215137958";"171"
"122";"even";"0.103176473988935";"0.176099113262107";"0.84268530054669";"172"
"123";"together";"0.0499624930100823";"-0.456451879502918";"0.842675546136145";"173"
"124";"at";"0.11125470615524";"-0.0684844385717613";"0.84122213896488";"175"
"125";"this";"0.129013553972271";"0.0654176880033853";"0.840763681669246";"176"
"126";"over";"0.125139870560908";"0.206500701635598";"0.839593152403797";"177"
"127";"cannot";"0.375587791631153";"-0.165170468256845";"0.839534625940525";"178"
"128";"sure";"-0.0385440694180891";"0.267342096038727";"0.838032446716532";"181"
"129";"there";"-0.223149274660183";"-0.0925588844983573";"0.837593498241989";"182"
"130";"third";"-0.234826560402605";"0.0884627894330849";"0.837261848283446";"183"
"131";"really";"0.358033963004532";"-0.285942792335831";"0.83701798801981";"185"
"132";"especially";"-0.0171214251025461";"0.329346937473694";"0.836091319017997";"186"
"133";"has";"-0.0955203711121087";"0.0691456844733617";"0.835857213164907";"187"
"134";"self";"0.0214389510011176";"0.473092414470405";"0.835398755869273";"188"
"135";"under";"0.484033844854212";"-0.235522827363962";"0.835067105910729";"189"
"136";"too";"0.23087954367328";"-0.124919196198307";"0.835028088268548";"190"
"137";"last";"-0.0834542186176974";"0.373941558449466";"0.834872017699821";"191"
"138";"so";"0.0990756067392036";"-0.111648208032713";"0.83483300005764";"192"
"139";"nor";"0.456606967534325";"-0.235933448822346";"0.834335525119824";"193"
"140";"he";"0.0421995681929459";"0.180853662583834";"0.834062401624553";"194"
"141";"yet";"-0.115060747397806";"0.369226938455242";"0.833720997255464";"195"
"142";"wants";"-0.0136464301536721";"0.372148894114197";"0.833652716381646";"196"
"143";"whom";"0.0764648358489404";"0.166329230858466";"0.832589485632197";"197"
"144";"each";"0.140430731216511";"0.225569725920088";"0.83230660772638";"198"
"145";"an";"0.377938836577924";"-0.223677467775102";"0.831896922483473";"199"
"146";"two";"-0.587495944317021";"-0.0642893944886841";"0.831594535756565";"200"
"147";"never";"0.277122226671839";"0.0341197477993147";"0.831594535756565";"201"
"148";"those";"-0.0283653454939153";"-0.103945693359753";"0.831360429903476";"202"
"149";"once";"0.0666433378829831";"0.437835914954448";"0.831204359334749";"203"
"150";"could";"-0.0882688385583845";"0.301209032372057";"0.831058043176568";"204"
"151";"although";"-0.0444699910156876";"0.204372360372901";"0.830784919681297";"205"
"152";"yours";"-0.0825382948633071";"0.168226696374994";"0.830784919681297";"206"
"153";"became";"-0.133250809321406";"0.325562839796418";"0.830453269722753";"207"
"154";"using";"-0.0994780664757017";"0.318095196689612";"0.829809478626756";"208"
"155";"again";"0.227721892941562";"-0.094771524638709";"0.829770460984575";"209"
"156";"though";"0.122868605144728";"0.153279274856808";"0.829643653647484";"210"
"157";"some";"0.0255900954415587";"-0.258904744757909";"0.829399793383849";"211"
"158";"except";"-0.111894650566584";"0.393287521288567";"0.829272986046759";"212"
"159";"whose";"0.246659240379989";"0.0690289343148546";"0.829175441941305";"213"
"160";"yourselves";"0.227244193858622";"0.0431090123161864";"0.829116915478033";"214"
"161";"all";"-0.0385928280725666";"0.19212349400384";"0.828200000886765";"215"
"162";"whatever";"1.1685081409571";"-1.1923185386222";"0.827585473022404";"217"
"163";"after";"0.125765087698455";"-0.833776229856579";"0.826590523146773";"220"
"164";"such";"0.37489808027527";"-0.156272101723164";"0.826112557030048";"221"
"165";"already";"0.115520166193459";"0.0487914615607533";"0.82458111457442";"222"
"166";"same";"0.00853651044268454";"0.0332334618594743";"0.824512833700602";"223"
"167";"given";"-0.297471978928064";"-0.205187967700008";"0.824200692563149";"224"
"168";"out";"0.0649761477951208";"0.165029485405658";"0.823459357361698";"225"
"169";"actually";"0.0356337699423412";"0.40272413091402";"0.82290335596061";"226"
"170";"going";"-0.615713961943972";"-0.168053593466991";"0.821557247305344";"227"
"171";"many";"0.153703478356413";"0.105993319223979";"0.821547492894799";"228"
"172";"they";"0.137822908582609";"-0.0749862476596221";"0.821430439968254";"229"
"173";"later";"-0.0892686096969245";"0.396065904715405";"0.821352404683891";"230"
"174";"asking";"0.85097849494362";"-0.982173275753835";"0.819996541618079";"231"
"175";"useful";"-0.143600033674386";"0.25303679940989";"0.819996541618079";"232"
"176";"new";"0.584009808234977";"-0.49322104291401";"0.819752681354444";"233"
"177";"against";"0.196723784687885";"0.0817300280621978";"0.819303978469356";"234"
"178";"yourself";"-0.0628799188178744";"0.383180114887658";"0.819303978469356";"235"
"179";"course";"-0.0922625222343734";"0.266357120815917";"0.81916741672172";"236"
"180";"look";"0.0771251628459562";"0.460240387796112";"0.818982082921357";"237"
"181";"throughout";"-0.0511747254475762";"0.203905919982019";"0.817870080119181";"238"
"182";"allows";"-0.189979532385518";"0.260892933366612";"0.817870080119181";"239"
"183";"concerning";"0.890723374810535";"-0.950106338755947";"0.817265306665366";"240"
"184";"because";"0.044415844650178";"0.0877882359688242";"0.817265306665366";"241"
"185";"little";"-0.0926071486779056";"0.411953351538225";"0.816621515569369";"242"
"186";"truly";"-0.217578642261802";"0.47146183587951";"0.816621515569369";"243"
"187";"neither";"-0.151337175816944";"0.524906730875989";"0.816621515569369";"244"
"188";"becoming";"-0.185667552850317";"0.356642694978219";"0.816621515569369";"245"
"189";"would";"-0.165008888103372";"-0.223669381111553";"0.816377655305734";"246"
"190";"did";"0.0406054434923425";"0.204651428760327";"0.816163058273735";"247"
"191";"your";"-0.0871279278179164";"-0.071097953030386";"0.815928952420646";"248"
"192";"more";"-0.148471824975108";"0.0656677163100278";"0.815831408315192";"249"
"193";"themselves";"-0.258540195462505";"-0.228851133369143";"0.815607056872647";"250"
"194";"go";"0.349504757653325";"-0.214465795644488";"0.81543147748283";"251"
"195";"before";"0.10963554305803";"0.183757295630402";"0.815109581934832";"252"
"196";"consider";"-0.0273881221138432";"0.463575205049234";"0.815031546650469";"253"
"197";"come";"0.0871130471706503";"-0.353750472158931";"0.815021792239923";"254"
"198";"every";"0.069287941223285";"0.192679154638984";"0.814846212850106";"255"
"199";"myself";"0.111928623917606";"0.0944172416010681";"0.814485299659926";"256"
"200";"trying";"-0.0890089604920179";"0.375959313929003";"0.814104877648655";"257"
"201";"needs";"-0.0458504119118988";"0.2441138144249";"0.813314770394477";"258"
"202";"considering";"0.134961020425766";"0.45199977116996";"0.813314770394477";"259"
"203";"nothing";"-0.0342162394816156";"0.380164067111707";"0.812036942613029";"260"
"204";"able";"-0.0306902384134271";"0.374348662087789";"0.811637011780668";"261"
"205";"having";"-0.079719459933609";"0.303234773417107";"0.810895676579217";"262"
"206";"possible";"-0.0823762340314918";"0.36821655531611";"0.810681079547218";"263"
"207";"tried";"0.695411392268617";"-0.74625490578689";"0.810554272210128";"264"
"208";"kept";"0.288193074587508";"-0.0268616675619306";"0.810368938409765";"265"
"209";"old";"-0.0226190022222012";"0.41494503837046";"0.810144586967221";"266"
"210";"best";"-0.108448488517791";"0.341492722787386";"0.810144586967221";"267"
"211";"saw";"-0.0679884980675076";"0.329294107384801";"0.809422760586861";"268"
"212";"taken";"-0.0319275486674914";"0.319409587281898";"0.809422760586861";"269"
"213";"seem";"0.000124842011636122";"0.309996345854267";"0.809422760586861";"270"
"214";"shall";"0.256963973871462";"-0.0900664756377902";"0.809393497355225";"271"
"215";"both";"-0.0708543161172874";"0.287183305126976";"0.809100865038862";"272"
"216";"only";"-0.121715534975801";"0.00110038212305956";"0.807423106425053";"273"
"217";"either";"-0.0224996382424586";"0.503829229033802";"0.806711034455238";"274"
"218";"near";"-0.124166261261579";"0.375324408505402";"0.806711034455238";"275"
"219";"looking";"-0.144117546314823";"0.388490281462586";"0.806711034455238";"276"
"220";"until";"0.412348564957317";"-0.289753641187895";"0.806311103622877";"278"
"221";"however";"0.128676260643813";"0.138591203369461";"0.805491733137063";"279"
"222";"willing";"0.000810797737900918";"0.292327069263059";"0.804340712692705";"280"
"223";"say";"-0.000798887404202746";"-0.0618430765065284";"0.803521342206891";"281"
"224";"certainly";"-0.124789142339832";"0.249936604410629";"0.802458111457442";"282"
"225";"quite";"-0.0797215460279122";"0.319584233503587";"0.802428848225806";"283"
"226";"ourselves";"0.175037805202928";"-0.0809433012411958";"0.802428848225806";"284"
"227";"try";"-0.107951529965043";"0.325785860375986";"0.80239958499417";"285"
"228";"yes";"0.48679094887416";"-0.308923732202422";"0.8";"286"
