"";"";"";"";"god";""
"1";"god";"-0.0590500374657173";"0.118846861391014";"1.28893293431313";"15"
"2";"condition";"0.112806522557122";"0.572815820598477";"1.28686902318391";"16"
"3";"province";"-10.4289712934348";"-7.71368047186445";"1.28542988682241";"18"
"4";"woman";"0.258527623598048";"0.305548570241631";"1.28470313732249";"22"
"5";"peace";"0.0284951841926697";"0.402797911101512";"1.23824287482569";"26"
"6";"husband";"0.203751021085361";"0.487662930645395";"1.22464720137464";"28"
"7";"endure";"0.0306631938238759";"0.463716133029571";"1.21696031733597";"30"
"8";"wife";"0.190195471349478";"0.470528954574942";"1.20779408154845";"31"
"9";"adam";"0.257889688531383";"0.652812662788258";"1.20706015072936";"32"
"10";"gentleness";"0.167557676604959";"0.530743528647332";"1.17989178404859";"34"
"11";"raise";"0.125647135061104";"0.272501007096701";"1.17570076618147";"35"
"12";"psalm";"-10.4289712934348";"-7.71368047186445";"1.16361173349211";"36"
"13";"father";"0.0444924188283733";"0.441139262300338";"1.15746883307481";"37"
"14";"life";"0.0384950127062724";"0.356346889379004";"1.13636149977281";"39"
"15";"kindness";"0.0653666512927285";"0.49887473061619";"1.13561751510688";"40"
"16";"man";"0.296829261164113";"0.157971168263115";"1.12326277360826";"41"
"17";"union";"0.0830087789135192";"0.288848914364409";"1.09988901597648";"44"
"18";"human";"0.0836291595207837";"0.417040480585815";"1.06675010053847";"47"
"19";"beauty";"0.26889179151929";"0.595027368462073";"1.06361904538071";"48"
"20";"groan";"0.240209110003145";"0.583768692150384";"1.06361904538071";"49"
"21";"earthly";"0.312136715143125";"0.618074543024505";"1.06361904538071";"50"
"22";"patience";"0.0342334778437655";"0.377931463302059";"1.05419859089461";"52"
"23";"law";"-0.0828724229266817";"0.525964130615234";"0.993490591166194";"59"
"24";"care";"0.203751021085361";"0.487662930645395";"0.988541225994809";"61"
"25";"put";"-0.0923524782929831";"0.349418705495352";"0.98587695658305";"62"
"26";"persecution";"0.0992456559070205";"0.4689969608947";"0.983836025675175";"63"
"27";"right";"0.0296491843707264";"0.055923912228263";"0.972614496341444";"65"
"28";"strong";"-0.00445606207380385";"0.412357919642345";"0.968538379581029";"66"
"29";"carry";"0.110784955041315";"0.464597537920409";"0.96206226595428";"67"
"30";"descendant";"-0.175763475181238";"0.782850639625405";"0.959698175683792";"68"
"31";"moses";"-0.189323276075899";"0.736686096426679";"0.959698175683792";"69"
"32";"letter";"-0.20291547099112";"-0.0263563514682087";"0.958504640437878";"72"
"33";"good";"-0.104008854487526";"0.338518878859452";"0.949341277178029";"74"
"34";"world";"0.0901235359694565";"0.437886574723077";"0.948246844136649";"75"
"35";"nature";"0.129996222714978";"0.421096561147618";"0.945651515388914";"76"
"36";"hell";"0.173718875588936";"0.55817348418121";"0.944861570280306";"79"
"37";"excuse";"0.283579667067154";"0.587889924816677";"0.944861570280306";"80"
"38";"widow";"0.203751021085361";"0.487662930645395";"0.944570008722039";"81"
"39";"build";"-0.281582391116899";"0.291999495912866";"0.944561391139036";"82"
"40";"news";"-0.211939213159724";"0.288505485487888";"0.941815254688749";"85"
"41";"place";"-0.259447666893854";"0.38289376338802";"0.938916874272075";"86"
"42";"experience";"0.0764032074209618";"0.538212873685638";"0.937447576370065";"87"
"43";"scripture";"-0.0339805900560219";"0.441942241510481";"0.932789772756948";"88"
"44";"body";"0.381074135348225";"0.0263547687115643";"0.930922629772966";"89"
"45";"win";"-0.18135998154392";"0.63857916080162";"0.930799111083256";"90"
"46";"strength";"-0.0105809035563552";"0.390880444952013";"0.930399829737451";"91"
"47";"chance";"0.203751021085361";"0.487662930645395";"0.929934480255289";"92"
"48";"israel";"-0.215700401729897";"0.825249572305349";"0.92746123393343";"94"
"49";"love";"-0.0707669454393692";"0.270994755637696";"0.925891397563052";"95"
"50";"holy";"0.0307613010163086";"0.156272002178711";"0.921378656597152";"96"
"51";"obey";"-0.102433801488887";"0.554414171555248";"0.919375068548956";"98"
"52";"servant";"-0.0155930062514918";"0.376458952752891";"0.916486741979119";"100"
"53";"suffering";"0.0610044997638489";"0.428948099571645";"0.916452271647107";"101"
"54";"set";"-0.332126466153322";"0.114780085340282";"0.915922290292423";"102"
"55";"head";"0.169993154309248";"0.465385917027417";"0.915580459499971";"103"
"56";"commit";"0.203751021085361";"0.487662930645395";"0.915307569371543";"104"
"57";"division";"0.098392006272925";"0.441267517051326";"0.914529114373606";"105"
"58";"supper";"4.53083049628373";"-5.91424268614138";"0.914210263802495";"107"
"59";"pay";"-0.185729976107199";"-0.00319019220592128";"0.911133786670427";"110"
"60";"dead";"0.215891013791986";"0.202252720123376";"0.91056502619223";"111"
"61";"promise";"-0.136006539187546";"0.545798504978151";"0.910037917365213";"112"
"62";"lie";"0.0576368440068335";"0.420716683686362";"0.910020682199207";"113"
"63";"righteous";"-0.141145153213019";"0.655114470578691";"0.908709373318919";"114"
"64";"thing";"0.0949750539245325";"0.137057793030571";"0.906810632530592";"115"
"65";"hear";"-0.187910054097626";"0.278716426075618";"0.904809917010064";"116"
"66";"glory";"0.0301659303494766";"0.210652693136068";"0.904045824650466";"117"
"67";"christian";"0.0212496983060971";"0.272828642624101";"0.903321947678214";"118"
"68";"reward";"0.0428160459092";"0.370039790855554";"0.901752111307836";"120"
"69";"burden";"0.164382266657862";"0.490444470092834";"0.900710820028307";"122"
"70";"devil";"0.203751021085361";"0.487662930645395";"0.900692148598468";"123"
"71";"child";"0.161648128215899";"0.249152537138897";"0.900547085951251";"125"
"72";"believe";"-0.380734239044883";"0.164866933608188";"0.896973661532676";"127"
"73";"see";"0.0932291141114354";"-0.212593493949807";"0.895798797716602";"128"
"74";"free";"0.112444003500292";"0.293608985935223";"0.895672406499224";"129"
"75";"jew";"-0.215700401729897";"0.825249572305348";"0.895195566906392";"130"
"76";"attitude";"-0.215700401729897";"0.825249572305348";"0.895195566906392";"131"
"77";"creation";"0.149225978262999";"0.507128257178335";"0.894310828384752";"132"
"78";"past";"0.118513499911225";"0.461234504935525";"0.892304367808888";"133"
"79";"authority";"-0.163576529964899";"0.296501486773548";"0.892121962301991";"134"
"80";"paul";"-0.0294531228191864";"0.306191917309258";"0.889067029127431";"135"
"81";"part";"0.0710723188234326";"0.420497127361868";"0.88868067415613";"137"
"82";"macedonia";"-0.20291547099112";"-0.0263563514682085";"0.887828969702667";"138"
"83";"hate";"0.203751021085361";"0.487662930645395";"0.886088217936063";"140"
"84";"branch";"4.53083049628373";"-5.91424268614139";"0.885295400299787";"141"
"85";"thirsty";"4.53083049628373";"-5.91424268614139";"0.885295400299787";"142"
"86";"family";"0.0665492741537481";"0.365686711994609";"0.885049799184202";"144"
"87";"faith";"-0.0387835657322496";"0.344963492500545";"0.884323049684283";"146"
"88";"happy";"-0.180235549722253";"0.0159055596879841";"0.884305814518277";"147"
"89";"earth";"-0.188255508727148";"0.359143696237657";"0.882580861653845";"149"
"90";"circumcision";"-0.183608963288418";"0.686862244861798";"0.881925925345617";"150"
"91";"heaven";"-0.12342821961126";"0.376103488975749";"0.88164585389802";"151"
"92";"choose";"-0.0913672281709379";"0.301154767051274";"0.879747113109694";"152"
"93";"remove";"-0.215700401729897";"0.825249572305348";"0.879080686690796";"153"
"94";"young";"0.1045744660029";"0.40154698380818";"0.877414620643551";"155"
"95";"grow";"-0.121875052956393";"0.260922614414";"0.877217852498316";"157"
"96";"work";"-0.0446508091184847";"-0.0519987637590501";"0.876397745849198";"159"
"97";"true";"-0.0498918945452934";"0.241421579330383";"0.874885360032172";"160"
"98";"beg";"-0.176453103305686";"0.013436497111473";"0.87289038956698";"161"
"99";"answer";"0.0243469038939225";"0.328856153430331";"0.872518397234017";"162"
"100";"desire";"0.0877554454274811";"0.416101025064046";"0.872121988415879";"163"
"101";"endurance";"-0.0480613915351049";"0.384331571345072";"0.871530247716341";"164"
"102";"humility";"0.176682364413588";"0.494755950472598";"0.871530247716341";"165"
"103";"unmarried";"0.203751021085361";"0.487662930645395";"0.871492904856661";"166"
"104";"humble";"0.203751021085361";"0.487662930645395";"0.871492904856661";"167"
"105";"disgrace";"0.203751021085361";"0.487662930645395";"0.871492904856661";"169"
"106";"prophet";"-0.211209223832715";"0.385817437249615";"0.870299369610746";"170"
"107";"lay";"-0.248124336896165";"0.292413410696491";"0.867001707848268";"173"
"108";"run";"-0.212504169045203";"0.61234809136196";"0.866859517728718";"174"
"109";"victory";"0.0603376135046368";"0.431369549086953";"0.866751797941181";"175"
"110";"sad";"-0.197951725978721";"-0.00348010411699899";"0.866550721004445";"176"
"111";"light";"0.111711497660143";"0.424342382479547";"0.865371548396868";"178"
"112";"bad";"0.16877268012941";"0.471334644646921";"0.864238336231975";"179"
"113";"submit";"0.0773521220812121";"0.48280260221563";"0.864238336231975";"180"
"114";"destroy";"0.458865331258335";"-0.0130698392975397";"0.864212483482966";"181"
"115";"fight";"0.0803818636951701";"0.368680687516817";"0.864150724138111";"182"
"116";"prize";"-0.169694065857475";"0.759602901768949";"0.863326308697492";"183"
"117";"basis";"-0.215700401729897";"0.825249572305349";"0.862975860322037";"184"
"118";"death";"0.160176110854233";"0.225927605603952";"0.86178519760379";"185"
"119";"judge";"0.048873185055814";"0.404967058260432";"0.86169902177376";"186"
"120";"wrong";"0.264537669928376";"-0.492462890910182";"0.860891841499146";"188"
"121";"titus";"-0.210893243343991";"0.00234843375711457";"0.860223978816414";"189"
"122";"prison";"-0.180977713949807";"0.011787473578055";"0.860223978816414";"190"
"123";"gift";"-0.599080018662129";"0.0579386529258487";"0.860205307386574";"191"
"124";"visit";"-0.193697087396665";"0.0161281078983234";"0.859320568864934";"192"
"125";"hard";"-0.175222855725517";"0.0362415433679907";"0.8591281095112";"193"
"126";"great";"-0.231166024200504";"-0.0262815165409687";"0.857013929147799";"195"
"127";"parent";"0.135973272405947";"0.401993050293128";"0.857002439037129";"197"
"128";"watch";"0.120017727700205";"0.459402620743774";"0.857002439037129";"198"
"129";"eternal";"-0.0132425726987532";"0.450649390898815";"0.856965096177449";"199"
"130";"superior";"0.203751021085361";"0.487662930645395";"0.85690908188793";"200"
"131";"manage";"0.203751021085361";"0.487662930645395";"0.85690908188793";"201"
"132";"gossip";"0.203751021085361";"0.487662930645395";"0.85690908188793";"202"
"133";"case";"0.203751021085361";"0.487662930645395";"0.85690908188793";"203"
"134";"burn";"0.203751021085361";"0.487662930645395";"0.85690908188793";"204"
"135";"master";"0.0857462051926798";"0.409379622911766";"0.856660608244677";"206"
"136";"duty";"0.102347725233888";"0.415792874286338";"0.856554324720973";"207"
"137";"deceive";"0.18085771403152";"0.46922798632981";"0.856554324720973";"208"
"138";"alive";"0.0333909953609512";"0.424247662050347";"0.855764379612366";"210"
"139";"being";"-0.0559213874553437";"0.225416253055571";"0.855689693893006";"211"
"140";"find";"-0.151815953652292";"0.316147146764115";"0.855566175203297";"212"
"141";"evil";"0.106973382095369";"0.47233972661983";"0.855412494973077";"213"
"142";"dear";"-0.331235104415683";"-0.430693298572993";"0.853724884968324";"215"
"143";"cross";"0.0586142531259699";"0.416533952832715";"0.853012498106743";"216"
"144";"separate";"-0.174439980876567";"0.647323008449355";"0.852107651891429";"217"
"145";"inspire";"-0.220947669920483";"0.353541480804278";"0.851910883746194";"218"
"146";"source";"0.0724544665866598";"0.380154483725733";"0.85171842439246";"219"
"147";"standard";"0.132748745369034";"0.436407105308478";"0.851471387013041";"220"
"148";"sexual";"0.147090086127106";"0.442036443464322";"0.851471387013041";"221"
"149";"immorality";"0.147090086127106";"0.442036443464322";"0.851471387013041";"222"
"150";"cover";"0.103544416637741";"0.557049284695623";"0.851390956238347";"223"
"151";"save";"-0.341250823997365";"0.124737822884467";"0.850602447393573";"225"
"152";"keep";"0.165401431025136";"0.148532022183608";"0.850596702338238";"226"
"153";"cheer";"-0.20291547099112";"-0.0263563514682084";"0.849510886879861";"227"
"154";"glad";"-0.20291547099112";"-0.0263563514682084";"0.849510886879861";"228"
"155";"defend";"-0.20291547099112";"-0.0263563514682084";"0.849510886879861";"229"
"156";"slave";"0.145924752102378";"0.283207800624047";"0.849459181381843";"230"
"157";"heavenly";"0.099577831994585";"0.437395157622736";"0.848393473617139";"231"
"158";"suffer";"-0.149350730999159";"0.349959073984893";"0.848308734050943";"233"
"159";"birth";"-0.200237678549905";"0.714406630663782";"0.84785774720712";"234"
"160";"jerusalem";"-0.212488797814565";"0.0080893908021791";"0.847622199938371";"235"
"161";"urge";"-0.150454880867304";"0.0642962484056835";"0.84711950759653";"237"
"162";"person";"-0.0442554388140879";"-0.134214222912268";"0.847027586711165";"238"
"163";"uncircumcised";"-0.215700401729897";"0.825249572305349";"0.846883960327782";"239"
"164";"abrahams";"-0.215700401729897";"0.825249572305349";"0.846883960327782";"240"
"165";"open";"0.311589144020636";"-0.360770940442719";"0.846509095467151";"241"
"166";"quarrel";"0.1407944266873";"0.436966833777536";"0.84646744381597";"242"
"167";"figure";"-0.0250664342565611";"0.343519245207759";"0.846441591066961";"243"
"168";"live";"0.0121340005159724";"0.408396169062407";"0.846441591066961";"244"
"169";"tell";"0.191889701039828";"0.0476758933340436";"0.84606241741483";"245"
"170";"test";"0.202841868174466";"-0.198447468130645";"0.845199222850696";"246"
"171";"ruler";"-0.122252154527097";"0.367162031903898";"0.845199222850696";"247"
"172";"respect";"0.0363090312420431";"0.285632946635667";"0.84479563271339";"248"
"173";"foolish";"0.109774291963163";"0.418529948257534";"0.844732437104701";"249"
"174";"forgive";"0.10223381660902";"0.394337700146961";"0.844412150269756";"252"
"175";"sinful";"0.0759771851569005";"0.507563695328048";"0.844412150269756";"253"
"176";"mortal";"0.126165915199543";"0.435949145651976";"0.844412150269756";"254"
"177";"serve";"0.0470261367230665";"0.106209103833618";"0.844215382124522";"255"
"178";"bring";"0.0298090429470316";"0.219316364006966";"0.843841953527725";"256"
"179";"join";"-0.117109003983493";"0.628065159310183";"0.843725616157185";"257"
"180";"curse";"-0.130680272254829";"0.651134976186343";"0.843725616157185";"258"
"181";"prayer";"0.163553607127445";"-0.0543416945157925";"0.843220051287676";"259"
"182";"spend";"-0.20291547099112";"-0.0263563514682085";"0.843141056776815";"260"
"183";"judea";"-0.20291547099112";"-0.0263563514682085";"0.843141056776815";"261"
"184";"secret";"-0.0646736047909582";"0.315591785809882";"0.843026155670109";"262"
"185";"dedicate";"-0.0782909851355055";"0.312919614268328";"0.842983067755094";"263"
"186";"sake";"0.0926061728972034";"0.0797786806475535";"0.842934234784743";"264"
"187";"pray";"-0.36992134076983";"0.0371074163330362";"0.842761883124683";"265"
"188";"purpose";"-0.0826678705175325";"0.285116546838257";"0.842733157848007";"266"
"189";"adultery";"0.203751021085361";"0.487662930645395";"0.842333876502201";"267"
"190";"marri";"0.203751021085361";"0.487662930645395";"0.842333876502201";"268"
"191";"divorce";"0.203751021085361";"0.487662930645395";"0.842333876502201";"269"
"192";"discipline";"0.203751021085361";"0.487662930645395";"0.842333876502201";"270"
"193";"courage";"-0.188828154241009";"0.343186062863546";"0.842332440238368";"271"
"194";"act";"0.0886111935372603";"0.368970949356068";"0.842177323744314";"272"
"195";"perfect";"0.00418395493920382";"0.370377610280224";"0.842171578688978";"273"
"196";"base";"-0.0682959417406305";"0.346496691508976";"0.841643033598128";"274"
"197";"welcome";"-0.195745617084322";"0.006687116927983";"0.841352908303694";"275"
"198";"leader";"-0.173665128269369";"0.0245020819268094";"0.841352908303694";"276"
"199";"finish";"-0.173665128269369";"0.0245020819268094";"0.841352908303694";"277"
"200";"control";"0.070494653331296";"0.411372665221667";"0.841018258830411";"279"
"201";"fault";"-0.223778609096823";"0.335896204712819";"0.840120593934266";"280"
"202";"language";"0.1407944266873";"0.436966833777536";"0.839625082911594";"281"
"203";"praise";"-0.582275589510574";"-0.0745447897935853";"0.839613592800923";"282"
"204";"rise";"0.0603376135046367";"0.431369549086953";"0.839491510375048";"283"
"205";"fire";"-0.198168787163385";"0.352013443117613";"0.839096537820744";"286"
"206";"deed";"-0.0714538797505861";"0.324889389923676";"0.839037651003557";"287"
"207";"passion";"0.142440021295342";"0.449025681671768";"0.838898333411675";"288"
"208";"feel";"0.403288828336875";"-0.567237996973612";"0.838783432304968";"289"
"209";"eye";"0.0962325731351503";"0.485502176093513";"0.838025085000705";"290"
"210";"insult";"0.153385745566912";"0.447106053151108";"0.837925982796171";"291"
"211";"firm";"-0.131710554628978";"0.103585791094308";"0.837449143203338";"292"
"212";"faithful";"-0.150477253266328";"0.0999326250708957";"0.837449143203338";"293"
"213";"wish";"-0.141983824209199";"0.432729137283166";"0.837394565177653";"294"
"214";"difference";"-0.119647878717889";"0.560984557764568";"0.837233703628264";"298"
"215";"covenant";"0.444513884054696";"-0.0417446810607017";"0.837233703628264";"299"
"216";"fill";"-0.0789245050624607";"0.298595055450349";"0.837230831100596";"300"
"217";"barnabas";"-0.20291547099112";"-0.0263563514682086";"0.836775535465271";"301"
"218";"happen";"-0.12399251318187";"0.104089096985365";"0.836287205761768";"302"
"219";"let";"0.325341407699162";"-0.0420206270889969";"0.836282896970267";"303"
"220";"need";"-0.113013711523048";"0.163090804776099";"0.835719881547405";"305"
"221";"time";"0.0732418129773373";"0.0642837932837469";"0.835717009019737";"306"
"222";"stand";"0.0895094972850243";"-0.110382146416534";"0.835334962839938";"307"
"223";"bless";"-0.022641304089079";"0.4789971577667";"0.835309110090929";"308"
"224";"tear";"-0.262748763637652";"0.188929537721714";"0.835185591401219";"312"
"225";"gospel";"-0.0978641766746325";"0.241121163898743";"0.835133885903201";"313"
"226";"ashamed";"-0.192640908632017";"0.245770094596769";"0.83491988259196";"314"
"227";"peter";"-0.205472457138875";"0.143964833286503";"0.834891157315284";"315"
"228";"presence";"-0.0144223637206717";"0.398668524906296";"0.834886848523782";"316"
"229";"baptize";"-0.0762829840586122";"0.582280904495696";"0.83449618476098";"317"
"230";"shine";"0.0725964406186094";"0.429462394457096";"0.833811086912242";"318"
"231";"worldly";"0.169356020755563";"0.469831350907678";"0.833780925371731";"319"
"232";"physical";"0.066532302115456";"0.491152233950259";"0.833689004486366";"321"
"233";"long";"0.0418999888787766";"0.433833956437158";"0.833182003353023";"322"
"234";"born";"0.0345089700341265";"0.514542614003634";"0.833035504441972";"323"
"235";"afraid";"0.175770312464";"0.465131332037458";"0.833035504441972";"324"
"236";"order";"-0.178004942670568";"0.275714231974447";"0.832906240696928";"325"
"237";"greed";"0.1407944266873";"0.436966833777536";"0.832787030798719";"326"
"238";"ignorant";"0.1407944266873";"0.436966833777536";"0.832787030798719";"327"
"239";"future";"0.1407944266873";"0.436966833777536";"0.832787030798719";"328"
"240";"form";"0.1407944266873";"0.436966833777536";"0.832787030798719";"329"
"241";"dark";"0.1407944266873";"0.436966833777536";"0.832787030798719";"330"
"242";"pity";"-0.146690897921264";"0.72677956650075";"0.832719526398529";"331"
"243";"nation";"-0.146690897921264";"0.72677956650075";"0.832719526398529";"332"
"244";"disobey";"-0.236437486103816";"0.698462447037928";"0.832719526398529";"333"
"245";"david";"-0.236437486103816";"0.698462447037928";"0.832719526398529";"334"
"246";"trust";"-0.0289888486052943";"0.383073916998167";"0.832606061555657";"335"
"247";"wick";"0.06815068199523";"0.410567286785493";"0.832410729674255";"336"
"248";"punish";"0.0622844378896677";"0.383531721734064";"0.832410729674255";"337"
"249";"fear";"0.100911396327695";"0.41326226668039";"0.831362257075558";"339"
"250";"argument";"0.100911396327695";"0.41326226668039";"0.831362257075558";"340"
"251";"race";"0.00710886603085109";"0.582572860725466";"0.831334968062715";"341"
"252";"king";"-0.0433689593663574";"0.336203819352545";"0.831258846079522";"342"
"253";"write";"-0.0626174946502105";"0.150376489134869";"0.831050587823616";"343"
"254";"elder";"-0.25598286895389";"0.252847132928663";"0.830530660315769";"344"
"255";"increase";"0.00217253471413725";"0.528701547288137";"0.830497626247591";"345"
"256";"enable";"0.0279437400141244";"0.343963311218859";"0.830497626247591";"346"
"257";"prisoner";"-0.0291107985552587";"0.317689216390172";"0.830415759209063";"347"
"258";"poor";"-0.20291547099112";"-0.0263563514682085";"0.830412886681395";"348"
"259";"laodicea";"-0.20291547099112";"-0.0263563514682085";"0.830412886681395";"349"
"260";"power";"-0.335949596120856";"0.157712350236251";"0.830121325123127";"350"
"261";"anger";"-0.0143537061344488";"0.362147416449037";"0.830042330612266";"351"
"262";"foundation";"-0.210740777472526";"0.249532705679664";"0.829660284432467";"352"
"263";"entrust";"-0.0963454883311774";"0.376563198684038";"0.829660284432467";"353"
"264";"change";"0.0648668588959986";"0.379368141349897";"0.829539638270425";"354"
"265";"selfcontrolled";"0.16789766919018";"0.473589585255784";"0.829309836057012";"355"
"266";"vision";"0.118216569356537";"0.433505914008425";"0.829309836057012";"356"
"267";"stir";"0.188011872485845";"0.47498890642843";"0.829309836057012";"357"
"268";"settle";"0.180590516548059";"0.460854081678929";"0.829309836057012";"358"
"269";"cut";"0.118216569356537";"0.433505914008425";"0.829309836057012";"359"
"270";"character";"0.0781510810076276";"0.445272465792963";"0.829309836057012";"360"
"271";"full";"-0.0891828553566629";"0.362346862169525";"0.829176263520465";"361"
"272";"reason";"-0.134685881660858";"0.289440892484896";"0.829176263520465";"362"
"273";"house";"-0.175362512164013";"0.0633970494150827";"0.828946461307052";"363"
"274";"partner";"0.368241468936805";"-0.623452690641494";"0.828946461307052";"364"
"275";"achaia";"-0.21659165216747";"0.0228518517752024";"0.828922044821877";"365"
"276";"require";"-0.102816209966693";"0.36824420611826";"0.828914863502708";"366"
"277";"fellowship";"0.112923005349368";"0.431930864657156";"0.828857412949355";"367"
"278";"church";"-0.770280282579718";"-0.281215476847052";"0.828764055800156";"369"
"279";"kind";"0.0279858553636436";"0.369589907553697";"0.828697987663799";"370"
"280";"succeed";"0.160805900208825";"0.466277998024086";"0.828542871169746";"371"
"281";"whip";"-0.0794244217924271";"0.159343608570305";"0.828542871169746";"372"
"282";"selfcontrol";"0.0467599645703926";"0.394068642508126";"0.828542871169746";"373"
"283";"partial";"0.00323445468889581";"0.428603811220179";"0.828542871169746";"374"
"284";"object";"-0.089825949483516";"0.373293154660172";"0.828542871169746";"375"
"285";"harsh";"0.0561310755663998";"0.330683369274839";"0.828542871169746";"376"
"286";"disappear";"-0.0836860653720194";"0.443212249828157";"0.828542871169746";"377"
"287";"wise";"0.100499630157019";"0.388466911449841";"0.827864954640177";"379"
"288";"end";"0.0642943891261025";"0.395017400966649";"0.827864954640177";"380"
"289";"shameful";"0.0342259676365714";"0.401546074573183";"0.827232998553291";"381"
"290";"side";"-0.00547565761930251";"0.316938073948162";"0.827178420527605";"382"
"291";"appear";"-0.0660954757193873";"0.307246498152905";"0.827085063378406";"383"
"292";"truth";"0.0264105528110674";"0.219690137348567";"0.826664238075093";"386"
"293";"wisdom";"-0.0202764949601239";"0.418017380556191";"0.826496195206535";"387"
"294";"jewish";"0.0428558328260147";"0.412869592137741";"0.826384166627496";"388"
"295";"false";"0.104673415040998";"0.395144396470689";"0.826384166627496";"389"
"296";"leave";"-0.129758079097732";"0.268691906658715";"0.82631091717197";"390"
"297";"eager";"-0.212868210410367";"0.269518096036766";"0.82631091717197";"391"
"298";"pain";"0.0833646335319673";"0.551945443336322";"0.826237667716445";"392"
"299";"useless";"0.1407944266873";"0.436966833777536";"0.82595472374118";"394"
"300";"legend";"0.1407944266873";"0.436966833777536";"0.82595472374118";"395"
"301";"deceit";"0.1407944266873";"0.436966833777536";"0.82595472374118";"396"
"302";"corrupt";"0.1407944266873";"0.436966833777536";"0.82595472374118";"397"
"303";"content";"0.1407944266873";"0.436966833777536";"0.82595472374118";"398"
"304";"firmly";"-0.0153979434146419";"0.369132330086082";"0.825947542422011";"399"
"305";"apostle";"-0.135269001851126";"0.273887683095797";"0.82538883579065";"400"
"306";"blessing";"-0.102521944029452";"0.608267725072471";"0.825367291833143";"401"
"307";"depend";"-0.158278113505558";"0.494535910520004";"0.825367291833143";"402"
"308";"please";"0.172172136176361";"0.104489727185017";"0.825281116003113";"403"
"309";"teacher";"-0.137731941147697";"0.338693628670797";"0.825269625892442";"404"
"310";"deep";"-0.178772882660839";"0.326634904664479";"0.825269625892442";"405"
"311";"ask";"-0.041757283385373";"0.333511379918205";"0.825248081934935";"406"
"312";"action";"0.133526999572461";"0.416782208381603";"0.825239464351932";"407"
"313";"satan";"0.144953323018164";"0.436236433511268";"0.825239464351932";"408"
"314";"rescue";"0.0758069293003581";"0.42140895287348";"0.825239464351932";"409"
"315";"important";"0.103812904068358";"0.441010684935468";"0.825075730274875";"410"
"316";"prepare";"-0.0884876280767174";"0.292913398233918";"0.82499529950018";"411"
"317";"abundant";"-0.0884876280767174";"0.292913398233918";"0.82499529950018";"412"
"318";"likeness";"-0.170439176509063";"0.280448105525146";"0.82499529950018";"413"
"319";"worthless";"0.0813786219511003";"0.501680623532172";"0.824764061022933";"414"
"320";"listen";"0.0675538990351546";"0.417155873353891";"0.824764061022933";"415"
"321";"avoid";"0.0942642246010939";"0.409311505497533";"0.824764061022933";"416"
"322";"lead";"0.173110360296092";"0.0180816397464242";"0.824462445617829";"418"
"323";"approval";"-0.092328355434895";"0.383528140001571";"0.824453828034825";"420"
"324";"limit";"-0.201575845008217";"0.320834794603522";"0.824453828034825";"421"
"325";"wrongdoing";"-0.229733083081276";"0.553498687336701";"0.824269986264095";"422"
"326";"year";"-0.122860665649702";"0.161608097331868";"0.824074654382694";"423"
"327";"ill";"-0.20291547099112";"-0.0263563514682085";"0.824057419216688";"425"
"328";"support";"-0.20291547099112";"-0.0263563514682085";"0.824057419216688";"426"
"329";"waste";"-0.20291547099112";"-0.0263563514682085";"0.824057419216688";"427"
"330";"tychicus";"-0.20291547099112";"-0.0263563514682085";"0.824057419216688";"428"
"331";"toil";"-0.20291547099112";"-0.0263563514682085";"0.824057419216688";"429"
"332";"shake";"-0.20291547099112";"-0.0263563514682085";"0.824057419216688";"430"
"333";"request";"-0.20291547099112";"-0.0263563514682085";"0.824057419216688";"431"
"334";"personally";"-0.20291547099112";"-0.0263563514682085";"0.824057419216688";"432"
"335";"occasion";"-0.20291547099112";"-0.0263563514682085";"0.824057419216688";"433"
"336";"joyful";"-0.20291547099112";"-0.0263563514682085";"0.824057419216688";"434"
"337";"james";"-0.20291547099112";"-0.0263563514682085";"0.824057419216688";"435"
"338";"expect";"-0.20291547099112";"-0.0263563514682085";"0.824057419216688";"436"
"339";"discourage";"-0.20291547099112";"-0.0263563514682085";"0.824057419216688";"437"
"340";"corinth";"-0.20291547099112";"-0.0263563514682085";"0.824057419216688";"438"
"341";"preach";"-0.145333781263795";"0.239959049597828";"0.823995659871833";"439"
"342";"proud";"-0.108778676536665";"0.171942075316814";"0.823778784032924";"440"
"343";"spiritual";"0.175768079041099";"0.0411807980387135";"0.823165499375878";"441"
"344";"jealous";"-0.161549850123665";"0.138009787159204";"0.823112357614026";"442"
"345";"stop";"0.0743311848084795";"0.399122726357292";"0.822906971885788";"443"
"346";"appeal";"-0.135137722311707";"0.0593135288840587";"0.822789198251414";"445"
"347";"timothy";"-0.0845171100247385";"0.171608269959618";"0.822420078446119";"446"
"348";"glorious";"0.0359293319665677";"0.406777192068352";"0.822318103713917";"447"
"349";"hope";"-0.106650728369001";"0.232602748008146";"0.822305177339413";"448"
"350";"righteousness";"-0.016262609501937";"0.357918577792109";"0.821895842146771";"449"
"351";"honour";"0.315097650088807";"-0.033546141953429";"0.821895842146771";"450"
"352";"lose";"0.378366779542102";"-0.0195742604430082";"0.821895842146771";"451"
"353";"witness";"-0.181844184641417";"0.422855510168051";"0.821704819056871";"452"
"354";"prove";"-0.068965397539806";"0.377288161377724";"0.821704819056871";"453"
"355";"concern";"0.136897222156413";"0.444907461411659";"0.821630133337512";"454"
"356";"back";"-0.0778101040276771";"0.210433842610287";"0.821555447618152";"455"
"357";"rid";"0.178568383326136";"0.467384491898252";"0.821549702562817";"456"
"358";"commandment";"0.143761239976722";"0.444262543332476";"0.821258141004549";"457"
"359";"encouragement";"-0.0698365510860958";"0.26314994733163";"0.821173401438353";"458"
"360";"plan";"-0.170651128410528";"0.122339256314653";"0.820739649760536";"462"
"361";"hide";"0.0520076276192144";"0.404700720787261";"0.820544317879135";"463"
"362";"spread";"0.0146385456763633";"0.318337395120808";"0.820476813478944";"464"
"363";"freedom";"0.0307707169666595";"0.392685199012239";"0.820476813478944";"465"
"364";"word";"-0.565671722280707";"-0.0744617673791188";"0.820433725563929";"466"
"365";"provide";"-0.032563878131593";"0.327537794765047";"0.820392073912748";"467"
"366";"strive";"-0.0812290741962022";"0.474515707286928";"0.820392073912748";"468"
"367";"goodness";"0.0615577647471096";"0.344580211183549";"0.820392073912748";"469"
"368";"destruction";"0.127371035871049";"0.459011686322339";"0.820392073912748";"470"
"369";"joy";"-0.102165604192435";"0.17313420663588";"0.819949704651928";"471"
"370";"oppose";"-0.164854630688741";"0.261703156195166";"0.81993534201359";"472"
"371";"conduct";"-0.156788545043593";"0.298877058140881";"0.81993534201359";"473"
"372";"present";"-0.571069775103576";"-0.0950106653870245";"0.819548987042289";"474"
"373";"messenger";"-0.191613452396107";"0.272982739203266";"0.819360836480057";"475"
"374";"profane";"0.1407944266873";"0.436966833777536";"0.819128161738976";"476"
"375";"powerful";"0.1407944266873";"0.436966833777536";"0.819128161738976";"477"
"376";"indecency";"0.1407944266873";"0.436966833777536";"0.819128161738976";"478"
"377";"function";"0.1407944266873";"0.436966833777536";"0.819128161738976";"479"
"378";"age";"0.138294395432357";"0.443409521231433";"0.819118107892139";"480"
"379";"knowledge";"0.205862794843211";"-0.109620774940044";"0.819050603491949";"481"
"380";"choice";"-0.102611364603927";"0.249124989783231";"0.818813619959367";"484"
"381";"danger";"0.0694954610038605";"0.514623381483099";"0.818264967174843";"486"
"382";"weapon";"0.0720524471516158";"0.344302196728387";"0.818264967174843";"487"
"383";"plain";"0.0529057935047256";"0.413193681269163";"0.818264967174843";"488"
"384";"weakness";"0.0720524471516158";"0.344302196728387";"0.818264967174843";"489"
"385";"jealousy";"0.153385745566912";"0.447106053151108";"0.818264967174843";"490"
"386";"innocent";"0.0849581841838528";"0.403780439841532";"0.818264967174843";"491"
"387";"devote";"0.153385745566912";"0.447106053151108";"0.818264967174843";"492"
"388";"straight";"-0.211438758150305";"0.541380931047496";"0.81822618805133";"493"
"389";"numb";"-0.18992919642991";"0.64051133623607";"0.81822618805133";"494"
"390";"read";"-0.208029443286631";"0.314286018041214";"0.817994949574083";"496"
"391";"priscilla";"-0.20291547099112";"-0.0263563514682084";"0.817704824279648";"497"
"392";"personal";"-0.20291547099112";"-0.0263563514682084";"0.817704824279648";"498"
"393";"onesimus";"-0.20291547099112";"-0.0263563514682084";"0.817704824279648";"499"
"394";"galatia";"-0.20291547099112";"-0.0263563514682084";"0.817704824279648";"500"
"395";"fellowworkers";"-0.20291547099112";"-0.0263563514682084";"0.817704824279648";"501"
"396";"fellowworker";"-0.20291547099112";"-0.0263563514682084";"0.817704824279648";"502"
"397";"aquila";"-0.20291547099112";"-0.0263563514682084";"0.817704824279648";"503"
"398";"sinner";"-0.040363574871142";"0.439938799091168";"0.817592795700609";"504"
"399";"follow";"-0.0419412716495953";"0.222921128108493";"0.817498002287577";"505"
"400";"bold";"-0.167134306168694";"0.160691052007323";"0.817433370415054";"506"
"401";"call";"0.00992940632821961";"0.301481826302534";"0.817325650627517";"507"
"402";"belong";"0.183067909539108";"0.179922618879646";"0.817001055001071";"508"
"403";"stay";"-0.109028382203094";"0.176188796645613";"0.816802850592002";"509"
"404";"worker";"-0.22206212463801";"0.0425351330725668";"0.816751145093984";"510"
"405";"christians";"-0.121582172575824";"0.0764475049545122";"0.816751145093984";"511"
"406";"sight";"-0.147574051224166";"0.328826949421143";"0.816453838480381";"513"
"407";"show";"-0.140442685362002";"0.347610455657227";"0.81639351539936";"514"
"408";"usual";"0.0897050854469286";"0.415453575129435";"0.816209673628629";"515"
"409";"train";"0.18276548961934";"0.470764231689442";"0.816209673628629";"516"
"410";"swell";"0.0362844343150499";"0.431142310842153";"0.816209673628629";"517"
"411";"stephanas";"0.0681955237265337";"0.316323169940861";"0.816209673628629";"518"
"412";"represent";"0.0897050854469286";"0.415453575129435";"0.816209673628629";"519"
"413";"religious";"0.18276548961934";"0.470764231689442";"0.816209673628629";"520"
"414";"reflect";"0.172870348368959";"0.451917798690107";"0.816209673628629";"521"
"415";"property";"0.0681955237265337";"0.316323169940861";"0.816209673628629";"522"
"416";"insist";"0.0681955237265337";"0.316323169940861";"0.816209673628629";"523"
"417";"ready";"0.308242091263366";"-0.426524352418068";"0.815804647227489";"524"
"418";"pride";"0.0160484726756856";"0.420701726161639";"0.815612187873755";"525"
"419";"strengthen";"0.0463842739877992";"0.409333300643919";"0.815610751609921";"526"
"420";"produce";"-0.0534140415186367";"0.365576232371113";"0.815508776877719";"528"
"421";"own";"0.210626468773271";"0.0673304652065511";"0.815416855992354";"529"
"422";"bury";"0.100566020095968";"0.434168191432244";"0.815014702118881";"530"
"423";"remember";"-0.0885270736382021";"0.286575842277083";"0.814980231786869";"531"
"424";"fail";"0.108142082698211";"0.450134009606433";"0.814948633982525";"532"
"425";"risk";"-0.0316750582402078";"0.562662890159751";"0.814948633982525";"533"
"426";"soldier";"-0.0274134146606155";"0.278794248901899";"0.814948633982525";"534"
"427";"silas";"-0.00590385294022058";"0.377924654090474";"0.814948633982525";"535"
"428";"reckon";"-0.0593245040720993";"0.393613389803191";"0.814948633982525";"536"
"429";"loss";"-0.0593245040720993";"0.393613389803191";"0.814948633982525";"537"
"430";"godly";"0.0871565512321912";"0.433235310650481";"0.814948633982525";"538"
"431";"disguise";"0.0871565512321912";"0.433235310650481";"0.814948633982525";"539"
"432";"baptism";"0.0772614099818093";"0.414388877651145";"0.814948633982525";"540"
"433";"affair";"0.108142082698211";"0.450134009606433";"0.814948633982525";"541"
"434";"spiritually";"-0.154532727055405";"0.538983764303469";"0.814723140560613";"542"
"435";"know";"0.119724479493659";"-0.0780218141878378";"0.814624038356079";"543"
"436";"doctrine";"-0.0789271562691359";"0.377533952506602";"0.814608239453906";"544"
"437";"treasure";"-0.152167683921281";"0.357722992082957";"0.814585259232565";"545"
"438";"obstacle";"-0.178986621648835";"0.355857230519429";"0.814585259232565";"546"
"439";"meeting";"-0.152167683921281";"0.357722992082957";"0.814585259232565";"547"
"440";"appearance";"-0.266737649814088";"0.203281930334376";"0.814585259232565";"548"
"441";"announce";"-0.27099929339368";"0.487150571592228";"0.814585259232565";"549"
"442";"ambition";"-0.131182152455261";"0.37462169103891";"0.814585259232565";"550"
"443";"include";"-1.08523061468462";"-0.326090426492736";"0.814127091069573";"552"
"444";"kill";"-0.0286871802380426";"0.394490138447575";"0.813700520710925";"553"
"445";"clear";"-0.781940892698661";"-0.214997657334624";"0.812876105270305";"556"
"446";"surely";"0.253750010522536";"-0.070285939937314";"0.812876105270305";"557"
"447";"public";"-0.00652484788369576";"0.430193233299421";"0.812801419550946";"558"
"448";"gentle";"0.688827394145167";"-0.345761030687853";"0.812801419550946";"559"
"449";"reveal";"0.00355852950856943";"0.357361135419959";"0.812471078869164";"560"
"450";"believer";"0.575883191399883";"-0.753068034775649";"0.812183826102398";"561"
"451";"special";"-0.1217742988512";"0.15328612296435";"0.812004293123169";"562"
"452";"book";"-0.233241253419121";"0.485560966094539";"0.812001420595501";"563"
"453";"sorrow";"-0.193175765070212";"0.473794414310001";"0.812001420595501";"564"
"454";"regard";"-0.107641313341388";"0.527951430946971";"0.812001420595501";"565"
"455";"refuse";"0.862571963702989";"-0.640414519208286";"0.811928171139976";"566"
"456";"foot";"0.0483316469975164";"0.371259093696171";"0.811928171139976";"567"
"457";"privilege";"-0.0808743368984837";"0.212296350993393";"0.81160357551353";"568"
"458";"immortal";"0.106312935323301";"0.434567997481572";"0.81160357551353";"569"
"459";"universe";"-0.0428056634595739";"0.336288195031407";"0.811481493087654";"570"
"460";"surrender";"-0.0267143008230412";"0.337407651969524";"0.811481493087654";"571"
"461";"declare";"-0.114104629143013";"0.413944742736969";"0.811481493087654";"572"
"462";"deal";"-0.0577088989967316";"0.405064110167662";"0.81125887219341";"573"
"463";"learn";"-0.0100749906858899";"0.222203940110617";"0.811208602959226";"574"
"464";"decide";"-0.0286249493227375";"0.266473152896353";"0.811192804057054";"575"
"465";"list";"0.17227272388633";"0.462314882211466";"0.810497652361479";"576"
"466";"helper";"0.0823632174613556";"0.419432568618815";"0.810497652361479";"577"
"467";"harm";"0.0624119324081123";"0.432598441575999";"0.810497652361479";"578"
"468";"arent";"0.164851367948544";"0.448180057461964";"0.810497652361479";"579"
"469";"receive";"0.0896593282987933";"0.054582322541672";"0.810303756743912";"580"
"470";"saviour";"-0.0572730134900024";"0.350556238730689";"0.809993523755804";"581"
"471";"face";"-0.0995645502472652";"0.39714176702838";"0.809947563313121";"582"
"472";"natural";"0.162605346503554";"0.464848103578324";"0.809947563313121";"583"
"473";"patient";"0.011284914214514";"0.29344614128727";"0.809947563313121";"584"
"474";"command";"-0.130371784449282";"0.429686759026107";"0.809822608359578";"585"
"475";"nonsense";"0.0479325606249665";"0.555147058623748";"0.80973356000188";"586"
"476";"measure";"0.0931446641581819";"0.420033366682743";"0.809559772077987";"587"
"477";"home";"0.652427868451758";"-0.609521847565513";"0.809546845703482";"588"
"478";"force";"-0.0372784345495363";"0.512529706265906";"0.80953104680131";"589"
"479";"persecute";"0.0425681600920032";"0.385340981726029";"0.80944487097128";"590"
"480";"people";"-0.0468747655900086";"0.368120711078971";"0.809314170962401";"591"
"481";"supreme";"-0.070609363607407";"0.376073151974065";"0.809289754477226";"592"
"482";"small";"-0.148722459398445";"0.336050960086597";"0.809289754477226";"593"
"483";"mighty";"-0.184968833984407";"0.26030383502252";"0.809289754477226";"594"
"484";"creator";"-0.148722459398445";"0.336050960086597";"0.809289754477226";"595"
"485";"appoint";"-0.148722459398445";"0.336050960086597";"0.809289754477226";"596"
"486";"rule";"0.101398598971099";"0.227496845062293";"0.809090113804323";"597"
"487";"fully";"-0.0770175993876623";"0.333777114082295";"0.808784189607717";"598"
"488";"purity";"-0.15989634755033";"0.171904458908941";"0.808732484109699";"599"
"489";"wealth";"-0.191807436961814";"0.286723599810233";"0.808732484109699";"600"
"490";"store";"-0.0453263816575236";"0.326345520657522";"0.808732484109699";"601"
"491";"reach";"-0.0453263816575236";"0.326345520657522";"0.808732484109699";"602"
"492";"ownership";"-0.072145319385078";"0.324479759093994";"0.808732484109699";"603"
"493";"lip";"-0.0243408501915034";"0.343244219613475";"0.808732484109699";"604"
"494";"faultless";"-0.072145319385078";"0.324479759093994";"0.808732484109699";"605"
"495";"disobedience";"-0.0453263816575236";"0.326345520657522";"0.808732484109699";"606"
"496";"happiness";"-0.15537882638748";"0.405831198152247";"0.808317403861722";"607"
"497";"son";"-0.0323559484870594";"0.304865557714617";"0.808314531334054";"608"
"498";"remain";"-0.0121588989123091";"0.535839075886317";"0.808216865393354";"609"
"499";"shame";"-0.0133775723096442";"0.366988982539281";"0.808216865393354";"610"
"500";"pure";"-0.096953429608054";"0.340472464416019";"0.808162287367668";"611"
"501";"agree";"-0.114077407036255";"0.218922707051071";"0.808142179673994";"612"
"502";"acceptable";"0.68608428148136";"-0.773305252445276";"0.808104836814315";"613"
"503";"plead";"-0.128906436117698";"0.340561227036106";"0.808104836814315";"614"
"504";"guarantee";"-0.0850309220350716";"0.416848877128633";"0.808104836814315";"615"
"505";"behalf";"-0.113366145464124";"0.199559787188944";"0.808104836814315";"616"
"506";"angel";"0.05440439235638";"0.4316903118834";"0.807666776344996";"617"
"507";"havent";"0.93485415733953";"-1.1047977249844";"0.807442719186918";"618"
"508";"deserve";"-0.0209167564920896";"0.372216008356889";"0.807154030156318";"619"
"509";"rebuke";"-0.00980020191862436";"0.409698967507933";"0.807128177407309";"621"
"510";"real";"-0.0658548004558173";"0.456643433549793";"0.807126741143475";"622"
"511";"begin";"-0.0667256241851917";"0.270596293549403";"0.806905556513065";"623"
"512";"mercy";"-0.053631454410035";"0.345845307291481";"0.806787782878691";"624"
"513";"kingdom";"0.278269042763588";"-0.0977713634926019";"0.80673894990834";"625"
"514";"sweetsmelling";"1.48426044131948";"-1.73727942431897";"0.806477549890583";"627"
"515";"question";"1.62512531468546";"-1.66320430723948";"0.806477549890583";"632"
"516";"peaceful";"1.33882711844275";"-1.59029734753346";"0.806477549890583";"635"
"517";"criticize";"1.48956981732664";"-1.83454406794402";"0.806477549890583";"636"
"518";"thessalonica";"0.0398697218785506";"0.342063282852154";"0.806387065269051";"638"
"519";"proof";"-0.0505758974517791";"0.488611315098492";"0.806387065269051";"639"
"520";"socalled";"0.718446152202306";"-1.00667240620815";"0.806174498221644";"640"
"521";"guilty";"0.892944925493577";"-0.873965508814045";"0.806099812502285";"641"
"522";"plainly";"0.0219628172149009";"0.566394413286807";"0.805949004799733";"642"
"523";"practice";"0.130899285436918";"0.418120400778201";"0.805949004799733";"643"
"524";"burnt";"0.130899285436918";"0.418120400778201";"0.805949004799733";"644"
"525";"group";"0.318158084467001";"-0.204168803203103";"0.805643080603126";"645"
"526";"result";"-0.0786543793507159";"0.38820546450042";"0.805525306968752";"646"
"527";"create";"0.290777961811776";"0.00108311424123883";"0.805518125649583";"647"
"528";"completely";"-0.038470773251906";"0.361753691343287";"0.805476473998402";"648"
"529";"reject";"-0.0321873994484927";"0.327086885537908";"0.80538598937687";"649"
"530";"apollos";"-0.0673599736322932";"0.144983409236326";"0.805324230032016";"650"
"531";"weep";"-0.0883455050983135";"0.128084710280373";"0.805324230032016";"651"
"532";"travel";"-0.181405909270725";"0.0727740537203661";"0.805324230032016";"652"
"533";"city";"-0.0883455050983135";"0.128084710280373";"0.805324230032016";"653"
"534";"large";"-0.0767310846283004";"0.208368682469613";"0.805294068491505";"654"
"535";"imitate";"-0.010489618183443";"0.261813577466092";"0.805294068491505";"655"
"536";"dispute";"0.151884816902938";"0.435019099734154";"0.805294068491505";"656"
"537";"worth";"0.151884816902938";"0.435019099734154";"0.805294068491505";"657"
"538";"voice";"-0.0424007075949267";"0.376632718367384";"0.805294068491505";"658"
"539";"redeem";"0.0120676759645191";"0.547547980287472";"0.805294068491505";"659"
"540";"isaac";"-0.102502289928288";"0.39310691853889";"0.805294068491505";"660"
"541";"soul";"0.0163293195441114";"0.263679339029619";"0.805294068491505";"661"
"542";"reverence";"0.00540376159864786";"0.395397178886865";"0.805294068491505";"662"
"543";"repent";"0.0378388812645063";"0.362809744218194";"0.805294068491505";"663"
"544";"merciful";"0.0110199435369519";"0.360943982654666";"0.805294068491505";"664"
"545";"freely";"-0.0767310846283004";"0.208368682469613";"0.805294068491505";"665"
"546";"fellowchristians";"0.00540376159864786";"0.395397178886865";"0.805294068491505";"666"
"547";"external";"-0.102502289928288";"0.39310691853889";"0.805294068491505";"667"
"548";"ceremony";"-0.102502289928288";"0.39310691853889";"0.805294068491505";"668"
"549";"accordance";"0.0378388812645063";"0.362809744218194";"0.805294068491505";"669"
"550";"devotion";"-0.108656971049536";"0.324284408302059";"0.804956546490555";"670"
"551";"obedience";"-0.104837857286589";"0.236770731453444";"0.804956546490555";"671"
"552";"daughter";"0.00120382042868221";"0.354000848937526";"0.804956546490555";"672"
"553";"claim";"0.414154362253773";"-0.292172070011332";"0.804936438796881";"673"
"554";"continue";"-0.033332030992234";"0.280340714205264";"0.804521358548903";"674"
"555";"warn";"-0.00142978020717841";"0.371413428712496";"0.804432310191206";"675"
"556";"turn";"0.273490276099329";"-0.0568227496833276";"0.804172346437282";"676"
"557";"interest";"-0.0700500039783809";"0.452635486185215";"0.804147929952107";"677"
"558";"gather";"1.04313805926684";"-1.17099497905432";"0.803899456308854";"678"
"559";"selfish";"0.575848198036502";"-0.671412115431365";"0.803396763967013";"679"
"560";"instruction";"-0.124490330098518";"0.244738062649948";"0.8032646276943";"680"
"561";"view";"0.113258867453848";"0.421432687855389";"0.803024771634051";"681"
"562";"guide";"-0.0223497067994004";"0.265518220296593";"0.803024771634051";"682"
"563";"assure";"0.0231848569301767";"0.359286186105927";"0.802782043046133";"683"
"564";"persons";"0.890723374810533";"-0.950106338755946";"0.80237988917266";"685"
"565";"spare";"-0.0716216172118855";"0.428852050494178";"0.802285095759627";"686"
"566";"foreigner";"-0.0710975869575108";"0.5110837567268";"0.802285095759627";"687"
"567";"stubborn";"-0.0710975869575108";"0.5110837567268";"0.802285095759627";"688"
"568";"realize";"-0.239088203982196";"0.372331430690936";"0.802285095759627";"689"
"569";"poverty";"-0.0926071486779057";"0.411953351538225";"0.802285095759627";"690"
"570";"ox";"-0.0926071486779057";"0.411953351538225";"0.802285095759627";"691"
"571";"humanity";"-0.124518238089389";"0.526772492439518";"0.802285095759627";"692"
"572";"handle";"-0.103532706623369";"0.54367119139547";"0.802285095759627";"693"
"573";"clay";"-0.099271063043777";"0.259802550137618";"0.801798202319958";"694"
"574";"pot";"-0.099271063043777";"0.259802550137618";"0.801798202319958";"695"
"575";"fulfil";"0.0472099922605134";"0.299424470984908";"0.801798202319958";"696"
"576";"angry";"0.0203910545329591";"0.29755870942138";"0.801798202319958";"697"
"577";"upright";"0.041900616253354";"0.396689114609954";"0.801798202319958";"698"
"578";"opportunity";"0.0629297367970911";"0.391353123103814";"0.801694791323922";"699"
"579";"opinion";"-0.146351492820319";"0.183370153435259";"0.801694791323922";"700"
"580";"bind";"0.0755210556767033";"0.401492342477386";"0.801694791323922";"701"
"581";"approve";"-0.0776095132846346";"0.276034790484408";"0.801694791323922";"702"
"582";"speech";"0.02937698302592";"0.371300079936098";"0.801410411084823";"703"
"583";"sincere";"-0.0199613100294379";"0.360871349772193";"0.801410411084823";"704"
"584";"root";"-0.213316998682209";"0.187593194621658";"0.801407538557156";"705"
"585";"wear";"-0.213316998682209";"0.187593194621658";"0.801407538557156";"706"
"586";"wonderful";"-0.0987470327894023";"0.34203425637024";"0.801407538557156";"707"
"587";"wonder";"-0.0987470327894023";"0.34203425637024";"0.801407538557156";"708"
"588";"apply";"-0.0668359433779185";"0.227215115468948";"0.800040215387347";"709"
