"";"V1"
"1";9
"2";8
"3";10
"4";5
"5";11
"6";9
"7";9
"8";11
"9";10
"10";11
"11";8
"12";11
"13";11
"14";9
"15";11
"16";12
"17";5
"18";6
"19";8
"20";12
"21";5
"22";11
"23";11
"24";11
"25";6
"26";6
"27";6
"28";8
"29";4
"30";10
"31";6
"32";0
"33";6
"34";11
"35";9
"36";11
"37";3
"38";3
"39";3
"40";8
"41";6
"42";6
"43";6
"44";3
"45";0
"46";3
"47";5
"48";11
"49";8
"50";1
"51";4
"52";6
"53";11
"54";1
"55";1
"56";7
"57";11
"58";11
"59";10
"60";9
"61";9
"62";12
"63";11
"64";5
"65";5
"66";6
"67";5
"68";6
"69";5
"70";6
"71";11
"72";5
"73";8
"74";8
"75";12
"76";9
"77";5
"78";5
"79";11
"80";6
"81";6
"82";3
"83";12
"84";3
"85";1
"86";5
"87";5
"88";5
"89";5
"90";5
"91";5
"92";5
"93";5
"94";5
"95";5
"96";11
"97";0
"98";5
"99";0
"100";5
"101";12
"102";12
"103";6
"104";11
"105";12
"106";6
"107";6
"108";11
"109";4
"110";6
"111";6
"112";4
"113";5
"114";5
"115";6
"116";11
"117";6
"118";11
"119";5
"120";11
"121";5
"122";11
"123";11
"124";6
"125";5
"126";6
"127";9
"128";11
"129";8
"130";12
"131";5
"132";5
"133";11
"134";5
"135";5
"136";5
"137";5
"138";5
"139";5
"140";8
"141";5
"142";12
"143";0
"144";11
"145";5
"146";5
"147";5
"148";5
"149";8
"150";5
"151";0
"152";5
"153";5
"154";5
"155";5
"156";5
"157";11
"158";5
"159";5
"160";5
"161";5
"162";8
"163";5
"164";4
"165";12
"166";9
"167";4
"168";11
"169";5
"170";5
"171";5
"172";5
"173";9
"174";10
"175";10
"176";11
"177";8
"178";11
"179";9
"180";9
"181";9
"182";11
"183";11
"184";11
"185";6
"186";11
"187";0
"188";10
"189";6
"190";6
"191";6
"192";6
"193";5
"194";4
"195";9
"196";9
"197";11
"198";5
"199";1
"200";6
"201";9
"202";11
"203";11
"204";9
"205";11
"206";5
"207";10
"208";9
"209";0
"210";10
"211";6
"212";9
"213";9
"214";9
"215";6
"216";9
"217";9
"218";9
"219";9
"220";9
"221";9
"222";6
"223";6
"224";11
"225";3
"226";10
"227";10
"228";11
"229";11
"230";8
"231";9
"232";6
"233";6
"234";11
"235";9
"236";6
"237";8
"238";9
"239";9
"240";12
"241";9
"242";12
"243";6
"244";3
"245";9
"246";3
"247";3
"248";12
"249";6
"250";9
"251";6
"252";9
"253";11
"254";5
"255";6
"256";6
"257";3
"258";6
"259";9
"260";6
"261";3
"262";3
"263";11
"264";8
"265";6
"266";6
"267";6
"268";6
"269";6
"270";11
"271";3
"272";8
"273";8
"274";6
"275";6
"276";6
"277";3
"278";3
"279";3
"280";6
"281";8
"282";6
"283";11
"284";6
"285";6
"286";3
"287";6
"288";10
"289";7
"290";6
"291";9
"292";9
"293";6
"294";6
"295";6
"296";6
"297";6
"298";6
"299";10
"300";6
"301";5
"302";6
"303";6
"304";11
"305";11
"306";11
"307";9
"308";12
"309";6
"310";6
"311";11
"312";6
"313";11
"314";5
"315";9
"316";11
"317";9
"318";9
"319";9
"320";9
"321";4
"322";4
"323";9
"324";11
"325";12
"326";12
"327";12
"328";7
"329";11
"330";11
"331";11
"332";11
"333";11
"334";11
"335";9
"336";11
"337";6
"338";11
"339";6
"340";10
"341";11
"342";11
"343";4
"344";9
"345";5
"346";6
"347";6
"348";9
"349";11
"350";5
"351";11
"352";5
"353";8
"354";11
"355";6
"356";6
"357";11
"358";0
"359";5
"360";5
"361";5
"362";3
"363";5
"364";11
"365";12
"366";0
"367";10
"368";11
"369";3
"370";11
"371";3
"372";11
"373";5
"374";5
"375";6
"376";9
"377";5
"378";8
"379";11
"380";10
"381";3
"382";12
"383";8
"384";11
"385";7
"386";11
"387";5
"388";0
"389";11
"390";11
"391";5
"392";0
"393";12
"394";11
"395";6
"396";11
"397";11
"398";11
"399";11
"400";5
"401";5
"402";11
"403";8
"404";9
"405";6
"406";9
"407";0
"408";11
"409";9
"410";11
"411";11
"412";5
"413";5
"414";10
"415";10
"416";5
"417";8
"418";8
"419";8
"420";8
"421";5
"422";8
"423";8
"424";8
"425";5
"426";11
"427";5
"428";11
"429";5
"430";8
"431";8
"432";10
"433";6
"434";0
"435";11
"436";11
"437";11
"438";5
"439";8
"440";11
"441";11
"442";12
"443";1
"444";5
"445";5
"446";5
"447";5
"448";5
"449";6
"450";6
"451";5
"452";9
"453";1
"454";0
"455";0
"456";5
"457";1
"458";12
"459";1
"460";12
"461";1
"462";5
"463";12
"464";0
"465";0
"466";12
"467";6
"468";1
"469";5
"470";11
"471";0
"472";0
"473";0
"474";12
"475";5
"476";5
"477";11
"478";8
"479";2
"480";11
"481";12
"482";11
"483";1
"484";6
"485";11
"486";8
"487";0
"488";11
"489";6
"490";6
"491";10
"492";8
"493";11
"494";8
"495";12
"496";9
"497";12
"498";7
"499";11
"500";3
"501";12
"502";12
"503";11
"504";12
"505";8
"506";9
"507";12
"508";3
"509";3
"510";0
"511";12
"512";8
"513";6
"514";6
"515";12
"516";5
"517";1
"518";1
"519";3
"520";6
"521";6
"522";8
"523";8
"524";1
"525";6
"526";8
"527";9
"528";6
"529";9
"530";8
"531";12
"532";12
"533";12
"534";12
"535";5
"536";3
"537";6
"538";12
"539";5
"540";1
"541";2
"542";1
"543";6
"544";6
"545";6
"546";12
"547";11
"548";1
"549";1
"550";5
"551";6
"552";3
"553";10
"554";9
"555";6
"556";9
"557";1
"558";10
"559";9
"560";9
"561";9
"562";9
"563";1
"564";1
"565";6
"566";6
"567";6
"568";1
"569";1
"570";12
"571";1
"572";3
"573";11
"574";11
"575";8
"576";1
"577";1
"578";1
"579";6
"580";12
"581";4
"582";11
"583";7
"584";3
"585";12
"586";11
"587";6
"588";10
"589";10
"590";5
"591";11
"592";11
"593";12
"594";12
"595";9
"596";11
"597";9
"598";5
"599";11
"600";8
"601";8
"602";12
"603";12
"604";12
"605";12
"606";12
"607";6
"608";12
"609";5
"610";12
"611";9
"612";12
"613";5
"614";12
"615";12
"616";10
"617";12
"618";10
"619";10
"620";12
"621";9
"622";5
"623";12
"624";2
"625";12
"626";0
"627";12
"628";10
"629";12
"630";8
"631";3
"632";12
"633";12
"634";12
"635";12
"636";12
"637";0
"638";12
"639";12
"640";8
"641";10
"642";6
"643";12
"644";6
"645";10
"646";10
"647";12
"648";0
"649";12
"650";12
"651";12
"652";10
"653";6
"654";8
"655";5
"656";11
"657";12
"658";9
"659";10
"660";10
"661";9
"662";9
"663";9
"664";10
"665";12
"666";11
"667";6
"668";6
"669";0
"670";12
"671";9
"672";9
"673";9
"674";5
"675";5
"676";5
"677";3
"678";5
"679";12
"680";6
"681";6
"682";11
"683";6
"684";11
"685";5
"686";5
"687";5
"688";6
"689";12
"690";6
"691";6
"692";6
"693";8
"694";9
"695";11
"696";9
"697";8
"698";12
"699";6
"700";6
"701";6
"702";8
"703";6
"704";11
"705";6
"706";10
"707";5
"708";6
"709";11
"710";11
"711";5
"712";6
"713";12
"714";3
"715";1
"716";6
"717";6
"718";3
"719";0
"720";9
"721";10
"722";0
"723";0
"724";11
"725";0
"726";10
"727";12
"728";8
"729";8
"730";8
"731";8
"732";0
"733";0
"734";9
"735";8
"736";8
"737";8
"738";6
"739";3
"740";11
"741";6
"742";11
"743";0
"744";0
"745";6
"746";6
"747";6
"748";6
"749";6
"750";6
"751";11
"752";9
"753";6
"754";1
"755";6
"756";1
"757";1
"758";1
"759";6
"760";11
"761";12
"762";12
"763";3
"764";10
"765";8
"766";12
"767";0
"768";12
"769";8
"770";0
"771";9
"772";7
"773";7
"774";1
"775";1
"776";8
"777";12
"778";5
"779";7
"780";6
"781";6
"782";8
"783";12
"784";3
"785";9
"786";12
"787";12
"788";9
"789";12
"790";11
"791";11
"792";7
"793";6
"794";1
"795";12
"796";6
"797";6
"798";1
"799";6
"800";12
"801";0
"802";0
"803";0
"804";1
"805";0
"806";12
"807";1
"808";6
"809";1
"810";1
"811";6
"812";6
"813";5
"814";3
"815";6
"816";6
"817";6
"818";8
"819";3
"820";10
"821";3
"822";0
"823";12
"824";1
"825";12
"826";11
"827";1
"828";0
"829";6
"830";11
"831";11
"832";3
"833";8
"834";3
"835";1
"836";11
"837";6
"838";6
"839";9
"840";6
"841";6
"842";3
"843";5
"844";5
"845";3
"846";6
"847";11
"848";11
"849";0
"850";11
"851";8
"852";3
"853";3
"854";3
"855";3
"856";3
"857";12
"858";1
"859";10
"860";6
"861";0
"862";11
"863";3
"864";3
"865";10
"866";3
"867";3
"868";3
"869";10
"870";3
"871";3
"872";3
"873";1
"874";11
"875";12
"876";3
"877";10
"878";3
"879";3
"880";10
"881";8
"882";5
"883";5
"884";3
"885";6
"886";5
"887";11
"888";3
"889";9
"890";9
"891";0
"892";6
"893";7
"894";3
"895";10
"896";9
"897";3
"898";3
"899";3
"900";3
"901";3
"902";3
"903";6
"904";3
"905";12
"906";12
"907";0
"908";8
"909";6
"910";0
"911";3
"912";3
"913";0
"914";3
"915";3
"916";0
"917";11
"918";10
"919";3
"920";3
"921";6
"922";3
"923";3
"924";3
"925";3
"926";12
"927";11
"928";1
"929";8
"930";11
"931";3
"932";11
"933";1
"934";1
"935";11
"936";8
"937";10
"938";6
"939";1
"940";1
"941";1
"942";1
"943";6
"944";1
"945";1
"946";9
"947";12
"948";1
"949";3
"950";12
"951";10
"952";10
"953";5
"954";9
"955";12
"956";1
"957";12
"958";12
"959";12
"960";1
"961";6
"962";8
"963";5
"964";6
"965";0
"966";12
"967";12
"968";0
"969";0
"970";12
"971";11
"972";8
"973";1
"974";9
"975";12
"976";9
"977";8
"978";12
"979";9
"980";12
"981";12
"982";6
"983";12
"984";12
"985";3
"986";5
"987";5
"988";5
"989";5
"990";5
"991";6
"992";5
"993";11
"994";9
"995";5
"996";5
"997";3
"998";0
"999";12
"1000";12
"1001";6
"1002";12
"1003";1
"1004";5
"1005";1
"1006";1
"1007";9
"1008";9
"1009";6
"1010";1
"1011";6
"1012";8
"1013";6
"1014";12
"1015";6
"1016";12
"1017";7
"1018";8
"1019";7
"1020";1
"1021";11
"1022";6
"1023";1
"1024";1
"1025";1
"1026";1
"1027";1
"1028";5
"1029";1
"1030";1
"1031";1
"1032";1
"1033";1
"1034";1
"1035";12
"1036";7
"1037";3
"1038";8
"1039";3
"1040";6
"1041";1
"1042";8
"1043";3
"1044";1
"1045";11
"1046";1
"1047";1
"1048";5
"1049";0
"1050";11
"1051";9
"1052";9
"1053";3
"1054";3
"1055";3
"1056";3
"1057";3
"1058";3
"1059";3
"1060";3
"1061";3
"1062";3
"1063";3
"1064";3
"1065";3
"1066";11
"1067";3
"1068";3
"1069";3
"1070";8
"1071";8
"1072";8
"1073";8
"1074";4
"1075";1
"1076";1
"1077";1
"1078";7
"1079";12
"1080";1
"1081";1
"1082";0
"1083";1
"1084";1
"1085";1
"1086";1
"1087";1
"1088";1
"1089";12
"1090";1
"1091";6
"1092";1
"1093";1
"1094";3
"1095";11
"1096";12
"1097";1
"1098";11
"1099";11
"1100";8
"1101";10
"1102";8
"1103";11
"1104";8
"1105";11
"1106";11
"1107";8
"1108";5
"1109";2
"1110";11
"1111";5
"1112";6
"1113";6
"1114";5
"1115";6
"1116";6
"1117";6
"1118";6
"1119";0
"1120";6
"1121";6
"1122";6
"1123";6
"1124";3
"1125";6
"1126";3
"1127";3
"1128";11
"1129";6
"1130";6
"1131";9
"1132";6
"1133";8
"1134";8
"1135";2
"1136";8
"1137";2
"1138";9
"1139";0
"1140";6
"1141";8
"1142";11
"1143";11
"1144";10
"1145";11
"1146";12
"1147";12
"1148";12
"1149";12
"1150";0
"1151";8
"1152";2
"1153";1
"1154";8
"1155";7
"1156";0
"1157";11
"1158";12
"1159";12
"1160";6
"1161";11
"1162";11
"1163";11
"1164";8
"1165";2
"1166";11
"1167";8
"1168";2
"1169";2
"1170";8
"1171";2
"1172";2
"1173";8
"1174";6
"1175";11
"1176";2
"1177";6
"1178";6
"1179";6
"1180";8
"1181";2
"1182";6
"1183";0
"1184";11
"1185";2
"1186";11
"1187";6
"1188";11
"1189";2
"1190";2
"1191";12
"1192";3
"1193";5
"1194";2
"1195";8
"1196";8
"1197";12
"1198";2
"1199";12
"1200";2
"1201";2
"1202";8
"1203";8
"1204";12
"1205";8
"1206";6
"1207";3
"1208";6
"1209";3
"1210";3
"1211";11
"1212";0
"1213";8
"1214";12
"1215";2
"1216";3
"1217";12
"1218";12
"1219";9
"1220";1
"1221";9
"1222";9
"1223";12
"1224";9
"1225";12
"1226";5
"1227";9
"1228";10
"1229";12
"1230";5
"1231";9
"1232";9
"1233";9
"1234";9
"1235";9
"1236";9
"1237";9
"1238";9
"1239";9
"1240";0
"1241";9
"1242";9
"1243";6
"1244";6
"1245";8
"1246";11
"1247";6
"1248";11
"1249";11
"1250";8
"1251";11
"1252";9
"1253";12
"1254";9
"1255";5
"1256";12
"1257";9
"1258";6
"1259";1
"1260";3
"1261";6
"1262";11
"1263";9
"1264";6
"1265";0
"1266";0
"1267";5
"1268";6
"1269";6
"1270";6
"1271";4
"1272";4
"1273";4
"1274";4
"1275";9
"1276";6
"1277";9
"1278";6
"1279";7
"1280";6
"1281";6
"1282";6
"1283";6
"1284";4
"1285";6
"1286";4
"1287";4
"1288";8
"1289";8
"1290";8
"1291";9
"1292";6
"1293";6
"1294";9
"1295";6
"1296";6
"1297";6
"1298";12
"1299";6
"1300";12
"1301";12
"1302";12
"1303";12
"1304";0
"1305";12
"1306";12
"1307";1
"1308";12
"1309";12
"1310";9
"1311";12
"1312";10
"1313";12
"1314";12
"1315";3
"1316";12
"1317";12
"1318";3
"1319";12
"1320";12
"1321";12
"1322";12
"1323";3
"1324";2
"1325";12
"1326";12
"1327";0
"1328";6
"1329";10
"1330";10
"1331";10
"1332";11
"1333";12
"1334";10
"1335";10
"1336";8
"1337";11
"1338";8
"1339";7
"1340";12
"1341";11
"1342";2
"1343";9
"1344";1
"1345";9
"1346";6
"1347";11
"1348";10
"1349";9
"1350";6
"1351";12
"1352";11
"1353";12
"1354";12
"1355";12
"1356";12
"1357";11
"1358";11
"1359";6
"1360";5
"1361";11
"1362";9
"1363";11
"1364";11
"1365";12
"1366";5
"1367";12
"1368";12
"1369";12
"1370";12
"1371";12
"1372";12
"1373";12
"1374";8
"1375";12
"1376";12
"1377";12
"1378";6
"1379";12
"1380";12
"1381";12
"1382";6
"1383";6
"1384";12
"1385";8
"1386";12
"1387";12
"1388";11
"1389";9
"1390";9
"1391";9
"1392";6
"1393";9
"1394";12
"1395";8
"1396";9
"1397";8
"1398";12
"1399";12
"1400";12
"1401";11
"1402";11
"1403";12
"1404";11
"1405";5
"1406";9
"1407";12
"1408";5
"1409";11
"1410";9
"1411";9
"1412";6
"1413";11
"1414";12
"1415";5
"1416";2
"1417";5
"1418";5
"1419";5
"1420";5
"1421";5
"1422";10
"1423";9
"1424";10
"1425";11
"1426";12
"1427";11
"1428";6
"1429";6
"1430";6
"1431";6
"1432";11
"1433";12
"1434";9
"1435";6
"1436";11
"1437";8
"1438";8
"1439";4
"1440";6
"1441";6
"1442";6
"1443";6
"1444";9
"1445";5
"1446";11
"1447";9
"1448";12
"1449";11
"1450";12
"1451";6
"1452";8
"1453";12
"1454";12
"1455";8
"1456";8
"1457";1
"1458";4
"1459";6
"1460";11
"1461";8
"1462";6
"1463";11
"1464";8
"1465";3
"1466";9
"1467";9
"1468";6
"1469";11
"1470";0
"1471";8
"1472";9
"1473";12
"1474";9
"1475";9
"1476";6
"1477";6
"1478";5
"1479";0
"1480";6
"1481";6
"1482";6
"1483";12
"1484";11
"1485";6
"1486";9
"1487";12
"1488";8
"1489";8
"1490";0
"1491";1
"1492";11
"1493";12
"1494";3
"1495";6
"1496";3
"1497";0
"1498";6
"1499";6
"1500";12
"1501";12
"1502";9
"1503";2
"1504";8
"1505";2
"1506";2
"1507";3
"1508";0
"1509";12
"1510";12
"1511";6
"1512";3
"1513";12
"1514";1
"1515";11
"1516";11
"1517";12
"1518";6
"1519";11
"1520";12
"1521";1
"1522";4
"1523";9
"1524";0
"1525";3
"1526";8
"1527";12
"1528";12
"1529";6
"1530";12
"1531";12
"1532";12
"1533";12
"1534";12
"1535";12
"1536";12
"1537";6
"1538";11
"1539";6
"1540";12
"1541";8
"1542";0
"1543";8
"1544";12
"1545";8
"1546";12
"1547";12
"1548";12
"1549";8
"1550";8
"1551";11
"1552";12
"1553";12
"1554";8
"1555";12
"1556";10
"1557";12
"1558";12
"1559";10
"1560";10
"1561";12
"1562";6
"1563";11
"1564";12
"1565";8
"1566";8
"1567";10
"1568";12
"1569";12
"1570";3
"1571";12
"1572";12
"1573";5
"1574";7
"1575";12
"1576";12
"1577";3
"1578";5
"1579";12
"1580";12
"1581";9
"1582";12
"1583";11
"1584";3
"1585";11
"1586";12
"1587";8
"1588";12
"1589";12
"1590";11
"1591";11
"1592";12
"1593";12
"1594";12
"1595";3
"1596";12
"1597";12
"1598";12
"1599";12
"1600";12
"1601";0
"1602";0
"1603";3
"1604";11
"1605";10
"1606";12
"1607";7
"1608";3
"1609";6
"1610";6
"1611";9
"1612";5
"1613";6
"1614";8
"1615";9
"1616";6
"1617";8
"1618";12
"1619";12
"1620";12
"1621";0
"1622";6
"1623";8
"1624";9
"1625";8
"1626";8
"1627";11
"1628";8
"1629";8
"1630";10
"1631";0
"1632";12
"1633";11
"1634";6
"1635";0
"1636";5
"1637";12
"1638";11
"1639";7
"1640";8
"1641";3
"1642";12
"1643";12
"1644";12
"1645";12
"1646";12
"1647";6
"1648";3
"1649";8
"1650";3
"1651";11
"1652";8
"1653";9
"1654";6
"1655";9
"1656";6
"1657";0
"1658";0
"1659";10
"1660";0
"1661";8
"1662";0
"1663";0
"1664";8
"1665";0
"1666";9
"1667";12
"1668";5
"1669";12
"1670";0
"1671";0
"1672";0
"1673";6
"1674";12
"1675";1
"1676";1
"1677";1
"1678";6
"1679";12
"1680";11
"1681";8
"1682";10
"1683";9
"1684";0
"1685";3
"1686";8
"1687";3
"1688";3
"1689";11
"1690";8
"1691";0
"1692";8
"1693";6
"1694";11
"1695";11
"1696";12
"1697";6
"1698";7
"1699";0
"1700";8
"1701";12
"1702";8
"1703";3
"1704";6
"1705";12
"1706";1
"1707";3
"1708";12
"1709";11
"1710";3
"1711";9
"1712";0
"1713";12
"1714";0
"1715";12
"1716";12
"1717";10
"1718";3
"1719";3
"1720";6
"1721";12
"1722";5
"1723";6
"1724";12
"1725";3
"1726";9
"1727";7
"1728";11
"1729";6
"1730";7
"1731";9
"1732";8
"1733";11
"1734";0
"1735";6
"1736";11
"1737";6
"1738";12
"1739";11
"1740";12
"1741";8
"1742";12
"1743";10
"1744";0
"1745";12
"1746";10
"1747";9
"1748";12
"1749";10
"1750";9
"1751";11
"1752";0
"1753";5
"1754";9
"1755";4
"1756";0
"1757";4
"1758";6
"1759";8
"1760";11
"1761";9
"1762";12
"1763";6
"1764";9
"1765";6
"1766";6
"1767";11
"1768";12
"1769";0
"1770";12
"1771";12
"1772";8
"1773";9
"1774";8
"1775";12
"1776";6
"1777";6
"1778";11
"1779";12
"1780";11
"1781";12
"1782";6
"1783";12
"1784";9
"1785";6
"1786";12
"1787";12
"1788";12
"1789";5
"1790";12
"1791";12
"1792";12
"1793";8
"1794";12
"1795";12
"1796";3
"1797";12
"1798";12
"1799";5
"1800";5
"1801";5
"1802";11
"1803";11
"1804";11
"1805";11
"1806";12
"1807";6
"1808";6
"1809";11
"1810";10
"1811";11
"1812";11
"1813";6
"1814";6
"1815";11
"1816";6
"1817";11
"1818";12
"1819";7
"1820";11
"1821";5
"1822";5
"1823";5
"1824";5
"1825";5
"1826";6
"1827";5
"1828";5
"1829";5
"1830";5
"1831";11
"1832";5
"1833";5
"1834";5
"1835";0
"1836";5
"1837";12
"1838";12
"1839";5
"1840";5
"1841";5
"1842";5
"1843";5
"1844";5
"1845";11
"1846";5
"1847";3
"1848";12
"1849";5
"1850";11
"1851";6
"1852";5
"1853";9
"1854";11
"1855";6
"1856";9
"1857";9
"1858";3
"1859";9
"1860";5
"1861";3
"1862";3
"1863";11
"1864";11
"1865";6
"1866";11
"1867";6
"1868";10
"1869";6
"1870";11
"1871";3
"1872";12
"1873";0
"1874";12
"1875";12
"1876";0
"1877";12
"1878";12
"1879";0
"1880";7
"1881";8
"1882";9
"1883";6
"1884";6
"1885";8
"1886";5
"1887";8
"1888";6
"1889";5
"1890";0
"1891";6
"1892";8
"1893";3
"1894";3
"1895";8
"1896";3
"1897";3
"1898";12
"1899";12
"1900";12
"1901";11
"1902";0
"1903";5
"1904";12
"1905";3
"1906";12
"1907";9
"1908";3
"1909";5
"1910";5
"1911";11
"1912";10
"1913";11
"1914";11
"1915";5
"1916";11
"1917";0
"1918";6
"1919";0
"1920";11
"1921";0
"1922";12
"1923";9
"1924";12
"1925";8
"1926";12
"1927";6
"1928";12
"1929";6
"1930";11
"1931";6
"1932";11
"1933";3
"1934";0
"1935";6
"1936";6
"1937";6
"1938";11
"1939";6
"1940";6
"1941";1
"1942";6
"1943";12
"1944";5
"1945";1
"1946";6
"1947";9
"1948";7
"1949";8
"1950";6
"1951";9
"1952";6
"1953";12
"1954";12
"1955";3
"1956";6
"1957";7
"1958";3
"1959";6
"1960";12
"1961";7
"1962";8
"1963";0
"1964";0
"1965";0
"1966";0
"1967";6
"1968";0
"1969";3
"1970";12
"1971";5
"1972";6
"1973";5
"1974";5
"1975";9
"1976";6
"1977";5
"1978";6
"1979";9
"1980";8
"1981";12
"1982";9
"1983";10
"1984";10
"1985";9
"1986";11
"1987";11
"1988";10
"1989";9
"1990";10
"1991";11
"1992";11
"1993";11
"1994";11
"1995";11
"1996";8
"1997";11
"1998";11
"1999";11
"2000";10
"2001";10
"2002";11
"2003";9
"2004";8
"2005";3
"2006";10
"2007";6
"2008";6
"2009";6
"2010";8
"2011";6
"2012";7
"2013";11
"2014";11
"2015";9
"2016";11
"2017";11
"2018";8
"2019";11
"2020";5
"2021";9
"2022";11
"2023";6
"2024";9
"2025";5
"2026";5
"2027";6
"2028";6
"2029";6
"2030";5
"2031";5
"2032";5
"2033";11
"2034";8
"2035";11
"2036";8
"2037";9
"2038";10
"2039";11
"2040";12
"2041";6
"2042";5
"2043";9
"2044";11
"2045";11
"2046";11
"2047";6
"2048";10
"2049";9
"2050";12
"2051";0
"2052";8
"2053";11
"2054";11
"2055";6
"2056";11
"2057";11
"2058";12
"2059";9
"2060";3
"2061";11
"2062";10
"2063";11
"2064";10
"2065";10
"2066";11
"2067";9
"2068";6
"2069";6
"2070";12
"2071";8
"2072";9
"2073";8
"2074";6
"2075";11
"2076";6
"2077";9
"2078";3
"2079";12
"2080";8
"2081";11
"2082";9
"2083";3
"2084";0
"2085";6
"2086";12
"2087";11
"2088";6
"2089";6
"2090";10
"2091";6
"2092";6
"2093";11
"2094";11
"2095";6
"2096";6
"2097";3
"2098";6
"2099";6
"2100";3
"2101";6
"2102";6
"2103";0
"2104";6
"2105";6
"2106";6
"2107";0
"2108";1
"2109";11
"2110";2
"2111";2
"2112";10
"2113";3
"2114";3
"2115";3
"2116";9
"2117";3
"2118";3
"2119";11
"2120";3
"2121";3
"2122";3
"2123";3
"2124";6
"2125";3
"2126";11
"2127";0
"2128";3
"2129";3
"2130";3
"2131";6
"2132";3
"2133";3
"2134";6
"2135";11
"2136";3
"2137";11
"2138";6
"2139";10
"2140";3
"2141";6
"2142";8
"2143";3
"2144";6
"2145";11
"2146";6
"2147";6
"2148";8
"2149";7
"2150";3
"2151";11
"2152";11
"2153";12
"2154";8
"2155";11
"2156";11
"2157";12
"2158";12
"2159";12
"2160";12
"2161";10
"2162";10
"2163";9
"2164";10
"2165";11
"2166";12
"2167";9
"2168";11
"2169";12
"2170";12
"2171";11
"2172";11
"2173";9
"2174";11
"2175";12
"2176";9
"2177";12
"2178";12
"2179";12
"2180";8
"2181";12
"2182";12
"2183";11
"2184";9
"2185";9
"2186";8
"2187";11
"2188";0
"2189";8
"2190";9
"2191";12
"2192";9
"2193";9
"2194";12
"2195";3
"2196";9
"2197";9
"2198";6
"2199";6
"2200";9
"2201";7
"2202";12
"2203";3
"2204";6
"2205";5
"2206";6
"2207";6
"2208";6
"2209";4
"2210";12
"2211";1
"2212";12
"2213";12
"2214";12
"2215";0
"2216";9
"2217";10
"2218";12
"2219";10
"2220";12
"2221";12
"2222";12
"2223";5
"2224";12
"2225";12
"2226";9
"2227";12
"2228";6
"2229";3
"2230";9
"2231";10
"2232";8
"2233";12
"2234";5
"2235";5
"2236";6
"2237";5
"2238";8
"2239";9
"2240";12
"2241";6
"2242";6
"2243";11
"2244";9
"2245";7
"2246";5
"2247";12
"2248";6
"2249";5
"2250";5
"2251";5
"2252";6
"2253";12
"2254";12
"2255";12
"2256";6
"2257";6
"2258";6
"2259";9
"2260";6
"2261";12
"2262";12
"2263";12
"2264";12
"2265";12
"2266";12
"2267";12
"2268";5
"2269";10
"2270";11
"2271";11
"2272";11
"2273";8
"2274";6
"2275";10
"2276";3
"2277";3
"2278";12
"2279";12
"2280";6
"2281";7
"2282";8
"2283";12
"2284";9
"2285";12
"2286";8
"2287";12
"2288";0
"2289";8
"2290";1
"2291";11
"2292";10
"2293";11
"2294";12
"2295";12
"2296";10
"2297";12
"2298";10
"2299";10
"2300";11
"2301";8
"2302";11
"2303";9
"2304";12
"2305";11
"2306";8
"2307";11
"2308";10
"2309";11
"2310";7
"2311";10
"2312";6
"2313";11
"2314";3
"2315";8
"2316";11
"2317";8
"2318";3
"2319";9
"2320";8
"2321";6
"2322";11
"2323";8
"2324";6
"2325";11
"2326";12
"2327";9
"2328";6
"2329";8
"2330";6
"2331";11
"2332";11
"2333";9
"2334";9
"2335";12
"2336";12
"2337";8
"2338";11
"2339";8
"2340";6
"2341";12
"2342";9
"2343";8
"2344";11
"2345";6
"2346";6
"2347";8
"2348";5
"2349";9
"2350";5
"2351";9
"2352";6
"2353";6
"2354";8
"2355";9
"2356";1
"2357";6
"2358";3
"2359";6
"2360";6
"2361";9
"2362";6
"2363";5
"2364";6
"2365";6
"2366";6
"2367";6
"2368";9
"2369";6
"2370";9
"2371";9
"2372";6
"2373";11
"2374";6
"2375";3
"2376";0
"2377";3
"2378";9
"2379";8
"2380";5
"2381";11
"2382";11
"2383";7
"2384";6
"2385";6
"2386";11
"2387";10
"2388";10
"2389";8
"2390";8
"2391";2
"2392";2
"2393";10
"2394";3
"2395";3
"2396";3
"2397";12
"2398";3
"2399";10
"2400";6
"2401";10
"2402";9
"2403";6
"2404";3
"2405";8
"2406";11
"2407";11
"2408";12
"2409";11
"2410";6
"2411";10
"2412";12
"2413";12
"2414";12
"2415";12
"2416";12
"2417";12
"2418";12
"2419";11
"2420";9
"2421";12
"2422";12
"2423";12
"2424";12
"2425";12
"2426";12
"2427";12
"2428";6
"2429";0
"2430";10
"2431";9
"2432";10
"2433";11
"2434";10
"2435";12
"2436";11
"2437";6
"2438";8
"2439";10
"2440";8
"2441";12
"2442";12
"2443";12
"2444";11
"2445";9
"2446";12
"2447";6
"2448";8
"2449";12
"2450";8
"2451";11
"2452";6
"2453";9
"2454";3
"2455";9
"2456";12
"2457";12
"2458";8
"2459";8
"2460";3
"2461";11
"2462";10
"2463";8
"2464";11
"2465";12
"2466";8
"2467";11
"2468";0
"2469";8
"2470";3
"2471";11
"2472";12
"2473";0
"2474";6
"2475";0
"2476";9
"2477";12
"2478";6
"2479";12
"2480";7
"2481";6
"2482";6
"2483";12
"2484";12
"2485";8
"2486";3
"2487";12
"2488";12
"2489";12
"2490";12
"2491";10
"2492";9
"2493";12
"2494";10
"2495";11
"2496";10
"2497";12
"2498";6
"2499";12
"2500";10
"2501";6
"2502";3
"2503";0
"2504";6
"2505";6
"2506";11
"2507";12
"2508";11
"2509";12
"2510";12
"2511";6
"2512";12
"2513";12
"2514";9
"2515";8
"2516";9
"2517";8
"2518";9
"2519";12
"2520";10
"2521";12
"2522";12
"2523";1
"2524";6
"2525";3
"2526";1
"2527";6
"2528";1
"2529";1
"2530";0
"2531";1
"2532";1
"2533";0
"2534";11
"2535";9
"2536";12
"2537";12
"2538";3
"2539";10
"2540";12
"2541";12
"2542";12
"2543";9
"2544";11
"2545";7
"2546";8
"2547";6
"2548";10
"2549";12
"2550";12
"2551";0
"2552";12
"2553";10
"2554";9
"2555";10
"2556";12
"2557";11
"2558";8
"2559";7
"2560";8
"2561";11
"2562";8
"2563";8
"2564";9
"2565";6
"2566";11
"2567";11
"2568";6
"2569";10
"2570";9
"2571";12
"2572";12
"2573";3
"2574";8
"2575";8
"2576";1
"2577";6
"2578";12
"2579";6
"2580";12
"2581";6
"2582";6
"2583";12
"2584";12
"2585";6
"2586";12
"2587";11
"2588";8
"2589";9
"2590";12
"2591";10
"2592";12
"2593";6
"2594";8
"2595";6
"2596";10
"2597";11
"2598";12
"2599";6
"2600";0
"2601";12
"2602";12
"2603";1
"2604";12
"2605";12
"2606";1
"2607";8
"2608";9
"2609";12
"2610";12
"2611";8
"2612";3
"2613";6
"2614";10
"2615";10
"2616";6
"2617";12
"2618";12
"2619";10
"2620";9
"2621";10
"2622";12
"2623";6
"2624";6
"2625";11
"2626";11
"2627";6
"2628";11
"2629";11
"2630";6
"2631";6
"2632";8
"2633";10
"2634";6
"2635";11
"2636";10
"2637";5
"2638";11
"2639";9
"2640";9
"2641";6
"2642";6
"2643";6
"2644";6
"2645";6
"2646";12
"2647";8
"2648";11
"2649";10
"2650";8
"2651";6
"2652";11
"2653";1
"2654";3
"2655";3
"2656";3
"2657";4
"2658";3
"2659";3
"2660";3
"2661";8
"2662";12
"2663";12
"2664";0
"2665";12
"2666";8
"2667";1
"2668";12
"2669";3
"2670";3
"2671";3
"2672";3
"2673";3
"2674";1
"2675";6
"2676";1
"2677";3
"2678";0
"2679";3
"2680";11
"2681";12
"2682";12
"2683";11
"2684";11
"2685";9
"2686";6
"2687";1
"2688";1
"2689";8
"2690";11
"2691";11
"2692";6
"2693";6
"2694";6
"2695";5
"2696";11
"2697";10
"2698";11
"2699";5
"2700";8
"2701";6
"2702";3
"2703";8
"2704";3
"2705";12
"2706";3
"2707";3
"2708";3
"2709";3
"2710";8
"2711";3
"2712";3
"2713";3
"2714";3
"2715";3
"2716";5
"2717";12
"2718";3
"2719";3
"2720";3
"2721";3
"2722";12
"2723";12
"2724";8
"2725";3
"2726";11
"2727";9
"2728";6
"2729";0
"2730";6
"2731";6
"2732";6
"2733";3
"2734";12
"2735";12
"2736";8
"2737";8
"2738";6
"2739";6
"2740";6
"2741";6
"2742";6
"2743";1
"2744";6
"2745";6
"2746";5
"2747";6
"2748";7
"2749";5
"2750";9
"2751";9
"2752";9
"2753";6
"2754";0
"2755";12
"2756";9
"2757";8
"2758";12
"2759";6
"2760";5
"2761";3
"2762";6
"2763";9
"2764";10
"2765";9
"2766";10
"2767";11
"2768";10
"2769";12
"2770";6
"2771";0
"2772";8
"2773";11
"2774";11
"2775";8
"2776";8
"2777";8
"2778";11
"2779";10
"2780";6
"2781";8
"2782";6
"2783";9
"2784";8
"2785";2
"2786";12
"2787";12
"2788";9
"2789";12
"2790";9
"2791";8
"2792";9
"2793";9
"2794";5
"2795";12
"2796";10
"2797";8
"2798";8
"2799";9
"2800";8
"2801";11
"2802";6
"2803";8
"2804";6
"2805";1
"2806";3
"2807";8
"2808";12
"2809";6
"2810";5
"2811";12
"2812";0
"2813";12
"2814";11
"2815";11
"2816";6
"2817";6
"2818";6
"2819";10
"2820";3
"2821";12
"2822";1
"2823";0
"2824";0
"2825";3
"2826";3
"2827";11
"2828";6
"2829";6
"2830";6
"2831";6
"2832";12
"2833";12
"2834";8
"2835";7
"2836";7
"2837";6
"2838";9
"2839";3
"2840";8
"2841";11
"2842";8
"2843";9
"2844";12
"2845";6
"2846";6
"2847";6
"2848";8
"2849";1
"2850";8
"2851";5
"2852";9
"2853";0
"2854";6
"2855";12
"2856";0
"2857";12
"2858";12
"2859";8
"2860";8
"2861";3
"2862";10
"2863";8
"2864";12
"2865";11
"2866";8
"2867";6
"2868";6
"2869";11
"2870";12
"2871";12
"2872";0
"2873";12
"2874";10
"2875";10
"2876";9
"2877";11
"2878";9
"2879";8
"2880";12
"2881";10
"2882";8
"2883";8
"2884";3
"2885";12
"2886";1
"2887";11
"2888";3
"2889";8
"2890";12
"2891";3
"2892";3
"2893";6
"2894";6
"2895";8
"2896";6
"2897";6
"2898";0
"2899";8
"2900";0
"2901";11
"2902";3
"2903";1
"2904";3
"2905";3
"2906";8
"2907";8
"2908";6
"2909";3
"2910";12
"2911";8
"2912";6
"2913";9
"2914";8
"2915";8
"2916";6
"2917";8
"2918";5
"2919";0
"2920";3
"2921";12
"2922";3
"2923";11
"2924";11
"2925";11
"2926";8
"2927";11
"2928";6
"2929";6
"2930";4
"2931";6
"2932";12
"2933";12
"2934";12
"2935";6
"2936";12
"2937";10
"2938";10
"2939";12
"2940";10
"2941";12
"2942";11
"2943";9
"2944";12
"2945";12
"2946";12
"2947";12
"2948";9
"2949";12
"2950";12
"2951";12
"2952";12
"2953";12
"2954";5
"2955";9
"2956";12
"2957";12
"2958";3
"2959";12
"2960";0
"2961";12
"2962";12
"2963";12
"2964";6
"2965";12
"2966";0
"2967";12
"2968";12
"2969";11
"2970";10
"2971";12
"2972";10
