the;62;19;109;12;156;266;16;154;160;99;196;201
to;49;18;109;7;90;189;21;114;125;68;159;255
and;41;12;94;6;75;188;17;111;114;68;173;251
you;47;12;53;6;45;144;22;77;84;76;111;253
of;31;11;54;6;88;171;7;82;117;51;133;125
in;19;24;55;3;47;128;11;79;102;37;115;164
i;20;5;35;2;37;81;7;63;48;19;60;200
that;33;5;39;5;54;113;8;81;85;23;114;133
is;33;11;53;6;57;120;4;68;73;27;124;102
for;28;4;42;2;32;85;4;43;88;34;103;115
not;38;5;71;4;50;97;6;59;40;15;63;101
we;20;4;14;3;22;62;13;44;51;17;65;81
who;18;10;40;4;38;58;3;45;54;22;71;69
with;15;4;38;3;23;57;9;33;73;28;79;83
be;21;5;41;6;25;75;3;34;47;35;69;97
a;19;1;77;6;39;60;5;41;37;11;55;53
are;20;4;24;4;36;90;11;49;47;10;48;70
as;12;0;42;4;48;59;3;41;41;13;49;60
will;21;5;34;3;24;51;4;34;56;28;54;53
have;11;3;23;4;25;64;7;49;38;14;40;76
it;19;3;26;2;29;76;3;28;38;9;47;74
but;14;7;51;5;31;83;6;38;37;14;55;53
all;6;2;22;3;32;55;7;38;41;27;54;72
do;22;2;41;2;19;54;4;36;14;17;38;54
so;18;3;19;2;22;57;4;35;33;10;41;72
he;7;1;29;3;30;38;4;19;35;14;45;42
they;14;2;26;2;26;48;0;29;15;8;24;38
his;4;1;33;1;16;40;3;13;38;14;69;22
this;12;0;17;2;23;55;3;38;25;12;34;61
by;4;1;16;0;22;61;3;20;27;10;68;25
your;9;5;25;1;6;45;2;29;25;13;43;48
what;8;8;16;1;19;52;1;25;10;14;42;43
our;3;1;6;0;4;22;2;22;38;49;35;54
from;13;1;12;5;17;49;1;26;44;6;26;35
us;4;1;2;0;12;30;1;22;30;22;43;30
me;6;1;9;0;9;34;4;22;17;9;15;71
one;7;7;20;3;17;41;2;19;12;11;30;25
my;11;4;3;0;3;30;4;12;9;10;20;86
has;5;3;16;1;16;27;0;23;25;17;33;30
on;17;1;13;1;17;35;1;20;21;4;31;31
was;3;2;13;2;23;27;2;18;24;2;26;36
if;16;5;28;3;14;26;1;23;16;2;22;36
make;5;0;13;1;17;36;2;13;14;7;38;37
then;16;5;13;3;19;30;5;12;18;4;20;40
or;16;4;22;1;10;21;5;9;11;2;12;19
because;6;1;17;1;17;26;1;14;23;8;27;36
him;3;0;8;1;16;12;2;13;36;14;27;30
those;8;3;9;2;14;30;1;23;20;3;23;25
when;7;3;8;1;17;28;7;16;23;3;16;33
them;3;2;17;4;15;39;0;11;10;3;18;26
their;5;2;19;1;14;36;1;13;14;1;12;23
am;2;0;9;0;7;22;2;16;12;3;11;49
were;8;1;9;0;18;26;3;13;14;2;14;20
no;3;2;11;3;12;31;0;8;8;2;13;23
which;9;0;3;1;9;24;1;12;14;8;32;11
how;1;1;7;0;5;13;0;14;5;4;21;33
should;10;1;19;3;7;16;3;8;6;7;10;20
about;5;1;6;1;6;16;1;26;12;2;12;26
now;3;1;8;0;4;20;0;9;14;7;16;34
way;3;1;19;0;5;17;4;8;8;7;17;20
must;7;3;23;2;3;18;1;18;1;2;7;19
there;3;3;8;3;8;18;0;13;7;7;7;22
only;3;2;10;0;11;18;0;7;12;1;15;15
may;1;1;2;3;1;17;1;4;4;28;18;14
at;5;1;2;3;6;22;4;6;12;5;9;20
did;2;0;3;1;11;20;2;8;6;2;11;20
through;1;0;3;0;8;10;1;9;14;10;33;2
come;7;2;6;1;5;13;2;5;8;8;12;20
been;6;0;5;0;6;14;0;10;15;3;11;13
even;3;0;7;2;13;17;1;9;8;2;11;15
an;8;0;13;1;9;12;0;9;10;0;6;18
same;3;1;7;0;7;12;3;10;10;5;10;7
can;1;4;6;0;8;18;0;12;3;3;12;16
also;4;1;4;0;11;7;3;6;15;2;13;13
like;8;1;8;2;8;10;1;7;8;2;3;11
help;0;3;3;0;3;1;5;8;2;5;12;34
want;4;1;9;0;7;11;0;7;3;1;8;24
mean;4;0;7;0;11;12;1;3;8;2;15;5
say;3;1;8;1;5;11;0;9;3;4;9;12
more;1;1;5;1;2;7;0;5;9;3;12;12
would;3;2;6;0;5;10;1;8;7;3;5;10
himself;2;1;5;0;7;6;0;10;8;4;20;3
does;3;0;12;0;13;11;0;5;2;4;8;8
up;1;0;11;2;0;18;0;7;8;1;5;11
another;1;3;9;1;3;10;1;3;3;1;7;9
others;6;3;7;0;2;11;2;10;5;1;3;8
just;2;0;10;2;2;9;0;4;6;0;6;14
much;1;1;5;0;2;4;0;8;4;2;13;10
into;3;0;1;0;3;17;0;6;9;2;14;0
says;2;0;4;1;17;6;0;6;1;1;8;4
any;2;1;10;0;8;9;0;8;0;3;3;7
though;2;0;5;0;8;13;1;7;3;0;4;8
think;2;0;5;0;1;6;1;0;5;2;8;15
these;2;0;3;0;0;11;1;10;3;1;10;11
some;3;1;1;0;2;13;0;5;7;0;5;9
given;2;2;3;0;6;7;1;5;3;4;9;10
take;2;0;11;0;5;11;0;5;4;0;4;4
such;4;0;6;0;3;13;0;4;2;2;9;4
had;2;1;9;0;5;5;0;2;0;2;10;9
always;0;0;4;0;2;6;0;9;4;10;6;8
instead;0;0;6;0;4;10;0;7;0;1;12;6
many;2;0;1;1;6;12;0;7;4;2;2;7
everything;0;0;3;0;2;9;1;10;4;6;3;6
every;1;0;4;0;2;9;1;7;3;4;4;7
anyone;6;1;3;1;6;6;0;5;3;0;3;6
yourselves;2;0;5;0;1;9;1;2;3;5;8;5
other;3;1;6;0;2;3;0;8;3;0;4;14
out;1;0;6;0;0;8;1;6;2;2;10;7
her;0;0;28;0;0;0;0;1;1;1;1;2
over;1;0;7;0;2;8;0;4;5;1;4;4
done;2;0;2;0;2;4;0;5;1;6;8;11
before;1;0;3;0;3;8;0;2;6;2;4;6
very;3;0;2;0;1;6;1;7;1;0;3;14
go;3;0;6;0;0;8;0;4;4;1;1;10
become;0;0;4;0;3;12;1;2;7;0;4;5
than;1;4;6;0;1;4;1;3;5;2;3;4
everyone;0;3;2;0;3;5;1;5;3;4;7;5
able;0;0;4;0;3;9;1;5;1;4;7;4
each;1;0;6;0;2;6;2;3;4;4;6;2
among;0;0;0;3;3;6;0;3;3;2;4;8
well;2;0;8;0;3;7;0;2;0;2;3;8
first;4;2;3;2;4;2;0;4;4;1;3;8
comes;4;0;1;0;1;5;4;4;5;2;6;2
while;4;0;4;1;2;5;0;2;1;0;5;12
use;1;1;2;0;3;11;0;3;1;1;3;6
under;3;0;2;0;4;8;0;2;1;4;3;1
together;3;1;0;0;0;5;0;2;6;5;7;7
shall;2;0;0;0;2;6;1;1;5;1;6;6
greetings;0;2;1;0;0;0;0;1;1;2;1;27
without;5;0;2;0;2;7;0;4;1;2;5;4
why;3;0;4;1;3;2;0;2;1;1;3;13
someone;3;2;2;0;1;5;0;4;5;0;3;8
away;2;0;1;0;5;12;0;0;1;1;3;8
whole;1;3;1;0;3;9;0;3;4;1;5;1
gives;0;1;2;0;1;2;1;5;4;5;8;1
anything;9;0;7;0;1;5;0;0;0;0;5;3
whom;1;0;0;0;3;3;0;4;6;3;8;2
she;1;0;19;0;0;1;0;0;1;2;0;2
its;0;0;3;1;0;13;0;4;5;0;2;2
too;2;0;2;0;2;4;1;6;2;0;3;6
said;2;6;1;0;3;4;0;1;2;0;3;6
get;5;0;7;0;1;5;0;0;3;1;0;8
ever;0;0;1;0;0;3;0;2;2;3;10;3
doing;1;0;2;0;0;4;0;3;1;1;10;6
could;0;0;2;0;3;4;0;3;3;1;2;9
nothing;0;0;4;1;3;4;1;3;3;0;4;5
whether;1;0;6;0;4;1;0;2;5;1;1;3
really;2;0;5;0;0;2;0;2;2;1;1;8
might;0;0;1;0;2;6;0;2;7;1;4;4
however;1;0;3;0;3;7;0;3;3;0;2;5
down;3;0;2;0;2;5;0;7;2;1;3;2
thanks;5;0;0;0;0;0;0;0;0;14;7;1
since;0;0;1;0;1;4;0;5;6;2;1;6
different;0;0;1;5;4;8;0;3;1;2;0;0
after;3;1;3;0;2;6;0;0;1;0;1;6
wants;0;0;4;0;0;5;0;5;3;1;3;1
themselves;1;1;2;0;1;5;0;3;3;3;3;2
came;1;0;0;2;2;6;0;3;2;0;5;3
sure;0;0;3;0;1;4;0;0;2;1;3;8
myself;1;0;1;0;4;4;0;2;2;2;2;6
cannot;2;0;1;0;3;8;0;0;2;0;3;4
already;1;0;3;0;2;1;1;3;1;0;6;4
still;2;1;0;1;1;8;0;2;4;0;1;2
ourselves;1;0;1;0;0;3;0;3;3;0;2;5
two;0;1;4;1;2;2;0;2;1;1;0;4
here;1;0;1;0;0;4;0;3;2;0;0;9
against;1;0;2;0;2;6;0;4;1;0;2;1
according;0;0;0;0;0;8;0;1;2;5;3;0
yourself;0;0;2;0;2;6;0;4;0;0;3;2
whoever;1;0;0;1;5;1;1;4;2;1;3;1
used;2;0;0;0;0;9;0;0;2;0;4;1
nor;2;0;3;0;2;7;0;2;0;1;0;3
last;0;0;1;1;3;3;0;2;0;0;3;4
again;1;0;2;0;0;2;0;1;4;0;2;5
until;2;0;1;0;3;3;0;1;3;0;2;4
try;0;0;2;0;2;2;0;3;1;0;4;4
saying;2;0;0;0;2;3;0;5;0;2;0;2
never;1;0;2;1;1;5;0;1;3;0;1;3
whose;1;0;2;0;3;6;0;2;1;0;0;2
trying;0;0;1;0;2;2;1;3;2;0;4;2
sent;0;0;0;0;0;1;1;3;2;0;3;7
new;2;0;0;0;2;2;0;1;3;0;3;1
going;0;1;3;0;0;4;0;2;1;0;2;5
else;3;1;2;0;1;4;1;3;1;0;0;2
yet;0;0;1;0;2;2;0;4;2;0;3;2
known;0;0;0;0;1;4;0;0;0;1;9;1
example;0;0;1;0;0;1;0;2;2;1;1;8
course;0;0;0;0;1;4;0;2;0;1;1;5
both;0;0;2;0;1;4;0;2;0;0;2;5
seen;0;0;0;1;0;6;0;2;1;1;0;2
once;0;0;2;0;1;4;0;0;3;0;0;1
old;0;0;2;0;2;2;0;0;1;0;1;2
kept;1;0;0;0;2;4;0;0;2;2;2;2
far;0;0;1;0;2;6;0;1;2;0;2;1
towards;0;0;4;0;4;2;0;2;0;1;0;1
name;1;0;2;0;0;0;0;1;2;5;0;3
knows;0;0;1;0;1;2;0;1;2;0;7;0
thank;1;1;0;0;1;1;0;0;1;2;3;3
rather;0;1;1;0;1;1;1;2;3;1;1;1
better;1;0;4;0;1;0;0;1;2;0;0;4
best;0;0;0;0;2;2;0;1;0;1;1;3
something;1;0;2;0;0;0;0;1;0;0;0;5
between;0;0;2;0;4;1;0;0;0;1;0;1
using;0;0;1;0;1;3;0;3;0;0;0;3
unless;0;1;1;0;1;1;0;2;1;0;0;2
look;0;0;2;0;1;4;0;0;2;1;1;0
especially;0;0;3;0;0;2;0;2;1;0;1;2
cause;1;0;0;1;1;2;0;3;1;1;1;0
yes;1;0;1;0;1;2;0;0;1;0;2;1
off;3;0;0;0;2;1;0;0;1;0;1;0
none;1;0;0;0;0;5;1;0;1;0;0;1
itself;1;0;2;0;1;3;0;0;1;0;2;0
indeed;0;1;0;0;1;3;0;1;0;0;0;2
consider;0;0;1;0;2;3;0;1;1;0;0;1
certain;2;0;1;0;0;1;0;1;2;1;0;2
alone;0;0;4;1;1;0;0;2;0;0;1;1
where;0;0;0;0;3;1;0;2;2;1;0;0
went;1;0;0;0;0;0;0;2;0;0;1;4
upon;0;0;1;0;0;0;0;2;1;0;4;1
soon;0;0;0;0;0;0;0;0;0;3;1;4
self;0;0;0;0;1;3;0;0;1;0;1;0
perhaps;1;0;1;0;0;1;1;0;0;0;1;3
later;0;0;0;0;2;1;0;0;2;0;1;2
having;0;0;1;0;1;2;0;1;0;0;0;3
actually;0;0;1;0;0;3;0;1;1;0;1;0
three;0;1;0;0;0;0;0;1;1;0;2;2
placed;0;0;1;0;0;0;0;2;0;0;3;0
ones;0;0;1;1;1;0;0;2;1;0;0;1
most;0;1;1;0;0;2;0;0;2;0;0;2
little;0;0;0;0;1;1;0;0;0;0;0;1
clearly;0;0;0;1;0;3;0;0;0;0;3;1
apart;0;0;0;0;1;2;0;0;3;0;2;0
value;0;1;0;0;3;3;0;0;0;0;0;0
ought;0;0;3;0;1;0;1;1;0;0;1;0
often;2;0;1;0;0;0;0;1;0;0;0;2
least;0;0;0;1;0;0;0;0;1;1;1;2
herself;0;0;4;0;0;0;0;0;1;1;1;0
enough;2;0;0;0;0;1;0;0;0;1;0;2
along;0;0;1;0;0;0;0;0;0;0;0;5
yours;0;0;0;0;0;1;0;0;0;1;1;3
tried;1;0;0;0;0;2;0;1;0;0;1;1
quite;0;0;0;0;1;2;0;0;0;0;1;2
possible;0;0;0;0;1;1;0;0;1;0;2;1
gone;2;0;0;0;0;1;0;0;0;0;0;2
followed;0;1;0;0;0;2;0;1;0;0;1;1
except;0;0;1;0;1;1;0;2;0;0;0;1
everywhere;0;0;0;0;0;2;0;0;3;0;0;1
beyond;0;0;0;0;0;0;0;5;0;0;1;0
became;0;0;0;0;1;0;0;1;2;0;0;2
although;0;0;0;0;0;2;0;0;1;0;0;3
useful;0;0;0;0;0;0;0;1;1;0;2;1
taken;0;0;0;0;0;2;0;1;1;0;0;1
seem;0;0;0;0;0;2;0;0;1;0;1;1
saw;0;0;0;0;1;2;0;0;0;0;0;2
ours;0;0;0;0;0;1;0;0;3;1;0;0
keeps;0;0;0;0;0;0;0;1;2;0;1;1
getting;0;0;0;0;0;1;0;0;0;0;0;4
concerning;1;0;1;0;0;0;0;0;1;0;1;1
asking;1;0;1;0;0;0;0;0;0;0;2;1
within;0;0;0;0;0;0;0;1;2;0;1;0
willing;0;0;1;0;0;1;0;0;0;0;1;1
whenever;1;0;0;0;1;1;0;1;0;0;0;0
whatever;1;0;0;0;0;2;0;0;0;0;1;0
throughout;0;0;0;0;0;1;0;0;1;0;0;2
outside;0;0;1;0;2;0;0;0;0;1;0;0
next;0;0;2;0;0;1;0;0;0;0;0;1
necessary;0;0;1;0;0;0;0;0;0;0;0;3
near;0;0;0;0;1;0;0;0;1;0;1;1
merely;0;0;0;0;0;2;0;2;0;0;0;0
looking;0;0;0;0;1;1;0;1;0;0;0;1
goes;1;0;1;0;0;0;0;0;0;0;0;2
either;0;0;1;0;1;0;0;0;1;0;1;0
certainly;0;0;0;0;0;1;0;1;0;0;1;1
becomes;1;0;1;0;1;1;0;0;0;0;0;0
allows;0;0;0;0;1;0;0;0;0;0;1;2
above;0;0;0;0;1;0;0;3;0;0;0;0
truly;0;0;0;0;1;0;0;1;0;0;1;0
third;0;0;0;0;0;0;0;1;0;0;0;2
sorry;0;0;0;0;0;0;0;0;0;0;0;3
second;0;0;0;1;0;0;0;1;0;0;0;1
nobody;0;0;2;0;0;0;0;1;0;0;0;0
neither;0;0;0;0;1;0;0;1;1;0;0;0
needs;0;0;1;0;0;0;0;0;0;0;1;1
considering;0;0;1;0;0;1;0;0;1;0;0;0
becoming;0;0;0;0;1;0;0;0;0;0;1;1
almost;1;0;0;0;0;0;0;0;0;0;0;2
