"";"";"";"";"*Tx_Erm_14_2";""
"1";"*Tx_Erm_14_2";"-0.580028467522906";"-11.5074061863206";"1.24840019658053";"15"
"2";"*Tx_1Ko_15_33";"-0.343031136308986";"1.36028650061652";"0.984697757429968";"27"
"3";"*Tx_Erm_7_15";"-0.343031136308986";"1.36028650061652";"0.984697757429968";"28"
"4";"*Tx_1Tm_6_10";"-0.343031136308986";"1.36028650061652";"0.984697757429968";"29"
"5";"*K_1Ko_14";"-0.208281499496336";"0.143783339383097";"0.931093349887484";"32"
"6";"*K_2Tm_2";"-0.141881247962594";"0.36452945820063";"0.915232404748972";"33"
"7";"*Tx_1Tm_5_23";"-0.245585794731529";"-5.65172325222265";"0.906981195520033";"40"
"8";"*Tx_1Ko_11_34";"-0.462072326951035";"-5.69556601603842";"0.906981195520033";"42"
"9";"*Tx_1Ko_10_16";"-0.245585794731529";"-5.65172325222265";"0.906981195520033";"44"
"10";"*Tx_1Ko_10_18";"-0.245585794731529";"-5.65172325222265";"0.906981195520033";"45"
"11";"*Tx_1Ko_10_7";"-0.245585794731529";"-5.65172325222265";"0.906981195520033";"46"
"12";"*Tx_Erm_2_22";"-0.245585794731529";"-5.65172325222265";"0.906981195520033";"47"
"13";"*Tx_2Ts_3_8";"-0.462072326951035";"-5.69556601603842";"0.906981195520033";"48"
"14";"*Tx_2Ko_12_10";"-0.462072326951035";"-5.69556601603842";"0.906981195520033";"49"
"15";"*K_Ga_3";"0.0579560651254003";"0.22731577148195";"0.903530689842477";"51"
"16";"*K_Erm_6";"0.0888568780598493";"0.203959681875328";"0.900856159954476";"52"
"17";"*K_1Ko_7";"-0.195230833756213";"0.204729133103354";"0.897891932438375";"53"
"18";"*K_Tt_3";"-0.199574821552123";"0.394305132728849";"0.887892191096971";"54"
"19";"*Tx_Ga_3_4";"-0.127087129124568";"0.782123091245922";"0.887281756809188";"55"
"20";"*Tx_2Tm_2_16";"-0.127087129124568";"0.782123091245922";"0.887281756809188";"56"
"21";"*Tx_Erm_10_19";"-0.127087129124568";"0.782123091245922";"0.887281756809188";"57"
"22";"*Tx_Flp_1_15";"-0.127087129124568";"0.782123091245922";"0.887281756809188";"58"
"23";"*Tx_2Tm_2_24";"-0.343573661344074";"0.738280327430154";"0.887281756809188";"59"
"24";"*Tx_Erm_13_3";"-0.127087129124568";"0.782123091245922";"0.887281756809188";"60"
"25";"*Tx_1Ko_13_5-6";"-0.343573661344074";"0.738280327430154";"0.887281756809188";"61"
"26";"*Tx_1Ko_4_6";"-0.343573661344074";"0.738280327430154";"0.887281756809188";"62"
"27";"*Tx_1Ts_4_3";"-0.127087129124568";"0.782123091245922";"0.887281756809188";"63"
"28";"*Tx_2Tm_3_2-3-4";"-0.343573661344074";"0.738280327430154";"0.887281756809188";"64"
"29";"*Tx_Kol_2_18-19";"-0.343573661344074";"0.738280327430154";"0.887281756809188";"65"
"30";"*Tx_Erm_3_11";"-0.127087129124568";"0.782123091245922";"0.887281756809188";"66"
"31";"*Tx_1Ko_7_35";"-0.343573661344074";"0.738280327430154";"0.887281756809188";"67"
"32";"*Tx_1Ko_6_11";"-0.127087129124568";"0.782123091245922";"0.887281756809188";"68"
"33";"*Tx_2Tm_2_12";"-0.343573661344074";"0.738280327430154";"0.887281756809188";"69"
"34";"*Tx_1Ko_5_2";"-0.127087129124568";"0.782123091245922";"0.887281756809188";"70"
"35";"*Tx_Erm_11_20";"-0.127087129124568";"0.782123091245922";"0.887281756809188";"71"
"36";"*Tx_1Ko_6_20";"-0.127087129124568";"0.782123091245922";"0.887281756809188";"72"
"37";"*Tx_Ef_5_6";"-0.127087129124568";"0.782123091245922";"0.887281756809188";"73"
"38";"*Tx_Erm_1_21";"-0.127087129124568";"0.782123091245922";"0.887281756809188";"74"
"39";"*Tx_1Tm_6_3-4-5";"-0.343573661344074";"0.738280327430154";"0.887281756809188";"75"
"40";"*Tx_1Ko_7_23";"-0.127087129124568";"0.782123091245922";"0.887281756809188";"76"
"41";"*Tx_Erm_11_11";"-0.343573661344074";"0.738280327430154";"0.887281756809188";"77"
"42";"*Tx_Flp_3_12";"-0.127087129124568";"0.782123091245922";"0.887281756809188";"78"
"43";"*K_Erm_2";"0.0554672292713109";"-0.153587330119444";"0.886329893174";"79"
"44";"*K_Erm_4";"0.0733935543298846";"0.200828055888488";"0.88395540725796";"80"
"45";"*L_Tesalonikarrei1";"-0.149509359102414";"0.169661046958783";"0.872688238793616";"81"
"46";"*K_1Tm_6";"-0.0932762464297068";"0.363462461773533";"0.863780036729521";"84"
"47";"*K_Erm_9";"0.0319152919512997";"0.225159279459935";"0.863040273143478";"85"
"48";"*L_Titori";"-0.206752650088487";"0.235102176154234";"0.862269470525853";"86"
"49";"*K_1Ts_5";"-0.212341775462942";"0.142961053957738";"0.861741806988955";"87"
"50";"*L_Galaziarrei";"0.412682056585067";"0.191964359427004";"0.858513747704405";"88"
"51";"*L_Timoteori1";"-0.163348733954007";"0.0102553651146076";"0.856428959416466";"90"
"52";"*L_Filemoni";"-0.214224267047459";"0.142579812533253";"0.854990817619824";"91"
"53";"*K_Flm_1";"-0.214224267047459";"0.142579812533253";"0.854990817619824";"92"
"54";"*Tx_Erm_13_4";"-0.199430148209433";"0.560173445578545";"0.854902873697007";"93"
"55";"*K_2Ko_8";"-0.199791831566159";"0.145502663454304";"0.854007914953054";"95"
"56";"*K_2Ko_7";"-0.194240894842582";"0.146626836885477";"0.853868239310934";"96"
"57";"*K_Erm_8";"0.00933121316288788";"0.187854176800148";"0.853754429528465";"97"
"58";"*K_2Ko_9";"1.31856179846414";"0.0835552795613502";"0.852078321823026";"98"
"59";"*K_Erm_7";"0.0252162818208821";"0.227653349764006";"0.85016942138072";"99"
"60";"*K_1Tm_3";"-0.302041593192199";"-0.564012308351449";"0.849440004138538";"100"
"61";"*K_1Tm_4";"-0.257449236820015";"0.216745416194947";"0.849440004138538";"101"
"62";"*K_Erm_13";"-0.155725499657395";"0.316660776653946";"0.848245001422622";"102"
"63";"*K_Erm_5";"0.0494956903835755";"0.195988270272461";"0.847712164713794";"103"
"64";"*K_2Ko_3";"0.0494956903835755";"0.195988270272461";"0.847712164713794";"104"
"65";"*L_Timoteori2";"-0.145973238279495";"0.249024836294485";"0.842580378158868";"105"
"66";"*K_Flp_1";"-0.194199162147575";"0.194473465592121";"0.840971521688523";"106"
"67";"*K_Ef_2";"0.0455595716159481";"0.195191129112175";"0.840888750937637";"107"
"68";"*K_Tt_1";"-0.208812103741972";"0.143675881628647";"0.840805980186752";"108"
"69";"*Tx_1Ko_6_13";"-0.0191151255323595";"0.493041386560625";"0.838788443133908";"109"
"70";"*Tx_1Ko_12_21";"-0.344116186379163";"0.116274154243792";"0.83798142831277";"110"
"71";"*K_Erm_3";"0.00228939142380131";"0.217522885008339";"0.837567574558341";"111"
"72";"*L_Filipostarrei";"-0.127598945195406";"0.195324814655014";"0.835384496003725";"112"
"73";"*L_Efesoarrei";"-0.0451171296907129";"0.0340300475010367";"0.834825793435245";"113"
"74";"*K_1Ts_3";"-0.210893705013313";"0.143254316591957";"0.834075683505341";"114"
"75";"*K_Ga_5";"-0.030471720743653";"0.308461503187945";"0.833258322340343";"115"
"76";"*K_2Ko_5";"0.0195811877496074";"0.189929997454282";"0.833185897933318";"116"
"77";"*K_1Ko_5";"-0.0264579324478637";"0.346445187356615";"0.833144512557875";"117"
"78";"*K_Flp_4";"-0.156494525122258";"0.154271216217458";"0.831401153617341";"118"
"79";"*K_1Ko_1";"0.00505563978133081";"0.186988289430515";"0.830832104705";"119"
"80";"*K_1Tm_5";"-0.182445063961827";"-0.264409400635405";"0.830604485140064";"120"
"81";"*K_2Ko_4";"0.0166947006533473";"0.189345427270072";"0.830149246010191";"121"
"82";"*K_2Tm_3";"-0.181615655955761";"0.304657770402208";"0.830030263055793";"122"
"83";"*K_2Ko_12";"-0.184018778561907";"-0.104352199622911";"0.829621582473294";"123"
"84";"*Tx_2Ko_7_5";"-0.344116186379163";"0.116274154243792";"0.828473138304752";"124"
"85";"*Tx_1Ko_7_34";"-0.344116186379163";"0.116274154243792";"0.828473138304752";"125"
"86";"*Tx_1Ko_4_7";"-0.344116186379163";"0.116274154243792";"0.828473138304752";"126"
"87";"*Tx_1Tm_6_2";"-0.344116186379163";"0.116274154243792";"0.828473138304752";"127"
"88";"*Tx_1Ko_9_7";"-0.344116186379163";"0.116274154243792";"0.828473138304752";"128"
"89";"*Tx_1Ko_7_28";"-0.344116186379163";"0.116274154243792";"0.828473138304752";"129"
"90";"*Tx_1Ko_13_13";"-0.344116186379163";"0.116274154243792";"0.828473138304752";"130"
"91";"*K_Erm_10";"0.00229843350771944";"0.227889654561445";"0.828054111378392";"131"
"92";"*K_Ef_1";"0.0347352450049728";"0.192998990921386";"0.827562660045007";"132"
"93";"*K_Tt_2";"-0.214224267047459";"0.142579812533253";"0.827376425855513";"133"
"94";"*K_1Ko_13";"-0.199731551006705";"0.214614460475011";"0.827355733167792";"134"
"95";"*K_1Ko_6";"-0.0422484399455928";"0.290480341354201";"0.826460774423838";"135"
"96";"*K_Kol_3";"0.00230566717485395";"0.23618307020393";"0.823325832234034";"137"
"97";"*K_Erm_1";"-0.00884123003475493";"0.264418585079351";"0.822239466128657";"138"
"98";"*K_2Tm_1";"-0.161811738194316";"0.153194376404439";"0.822136002690049";"139"
"99";"*K_1Ko_2";"0.0124498666882589";"0.188485765234469";"0.819595975272238";"140"
"100";"*Tx_Tt_1_7";"-0.344116186379163";"0.116274154243792";"0.818975194640594";"141"
"101";"*Tx_Ef_5_28";"-0.344116186379163";"0.116274154243792";"0.818975194640594";"142"
"102";"*Tx_2Ko_1_6";"-0.344116186379163";"0.116274154243792";"0.818975194640594";"143"
"103";"*Tx_1Ko_7_16";"-0.344116186379163";"0.116274154243792";"0.818975194640594";"144"
"104";"*Tx_2Ko_7_9";"-0.344116186379163";"0.116274154243792";"0.818975194640594";"145"
"105";"*Tx_2Ko_7_4";"-0.344116186379163";"0.116274154243792";"0.818975194640594";"146"
"106";"*Tx_1Ko_16_15";"-0.344116186379163";"0.116274154243792";"0.818975194640594";"147"
"107";"*Tx_1Ko_16_12";"-0.344116186379163";"0.116274154243792";"0.818975194640594";"148"
"108";"*Tx_1Ko_16_19";"-0.344116186379163";"0.116274154243792";"0.818975194640594";"149"
"109";"*Tx_Flp_4_21";"-0.344116186379163";"0.116274154243792";"0.818975194640594";"150"
"110";"*Tx_Ef_4_4-1-2";"-0.344116186379163";"0.116274154243792";"0.818975194640594";"151"
"111";"*Tx_Erm_16_16-1-2";"-0.344116186379163";"0.116274154243792";"0.818975194640594";"152"
"112";"*Tx_Kol_1_24";"-0.344116186379163";"0.116274154243792";"0.818975194640594";"153"
"113";"*Tx_Flp_1_27-28";"-0.344116186379163";"0.116274154243792";"0.818975194640594";"154"
"114";"*Tx_Erm_5_7";"-0.344116186379163";"0.116274154243792";"0.818975194640594";"155"
"115";"*Tx_1Tm_2_12";"-0.344116186379163";"0.116274154243792";"0.818975194640594";"156"
"116";"*Tx_Flm_1_7";"-0.344116186379163";"0.116274154243792";"0.818975194640594";"157"
"117";"*Tx_1Ts_5_5";"-0.344116186379163";"0.116274154243792";"0.818975194640594";"158"
"118";"*Tx_1Ko_10_29";"-0.344116186379163";"0.116274154243792";"0.818975194640594";"159"
"119";"*Tx_1Ko_10_23";"-0.344116186379163";"0.116274154243792";"0.818975194640594";"160"
"120";"*Tx_Ef_2_19";"-0.344116186379163";"0.116274154243792";"0.818975194640594";"161"
"121";"*Tx_Erm_3_8";"-0.344116186379163";"0.116274154243792";"0.818975194640594";"162"
"122";"*Tx_Erm_16_23";"-0.344116186379163";"0.116274154243792";"0.818975194640594";"163"
"123";"*Tx_1Ko_5_12";"-0.344116186379163";"0.116274154243792";"0.818975194640594";"164"
"124";"*Tx_2Ko_4_8";"-0.344116186379163";"0.116274154243792";"0.818975194640594";"165"
"125";"*Tx_1Ts_3_3-1-2";"-0.344116186379163";"0.116274154243792";"0.818975194640594";"166"
"126";"*Tx_Flp_4_10";"-0.344116186379163";"0.116274154243792";"0.818975194640594";"167"
"127";"*Tx_1Tm_4_4-1-2";"-0.344116186379163";"0.116274154243792";"0.818975194640594";"168"
"128";"*Tx_1Ko_1_12";"-0.344116186379163";"0.116274154243792";"0.818975194640594";"169"
"129";"*Tx_2Ko_9_7";"-0.344116186379163";"0.116274154243792";"0.818975194640594";"170"
"130";"*Tx_1Ko_7_30-31";"-0.344116186379163";"0.116274154243792";"0.818975194640594";"171"
"131";"*Tx_1Ko_14_22";"-0.344116186379163";"0.116274154243792";"0.818975194640594";"172"
"132";"*Tx_2Tm_1_3-4-5";"-0.344116186379163";"0.116274154243792";"0.818975194640594";"173"
"133";"*Tx_Kol_1_7-8";"-0.344116186379163";"0.116274154243792";"0.818975194640594";"174"
"134";"*Tx_1Tm_4_16";"-0.344116186379163";"0.116274154243792";"0.818975194640594";"175"
"135";"*Tx_1Ko_9_18";"-0.344116186379163";"0.116274154243792";"0.818975194640594";"176"
"136";"*Tx_1Ko_9_17";"-0.344116186379163";"0.116274154243792";"0.818975194640594";"177"
"137";"*Tx_2Ko_8_23";"-0.344116186379163";"0.116274154243792";"0.818975194640594";"178"
"138";"*Tx_2Ko_11_23";"-0.344116186379163";"0.116274154243792";"0.818975194640594";"179"
"139";"*Tx_1Ko_7_10-11";"-0.344116186379163";"0.116274154243792";"0.818975194640594";"180"
"140";"*Tx_2Ko_7_13";"-0.344116186379163";"0.116274154243792";"0.818975194640594";"181"
"141";"*Tx_Erm_3_13";"-0.344116186379163";"0.116274154243792";"0.818975194640594";"182"
"142";"*Tx_Erm_10_14";"-0.344116186379163";"0.116274154243792";"0.818975194640594";"183"
"143";"*Tx_Ef_6_18";"-0.344116186379163";"0.116274154243792";"0.818975194640594";"184"
"144";"*Tx_Erm_15_23-24";"-0.344116186379163";"0.116274154243792";"0.818975194640594";"185"
"145";"*Tx_Erm_15_30-31-32";"-0.344116186379163";"0.116274154243792";"0.818975194640594";"186"
"146";"*K_1Ko_9";"0.517423115666771";"-0.0931083709487189";"0.817976772458033";"187"
"147";"*K_Flp_3";"-0.0192959672107223";"0.285705995498504";"0.814878042471742";"188"
"148";"*K_Erm_12";"-0.151327103967823";"-0.600131050856711";"0.814815964408577";"189"
"149";"*Tx_2Ko_6_16";"0.0888568780598493";"0.203959681875328";"0.814262435012028";"190"
"150";"*Tx_Erm_1_1-1-2";"0.0888568780598493";"0.203959681875328";"0.814262435012028";"191"
"151";"*Tx_Erm_11_6";"0.0888568780598493";"0.203959681875328";"0.814262435012028";"192"
"152";"*Tx_Erm_4_10";"0.0888568780598493";"0.203959681875328";"0.810692946380073";"193"
"153";"*Tx_1Tm_6_13-14-15";"0.0888568780598493";"0.203959681875328";"0.810692946380073";"194"
"154";"*Tx_2Tm_2_19";"0.0888568780598493";"0.203959681875328";"0.810692946380073";"195"
"155";"*Tx_Ga_2_20";"0.0888568780598493";"0.203959681875328";"0.810692946380073";"196"
"156";"*Tx_2Ko_2_16";"0.0888568780598493";"0.203959681875328";"0.810692946380073";"197"
"157";"*Tx_1Tm_1_8-9-10";"0.0888568780598493";"0.203959681875328";"0.810692946380073";"198"
"158";"*Tx_2Ko_6_9";"0.0888568780598493";"0.203959681875328";"0.810692946380073";"199"
"159";"*Tx_2Ko_4_6";"0.0888568780598493";"0.203959681875328";"0.810692946380073";"200"
"160";"*Tx_Ga_3_16";"0.0888568780598493";"0.203959681875328";"0.810692946380073";"201"
"161";"*Tx_Erm_8_30";"0.0888568780598493";"0.203959681875328";"0.810692946380073";"202"
"162";"*Tx_1Ko_15_45";"0.0888568780598493";"0.203959681875328";"0.810692946380073";"203"
"163";"*Tx_Flp_3_8-9-10";"0.0888568780598493";"0.203959681875328";"0.810692946380073";"204"
"164";"*Tx_Erm_3_27";"0.0888568780598493";"0.203959681875328";"0.810692946380073";"205"
"165";"*Tx_Erm_2_29";"0.0888568780598493";"0.203959681875328";"0.810692946380073";"206"
"166";"*Tx_Erm_10_6";"0.0888568780598493";"0.203959681875328";"0.810692946380073";"207"
"167";"*Tx_Erm_14_4";"0.0888568780598493";"0.203959681875328";"0.810692946380073";"208"
"168";"*Tx_Erm_14_8";"0.0888568780598493";"0.203959681875328";"0.810692946380073";"209"
"169";"*K_1Ko_4";"-0.161994913843451";"-0.130852666411754";"0.809834199839632";"210"
"170";"*Tx_Ga_1_9";"-0.344116186379163";"0.116274154243792";"0.809482424148367";"211"
"171";"*Tx_Erm_13_11";"-0.344116186379163";"0.116274154243792";"0.809482424148367";"212"
"172";"*Tx_Ef_4_28";"-0.344116186379163";"0.116274154243792";"0.809482424148367";"213"
"173";"*Tx_Tt_2_15";"-0.344116186379163";"0.116274154243792";"0.809482424148367";"214"
"174";"*Tx_Kol_4_18";"-0.344116186379163";"0.116274154243792";"0.809482424148367";"215"
"175";"*Tx_1Tm_4_12";"-0.344116186379163";"0.116274154243792";"0.809482424148367";"216"
"176";"*Tx_Flp_1_23";"-0.344116186379163";"0.116274154243792";"0.809482424148367";"217"
"177";"*Tx_2Ko_13_12";"-0.344116186379163";"0.116274154243792";"0.809482424148367";"218"
"178";"*Tx_1Ko_7_32";"-0.344116186379163";"0.116274154243792";"0.809482424148367";"219"
"179";"*Tx_1Ts_5_15";"-0.344116186379163";"0.116274154243792";"0.809482424148367";"220"
"180";"*Tx_Erm_12_9";"-0.344116186379163";"0.116274154243792";"0.809482424148367";"221"
"181";"*Tx_1Ko_11_5";"-0.344116186379163";"0.116274154243792";"0.809482424148367";"222"
"182";"*Tx_1Ko_16_20";"-0.344116186379163";"0.116274154243792";"0.809482424148367";"223"
"183";"*Tx_Ga_6_9";"-0.344116186379163";"0.116274154243792";"0.809482424148367";"224"
"184";"*Tx_1Tm_5_18";"-0.344116186379163";"0.116274154243792";"0.809482424148367";"225"
"185";"*Tx_Erm_11_16";"-0.344116186379163";"0.116274154243792";"0.809482424148367";"226"
"186";"*Tx_Ga_4_15";"-0.344116186379163";"0.116274154243792";"0.809482424148367";"227"
"187";"*Tx_Ga_4_12";"-0.344116186379163";"0.116274154243792";"0.809482424148367";"228"
"188";"*Tx_Erm_16_16";"-0.344116186379163";"0.116274154243792";"0.809482424148367";"229"
"189";"*K_Ef_5";"-0.0925674931705202";"-0.406788467436474";"0.809327228990456";"230"
"190";"*K_2Ko_10";"-0.0292266849689722";"0.180045447066727";"0.808654716639508";"231"
"191";"*K_1Tm_1";"-0.0250262941572498";"0.246358877044541";"0.808561599544761";"232"
"192";"*Tx_Ga_3_3";"0.0888568780598493";"0.203959681875328";"0.807123457748118";"233"
"193";"*Tx_1Ko_15_29";"0.0888568780598493";"0.203959681875328";"0.807123457748118";"234"
"194";"*Tx_Ga_3_8";"0.0888568780598493";"0.203959681875328";"0.807123457748118";"235"
"195";"*Tx_2Ko_4_16";"0.0888568780598493";"0.203959681875328";"0.807123457748118";"236"
"196";"*Tx_Erm_3_10";"0.0888568780598493";"0.203959681875328";"0.807123457748118";"237"
"197";"*Tx_Erm_4_16";"0.0888568780598493";"0.203959681875328";"0.807123457748118";"238"
"198";"*Tx_Erm_4_17";"0.0888568780598493";"0.203959681875328";"0.807123457748118";"239"
"199";"*Tx_2Ko_3_6";"0.0888568780598493";"0.203959681875328";"0.807123457748118";"240"
"200";"*Tx_2Ko_3_5";"0.0888568780598493";"0.203959681875328";"0.807123457748118";"241"
"201";"*Tx_1Ts_4_15";"0.0888568780598493";"0.203959681875328";"0.807123457748118";"242"
"202";"*Tx_Erm_4_11-12";"0.0888568780598493";"0.203959681875328";"0.807123457748118";"243"
"203";"*Tx_2Tm_4_18";"0.0888568780598493";"0.203959681875328";"0.807123457748118";"244"
"204";"*Tx_2Tm_4_17";"0.0888568780598493";"0.203959681875328";"0.807123457748118";"245"
"205";"*Tx_Erm_10_20";"0.0888568780598493";"0.203959681875328";"0.807123457748118";"246"
"206";"*Tx_2Ko_7_3";"0.0888568780598493";"0.203959681875328";"0.807123457748118";"247"
"207";"*Tx_1Ko_14_15";"0.0888568780598493";"0.203959681875328";"0.807123457748118";"248"
"208";"*Tx_1Ko_11_24";"0.0888568780598493";"0.203959681875328";"0.807123457748118";"249"
"209";"*Tx_Tt_2_12-13-14";"0.0888568780598493";"0.203959681875328";"0.807123457748118";"250"
"210";"*Tx_2Ts_2_4";"0.0888568780598493";"0.203959681875328";"0.807123457748118";"251"
"211";"*Tx_Erm_11_33";"0.0888568780598493";"0.203959681875328";"0.807123457748118";"252"
"212";"*Tx_2Ko_2_17";"0.0888568780598493";"0.203959681875328";"0.807123457748118";"253"
"213";"*Tx_Erm_3_25-26";"0.0888568780598493";"0.203959681875328";"0.807123457748118";"254"
"214";"*Tx_Ga_1_3-4-5";"0.0888568780598493";"0.203959681875328";"0.807123457748118";"255"
"215";"*Tx_Erm_11_36";"0.0888568780598493";"0.203959681875328";"0.807123457748118";"256"
"216";"*Tx_Ga_5_11";"0.0888568780598493";"0.203959681875328";"0.807123457748118";"257"
"217";"*Tx_Erm_7_9";"0.0888568780598493";"0.203959681875328";"0.807123457748118";"258"
"218";"*Tx_Erm_7_8";"0.0888568780598493";"0.203959681875328";"0.807123457748118";"259"
"219";"*Tx_Erm_9_15";"0.0888568780598493";"0.203959681875328";"0.807123457748118";"260"
"220";"*Tx_1Ko_12_9";"0.0888568780598493";"0.203959681875328";"0.807123457748118";"261"
"221";"*Tx_Erm_7_3";"0.0888568780598493";"0.203959681875328";"0.807123457748118";"262"
"222";"*Tx_Erm_7_7";"0.0888568780598493";"0.203959681875328";"0.807123457748118";"263"
"223";"*L_Tesalonikarrei2";"-0.0961905205903324";"-0.299644006630104";"0.80449031323556";"264"
"224";"*K_Kol_2";"-0.0602307860300264";"-0.37002880022893";"0.804055766793409";"265"
"225";"*K_2Ts_2";"-0.0463793889479559";"0.254308726138768";"0.803905744807429";"266"
"226";"*Tx_Ga_5_4";"0.0888568780598493";"0.203959681875328";"0.803559142288094";"267"
"227";"*Tx_2Tm_4_14";"0.0888568780598493";"0.203959681875328";"0.803559142288094";"268"
"228";"*Tx_2Ko_7_2";"0.0888568780598493";"0.203959681875328";"0.803559142288094";"269"
"229";"*Tx_1Ko_16_11";"0.0888568780598493";"0.203959681875328";"0.803559142288094";"270"
"230";"*Tx_2Tm_4_22";"0.0888568780598493";"0.203959681875328";"0.803559142288094";"271"
"231";"*Tx_1Ko_12_17";"0.0888568780598493";"0.203959681875328";"0.803559142288094";"272"
"232";"*Tx_Ef_5_14";"0.0888568780598493";"0.203959681875328";"0.803559142288094";"273"
"233";"*Tx_1Ko_7_40";"0.0888568780598493";"0.203959681875328";"0.803559142288094";"274"
"234";"*Tx_1Ko_6_9";"0.0888568780598493";"0.203959681875328";"0.803559142288094";"275"
"235";"*Tx_Erm_13_6";"0.0888568780598493";"0.203959681875328";"0.803559142288094";"276"
"236";"*Tx_Erm_9_29";"0.0888568780598493";"0.203959681875328";"0.803559142288094";"277"
"237";"*Tx_1Ko_9_9";"0.0888568780598493";"0.203959681875328";"0.803559142288094";"278"
"238";"*Tx_Ga_5_17";"0.0888568780598493";"0.203959681875328";"0.803559142288094";"279"
"239";"*Tx_Erm_15_27";"0.0888568780598493";"0.203959681875328";"0.803559142288094";"280"
"240";"*Tx_Ga_2_6";"0.0888568780598493";"0.203959681875328";"0.803559142288094";"281"
"241";"*Tx_Ef_4_8";"0.0888568780598493";"0.203959681875328";"0.803559142288094";"282"
"242";"*Tx_Ga_4_13";"0.0888568780598493";"0.203959681875328";"0.803559142288094";"283"
"243";"*Tx_Flp_3_15";"0.0888568780598493";"0.203959681875328";"0.803559142288094";"284"
"244";"*K_Ef_4";"-0.0554272897135185";"0.220805704011954";"0.80322805928455";"285"
"245";"*K_1Ts_4";"-0.0933904622265675";"0.232513793734298";"0.802405524947622";"286"
"246";"*K_2Ko_11";"-0.111851681714545";"-0.0949905054136554";"0.802027883396705";"287"
"247";"*K_2Ko_6";"-0.0896651215820392";"-0.245619644714362";"0.801148444168542";"288"
"248";"*Tx_1Ko_15_27";"-0.127629654159657";"0.16011691805956";"0.80097772949484";"289"
"249";"*Tx_Flp_1_9-10-11";"-0.127629654159657";"0.16011691805956";"0.80097772949484";"290"
"250";"*Tx_Ga_3_2";"-0.127629654159657";"0.16011691805956";"0.80097772949484";"291"
"251";"*Tx_1Tm_2_2-1-2";"-0.127629654159657";"0.16011691805956";"0.80097772949484";"292"
"252";"*Tx_2Ko_4_13";"-0.127629654159657";"0.16011691805956";"0.80097772949484";"293"
"253";"*Tx_2Ko_6_15";"-0.127629654159657";"0.16011691805956";"0.80097772949484";"294"
"254";"*Tx_2Tm_4_4-1-2";"-0.127629654159657";"0.16011691805956";"0.80097772949484";"295"
"255";"*Tx_Ef_5_25-26-27";"-0.127629654159657";"0.16011691805956";"0.80097772949484";"296"
"256";"*K_Ga_4";"-0.0734741132900872";"0.20995299483765";"0.800739763586043";"297"
"257";"*K_1Ko_3";"-0.084296179380083";"0.210352549035138";"0.800217273221075";"298"
