"";"Valeurs propres";"Pourcentages";"Pourcentage cumules"
"facteur 1";0,445560296399164;26,948995713096;26,948995713096
"facteur 2";0,429845550248577;25,998514644502;52,947510357598
"facteur 3";0,407740242847212;24,6615107884349;77,609021146033
"facteur 4";0,370200480977211;22,390978853967;100
