"";"classe 1";"classe 2";"classe 3";"classe 4";"classe 5"
"dieu";-2,96;-5,999;-8,736;-73,642;106,199
"christ";-1,936;-5,298;-5,416;-45,399;67,465
"seigneur";-1,305;0,033;-3,852;-6,087;9,946
"jésus";-0,979;-4,801;-3,803;-24,657;39,383
"homme";0,083;-4,018;-0,043;-21,471;26,436
"chose";-0,743;-0,588;0;-0,871;1,601
"esprit";0,206;-3,386;-2,214;-22,303;31,13
"foi";-0,642;-3,152;-0,711;-0,011;1,057
"frère";-0,637;-0,296;-3,793;93,384;-71,876
"loi";-0,471;-2,312;-1,071;-45,384;55,503
"mort";-0,548;-0,11;-3,265;-51,267;60,306
"corps";17,988;0,006;-0,774;-3,17;1,989
"donner";-0,441;-2,161;-2,622;0,25;0,344
"chair";1,177;-1,839;-0,005;-26,386;27,862
"rendre";-0,4;-1,962;-2,381;-0,211;2,158
"oeuvre";-0,395;-1,937;-0,704;-0,02;0,853
"femme";-0,35;0,091;-0,501;29,211;-25,314
"parole";-0,37;-1,814;-0,589;0,081;0,22
"saint";-0,36;-1,765;-2,141;3,787;-0,852
"péché";-0,33;-1,617;-0,416;-29,264;35,276
"gloire";-0,35;-0,254;-0,501;-34,41;38,121
"seul";-0,28;-0,077;-0,225;-12,05;13,621
"connaître";-0,33;-1,617;-1,962;-6,642;11,799
"venir";-0,34;-0,225;-2,022;-8,847;12,876
"évangile";-0,32;-1,568;-1,903;-0,006;0,982
"cause";-0,295;-1,446;-1,755;-4,186;8,225
"père";-0,295;-1,446;-1,755;-22,662;30,338
"recevoir";-0,285;-1,398;-1,696;2,897;-0,628
"parler";-0,27;-1,325;-1,608;39,572;-27,858
"justice";-0,26;-1,276;-1,549;-30,164;38,026
"église";-0,285;-1,398;-1,696;60,399;-44,833
"enfant";-0,245;-1,204;-1,461;10,606;-5,6
"coeur";-0,28;-1,373;-0,225;-1,552;3,228
"vie";11,58;-1,349;-1,637;-11,573;13,038
"écrire";-0,27;-1,325;-1,608;-2,668;5,9
"part";-0,226;-1,108;-1,344;-2,975;5,982
"voir";-0,221;-0,001;-1,315;18,378;-13,783
"vivre";-0,221;-1,084;-1,315;-10,181;14,925
"vérité";-0,226;-1,108;0,423;-0,64;0,896
"propre";-0,231;-0,007;-0,076;33,801;-29,938
"monde";-0,221;-0,001;-1,315;-10,181;12,676
"jour";-0,231;-1,132;-0,076;23,995;-18,356
"sujet";-0,226;-0,004;0,423;2,778;-3,071
"effet";-0,231;-1,132;-0,076;0;0,215
"paix";-0,216;-1,06;-1,286;-16,476;22,083
"glorifier";-0,201;-0,988;-1,198;-6,505;10,279
"mettre";-0,211;-1,036;-1,256;-7,387;11,467
"manger";-0,192;846,42;-1,14;-9,267;-29,365
"charité";-0,221;-1,084;-0,054;27,265;-21,36
"sorte";-0,216;-1,06;-1,286;0,001;0,514
"prendre";-0,206;0,001;-1,227;29,336;-23,492
"devenir";-0,196;-0,964;-0,013;-7,807;9,695
"quelqu";-0,187;5,31;-1,111;4,431;-5,45
"puissance";-0,201;-0,988;-1,198;-17,468;22,949
"païen";-0,201;-0,988;-0,019;-10,254;12,412
"appeler";-0,201;-0,988;-1,198;-10,254;14,745
"ressusciter";51,648;0,073;-0,967;-18,828;12,011
"luimême";-0,196;0,006;-1,169;-4,558;6,113
"saluer";-0,196;-0,964;-1,169;76,461;-60,653
"fils";-0,167;-0,821;-0,996;-16,379;21,137
"temps";-0,182;-0,892;-1,082;8,628;-4,698
"grand";-0,187;-0,916;0,863;7,733;-7,093
"espérance";-0,172;-0,844;-1,024;-0,062;0,835
"don";-0,177;-0,868;-1,053;0,105;0,133
"seulement";-0,177;-0,868;-1,053;1,863;-0,419
"mari";-0,148;-0,725;0,03;36,89;-31,962
"aimer";-0,158;-0,773;1,404;7,267;-7,255
"aller";-0,158;-0,773;0,012;40,5;-34,864
"manière";-0,158;0,091;1,404;0,742;-1,604
"amour";-0,153;-0,749;-0,909;-0,234;1,215
"connaissance";-0,158;2,194;-0,938;-0,367;0,268
"sauver";-0,148;-0,725;-0,88;-2,227;4,299
"apôtre";-0,138;-0,678;-0,823;14,564;-9,676
"volonté";-0,148;-0,725;-0,88;7,123;-3,897
"siècle";-0,1;-0,489;-0,594;-11,564;14,578
"sagesse";-0,129;-0,631;-0,765;-9,308;12,582
"membre";-0,105;-0,513;-0,622;-2,851;4,688
"vain";-0,133;-0,654;92,489;-2,39;-1,927
"paul";-0,133;-0,654;-0,794;19,547;-13,761
"juif";-0,119;-0,584;-0,708;-6,009;8,655
"chercher";-0,129;-0,631;2,258;-9,308;7,614
"agir";-0,124;-0,607;-0,737;1,354;-0,317
"égard";-0,133;-0,654;0,076;-1,318;1,743
"nom";-0,124;-0,607;-0,737;-4,568;7,01
"joie";-0,129;-0,631;-0,765;14,702;-9,919
"exhorter";-0,129;-0,631;-0,765;29,751;-22,327
"esclave";-0,109;-0,536;-0,651;-7,201;9,889
"circoncire";-0,119;-0,584;-0,708;-6,009;8,655
"annoncer";-0,124;0,301;-0,737;-0,006;0,057
"rester";-0,124;-0,607;-0,737;5,768;-3,122
"prier";-0,124;-0,607;-0,737;13,247;-8,827
"langue";-0,124;-0,607;-0,737;32,522;-24,778
"juger";-0,124;-0,607;-0,737;-0,237;1,086
"garder";-0,114;-0,56;0,19;10,44;-9,083
"servir";-0,119;-0,584;0,155;-0,121;0,237
"miséricorde";-0,109;-0,536;-0,651;-9,747;12,753
"milieu";-0,119;-0,584;0,155;0,836;-0,549
"marcher";-0,119;-0,584;0,155;-2,592;2,939
"fidèle";-0,124;-0,607;-0,737;32,522;-24,778
"envoyer";-0,124;-0,607;-0,737;23,79;-17,431
"lettre";-0,119;-0,584;-0,708;4,737;-2,431
"apprendre";-0,114;-0,56;-0,679;28,919;-21,94
"travailler";-0,114;0,401;0,19;28,919;-30,461
"quelquesuns";-0,114;0,401;45,373;-2,224;-0,858
"prière";-0,114;-0,56;-0,679;38,891;-30,461
"manifester";-0,109;-0,536;-0,651;-5,04;7,389
"entendre";-0,109;-0,536;-0,651;1,594;-0,481
"spirituel";39,302;0,688;-0,565;-0,249;-0,15
"promesse";-0,109;-0,536;-0,651;-7,201;9,889
"livrer";-0,1;-0,489;0,331;-8,655;8,561
"justifier";-0,105;-0,513;-0,622;-12,12;15,279
"faible";-0,095;70,369;-0,565;-2,069;-0,714
"colère";-0,1;-0,489;10,68;-6,167;2,521
"trouver";-0,1;-0,489;3,693;1,406;-2,356
"serviteur";-0,1;-0,489;0,331;-0,421;0,484
"intelligence";-0,105;-0,513;3,394;-1,539;0,735
"vivant";-0,1;-0,489;0,331;-1,226;1,303
"soumettre";-0,081;-0,395;-0,48;4,146;-2,315
"pensée";-0,1;-0,489;10,68;-6,167;2,521
"moimême";-0,1;-0,489;0,331;2,705;-2,356
"marier";-0,09;-0,442;-0,537;29,62;-23,115
"conscience";-0,1;13,896;-0,594;2,705;-5,891
"besoin";-0,1;-0,489;-0,594;28,236;-21,692
"autorité";-0,095;-0,466;0,394;5,385;-4,909
"éternel";8,883;-0,466;-0,565;-11,009;10,682
"terre";-0,09;-0,442;-0,537;-5,15;7,25
"regarder";-0,09;-0,442;-0,537;-5,15;7,25
"présent";-0,09;-0,442;-0,537;-7,569;9,995
"mystère";-0,09;-0,442;-0,537;-0,117;0,668
"mourir";9,444;0,784;-0,537;-7,569;4,946
"maison";-0,09;0,784;-0,537;29,62;-27,842
"main";-0,095;-0,466;-0,565;10,63;-7,144
"estce";9,444;-0,442;-0,537;9,196;-8,6
"enseigner";-0,081;-0,395;-0,48;16,594;-12,27
"crainte";-0,09;-0,442;-0,537;6,505;-3,98
"concerner";-0,09;0,784;-0,537;0,388;-0,347
"sage";-0,085;-0,419;-0,508;-4,649;6,603
"pur";-0,085;-0,419;-0,508;18,317;-13,617
"ministère";-0,081;-0,395;-0,48;-0,261;0,913
"habiter";-0,081;-0,395;-0,48;-2,338;3,788
"boire";-0,081;654,936;-0,48;-9,345;-20,192
"action";-0,09;-0,442;-0,537;4,279;-2,33
"abraham";-0,085;-0,419;-0,508;-9,899;12,48
"réjouir";-0,066;-0,325;-0,395;25,806;-20,471
"plaire";-0,081;-0,395;-0,48;2,331;-1,053
"contraire";-0,081;-0,395;-0,48;-1,04;2,105
"arriver";-0,081;-0,395;-0,48;6,48;-4,067
"éprouver";-0,081;1,02;-0,48;25,93;-24,89
"timothée";-0,081;-0,395;0,644;21,002;-20,192
"supporter";-0,081;-0,395;-0,48;2,331;-1,053
"prêcher";-0,076;-0,372;0,755;-3,669;3,232
"obtenir";-0,071;-0,349;-0,423;-8,239;10,386
"nouveau";-0,081;-0,395;5,277;0;-0,282
"laisser";-0,076;-0,372;-0,451;5,216;-3,154
"israël";-0,076;-0,372;-0,451;-8,792;11,083
"honneur";-0,076;-0,372;-0,451;1,523;-0,57
"fois";-0,066;9,236;-0,395;2,94;-5,487
"fermer";-0,081;-0,395;-0,48;21,002;-15,986
"détruire";-0,076;-0,372;-0,451;-5,955;7,945
"digne";-0,081;-0,395;0,644;-0,261;0,212
"demeurer";-0,071;-0,349;-0,423;13,202;-9,628
"commettre";-0,076;1,164;-0,451;-8,792;7,945
"vousmêmes";-0,076;-0,372;-0,451;0,503;-0,06
"user";-0,071;-0,349;-0,423;13,202;-9,628
"souffrir";-0,062;-0,302;-0,366;-0,856;1,693
"remplir";-0,076;-0,372;-0,451;0,034;0,071
"premier";-0,076;-0,372;-0,451;-3,669;5,328
"plutôt";-0,076;-0,372;-0,451;-0,116;0,603
"obéir";-0,071;-0,349;-0,423;-0,493;1,241
"lumière";-0,071;-0,349;-0,423;-5,421;7,266
"juge";-0,076;7,661;-0,451;-5,955;3,232
"espérer";-0,076;-0,372;-0,451;3,094;-1,601
"donnée";-0,076;-0,372;-0,451;-5,955;7,945
"consolation";-0,071;-0,349;-0,423;2,148;-0,989
"auprès_de";-0,076;-0,372;-0,451;14,887;-10,939
"attacher";-0,076;-0,372;-0,451;1,523;-0,57
"zèle";-0,071;-0,349;-0,423;4,03;-2,315
"recommander";-0,066;-0,325;-0,395;0,352;-0,026
"postérité";-0,066;-0,325;-0,395;-7,686;9,69
"peuple";-0,062;1,75;-0,366;-0,118;0,029
"patience";-0,071;-0,349;-0,423;0,146;0,004
"oeil";-0,071;-0,349;-0,423;-1,549;2,694
"nombre";-0,071;-0,349;-0,423;-8,239;10,386
"maître";-0,062;-0,302;-0,366;-0,856;1,693
"libre";-0,071;-0,349;-0,423;-1,549;2,694
"imputer";-0,071;-0,349;-0,423;-8,239;10,386
"fruit";-0,071;-0,349;-0,423;-0,026;0,345
"former";-0,071;-0,349;-0,423;-1,549;2,694
"désir";-0,071;-0,349;-0,423;0,146;0,004
"doctrine";-0,066;-0,325;-0,395;8,045;-5,487
"consoler";-0,066;-0,325;-0,395;8,045;-5,487
"compagnon";-0,062;-0,302;-0,366;23,953;-19,001
"bonté";-0,062;-0,302;-0,366;-0,856;1,693
"bienaimés";-0,066;-0,325;-0,395;5,178;-3,229
"agréable";-0,071;-0,349;-0,423;-5,421;7,266
"témoignage";-0,066;-0,325;-0,395;0,001;0,148
"tribulation";-0,066;-0,325;-0,395;15,668;-11,789
"tite";-0,062;-0,302;-0,366;13,915;-10,413
"royaume";-0,066;-0,325;-0,395;-7,686;9,69
"richesse";-0,062;-0,302;-0,366;-7,134;8,994
"prophète";-0,062;-0,302;-0,366;-0,118;0,54
"produire";-0,062;-0,302;-0,366;-2,271;3,486
"porter";-0,057;-0,279;-0,338;2,8;-1,543
"nousmêmes";-0,062;-0,302;-0,366;-2,271;3,486
"nation";-0,057;-0,279;1,43;-1,835;1,24
"moyen";-0,062;-0,302;-0,366;0,057;0,029
"montrer";-0,066;-0,325;-0,395;0,352;-0,026
"ministre";-0,062;-0,302;-0,366;0,673;-0,158
"mauvais";-0,066;-0,325;7,098;-2,725;0,866
"macédoine";-0,057;-0,279;-0,338;22,101;-17,532
"honte";-0,066;-0,325;-0,395;11,542;-8,34
"circoncision";-0,062;-0,302;-0,366;-7,134;8,994
"charger";-0,066;-0,325;-0,395;25,806;-20,471
"atil";-0,066;-0,325;-0,395;-4,891;6,591
"ange";-0,066;-0,325;1,036;-2,725;2,179
"reconnaître";-0,057;-0,279;-0,338;-1,835;2,899
"prédication";-0,062;-0,302;-0,366;-0,856;1,693
"paraître";-0,057;-0,279;-0,338;-1,835;2,899
"offense";-0,052;-0,255;-0,31;-6,032;7,604
"occasion";-0,062;10,211;-0,366;0,057;-0,927
"jugement";-0,062;10,211;1,216;-7,134;1,693
"incirconcis";-0,057;-0,279;-0,338;-6,583;8,298
"idole";-0,043;169,882;-0,253;-4,931;-2,512
"grec";-0,062;-0,302;-0,366;-7,134;8,994
"estil";-0,057;-0,279;-0,338;-1,835;2,899
"espèce";-0,062;-0,302;7,901;-4,364;1,693
"entier";-0,062;-0,302;-0,366;9,912;-7,081
"douceur";-0,062;-0,302;-0,366;1,967;-0,927
"demander";-0,062;-0,302;-0,366;6,587;-4,389
"céleste";-0,057;-0,279;1,43;-3,842;2,899
"conduire";-0,052;-0,255;-0,31;-0,312;0,832
"commandement";-0,062;-0,302;-0,366;-2,271;3,486
"chef";-0,047;-0,232;-0,281;0,949;-0,355
"bienaimé";-0,062;-0,302;-0,366;18,595;-14,387
"baptiser";-0,052;-0,255;-0,31;-3,325;4,59
"accomplir";-0,062;-0,302;-0,366;-7,134;8,994
"établir";-0,057;-0,279;-0,338;1,14;-0,427
"ténèbres";-0,057;-0,279;1,43;-1,835;1,24
"tristesse";-0,047;-0,232;-0,281;5,292;-3,556
"tomber";-0,057;-0,279;1,43;-0,021;-0,004
"semer";2348;-0,255;-0,31;-6,032;-16,064
"savezvous";-0,052;-0,255;1,689;-6,032;4,59
"sauveur";-0,057;-0,279;-0,338;0,214;-0,004
"sang";-0,057;28,277;-0,338;-3,842;0,275
"régner";-0,052;-0,255;-0,31;-1,419;2,333
"retenir";-0,057;-0,279;-0,338;12,18;-9,055
"penser";-0,057;-0,279;-0,338;-0,021;0,275
"passer";-0,057;-0,279;-0,338;8,32;-5,857
"parent";-0,052;-0,255;-0,31;6,775;-4,678
"nuit";-0,052;-0,255;-0,31;14,959;-11,512
"naître";21,946;-0,209;12,952;-4,931;0,206
"lieu";-0,057;-0,279;-0,338;-3,842;5,252
"impudicité";-0,052;-0,255;111,929;-3,325;-2,396
"gens";-0,057;-0,279;-0,338;16,774;-12,946
"fin";-0,057;-0,279;-0,338;-3,842;5,252
"faiblesse";-0,057;2,018;-0,338;-0,021;-0,004
"désirer";-0,052;-0,255;-0,31;20,25;-16,064
"demeure";-0,052;-0,255;-0,31;10,467;-7,717
"créer";-0,052;-0,255;-0,31;-1,419;2,333
"confiance";-0,052;-0,255;-0,31;1,791;-0,87
"bouche";-0,057;-0,279;1,43;-0,561;0,275
"écriture";-0,052;-0,255;-0,31;-6,032;7,604
"utile";-0,047;-0,232;-0,281;0,949;-0,355
"tirer";-0,043;-0,209;-0,253;1,622;-0,819
"sentiment";-0,052;-0,255;-0,31;3,883;-2,396
"révélation";-0,052;-0,255;-0,31;-1,419;2,333
"prophétie";-0,047;-0,232;-0,281;18,402;-14,597
"piété";-0,052;-0,255;9,958;0,005;-0,87
"pierre";-0,047;-0,232;-0,281;-5,481;6,909
"pain";-0,052;93,472;1,689;-3,325;-2,396
"orgueil";-0,052;-0,255;260,749;-3,325;-11,512
"ordre";-0,052;-0,255;-0,31;14,959;-11,512
"liberté";-0,047;-0,232;-0,281;0,097;0,002
"irréprochable";-0,052;-0,255;-0,31;3,883;-2,396
"instruction";-0,052;-0,255;-0,31;3,883;-2,396
"euxmêmes";-0,052;-0,255;9,958;0,005;-0,87
"ennemi";-0,052;2,339;-0,31;-3,325;2,333
"délivrer";-0,043;-0,209;-0,253;-2,316;3,289
"croix";-0,052;-0,255;-0,31;-6,032;7,604
"couper";-0,047;434,871;-0,281;-5,481;-14,597
"condamner";-0,052;-0,255;-0,31;-6,032;7,604
"combattre";-0,052;-0,255;-0,31;10,467;-7,717
"bénir";-0,043;3,21;-0,253;-4,931;3,289
"attrister";-0,043;-0,209;-0,253;16,554;-13,132
"arrivée";-0,047;-0,232;11,302;0,949;-3,556
"édification";-0,047;-0,232;-0,281;13,152;-10,085
"témoin";-0,047;-0,232;-0,281;2,681;-1,54
"temple";-0,047;2,729;-0,281;-5,481;3,935
"séparer";-0,038;-0,185;-0,225;0,759;-0,284
"souffrance";-0,047;-0,232;-0,281;8,783;-6,405
"soin";-0,047;-0,232;-0,281;13,152;-10,085
"service";-0,047;-0,232;-0,281;5,292;-3,556
"satan";-0,047;-0,232;-0,281;-5,481;6,909
"répandre";-0,047;-0,232;-0,281;-1,03;1,792
"revêtir";-0,043;-0,209;-0,253;-0,677;1,286
"périr";-0,047;-0,232;-0,281;-5,481;6,909
"péril";-0,014;-0,069;-0,084;1,293;-0,835
"pourvoir";-0,043;-0,209;-0,253;7,135;-5,128
"porte";-0,038;-0,185;-0,225;14,709;-11,668
"permettre";-0,047;-0,232;-0,281;13,152;-10,085
"parvenir";-0,043;-0,209;-0,253;-2,316;3,289
"obéissance";-0,047;-0,232;-0,281;-2,816;3,935
"manquer";-0,047;-0,232;-0,281;13,152;-10,085
"jérusalem";-0,047;-0,232;-0,281;13,152;-10,085
"insensé";-0,047;-0,232;2,004;-5,481;3,935
"injustice";-0,047;-0,232;-0,281;-2,816;3,935
"ignorer";-0,043;-0,209;-0,253;0,33;-0,051
"glorieux";21,946;-0,209;-0,253;-4,931;3,289
"folie";-0,047;-0,232;-0,281;-5,481;6,909
"droit";-0,047;2,729;-0,281;8,783;-10,085
"dispute";-0,047;-0,232;171,424;-1,03;-10,085
"crucifier";-0,047;-0,232;-0,281;-5,481;6,909
"convoitise";-0,047;-0,232;2,004;-5,481;3,935
"continuellement";-0,047;-0,232;-0,281;2,681;-1,54
"combat";-0,043;-0,209;-0,253;7,135;-5,128
"cieux";-0,047;-0,232;-0,281;-5,481;6,909
"ciel";-0,047;-0,232;-0,281;-5,481;6,909
"avance";-0,047;-0,232;-0,281;-2,816;3,935
"autrement";-0,043;-0,209;-0,253;-4,931;6,216
"affermir";-0,047;-0,232;-0,281;-0,124;0,481
"édifier";-0,043;-0,209;-0,253;7,135;-5,128
"veuf";-0,033;-0,162;-0,197;12,865;-10,205
"vase";-0,038;-0,185;-0,225;-0,373;0,826
"travail";-0,043;-0,209;-0,253;16,554;-13,132
"toimême";-0,043;-0,209;-0,253;11,356;-8,668
"tenter";-0,038;-0,185;-0,225;0,759;-0,284
"tenir";-0,043;-0,209;-0,253;-0,015;0,206
"sentir";-0,043;-0,209;-0,253;-0,677;1,286
"sanctifier";-0,038;-0,185;-0,225;2,599;-1,572
"sainteté";-0,043;-0,209;-0,253;-0,677;1,286
"sain";-0,043;-0,209;-0,253;7,135;-5,128
"résurrection";-0,038;-0,185;-0,225;-4,381;5,523
"rapport";-0,043;-0,209;-0,253;-4,931;6,216
"présenter";-0,043;-0,209;-0,253;3,89;-2,512
"posséder";-0,043;-0,209;2,396;-0,677;0,206
"pied";-0,043;-0,209;-0,253;-2,316;3,289
"peine";-0,043;-0,209;-0,253;16,554;-13,132
"partie";-0,038;-0,185;-0,225;0,759;-0,284
"pardonner";-0,028;-0,139;-0,169;-3,283;4,139
"moïse";-0,043;-0,209;-0,253;-4,931;6,216
"louange";-0,043;-0,209;-0,253;-2,316;3,289
"lien";-0,038;-0,185;-0,225;9,574;-7,263
"jalousie";-0,043;-0,209;191,936;-2,316;-8,668
"instruire";-0,043;-0,209;-0,253;1,622;-0,819
"iniquité";-0,038;-0,185;-0,225;-4,381;5,523
"image";-0,038;-0,185;-0,225;-4,381;5,523
"héritier";-0,043;-0,209;-0,253;-4,931;6,216
"exposer";-0,038;-0,185;-0,225;5,537;-3,898
"détourner";-0,043;-0,209;31,922;-2,316;-0,051
"déclarer";-0,043;-0,209;-0,253;-2,316;3,289
"dernier";-0,043;-0,209;-0,253;1,622;-0,819
"considérer";-0,038;-0,185;-0,225;-1,828;2,655
"assurance";-0,043;-0,209;-0,253;0,33;-0,051
"appartenir";-0,043;-0,209;-0,253;-4,931;6,216
"aliment";-0,038;18,819;-0,225;-0,373;-0,284
"vrai";-0,038;-0,185;2,892;0,759;-1,572
"tête";-0,038;-0,185;-0,225;9,574;-7,263
"table";-0,028;62,146;4,409;-0,915;-4,516
"souvenir";-0,038;-0,185;-0,225;9,574;-7,263
"semblable";-0,038;-0,185;2,892;-4,381;2,655
"révéler";-0,038;-0,185;-0,225;-4,381;5,523
"réconcilier";-0,033;-0,162;-0,197;-1,358;2,038
"rebelle";-0,038;-0,185;-0,225;0,759;-0,284
"raison";-0,038;3,817;-0,225;-4,381;2,655
"querelle";-0,038;-0,185;286,476;-4,381;-11,668
"pécher";-0,033;-0,162;-0,197;4,011;-2,735
"persécuter";-0,038;-0,185;-0,225;-4,381;5,523
"persuader";-0,038;-0,185;-0,225;9,574;-7,263
"parfait";-0,038;-0,185;-0,225;2,599;-1,572
"nouvelle";-0,038;18,819;-0,225;-4,381;0,826
"mépriser";-0,014;13,148;-0,084;-0,005;-0,835
"mère";-0,038;-0,185;-0,225;2,599;-1,572
"monter";-0,038;-0,185;-0,225;0,017;0,035
"miracle";-0,038;-0,185;-0,225;-1,828;2,655
"mesure";-0,038;-0,185;-0,225;-0,373;0,826
"lier";-0,038;-0,185;-0,225;0,017;0,035
"libéralité";-0,033;-0,162;-0,197;-0,139;0,432
"impureté";-0,038;-0,185;15,021;-4,381;0,826
"fondement";-0,038;-0,185;-0,225;-4,381;5,523
"faveur";-0,038;-0,185;2,892;2,599;-3,898
"faux";-0,038;-0,185;2,892;5,537;-7,263
"enseignement";-0,038;-0,185;-0,225;14,709;-11,668
"enflé";-0,038;-0,185;108,174;-0,373;-7,263
"domination";-0,038;-0,185;-0,225;-1,828;2,655
"disparaître";-0,038;-0,185;2,892;0,017;-0,284
"dessein";-0,038;-0,185;-0,225;-4,381;5,523
"delà";-0,038;-0,185;-0,225;0,759;-0,284
"craindre";-0,038;-0,185;286,476;-4,381;-11,668
"courir";-0,028;-0,139;21,254;-0,01;-1,672
"confier";-0,038;-0,185;-0,225;0,759;-0,284
"cacher";-0,038;-0,185;-0,225;-1,828;2,655
"avènement";-0,038;-0,185;-0,225;-4,381;5,523
"attendre";-0,038;-0,185;-0,225;-1,828;2,655
"affliction";-0,033;-0,162;-0,197;-0,139;0,432
"affection";-0,033;-0,162;-0,197;-0,139;0,432
"acte";-0,038;-0,185;-0,225;-0,373;0,826
"accorder";-0,038;-0,185;-0,225;-0,373;0,826
"abondance";-0,038;-0,185;-0,225;-1,828;2,655
"abandonner";-0,038;-0,185;15,021;0,017;-1,572
"étranger";-0,033;-0,162;-0,197;1,466;-0,781
"état";-0,033;-0,162;-0,197;7,81;-5,877
"élu";-0,033;-0,162;-0,197;-3,832;4,83
"éloigner";-0,033;-0,162;-0,197;-0,139;0,432
"âme";-0,033;-0,162;-0,197;1,466;-0,781
"visage";-0,033;-0,162;-0,197;0,175;-0,013
"vin";-0,033;52,454;-0,197;0,175;-5,877
"viande";-0,033;304,02;-0,197;-3,832;-10,205
"usage";-0,033;-0,162;-0,197;-3,832;4,83
"séduire";-0,028;-0,139;50,703;-3,283;-0,213
"scandale";-0,033;4,604;-0,197;-1,358;0,432
"sacrifier";-0,028;260,477;-0,169;-3,283;-8,743
"rédemption";-0,033;-0,162;-0,197;-1,358;2,038
"riche";-0,033;-0,162;-0,197;-3,832;4,83
"rejeter";-0,028;-0,139;-0,169;-0,915;1,446
"rappeler";-0,033;-0,162;3,539;7,81;-10,205
"racheter";-0,033;-0,162;17,689;-3,832;0,432
"pécheur";-0,033;-0,162;-0,197;-3,832;4,83
"prêt";-0,033;-0,162;-0,197;7,81;-5,877
"prêchons";-0,033;-0,162;-0,197;-3,832;4,83
"présence";-0,033;-0,162;-0,197;1,466;-0,781
"prophétiser";-0,033;-0,162;-0,197;12,865;-10,205
"pratiquer";-0,033;-0,162;-0,197;-0,139;0,432
"persévérance";-0,028;-0,139;-0,169;0,569;-0,213
"perdre";-0,033;-0,162;-0,197;-0,139;0,432
"partir";-0,033;-0,162;-0,197;4,011;-2,735
"nature";-0,028;5,661;-0,169;-3,283;1,446
"lire";-0,024;-0,116;-0,14;0,048;0,001
"jeune";-0,028;-0,139;-0,169;11,022;-8,743
"impur";-0,024;7,15;-0,14;-2,735;0,894
"héritage";-0,033;-0,162;-0,197;-3,832;4,83
"gain";-0,033;-0,162;3,539;1,466;-2,735
"famille";-0,033;-0,162;-0,197;7,81;-5,877
"faim";-0,028;26,33;-0,169;2,59;-8,743
"face";-0,028;-0,139;-0,169;-0,01;0,137
"estimer";-0,033;-0,162;-0,197;4,011;-2,735
"ensemble";-0,028;-0,139;-0,169;-0,915;1,446
"empêcher";-0,033;-0,162;-0,197;-0,139;0,432
"empressement";-0,033;-0,162;-0,197;-1,358;2,038
"dépouiller";-0,033;-0,162;-0,197;-3,832;4,83
"docteur";-0,033;-0,162;-0,197;4,011;-2,735
"discours";-0,028;-0,139;92,756;-0,915;-4,516
"diriger";-0,033;-0,162;-0,197;7,81;-5,877
"céphas";-0,033;-0,162;-0,197;12,865;-10,205
"convenir";-0,033;-0,162;-0,197;7,81;-5,877
"charnel";-0,033;-0,162;17,689;-0,139;-0,781
"avantage";-0,033;-0,162;-0,197;-1,358;2,038
"audessus";-0,033;-0,162;-0,197;-3,832;4,83
"assister";-0,028;-0,139;-0,169;2,59;-1,672
"asseoir";-0,033;22,035;-0,197;-3,832;0,432
"ancien";-0,033;-0,162;-0,197;12,865;-10,205
"affaire";28,746;-0,162;-0,197;7,81;-10,205
"adam";-0,028;-0,139;-0,169;-3,283;4,139
"achaïe";-0,033;-0,162;-0,197;7,81;-5,877
"absent";-0,033;-0,162;-0,197;1,466;-0,781
"abord";-0,033;-0,162;-0,197;7,81;-5,877
"abonder";-0,028;-0,139;-0,169;-0,01;0,137
"abondamment";33,849;-0,139;-0,169;-0,915;0,137
"éphèse";-0,028;-0,139;-0,169;11,022;-8,743
"élevé";-0,028;-0,139;-0,169;0,569;-0,213
"égarer";-0,028;-0,139;214,674;-3,283;-8,743
"voile";-0,028;5,661;-0,169;-0,915;0,137
"veiller";-0,028;-0,139;-0,169;6,075;-4,516
"terrestre";-0,024;-0,116;-0,14;-2,735;3,447
"suivre";-0,028;5,661;-0,169;0,569;-1,672
"soeur";-0,028;-0,139;-0,169;11,022;-8,743
"sobre";-0,028;-0,139;-0,169;11,022;-8,743
"servitude";-0,024;-0,116;-0,14;1,338;-0,768
"saisir";-0,024;-0,116;-0,14;0,048;0,001
"récompense";-0,028;-0,139;-0,169;2,59;-1,672
"ruse";-0,028;-0,139;21,254;2,59;-8,743
"revenir";-0,028;-0,139;-0,169;2,59;-1,672
"renverser";-0,028;-0,139;-0,169;-3,283;4,139
"prémices";-0,028;-0,139;-0,169;0,569;-0,213
"promettre";-0,028;-0,139;-0,169;-3,283;4,139
"progrès";-0,024;-0,116;-0,14;9,181;-7,283
"prix";-0,028;-0,139;214,674;-3,283;-8,743
"pratique";-0,028;-0,139;-0,169;-3,283;4,139
"portant";-0,028;-0,139;21,254;-0,915;-0,213
"pleurer";-0,019;-0,093;33,773;-0,186;-1,946
"plaisir";-0,028;-0,139;4,409;-3,283;1,446
"peur";-0,028;-0,139;4,409;-0,915;0,137
"persévérer";-0,028;-0,139;-0,169;11,022;-8,743
"pauvre";-0,028;-0,139;-0,169;0,569;-0,213
"passion";-0,028;-0,139;-0,169;-0,915;1,446
"participer";-0,024;32,352;-0,14;-0,514;-0,768
"ouvrir";-0,028;-0,139;-0,169;11,022;-8,743
"odeur";-0,028;-0,139;-0,169;-3,283;4,139
"nécessaire";-0,028;-0,139;-0,169;6,075;-4,516
"méchant";-0,028;-0,139;4,409;-3,283;1,446
"mortel";-0,028;-0,139;-0,169;-3,283;4,139
"modèle";-0,028;-0,139;-0,169;11,022;-8,743
"mentir";-0,028;-0,139;-0,169;-0,01;0,137
"langage";-0,028;-0,139;-0,169;2,59;-1,672
"justification";-0,028;-0,139;-0,169;-0,915;1,446
"invisible";-0,028;-0,139;-0,169;-3,283;4,139
"inquiéter";-0,028;-0,139;-0,169;6,075;-4,516
"informer";-0,028;-0,139;-0,169;11,022;-8,743
"impudique";-0,024;-0,116;-0,14;-2,735;3,447
"impie";-0,028;-0,139;-0,169;-3,283;4,139
"imitateur";-0,028;-0,139;-0,169;11,022;-8,743
"hériter";-0,024;-0,116;-0,14;-2,735;3,447
"honorer";-0,024;-0,116;-0,14;4,382;-3,196
"haut";-0,028;-0,139;-0,169;-0,915;1,446
"gagner";-0,028;-0,139;-0,169;-3,283;4,139
"fortifier";-0,028;-0,139;-0,169;-3,283;4,139
"exercer";-0,028;-0,139;-0,169;6,075;-4,516
"envie";-0,028;-0,139;214,674;-3,283;-8,743
"dormir";-0,024;-0,116;-0,14;1,338;-0,768
"division";-0,028;-0,139;4,409;2,59;-4,516
"descendre";-0,028;-0,139;-0,169;-3,283;4,139
"cupidité";-0,028;-0,139;-0,169;-0,915;1,446
"conjurer";-0,028;-0,139;4,409;-0,01;-0,213
"conduite";-0,028;-0,139;-0,169;11,022;-8,743
"condamnation";-0,028;-0,139;-0,169;-0,01;0,137
"comprendre";-0,028;-0,139;-0,169;-0,915;1,446
"communion";-0,028;62,146;-0,169;-3,283;-0,213
"commencer";-0,028;-0,139;-0,169;2,59;-1,672
"changer";-0,028;-0,139;-0,169;-0,915;1,446
"capable";-0,028;-0,139;-0,169;0,569;-0,213
"aspirer";-0,028;-0,139;-0,169;11,022;-8,743
"approuver";-0,028;-0,139;-0,169;-3,283;4,139
"apparence";-0,028;-0,139;21,254;-3,283;0,137
"apollos";-0,028;-0,139;-0,169;11,022;-8,743
"alliance";-0,028;5,661;-0,169;-3,283;1,446
"aije";-0,028;-0,139;-0,169;6,075;-4,516
"adversaire";-0,028;-0,139;-0,169;6,075;-4,516
"adultère";-0,024;-0,116;-0,14;-2,735;3,447
"ôter";-0,024;-0,116;-0,14;-2,735;3,447
"éviter";-0,024;-0,116;178,818;-2,735;-7,283
"épreuve";-0,024;-0,116;-0,14;-2,735;3,447
"épargner";-0,014;-0,069;-0,084;1,293;-0,835
"écouter";-0,024;-0,116;5,639;1,338;-3,196
"vocation";-0,024;-0,116;5,639;-0,514;0,001
"vierge";-0,024;-0,116;-0,14;9,181;-7,283
"victoire";-0,019;-0,093;-0,112;-2,187;2,757
"ventre";-0,019;-0,093;-0,112;-2,187;2,757
"transgression";-0,024;-0,116;-0,14;-2,735;3,447
"survenir";-0,024;-0,116;-0,14;4,382;-3,196
"supérieur";-0,024;-0,116;-0,14;1,338;-0,768
"subsister";-0,024;-0,116;-0,14;-2,735;3,447
"sortir";-0,024;-0,116;5,639;-2,735;0,894
"signe";-0,024;-0,116;-0,14;0,048;0,001
"science";-0,024;-0,116;5,639;-0,514;0,001
"sanctification";-0,024;-0,116;-0,14;-2,735;3,447
"salaire";-0,024;-0,116;-0,14;-0,514;0,894
"sacrifice";-0,024;-0,116;-0,14;-0,514;0,894
"résolution";-0,019;-0,093;-0,112;0,379;-0,142
"résister";-0,019;-0,093;-0,112;7,342;-5,824
"réprouvé";-0,024;-0,116;-0,14;-0,514;0,894
"règle";-0,024;-0,116;-0,14;0,048;0,001
"roi";-0,019;-0,093;-0,112;0,379;-0,142
"reposer";-0,024;-0,116;-0,14;-2,735;3,447
"renier";-0,024;-0,116;26,256;0,048;-3,196
"pureté";-0,024;-0,116;5,639;0,048;-0,768
"puissant";-0,024;-0,116;-0,14;-2,735;3,447
"préparer";-0,024;-0,116;-0,14;-2,735;3,447
"précédemment";-0,019;-0,093;7,498;-0,186;-0,142
"près_de";-0,019;-0,093;-0,112;-0,186;0,412
"provoquer";-0,024;-0,116;61,992;-2,735;-0,768
"prochain";-0,024;-0,116;-0,14;9,181;-7,283
"prisonnier";-0,024;-0,116;-0,14;9,181;-7,283
"preuve";-0,024;-0,116;-0,14;0,048;0,001
"premièrement";-0,024;-0,116;-0,14;-0,514;0,894
"piège";-0,024;7,15;-0,14;1,338;-3,196
"peutêtre";-0,019;-0,093;-0,112;7,342;-5,824
"persécution";-0,024;-0,116;-0,14;9,181;-7,283
"perdition";-0,024;-0,116;-0,14;-0,514;0,894
"ouvrier";-0,024;-0,116;-0,14;9,181;-7,283
"oser";-0,019;-0,093;-0,112;-2,187;2,757
"opérer";-0,024;-0,116;-0,14;-2,735;3,447
"offrir";-0,024;-0,116;-0,14;-0,514;0,894
"observer";-0,024;-0,116;-0,14;-0,514;0,894
"noncroyant";-0,024;-0,116;-0,14;9,181;-7,283
"nommer";-0,024;-0,116;-0,14;-2,735;3,447
"nombreux";-0,024;-0,116;-0,14;9,181;-7,283
"mériter";-0,024;-0,116;-0,14;1,338;-0,768
"méchanceté";-0,024;-0,116;112,846;-2,735;-3,196
"motif";-0,024;7,15;-0,14;1,338;-3,196
"moissonner";851,268;-0,093;-0,112;-2,187;-5,824
"modéré";-0,024;-0,116;-0,14;9,181;-7,283
"louer";-0,024;-0,116;-0,14;1,338;-0,768
"jouir";-0,019;-0,093;-0,112;2,764;-1,946
"intérêt";-0,024;-0,116;26,256;-0,514;-0,768
"infidèle";-0,024;-0,116;-0,14;9,181;-7,283
"incrédulité";-0,024;-0,116;-0,14;-2,735;3,447
"incirconcision";-0,024;-0,116;-0,14;-2,735;3,447
"imposer";-0,024;-0,116;-0,14;-0,514;0,894
"immortalité";-0,024;-0,116;-0,14;-2,735;3,447
"humilité";-0,024;-0,116;5,639;-0,514;0,001
"hui";-0,024;-0,116;-0,14;-2,735;3,447
"honnête";-0,019;-0,093;-0,112;7,342;-5,824
"heureux";-0,019;-0,093;-0,112;-2,187;2,757
"haïr";-0,019;-0,093;142,994;-2,187;-5,824
"glorifierai";-0,019;-0,093;-0,112;-2,187;2,757
"fonder";-0,024;-0,116;-0,14;-2,735;3,447
"excellence";-0,024;-0,116;-0,14;1,338;-0,768
"entendement";-0,024;-0,116;5,639;-2,735;0,894
"détresse";-0,024;-0,116;-0,14;9,181;-7,283
"désordre";-0,024;-0,116;-0,14;0,048;0,001
"démon";-0,024;137,263;-0,14;-0,514;-7,283
"disposition";-0,024;-0,116;-0,14;0,048;0,001
"culte";-0,024;-0,116;5,639;-2,735;0,894
"créature";-0,024;-0,116;-0,14;-2,735;3,447
"création";-0,024;-0,116;-0,14;-0,514;0,894
"croyant";-0,024;-0,116;-0,14;4,382;-3,196
"couronne";-0,024;-0,116;-0,14;-0,514;0,894
"coupable";-0,024;7,15;-0,14;-2,735;0,894
"corruptible";40,993;-0,116;-0,14;-2,735;0,894
"contribuer";-0,024;-0,116;-0,14;4,382;-3,196
"conserver";-0,024;-0,116;-0,14;4,382;-3,196
"commun";-0,024;-0,116;-0,14;1,338;-0,768
"chute";-0,024;32,352;5,639;-2,735;-0,768
"choisir";-0,024;-0,116;-0,14;-0,514;0,894
"chaîne";-0,024;-0,116;-0,14;9,181;-7,283
"chanter";-0,019;-0,093;-0,112;-2,187;2,757
"cesser";-0,024;-0,116;-0,14;4,382;-3,196
"cesse";-0,024;-0,116;-0,14;4,382;-3,196
"calomnie";-0,024;-0,116;178,818;-2,735;-7,283
"bâtir";-0,024;-0,116;-0,14;-0,514;0,894
"bientôt";-0,024;-0,116;-0,14;4,382;-3,196
"barnabas";-0,024;-0,116;-0,14;9,181;-7,283
"baptême";-0,024;-0,116;-0,14;-0,514;0,894
"aujourd";-0,024;-0,116;-0,14;-2,735;3,447
"augmenter";-0,024;-0,116;-0,14;0,048;0,001
"assistance";-0,024;-0,116;-0,14;9,181;-7,283
"asservir";-0,024;-0,116;5,639;1,338;-3,196
"arme";-0,024;-0,116;-0,14;1,338;-0,768
"apparaître";-0,024;-0,116;-0,14;4,382;-3,196
"anéantir";-0,024;-0,116;-0,14;-2,735;3,447
"annonce";-0,019;-0,093;-0,112;0,379;-0,142
"affranchi";-0,024;-0,116;-0,14;-2,735;3,447
"adoption";-0,024;-0,116;-0,14;-2,735;3,447
"achoppement";-0,024;-0,116;-0,14;-2,735;3,447
"achever";-0,024;-0,116;-0,14;1,338;-0,768
"accès";-0,024;-0,116;-0,14;-0,514;0,894
"accompagner";-0,024;-0,116;-0,14;9,181;-7,283
"abstenir";-0,024;7,15;5,639;1,338;-7,283
"évêque";-0,019;-0,093;-0,112;7,342;-5,824
"évident";-0,019;-0,093;-0,112;0,379;-0,142
"élection";-0,019;-0,093;-0,112;-2,187;2,757
"véritablement";-0,019;-0,093;-0,112;7,342;-5,824
"voyage";-0,019;-0,093;-0,112;2,764;-1,946
"voleur";-0,019;-0,093;-0,112;0,379;-0,142
"visible";-0,019;-0,093;-0,112;-2,187;2,757
"violent";-0,019;9,393;-0,112;-0,186;-0,142
"ville";-0,019;-0,093;-0,112;7,342;-5,824
"tychique";-0,019;-0,093;-0,112;7,342;-5,824
"trésor";-0,019;-0,093;-0,112;-2,187;2,757
"trouble";-0,014;-0,069;10,613;1,293;-4,366
"trompette";-0,019;-0,093;-0,112;-2,187;2,757
"troisième";-0,019;-0,093;-0,112;0,379;-0,142
"tremblement";-0,019;-0,093;-0,112;2,764;-1,946
"tranquilliser";-0,019;-0,093;-0,112;7,342;-5,824
"tour";-0,014;-0,069;-0,084;1,293;-0,835
"surprendre";-0,014;-0,069;-0,084;1,293;-0,835
"supplication";-0,019;-0,093;-0,112;7,342;-5,824
"source";-0,019;-0,093;7,498;0,379;-1,946
"solide";-0,019;-0,093;-0,112;-0,186;0,412
"secret";-0,019;9,393;-0,112;0,379;-1,946
"sceau";-0,019;-0,093;-0,112;-2,187;2,757
"réunir";-0,019;9,393;-0,112;0,379;-1,946
"résoudre";-0,019;-0,093;-0,112;7,342;-5,824
"réserver";-0,019;-0,093;-0,112;-2,187;2,757
"régler";-0,019;-0,093;-0,112;7,342;-5,824
"réconciliation";-0,019;-0,093;-0,112;-2,187;2,757
"ruine";-0,019;-0,093;7,498;-0,186;-0,142
"rudiment";-0,019;-0,093;-0,112;-2,187;2,757
"rompre";-0,019;-0,093;-0,112;-2,187;2,757
"revêtezvous";-0,019;-0,093;-0,112;0,379;-0,142
"reprendre";51,712;-0,093;-0,112;0,379;-1,946
"repos";-0,019;-0,093;-0,112;2,764;-1,946
"repentance";-0,019;-0,093;-0,112;0,379;-0,142
"renouveler";-0,019;-0,093;-0,112;-0,186;0,412
"renoncer";-0,019;-0,093;7,498;-0,186;-0,142
"remporter";-0,019;-0,093;142,994;-2,187;-5,824
"recherche";-0,019;-0,093;-0,112;-2,187;2,757
"prétexte";-0,014;-0,069;-0,084;-0,005;0,069
"prédicateur";-0,019;-0,093;-0,112;7,342;-5,824
"prédestiner";-0,019;-0,093;-0,112;-2,187;2,757
"précepte";-0,019;-0,093;-0,112;-2,187;2,757
"profondeur";-0,019;-0,093;-0,112;-2,187;2,757
"profession";-0,019;-0,093;7,498;-0,186;-0,142
"profane";-0,019;-0,093;78,938;-2,187;-1,946
"plénitude";-0,019;-0,093;-0,112;-2,187;2,757
"pleinement";-0,019;-0,093;-0,112;7,342;-5,824
"plante";-0,019;-0,093;-0,112;2,764;-1,946
"placer";-0,014;-0,069;-0,084;-1,639;2,067
"passager";-0,019;-0,093;-0,112;-2,187;2,757
"ordonner";-0,019;-0,093;-0,112;2,764;-1,946
"ordonnance";-0,019;-0,093;-0,112;-2,187;2,757
"ontils";-0,019;-0,093;-0,112;-0,186;0,412
"occuper";-0,019;-0,093;-0,112;7,342;-5,824
"objet";-0,019;-0,093;-0,112;-2,187;2,757
"nourriture";-0,019;-0,093;-0,112;-2,187;2,757
"nourrir";-0,019;-0,093;-0,112;2,764;-1,946
"naturel";-0,014;-0,069;-0,084;-1,639;2,067
"médiateur";-0,014;-0,069;-0,084;-1,639;2,067
"mer";-0,014;-0,069;-0,084;-0,005;0,069
"mention";-0,019;-0,093;-0,112;7,342;-5,824
"mensonge";-0,019;-0,093;-0,112;-0,186;0,412
"meilleur";-0,019;-0,093;-0,112;7,342;-5,824
"manifestation";-0,019;-0,093;-0,112;-2,187;2,757
"malédiction";-0,014;-0,069;-0,084;-1,639;2,067
"magistrat";-0,019;-0,093;-0,112;-0,186;0,412
"livre";-0,019;-0,093;-0,112;2,764;-1,946
"limite";-0,014;-0,069;-0,084;-1,639;2,067
"laodicée";-0,019;-0,093;-0,112;7,342;-5,824
"judée";-0,019;-0,093;-0,112;7,342;-5,824
"jourlà";-0,019;-0,093;-0,112;-0,186;0,412
"jacques";-0,019;-0,093;-0,112;7,342;-5,824
"invoquer";-0,019;-0,093;-0,112;-2,187;2,757
"instruit";-0,019;-0,093;-0,112;-0,186;0,412
"inimitié";-0,019;-0,093;7,498;-2,187;0,412
"infâme";-0,019;-0,093;-0,112;-2,187;2,757
"impiété";-0,019;-0,093;-0,112;-2,187;2,757
"ignorance";-0,019;-0,093;-0,112;0,379;-0,142
"humain";-0,019;-0,093;-0,112;7,342;-5,824
"honteux";-0,019;41,396;-0,112;0,379;-5,824
"hardiesse";-0,019;-0,093;-0,112;-2,187;2,757
"gratuitement";-0,019;9,393;-0,112;-0,186;-0,142
"genou";-0,019;-0,093;-0,112;-2,187;2,757
"fou";-0,019;-0,093;33,773;-2,187;-0,142
"fonction";-0,019;-0,093;-0,112;-2,187;2,757
"fille";-0,019;-0,093;-0,112;2,764;-1,946
"feu";-0,014;-0,069;-0,084;-0,005;0,069
"exister";-0,019;-0,093;-0,112;-2,187;2,757
"exemple";-0,019;-0,093;-0,112;-2,187;2,757
"estàdire";-0,019;-0,093;-0,112;-2,187;2,757
"estu";-0,019;-0,093;-0,112;-2,187;2,757
"entièrement";-0,019;-0,093;-0,112;-2,187;2,757
"enrichir";-0,019;-0,093;-0,112;-2,187;2,757
"enlever";-0,019;-0,093;-0,112;-2,187;2,757
"enfantement";-0,019;-0,093;-0,112;7,342;-5,824
"efforcer";-0,019;-0,093;-0,112;-0,186;0,412
"désobéissance";-0,019;-0,093;-0,112;-2,187;2,757
"déshonorer";-0,019;-0,093;-0,112;2,764;-1,946
"dépendre";-0,019;-0,093;-0,112;-0,186;0,412
"défense";-0,019;-0,093;-0,112;7,342;-5,824
"douleur";-0,019;-0,093;-0,112;7,342;-5,824
"diversité";-0,019;-0,093;-0,112;-0,186;0,412
"discussion";-0,019;-0,093;78,938;-2,187;-1,946
"destruction";-0,019;-0,093;-0,112;2,764;-1,946
"destiner";-0,019;-0,093;-0,112;-2,187;2,757
"cupide";-0,019;-0,093;-0,112;-2,187;2,757
"corrompre";-0,019;-0,093;33,773;-2,187;-0,142
"corinthe";-0,019;-0,093;-0,112;7,342;-5,824
"conviction";-0,019;-0,093;-0,112;-2,187;2,757
"convenable";-0,019;-0,093;-0,112;7,342;-5,824
"convaincre";-0,019;-0,093;-0,112;-0,186;0,412
"confus";-0,014;-0,069;-0,084;-0,005;0,069
"conformément";-0,019;-0,093;-0,112;-0,186;0,412
"compte";-0,014;-0,069;-0,084;-0,005;0,069
"combler";-0,019;-0,093;-0,112;-0,186;0,412
"captif";-0,019;-0,093;-0,112;-2,187;2,757
"bénédiction";-0,019;9,393;-0,112;-0,186;-0,142
"but";-0,019;-0,093;7,498;0,379;-1,946
"briller";-0,019;-0,093;-0,112;-2,187;2,757
"bonheur";-0,014;-0,069;-0,084;-0,005;0,069
"beau";-0,019;-0,093;-0,112;-2,187;2,757
"barbare";-0,014;-0,069;-0,084;-0,005;0,069
"avonsnous";-0,019;9,393;-0,112;0,379;-1,946
"avancer";-0,019;-0,093;7,498;-0,186;-0,142
"autel";-0,014;13,148;-0,084;-1,639;0,069
"attester";-0,019;-0,093;-0,112;7,342;-5,824
"assemblée";-0,019;-0,093;-0,112;7,342;-5,824
"assembler";-0,019;-0,093;-0,112;2,764;-1,946
"asie";-0,019;-0,093;-0,112;7,342;-5,824
"argent";-0,014;-0,069;-0,084;1,293;-0,835
"ardent";-0,019;-0,093;-0,112;2,764;-1,946
"approcher";-0,019;-0,093;-0,112;7,342;-5,824
"apparition";-0,019;-0,093;-0,112;-2,187;2,757
"année";-0,019;-0,093;-0,112;7,342;-5,824
"animosité";-0,019;-0,093;142,994;-2,187;-5,824
"animal";51,712;-0,093;-0,112;-2,187;0,412
"anathème";-0,019;-0,093;-0,112;0,379;-0,142
"air";-0,014;-0,069;-0,084;-0,005;0,069
"adresser";-0,019;-0,093;-0,112;2,764;-1,946
"adresse";-0,019;-0,093;-0,112;2,764;-1,946
"accueillir";-0,019;41,396;-0,112;-0,186;-1,946
"acception";-0,019;-0,093;-0,112;-2,187;2,757
"êtesvous";-0,014;-0,069;10,613;-1,639;0,069
"éternellement";-0,014;-0,069;-0,084;-1,639;2,067
"épée";-0,014;-0,069;-0,084;1,293;-0,835
"épaphras";-0,014;-0,069;-0,084;5,504;-4,366
"élève";-0,014;-0,069;-0,084;-1,639;2,067
"égal";-0,014;-0,069;-0,084;1,293;-0,835
"édifice";-0,014;-0,069;-0,084;-1,639;2,067
"éclater";-0,014;-0,069;-0,084;-0,005;0,069
"échapper";-0,014;-0,069;-0,084;-0,005;0,069
"âge";-0,014;-0,069;-0,084;5,504;-4,366
"voilé";-0,014;13,148;-0,084;1,293;-4,366
"voie";-0,014;-0,069;-0,084;1,293;-0,835
"vil";-0,014;-0,069;-0,084;-1,639;2,067
"vif";-0,014;-0,069;-0,084;-0,005;0,069
"vieillard";-0,014;-0,069;-0,084;1,293;-0,835
"vieil";-0,014;-0,069;-0,084;-1,639;2,067
"vertu";-0,014;-0,069;-0,084;-1,639;2,067
"vengeance";-0,014;-0,069;-0,084;1,293;-0,835
"utilité";-0,014;-0,069;-0,084;-0,005;0,069
"tuer";-0,014;-0,069;-0,084;-1,639;2,067
"tribunal";-0,014;-0,069;-0,084;-0,005;0,069
"transformer";-0,014;-0,069;-0,084;-1,639;2,067
"tourner";-0,014;-0,069;-0,084;5,504;-4,366
"tentation";-0,014;-0,069;-0,084;-0,005;0,069
"taire";-0,014;-0,069;-0,084;1,293;-0,835
"suisje";-0,014;-0,069;-0,084;-1,639;2,067
"suffire";-0,014;-0,069;-0,084;-1,639;2,067
"stéphanas";-0,014;-0,069;-0,084;5,504;-4,366
"soumission";-0,014;-0,069;-0,084;5,504;-4,366
"sonde";-0,014;-0,069;-0,084;-1,639;2,067
"situation";-0,014;-0,069;-0,084;5,504;-4,366
"sincère";-0,014;-0,069;-0,084;1,293;-0,835
"simplicité";-0,014;-0,069;10,613;-1,639;0,069
"silvain";-0,014;-0,069;-0,084;1,293;-0,835
"secourir";-0,014;-0,069;-0,084;1,293;-0,835
"satisfaire";-0,014;-0,069;-0,084;-0,005;0,069
"répudier";-0,014;-0,069;-0,084;5,504;-4,366
"répondre";-0,014;-0,069;-0,084;-0,005;0,069
"réellement";-0,014;-0,069;-0,084;-1,639;2,067
"réduire";-0,014;-0,069;-0,084;1,293;-0,835
"rébellion";-0,014;-0,069;-0,084;-1,639;2,067
"rome";-0,014;-0,069;-0,084;-1,639;2,067
"retourner";-0,014;-0,069;-0,084;-0,005;0,069
"reprocher";-0,014;-0,069;-0,084;-0,005;0,069
"repentir";-0,014;-0,069;-0,084;-0,005;0,069
"repas";-0,014;13,148;-0,084;1,293;-4,366
"regard";-0,014;-0,069;-0,084;-0,005;0,069
"recueillir";-0,014;-0,069;-0,084;1,293;-0,835
"rechercher";-0,014;-0,069;-0,084;-0,005;0,069
"ravisseur";-0,014;-0,069;-0,084;-1,639;2,067
"rang";-0,014;-0,069;-0,084;-1,639;2,067
"quitter";-0,014;-0,069;-0,084;-0,005;0,069
"punir";-0,014;-0,069;-0,084;-0,005;0,069
"publier";-0,014;-0,069;-0,084;-1,639;2,067
"prouver";-0,014;-0,069;-0,084;-1,639;2,067
"prononcer";-0,014;-0,069;-0,084;-1,639;2,067
"prodige";-0,014;-0,069;-0,084;-1,639;2,067
"privé";-0,014;-0,069;10,613;-1,639;0,069
"principalement";-0,014;-0,069;-0,084;5,504;-4,366
"prescrire";-0,014;-0,069;-0,084;1,293;-0,835
"premierné";-0,014;-0,069;-0,084;-1,639;2,067
"pousser";-0,014;-0,069;-0,084;-0,005;0,069
"possible";-0,014;-0,069;-0,084;-0,005;0,069
"perte";-0,014;-0,069;-0,084;-1,639;2,067
"perfection";-0,014;-0,069;10,613;-0,005;-0,835
"particulier";-0,014;-0,069;-0,084;-1,639;2,067
"parfaire";-0,014;-0,069;-0,084;-1,639;2,067
"ouvrage";-0,014;-0,069;-0,084;-1,639;2,067
"outrage";-0,014;-0,069;-0,084;1,293;-0,835
"oreille";-0,014;-0,069;-0,084;-0,005;0,069
"opinion";-0,014;-0,069;-0,084;-0,005;0,069
"noncroyants";-0,014;-0,069;-0,084;5,504;-4,366
"mot";-0,014;-0,069;46,319;-1,639;-0,835
"moment";-0,014;-0,069;-0,084;1,293;-0,835
"menteur";-0,014;-0,069;-0,084;-1,639;2,067
"marquer";-0,014;-0,069;-0,084;-1,639;2,067
"marque";-0,014;-0,069;-0,084;5,504;-4,366
"marc";-0,014;-0,069;-0,084;5,504;-4,366
"manifeste";-0,014;-0,069;10,613;-1,639;0,069
"malice";-0,014;-0,069;10,613;-1,639;0,069
"malade";-0,014;-0,069;-0,084;-0,005;0,069
"légitime";-0,014;-0,069;-0,084;1,293;-0,835
"luc";-0,014;-0,069;-0,084;1,293;-0,835
"longanimité";-0,014;-0,069;-0,084;-1,639;2,067
"larme";-0,014;-0,069;-0,084;5,504;-4,366
"joug";-0,014;-0,069;-0,084;1,293;-0,835
"israélite";-0,014;-0,069;-0,084;-1,639;2,067
"isaac";-0,014;-0,069;-0,084;-0,005;0,069
"irrépréhensibles";-0,014;-0,069;-0,084;-1,639;2,067
"irriter";-0,014;-0,069;10,613;-1,639;0,069
"inviter";-0,014;-0,069;-0,084;5,504;-4,366
"inutile";-0,014;-0,069;46,319;-0,005;-4,366
"intérieur";-0,014;-0,069;-0,084;-1,639;2,067
"interprète";-0,014;-0,069;-0,084;5,504;-4,366
"intercéder";-0,014;-0,069;-0,084;-1,639;2,067
"intelligent";-0,014;-0,069;-0,084;-0,005;0,069
"injuste";-0,014;-0,069;-0,084;-0,005;0,069
"inférieur";-0,014;-0,069;-0,084;1,293;-0,835
"incrédule";-0,014;-0,069;-0,084;1,293;-0,835
"incorruptible";-0,014;-0,069;-0,084;-1,639;2,067
"incorruptibilité";-0,014;-0,069;-0,084;-1,639;2,067
"ignorant";-0,014;-0,069;-0,084;-1,639;2,067
"idolâtrie";-0,014;-0,069;10,613;-0,005;-0,835
"idolâtre";-0,014;-0,069;-0,084;-1,639;2,067
"hypocrisie";-0,014;-0,069;-0,084;5,504;-4,366
"honorable";-0,014;-0,069;-0,084;1,293;-0,835
"honnêteté";-0,014;-0,069;-0,084;-0,005;0,069
"hiver";-0,014;-0,069;-0,084;1,293;-0,835
"hauteur";-0,014;-0,069;-0,084;-1,639;2,067
"génération";-0,014;-0,069;-0,084;-1,639;2,067
"gré";-0,014;-0,069;10,613;-0,005;-0,835
"gratuit";-0,014;-0,069;-0,084;-1,639;2,067
"galatie";-0,014;-0,069;-0,084;1,293;-0,835
"fuir";-0,014;-0,069;-0,084;-0,005;0,069
"foutre";-0,014;-0,069;-0,084;-0,005;0,069
"fléchir";-0,014;-0,069;-0,084;-1,639;2,067
"fidélité";-0,014;-0,069;-0,084;-0,005;0,069
"favorable";-0,014;-0,069;-0,084;5,504;-4,366
"fable";-0,014;-0,069;-0,084;-0,005;0,069
"exprimer";-0,014;-0,069;-0,084;-1,639;2,067
"exhortation";-0,014;-0,069;-0,084;5,504;-4,366
"excès";-0,014;-0,069;46,319;-0,005;-4,366
"entrer";-0,014;-0,069;-0,084;-0,005;0,069
"ensevelir";-0,014;-0,069;-0,084;-1,639;2,067
"engager";-0,014;-0,069;-0,084;5,504;-4,366
"endurcissement";-0,014;-0,069;-0,084;-1,639;2,067
"encourager";-0,014;-0,069;-0,084;5,504;-4,366
"emporter";-0,014;-0,069;10,613;-0,005;-0,835
"désormais";-0,014;-0,069;-0,084;1,293;-0,835
"déshonnête";-0,014;-0,069;10,613;-0,005;-0,835
"dépôt";-0,014;-0,069;10,613;-0,005;-0,835
"dépourvu";-0,014;-0,069;-0,084;-1,639;2,067
"démas";-0,014;-0,069;-0,084;1,293;-0,835
"déguiser";-0,014;-0,069;-0,084;-0,005;0,069
"dégager";-0,014;-0,069;-0,084;-0,005;0,069
"droite";-0,014;-0,069;-0,084;-1,639;2,067
"dironsnous";-0,014;-0,069;-0,084;-1,639;2,067
"dignité";-0,014;-0,069;-0,084;-0,005;0,069
"différence";-0,014;-0,069;-0,084;-0,005;0,069
"diacre";-0,014;-0,069;-0,084;5,504;-4,366
"destinée";-0,014;-0,069;-0,084;1,293;-0,835
"david";-0,014;-0,069;-0,084;-1,639;2,067
"couvrir";-0,014;-0,069;-0,084;-0,005;0,069
"courage";-0,014;-0,069;-0,084;-0,005;0,069
"corruption";69,58;-0,069;-0,084;-1,639;0,069
"convertir";-0,014;-0,069;10,613;-1,639;0,069
"contrée";-0,014;-0,069;-0,084;1,293;-0,835
"consister";-0,014;-0,069;-0,084;-1,639;2,067
"considération";-0,014;-0,069;-0,084;1,293;-0,835
"complaire";-0,014;-0,069;-0,084;-0,005;0,069
"comparer";-0,014;-0,069;-0,084;-0,005;0,069
"communiquer";-0,014;-0,069;-0,084;1,293;-0,835
"commencement";-0,014;-0,069;-0,084;-0,005;0,069
"cheveu";-0,014;56,482;-0,084;-1,639;-0,835
"captivité";-0,014;-0,069;-0,084;5,504;-4,366
"cantique";-0,014;-0,069;-0,084;-0,005;0,069
"calamité";-0,014;-0,069;-0,084;5,504;-4,366
"brûler";-0,014;-0,069;-0,084;-0,005;0,069
"bois";-0,014;-0,069;-0,084;-0,005;0,069
"blâmer";-0,014;-0,069;-0,084;1,293;-0,835
"bienveillant";-0,014;-0,069;-0,084;-1,639;2,067
"bienheureux";-0,014;-0,069;-0,084;-1,639;2,067
"bienfaisance";-0,014;-0,069;-0,084;1,293;-0,835
"avezvous";-0,014;13,148;-0,084;-0,005;-0,835
"avertissement";-0,014;-0,069;-0,084;-0,005;0,069
"attirer";-0,014;13,148;-0,084;1,293;-4,366
"atteindre";-0,014;-0,069;10,613;-1,639;0,069
"assujettir";-0,014;-0,069;-0,084;-0,005;0,069
"arrogant";-0,014;-0,069;-0,084;1,293;-0,835
"arracher";-0,014;-0,069;-0,084;-0,005;0,069
"aquilas";-0,014;-0,069;-0,084;5,504;-4,366
"appel";-0,014;-0,069;-0,084;-1,639;2,067
"apostolat";-0,014;-0,069;-0,084;-1,639;2,067
"ami";-0,014;-0,069;-0,084;5,504;-4,366
"amener";-0,014;-0,069;-0,084;-1,639;2,067
"affligé";-0,014;-0,069;-0,084;1,293;-0,835
"adorer";-0,014;-0,069;-0,084;-1,639;2,067
"adonner";-0,014;13,148;-0,084;1,293;-4,366
"accuser";-0,014;-0,069;-0,084;-0,005;0,069
"accomplissement";-0,014;-0,069;-0,084;-1,639;2,067
"accompli";-0,014;-0,069;-0,084;-1,639;2,067
"accabler";-0,014;-0,069;-0,084;-0,005;0,069
"abondant";-0,014;-0,069;-0,084;5,504;-4,366
"être";-0,656;-4,411;-6,309;-10,81;22,824
"de";-2,513;-2,862;-0,472;-3,507;7,732
"la";-1,92;-4,446;-1,444;-31,089;44,238
"et";-2,333;-0,205;0,056;0,642;-0,258
"avoir";-1,219;-0,759;-5,422;2,393;-0,1
"vous";-1,568;-0,028;-0,458;42,114;-34,379
"que";-0,85;0,222;-1,109;4,206;-2,756
"qui";0,27;-0,024;-7,341;-6,841;11,671
"à";-4,413;-1,61;-2,181;2,181;-0,074
"ne";-0,615;12,858;1,598;-0,369;-0,644
"le";0,003;-1,634;-0,323;-1,864;3,592
"les";-1,155;-0,435;0,025;0,025;0,02
"en";-3,659;-1,807;-3,011;3,916;-0,459
"l";-1,32;-6,176;0,275;0,071;0,228
"nous";-0,455;0,004;-6,786;-7,137;12,501
"pour";-0,005;-0,001;-6,98;0,809;0
"je";-2,114;-0,902;-0,009;52,997;-43,03
"pas";-0,596;9,336;0,235;-0,88;-0,004
"il";7,342;1,02;-2,019;-0,819;0,448
"par";-1,865;-6,915;-0,653;-18,163;29,132
"dans";-1,943;-5,326;-0,833;9,22;-3,096
"des";-1,744;0,518;0,011;0,78;-0,86
"mais";-0,32;-3,831;0,201;-0,134;0,771
"d";-1,775;-0,883;1,329;-0,048;0,09
"un";-0,106;1,097;0,188;-0,438;0,052
"ce";1,843;1,413;-0,337;-0,056;-0,016
"qu";-0,046;7,29;0,128;0;-0,783
"car";-1,619;1,805;-1,455;-8,039;8,573
"du";-1,229;1,557;-0,352;-15,059;14,046
"avec";-1,125;-1,933;-2,935;2,397;-0,137
"une";0;0,292;-0,685;1,013;-0,751
"si";0;5,99;-0,702;0,126;-0,649
"comme";-1,018;-3,009;-2,4;0;1,355
"faire";-1,063;-0,657;0,03;-0,012;0,193
"c";-1,103;-0,765;-1,533;-1,521;4,081
"tous";-0,901;-0,274;-1,839;0,007;0,434
"afin";-0,973;-1,36;-3,772;-0,928;4,284
"notre";-0,738;-3,622;-4,394;-3,775;10,752
"ceux";-0,749;-1,814;-0,001;-0,213;0,974
"j";-0,695;-3,412;-0,179;38,528;-27,274
"aussi";0,111;-1,955;-1,29;-0,991;2,962
"au";-0,765;0,103;-4,554;2,139;-0,477
"lui";-0,627;-0,271;-1,875;-20,253;25,991
"celui";10,444;0,009;-3,731;-1,545;1,879
"point";0,311;-0,258;-0,053;-0,048;0,133
"se";-0,621;0,012;6,723;-0,048;-0,326
"grâce";-0,653;-3,204;-3,888;-5,313;12,593
"moi";-0,6;-1,184;-3,575;8,906;-3,383
"selon";-0,611;-1,227;-1,791;-20,615;28,121
"ils";-0,461;0,387;0,08;-0,493;0,245
"s";0,429;2,461;-0,004;0,124;-0,786
"tout";-0,507;0,21;-3,019;0,119;0,04
"votre";-0,507;-2,488;1,841;3,314;-2,704
"son";-0,543;-2,665;0;0,001;0,317
"sa";0,599;-0,788;0,019;-2,207;2,435
"même";-0,507;0,21;-1,251;-0,847;1,504
"donc";-0,543;2,739;-1,436;-0,141;0,133
"dire";-0,492;0,261;-1,173;0,624;-0,217
"plus";-0,471;0,342;-0,156;2,401;-2,124
"non";-0,497;-0,037;-1,199;0,505;-0,03
"aux";-0,415;5,253;0,215;-0,216;-0,093
"toute";-0,375;-1,839;-0,005;-2,25;3,909
"sur";-0,38;0,034;-0,634;-1,196;1,842
"ni";-0,182;0,025;-1,082;-0,02;0,245
"ou";-0,355;7,201;-0,522;3,232;-5,006
"savoir";-0,405;0,009;-0,751;0,747;-0,244
"tu";10,383;0,271;-0,297;7,413;-9,44
"me";-0,35;-1,715;-0,501;5,756;-2,627
"leur";-0,345;1,285;0,002;0,237;-0,564
"bien";1,277;-0,284;-0,544;4,81;-3,551
"y";-0,325;0,166;-0,396;-0,899;1,181
"mon";-0,36;0,069;0;11,757;-11,067
"m";-0,33;-1,617;-0,416;12,98;-7,987
"toutes";-0,355;0,079;-0,522;0,003;0,033
"autres";-0,33;-1,617;0,751;5,36;-4,305
"ainsi";-0,365;-0,3;-0,567;1,232;-0,337
"vouloir";-0,32;0,184;0,024;1,506;-1,679
"bon";-0,33;-1,617;-0,416;0;0,463
"elle";-0,221;0,929;-0,054;9,245;-9,65
"cette";-0,31;0,225;-1,844;-0,025;0,289
"vos";1,952;-1,398;-0,243;-0,61;1,179
"sans";-0,265;0,486;1,582;0,028;-0,514
"pouvoir";-0,295;5,249;-0,279;-0,174;-0,001
"cela";-0,28;-1,373;-0,225;0,179;0,03
"mes";-0,25;-1,228;-1,49;56,606;-42,361
"ces";-0,28;-0,077;1,343;1,583;-2,104
"pourquoi";-0,255;0,565;-1,519;1,554;-0,923
"autre";-0,206;1,138;-0,026;-0,494;0,228
"personne";-0,216;0,995;2,687;3,705;-7,035
"croire";-0,226;-0,004;-0,065;-8,749;9,275
"parmi";2,653;-1,156;-0,089;-0,483;0,762
"ma";-0,206;-1,012;-1,227;14,486;-8,806
"encore";-0,24;-0,015;-1,432;0,011;0,161
"toi";-0,226;3,7;-1,344;1,103;-1,328
"maintenant";-0,231;-1,132;-0,076;-0,353;1,119
"devant";-0,206;-1,012;-0,026;-6,943;8,903
"on";-0,182;0,025;-0,001;0,04;-0,029
"leurs";-0,182;-0,892;-0,001;0,294;-0,029
"devoir";-0,196;-0,964;-0,013;9,859;-7,064
"sous";-0,177;-0,868;1,018;-9,876;9,377
"or";-0,206;1,138;0,612;-3,964;2,01
"quand";-0,177;0,034;-1,053;0,105;0,001
"parce_que";-0,206;-1,012;-1,227;0,343;0,027
"te";-0,158;0,091;-0,938;2,545;-1,604
"quelque";-0,148;2,505;-0,88;2,353;-2,579
"chacun";-0,196;0,006;-0,013;0,693;-0,539
"rien";-0,177;5,833;0;1,037;-2,752
"ses";-0,172;-0,844;0;-1,7;2,551
"uns";-0,148;-0,725;1,645;0,159;-0,252
"lorsque";-0,172;-0,844;-1,024;0,205;0,053
"eux";-0,177;1,689;-1,053;0,105;-0,096
"elles";-0,153;-0,749;1,52;1,013;-1,148
"jusqu";-0,167;0,058;-0,996;-2,411;3,33
"chez";-0,162;0,073;0,006;22,067;-21,348
"nos";-0,158;-0,773;-0,938;0,016;0,268
"dont";-0,153;0,111;0,02;3,066;-3,225
"contre";-0,129;0,259;0,099;-0,385;0,157
"ton";-0,129;3,284;-0,765;0,999;-1,392
"où";-0,129;-0,631;0,099;-0,047;0,157
"envers";-0,119;0,348;-0,708;3,083;-2,431
"beaucoup";-0,114;-0,56;-0,679;7,85;-4,747
"entre";-0,114;-0,56;-0,679;-2,224;3,987
"mal";-0,095;-0,466;11,462;0,83;-3,093
"après";-0,124;3,52;-0,737;0,115;-0,317
"t";-0,105;-0,513;0,277;5,5;-4,814
"comment";-0,105;-0,513;-0,622;0,305;0
"lequel";-0,105;-0,513;-0,622;-0,628;1,673
"falloir";-0,109;0,46;3,122;2,893;-5,755
"celle";-0,095;-0,466;-0,565;0,195;0,005
"quelle";-0,081;-0,395;-0,48;1,035;-0,282
"vers";-0,085;-0,419;0,548;10,822;-10,295
"plusieurs";-0,085;-0,419;0,548;-2,759;2,581
"plein";8,883;-0,466;4,026;0,83;-3,093
"juste";-0,1;-0,489;-0,594;0,072;0,062
"toujours";-0,085;-0,419;0,548;1,715;-1,645
"déjà";-0,081;-0,395;0,644;0;-0,001
"salut";-0,085;-0,419;0,548;0,102;-0,102
"puisque";-0,09;-0,442;-0,537;-0,678;1,655
"moins";-0,09;0,784;-0,537;12,352;-11,57
"là";-0,071;-0,349;0,884;2,148;-2,315
"fort";-0,081;18,383;-0,48;-1,04;-0,001
"aucun";-0,081;-0,395;0,644;1,035;-1,053
"voici";-0,076;-0,372;-0,451;-0,116;0,603
"tandis_que";-0,081;-0,395;-0,48;-1,04;2,105
"avant";-0,081;-0,395;0,644;0;-0,001
"ta";-0,071;1,33;-0,423;0,146;-0,218
"puis";-0,071;-0,349;-0,423;0,853;-0,218
"deux";-0,062;-0,302;-0,366;0,673;-0,158
"peu";19,567;-0,232;-0,281;-0,124;0,002
"autrefois";-0,062;-0,302;1,216;-2,271;1,693
"aucune";-0,062;-0,302;1,216;-0,118;0,029
"tel";-0,057;11,351;1,43;-0,561;-0,427
"quel";-0,052;-0,255;-0,31;0,005;0,088
"nul";-0,043;-0,209;2,396;-2,316;1,286
"force";16;-0,279;1,43;0,214;-1,543
"alors";-0,057;2,018;-0,338;-3,842;2,899
"tels";-0,047;-0,232;2,004;-1,03;0,481
"quoique";-0,047;-0,232;-0,281;-0,124;0,481
"quoi";-0,047;-0,232;-0,281;2,681;-1,54
"puisqu";-0,047;-0,232;2,004;-1,03;0,481
"oui";-0,043;-0,209;-0,253;-0,677;1,286
"ensuite";-0,047;-0,232;-0,281;0,949;-0,355
"depuis";-0,047;-0,232;-0,281;5,292;-3,556
"cependant";-0,047;-0,232;-0,281;-1,03;1,792
"celles";-0,033;-0,162;-0,197;-0,139;0,432
"trois";-0,038;-0,185;-0,225;14,709;-11,668
"mieux";-0,038;-0,185;-0,225;9,574;-7,263
"laquelle";-0,038;-0,185;-0,225;-1,828;2,655
"jamais";-0,043;3,21;2,396;-0,015;-0,819
"cet";-0,043;-0,209;-0,253;0,33;-0,051
"toutefois";-0,033;-0,162;42,647;-1,358;-0,781
"mêmes";-0,038;-0,185;-0,225;0,017;0,035
"lorsqu";-0,038;-0,185;-0,225;0,759;-0,284
"dès";-0,038;-0,185;-0,225;0,759;-0,284
"dehors";-0,038;-0,185;-0,225;2,599;-1,572
"tant";-0,033;-0,162;-0,197;-0,139;0,432
"quiconque";-0,028;-0,139;-0,169;-3,283;4,139
"o";-0,033;-0,162;3,539;-3,832;2,038
"néanmoins";-0,028;-0,139;-0,169;-0,01;0,137
"loin";-0,033;-0,162;17,689;-0,139;-0,781
"autrui";-0,033;-0,162;-0,197;0,175;-0,013
"tes";-0,024;-0,116;-0,14;0,048;0,001
"telles";-0,028;-0,139;-0,169;-0,915;1,446
"telle";-0,028;-0,139;-0,169;2,59;-1,672
"surtout";-0,028;-0,139;-0,169;6,075;-4,516
"souvent";-0,028;-0,139;-0,169;6,075;-4,516
"sinon";-0,028;-0,139;-0,169;-0,01;0,137
"lors";-0,028;5,661;-0,169;-3,283;1,446
"ici";-0,028;-0,139;-0,169;2,59;-1,672
"autant";-0,028;-0,139;-0,169;6,075;-4,516
"auparavant";-0,024;-0,116;-0,14;-0,514;0,894
"an";-0,028;-0,139;-0,169;2,59;-1,672
"quelles";-0,024;-0,116;-0,14;9,181;-7,283
"longtemps";-0,024;-0,116;-0,14;1,338;-0,768
"hors";-0,024;-0,116;-0,14;-0,514;0,894
"diable";-0,024;-0,116;5,639;1,338;-3,196
"chaque";-0,024;-0,116;5,639;4,382;-7,283
"vôtre";-0,019;-0,093;-0,112;2,764;-1,946
"mille";-0,019;-0,093;-0,112;-0,186;0,412
"debout";-0,019;-0,093;-0,112;-0,186;0,412
"combien";-0,019;-0,093;-0,112;0,379;-0,142
"ceci";-0,014;13,148;-0,084;-1,639;0,069
"vôtres";-0,014;-0,069;-0,084;5,504;-4,366
"volontiers";-0,014;-0,069;-0,084;-0,005;0,069
"trop";-0,014;-0,069;-0,084;1,293;-0,835
"tiens";-0,014;-0,069;-0,084;1,293;-0,835
"tandis_qu";-0,014;-0,069;10,613;-1,639;0,069
"plupart";-0,014;-0,069;-0,084;1,293;-0,835
"pendant";-0,014;-0,069;-0,084;1,293;-0,835
"partout";-0,014;-0,069;-0,084;5,504;-4,366
"moindre";-0,014;-0,069;-0,084;-1,639;2,067
"lesquels";-0,014;-0,069;-0,084;-1,639;2,067
"davantage";-0,014;-0,069;-0,084;-0,005;0,069
"cinq";-0,014;-0,069;-0,084;5,504;-4,366
"certaine";-0,014;-0,069;-0,084;-1,639;2,067
"auprès";-0,014;-0,069;-0,084;-0,005;0,069
"*Tx_Ga_3_4";-0,009;-0,046;16,872;-1,092;-0,071
"*Tx_1Ko_15_27";-0,009;-0,046;-0,056;0,189;-0,071
"*Tx_Flp_1_9-10-11";-0,009;-0,046;-0,056;0,189;-0,071
"*Tx_Ga_3_2";-0,009;-0,046;-0,056;0,189;-0,071
"*Tx_Ga_3_3";-0,009;-0,046;-0,056;-1,092;1,377
"*Tx_1Ko_15_29";-0,009;-0,046;-0,056;-1,092;1,377
"*Tx_1Tm_2_2-1-2";-0,009;-0,046;-0,056;0,189;-0,071
"*Tx_Ga_3_8";-0,009;-0,046;-0,056;-1,092;1,377
"*K_1Ts_5";-0,109;-0,536;-0,651;11,935;-7,983
"*Tx_Erm_12_20";-0,014;56,482;-0,084;-0,005;-4,366
"*Tx_2Ko_4_16";-0,009;-0,046;-0,056;-1,092;1,377
"*Tx_2Ko_4_13";-0,009;-0,046;-0,056;0,189;-0,071
"*Tx_Tt_1_7";-0,009;-0,046;-0,056;3,668;-2,909
"*Tx_Erm_3_10";-0,009;-0,046;-0,056;-1,092;1,377
"*K_1Ts_4";-0,09;-0,442;0,465;0,02;-0,014
"*Tx_Tt_3_9";-0,014;-0,069;46,319;-1,639;-0,835
"*Tx_2Ko_6_14";-0,014;-0,069;-0,084;-0,005;0,069
"*Tx_2Ko_6_15";-0,009;-0,046;-0,056;0,189;-0,071
"*Tx_2Ko_6_16";-0,019;-0,093;-0,112;-2,187;2,757
"*Tx_2Ko_6_17";-0,009;20,68;-0,056;-1,092;-0,071
"*Tx_2Ko_6_10";-0,014;-0,069;-0,084;1,293;-0,835
"*Tx_2Ko_6_12";0;0;0;0;0
"*Tx_Ga_5_4";-0,005;-0,023;-0,028;-0,546;0,688
"*Tx_2Tm_4_4-1-2";-0,009;-0,046;-0,056;0,189;-0,071
"*Tx_Ef_5_25-26-27";-0,009;-0,046;-0,056;0,189;-0,071
"*Tx_Ga_1_9";-0,005;-0,023;-0,028;1,833;-1,454
"*Tx_Ef_5_28";-0,009;-0,046;-0,056;3,668;-2,909
"*Tx_2Ko_11_29";-0,009;20,68;-0,056;-1,092;-0,071
"*Tx_Erm_4_10";-0,014;-0,069;-0,084;-1,639;2,067
"*K_Erm_13";-0,109;-0,536;9,326;0,679;-2,39
"*Tx_Erm_4_16";-0,009;-0,046;-0,056;-1,092;1,377
"*Tx_Erm_4_17";-0,009;-0,046;-0,056;-1,092;1,377
"*K_Tt_1";-0,076;-0,372;-0,451;7,888;-5,228
"*K_Erm_11";-0,221;0,929;0,466;-14,546;10,61
"*K_Erm_10";-0,143;-0,702;0,042;-4,623;5,423
"*Tx_2Ko_3_6";-0,009;-0,046;-0,056;-1,092;1,377
"*Tx_2Ko_3_5";-0,009;-0,046;-0,056;-1,092;1,377
"*Tx_1Ts_4_15";-0,009;-0,046;-0,056;-1,092;1,377
"*Tx_Erm_4_11-12";-0,009;-0,046;-0,056;-1,092;1,377
"*L_Korintoarrei1";9,129;45,975;0,008;5,16;-22,165
"*L_Korintoarrei2";-0,206;-3,019;-3,152;2,902;-0,231
"*Tx_2Tm_4_18";-0,009;-0,046;-0,056;-1,092;1,377
"*Tx_2Tm_4_17";-0,009;-0,046;-0,056;-1,092;1,377
"*Tx_2Tm_4_16";-0,009;-0,046;-0,056;0,189;-0,071
"*Tx_2Tm_4_14";-0,005;-0,023;-0,028;-0,546;0,688
"*Tx_2Tm_4_11";-0,009;-0,046;-0,056;0,189;-0,071
"*Tx_2Ko_1_6";-0,009;-0,046;-0,056;3,668;-2,909
"*Tx_1Ko_7_16";-0,009;-0,046;-0,056;3,668;-2,909
"*Tx_Erm_10_21";-0,009;-0,046;-0,056;0,189;-0,071
"*Tx_2Ko_7_9";-0,009;-0,046;-0,056;3,668;-2,909
"*Tx_1Ko_7_15";-0,014;-0,069;-0,084;1,293;-0,835
"*Tx_1Ko_7_12";-0,009;-0,046;-0,056;0,189;-0,071
"*Tx_Erm_10_20";-0,009;-0,046;-0,056;-1,092;1,377
"*Tx_2Ko_7_3";-0,009;-0,046;-0,056;-1,092;1,377
"*Tx_2Ko_7_2";-0,005;-0,023;-0,028;-0,546;0,688
"*Tx_2Ko_7_5";-0,014;-0,069;-0,084;5,504;-4,366
"*Tx_2Ko_7_4";-0,009;-0,046;-0,056;3,668;-2,909
"*Tx_1Tm_6_13-14-15";-0,014;-0,069;-0,084;-1,639;2,067
"*Tx_2Ko_7_11";-0,014;-0,069;-0,084;1,293;-0,835
"*Tx_1Ko_16_15";-0,009;-0,046;-0,056;3,668;-2,909
"*Tx_2Tm_2_16";-0,009;-0,046;16,872;-1,092;-0,071
"*Tx_1Ko_16_12";-0,009;-0,046;-0,056;3,668;-2,909
"*Tx_1Ko_16_11";-0,005;-0,023;-0,028;-0,546;0,688
"*Tx_Erm_10_19";-0,009;-0,046;16,872;-1,092;-0,071
"*Tx_1Ko_14_15";-0,009;-0,046;-0,056;-1,092;1,377
"*Tx_1Ko_14_16";-0,009;-0,046;-0,056;0,189;-0,071
"*Tx_2Tm_2_19";-0,014;-0,069;-0,084;-1,639;2,067
"*Tx_1Ko_16_19";-0,009;-0,046;-0,056;3,668;-2,909
"*Tx_1Ko_16_18";-0,009;-0,046;-0,056;0,189;-0,071
"*Tx_1Ko_11_25";-0,014;130,072;-0,084;-1,639;-4,366
"*Tx_1Ko_11_24";-0,009;-0,046;-0,056;-1,092;1,377
"*Tx_1Ko_11_22";-0,014;13,148;-0,084;1,293;-4,366
"*Tx_Ga_2_20";-0,014;-0,069;-0,084;-1,639;2,067
"*Tx_Erm_13_11";-0,005;-0,023;-0,028;1,833;-1,454
"*Tx_Erm_13_10";-0,009;-0,046;-0,056;0,189;-0,071
"*Tx_Erm_13_12";-0,009;-0,046;-0,056;0,189;-0,071
"*Tx_Tt_2_12-13-14";-0,009;-0,046;-0,056;-1,092;1,377
"*Tx_Ef_4_25";-0,009;-0,046;-0,056;0,189;-0,071
"*Tx_Ef_1_15-16-17";-0,014;-0,069;-0,084;-0,005;0,069
"*Tx_Ef_4_28";-0,005;-0,023;-0,028;1,833;-1,454
"*Tx_2Ko_12_20";-0,009;-0,046;71,436;-1,092;-2,909
"*K_1Ko_10";-0,201;134,216;-0,019;-0,849;-6,237
"*Tx_1Ko_10_10-1-2";-0,009;20,68;-0,056;-1,092;-0,071
"*Tx_1Tm_1_3-4";-0,009;-0,046;-0,056;0,189;-0,071
"*Tx_1Ko_7_34";-0,014;-0,069;-0,084;5,504;-4,366
"*Tx_Erm_10_15";-0,009;-0,046;-0,056;0,189;-0,071
"*Tx_2Ts_2_7";-0,009;-0,046;-0,056;0,189;-0,071
"*Tx_2Tm_4_22";-0,005;-0,023;-0,028;-0,546;0,688
"*Tx_2Ts_2_4";-0,009;-0,046;-0,056;-1,092;1,377
"*Tx_Flp_4_21";-0,009;-0,046;-0,056;3,668;-2,909
"*Tx_Ef_4_4-1-2";-0,009;-0,046;-0,056;3,668;-2,909
"*Tx_Erm_1_1-1-2";-0,019;-0,093;-0,112;-2,187;2,757
"*Tx_Erm_11_33";-0,009;-0,046;-0,056;-1,092;1,377
"*Tx_2Ko_2_16";-0,014;-0,069;-0,084;-1,639;2,067
"*Tx_2Ko_2_17";-0,009;-0,046;-0,056;-1,092;1,377
"*Tx_Erm_3_25-26";-0,009;-0,046;-0,056;-1,092;1,377
"*L_Filemoni";-0,095;-0,466;-0,565;10,63;-7,144
"*Tx_Ga_1_3-4-5";-0,009;-0,046;-0,056;-1,092;1,377
"*Tx_Erm_11_36";-0,009;-0,046;-0,056;-1,092;1,377
"*K_Erm_7";-0,162;-0,797;0,006;-8,371;9,698
"*Tx_Ga_5_11";-0,009;-0,046;-0,056;-1,092;1,377
"*Tx_Erm_16_16-1-2";-0,009;-0,046;-0,056;3,668;-2,909
"*Tx_Tt_2_15";-0,005;-0,023;-0,028;1,833;-1,454
"*Tx_Flp_1_18";-0,009;-0,046;-0,056;0,189;-0,071
"*Tx_Kol_4_18";-0,005;-0,023;-0,028;1,833;-1,454
"*Tx_Kol_4_11";-0,009;-0,046;-0,056;0,189;-0,071
"*Tx_Flp_1_15";-0,009;-0,046;16,872;-1,092;-0,071
"*Tx_Kol_1_24";-0,009;-0,046;-0,056;3,668;-2,909
"*Tx_Ga_2_7-8-9";-0,009;-0,046;-0,056;0,189;-0,071
"*Tx_1Ko_12_10";-0,024;-0,116;-0,14;1,338;-0,768
"*Tx_1Ko_12_17";-0,005;-0,023;-0,028;-0,546;0,688
"*Tx_1Tm_5_4";-0,009;-0,046;-0,056;0,189;-0,071
"*K_1Tm_5";-0,133;0,222;-0,794;5,916;-4,674
"*Tx_Flp_1_27-28";-0,009;-0,046;-0,056;3,668;-2,909
"*Tx_Erm_5_7";-0,009;-0,046;-0,056;3,668;-2,909
"*K_1Tm_4";-0,071;-0,349;0,884;9,557;-9,628
"*K_1Tm_6";-0,09;-0,442;12,329;-0,678;-0,014
"*K_1Tm_1";-0,09;-0,442;0,465;-1,704;1,655
"*K_1Tm_3";-0,071;1,33;0,884;9,557;-13,177
"*K_1Tm_2";-0,066;-0,325;-0,395;2,94;-1,566
"*Tx_Erm_7_9";-0,009;-0,046;-0,056;-1,092;1,377
"*Tx_Erm_7_8";-0,009;-0,046;-0,056;-1,092;1,377
"*Tx_Erm_9_15";-0,009;-0,046;-0,056;-1,092;1,377
"*Tx_1Ko_12_9";-0,009;-0,046;-0,056;-1,092;1,377
"*Tx_1Tm_2_12";-0,009;-0,046;-0,056;3,668;-2,909
"*Tx_Erm_7_3";-0,009;-0,046;-0,056;-1,092;1,377
"*Tx_Erm_7_2";-0,009;-0,046;-0,056;0,189;-0,071
"*Tx_Flm_1_7";-0,009;-0,046;-0,056;3,668;-2,909
"*Tx_Erm_7_7";-0,009;-0,046;-0,056;-1,092;1,377
"*Tx_Ef_5_14";-0,005;-0,023;-0,028;-0,546;0,688
"*Tx_1Ko_1_20";-0,009;-0,046;-0,056;-1,092;1,377
"*Tx_1Ts_5_5";-0,009;-0,046;-0,056;3,668;-2,909
"*K_Erm_3";-0,192;-0,94;-0,008;-5,649;7,262
"*Tx_1Ko_1_27";-0,009;-0,046;-0,056;-1,092;1,377
"*Tx_Ef_5_18";-0,009;20,68;-0,056;-1,092;-0,071
"*Tx_Erm_9_17";-0,009;-0,046;-0,056;-1,092;1,377
"*Tx_Erm_9_9";-0,009;-0,046;-0,056;-1,092;1,377
"*Tx_2Ts_2_2-1-2";-0,009;-0,046;-0,056;0,189;-0,071
"*Tx_1Ko_10_28";-0,014;-0,069;-0,084;-0,005;0,069
"*Tx_1Ko_10_29";-0,009;-0,046;-0,056;3,668;-2,909
"*Tx_Ga_3_12";-0,009;-0,046;-0,056;-1,092;1,377
"*Tx_Ga_3_10";-0,009;-0,046;-0,056;-1,092;1,377
"*Tx_Ga_3_11";-0,009;-0,046;-0,056;-1,092;1,377
"*Tx_1Ko_10_20";-0,009;86,678;-0,056;-1,092;-2,909
"*Tx_1Ko_10_21";-0,009;86,678;-0,056;-1,092;-2,909
"*Tx_1Ko_10_22";-0,005;-0,023;35,703;-0,546;-1,454
"*Tx_1Ko_10_23";-0,009;-0,046;-0,056;3,668;-2,909
"*Tx_Ga_3_18";-0,009;-0,046;-0,056;-1,092;1,377
"*Tx_Ga_3_19";-0,009;-0,046;-0,056;-1,092;1,377
"*Tx_Ef_2_19";-0,009;-0,046;-0,056;3,668;-2,909
"*Tx_1Ko_7_40";-0,005;-0,023;-0,028;-0,546;0,688
"*Tx_Erm_15_15-16";-0,009;-0,046;-0,056;-1,092;1,377
"*Tx_1Tm_1_8-9-10";-0,014;-0,069;-0,084;-1,639;2,067
"*Tx_Flp_1_19-20";-0,009;-0,046;-0,056;0,189;-0,071
"*K_Erm_9";-0,182;-0,892;-0,001;-10,384;12,186
"*K_Erm_8";-0,236;-1,156;-1,402;-6,287;10,391
"*Tx_2Tm_2_24";-0,009;-0,046;16,872;0,189;-2,909
"*K_Erm_2";-0,158;0,091;-0,938;-15,266;16,688
"*K_Erm_1";-0,148;-0,725;1,645;-5,058;4,299
"*Tx_2Tm_2_20";-0,009;-0,046;-0,056;0,189;-0,071
"*K_Erm_6";-0,133;-0,654;-0,794;-15,466;19,496
"*K_Erm_5";-0,105;-0,513;-0,622;-6,682;9,223
"*K_Erm_4";-0,133;-0,654;-0,794;-12,495;16,229
"*Tx_Erm_3_5";-0,014;-0,069;-0,084;-0,005;0,069
"*Tx_Erm_3_4";-0,009;-0,046;-0,056;-1,092;1,377
"*Tx_Erm_13_3";-0,009;-0,046;16,872;-1,092;-0,071
"*Tx_2Ko_3_7-8";-0,009;-0,046;-0,056;-1,092;1,377
"*Tx_Erm_3_8";-0,009;-0,046;-0,056;3,668;-2,909
"*K_Tt_2";-0,047;-0,232;-0,281;5,292;-3,556
"*K_Tt_3";-0,071;-0,349;16,99;0,853;-4,197
"*Tx_2Tm_4_8";-0,009;-0,046;-0,056;-1,092;1,377
"*Tx_Erm_16_23";-0,009;-0,046;-0,056;3,668;-2,909
"*Tx_1Ko_9_24";-0,009;-0,046;71,436;-1,092;-2,909
"*Tx_Erm_16_20";-0,009;-0,046;-0,056;-1,092;1,377
"*Tx_1Ts_2_5";-0,009;-0,046;-0,056;0,189;-0,071
"*Tx_2Ko_6_8";-0,009;-0,046;-0,056;-1,092;1,377
"*Tx_2Ko_6_9";-0,014;-0,069;-0,084;-1,639;2,067
"*Tx_1Ko_5_12";-0,009;-0,046;-0,056;3,668;-2,909
"*Tx_1Ko_5_13";-0,009;-0,046;-0,056;-1,092;1,377
"*Tx_2Ko_4_8";-0,009;-0,046;-0,056;3,668;-2,909
"*Tx_2Ko_4_5";-0,009;-0,046;-0,056;-1,092;1,377
"*Tx_2Ko_4_6";-0,014;-0,069;-0,084;-1,639;2,067
"*Tx_2Ko_4_2";-0,009;-0,046;-0,056;0,189;-0,071
"*Tx_1Ts_3_3-1-2";-0,009;-0,046;-0,056;3,668;-2,909
"*Tx_1Tm_5_9-10";-0,009;-0,046;-0,056;0,189;-0,071
"*Tx_1Ko_3_18";-0,009;-0,046;-0,056;-1,092;1,377
"*Tx_1Ko_3_19";-0,009;-0,046;-0,056;0,189;-0,071
"*Tx_Flp_4_18";-0,009;-0,046;-0,056;-1,092;1,377
"*Tx_Erm_6_5-6";-0,009;-0,046;-0,056;-1,092;1,377
"*Tx_1Ko_3_10";-0,009;-0,046;-0,056;0,189;-0,071
"*Tx_Flp_4_17";-0,009;-0,046;-0,056;-1,092;1,377
"*Tx_Flp_4_10";-0,009;-0,046;-0,056;3,668;-2,909
"*Tx_1Ko_3_17";-0,009;-0,046;-0,056;-1,092;1,377
"*Tx_Flp_4_12";-0,009;-0,046;-0,056;0,189;-0,071
"*Tx_1Ko_3_15";-0,009;-0,046;-0,056;0,189;-0,071
"*Tx_1Ko_13_5-6";-0,009;-0,046;16,872;0,189;-2,909
"*Tx_Ef_2_11-12";-0,009;-0,046;-0,056;-1,092;1,377
"*Tx_1Tm_4_4-1-2";-0,009;-0,046;-0,056;3,668;-2,909
"*Tx_1Ko_14_20";-0,009;-0,046;-0,056;-1,092;1,377
"*Tx_1Ko_1_12";-0,009;-0,046;-0,056;3,668;-2,909
"*Tx_1Ko_1_16";-0,009;-0,046;-0,056;0,189;-0,071
"*Tx_1Ko_1_18";-0,009;-0,046;-0,056;-1,092;1,377
"*Tx_2Ko_5_11";-0,009;-0,046;-0,056;-1,092;1,377
"*Tx_2Ko_5_13";-0,009;-0,046;-0,056;-1,092;1,377
"*Tx_2Ko_5_12";-0,009;-0,046;-0,056;0,189;-0,071
"*Tx_2Ko_5_17";-0,014;-0,069;-0,084;-0,005;0,069
"*Tx_2Ko_5_16";-0,009;-0,046;-0,056;-1,092;1,377
"*Tx_1Ko_8_7";-0,009;20,68;-0,056;-1,092;-0,071
"*Tx_1Tm_5_23";-0,009;20,68;-0,056;-1,092;-0,071
"*Tx_2Ko_9_2";-0,009;-0,046;-0,056;0,189;-0,071
"*Tx_1Ko_11_6";-0,009;86,678;-0,056;-1,092;-2,909
"*Tx_2Ko_9_7";-0,009;-0,046;-0,056;3,668;-2,909
"*L_Galaziarrei";6,175;-4,421;0,007;-10,165;11,311
"*Tx_Erm_9_3-4-5";-0,009;-0,046;-0,056;-1,092;1,377
"*Tx_1Ko_7_30-31";-0,009;-0,046;-0,056;3,668;-2,909
"*L_Filipostarrei";-0,523;-2,564;0,005;6,84;-3,927
"*Tx_1Ko_15_39";-0,009;-0,046;-0,056;-1,092;1,377
"*Tx_1Ko_14_22";-0,009;-0,046;-0,056;3,668;-2,909
"*Tx_1Ko_15_34";-0,009;-0,046;-0,056;0,189;-0,071
"*K_Erm_16";-0,158;-0,773;-0,938;20,52;-14,167
"*K_Erm_15";-0,153;-0,749;-0,909;0,068;0,143
"*Tx_1Ko_15_37";212,545;-0,023;-0,028;-0,546;-1,454
"*Tx_1Ko_1_1-1-2";-0,009;-0,046;-0,056;0,189;-0,071
"*K_Erm_12";-0,138;2,864;0,058;0,474;-1,462
"*Tx_1Ko_15_32";-0,009;20,68;-0,056;0,189;-2,909
"*Tx_1Ko_15_33";-0,005;-0,023;35,703;-0,546;-1,454
"*Tx_1Ko_4_3";-0,009;-0,046;-0,056;0,189;-0,071
"*Tx_2Ko_10_10-1-2";-0,009;-0,046;-0,056;-1,092;1,377
"*L_Kolosarrei";-0,451;-0,594;-0,11;0,613;-0,106
"*Tx_1Ko_4_7";-0,014;-0,069;-0,084;5,504;-4,366
"*Tx_1Ko_4_6";-0,009;-0,046;16,872;0,189;-2,909
"*Tx_1Ko_4_5";-0,009;-0,046;-0,056;-1,092;1,377
"*Tx_1Ko_4_4";-0,009;-0,046;-0,056;-1,092;1,377
"*Tx_1Ko_4_8";-0,009;-0,046;-0,056;-1,092;1,377
"*Tx_2Tm_1_3-4-5";-0,009;-0,046;-0,056;3,668;-2,909
"*K_1Ko_15";95,637;-0,284;-0,544;-12,191;5,966
"*K_1Ko_16";-0,133;-0,654;-0,794;27,215;-20,1
"*Tx_1Ko_6_9";-0,005;-0,023;-0,028;-0,546;0,688
"*K_1Ko_11";-0,192;141,958;-1,14;0,392;-14,411
"*K_1Ko_12";-0,206;-1,012;-1,227;0,069;0,228
"*K_1Ko_13";-0,085;-0,419;0,548;5,288;-5,043
"*Tx_1Ko_6_5";-0,009;-0,046;-0,056;0,189;-0,071
"*Tx_1Ko_6_7";-0,009;-0,046;-0,056;-1,092;1,377
"*Tx_2Tm_4_21";-0,009;-0,046;-0,056;0,189;-0,071
"*Tx_1Ko_6_3";-0,009;-0,046;-0,056;-1,092;1,377
"*Tx_1Ko_6_2";-0,009;-0,046;-0,056;-1,092;1,377
"*Tx_Ga_3_16";-0,014;-0,069;-0,084;-1,639;2,067
"*Tx_1Tm_6_2";-0,014;-0,069;-0,084;5,504;-4,366
"*Tx_Flm_1_15-16";-0,009;-0,046;-0,056;0,189;-0,071
"*Tx_1Ts_3_12-13";-0,009;-0,046;-0,056;-1,092;1,377
"*Tx_Ef_4_11-12-13";-0,019;-0,093;-0,112;0,379;-0,142
"*K_1Ko_6";-0,158;-0,773;5,115;-2,911;1,515
"*K_1Ko_7";-0,31;-1,519;0,955;18,923;-16,849
"*K_1Ko_4";-0,153;0,111;1,52;1,901;-3,225
"*K_1Ko_5";-0,071;-0,349;6,407;-3,191;1,241
"*K_1Ko_2";-0,081;-0,395;-0,48;-2,338;3,788
"*K_1Ko_3";-0,143;-0,702;0,042;0,025;0,007
"*K_1Ko_1";-0,148;-0,725;-0,88;-3,5;5,96
"*K_1Ko_8";-0,081;117,563;-0,48;-4,155;-1,053
"*K_1Ko_9";3,475;0,006;0,729;0,253;-1,112
"*Tx_1Ko_11_34";-0,009;20,68;-0,056;0,189;-2,909
"*Tx_Ga_3_28";-0,009;-0,046;-0,056;-1,092;1,377
"*Tx_Ga_3_21";-0,009;-0,046;-0,056;-1,092;1,377
"*Tx_Erm_4_9";-0,009;-0,046;-0,056;-1,092;1,377
"*Tx_1Ko_10_13";-0,009;-0,046;-0,056;0,189;-0,071
"*Tx_2Ko_1_3-4";-0,009;-0,046;-0,056;0,189;-0,071
"*Tx_1Ko_10_15";-0,009;-0,046;-0,056;0,189;-0,071
"*Tx_1Ko_10_17";-0,009;20,68;-0,056;-1,092;-0,071
"*Tx_1Ko_10_16";-0,009;20,68;-0,056;-1,092;-0,071
"*Tx_1Ko_10_18";-0,009;20,68;-0,056;-1,092;-0,071
"*Tx_Kol_1_7-8";-0,009;-0,046;-0,056;3,668;-2,909
"*Tx_1Ts_4_3";-0,009;-0,046;16,872;-1,092;-0,071
"*L_Erromatarrei";-3,269;-1,052;-0,236;-69,861;78,354
"*Tx_Erm_15_12";-0,009;-0,046;-0,056;-1,092;1,377
"*Tx_1Tm_4_12";-0,005;-0,023;-0,028;1,833;-1,454
"*Tx_1Ko_12_26";-0,009;-0,046;-0,056;0,189;-0,071
"*Tx_1Tm_4_16";-0,009;-0,046;-0,056;3,668;-2,909
"*Tx_Ga_1_10";-0,014;-0,069;-0,084;-0,005;0,069
"*Tx_Ef_1_4-5-6";-0,009;-0,046;-0,056;-1,092;1,377
"*Tx_1Ko_9_18";-0,009;-0,046;-0,056;3,668;-2,909
"*Tx_Kol_1_21-22-23";-0,009;-0,046;-0,056;-1,092;1,377
"*Tx_1Ko_9_10";-0,009;-0,046;-0,056;0,189;-0,071
"*Tx_Erm_12_8";-0,019;-0,093;-0,112;0,379;-0,142
"*Tx_1Ko_9_12";-0,014;-0,069;-0,084;1,293;-0,835
"*Tx_Erm_1_13";-0,009;-0,046;-0,056;0,189;-0,071
"*Tx_1Ko_9_15";-0,009;-0,046;-0,056;0,189;-0,071
"*Tx_1Ko_9_17";-0,009;-0,046;-0,056;3,668;-2,909
"*K_Flp_3";-0,114;-0,56;2,876;-3,688;2,494
"*K_Flp_2";-0,124;-0,607;-0,737;2,485;-0,93
"*K_Flp_1";-0,124;-0,607;0,124;7,92;-6,603
"*Tx_1Ko_12_21";-0,019;-0,093;-0,112;7,342;-5,824
"*K_Flp_4";-0,143;-0,702;-0,852;6,07;-3,185
"*Tx_Erm_13_6";-0,005;-0,023;-0,028;-0,546;0,688
"*Tx_2Ko_10_4";-0,009;-0,046;-0,056;0,189;-0,071
"*Tx_2Ko_8_23";-0,009;-0,046;-0,056;3,668;-2,909
"*Tx_Erm_7_15";-0,005;-0,023;35,703;-0,546;-1,454
"*Tx_Erm_7_14";-0,009;-0,046;-0,056;-1,092;1,377
"*K_2Ko_9";10,067;-0,419;-0,508;1,715;-1,645
"*K_2Ko_8";-0,114;-0,56;-0,679;10,44;-6,741
"*Tx_Erm_7_13";-0,009;-0,046;-0,056;-1,092;1,377
"*K_2Ko_5";-0,119;-0,584;-0,708;-4,124;6,415
"*K_2Ko_4";-0,114;-0,56;-0,679;-3,688;5,828
"*K_2Ko_7";-0,124;-0,607;-0,737;10,413;-6,603
"*K_2Ko_6";-0,133;0,222;-0,794;0,002;0,025
"*K_2Ko_1";-0,119;-0,584;-0,708;3,083;-1,323
"*Tx_Erm_7_18";-0,009;-0,046;-0,056;0,189;-0,071
"*K_2Ko_3";-0,105;-0,513;-0,622;-6,682;9,223
"*K_2Ko_2";-0,09;-0,442;-0,537;0,388;-0,014
"*Tx_Flp_1_23";-0,005;-0,023;-0,028;1,833;-1,454
"*Tx_Erm_8_30";-0,014;-0,069;-0,084;-1,639;2,067
"*Tx_Erm_8_31";-0,009;-0,046;-0,056;-1,092;1,377
"*Tx_Erm_8_35";-0,009;-0,046;-0,056;0,189;-0,071
"*Tx_2Tm_3_2-3-4";-0,009;-0,046;16,872;0,189;-2,909
"*Tx_Erm_8_9";-0,009;-0,046;-0,056;-1,092;1,377
"*Tx_2Ko_13_12";-0,005;-0,023;-0,028;1,833;-1,454
"*Tx_2Ko_13_11";-0,009;-0,046;-0,056;0,189;-0,071
"*Tx_2Tm_4_10";-0,009;-0,046;-0,056;0,189;-0,071
"*Tx_Erm_5_13";-0,009;-0,046;-0,056;-1,092;1,377
"*Tx_Erm_5_16";-0,009;-0,046;-0,056;-1,092;1,377
"*Tx_1Ts_2_18";-0,009;-0,046;-0,056;0,189;-0,071
"*Tx_1Ts_2_19";-0,009;-0,046;-0,056;-1,092;1,377
"*Tx_1Ts_2_13";-0,009;-0,046;-0,056;0,189;-0,071
"*Tx_2Ko_11_23";-0,009;-0,046;-0,056;3,668;-2,909
"*Tx_2Ko_5_20";-0,009;-0,046;-0,056;-1,092;1,377
"*Tx_Erm_9_20";-0,009;-0,046;-0,056;-1,092;1,377
"*Tx_Erm_9_26";-0,009;-0,046;-0,056;-1,092;1,377
"*Tx_1Ko_7_10-11";-0,009;-0,046;-0,056;3,668;-2,909
"*Tx_Erm_9_29";-0,005;-0,023;-0,028;-0,546;0,688
"*Tx_2Ko_13_2-3";-0,009;-0,046;-0,056;-1,092;1,377
"*Tx_1Tm_6_10";-0,005;-0,023;35,703;-0,546;-1,454
"*Tx_Kol_1_25-26-27";-0,009;-0,046;-0,056;0,189;-0,071
"*Tx_Kol_2_18-19";-0,009;-0,046;16,872;0,189;-2,909
"*Tx_1Ko_9_7";-0,014;-0,069;-0,084;5,504;-4,366
"*Tx_1Ko_9_2";-0,009;-0,046;-0,056;0,189;-0,071
"*Tx_1Ko_7_18";-0,009;-0,046;-0,056;-1,092;1,377
"*Tx_1Ko_9_1";-0,009;-0,046;-0,056;0,189;-0,071
"*Tx_2Ko_11_21";-0,009;-0,046;-0,056;0,189;-0,071
"*Tx_2Ko_7_14";-0,009;-0,046;-0,056;0,189;-0,071
"*Tx_2Ko_7_13";-0,009;-0,046;-0,056;3,668;-2,909
"*Tx_2Ko_7_12";-0,009;-0,046;-0,056;-1,092;1,377
"*Tx_1Ko_9_8";-0,009;-0,046;-0,056;-1,092;1,377
"*Tx_1Ko_9_9";-0,005;-0,023;-0,028;-0,546;0,688
"*Tx_Erm_3_11";-0,009;-0,046;16,872;-1,092;-0,071
"*Tx_1Ko_7_39";-0,014;-0,069;-0,084;1,293;-0,835
"*Tx_Erm_3_13";-0,009;-0,046;-0,056;3,668;-2,909
"*Tx_Erm_8_38-39";-0,009;-0,046;-0,056;-1,092;1,377
"*Tx_Ga_2_21";-0,009;-0,046;-0,056;-1,092;1,377
"*Tx_1Ko_7_32";-0,005;-0,023;-0,028;1,833;-1,454
"*Tx_Erm_10_14";-0,009;-0,046;-0,056;3,668;-2,909
"*Tx_1Ko_7_35";-0,009;-0,046;16,872;0,189;-2,909
"*Tx_Erm_10_16";-0,009;-0,046;-0,056;-1,092;1,377
"*Tx_Ga_5_14";-0,009;-0,046;-0,056;0,189;-0,071
"*Tx_Ef_1_7-8-9";-0,009;-0,046;-0,056;-1,092;1,377
"*Tx_Ef_6_18";-0,009;-0,046;-0,056;3,668;-2,909
"*Tx_Ga_5_17";-0,005;-0,023;-0,028;-0,546;0,688
"*Tx_Ga_5_10";-0,009;-0,046;-0,056;0,189;-0,071
"*Tx_Kol_1_9-10-11";-0,014;-0,069;-0,084;-0,005;0,069
"*Tx_Ga_1_15-16-17";-0,009;-0,046;-0,056;0,189;-0,071
"*Tx_Ga_5_13";-0,009;-0,046;-0,056;0,189;-0,071
"*Tx_Erm_15_23-24";-0,009;-0,046;-0,056;3,668;-2,909
"*Tx_Ef_6_14";-0,009;-0,046;-0,056;-1,092;1,377
"*Tx_2Ko_1_17";-0,009;-0,046;-0,056;0,189;-0,071
"*Tx_Erm_15_30-31-32";-0,009;-0,046;-0,056;3,668;-2,909
"*Tx_1Ko_12_8";-0,009;-0,046;-0,056;-1,092;1,377
"*Tx_Ef_4_20-21-22";-0,009;-0,046;-0,056;-1,092;1,377
"*Tx_1Ko_12_3";-0,009;-0,046;-0,056;-1,092;1,377
"*Tx_1Ko_7_4";-0,009;-0,046;-0,056;3,668;-2,909
"*Tx_1Ko_7_5";-0,009;-0,046;-0,056;0,189;-0,071
"*Tx_1Ko_7_7";-0,009;-0,046;-0,056;-1,092;1,377
"*Tx_1Ko_14_9";-0,009;-0,046;-0,056;3,668;-2,909
"*Tx_Flp_2_2-1-2";-0,009;-0,046;-0,056;0,189;-0,071
"*Tx_1Ko_14_5";-0,009;-0,046;-0,056;3,668;-2,909
"*Tx_1Ko_14_4";-0,009;-0,046;-0,056;3,668;-2,909
"*Tx_1Ko_7_9";-0,009;-0,046;-0,056;3,668;-2,909
"*Tx_1Ts_5_13";-0,009;-0,046;-0,056;-1,092;1,377
"*Tx_1Ts_5_15";-0,005;-0,023;-0,028;1,833;-1,454
"*Tx_1Ko_7_17";-0,009;-0,046;-0,056;0,189;-0,071
"*Tx_1Ko_6_18";-0,009;-0,046;-0,056;0,189;-0,071
"*Tx_Kol_4_9";-0,009;-0,046;-0,056;3,668;-2,909
"*K_Flm_1";-0,095;-0,466;-0,565;10,63;-7,144
"*Tx_1Ko_6_11";-0,009;-0,046;16,872;-1,092;-0,071
"*Tx_1Ko_6_13";-0,019;-0,093;7,498;-2,187;0,412
"*Tx_1Ko_6_12";-0,009;-0,046;-0,056;3,668;-2,909
"*Tx_1Ko_6_15";-0,009;-0,046;-0,056;-1,092;1,377
"*Tx_1Ko_6_16";-0,009;-0,046;-0,056;-1,092;1,377
"*Tx_1Ko_7_14";-0,009;-0,046;-0,056;0,189;-0,071
"*Tx_1Ko_4_17";-0,009;-0,046;-0,056;3,668;-2,909
"*Tx_1Ko_3_9";-0,009;-0,046;-0,056;0,189;-0,071
"*Tx_1Ko_4_14";-0,009;-0,046;-0,056;3,668;-2,909
"*Tx_1Ko_4_13";-0,009;-0,046;-0,056;0,189;-0,071
"*Tx_Erm_12_9";-0,005;-0,023;-0,028;1,833;-1,454
"*Tx_1Ko_4_11";0;0;0;0;0
"*Tx_1Ko_4_10";-0,014;13,148;-0,084;-1,639;0,069
"*Tx_1Ko_3_2";-0,009;-0,046;-0,056;-1,092;1,377
"*Tx_2Tm_2_12";-0,009;-0,046;16,872;0,189;-2,909
"*Tx_1Ko_3_5";-0,009;-0,046;-0,056;0,189;-0,071
"*Tx_1Ko_5_2";-0,009;-0,046;16,872;-1,092;-0,071
"*K_2Ts_1";-0,047;-0,232;-0,281;-0,124;0,481
"*K_2Ts_2";-0,076;-0,372;0,755;-0,749;0,603
"*K_2Ts_3";-0,1;5,071;-0,594;0,529;-1,186
"*Tx_1Ko_5_6";0;0;0;0;0
"*Tx_1Ko_10_7";-0,009;20,68;-0,056;-1,092;-0,071
"*Tx_2Ko_6_2";-0,009;-0,046;-0,056;3,668;-2,909
"*Tx_Ga_5_19-20-21";-0,009;-0,046;71,436;-1,092;-2,909
"*Tx_1Ko_9_20";-0,009;-0,046;-0,056;-1,092;1,377
"*Tx_1Ko_9_25";-0,009;-0,046;-0,056;-1,092;1,377
"*Tx_Tt_1_5-6";-0,009;-0,046;-0,056;3,668;-2,909
"*Tx_1Ko_9_22";-0,009;-0,046;-0,056;-1,092;1,377
"*Tx_Erm_16_5";-0,009;-0,046;-0,056;3,668;-2,909
"*Tx_Erm_7_25";-0,009;-0,046;-0,056;-1,092;1,377
"*Tx_Erm_7_21";-0,009;-0,046;-0,056;0,189;-0,071
"*Tx_1Ts_2_9";-0,009;-0,046;-0,056;3,668;-2,909
"*K_2Tm_2";-0,143;-0,702;22,275;0,025;-1,99
"*K_2Tm_3";-0,076;-0,372;5,805;1,523;-3,154
"*K_2Tm_1";-0,09;-0,442;-0,537;4,279;-2,33
"*K_2Tm_4";-0,138;-0,678;-0,823;2,162;-0,687
"*K_Ga_2";-0,124;-0,607;-0,737;-0,237;1,086
"*Tx_1Ko_9_26";0;0;0;0;0
"*K_1Ts_2";-0,119;-0,584;-0,708;1,782;-0,549
"*Tx_1Ko_15_48";-0,009;-0,046;-0,056;-1,092;1,377
"*Tx_2Ko_3_17";-0,009;-0,046;-0,056;-1,092;1,377
"*Tx_2Ko_3_14";-0,009;-0,046;-0,056;0,189;-0,071
"*Tx_1Ko_15_41";0;0;0;0;0
"*Tx_1Ko_15_40";-0,009;-0,046;-0,056;-1,092;1,377
"*Tx_1Ko_15_43";425,271;-0,046;-0,056;-1,092;-2,909
"*Tx_1Ko_15_42";105,319;-0,046;-0,056;-1,092;-0,071
"*Tx_1Ko_15_45";-0,014;-0,069;-0,084;-1,639;2,067
"*Tx_1Ko_15_44";105,319;-0,046;-0,056;-1,092;-0,071
"*Tx_1Ko_15_47";-0,009;-0,046;-0,056;-1,092;1,377
"*Tx_1Ko_15_46";-0,009;-0,046;-0,056;-1,092;1,377
"*Tx_2Ko_13_9";-0,009;-0,046;-0,056;3,668;-2,909
"*Tx_2Ko_13_8";-0,009;-0,046;-0,056;-1,092;1,377
"*Tx_2Ko_13_5";-0,014;-0,069;-0,084;-0,005;0,069
"*Tx_2Ko_13_4";-0,009;-0,046;-0,056;-1,092;1,377
"*Tx_Erm_11_28";-0,009;-0,046;-0,056;-1,092;1,377
"*Tx_Erm_11_22";-0,009;-0,046;-0,056;0,189;-0,071
"*Tx_Erm_11_23";-0,009;-0,046;-0,056;-1,092;1,377
"*Tx_Erm_11_20";-0,009;-0,046;16,872;-1,092;-0,071
"*K_Kol_4";-0,095;-0,466;-0,565;21,808;-16,352
"*Tx_Erm_11_26";-0,009;-0,046;-0,056;-1,092;1,377
"*K_Kol_2";-0,09;0,784;0,465;-1,704;0,668
"*K_Kol_1";-0,133;-0,654;-0,794;0,196;0,025
"*Tx_1Ko_14_21";-0,009;-0,046;-0,056;0,189;-0,071
"*Tx_1Ko_8_5-6";-0,009;-0,046;-0,056;-1,092;1,377
"*K_2Ko_13";-0,095;-0,466;-0,565;0,195;0,005
"*Tx_1Ts_4_11-12";-0,009;-0,046;-0,056;3,668;-2,909
"*Tx_2Ko_12_6";-0,009;-0,046;-0,056;0,189;-0,071
"*Tx_1Ko_6_20";-0,009;-0,046;16,872;-1,092;-0,071
"*Tx_Erm_11_2";-0,009;-0,046;-0,056;-1,092;1,377
"*Tx_Erm_11_1";-0,009;-0,046;-0,056;-1,092;1,377
"*Tx_Erm_11_6";-0,019;-0,093;-0,112;-2,187;2,757
"*Tx_1Ko_14_24-25";-0,009;-0,046;-0,056;0,189;-0,071
"*Tx_Tt_3_12";-0,009;-0,046;-0,056;3,668;-2,909
"*Tx_Erm_11_8";-0,009;-0,046;-0,056;-1,092;1,377
"*Tx_1Ko_14_36";-0,009;-0,046;-0,056;0,189;-0,071
"*Tx_1Ko_14_35";-0,009;-0,046;-0,056;3,668;-2,909
"*Tx_Tt_3_15";-0,009;-0,046;-0,056;3,668;-2,909
"*Tx_Flp_3_8-9-10";-0,014;-0,069;-0,084;-1,639;2,067
"*Tx_Erm_3_29";-0,009;-0,046;-0,056;-1,092;1,377
"*Tx_2Ko_11_15";-0,009;-0,046;-0,056;-1,092;1,377
"*Tx_2Ko_11_16";-0,009;-0,046;-0,056;-1,092;1,377
"*Tx_Erm_3_27";-0,014;-0,069;-0,084;-1,639;2,067
"*Tx_2Ko_11_9";-0,009;-0,046;-0,056;3,668;-2,909
"*Tx_2Ko_11_8";-0,009;-0,046;-0,056;0,189;-0,071
"*Tx_2Tm_3_11";-0,014;-0,069;-0,084;1,293;-0,835
"*Tx_1Tm_3_16";-0,009;-0,046;-0,056;0,189;-0,071
"*Tx_Tt_1_1-1-2";-0,009;-0,046;-0,056;0,189;-0,071
"*Tx_Flm_1_20";-0,009;-0,046;-0,056;0,189;-0,071
"*Tx_Erm_6_23";-0,009;-0,046;-0,056;-1,092;1,377
"*K_Erm_14";-0,192;11,057;-0,008;-4,174;1,149
"*Tx_Erm_6_21";-0,009;-0,046;-0,056;-1,092;1,377
"*Tx_Ef_5_8";-0,009;-0,046;-0,056;-1,092;1,377
"*Tx_Ef_5_6";-0,009;-0,046;16,872;-1,092;-0,071
"*Tx_1Ko_11_18-19";-0,009;-0,046;-0,056;0,189;-0,071
"*Tx_Ef_5_4";-0,009;-0,046;-0,056;0,189;-0,071
"*Tx_2Ko_1_20";-0,009;-0,046;-0,056;-1,092;1,377
"*Tx_2Tm_1_18";-0,009;-0,046;-0,056;0,189;-0,071
"*Tx_2Tm_3_9";-0,009;-0,046;-0,056;0,189;-0,071
"*Tx_2Tm_1_12";-0,009;-0,046;-0,056;0,189;-0,071
"*Tx_Ga_1_23";-0,009;-0,046;-0,056;0,189;-0,071
"*Tx_Erm_13_9";-0,009;-0,046;-0,056;0,189;-0,071
"*Tx_Erm_13_8";-0,009;-0,046;-0,056;0,189;-0,071
"*Tx_Ef_2_14-15-16";-0,009;-0,046;-0,056;-1,092;1,377
"*Tx_Erm_13_4";-0,014;-0,069;10,613;-0,005;-0,835
"*Tx_Erm_13_7";-0,009;-0,046;-0,056;0,189;-0,071
"*Tx_Erm_1_21";-0,009;-0,046;16,872;-1,092;-0,071
"*Tx_Erm_1_26";-0,009;-0,046;-0,056;-1,092;1,377
"*Tx_Erm_1_24";-0,009;-0,046;-0,056;0,189;-0,071
"*Tx_1Tm_6_3-4-5";-0,009;-0,046;16,872;0,189;-2,909
"*Tx_Ef_3_14-15-16";-0,009;-0,046;-0,056;-1,092;1,377
"*Tx_2Ko_12_9";-0,009;-0,046;-0,056;-1,092;1,377
"*K_1Ko_14";-0,245;-1,204;-1,461;25,341;-16,769
"*Tx_1Ko_11_5";-0,005;-0,023;-0,028;1,833;-1,454
"*Tx_1Ko_15_10";-0,009;-0,046;-0,056;0,189;-0,071
"*Tx_Kol_2_2-1-2";-0,009;-0,046;-0,056;0,189;-0,071
"*Tx_Erm_12_16";-0,014;-0,069;-0,084;1,293;-0,835
"*Tx_Erm_12_17";-0,009;-0,046;-0,056;-1,092;1,377
"*Tx_1Ko_13_4";-0,009;-0,046;-0,056;3,668;-2,909
"*Tx_Erm_12_15";-0,005;-0,023;35,703;-0,546;-1,454
"*Tx_Erm_12_10";-0,009;-0,046;-0,056;0,189;-0,071
"*Tx_Ef_3_18-19";-0,009;-0,046;-0,056;-1,092;1,377
"*Tx_2Ko_11_26";-0,009;-0,046;-0,056;0,189;-0,071
"*Tx_2Ko_12_18";-0,014;-0,069;-0,084;1,293;-0,835
"*Tx_1Ko_13_8";-0,009;-0,046;-0,056;0,189;-0,071
"*Tx_Erm_12_19";-0,009;-0,046;-0,056;0,189;-0,071
"*Tx_Erm_8_24";-0,014;-0,069;-0,084;1,293;-0,835
"*Tx_Erm_8_26";-0,009;-0,046;-0,056;0,189;-0,071
"*Tx_Erm_8_23";-0,009;-0,046;-0,056;0,189;-0,071
"*Tx_1Ko_12_31";-0,009;-0,046;-0,056;3,668;-2,909
"*Tx_1Ko_12_30";-0,009;-0,046;-0,056;-1,092;1,377
"*Tx_Erm_2_22";-0,009;20,68;-0,056;-1,092;-0,071
"*Tx_Erm_2_21";-0,009;-0,046;-0,056;0,189;-0,071
"*Tx_Erm_2_25";-0,009;-0,046;-0,056;-1,092;1,377
"*Tx_Tt_1_15";-0,009;-0,046;-0,056;3,668;-2,909
"*Tx_Erm_2_29";-0,014;-0,069;-0,084;-1,639;2,067
"*Tx_Erm_2_28";-0,009;-0,046;-0,056;-1,092;1,377
"*Tx_Erm_3_31";-0,009;-0,046;-0,056;-1,092;1,377
"*Tx_Tt_1_12";-0,009;-0,046;-0,056;0,189;-0,071
"*Tx_Ef_2_8";-0,009;-0,046;-0,056;-1,092;1,377
"*Tx_Ga_1_13-14";-0,009;-0,046;-0,056;0,189;-0,071
"*Tx_Kol_1_3-4-5";-0,009;-0,046;-0,056;0,189;-0,071
"*Tx_Ga_4_27";-0,009;-0,046;-0,056;3,668;-2,909
"*L_Titori";-0,196;-0,964;3,318;12,037;-13,102
"*Tx_Erm_9_33";-0,009;-0,046;-0,056;-1,092;1,377
"*Tx_Flp_4_8";-0,009;-0,046;-0,056;0,189;-0,071
"*Tx_Flp_4_9";-0,009;-0,046;-0,056;0,189;-0,071
"*Tx_Flp_4_6";-0,009;-0,046;-0,056;3,668;-2,909
"*K_Ef_6";-0,105;-0,513;-0,622;1,001;-0,203
"*Tx_Erm_15_27";-0,005;-0,023;-0,028;-0,546;0,688
"*K_Ef_4";-0,129;-0,631;0,099;-0,385;0,624
"*Tx_1Ko_2_16";-0,009;-0,046;-0,056;-1,092;1,377
"*Tx_1Ko_2_11";-0,009;-0,046;-0,056;-1,092;1,377
"*Tx_1Ko_2_10";-0,009;-0,046;-0,056;-1,092;1,377
"*K_Ef_3";-0,071;-0,349;-0,423;-0,493;1,241
"*K_Ef_2";-0,095;-0,466;-0,565;-5,656;7,904
"*K_Ef_1";-0,076;-0,372;-0,451;-3,669;5,328
"*Tx_Ga_2_12";-0,009;-0,046;-0,056;0,189;-0,071
"*Tx_Erm_15_3";-0,009;-0,046;-0,056;-1,092;1,377
"*Tx_Ga_2_14";-0,009;-0,046;-0,056;0,189;-0,071
"*K_Ef_5";-0,172;1,803;1,104;-0,907;0,053
"*Tx_Ga_2_16";-0,009;-0,046;-0,056;-1,092;1,377
"*Tx_1Ko_7_28";-0,014;-0,069;-0,084;5,504;-4,366
"*Tx_1Ko_7_23";-0,009;-0,046;16,872;-1,092;-0,071
"*Tx_1Ko_7_22";-0,009;-0,046;-0,056;-1,092;1,377
"*Tx_1Ko_7_21";-0,009;-0,046;-0,056;-1,092;1,377
"*Tx_1Ko_7_27";-0,009;-0,046;-0,056;-1,092;1,377
"*Tx_1Ko_13_11";-0,009;-0,046;-0,056;0,189;-0,071
"*Tx_1Ko_13_12";-0,009;-0,046;-0,056;-1,092;1,377
"*Tx_1Ko_13_13";-0,014;-0,069;-0,084;5,504;-4,366
"*Tx_1Ts_1_9-10";-0,009;-0,046;-0,056;-1,092;1,377
"*Tx_Erm_14_15";-0,009;-0,046;-0,056;0,189;-0,071
"*Tx_Erm_14_10";-0,014;-0,069;-0,084;1,293;-0,835
"*Tx_Erm_14_13";-0,009;-0,046;-0,056;-1,092;1,377
"*Tx_1Ko_16_20";-0,005;-0,023;-0,028;1,833;-1,454
"*Tx_Kol_3_16";-0,009;-0,046;-0,056;-1,092;1,377
"*Tx_Kol_3_11";-0,009;-0,046;-0,056;-1,092;1,377
"*Tx_Kol_3_13";-0,009;-0,046;-0,056;0,189;-0,071
"*Tx_1Ko_7_26";-0,009;-0,046;-0,056;0,189;-0,071
"*Tx_1Ko_7_25";-0,009;-0,046;-0,056;0,189;-0,071
"*Tx_Flp_1_29-30";-0,009;-0,046;-0,056;0,189;-0,071
"*L_Efesoarrei";-0,679;-0,405;-0,147;-4,935;6,732
"*Tx_Flp_2_9-10-11";-0,009;-0,046;-0,056;-1,092;1,377
"*Tx_Erm_15_18-19";-0,009;-0,046;-0,056;-1,092;1,377
"*Tx_Erm_5_15";-0,009;-0,046;-0,056;-1,092;1,377
"*Tx_Erm_9_22-23";-0,009;-0,046;-0,056;-1,092;1,377
"*K_Kol_3";-0,119;-0,584;0,155;-4,124;4,509
"*Tx_Kol_4_12";-0,009;-0,046;-0,056;3,668;-2,909
"*Tx_2Ts_1_6-7-8";-0,009;-0,046;-0,056;-1,092;1,377
"*Tx_Ef_3_8-9-10";-0,014;-0,069;-0,084;-0,005;0,069
"*Tx_Ef_1_20-21";-0,009;-0,046;-0,056;-1,092;1,377
"*Tx_Ga_4_7";-0,009;-0,046;-0,056;-1,092;1,377
"*Tx_Erm_10_8";-0,009;-0,046;-0,056;-1,092;1,377
"*Tx_Erm_10_6";-0,014;-0,069;-0,084;-1,639;2,067
"*Tx_Erm_10_5";-0,009;-0,046;-0,056;-1,092;1,377
"*Tx_Erm_1_17";-0,009;-0,046;-0,056;-1,092;1,377
"*Tx_Ga_6_7";105,319;-0,046;-0,056;-1,092;-0,071
"*Tx_Ga_6_9";-0,005;-0,023;-0,028;1,833;-1,454
"*Tx_Ga_6_8";425,271;-0,046;-0,056;-1,092;-2,909
"*Tx_1Tm_2_9-10";-0,009;-0,046;-0,056;3,668;-2,909
"*Tx_2Ts_1_11-12";-0,009;-0,046;-0,056;-1,092;1,377
"*Tx_Ga_2_6";-0,005;-0,023;-0,028;-0,546;0,688
"*Tx_Ga_2_2";-0,009;-0,046;-0,056;-1,092;1,377
"*Tx_Ef_4_8";-0,005;-0,023;-0,028;-0,546;0,688
"*Tx_Erm_14_6";-0,014;-0,069;-0,084;-0,005;0,069
"*Tx_Erm_14_4";-0,014;-0,069;-0,084;-1,639;2,067
"*Tx_Erm_14_5";-0,014;-0,069;-0,084;1,293;-0,835
"*Tx_Erm_14_2";-0,009;86,678;-0,056;-1,092;-2,909
"*Tx_1Tm_5_13";-0,009;-0,046;-0,056;3,668;-2,909
"*Tx_Erm_8_15";-0,009;-0,046;-0,056;0,189;-0,071
"*Tx_Erm_8_17";-0,009;-0,046;-0,056;-1,092;1,377
"*Tx_1Tm_5_18";-0,005;-0,023;-0,028;1,833;-1,454
"*Tx_Erm_14_8";-0,014;-0,069;-0,084;-1,639;2,067
"*Tx_Ga_6_15";-0,009;-0,046;-0,056;-1,092;1,377
"*Tx_Flp_2_27";-0,009;-0,046;-0,056;0,189;-0,071
"*Tx_1Ts_2_15-16";-0,009;-0,046;-0,056;-1,092;1,377
"*Tx_Kol_1_18";-0,009;-0,046;-0,056;0,189;-0,071
"*Tx_2Ko_8_18-19";-0,009;-0,046;-0,056;0,189;-0,071
"*Tx_Ga_6_13";-0,009;-0,046;-0,056;-1,092;1,377
"*Tx_1Ko_15_52";-0,009;-0,046;-0,056;-1,092;1,377
"*Tx_1Ko_15_56";-0,009;-0,046;-0,056;-1,092;1,377
"*Tx_Kol_1_16";-0,009;-0,046;-0,056;-1,092;1,377
"*Tx_1Ko_15_54";-0,009;-0,046;-0,056;-1,092;1,377
"*Tx_1Ko_15_55";-0,009;-0,046;-0,056;-1,092;1,377
"*Tx_Erm_14_20";-0,014;-0,069;-0,084;-0,005;0,069
"*Tx_Erm_14_23";-0,009;-0,046;-0,056;-1,092;1,377
"*Tx_Erm_14_22";-0,009;-0,046;-0,056;-1,092;1,377
"*Tx_Tt_3_4-5-6";-0,009;-0,046;-0,056;-1,092;1,377
"*Tx_Erm_11_16";-0,005;-0,023;-0,028;1,833;-1,454
"*Tx_Erm_11_11";-0,009;-0,046;16,872;0,189;-2,909
"*Tx_Ga_4_15";-0,005;-0,023;-0,028;1,833;-1,454
"*Tx_Ga_4_14";-0,009;-0,046;-0,056;-1,092;1,377
"*Tx_Ga_4_13";-0,005;-0,023;-0,028;-0,546;0,688
"*Tx_Ga_4_12";-0,005;-0,023;-0,028;1,833;-1,454
"*Tx_Erm_9_27";-0,009;-0,046;-0,056;-1,092;1,377
"*L_Tesalonikarrei1";-0,435;-2,136;-0,896;14,051;-7,832
"*L_Tesalonikarrei2";-0,226;0,868;-0,065;-0,034;0,002
"*K_Ga_6";78,77;-0,536;-0,651;-0,241;-0,071
"*K_Ga_4";-0,153;-0,749;0,02;-0,012;0,143
"*K_Ga_5";-0,138;-0,678;6,429;-4,195;2,11
"*K_1Ts_3";-0,062;-0,302;-0,366;6,587;-4,389
"*K_Ga_3";-0,201;-0,988;-0,019;-17,468;20,013
"*K_1Ts_1";-0,043;-0,209;-0,253;0,33;-0,051
"*K_Ga_1";-0,119;-0,584;-0,708;0,244;0,006
"*Tx_Erm_11_3";-0,009;-0,046;-0,056;-1,092;1,377
"*K_2Ko_11";-0,192;0,011;-0,008;0,392;-0,303
"*K_2Ko_10";-0,105;-0,513;-0,622;-0,628;1,673
"*Tx_2Ts_3_8";-0,009;20,68;-0,056;0,189;-2,909
"*K_2Ko_12";-0,148;0,134;5,726;2,353;-5,485
"*Tx_2Tm_1_9-10";-0,009;-0,046;-0,056;-1,092;1,377
"*Tx_1Ko_8_8";-0,014;56,482;-0,084;-1,639;-0,835
"*Tx_Ef_1_13-14";-0,009;-0,046;-0,056;-1,092;1,377
"*Tx_Flp_3_5";-0,009;-0,046;-0,056;-1,092;1,377
"*Tx_2Ko_12_19";-0,014;-0,069;-0,084;1,293;-0,835
"*Tx_Flp_3_6";-0,009;-0,046;-0,056;0,189;-0,071
"*Tx_2Ko_12_14";-0,014;-0,069;-0,084;1,293;-0,835
"*Tx_2Ko_12_16";-0,009;-0,046;-0,056;3,668;-2,909
"*Tx_Erm_11_4";-0,009;-0,046;-0,056;-1,092;1,377
"*Tx_2Ko_12_10";-0,009;20,68;-0,056;0,189;-2,909
"*Tx_2Ts_3_10";-0,005;43,32;-0,028;-0,546;-1,454
"*L_Timoteori1";-0,543;-0,101;3,241;10,908;-13,035
"*L_Timoteori2";-0,461;-2,261;8,231;5,671;-7,388
"*Tx_2Ts_3_16";-0,009;-0,046;-0,056;-1,092;1,377
"*Tx_2Ts_3_17";-0,009;-0,046;-0,056;3,668;-2,909
"*Tx_Erm_16_25-26-27";-0,009;-0,046;-0,056;-1,092;1,377
"*Tx_Erm_6_13";-0,009;-0,046;-0,056;-1,092;1,377
"*Tx_Erm_6_10";-0,009;-0,046;-0,056;-1,092;1,377
"*Tx_Erm_8_3-4";-0,009;-0,046;-0,056;-1,092;1,377
"*Tx_Erm_6_19";-0,009;-0,046;-0,056;-1,092;1,377
"*Tx_2Ko_10_12";-0,009;-0,046;-0,056;0,189;-0,071
"*Tx_2Ko_10_13";-0,009;-0,046;-0,056;-1,092;1,377
"*Tx_2Ko_10_10";-0,009;-0,046;-0,056;0,189;-0,071
"*Tx_1Ko_14_34";-0,009;-0,046;-0,056;0,189;-0,071
"*Tx_2Ko_10_14";-0,009;-0,046;-0,056;-1,092;1,377
"*Tx_Erm_16_18";-0,009;-0,046;-0,056;-1,092;1,377
"*Tx_Erm_16_19";-0,009;-0,046;-0,056;0,189;-0,071
"*Tx_Erm_16_12";-0,009;-0,046;-0,056;3,668;-2,909
"*Tx_Erm_16_10";-0,009;-0,046;-0,056;3,668;-2,909
"*Tx_Erm_16_16";-0,005;-0,023;-0,028;1,833;-1,454
"*Tx_2Ko_9_9";-0,009;-0,046;-0,056;-1,092;1,377
"*Tx_Flp_3_19";-0,009;-0,046;-0,056;-1,092;1,377
"*Tx_Flp_3_15";-0,005;-0,023;-0,028;-0,546;0,688
"*Tx_Flp_3_13";-0,009;-0,046;-0,056;0,189;-0,071
"*Tx_Flp_3_12";-0,009;-0,046;16,872;-1,092;-0,071
