"";"Valeurs propres";"Pourcentages";"Pourcentage cumules"
"facteur 1";0,348525657969821;14,5662297415535;14,5662297415535
"facteur 2";0,32774924688936;13,6979034933059;28,2641332348593
"facteur 3";0,293478798881197;12,2656094638199;40,5297426986792
"facteur 4";0,269469076822909;11,2621506953347;51,7918933940139
"facteur 5";0,257527622915893;10,7630713389654;62,5549647329793
"facteur 6";0,254358806806816;10,6306343077224;73,1855990407017
"facteur 7";0,230447391883369;9,63128417307404;82,8168832137757
"facteur 8";0,216668742164029;9,05542132696567;91,8723045407414
"facteur 9";0,194471078513576;8,1276954592586;100
