"V1";"V2";"V3";"V4";"V5";"V6"
"***";"nb classes";"10";"***";"";""
"**";"classe";"1";"**";"";""
"****";"40";"2502";"1.6";"****";""
"36";"6468";"0.56";"-29.10";"ver";"6.869634e-08"
" 0";"1003";"0.00";"-12.61";"pre";"3.832890e-04"
" 6";"1726";"0.35";"-11.24";"adv";"8.024961e-04"
" 1";" 417";"0.24";" -3.29";"adv_sup";"6.988457e-02"
"23";"2544";"0.90";" -2.05";"aux";"1.524496e-01"
"**";"classe";"2";"**";"";""
"****";"69";"2502";"2.76";"****";""
"17";"1340";"1.27";"-4.38";"pro";"0.03631822"
"13";"1003";"1.30";"-3.02";"pre";"0.08226137"
" 4";" 417";"0.96";"-2.55";"adv_sup";"0.11040015"
"**";"classe";"3";"**";"";""
"****";"504";"2502";"20.14";"****";""
"210";"1340";"15.67";"-14.43";"pro";"0.0001453452"
"309";"1726";"17.90";" -3.76";"adv";"0.0525845077"
"**";"classe";"4";"**";"";""
"****";"40";"2502";"1.6";"****";""
"69";"6468";"1.07";"-4.78";"ver";"0.02872886"
" 1";" 417";"0.24";"-3.88";"adv_sup";"0.04877252"
"**";"classe";"5";"**";"";""
"****";"28";"2502";"1.12";"****";""
"53";"8121";"0.65";"-6.76";"nom";"0.009325174"
"**";"classe";"6";"**";"";""
"****";"87";"2502";"3.48";"****";""
"234";"8121";"2.88";"-9.66";"nom";"0.001885278"
" 26";"1003";"2.59";"-2.12";"pre";"0.145789634"
"**";"classe";"7";"**";"";""
"****";"34";"2502";"1.36";"****";""
"48";"6468";"0.74";"-13.63";"ver";"0.0002224876"
" 5";"1340";"0.37";" -7.82";"pro";"0.0051643502"
"16";"2328";"0.69";" -5.24";"art_def";"0.0220847235"
"11";"1726";"0.64";" -4.61";"adv";"0.0317776593"
"**";"classe";"8";"**";"";""
"****";"849";"2502";"33.93";"****";""
"277";"1003";"27.62";"-31.92";"pre";"1.605668e-08"
"663";"1990";"33.32";" -6.83";"nr";"8.945119e-03"
"589";"1726";"34.13";" -2.89";"adv";"8.898369e-02"
"880";"2544";"34.59";" -2.51";"aux";"1.131887e-01"
"**";"classe";"9";"**";"";""
"****";"256";"2502";"10.23";"****";""
" 19";" 417";"4.56";"-13.62";"adv_sup";"0.0002238573"
"593";"6468";"9.17";" -5.27";"ver";"0.0216824999"
"115";"1340";"8.58";" -2.81";"pro";"0.0935720769"
"**";"classe";"10";"**";"";""
"****";"595";"2502";"23.78";"****";""
"1765";"8121";"21.73";"-39.88";"nom";"2.696749e-10"
" 539";"2544";"21.19";"-14.50";"aux";"1.403421e-04"
" 453";"1990";"22.76";" -2.66";"nr";"1.027533e-01"
