"";"V1"
"1";11
"2";11
"3";11
"4";11
"5";11
"6";11
"7";11
"8";11
"9";11
"10";11
"11";11
"12";11
"13";11
"14";11
"15";11
"16";11
"17";11
"18";11
"19";11
"20";11
"21";11
"22";11
"23";11
"24";11
"25";11
"26";11
"27";11
"28";11
"29";7
"30";11
"31";11
"32";11
"33";11
"34";11
"35";11
"36";11
"37";7
"38";7
"39";7
"40";7
"41";11
"42";11
"43";11
"44";7
"45";11
"46";11
"47";11
"48";11
"49";7
"50";7
"51";7
"52";7
"53";11
"54";11
"55";7
"56";11
"57";11
"58";11
"59";11
"60";11
"61";7
"62";11
"63";11
"64";7
"65";11
"66";11
"67";11
"68";11
"69";11
"70";7
"71";11
"72";11
"73";11
"74";11
"75";11
"76";11
"77";11
"78";11
"79";11
"80";11
"81";11
"82";11
"83";11
"84";11
"85";11
"86";11
"87";7
"88";11
"89";11
"90";11
"91";11
"92";11
"93";11
"94";7
"95";7
"96";11
"97";11
"98";11
"99";11
"100";11
"101";7
"102";11
"103";11
"104";11
"105";11
"106";11
"107";11
"108";11
"109";11
"110";11
"111";11
"112";7
"113";7
"114";11
"115";11
"116";11
"117";11
"118";11
"119";11
"120";11
"121";11
"122";7
"123";11
"124";11
"125";11
"126";11
"127";7
"128";11
"129";11
"130";11
"131";11
"132";11
"133";11
"134";11
"135";7
"136";11
"137";11
"138";11
"139";7
"140";11
"141";11
"142";7
"143";11
"144";11
"145";11
"146";7
"147";11
"148";7
"149";11
"150";11
"151";11
"152";11
"153";11
"154";11
"155";11
"156";7
"157";6
"158";11
"159";11
"160";11
"161";11
"162";11
"163";11
"164";11
"165";11
"166";11
"167";11
"168";11
"169";7
"170";11
"171";11
"172";11
"173";11
"174";11
"175";11
"176";7
"177";11
"178";7
"179";11
"180";11
"181";7
"182";11
"183";11
"184";11
"185";11
"186";11
"187";11
"188";11
"189";7
"190";11
"191";11
"192";11
"193";7
"194";11
"195";11
"196";11
"197";11
"198";11
"199";11
"200";11
"201";11
"202";11
"203";11
"204";11
"205";11
"206";11
"207";11
"208";11
"209";8
"210";7
"211";11
"212";11
"213";11
"214";11
"215";11
"216";11
"217";11
"218";11
"219";11
"220";7
"221";7
"222";11
"223";7
"224";11
"225";11
"226";11
"227";11
"228";11
"229";11
"230";11
"231";11
"232";11
"233";11
"234";11
"235";11
"236";11
"237";11
"238";7
"239";11
"240";11
"241";11
"242";11
"243";11
"244";11
"245";11
"246";7
"247";11
"248";11
"249";11
"250";11
"251";11
"252";11
"253";11
"254";11
"255";11
"256";11
"257";11
"258";11
"259";11
"260";11
"261";11
"262";11
"263";11
"264";11
"265";11
"266";11
"267";11
"268";11
"269";11
"270";7
"271";11
"272";11
"273";11
"274";11
"275";11
"276";7
"277";11
"278";11
"279";11
"280";11
"281";11
"282";11
"283";11
"284";11
"285";7
"286";11
"287";7
"288";11
"289";7
"290";11
"291";11
"292";11
"293";11
"294";11
"295";11
"296";7
"297";11
"298";11
"299";7
"300";11
"301";11
"302";11
"303";11
"304";11
"305";11
"306";11
"307";7
"308";11
"309";11
"310";11
"311";11
"312";11
"313";11
"314";7
"315";11
"316";11
"317";11
"318";11
"319";11
"320";11
"321";11
"322";11
"323";11
"324";11
"325";11
"326";11
"327";11
"328";7
"329";11
"330";11
"331";11
"332";11
"333";11
"334";11
"335";7
"336";11
"337";11
"338";11
"339";11
"340";11
"341";11
"342";11
"343";11
"344";11
"345";7
"346";11
"347";11
"348";7
"349";11
"350";11
"351";11
"352";11
"353";11
"354";11
"355";11
"356";7
"357";11
"358";11
"359";11
"360";11
"361";11
"362";11
"363";11
"364";11
"365";11
"366";11
"367";7
"368";11
"369";11
"370";11
"371";11
"372";11
"373";11
"374";7
"375";11
"376";11
"377";11
"378";11
"379";11
"380";11
"381";11
"382";11
"383";11
"384";11
"385";11
"386";7
"387";11
"388";11
"389";11
"390";11
"391";11
"392";11
"393";11
"394";11
"395";11
"396";7
"397";11
"398";11
"399";11
"400";11
"401";11
"402";11
"403";11
"404";11
"405";11
"406";11
"407";11
"408";11
"409";11
"410";7
"411";11
"412";11
"413";11
"414";11
"415";11
"416";11
"417";11
"418";11
"419";11
"420";7
"421";11
"422";11
"423";11
"424";11
"425";11
"426";11
"427";11
"428";11
"429";7
"430";11
"431";11
"432";11
"433";11
"434";11
"435";7
"436";11
"437";11
"438";11
"439";11
"440";11
"441";7
"442";11
"443";11
"444";11
"445";11
"446";11
"447";11
"448";11
"449";11
"450";11
"451";11
"452";11
"453";11
"454";11
"455";7
"456";11
"457";11
"458";11
"459";11
"460";11
"461";11
"462";7
"463";11
"464";7
"465";11
"466";11
"467";11
"468";7
"469";11
"470";11
"471";11
"472";11
"473";7
"474";11
"475";11
"476";11
"477";11
"478";11
"479";7
"480";11
"481";11
"482";11
"483";11
"484";11
"485";11
"486";11
"487";11
"488";7
"489";11
"490";11
"491";11
"492";11
"493";11
"494";11
"495";7
"496";11
"497";11
"498";11
"499";11
"500";11
"501";11
"502";11
"503";11
"504";7
"505";11
"506";11
"507";11
"508";11
"509";11
"510";11
"511";11
"512";11
"513";11
"514";11
"515";11
"516";11
"517";11
"518";7
"519";11
"520";11
"521";11
"522";11
"523";11
"524";11
"525";11
"526";11
"527";11
"528";7
"529";11
"530";11
"531";11
"532";11
"533";11
"534";11
"535";11
"536";11
"537";7
"538";11
"539";7
"540";11
"541";11
"542";11
"543";11
"544";11
"545";11
"546";7
"547";7
"548";11
"549";11
"550";11
"551";11
"552";11
"553";11
"554";11
"555";11
"556";11
"557";7
"558";7
"559";7
"560";11
"561";11
"562";11
"563";11
"564";7
"565";11
"566";11
"567";7
"568";11
"569";7
"570";11
"571";7
"572";11
"573";11
"574";11
"575";11
"576";7
"577";11
"578";11
"579";11
"580";7
"581";11
"582";7
"583";11
"584";11
"585";11
"586";11
"587";7
"588";11
"589";11
"590";11
"591";7
"592";11
"593";11
"594";11
"595";11
"596";11
"597";11
"598";7
"599";11
"600";7
"601";11
"602";11
"603";11
"604";11
"605";7
"606";11
"607";7
"608";11
"609";11
"610";11
"611";11
"612";11
"613";11
"614";7
"615";11
"616";7
"617";11
"618";11
"619";7
"620";11
"621";11
"622";11
"623";7
"624";11
"625";11
"626";11
"627";7
"628";11
"629";11
"630";11
"631";7
"632";11
"633";11
"634";7
"635";11
"636";7
"637";7
"638";11
"639";11
"640";0
"641";11
"642";11
"643";7
"644";11
"645";11
"646";7
"647";11
"648";7
"649";11
"650";11
"651";11
"652";11
"653";7
"654";7
"655";11
"656";7
"657";7
"658";11
"659";11
"660";0
"661";11
"662";11
"663";7
"664";7
"665";11
"666";7
"667";11
"668";11
"669";11
"670";7
"671";11
"672";11
"673";11
"674";11
"675";11
"676";11
"677";7
"678";7
"679";7
"680";7
"681";7
"682";11
"683";7
"684";11
"685";11
"686";11
"687";7
"688";11
"689";11
"690";11
"691";11
"692";11
"693";11
"694";7
"695";7
"696";7
"697";7
"698";11
"699";11
"700";11
"701";11
"702";11
"703";11
"704";11
"705";11
"706";11
"707";7
"708";11
"709";7
"710";11
"711";11
"712";7
"713";11
"714";11
"715";11
"716";7
"717";11
"718";11
"719";11
"720";11
"721";11
"722";11
"723";11
"724";11
"725";11
"726";11
"727";11
"728";11
"729";7
"730";11
"731";11
"732";11
"733";11
"734";7
"735";11
"736";11
"737";11
"738";11
"739";11
"740";11
"741";11
"742";11
"743";11
"744";7
"745";11
"746";11
"747";11
"748";11
"749";7
"750";11
"751";11
"752";11
"753";11
"754";11
"755";11
"756";11
"757";11
"758";11
"759";7
"760";11
"761";11
"762";11
"763";11
"764";7
"765";11
"766";11
"767";11
"768";11
"769";11
"770";7
"771";11
"772";11
"773";11
"774";11
"775";11
"776";11
"777";11
"778";11
"779";11
"780";7
"781";11
"782";11
"783";11
"784";11
"785";11
"786";11
"787";11
"788";11
"789";7
"790";11
"791";11
"792";11
"793";11
"794";11
"795";11
"796";11
"797";11
"798";11
"799";7
"800";11
"801";11
"802";11
"803";11
"804";7
"805";11
"806";7
"807";11
"808";11
"809";11
"810";11
"811";11
"812";11
"813";11
"814";11
"815";11
"816";11
"817";11
"818";11
"819";11
"820";11
"821";11
"822";11
"823";11
"824";11
"825";11
"826";11
"827";11
"828";11
"829";7
"830";7
"831";11
"832";11
"833";11
"834";11
"835";11
"836";11
"837";11
"838";11
"839";11
"840";11
"841";11
"842";11
"843";11
"844";11
"845";11
"846";11
"847";11
"848";11
"849";11
"850";7
"851";11
"852";11
"853";11
"854";7
"855";11
"856";11
"857";11
"858";11
"859";7
"860";11
"861";11
"862";11
"863";11
"864";7
"865";7
"866";11
"867";11
"868";11
"869";7
"870";11
"871";11
"872";11
"873";11
"874";11
"875";11
"876";11
"877";11
"878";11
"879";11
"880";11
"881";11
"882";11
"883";11
"884";11
"885";11
"886";11
"887";11
"888";11
"889";7
"890";11
"891";11
"892";11
"893";11
"894";11
"895";11
"896";11
"897";11
"898";11
"899";11
"900";11
"901";11
"902";11
"903";11
"904";11
"905";11
"906";11
"907";11
"908";11
"909";11
"910";11
"911";11
"912";11
"913";11
"914";11
"915";7
"916";11
"917";7
"918";11
"919";7
"920";11
"921";11
"922";11
"923";7
"924";11
"925";11
"926";11
"927";11
"928";11
"929";7
"930";11
"931";11
"932";7
"933";11
"934";11
"935";7
"936";11
"937";11
"938";11
"939";11
"940";11
"941";7
"942";11
"943";7
"944";7
"945";11
"946";11
"947";11
"948";11
"949";11
"950";11
"951";11
"952";7
"953";7
"954";11
"955";11
"956";11
"957";11
"958";11
"959";11
"960";11
"961";11
"962";11
"963";11
"964";11
"965";7
"966";11
"967";11
"968";11
"969";11
"970";11
"971";11
"972";11
"973";7
"974";11
"975";11
"976";11
"977";11
"978";11
"979";11
"980";11
"981";11
"982";7
"983";11
"984";7
"985";11
"986";11
"987";11
"988";11
"989";11
"990";11
"991";11
"992";11
"993";11
"994";11
"995";11
"996";7
"997";11
"998";11
"999";11
"1000";11
"1001";11
"1002";11
"1003";11
"1004";11
"1005";11
"1006";11
"1007";11
"1008";7
"1009";11
"1010";11
"1011";11
"1012";11
"1013";11
"1014";11
"1015";11
"1016";11
"1017";11
"1018";7
"1019";11
"1020";11
"1021";11
"1022";11
"1023";11
"1024";11
"1025";11
"1026";11
"1027";7
"1028";7
"1029";7
"1030";11
"1031";11
"1032";11
"1033";11
"1034";11
"1035";11
"1036";7
"1037";11
"1038";11
"1039";11
"1040";11
"1041";11
"1042";11
"1043";11
"1044";11
"1045";11
"1046";7
"1047";11
"1048";11
"1049";11
"1050";11
"1051";11
"1052";11
"1053";7
"1054";11
"1055";7
"1056";11
"1057";11
"1058";11
"1059";11
"1060";7
"1061";11
"1062";11
"1063";11
"1064";7
"1065";11
"1066";7
"1067";7
"1068";11
"1069";11
"1070";11
"1071";11
"1072";7
"1073";11
"1074";11
"1075";11
"1076";11
"1077";11
"1078";11
"1079";11
"1080";7
"1081";11
"1082";11
"1083";11
"1084";11
"1085";11
"1086";11
"1087";11
"1088";11
"1089";11
"1090";11
"1091";11
"1092";11
"1093";7
"1094";11
"1095";7
"1096";11
"1097";11
"1098";11
"1099";11
"1100";11
"1101";11
"1102";11
"1103";11
"1104";11
"1105";11
"1106";11
"1107";11
"1108";11
"1109";11
"1110";7
"1111";11
"1112";11
"1113";11
"1114";11
"1115";11
"1116";11
"1117";11
"1118";11
"1119";11
"1120";11
"1121";11
"1122";11
"1123";11
"1124";11
"1125";11
"1126";11
"1127";7
"1128";11
"1129";11
"1130";11
"1131";11
"1132";11
"1133";11
"1134";11
"1135";11
"1136";11
"1137";11
"1138";11
"1139";11
"1140";11
"1141";7
"1142";11
"1143";11
"1144";11
"1145";11
"1146";11
"1147";11
"1148";11
"1149";11
"1150";11
"1151";7
"1152";11
"1153";11
"1154";11
"1155";11
"1156";11
"1157";11
"1158";11
"1159";7
"1160";11
"1161";11
"1162";11
"1163";11
"1164";11
"1165";11
"1166";11
"1167";11
"1168";11
"1169";11
"1170";11
"1171";11
"1172";11
"1173";11
"1174";11
"1175";11
"1176";11
"1177";11
"1178";7
"1179";11
"1180";11
"1181";11
"1182";11
"1183";11
"1184";11
"1185";11
"1186";11
"1187";11
"1188";11
"1189";0
"1190";11
"1191";11
"1192";11
"1193";11
"1194";11
"1195";11
"1196";11
"1197";11
"1198";11
"1199";11
"1200";11
"1201";11
"1202";11
"1203";11
"1204";11
"1205";7
"1206";11
"1207";7
"1208";11
"1209";7
"1210";11
"1211";11
"1212";11
"1213";11
"1214";11
"1215";11
"1216";11
"1217";11
"1218";11
"1219";11
"1220";11
"1221";11
"1222";11
"1223";11
"1224";11
"1225";11
"1226";11
"1227";11
"1228";11
"1229";11
"1230";11
"1231";11
"1232";11
"1233";11
"1234";11
"1235";11
"1236";11
"1237";11
"1238";11
"1239";11
"1240";11
"1241";7
"1242";11
"1243";11
"1244";11
"1245";11
"1246";11
"1247";11
"1248";11
"1249";11
"1250";11
"1251";11
"1252";11
"1253";11
"1254";11
"1255";11
"1256";11
"1257";11
"1258";11
"1259";11
"1260";11
"1261";11
"1262";11
"1263";11
"1264";11
"1265";11
"1266";11
"1267";11
"1268";11
"1269";11
"1270";11
"1271";11
"1272";7
"1273";11
"1274";11
"1275";11
"1276";11
"1277";11
"1278";11
"1279";11
"1280";11
"1281";11
"1282";11
"1283";7
"1284";11
"1285";11
"1286";11
"1287";11
"1288";11
"1289";11
"1290";11
"1291";11
"1292";11
"1293";11
"1294";7
"1295";11
"1296";11
"1297";11
"1298";11
"1299";11
"1300";11
"1301";11
"1302";11
"1303";11
"1304";11
"1305";9
"1306";11
"1307";11
"1308";11
"1309";11
"1310";11
"1311";11
"1312";11
"1313";11
"1314";11
"1315";11
"1316";11
"1317";11
"1318";9
"1319";11
"1320";11
"1321";11
"1322";11
"1323";11
"1324";11
"1325";11
"1326";11
"1327";11
"1328";11
"1329";11
"1330";7
"1331";11
"1332";11
"1333";11
"1334";11
"1335";11
"1336";11
"1337";11
"1338";9
"1339";11
"1340";11
"1341";11
"1342";11
"1343";11
"1344";11
"1345";11
"1346";11
"1347";7
"1348";11
"1349";11
"1350";11
"1351";11
"1352";11
"1353";11
"1354";7
"1355";11
"1356";11
"1357";11
"1358";11
"1359";11
"1360";11
"1361";7
"1362";11
"1363";11
"1364";11
"1365";11
"1366";7
"1367";11
"1368";11
"1369";11
"1370";7
"1371";11
"1372";11
"1373";11
"1374";11
"1375";7
"1376";11
"1377";11
"1378";11
"1379";7
"1380";11
"1381";11
"1382";11
"1383";11
"1384";7
"1385";11
"1386";11
"1387";11
"1388";11
"1389";11
"1390";11
"1391";11
"1392";11
"1393";11
"1394";11
"1395";11
"1396";7
"1397";11
"1398";11
"1399";7
"1400";11
"1401";11
"1402";11
"1403";7
"1404";11
"1405";11
"1406";7
"1407";11
"1408";11
"1409";11
"1410";11
"1411";11
"1412";11
"1413";11
"1414";11
"1415";7
"1416";11
"1417";11
"1418";7
"1419";11
"1420";11
"1421";11
"1422";7
"1423";11
"1424";11
"1425";11
"1426";11
"1427";11
"1428";11
"1429";11
"1430";11
"1431";7
"1432";11
"1433";11
"1434";7
"1435";11
"1436";11
"1437";11
"1438";11
"1439";11
"1440";11
"1441";11
"1442";11
"1443";11
"1444";11
"1445";11
"1446";11
"1447";11
"1448";11
"1449";7
"1450";11
"1451";11
"1452";7
"1453";11
"1454";11
"1455";11
"1456";11
"1457";11
"1458";11
"1459";11
"1460";11
"1461";11
"1462";7
"1463";7
"1464";11
"1465";11
"1466";11
"1467";11
"1468";11
"1469";7
"1470";11
"1471";11
"1472";11
"1473";11
"1474";11
"1475";11
"1476";7
"1477";11
"1478";11
"1479";11
"1480";11
"1481";11
"1482";11
"1483";11
"1484";11
"1485";11
"1486";7
"1487";11
"1488";7
"1489";11
"1490";11
"1491";11
"1492";11
"1493";11
"1494";11
"1495";11
"1496";11
"1497";7
"1498";7
"1499";11
"1500";11
"1501";11
"1502";11
"1503";11
"1504";11
"1505";11
"1506";11
"1507";11
"1508";11
"1509";7
"1510";11
"1511";11
"1512";11
"1513";11
"1514";11
"1515";11
"1516";11
"1517";11
"1518";11
"1519";11
"1520";11
"1521";7
"1522";11
"1523";11
"1524";11
"1525";11
"1526";11
"1527";11
"1528";11
"1529";11
"1530";11
"1531";11
"1532";11
"1533";11
"1534";11
"1535";11
"1536";11
"1537";11
"1538";11
"1539";11
"1540";7
"1541";11
"1542";11
"1543";11
"1544";11
"1545";7
"1546";11
"1547";11
"1548";11
"1549";11
"1550";11
"1551";11
"1552";11
"1553";11
"1554";11
"1555";7
"1556";11
"1557";11
"1558";11
"1559";11
"1560";11
"1561";0
"1562";7
"1563";11
"1564";11
"1565";11
"1566";11
"1567";11
"1568";11
"1569";7
"1570";11
"1571";11
"1572";11
"1573";11
"1574";11
"1575";11
"1576";11
"1577";11
"1578";11
"1579";11
"1580";11
"1581";11
"1582";11
"1583";11
"1584";7
"1585";11
"1586";11
"1587";7
"1588";11
"1589";11
"1590";7
"1591";11
"1592";11
"1593";11
"1594";11
"1595";7
"1596";11
"1597";11
"1598";11
"1599";7
"1600";11
"1601";11
"1602";11
"1603";11
"1604";11
"1605";11
"1606";11
"1607";11
"1608";11
"1609";11
"1610";10
"1611";7
"1612";11
"1613";11
"1614";11
"1615";11
"1616";11
"1617";11
"1618";7
"1619";11
"1620";7
"1621";11
"1622";11
"1623";11
"1624";7
"1625";7
"1626";11
"1627";11
"1628";11
"1629";10
"1630";11
"1631";11
"1632";4
"1633";7
"1634";7
"1635";11
"1636";11
"1637";11
"1638";10
"1639";11
"1640";11
"1641";4
"1642";7
"1643";11
"1644";11
"1645";11
"1646";11
"1647";7
"1648";11
"1649";11
"1650";11
"1651";11
"1652";7
"1653";11
"1654";11
"1655";11
"1656";11
"1657";11
"1658";11
"1659";11
"1660";11
"1661";11
"1662";11
"1663";11
"1664";11
"1665";7
"1666";11
"1667";11
"1668";11
"1669";11
"1670";11
"1671";11
"1672";7
"1673";7
"1674";11
"1675";7
"1676";11
"1677";11
"1678";11
"1679";11
"1680";11
"1681";7
"1682";7
"1683";11
"1684";7
"1685";11
"1686";11
"1687";11
"1688";11
"1689";11
"1690";11
"1691";11
"1692";11
"1693";11
"1694";7
"1695";11
"1696";11
"1697";11
"1698";11
"1699";11
"1700";11
"1701";11
"1702";11
"1703";11
"1704";7
"1705";11
"1706";11
"1707";11
"1708";11
"1709";11
"1710";11
"1711";11
"1712";11
"1713";11
"1714";11
"1715";11
"1716";11
"1717";11
"1718";7
"1719";11
"1720";11
"1721";11
"1722";7
"1723";11
"1724";11
"1725";11
"1726";11
"1727";11
"1728";11
"1729";11
"1730";11
"1731";11
"1732";11
"1733";11
"1734";11
"1735";11
"1736";11
"1737";11
"1738";11
"1739";11
"1740";11
"1741";11
"1742";11
"1743";7
"1744";11
"1745";11
"1746";11
"1747";11
"1748";11
"1749";11
"1750";11
"1751";11
"1752";11
"1753";11
"1754";11
"1755";11
"1756";7
"1757";11
"1758";11
"1759";11
"1760";11
"1761";11
"1762";11
"1763";11
"1764";11
"1765";11
"1766";11
"1767";11
"1768";11
"1769";11
"1770";11
"1771";11
"1772";7
"1773";11
"1774";11
"1775";11
"1776";11
"1777";11
"1778";11
"1779";11
"1780";11
"1781";11
"1782";11
"1783";11
"1784";11
"1785";7
"1786";11
"1787";11
"1788";11
"1789";11
"1790";11
"1791";7
"1792";11
"1793";7
"1794";11
"1795";11
"1796";11
"1797";7
"1798";11
"1799";11
"1800";11
"1801";11
"1802";11
"1803";11
"1804";11
"1805";11
"1806";7
"1807";11
"1808";11
"1809";11
"1810";11
"1811";11
"1812";11
"1813";11
"1814";11
"1815";11
"1816";11
"1817";7
"1818";11
"1819";11
"1820";11
"1821";11
"1822";11
"1823";7
"1824";11
"1825";11
"1826";11
"1827";11
"1828";11
"1829";7
"1830";11
"1831";11
"1832";11
"1833";11
"1834";11
"1835";11
"1836";11
"1837";11
"1838";11
"1839";11
"1840";7
"1841";7
"1842";11
"1843";7
"1844";11
"1845";7
"1846";11
"1847";11
"1848";11
"1849";7
"1850";11
"1851";11
"1852";11
"1853";11
"1854";11
"1855";11
"1856";11
"1857";11
"1858";4
"1859";7
"1860";11
"1861";11
"1862";11
"1863";11
"1864";7
"1865";11
"1866";11
"1867";11
"1868";7
"1869";11
"1870";11
"1871";11
"1872";11
"1873";11
"1874";7
"1875";11
"1876";11
"1877";11
"1878";11
"1879";11
"1880";11
"1881";11
"1882";11
"1883";11
"1884";11
"1885";11
"1886";11
"1887";11
"1888";11
"1889";7
"1890";11
"1891";11
"1892";11
"1893";11
"1894";11
"1895";7
"1896";7
"1897";11
"1898";11
"1899";11
"1900";11
"1901";11
"1902";11
"1903";11
"1904";11
"1905";7
"1906";7
"1907";11
"1908";7
"1909";11
"1910";11
"1911";11
"1912";11
"1913";11
"1914";7
"1915";11
"1916";11
"1917";11
"1918";11
"1919";11
"1920";11
"1921";11
"1922";11
"1923";11
"1924";11
"1925";11
"1926";11
"1927";11
"1928";11
"1929";11
"1930";11
"1931";11
"1932";11
"1933";11
"1934";11
"1935";11
"1936";11
"1937";11
"1938";11
"1939";11
"1940";11
"1941";11
"1942";11
"1943";11
"1944";11
"1945";11
"1946";11
"1947";11
"1948";11
"1949";11
"1950";11
"1951";11
"1952";11
"1953";11
"1954";11
"1955";11
"1956";11
"1957";11
"1958";11
"1959";11
"1960";11
"1961";11
"1962";11
"1963";11
"1964";7
"1965";11
"1966";11
"1967";11
"1968";11
"1969";11
"1970";7
"1971";11
"1972";11
"1973";11
"1974";11
"1975";11
"1976";11
"1977";7
"1978";11
"1979";11
"1980";11
"1981";11
"1982";11
"1983";7
"1984";11
"1985";11
"1986";11
"1987";7
"1988";11
"1989";11
"1990";11
"1991";11
"1992";11
"1993";11
"1994";11
"1995";11
"1996";11
"1997";7
"1998";11
"1999";11
"2000";11
"2001";11
"2002";11
"2003";11
"2004";11
"2005";11
"2006";11
"2007";7
"2008";11
"2009";11
"2010";11
"2011";11
"2012";7
"2013";11
"2014";11
"2015";11
"2016";11
"2017";11
"2018";11
"2019";11
"2020";11
"2021";11
"2022";11
"2023";7
"2024";11
"2025";11
"2026";11
"2027";11
"2028";11
"2029";11
"2030";11
"2031";11
"2032";11
"2033";11
"2034";7
"2035";11
"2036";11
"2037";11
"2038";11
"2039";11
"2040";11
"2041";11
"2042";11
"2043";7
"2044";11
"2045";11
"2046";11
"2047";11
"2048";11
"2049";7
"2050";11
"2051";11
"2052";11
"2053";11
"2054";11
"2055";11
"2056";11
"2057";11
"2058";11
"2059";11
"2060";11
"2061";11
"2062";11
"2063";11
"2064";11
"2065";11
"2066";11
"2067";11
"2068";11
"2069";11
"2070";11
"2071";11
"2072";11
"2073";11
"2074";11
"2075";11
"2076";11
"2077";11
"2078";11
"2079";11
"2080";11
"2081";11
"2082";11
"2083";7
"2084";11
"2085";11
"2086";11
"2087";11
"2088";11
"2089";11
"2090";11
"2091";11
"2092";11
"2093";7
"2094";11
"2095";11
"2096";11
"2097";11
"2098";11
"2099";11
"2100";7
"2101";11
"2102";11
"2103";11
"2104";11
"2105";11
"2106";11
"2107";7
"2108";11
"2109";11
"2110";7
"2111";11
"2112";11
"2113";11
"2114";11
"2115";11
"2116";11
"2117";11
"2118";11
"2119";11
"2120";11
"2121";11
"2122";11
"2123";7
"2124";11
"2125";11
"2126";11
"2127";11
"2128";11
"2129";11
"2130";11
"2131";11
"2132";11
"2133";11
"2134";7
"2135";11
"2136";11
"2137";11
"2138";11
"2139";7
"2140";11
"2141";11
"2142";11
"2143";11
"2144";7
"2145";11
"2146";11
"2147";7
"2148";11
"2149";11
"2150";11
"2151";11
"2152";11
"2153";11
"2154";11
"2155";11
"2156";11
"2157";11
"2158";11
"2159";7
"2160";11
"2161";7
"2162";11
"2163";11
"2164";11
"2165";11
"2166";11
"2167";11
"2168";11
"2169";11
"2170";11
"2171";11
"2172";11
"2173";11
"2174";11
"2175";11
"2176";11
"2177";7
"2178";11
"2179";7
"2180";11
"2181";11
"2182";11
"2183";11
"2184";11
"2185";11
"2186";11
"2187";11
"2188";11
"2189";7
"2190";11
"2191";11
"2192";11
"2193";11
"2194";11
"2195";11
"2196";11
"2197";11
"2198";11
"2199";11
"2200";11
"2201";11
"2202";7
"2203";11
"2204";11
"2205";11
"2206";11
"2207";11
"2208";11
"2209";11
"2210";11
"2211";7
"2212";11
"2213";11
"2214";11
"2215";11
"2216";11
"2217";11
"2218";11
"2219";11
"2220";11
"2221";1
"2222";11
"2223";11
"2224";11
"2225";7
"2226";11
"2227";11
"2228";11
"2229";11
"2230";11
"2231";11
"2232";11
"2233";11
"2234";11
"2235";1
"2236";11
"2237";11
"2238";11
"2239";7
"2240";11
"2241";11
"2242";11
"2243";11
"2244";1
"2245";11
"2246";11
"2247";11
"2248";7
"2249";11
"2250";11
"2251";11
"2252";11
"2253";11
"2254";7
"2255";11
"2256";11
"2257";7
"2258";11
"2259";11
"2260";11
"2261";11
"2262";11
"2263";11
"2264";11
"2265";11
"2266";11
"2267";11
"2268";11
"2269";11
"2270";11
"2271";7
"2272";7
"2273";11
"2274";11
"2275";11
"2276";11
"2277";11
"2278";11
"2279";7
"2280";11
"2281";11
"2282";11
"2283";7
"2284";11
"2285";11
"2286";11
"2287";11
"2288";11
"2289";11
"2290";11
"2291";7
"2292";11
"2293";11
"2294";11
"2295";11
"2296";11
"2297";11
"2298";11
"2299";11
"2300";7
"2301";11
"2302";7
"2303";11
"2304";7
"2305";11
"2306";11
"2307";11
"2308";11
"2309";11
"2310";7
"2311";11
"2312";11
"2313";7
"2314";7
"2315";11
"2316";11
"2317";11
"2318";7
"2319";11
"2320";11
"2321";11
"2322";11
"2323";11
"2324";11
"2325";11
"2326";11
"2327";11
"2328";11
"2329";11
"2330";11
"2331";11
"2332";11
"2333";11
"2334";11
"2335";11
"2336";11
"2337";7
"2338";7
"2339";7
"2340";7
"2341";11
"2342";7
"2343";7
"2344";7
"2345";11
"2346";11
"2347";11
"2348";11
"2349";11
"2350";11
"2351";11
"2352";7
"2353";11
"2354";11
"2355";11
"2356";11
"2357";11
"2358";11
"2359";11
"2360";7
"2361";11
"2362";10
"2363";11
"2364";11
"2365";11
"2366";11
"2367";11
"2368";11
"2369";11
"2370";11
"2371";11
"2372";11
"2373";11
"2374";2
"2375";11
"2376";11
"2377";5
"2378";7
"2379";11
"2380";2
"2381";11
"2382";11
"2383";5
"2384";7
"2385";11
"2386";11
"2387";11
"2388";11
"2389";7
"2390";11
"2391";11
"2392";11
"2393";11
"2394";11
"2395";11
"2396";11
"2397";11
"2398";11
"2399";11
"2400";7
"2401";11
"2402";11
"2403";11
"2404";11
"2405";11
"2406";11
"2407";11
"2408";11
"2409";11
"2410";11
"2411";11
"2412";7
"2413";11
"2414";11
"2415";11
"2416";11
"2417";11
"2418";11
"2419";11
"2420";11
"2421";11
"2422";7
"2423";11
"2424";11
"2425";11
"2426";11
"2427";11
"2428";11
"2429";11
"2430";11
"2431";11
"2432";11
"2433";11
"2434";11
"2435";11
"2436";11
"2437";7
"2438";11
"2439";11
"2440";7
"2441";11
"2442";11
"2443";7
"2444";11
"2445";11
"2446";7
"2447";11
"2448";11
"2449";11
"2450";7
"2451";7
"2452";11
"2453";11
"2454";11
"2455";11
"2456";11
"2457";11
"2458";11
"2459";7
"2460";11
"2461";11
"2462";11
"2463";11
"2464";7
"2465";7
"2466";7
"2467";11
"2468";8
"2469";7
"2470";11
"2471";11
"2472";11
"2473";11
"2474";11
"2475";11
"2476";7
"2477";11
"2478";11
"2479";11
"2480";8
"2481";11
"2482";11
"2483";7
"2484";11
"2485";7
"2486";11
"2487";11
"2488";11
"2489";7
"2490";11
"2491";11
"2492";11
"2493";11
"2494";11
"2495";11
"2496";7
"2497";11
"2498";11
"2499";7
"2500";11
"2501";11
"2502";11
"2503";11
"2504";11
"2505";7
"2506";11
"2507";7
"2508";11
"2509";11
"2510";11
"2511";11
"2512";11
"2513";11
"2514";11
"2515";11
"2516";11
"2517";11
"2518";11
"2519";11
"2520";11
"2521";11
"2522";11
"2523";7
"2524";11
"2525";11
"2526";11
"2527";11
"2528";7
"2529";7
"2530";11
"2531";11
"2532";11
"2533";11
"2534";7
"2535";7
"2536";11
"2537";0
"2538";7
"2539";11
"2540";7
"2541";11
"2542";11
"2543";11
"2544";11
"2545";11
"2546";7
"2547";11
"2548";11
"2549";11
"2550";7
"2551";11
"2552";7
"2553";12
"2554";11
"2555";11
"2556";11
"2557";7
"2558";7
"2559";7
"2560";11
"2561";11
"2562";11
"2563";7
"2564";7
"2565";11
"2566";11
"2567";11
"2568";11
"2569";11
"2570";11
"2571";11
"2572";11
"2573";7
"2574";7
"2575";11
"2576";7
"2577";11
"2578";11
"2579";11
"2580";7
"2581";11
"2582";11
"2583";11
"2584";11
"2585";11
"2586";7
"2587";11
"2588";11
"2589";11
"2590";7
"2591";10
"2592";11
"2593";11
"2594";11
"2595";11
"2596";7
"2597";11
"2598";11
"2599";11
"2600";7
"2601";11
"2602";11
"2603";11
"2604";11
"2605";11
"2606";11
"2607";11
"2608";11
"2609";11
"2610";11
"2611";11
"2612";11
"2613";11
"2614";7
"2615";11
"2616";11
"2617";11
"2618";11
"2619";11
"2620";7
"2621";11
"2622";11
"2623";7
"2624";11
"2625";11
"2626";11
"2627";11
"2628";11
"2629";11
"2630";11
"2631";11
"2632";11
"2633";7
"2634";11
"2635";11
"2636";11
"2637";11
"2638";11
"2639";11
"2640";11
"2641";11
"2642";7
"2643";11
"2644";11
"2645";11
"2646";11
"2647";7
"2648";11
"2649";7
"2650";11
"2651";7
"2652";11
"2653";11
"2654";11
"2655";11
"2656";11
"2657";11
"2658";11
"2659";11
"2660";11
"2661";11
"2662";11
"2663";7
"2664";7
"2665";11
"2666";11
"2667";11
"2668";7
"2669";11
"2670";11
"2671";11
"2672";11
"2673";7
"2674";11
"2675";11
"2676";11
"2677";11
"2678";7
"2679";11
"2680";7
"2681";11
"2682";7
"2683";7
"2684";7
"2685";11
"2686";11
"2687";11
"2688";11
"2689";7
"2690";11
"2691";11
"2692";11
"2693";11
"2694";7
"2695";11
"2696";7
"2697";11
"2698";7
"2699";7
"2700";7
"2701";11
"2702";11
"2703";11
"2704";11
"2705";11
"2706";11
"2707";11
"2708";11
"2709";11
"2710";11
"2711";7
"2712";7
"2713";11
"2714";11
"2715";7
"2716";11
"2717";11
"2718";0
"2719";7
"2720";11
"2721";11
"2722";11
"2723";11
"2724";7
"2725";11
"2726";11
"2727";10
"2728";11
"2729";11
"2730";11
"2731";10
"2732";11
"2733";7
"2734";11
"2735";11
"2736";11
"2737";11
"2738";11
"2739";7
"2740";11
"2741";11
"2742";10
"2743";11
"2744";11
"2745";11
"2746";10
"2747";11
"2748";7
"2749";11
"2750";11
"2751";11
"2752";11
"2753";11
"2754";7
"2755";7
"2756";11
"2757";7
"2758";11
"2759";11
"2760";11
"2761";11
"2762";11
"2763";7
"2764";11
"2765";11
"2766";11
"2767";11
"2768";11
"2769";11
"2770";11
"2771";11
"2772";7
"2773";11
"2774";7
"2775";11
"2776";11
"2777";11
"2778";11
"2779";11
"2780";11
"2781";11
"2782";11
"2783";11
"2784";11
"2785";7
"2786";11
"2787";11
"2788";11
"2789";11
"2790";7
"2791";7
"2792";11
"2793";11
"2794";11
"2795";11
"2796";11
"2797";11
"2798";7
"2799";11
"2800";11
"2801";11
"2802";11
"2803";11
"2804";11
"2805";11
"2806";7
"2807";7
"2808";6
"2809";11
"2810";11
"2811";11
"2812";11
"2813";11
"2814";11
"2815";7
"2816";7
"2817";11
"2818";11
"2819";7
"2820";11
"2821";11
"2822";11
"2823";7
"2824";11
"2825";11
"2826";11
"2827";11
"2828";11
"2829";11
"2830";11
"2831";11
"2832";11
"2833";7
"2834";11
"2835";11
"2836";11
"2837";11
"2838";11
"2839";11
"2840";11
"2841";7
"2842";11
"2843";7
"2844";7
"2845";11
"2846";11
"2847";11
"2848";11
"2849";11
"2850";11
"2851";11
"2852";7
"2853";11
"2854";7
"2855";7
"2856";11
"2857";11
"2858";7
"2859";11
"2860";11
"2861";11
"2862";11
"2863";11
"2864";11
"2865";11
"2866";7
"2867";11
"2868";11
"2869";11
"2870";11
"2871";11
"2872";11
"2873";11
"2874";7
"2875";11
"2876";11
"2877";11
"2878";11
"2879";11
"2880";7
"2881";11
"2882";7
"2883";11
"2884";11
"2885";11
"2886";11
"2887";11
"2888";11
"2889";11
"2890";11
"2891";11
"2892";11
"2893";11
"2894";11
"2895";11
"2896";11
"2897";7
"2898";11
"2899";11
"2900";11
"2901";11
"2902";11
"2903";11
"2904";7
"2905";11
"2906";11
"2907";11
"2908";11
"2909";11
"2910";11
"2911";11
"2912";11
"2913";11
"2914";11
"2915";11
"2916";11
"2917";11
"2918";11
"2919";11
"2920";11
"2921";11
"2922";11
"2923";11
"2924";11
"2925";11
"2926";7
"2927";11
"2928";7
"2929";11
"2930";7
"2931";11
"2932";11
"2933";11
"2934";11
"2935";11
"2936";7
"2937";11
"2938";11
"2939";11
"2940";7
"2941";7
"2942";11
"2943";11
"2944";11
"2945";7
"2946";11
"2947";11
"2948";11
"2949";11
"2950";11
"2951";11
"2952";11
"2953";11
"2954";11
"2955";11
"2956";11
"2957";11
"2958";11
"2959";11
"2960";11
"2961";11
"2962";7
"2963";11
"2964";7
"2965";11
"2966";11
"2967";7
"2968";11
"2969";11
"2970";7
"2971";7
"2972";11
"2973";7
"2974";11
"2975";7
"2976";11
"2977";7
"2978";11
"2979";11
"2980";11
"2981";11
"2982";11
"2983";11
"2984";11
"2985";7
"2986";11
"2987";7
"2988";11
"2989";11
"2990";7
"2991";11
"2992";11
"2993";7
"2994";11
"2995";7
"2996";11
"2997";11
"2998";11
"2999";11
"3000";11
"3001";11
"3002";11
"3003";7
"3004";7
"3005";7
"3006";11
"3007";11
"3008";7
"3009";11
"3010";11
"3011";7
"3012";7
"3013";7
"3014";11
"3015";11
"3016";7
"3017";7
"3018";11
"3019";7
"3020";11
"3021";11
"3022";11
"3023";11
"3024";11
"3025";11
"3026";11
"3027";11
"3028";11
"3029";7
"3030";11
"3031";11
"3032";11
"3033";11
"3034";11
"3035";11
"3036";11
"3037";11
"3038";11
"3039";11
"3040";11
"3041";11
"3042";11
"3043";11
"3044";7
"3045";11
"3046";11
"3047";5
"3048";11
"3049";7
"3050";11
"3051";11
"3052";11
"3053";11
"3054";11
"3055";11
"3056";11
"3057";11
"3058";11
"3059";7
"3060";7
"3061";11
"3062";11
"3063";11
"3064";11
"3065";11
"3066";11
"3067";7
"3068";11
"3069";11
"3070";7
"3071";11
"3072";11
"3073";11
"3074";11
"3075";11
"3076";11
"3077";7
"3078";11
"3079";11
"3080";11
"3081";11
"3082";11
"3083";9
"3084";11
"3085";11
"3086";11
"3087";11
"3088";11
"3089";7
"3090";11
"3091";7
"3092";11
"3093";11
"3094";7
"3095";11
"3096";11
"3097";11
"3098";11
"3099";11
"3100";11
"3101";11
"3102";7
"3103";11
"3104";11
"3105";11
"3106";11
"3107";7
"3108";11
"3109";11
"3110";11
"3111";11
"3112";11
"3113";11
"3114";11
"3115";7
"3116";7
"3117";7
"3118";7
"3119";11
"3120";11
"3121";11
"3122";11
"3123";11
"3124";11
"3125";11
"3126";11
"3127";10
"3128";11
"3129";11
"3130";11
"3131";11
"3132";11
"3133";11
"3134";7
"3135";11
"3136";11
"3137";7
"3138";11
"3139";11
"3140";11
"3141";11
"3142";10
"3143";11
"3144";11
"3145";11
"3146";11
"3147";11
"3148";11
"3149";11
"3150";11
"3151";7
"3152";11
"3153";11
"3154";7
"3155";11
"3156";11
"3157";11
"3158";11
"3159";10
"3160";11
"3161";11
"3162";7
"3163";11
"3164";11
"3165";11
"3166";11
"3167";11
"3168";11
"3169";11
"3170";7
"3171";11
"3172";7
"3173";11
"3174";11
"3175";11
"3176";11
"3177";11
"3178";11
"3179";11
"3180";11
"3181";11
"3182";11
"3183";11
"3184";11
"3185";11
"3186";11
"3187";11
"3188";11
"3189";7
"3190";11
"3191";11
"3192";11
"3193";7
"3194";11
"3195";11
"3196";11
"3197";11
"3198";11
"3199";11
"3200";7
"3201";11
"3202";11
"3203";11
"3204";7
"3205";11
"3206";11
"3207";11
"3208";11
"3209";11
"3210";11
"3211";11
"3212";11
"3213";11
"3214";7
"3215";11
"3216";11
"3217";7
"3218";11
"3219";11
"3220";11
"3221";11
"3222";11
"3223";7
"3224";11
"3225";11
"3226";11
"3227";7
"3228";11
"3229";11
"3230";7
"3231";11
"3232";11
"3233";11
"3234";11
"3235";11
"3236";7
"3237";11
"3238";11
"3239";11
"3240";11
"3241";11
"3242";11
"3243";11
"3244";11
"3245";7
"3246";11
"3247";11
"3248";7
"3249";11
"3250";11
"3251";11
"3252";7
"3253";11
"3254";11
"3255";11
"3256";7
"3257";11
"3258";11
"3259";11
"3260";11
"3261";11
"3262";11
"3263";11
"3264";11
"3265";7
"3266";11
"3267";7
"3268";11
"3269";11
"3270";7
"3271";11
"3272";11
"3273";7
"3274";11
"3275";11
"3276";11
"3277";11
"3278";7
"3279";11
"3280";11
"3281";11
"3282";11
"3283";11
"3284";11
"3285";11
"3286";7
"3287";7
"3288";0
"3289";7
"3290";11
"3291";11
"3292";7
"3293";7
"3294";3
"3295";7
"3296";7
"3297";0
"3298";7
"3299";11
"3300";11
"3301";7
"3302";7
"3303";3
"3304";7
"3305";11
"3306";11
"3307";11
"3308";7
"3309";11
"3310";11
"3311";11
"3312";11
"3313";11
"3314";7
"3315";11
"3316";11
"3317";11
"3318";11
"3319";11
"3320";11
"3321";11
"3322";11
"3323";11
"3324";11
"3325";7
"3326";11
"3327";11
"3328";11
"3329";11
"3330";11
"3331";7
"3332";11
"3333";11
"3334";7
"3335";11
"3336";11
"3337";11
"3338";7
"3339";12
"3340";11
"3341";11
"3342";11
"3343";11
"3344";11
"3345";11
"3346";7
"3347";11
"3348";11
"3349";11
"3350";7
"3351";12
"3352";11
"3353";11
"3354";11
"3355";11
"3356";11
"3357";11
"3358";11
"3359";11
"3360";11
"3361";7
"3362";11
"3363";11
"3364";11
"3365";11
"3366";7
"3367";11
"3368";7
"3369";11
"3370";7
"3371";11
"3372";11
"3373";7
"3374";11
"3375";11
"3376";11
"3377";7
"3378";11
"3379";11
"3380";11
"3381";11
"3382";11
"3383";11
"3384";10
"3385";11
"3386";10
"3387";11
"3388";10
"3389";11
"3390";7
"3391";11
"3392";11
"3393";10
"3394";11
"3395";10
"3396";11
"3397";10
"3398";11
"3399";11
"3400";11
"3401";11
"3402";11
"3403";11
"3404";11
"3405";7
"3406";7
"3407";11
"3408";7
"3409";11
"3410";11
"3411";11
"3412";11
"3413";11
"3414";11
"3415";11
"3416";11
"3417";11
"3418";11
"3419";7
"3420";7
"3421";11
"3422";7
"3423";11
"3424";11
"3425";11
"3426";11
"3427";11
"3428";11
"3429";11
"3430";11
"3431";11
"3432";11
"3433";11
"3434";11
"3435";11
"3436";11
"3437";11
"3438";7
"3439";7
"3440";7
"3441";7
"3442";7
"3443";11
"3444";11
"3445";11
"3446";7
"3447";11
"3448";11
"3449";11
"3450";11
"3451";11
"3452";11
"3453";11
"3454";11
"3455";11
"3456";11
"3457";11
"3458";11
"3459";11
"3460";7
"3461";11
"3462";11
"3463";11
"3464";11
"3465";11
"3466";11
"3467";11
"3468";11
"3469";7
"3470";11
"3471";11
"3472";11
"3473";11
"3474";11
"3475";11
"3476";11
"3477";11
"3478";11
"3479";11
"3480";11
"3481";11
"3482";11
"3483";11
"3484";11
"3485";7
"3486";11
"3487";11
"3488";11
"3489";11
"3490";11
"3491";11
"3492";11
"3493";11
"3494";11
"3495";11
"3496";11
"3497";7
"3498";11
"3499";11
"3500";11
"3501";11
"3502";11
"3503";11
"3504";11
"3505";11
"3506";11
"3507";11
"3508";11
"3509";11
"3510";7
"3511";11
"3512";11
"3513";11
"3514";11
"3515";11
"3516";11
"3517";11
"3518";11
"3519";11
"3520";11
"3521";11
"3522";7
"3523";11
"3524";11
"3525";11
"3526";11
"3527";11
"3528";7
"3529";11
"3530";11
"3531";11
"3532";11
"3533";11
"3534";11
"3535";11
"3536";11
"3537";11
"3538";7
"3539";11
"3540";11
"3541";11
"3542";11
"3543";11
"3544";7
"3545";11
"3546";7
"3547";11
"3548";11
"3549";11
"3550";11
"3551";7
"3552";11
"3553";11
"3554";11
"3555";11
"3556";11
"3557";7
"3558";11
"3559";11
"3560";11
"3561";11
"3562";11
"3563";7
"3564";11
"3565";11
"3566";11
"3567";11
"3568";7
"3569";11
"3570";11
"3571";11
"3572";11
"3573";7
"3574";11
"3575";11
"3576";11
"3577";11
"3578";11
"3579";11
"3580";11
"3581";7
"3582";11
"3583";11
"3584";11
"3585";11
"3586";11
"3587";11
"3588";11
"3589";11
"3590";11
"3591";11
"3592";11
"3593";7
"3594";11
"3595";11
"3596";7
"3597";11
"3598";7
"3599";11
"3600";11
"3601";11
"3602";11
"3603";11
"3604";11
"3605";11
"3606";7
"3607";11
"3608";7
"3609";11
"3610";7
"3611";11
"3612";11
"3613";7
"3614";11
"3615";11
"3616";11
"3617";11
"3618";11
"3619";11
"3620";11
"3621";7
"3622";11
"3623";11
"3624";11
"3625";11
"3626";11
"3627";11
"3628";11
"3629";11
"3630";11
"3631";11
"3632";11
"3633";11
"3634";11
"3635";11
"3636";11
"3637";11
"3638";11
"3639";11
"3640";11
"3641";11
"3642";11
"3643";7
"3644";11
"3645";11
"3646";11
"3647";11
"3648";11
"3649";11
"3650";11
"3651";7
"3652";11
"3653";11
"3654";11
"3655";11
"3656";11
"3657";11
"3658";11
"3659";11
"3660";11
"3661";11
"3662";11
"3663";11
"3664";11
"3665";11
"3666";7
"3667";11
"3668";11
"3669";11
"3670";11
"3671";11
"3672";11
"3673";11
"3674";11
"3675";7
"3676";11
"3677";11
"3678";11
"3679";11
"3680";11
"3681";11
"3682";11
"3683";11
"3684";11
"3685";11
"3686";7
"3687";11
"3688";11
"3689";11
"3690";11
"3691";11
"3692";11
"3693";11
"3694";11
"3695";11
"3696";11
"3697";7
"3698";11
"3699";11
"3700";11
"3701";11
"3702";7
"3703";11
"3704";11
"3705";7
"3706";11
"3707";11
"3708";11
"3709";11
"3710";11
"3711";11
"3712";7
"3713";11
"3714";11
"3715";11
"3716";11
"3717";7
"3718";11
"3719";11
"3720";7
"3721";11
"3722";11
"3723";11
"3724";11
"3725";11
"3726";7
"3727";11
"3728";11
"3729";11
"3730";11
"3731";11
"3732";7
"3733";11
"3734";11
"3735";11
"3736";11
"3737";11
"3738";11
"3739";11
"3740";11
"3741";11
"3742";11
"3743";7
"3744";11
"3745";11
"3746";11
"3747";11
"3748";11
"3749";11
"3750";7
"3751";11
"3752";11
"3753";11
"3754";11
"3755";7
"3756";11
"3757";11
"3758";11
"3759";11
"3760";11
"3761";11
"3762";11
"3763";7
"3764";11
"3765";11
"3766";10
"3767";11
"3768";11
"3769";11
"3770";11
"3771";11
"3772";11
"3773";11
"3774";7
"3775";11
"3776";11
"3777";11
"3778";11
"3779";11
"3780";11
"3781";11
"3782";11
"3783";11
"3784";11
"3785";11
"3786";11
"3787";7
"3788";11
"3789";11
"3790";11
"3791";11
"3792";11
"3793";11
"3794";11
"3795";11
"3796";11
"3797";11
"3798";11
"3799";11
"3800";11
"3801";11
"3802";11
"3803";7
"3804";11
"3805";11
"3806";11
"3807";11
"3808";11
"3809";11
"3810";11
"3811";11
"3812";11
"3813";11
"3814";11
"3815";11
"3816";11
"3817";7
"3818";11
"3819";7
"3820";11
"3821";11
"3822";7
"3823";11
"3824";11
"3825";11
"3826";11
"3827";7
"3828";11
"3829";11
"3830";7
"3831";11
"3832";11
"3833";7
"3834";11
"3835";11
"3836";11
"3837";11
"3838";7
"3839";11
"3840";11
"3841";11
"3842";7
"3843";11
"3844";11
"3845";11
"3846";11
"3847";11
"3848";11
"3849";7
"3850";11
"3851";0
"3852";11
"3853";11
"3854";11
"3855";11
"3856";11
"3857";11
"3858";11
"3859";11
"3860";7
"3861";11
"3862";0
"3863";11
"3864";11
"3865";11
"3866";11
"3867";11
"3868";11
"3869";11
"3870";11
"3871";7
"3872";7
"3873";11
"3874";0
"3875";11
"3876";11
"3877";11
"3878";11
"3879";11
"3880";11
"3881";7
"3882";11
"3883";7
"3884";11
"3885";7
"3886";11
"3887";3
"3888";11
"3889";7
"3890";11
"3891";7
"3892";11
"3893";3
"3894";7
"3895";11
"3896";11
"3897";11
"3898";11
"3899";11
"3900";7
"3901";11
"3902";11
"3903";11
"3904";11
"3905";11
"3906";11
"3907";7
"3908";11
"3909";11
"3910";7
"3911";12
"3912";11
"3913";11
"3914";11
"3915";7
"3916";11
"3917";7
"3918";11
"3919";7
"3920";11
"3921";11
"3922";11
"3923";11
"3924";11
"3925";11
"3926";7
"3927";11
"3928";11
"3929";11
"3930";11
"3931";11
"3932";11
"3933";7
"3934";11
"3935";11
"3936";7
"3937";11
"3938";7
"3939";11
"3940";7
"3941";11
"3942";11
"3943";11
"3944";11
"3945";11
"3946";7
"3947";11
"3948";7
"3949";11
"3950";11
"3951";11
"3952";11
"3953";7
"3954";11
"3955";7
"3956";11
"3957";11
"3958";11
"3959";11
"3960";11
"3961";11
"3962";7
"3963";11
"3964";11
"3965";7
"3966";11
"3967";11
"3968";11
"3969";11
"3970";11
"3971";11
"3972";11
"3973";11
"3974";11
"3975";7
"3976";11
"3977";0
"3978";11
"3979";11
"3980";11
"3981";11
"3982";11
"3983";11
"3984";11
"3985";11
"3986";11
"3987";11
"3988";11
"3989";11
"3990";11
"3991";11
"3992";11
"3993";7
"3994";7
"3995";11
"3996";0
"3997";11
"3998";11
"3999";11
"4000";11
"4001";11
"4002";11
"4003";11
"4004";7
"4005";11
"4006";11
"4007";11
"4008";11
"4009";11
"4010";11
"4011";11
"4012";11
"4013";11
"4014";11
"4015";11
"4016";11
"4017";11
"4018";7
"4019";11
"4020";11
"4021";11
"4022";11
"4023";11
"4024";11
"4025";11
"4026";7
"4027";11
"4028";11
"4029";7
"4030";11
"4031";11
"4032";11
"4033";7
"4034";11
"4035";11
"4036";11
"4037";7
"4038";11
"4039";11
"4040";11
"4041";11
"4042";11
"4043";11
"4044";11
"4045";11
"4046";11
"4047";11
"4048";11
"4049";11
"4050";7
"4051";11
"4052";11
"4053";7
"4054";11
"4055";11
"4056";11
"4057";11
"4058";11
"4059";11
"4060";11
"4061";11
"4062";11
"4063";11
"4064";11
"4065";11
"4066";11
"4067";11
"4068";11
"4069";11
"4070";11
"4071";11
"4072";11
"4073";11
"4074";11
"4075";11
"4076";11
"4077";11
"4078";11
"4079";11
"4080";11
"4081";11
"4082";11
"4083";11
"4084";11
"4085";11
"4086";11
"4087";7
"4088";11
"4089";11
"4090";11
"4091";11
"4092";11
"4093";11
"4094";11
"4095";11
"4096";11
"4097";11
"4098";11
"4099";11
"4100";11
"4101";11
"4102";11
"4103";11
"4104";11
"4105";10
"4106";7
"4107";11
"4108";11
"4109";7
"4110";10
"4111";11
"4112";11
"4113";11
"4114";10
"4115";11
"4116";11
"4117";7
"4118";11
"4119";11
"4120";11
"4121";11
"4122";11
"4123";7
"4124";10
"4125";11
"4126";11
"4127";11
"4128";10
"4129";11
"4130";11
"4131";7
"4132";11
"4133";11
"4134";11
"4135";11
"4136";11
"4137";7
"4138";11
"4139";11
"4140";11
"4141";7
"4142";11
"4143";11
"4144";11
"4145";7
"4146";7
"4147";7
"4148";7
"4149";7
"4150";11
"4151";11
"4152";11
"4153";11
"4154";11
"4155";11
"4156";7
"4157";11
"4158";11
"4159";11
"4160";11
"4161";11
"4162";11
"4163";11
"4164";11
"4165";11
"4166";11
"4167";11
"4168";7
"4169";11
"4170";11
"4171";11
"4172";11
"4173";11
"4174";11
"4175";11
"4176";7
"4177";7
"4178";6
"4179";11
"4180";11
"4181";11
"4182";11
"4183";11
"4184";11
"4185";7
"4186";11
"4187";11
"4188";11
"4189";11
"4190";11
"4191";11
"4192";11
"4193";7
"4194";7
"4195";6
"4196";11
"4197";11
"4198";11
"4199";11
"4200";11
"4201";11
"4202";7
"4203";11
"4204";11
"4205";7
"4206";11
"4207";11
"4208";11
"4209";11
"4210";11
"4211";11
"4212";11
"4213";11
"4214";11
"4215";11
"4216";11
"4217";11
"4218";11
"4219";11
"4220";11
"4221";7
"4222";7
"4223";11
"4224";11
"4225";7
"4226";11
"4227";11
"4228";11
"4229";7
"4230";11
"4231";11
"4232";11
"4233";11
"4234";11
"4235";7
"4236";11
"4237";11
"4238";11
"4239";11
"4240";11
"4241";11
"4242";11
"4243";11
"4244";11
"4245";11
"4246";11
"4247";11
"4248";11
"4249";11
"4250";11
"4251";11
"4252";4
"4253";7
"4254";11
"4255";11
"4256";11
"4257";11
"4258";11
"4259";11
"4260";11
"4261";11
"4262";11
"4263";11
"4264";11
"4265";11
"4266";11
"4267";11
"4268";7
"4269";11
"4270";11
"4271";11
"4272";11
"4273";11
"4274";11
"4275";7
"4276";7
"4277";11
"4278";11
"4279";11
"4280";11
"4281";11
"4282";7
"4283";11
"4284";11
"4285";11
"4286";11
"4287";11
"4288";11
"4289";11
"4290";11
"4291";11
"4292";7
"4293";11
"4294";11
"4295";11
"4296";11
"4297";11
"4298";11
"4299";11
"4300";7
"4301";11
"4302";11
"4303";11
"4304";11
"4305";11
"4306";11
"4307";11
"4308";11
"4309";11
"4310";11
"4311";11
"4312";11
"4313";11
"4314";11
"4315";7
"4316";11
"4317";11
"4318";11
"4319";11
"4320";11
"4321";11
"4322";11
"4323";11
"4324";11
"4325";11
"4326";11
"4327";11
"4328";11
"4329";11
"4330";11
"4331";11
"4332";11
"4333";11
"4334";11
"4335";11
"4336";7
"4337";11
"4338";11
"4339";11
"4340";7
"4341";11
"4342";11
"4343";11
"4344";11
"4345";11
"4346";11
"4347";11
"4348";11
"4349";11
"4350";11
"4351";11
"4352";11
"4353";11
"4354";11
"4355";11
"4356";11
"4357";11
"4358";11
"4359";11
"4360";11
"4361";11
"4362";7
"4363";11
"4364";11
"4365";11
"4366";7
"4367";11
"4368";11
"4369";7
"4370";11
"4371";7
"4372";11
"4373";7
"4374";11
"4375";11
"4376";11
"4377";7
"4378";7
"4379";11
"4380";7
"4381";11
"4382";11
"4383";11
"4384";11
"4385";11
"4386";7
"4387";11
"4388";11
"4389";11
"4390";11
"4391";11
"4392";11
"4393";11
"4394";11
"4395";7
"4396";11
"4397";11
"4398";11
"4399";11
"4400";11
"4401";7
"4402";11
"4403";11
"4404";11
"4405";7
"4406";11
"4407";11
"4408";11
"4409";11
"4410";11
"4411";11
"4412";11
"4413";11
"4414";11
"4415";11
"4416";11
"4417";11
"4418";7
"4419";11
"4420";11
"4421";7
"4422";11
"4423";11
"4424";7
"4425";11
"4426";7
"4427";11
"4428";11
"4429";11
"4430";11
"4431";11
"4432";7
"4433";11
"4434";11
"4435";11
"4436";11
"4437";7
"4438";11
"4439";11
"4440";11
"4441";11
"4442";7
"4443";11
"4444";11
"4445";11
"4446";11
"4447";7
"4448";11
"4449";11
"4450";11
"4451";11
"4452";11
"4453";7
"4454";11
"4455";11
"4456";11
"4457";11
"4458";11
"4459";11
"4460";11
"4461";11
"4462";11
"4463";11
"4464";11
"4465";11
"4466";11
"4467";11
"4468";10
"4469";11
"4470";10
"4471";11
"4472";11
"4473";11
"4474";11
"4475";11
"4476";11
"4477";7
"4478";7
"4479";11
"4480";11
"4481";11
"4482";11
"4483";11
"4484";11
"4485";11
"4486";11
"4487";11
"4488";7
"4489";11
"4490";11
"4491";10
"4492";11
"4493";10
"4494";11
"4495";11
"4496";11
"4497";7
"4498";11
"4499";11
"4500";11
"4501";7
"4502";7
"4503";11
"4504";11
"4505";10
"4506";11
"4507";11
"4508";11
"4509";7
"4510";11
"4511";11
"4512";10
"4513";11
"4514";11
"4515";11
"4516";11
"4517";11
"4518";11
"4519";11
"4520";11
"4521";11
"4522";7
"4523";11
"4524";11
"4525";11
"4526";11
"4527";11
"4528";11
"4529";7
"4530";11
"4531";11
"4532";11
"4533";10
"4534";11
"4535";11
"4536";11
"4537";11
"4538";11
"4539";11
"4540";11
"4541";11
"4542";11
"4543";11
"4544";8
"4545";11
"4546";11
"4547";7
"4548";11
"4549";11
"4550";11
"4551";11
"4552";11
"4553";11
"4554";7
"4555";11
"4556";11
"4557";11
"4558";11
"4559";11
"4560";11
"4561";11
"4562";11
"4563";11
"4564";11
"4565";11
"4566";11
"4567";11
"4568";11
"4569";11
"4570";11
"4571";11
"4572";11
"4573";11
"4574";7
"4575";11
"4576";11
"4577";11
"4578";11
"4579";11
"4580";11
"4581";7
"4582";2
"4583";2
"4584";5
"4585";11
"4586";11
"4587";7
"4588";11
"4589";11
"4590";11
"4591";11
"4592";11
"4593";7
"4594";11
"4595";11
"4596";11
"4597";11
"4598";11
"4599";11
"4600";11
"4601";11
"4602";11
"4603";7
"4604";7
"4605";11
"4606";11
"4607";11
"4608";11
"4609";11
"4610";11
"4611";11
"4612";7
"4613";11
"4614";11
"4615";11
"4616";11
"4617";7
"4618";11
"4619";11
"4620";11
"4621";11
"4622";7
"4623";7
"4624";11
"4625";11
"4626";11
"4627";11
"4628";11
"4629";7
"4630";7
"4631";11
"4632";11
"4633";11
"4634";7
"4635";11
"4636";11
"4637";7
"4638";11
"4639";7
"4640";11
"4641";11
"4642";11
"4643";7
"4644";11
"4645";7
"4646";11
"4647";11
"4648";11
"4649";9
"4650";11
"4651";11
"4652";11
"4653";11
"4654";11
"4655";7
"4656";11
"4657";11
"4658";11
"4659";11
"4660";11
"4661";11
"4662";11
"4663";11
"4664";7
"4665";11
"4666";11
"4667";7
"4668";11
"4669";11
"4670";11
"4671";11
"4672";11
"4673";11
"4674";11
"4675";7
"4676";11
"4677";11
"4678";11
"4679";11
"4680";11
"4681";11
"4682";11
"4683";11
"4684";7
"4685";11
"4686";7
"4687";11
"4688";7
"4689";7
"4690";11
"4691";11
"4692";11
"4693";11
"4694";7
"4695";11
"4696";7
"4697";11
"4698";11
"4699";7
"4700";11
"4701";11
"4702";11
"4703";11
"4704";11
"4705";11
"4706";7
"4707";11
"4708";7
"4709";11
"4710";7
"4711";11
"4712";11
"4713";7
"4714";11
"4715";11
"4716";11
"4717";7
"4718";7
"4719";11
"4720";11
"4721";11
"4722";11
"4723";7
"4724";11
"4725";11
"4726";11
"4727";11
"4728";11
"4729";9
"4730";11
"4731";11
"4732";9
"4733";11
"4734";7
"4735";11
"4736";11
"4737";11
"4738";7
"4739";7
"4740";7
"4741";7
"4742";11
"4743";7
"4744";11
"4745";11
