"";"Coord. facteur 1";"Coord. facteur 2";"Coord. facteur 3";"Coord. facteur 4";"Coord. facteur 5";"Coord. facteur 6";"Corr. facteur 1";"Corr. facteur 2";"Corr. facteur 3";"Corr. facteur 4";"Corr. facteur 5";"Corr. facteur 6";"COR -facteur 1";"COR -facteur 2";"COR -facteur 3";"COR -facteur 4";"COR -facteur 5";"COR -facteur 6";"CTR -facteur 1";"CTR -facteur 2";"CTR -facteur 3";"CTR -facteur 4";"CTR -facteur 5";"CTR -facteur 6";"mass";"chi.distance";"inertie"
"classe 1";1,3963493320025;-0,671019573942286;0,473261510776183;-0,24290069341465;0,100232129931442;-1,0314206056346;0,720408179822862;-0,34619416417525;0,244166309779763;-0,125317957627129;0,0517120212175886;-0,532133201991382;0,0521644256265378;0,00931046780462512;0,00384471008919176;0,000802641658719567;0,00011964955675914;0,00927838954995304;0,0114064067612083;0,00263409278908773;0,00131027683548711;0,000345158204229867;5,87725602714197e-05;0,00622346567412537;0,00585006500072223;1,59422406787086;0,0148682349172956
"classe 2";2,41969684915821;-1,63055859403985;0,807636814193753;-1,34298455975953;-2,76567151320817;3,58398416137169;0,431378000406224;-0,290692243570428;0,143983637488539;-0,239424204799476;-0,493057569407196;0,638944470071926;0,334256649357191;0,117312912018202;0,023892704435262;0,0523574031085292;0,194388352697862;0,239058962136341;0,159418581638629;0,0723918778622816;0,0177602566309887;0,0491087706169793;0,208265923187356;0,349743125147993;0,0272280803120035;1,09134842470548;0,0324297704613886
"classe 3";3,45003431015846;-2,67655164777658;-0,472265656549456;0,733174935270992;0,0799457757446211;-2,41531539649302;0,68097723956349;-0,528305109107246;-0,0932170912592799;0,144716080668499;0,0157799165999695;-0,476741580956472;0,582140263874484;0,270798917939509;0,00699887921332589;0,0133682312680349;0,00013914985601937;0,0930129114197244;0,3928608038972;0,236452074715405;0,00736147093837444;0,0177421845276107;0,000210951644240216;0,192548248468371;0,0330059222880254;1,17910393722183;0,0458876748021674
"classe 4";1,42154098186213;2,59871159881198;2,1582516419276;-4,19427902576489;1,35415191295175;2,92556636372574;0,220887557884557;0,403803383815158;0,335362075781477;-0,651732213779735;0,210416240455333;0,45459203621838;0,0657253302622013;0,169763779616516;0,0972060122411675;0,290942097992442;0,0265497045290305;0,0907504202654942;0,021892013178321;0,0731615842893244;0,0504627706545196;0,19058186349095;0,019865600931867;0,0927228645301542;0,0108334537050412;1,44589078770562;0,0226484201571427
"classe 5";0,286280678425795;1,06698922071051;-0,692608845717991;0,290770551636567;-0,557544466875198;-0,178431793991928;0,196277461157721;0,731540586236239;-0,474860918174553;0,199355771994402;-0,382259162729924;-0,122334974568083;0,0559904799662203;0,601125341924012;0,210271852998878;0,0293703334107853;0,0945366142648;0,00709070353415359;0,0261093948426222;0,362687672487569;0,152823027233771;0,0269347885978937;0,0990311337099399;0,0101427848785036;0,318575761952911;0,315484071629043;0,0317079091276311
"classe 6";0,927145268210533;1,30203610417064;0,897688306290303;-1,54370332083049;1,40644464585336;-0,322889113812408;0,331417139224525;0,465425533200575;0,32088746023615;-0,551811842159847;0,502747387047576;-0,115419870063071;0,0384130531771976;0,0585523280329117;0,0231051796741082;0,0541488020308815;0,0393495212091891;0,00151881469340739;0,0086295081917348;0,0170190975229217;0,00808987122922137;0,0239231382378512;0,0198580116508082;0,00104663988117725;0,0100390004333381;1,23353326893729;0,0152753864838179
"classe 7";-0,810616185624046;-0,638218648985202;-0,10710978695751;-0,578291368328238;0,0521837102441996;-0,17541283822251;-0,674622109153291;-0,531147069001467;-0,0891403745320082;-0,481273566362855;0,0434290423664369;-0,145984475751781;0,56582956141411;0,271087148777975;0,00633852724179223;0,146428775941806;0,00104384474259931;0,00863758970949099;0,268515374912519;0,166447622595472;0,00468810064729648;0,136657048245855;0,00111277798214825;0,0125736499967874;0,408637873754153;0,281005583406764;0,0322677374166459
"classe 8";-0,451423840802696;-0,1118882428859;1,83590432232697;1,98248379337199;-0,114366021374744;0,48063815161179;-0,162039376898954;-0,0401624804027005;0,659001066286131;0,711616023688645;-0,0410518833232729;0,172525904840456;0,0453015312946728;0,00215093687443267;0,48074961731008;0,44426398892318;0,00129434137562395;0,0167415286263142;0,0226360680674057;0,00139059580688957;0,374396773001325;0,436567397236112;0,00145286758397704;0,0256606994383229;0,111079011989022;0,553057829574772;0,0339760665079725
"classe 9";0,745565490205644;-0,390164186938266;-1,74724872715858;1,09345038350981;3,54692249176349;2,22694093324536;0,157191117666354;-0,0822601708688181;-0,368380757788852;0,230537344008776;0,747814535517798;0,469516546664785;0,0527377267450817;0,0111624486649229;0,185837876753598;0,0576800852490401;0,531329728406826;0,153384662501922;0,0232046545072415;0,00635474776979609;0,127442116872317;0,0499116208588976;0,525178462802972;0,207024100957289;0,0417449082767586;0,846579191595062;0,0299184224596946
"classe 10";1,40686059565101;1,36459124986386;2,78317162468736;-1,43775696259356;1,94580415138562;-1,76064780296661;0,310416365836746;0,301089857761885;0,614092131022848;-0,317233486149527;0,429331417178316;-0,3884776460474;0,144454084407232;0,105038307884581;0,362729293124592;0,0767143437363917;0,12300899059585;0,0737543094875552;0,0653271940031167;0,0614606341612521;0,255665335956699;0,068228029983621;0,12496549794642;0,102314421027276;0,0330059222880254;0,965225190148481;0,0307502865909005
