"";"X.egutegia_FinDelTiemp";"X.egutegia_NavidadYOct";"X.egutegia_OctavaDePas";"X.egutegia_SemanaDeAdv";"X.egutegia_SemanaDeCua";"X.egutegia_SemanaDeNav";"X.egutegia_SemanaDePas";"X.egutegia_SemanaDelTi";"X.egutegia_SemanaSanta";"X.egutegia_TiempoDeNav"
"pre";123,71;152,07;120,14;166,67;134,76;142,05;131,65;141,6;147,63;158,29
"nom";185,57;218,89;197,88;160,92;171,05;159,09;160,14;204,96;150,42;173,18
"ver";154,64;133,64;151,94;114,94;154,22;113,64;141,4;127,27;143,45;148,98
"pro_pos";0;0;5,3;0;6,99;5,68;12,95;11,57;2,79;0
"pro_per";92,78;32,26;21,2;68,97;64,64;73,86;79,23;53,44;68,25;72,63
"ver_sup";20,62;57,6;54,77;68,97;63,88;90,91;59,73;61,16;52,92;72,63
"adj_sup";0;2,3;0;0;0,19;0;1,07;2,2;0;0
"adj_ind";10,31;20,74;21,2;11,49;15,12;17,05;15,39;12,67;15,32;5,59
"sw";61,86;41,47;60,07;22,99;28,16;45,45;28,8;33,06;29,25;31,66
"adv_sup";10,31;11,52;14,13;17,24;9,07;11,36;9,9;4,96;13,93;11,17
"pro_dem";41,24;6,91;14,13;17,24;17,77;11,36;15,54;18,73;9,75;22,35
"pron";10,31;11,52;1,77;0;10,96;5,68;9,9;13,77;9,75;5,59
"num";0;0;1,77;0;0,57;0;0,3;0,55;0;0
"art_def";123,71;131,34;114,84;120,69;88,07;107,95;99,95;107,99;116,99;83,8
"pro_rel";20,62;9,22;1,77;0;2,65;5,68;2,59;2,75;2,79;7,45
"adv";10,31;18,43;21,2;5,75;26,84;34,09;19,96;20,94;32,03;14,9
"nr";30,93;20,74;47,7;74,71;52,16;62,5;61,4;42,42;73,82;61,45
"adj";20,62;27,65;37,1;11,49;27,22;11,36;19,66;25,34;23,68;18,62
"pro";0;0;5,3;22,99;3,59;0;2,74;1,65;8,36;7,45
"con";82,47;103,69;107,77;114,94;122,09;102,27;127,69;112,95;98,89;104,28
