"";"Coord. facteur 1";"Coord. facteur 2";"Coord. facteur 3";"Coord. facteur 4";"Coord. facteur 5";"Coord. facteur 6";"Corr. facteur 1";"Corr. facteur 2";"Corr. facteur 3";"Corr. facteur 4";"Corr. facteur 5";"Corr. facteur 6";"COR -facteur 1";"COR -facteur 2";"COR -facteur 3";"COR -facteur 4";"COR -facteur 5";"COR -facteur 6";"CTR -facteur 1";"CTR -facteur 2";"CTR -facteur 3";"CTR -facteur 4";"CTR -facteur 5";"CTR -facteur 6";"mass";"chi.distance";"inertie"
"classe 1";0,995663348076639;-0,395245124184491;0,514821447080847;-0,831988138091229;-0,395830549461439;1,23712907044361;0,511304382644919;-0,202970777828622;0,26437697308084;-0,427252024628999;-0,203271412084561;0,635304610576631;0,0431649950539989;0,00601037580436613;0,00832640682674209;0,0204488223043329;0,00430732846055688;0,0414316998530763;0,0153431607130918;0,00241781370837889;0,00410206988893405;0,0107133196327968;0,00242498139968615;0,0236875322065821;0,0154771072963506;1,41993564002334;0,0312052102746798
"classe 2";-0,762387019203849;0,966504328423476;-0,090685887190797;0,557318896269198;3,25501952360883;1,56415589013393;-0,197666672000365;0,250588860068634;-0,0235124379965504;0,144497963230658;0,843939967917967;0,405544010462581;0,0289142286780115;0,0410610605440281;0,00029517375982039;0,010483240257055;0,332774882120182;0,0756687860482346;0,00934236893353769;0,0150145954117524;0,000132185993533936;0,00499244816122401;0,170299441236711;0,039324761400902;0,0160733361488585;1,32843917677985;0,0283654303585591
"classe 3";-1,17117268049358;2,03056487181601;-0,266722388706836;-0,092104665211284;1,00007080514005;1,37674636377151;-0,402418854172371;0,697708888406183;-0,0916467057618588;-0,0316474713384146;0,34362767694179;0,473054660019408;0,0514408672519212;0,136635038489529;0,00192496602687919;0,000215852483261026;0,0236815776457658;0,0441947177170891;0,0222172963951136;0,066785638126894;0,00115230722876897;0,000137408183703106;0,0161998443139974;0,0307013320424084;0,0161975504931309;1,52999066016576;0,037916383026527
"classe 4";-0,945324960467676;1,54338085058591;1,87135245740089;-1,79333830132682;0,361340815818419;0,177217732433772;-0,29663819051745;0,484305103475307;0,587220934597087;-0,562740487068116;0,113386920103587;0,0556100279535116;0,0358429212729999;0,0844207669650219;0,101342133134407;0,0875171111015844;0,00330641914501597;0,000783161935786724;0,0126987222980945;0,0338488556225482;0,0497632755654793;0,0457006338518696;0,00185537549799655;0,000446284831493047;0,0142101209847713;1,47945381957478;0,0311028798259389
"classe 5";-0,511422918178377;1,27086105846687;1,565382159645;-0,38959105426121;0,156503841351572;-0,160357723345847;-0,240312600494325;0,597165115155484;0,735557684609875;-0,183065005597153;0,0735396161683737;-0,0753505174227434;0,0041026903059612;0,022385481406706;0,0277323602414882;0,00161530185873094;0,000242572231888856;0,000250774977148559;0,000870696737284269;0,00537653762974907;0,00815731634830867;0,000505271145034864;8,15373417122926e-05;8,56024724744212e-05;0,00332894442650237;2,36574431836929;0,0186312570021152
"classe 6";-0,891730598919589;3,35864847843577;4,84265812197906;-0,0257892554584106;-1,72781449634234;-1,75593406951514;-0,138263020601237;0,52075916687048;0,750855180359598;-0,00399862958953854;-0,267898008201511;-0,27225795405242;0,0225420435592863;0,282564098413006;0,47965754049845;1,27917785295635e-05;0,0534321796160586;0,0543423517576248;0,0150332798514064;0,213262996966508;0,44335746352638;1,25737265667766e-05;0,0564391715549036;0,0582911755989445;0,0189054231982709;1,75978258017289;0,0585469711359216
"classe 7";-0,57075255905428;-0,0841715128629078;-0,177142508721065;-1,2045771668941;0,55163146407966;0,604097328532916;-0,362102797689983;-0,0534009700174796;-0,112384599911395;-0,764220423099924;0,349971792974598;0,383257734492279;0,0234429793583182;0,000450515012017354;0,00162929739114525;0,0708457335110676;0,0138260412125609;0,0163277737331185;0,00851359960295367;0,000185160247526084;0,000820092931025867;0,0379216076032778;0,00795271732082398;0,00953742897727665;0,0261346980349291;1,10449423199761;0,0318819143656084
"classe 8";1,54531610519464;0,54917067120866;-0,368264215868139;1,37695797079126;0,543313661551699;-1,22743162592756;0,605053300932659;0,215022367445236;-0,144190226632194;0,539134331592207;0,212729113000643;-0,480588763968822;0,108612528395425;0,0121205370527948;0,00445043039745125;0,0585078323461273;0,00847674718189156;0,0426025851349922;0,0233739779594001;0,00295197475690292;0,00132744644820153;0,0185583489879084;0,00288934378859995;0,0147466233113781;0,00978809032867116;1,38931062257702;0,0188928154017367
"classe 9";-0,0490430392334546;-0,216064650074922;1,18135618331486;-1,18369331133692;-0,652716792401686;1,07305730609496;-0,0233186582725591;-0,102732983490148;0,561703384771113;-0,562814626866573;-0,310349441402343;0,510210154566283;8,66408977333014e-05;0,0014859272924276;0,0362716756490454;0,0342431695566081;0,00968948023451633;0,0257875507815307;2,00768593217251e-05;0,000389680309344187;0,0116493781110402;0,0116955166417922;0,00355623617926458;0,00961140451660811;0,00834720393511043;1,56112576516352;0,0203430846884674
"classe 10";-0,0682304726412655;0,210554532825919;0,0972269011463657;-0,579397258864769;0,129112782566415;0,873331631138536;-0,0629843898139046;0,194365483034506;0,0897513501686786;-0,534848747147262;0,119185600103885;0,806183187117117;0,000172985004364518;0,00145560258690389;0,000253432492727266;0,00846314822469908;0,000391086564896879;0,0176200099923593;4,63770242252017e-05;0,000441647025779691;9,41713957448288e-05;0,00334425197166877;0,000166067482161303;0,00759809115635568;0,00996199041065262;1,53707882127552;0,0235363111427299
"classe 11";0,53150505724042;0,210851932223;-0,0390062044227206;0,102266261632674;0,724807356802375;-0,116627529418535;0,567268807225159;0,225039672650109;-0,0416308419945073;0,109147522616143;0,773577972890897;-0,124475127003247;0,0225276451129836;0,00313269486006979;8,75399085081102e-05;0,000565839331399591;0,0264501961272207;0,000674371515322619;0,00347393547826771;0,000546716418017921;1,87100233974164e-05;0,000128609102248769;0,00646029174757282;0,000167266549227244;0,0122972200829752;1,04923191097129;0,0135378571407156
"classe 12";-0,309624321409836;0,824723446275181;-0,495507907715762;-0,211939793843075;1,47455892213672;-0,0430219628234407;-0,171943012459373;0,457991908234911;-0,275169347040133;-0,11769607260652;0,818863653754877;-0,0238912946376264;0,00348387354601586;0,0218409166199212;0,00643770596345045;0,00110750230802771;0,0498883600178412;4,18185299027168e-05;0,000716866652000074;0,00508610035559187;0,00183598623877138;0,000335887047934011;0,0162589503508;1,38404013325624e-05;0,00747770352520309;1,55426784963807;0,0180642514365137
"classe 13";-0,751183305726815;0,734554602444007;-0,430346649324414;-1,58876767653845;1,18065059384218;0,39682645622591;-0,324321577856723;0,317142175378957;-0,185801126396445;-0,685946606872676;0,509743042175149;0,171328863990067;0,0224208702238091;0,0189439574095539;0,00530927439655101;0,0680469678659558;0,0349692330154109;0,00389007450819943;0,00629419136716262;0,00601861074511916;0,00206578414340677;0,0281558652964005;0,0155485848336325;0,00175650473569686;0,0111544481156684;1,48642048725444;0,0246451492647369
"classe 14";-1,88711114442704;2,19902073312636;-2,53464327496719;0,92957511250932;-1,91923863112139;-0,982949344164967;-0,418479903689666;0,487648004903123;-0,562074616923516;0,206139688541408;-0,425604395311341;-0,217975792307065;0,142645302897958;0,17115244019721;0,18566665689609;0,0234832861323961;0,093154360261074;0,0240613983925826;0,0828965194574626;0,112564121359457;0,149546078301299;0,0201145496420024;0,0857431216810625;0,0224907331171117;0,0232777681166621;1,48043972121009;0,0510179255395624
"classe 15";-1,04037173448954;0,893381093839186;-0,00118820290672586;1,34275147918778;4,33642566323906;3,26786134565938;-0,18064897658544;0,155125687244873;-0,00020631821488421;0,233153854994796;0,752972069629842;0,567427764659654;0,0197304327544446;0,012855677451288;1,85685697229716e-08;0,0222986298379822;0,216424314854055;0,121027158547669;0,00809366698440748;0,00596817786072143;1,05572173605218e-08;0,0134821613791059;0,140615130483996;0,0798537810873939;0,00747770352520309;2,19453355860115;0,0360124522268606
"classe 16";-0,525160130518139;0,139810264093394;-0,492805405432878;0,535644278774481;1,52051811033114;-0,874107489404294;-0,265885927896172;0,0707852322323178;-0,249504893615004;0,271193999330666;0,769830657649983;-0,442556217418768;0,0157369983294227;0,000985549509736512;0,00999832015339929;0,0111075613848782;0,083292196595968;0,027105920411818;0,00426848037048844;0,000302529622544246;0,00375872644100233;0,00444061104211185;0,0357826901536638;0,0118254990085052;0,0154771072963506;1,24037437524056;0,0238119720775938
"classe 17";0,384072407165718;-0,471163518090596;-0,232392771333398;0,837685157132106;-0,926730637715654;0,934395185133415;0,227219875769255;-0,278743575560629;-0,137485160732371;0,495580296282985;-0,548260214596609;0,5527946135266;0,00870934614707336;0,0115814938080496;0,00230060615231584;0,0281091915376454;0,0320146749344089;0,0320491557268839;0,00171137365445593;0,00257550228266291;0,000626561719088363;0,00814104710948002;0,00996381532232039;0,0101293087982073;0,0116016197550493;1,21938912902138;0,0172505626662501
"classe 18";-0,37666236879801;0,881130873757033;-0,608749490711173;0,660362739885606;-1,2019173988572;0,945441919565434;-0,186856472109381;0,437115624431249;-0,301991363235098;0,327595911110728;-0,596252940356186;0,469019356082941;0,00529286052063258;0,0255934451632212;0,00997472461647033;0,0110376973507964;0,0340265521006477;0,0207325043073662;0,000912863783512998;0,00499553893429431;0,00238439791052215;0,00280586409935581;0,00929502912384156;0,00575136883281587;0,00643430303331429;1,53401284427781;0,0151411723414406
"classe 19";-0,721026216570477;1,59021145984479;-0,872967408541869;1,75770982098752;-0,961058943406515;0,774070276458568;-0,248436516518601;0,547922650428595;-0,300789315323341;0,605635821473615;-0,33114210077495;0,266713357440256;0,0135888713108968;0,0584053945559079;0,014371928360914;0,0547902156484615;0,0152427750482684;0,00973729055034584;0,00302217574754113;0,0147003394023569;0,00443010137261957;0,0179602328438193;0,00536929979112576;0,00348319979971219;0,0058132313119519;1,83265767700416;0,0195245172705949
"classe 20";-0,0727752889058108;0,527393132078166;0,0775945464282866;1,22301792434873;-0,627002521926585;1,73537100159193;-0,0319451811905445;0,231502607769663;0,0340606252797963;0,536851584926987;-0,27522679017869;0,761752263882042;0,000223539860315462;0,0103733246312648;0,000183352656409798;0,0428331604679672;0,0104763112228532;0,0790256075788055;3,78932723149424e-05;0,00199004627083215;4,30781091346861e-05;0,0107018751115232;0,00281276085759227;0,0215466078004586;0,00715474623009465;1,44220978553947;0,0148816508301412
"classe 21";-0,586775053896316;1,42690307504676;-1,1364640951333;2,36244198950534;-1,46103586266001;0,533554345819067;-0,171748345624029;0,417652797060497;-0,332641660384464;0,691483901089597;-0,427643422539864;0,156170709007558;0,00949351550268354;0,0496060513205407;0,0256940715156291;0,104407924689888;0,0371610733885576;0,00488019500151976;0,00391751356308254;0,0231662731372736;0,0146953070057743;0,0635023110434082;0,0242878447004258;0,00323910143079087;0,0113780339353589;1,78435021459529;0,0362265869687582
"classe 22";0,158806070395677;-0,102309896420555;-0,162212138936581;0,689095620937776;-0,821654854240444;1,62417170397601;0,0809360909335256;-0,0521426105404028;-0,0826720061442325;0,351200087623554;-0,418759382642513;0,827765011734966;0,00149284066101686;0,000547490360775615;0,00112378613240417;0,019070655206075;0,0252313695789144;0,097082110599822;0,000283187696159829;0,00011753723541908;0,000295465571865653;0,00533211075466723;0,00758086970344054;0,0296212963815454;0,0112289767222319;1,21781791622377;0,0166534761542785
"classe 23";1,76194609537675;-0,181646080643423;0,394079502026549;-0,204318276455441;-0,423653037293957;0,33790831666765;0,925016605230474;-0,0953636670900945;0,206890599043876;-0,107266504332496;-0,222416619544448;0,177400889155022;0,114316024116808;0,00107358360337405;0,00412598151128814;0,00104295047543431;0,00417277763934745;0,00261406095699593;0,0195122567978134;0,000207383562693926;0,000976090215415637;0,000262383608618282;0,00112808783668606;0,000717662129771961;0,00628524582018731;1,54404889621031;0,0149845728132993
"classe 24";0,92891640663015;0,0392301982707033;0,156055728364926;-0,038972221834613;-0,0825535923886694;-0,0645691981238567;0,978467662901185;0,04132285762541;0,164380220572816;-0,0410511199332956;-0,086957254745528;-0,0680135176133329;0,0541479620730868;8,53359024725757e-05;0,00110262031285584;6,46645944583299e-05;0,000270012282416893;0,000162658104741781;0,00986081578101181;1,7587357213748e-05;0,000278303718071535;1,73568100358753e-05;7,78810022479394e-05;4,76442356923611e-05;0,0114277196730678;1,18278977878952;0,0159872845246844
"classe 25";2,1920741859465;-0,478633807376825;-0,252401884032379;-0,642454675156081;-0,19716791423733;-0,696549153045894;0,892327258848374;-0,194837380991423;-0,102745191175877;-0,261523913237825;-0,0802611086669407;-0,283544142974442;0,141217976215048;0,00594905741184167;0,00135083524155386;0,00822984873158085;0,000721331154222905;0,00886500729640691;0,0324699145996696;0,00154802294153026;0,000430482831320938;0,0027890457511076;0,000262689754852511;0,00327849244900094;0,00675726032842273;1,72835218697175;0,0201852967172912
"classe 26";0,348304766814155;0,443539158562892;-0,781318084727562;-0,51179831205429;-0,144265496821406;0,144001624393371;0,313802384560193;0,399603045562454;-0,703922258458013;-0,461100582129589;-0,129974841649162;0,129737107902666;0,0056449730462581;0,00808851701361376;0,0204944609435203;0,00826928789365918;0,000611435577344447;0,000599893133875527;0,000967443509749176;0,00156881132443186;0,00486813409675485;0,00208883664380643;0,00016597081650992;0,000165364225592263;0,007974560902293;1,37356896375801;0,0150455378511405
"classe 27";1,02963438702467;0,582922244560037;-0,508028020982956;0,321440675196125;-0,232247157265821;0,328248527347219;0,742485551175773;0,420354399094488;-0,366346996492871;0,231795926691003;-0,167477078023607;0,236705175955041;0,0551014905815713;0,0156055995376211;0,00967855036822391;0,00364356323469603;0,00177003071160091;0,00348176067574094;0,00990274665428221;0,00317402869461394;0,00241082077755821;0,000965142088393989;0,000503837403766891;0,00100645685999335;0,00934091868929024;1,29964084576885;0,0157774312305799
"classe 28";1,19766276825076;-0,621118154506097;0,317987058325912;-0,569431168051038;0,242379885423154;-0,465531143273503;0,754304174554728;-0,391188596035227;0,200272540741947;-0,358635434421839;0,152654122887873;-0,293197796629608;0,0756867554278338;0,017987100764692;0,00384952718119557;0,0116080865421583;0,00195716148018037;0,00710958650546223;0,020169135126649;0,00542458632179206;0,00142179527992264;0,00455932601330958;0,000826059499005824;0,00304730312951494;0,0140610637716443;1,28987193109741;0,023394370427701
"classe 29";0,3527022416154;-0,0924087261475692;0,0667384675614117;-0,406832465219754;0,627061066433353;-0,448214265330548;0,372400638944539;-0,0975697475122118;0,0704658066481763;-0,429554032028026;0,662082386342363;-0,473247002992297;0,00604215741337704;0,000366491151428706;0,000156086652324941;0,00545423916815186;0,0120580751665251;0,00606656727346098;0,00114654761707788;7,87048731748763e-05;4,10514136202847e-05;0,00152548120425226;0,00362405958722466;0,00185159929089988;0,00921670434501776;1,3444176006414;0,0166588123146905
"classe 30";0,57854069609579;0,328433080762094;0,0846385556756876;0,698997791165349;1,40093104744594;-1,11093028709524;0,284505205023839;0,16151140552325;0,0416221534594449;0,343741609239847;0,688926773116536;-0,546314980484778;0,0216214346377631;0,00615704600016131;0,000333880362832601;0,021413894742925;0,0800447619760718;0,0495662846067817;0,00528011400441621;0,00170164616853871;0,000113008720911738;0,00770774039585406;0,0309605731947485;0,019469243913964;0,0157752217226045;1,16577207401056;0,0214389132642221
"classe 31";0,310705622518263;0,652544376635159;0,202795244540725;-0,225663311110809;1,20819162841698;-1,32560672904086;0,158734930884449;0,333375320615994;0,103605106547355;-0,115288065281872;0,617247325869253;-0,677232973155783;0,00634902495976402;0,024745192875643;0,00195147078165904;0,00227226039806043;0,0606126360119572;0,0718512424629259;0,00124230928481829;0,00547963472739152;0,000529233150471173;0,000655319994296421;0,0187846518690786;0,0226131418190101;0,0128686060666286;1,1553606779348;0,017177765567513
"classe 32";0,662149016426749;0,057871586071673;-0,005578346641399;-0,0409666632926388;0,693713542832474;-0,69861772449745;0,55707622247996;0,048688261641929;-0,00469314942343965;-0,0344658882947934;0,583631947397232;-0,587757911384951;0,023532825753489;0,000158838326734782;1,20506731862628e-06;6,1115471227374e-05;0,0163081863748615;0,016286879189067;0,00335477918530575;2,56261423032054e-05;2,38102228044993e-07;1,28414376670159e-05;0,00368224608572847;0,00373449311341899;0,00765160360718456;1,27891206989009;0,0125150859169068
"classe 33";0,816837669205137;0,165769085898377;-0,384879965860337;0,343553768548068;1,46126665420803;-1,85735975915428;0,319263595574149;0,0647913733587433;-0,150431556229035;0,134279080844103;0,571140709719034;-0,725954956949235;0,0226028857053729;0,000822548263734697;0,00362060123098606;0,00271274633299736;0,0456703184052158;0,0726575100915204;0,00571863471920617;0,000235520072905281;0,00126961326861664;0,00101160338856321;0,0183012093749936;0,0295673842905955;0,00857078975480088;1,6098143719337;0,0222112214659549
"classe 34";-0,518202063411423;-0,430718343695597;0,574318973904271;-0,831197164589022;0,356135401737913;-1,26807981459672;-0,289248338652283;-0,240416961138384;0,320571492835612;-0,463954924006123;0,198786497702865;-0,707812657548964;0,00825818231342727;0,00504121079301974;0,00731863737496623;0,0144152332495645;0,00246263020541213;0,0307450668807355;0,00253503301217463;0,00175134650352604;0,00311380686753417;0,00652219004893834;0,00119733488835588;0,0151802359613272;0,00944029016470822;1,6895805139039;0,0269490293624385
"classe 35";0,143313156232963;-0,726971679214953;0,304454534911747;-0,885144933523402;-0,222216573470672;0,52201828943941;0,108424937355637;-0,54999736835099;0,230337986707834;-0,669664854857622;-0,16812007139649;0,394937923486656;0,000936624632907341;0,0212956239455477;0,0030498329945076;0,0242409483927851;0,00142176907835936;0,00772611138679029;0,000195931874091128;0,00504159500643812;0,000884255695478054;0,00747414892016457;0,000471070452428835;0,00259958731750555;0,0095396616401262;1,38747529969542;0,0183646853548734
"classe 36";0,0386678618375152;-0,534230225305565;-0,214794174910786;-1,1462620957019;0,287641474001564;-0,223413951117248;0,0289860295412694;-0,400467270665649;-0,161013048133326;-0,859255862340377;0,215620514465958;-0,167474566197333;6,75571402266564e-05;0,0113943559547636;0,00150402013155011;0,0402778408104031;0,00236024273485888;0,00140212777316326;9,769173248687e-06;0,00186472333850146;0,000301441119478902;0,00858470465076605;0,000540580662802858;0,000326120480576718;0,00653367450873227;1,39391572350598;0,0126949363931727
"classe 37";0,31270903357139;-0,0207507121436382;0,580170824114429;-0,4237299400019;0,466012692794585;0,301256575664098;0,325617387769143;-0,021607283311879;0,604119766066442;-0,441221139687657;0,485249287371147;0,313692182460172;0,00436671803542063;1,69903465577692e-05;0,0108448556331911;0,00543976296063193;0,00612283426742514;0,00251966868355779;0,000748226900369241;3,29471971719338e-06;0,00257551588769318;0,00137382294767188;0,0016616821502115;0,0006944252977245;0,00765160360718456;1,40211888822188;0,0150425735231222
"classe 38";1,18096138915166;-0,0499471566988961;-0,0465939213362241;-0,122377802782849;1,55646063031889;-2,41324107412867;0,379956023274704;-0,0160697235383992;-0,0149908720321529;-0,0393731613155186;0,500767084268881;-0,776422912850499;0,0442855394780733;6,99961274900197e-05;4,97378234013915e-05;0,000322643724274056;0,0485679238904384;0,114970926614584;0,0142748107892284;2,55340969982183e-05;2,22206872595914e-05;0,000153286626212969;0,0247956354512176;0,0596074275837084;0,0102352619680521;1,66274908092667;0,0282977819422767
"classe 39";1,13326611592994;0,141302917371092;0,0839527419649354;0,5841897476123;0,463589363660657;-1,07154110952055;0,652586149302418;0,0813686436364782;0,0483438054241302;0,336403014700063;0,26695583097057;-0,61704208451291;0,0684437985180728;0,000940230822641022;0,000271005295217096;0,0123397265512769;0,00723135929872471;0,0380438134963263;0,0162398994748987;0,000252476979576903;8,91228978626784e-05;0,00431546293589544;0,00271760576683825;0,01451901666561;0,0126450202469381;1,28347330170345;0,0208301888440228
"classe 40";1,55181006177662;0,130509109376211;0,0260147786350362;0,247695770309746;0,487021211545171;-1,32920370951514;0,732250742934538;0,0615831760950472;0,0122755622301958;0,116879904505454;0,229810111922168;-0,627209751874851;0,0625340540060059;0,000390825632961559;1,26799469574923e-05;0,00108094604269322;0,00388882077729231;0,0285245380199954;0,0212975120002953;0,000150637603069117;5,98538394268891e-06;0,000542611415001229;0,0020977199000371;0,0156255327676054;0,00884406131220033;1,83866351627846;0,0298989723819162
"classe 41";0,865551058555309;-0,593483473092641;-0,0790907482701694;0,541505529638167;-0,93378734882307;1,01429068522721;0,476352599441443;-0,326621280557477;-0,0435272802890998;0,298015425092999;-0,513906171728146;0,558210864306105;0,0310271950442497;0,0128895074453577;0,00018691588472301;0,00823929971331357;0,0228000511350271;0,0264897633834538;0,00768665133632393;0,00361384113880915;6,41805104906288e-05;0,00300855246947203;0,00894638883301849;0,0105554480505621;0,0102601048369066;1,45593981053864;0,0217489673385677
"classe 42";0,108142638436965;0,0221398284307379;-0,0195023096178927;0,610197541687922;-0,534657284333929;0,751578522854952;0,0972863361985465;0,0199172391502765;-0,0175444975040106;0,548940584825664;-0,480983718045971;0,676128508707448;0,000869562623196409;3,22045603269317e-05;2,04040672152869e-05;0,018783444082222;0,0134196328943048;0,0261126974368541;0,000118537518724769;4,96832974438041e-06;3,85508540521991e-06;0,00377400800615729;0,00289742955730165;0,00572546326025059;0,0101358904926341;1,08659703730076;0,0119673761846343
"classe 43";-0,0843025009205909;-0,0212705834763005;-0,110723335936515;0,791950878994519;-0,46406102167334;0,775190952449007;-0,0696910345390146;-0,0175839263547848;-0,0915325612498154;0,654688478497195;-0,383629101586331;0,640833413617746;0,000274746844685769;1,54551254054805e-05;0,00034195411170219;0,0164503697520427;0,00525635510710774;0,01444326100388;5,27902662355204e-05;3,36071544245791e-06;9,10649511627013e-05;0,00465875021060088;0,00159964317986522;0,00446365197165133;0,0074280177874941;1,50694044540038;0,0168680590835232
"classe 44";0,854460557899028;-0,0530952537124205;-0,26036867787731;1,63559859372055;-0,16148454346308;0,236884198627913;0,452984854331838;-0,0281479882790271;-0,138032196489945;0,867098409484943;-0,0856096302178418;0,125582103488573;0,0346923131201796;0,000118364794407795;0,00232415132902665;0,0862442303861169;0,000782336971211777;0,0016577440336269;0,00660217711926721;2,54926234544062e-05;0,000613028415887675;0,0241911540645457;0,000235811537798486;0,000507429035741194;0,0090428042630363;1,35924385728214;0,0167069775255399
"classe 45";1,02002464740139;-0,52842368610734;0,0640337239899417;-0,472110522059482;-0,668581680093272;0,793848943980008;0,629708654976846;-0,326220517792662;0,0395309959515099;-0,291455782567482;-0,412746566062164;0,490079874091244;0,0401439206529777;0,00951973669855908;0,000114144156434161;0,00583462825088769;0,0108890530999603;0,0151171620671966;0,0073924621880012;0,00198395735282416;2,91330060639885e-05;0,00158363517455179;0,0031759724344897;0,00447758173839062;0,00710506049238566;1,5084216620974;0,0161663992859121
"classe 46";0,751248750837224;-0,311635871755866;0,0664831573697397;-0,353272724544818;-0,476452366806443;0,365251957784219;0,700199425476116;-0,290459395929812;0,0619654522450133;-0,329266915235457;-0,444076177341814;0,340432128119373;0,0281769735783121;0,00428433710131804;0,000159216400665124;0,00422741040332795;0,00715564050678898;0,00414102637478996;0,00520167461730543;0,000895097906879719;4,07379273430102e-05;0,00115025961403163;0,00209225509296093;0,00122959124236184;0,00921670434501776;1,326045963534;0,016206633541281
"classe 47";1,4801926214686;0,608058188588634;-0,785535433848125;0,583225306622114;0,587164256560524;-0,00839877379692471;0,753129486170632;0,309383079263861;-0,399684398558808;0,296747983422737;0,298752141057453;-0,0042733385522929;0,0863141781511621;0,0128705730267922;0,0175394083528789;0,00909171403608895;0,00857526614034666;1,72772060067453e-06;0,0166011455041432;0,00280150801223401;0,00467555473973228;0,00257735538411448;0,00261228650226301;5,34482334087702e-07;0,00757707500062107;1,4927914965317;0,0168849543610611
"classe 48";0,863945304210917;-0,916514294772347;0,262839259519376;-1,11076756358348;-1,53727173319575;1,56851111979795;0,311087421669483;-0,330016341884472;0,0946425510490849;-0,399962608448786;-0,553537240788675;0,564785846672922;0,0446355005671668;0,0443862371476462;0,00298075370554594;0,0500589421860857;0,0892261005379341;0,0914701074296313;0,00941971918225702;0,010600929468144;0,000871858345542059;0,0155708326533938;0,0298240584774997;0,0310485028079483;0,0126201773780836;1,21162445687247;0,0185268472621094
"classe 49";0,0586107668167546;-0,75492453218614;0,0180004784624136;-1,05983864931361;-0,30681569876391;0,630970086409389;0,0396128360073542;-0,510225395701008;0,0121658534790176;-0,716305499649501;-0,207365312206464;0,426449198943703;0,000272266641459671;0,0399124727464277;1,85287207203525e-05;0,0604013312535559;0,00471061379396589;0,0196179327150879;4,29264069605877e-05;0,00712158740456912;4,04890726436628e-06;0,01403618997782;0,00117631838926334;0,00497493341419437;0,0124959630338111;1,05245169935542;0,0138412106793651
"classe 50";0,875822460981849;-0,722842306543455;0,391366011481972;-0,817299197072286;-0,907220182290687;0,677752227557128;0,475463569356408;-0,392414214595134;0,212463471803854;-0,44369265551431;-0,492508659324096;0,367935863271091;0,0404089266669001;0,0243217160632002;0,00582169005379266;0,0238745216791794;0,0273749466338383;0,0150446863288438;0,00788922323872421;0,00537389546253525;0,00157531823582166;0,00687011856754755;0,00846501036172203;0,00472437100168635;0,0102849477057611;1,29092023582204;0,0171396087962512
"classe 51";0,110974832977146;0,376145700459643;0,148931520248929;-0,897884934718169;-0,473131881524977;0,46899096485106;0,0929323634490228;0,314991318365863;0,124717990534298;-0,75190533610278;-0,396209327769424;0,392741648089006;0,00109214622564155;0,0110867926083275;0,00141919719569209;0,048506566660132;0,0125336895601982;0,0121270959550625;0,000165825010469619;0,00190508008551058;0,000298658086756819;0,0108553143107015;0,00301415415757653;0,00296162444067933;0,0134648349191365;0,99496108022476;0,013329480355
"classe 52";-0,16983048111484;0,981749864915819;-0,411556671556434;-0,830054562772103;-0,787601154652358;1,41038674569354;-0,0804120964155901;0,464843320677051;-0,194865695112157;-0,39301794997976;-0,372916920267744;0,667796229707959;0,00120505571624088;0,0355827474521676;0,00510590640540883;0,0195306414453093;0,016363313581342;0,0516711771904289;0,000345366385018917;0,0115411871979826;0,00202818738630806;0,00825015422950279;0,00742782175207533;0,0238190930442526;0,0119742627878667;1,44955288197985;0,0251603635701745
"classe 53";0,822628647806138;0,0765093048811426;-0,332810431299187;-0,274415589267221;-0,626783049882736;0,261145102623216;0,713392104179683;0,0663496635377886;-0,288616661370425;-0,237976048085776;-0,543552768326855;0,226467744289522;0,045530789619073;0,00034800698899769;0,00537686450656261;0,00343749804116168;0,0166884010126748;0,00285270830854063;0,00726261718199054;6,28223251143248e-05;0,00118871940810449;0,000808170609728532;0,00421618811964255;0,000731895816898292;0,010732119345142;1,14228171768675;0,0140033500545679
"classe 54";0,349933275861172;-0,347930499282015;0,28341241450906;-0,0771303393016409;-0,402462797524395;0,615997658402962;0,374907223248302;-0,372761513029031;0,303638918294361;-0,082634957377559;-0,431185658206666;0,659960019723679;0,011717631733806;0,0102356703624968;0,00554555235618279;0,000386231082211799;0,00978596280592997;0,0225747814828263;0,00198344347019639;0,00196080471715332;0,0013010293157529;9,63606733657772e-05;0,00262361935286904;0,00614621099254644;0,0161975504931309;0,957827512309321;0,0148601761422876
"classe 55";-0,658959938393149;-1,04556215911365;1,39150008716714;1,07897443197588;-0,128764848773574;0,202992684657378;-0,304419884097012;-0,483018606669379;0,642831636001024;0,498454082545104;-0,0594855287181875;0,0937765802373742;0,0143785317520556;0,0319858694576203;0,0462594752173881;0,0261544866571995;0,000346636170264751;0,000848307610733425;0,00389427819906502;0,00980412099753837;0,0173650254595583;0,0104407393926817;0,000148697474646983;0,000369547035967801;0,00896827565647281;1,62825990727297;0,0237769643890732
"classe 56";-0,535095602881362;-0,612050824337529;0,752769042155897;0,745880794185296;0,359562930342985;0,615137520136639;-0,353476693458509;-0,40431223962674;0,497268732029162;0,492718451475072;0,237522257748901;0,406351267828255;0,0185637378219195;0,0214604866850853;0,0265072010600644;0,0244719675600329;0,00529218724373091;0,0152525750095451;0,00487964948443486;0,00638411698851173;0,00965715858068263;0,00948123064532478;0,00220331040174666;0,0064486721415641;0,0170422080341838;1,16364539850021;0,0230763530874018
"classe 57";-0,00124391951273556;0,613693119003915;0,274478049991887;-0,185947913848891;0,130001234694532;0,0626718211410605;-0,00174635521746514;0,861571966129916;0,385343400256548;-0,261054759734927;0,182510469657669;0,0879858067320149;7,7354162910044e-08;0,0166365614342442;0,00271739066449153;0,00117275995451487;0,000533429219892345;0,000122078682070336;1,55683049819027e-08;0,00378930251028905;0,000758004893314194;0,000347887953673654;0,000170040245794143;3,9518586239051e-05;0,0100613618860706;1,32517252324064;0,0176685786804099
"classe 58";-0,523848925701964;0,0825480727922883;-0,792657897016502;0,701227008991405;-0,387467181993169;0,423284599572752;-0,39821070091941;0,0627500111451319;-0,602549401694923;0,533047000869399;-0,294538311628707;0,321765396117572;0,00853443729657768;0,00018725722543586;0,0140984727115114;0,0103754615375207;0,0029479176177495;0,00346436613728722;0,00216109134563971;5,36629923231942e-05;0,0049480330340529;0,0038723827751987;0,00118230862364514;0,00141099652593949;0,00787518942687502;1,68012115040755;0,0222301404708924
"classe 59";-0,824776826697148;0,686072333809677;-0,288132040876204;0,347452619786143;1,74504181940282;1,45718660216769;-0,322926832345759;0,268619532394517;-0,112813023166613;0,136038950496574;0,683240373407766;0,570535735659653;0,0344675194972935;0,0210736068203066;0,00303499479073125;0,00415007253940404;0,0974162763736155;0,0668903611943195;0,0087708564924747;0,00606888513419349;0,00107041507158108;0,00155654000037403;0,0392627561625265;0,0273778565534422;0,0128934489354831;1,31629557925286;0,0223396286728333
"classe 60";0,740053045759401;-0,516161847855908;0,299203280287393;0,378541354095531;0,329368663535082;-0,601802932633448;0,600743029326658;-0,418997846006588;0,242880271913317;0,307283486079586;0,267367224324168;-0,488517571651777;0,0439938471142908;0,0189103676373886;0,00518843824022897;0,00780944697626662;0,0055019103964666;0,0180871821699984;0,00873499127432106;0,00424921372674981;0,0014278068984697;0,00228540639058522;0,00173022000857389;0,0057762419239369;0,015949121804586;1,04541533673505;0,0174306871853602
"classe 61";1,9992127004873;0,466713812071875;-0,974955221761811;2,73023288476088;-1,18259851376283;-0,0732642393571238;0,533868201440739;0,124630892639703;-0,260351282582572;0,729079261724564;-0,315800185450585;-0,0195644253790393;0,115551306120598;0,00556442243112661;0,0198273148856047;0,146212202271676;0,0255278494474974;9,64799383772238e-05;0,0493487480841052;0,0026894250327229;0,0117361992687996;0,0920359547785202;0,0172676323415091;6,6273853824143e-05;0,0123469058206842;1,74258334969058;0,0374925738483485
"classe 62";-1,54877083995546;-0,870433601864416;0,0579373356812959;0,881278974632581;0,198531763418711;0,482194031372939;-0,754978863758948;-0,424310010725734;0,028242695906609;0,429596801384697;0,0967782200562539;0,23505498200609;0,120992178551465;0,0337688442289557;0,000122162445937054;0,0265789099276685;0,0012552368720139;0,00729159777157162;0,0348007753703492;0,0109922320986938;4,87002996461069e-05;0,0112678592050183;0,000571840083330624;0,00337332554077324;0,0145082354110253;1,31926032649131;0,0252508265343581
"classe 63";-1,32306305400354;-1,52872916618427;0,42921220122969;0,193022340573431;0,0309139854283775;-0,29589479760345;-0,63092491044628;-0,729000261440938;0,204677070230221;0,0920459554606361;0,0147418548412466;-0,141102419959932;0,0988647022317923;0,116628103039267;0,0075069237848798;0,00142765315967465;3,4077905300552e-05;0,00307433302310876;0,0195693024169907;0,0261261468361142;0,00205948379395315;0,000416513819645752;1,06837632668291e-05;0,000978788638410903;0,0111792909845229;1,2467572379689;0,0173771302683657
"classe 64";-1,90438681656544;-3,24355614197068;1,77037114952211;2,59115505732209;-0,220121888509276;-0,44369768970742;-0,386794429028317;-0,658789188751836;0,359574899380258;0,526281915103928;-0,0447083121149376;-0,0901181383208064;0,100973743482255;0,258823016384374;0,0629599655748243;0,126827171504558;0,00085174050847287;0,00340775632292398;0,050184231111701;0,145579351613208;0,0433696172194011;0,0929059966664553;0,000670476255461602;0,00272415162590112;0,0138374779519539;1,77571361653832;0,0436317660376494
"classe 65";-1,24236959679937;-1,51483238094678;-0,272749089189173;-1,73541654873183;-0,579830709941246;-0,106825440563705;-0,460709897358753;-0,561747705787111;-0,101143979383238;-0,643547284238666;-0,21501954615654;-0,0396142483558827;0,060817057497603;0,07989412869809;0,00211489155063508;0,0805116302587834;0,00836390167532221;0,000279556266699421;0,0205143215425562;0,0304989360088741;0,000988740097002337;0,0400279176638405;0,00446846083328369;0,000151671825506717;0,013290934837155;1,49265726900949;0,0296125446962678
"classe 66";-1,15405042746885;-0,569407784841784;-1,80985174336871;-2,81697131555447;-0,797111036399972;-1,20793591849067;-0,298358240520366;-0,147209775916468;-0,467903454564405;-0,728275459460248;-0,206078209980196;-0,312289330452118;0,0419484491530365;0,0090235009527641;0,0744372033164104;0,169573726353749;0,0126353332004189;0,0285726288922304;0,0156168456431712;0,0038018112043062;0,0384087122242834;0,0930483325300963;0,00745043087604653;0,0171092722147644;0,0117258340993218;1,66950920856565;0,0326829600480251
"classe 67";-2,11823002146994;-0,473410409065068;-2,23151349452788;-0,879261590061974;-0,50915460436938;-2,27309409730335;-0,531387894091503;-0,118761682047878;-0,559806652004233;-0,220575178315311;-0,127728617874599;-0,570237733010524;0,160579140060556;0,00708729362551214;0,128581839565504;0,0187718238689091;0,00585767076916808;0,114967156757538;0,0644281740240254;0,00321814190514117;0,0715037172702236;0,0111010942163889;0,00372245054145063;0,0741932530758677;0,0143591781978983;1,56621198306353;0,0352233509568346
"classe 68";-0,921082608913517;-0,624404851544427;-0,507948476384226;-1,31619602344745;-0,582242819942971;-0,156392511090384;-0,485985095635036;-0,329450853328717;-0,268005699471889;-0,694456332298009;-0,307205162484363;-0,082516409194303;0,064118397396306;0,0260363416803005;0,01406897726637;0,0888288459988581;0,0161761995168186;0,00114924724804109;0,0188634856864438;0,00866876679193689;0,00573672598120999;0,0385181952913893;0,00753759962563667;0,000543821893648041;0,0222343676247733;1,07777781631847;0,0258275530794386
"classe 69";-0,872200367805286;-1,43837066110728;0,883609295940117;1,21307691943542;0,149205713931278;0,190518321693131;-0,384691473749273;-0,634405751067745;0,389723479627843;0,535038008620766;0,0658084634021268;0,0840297443726032;0,0442250003533069;0,106276899702679;0,0327486631651191;0,0580415993300138;0,000817125834898197;0,00131191253277951;0,0113959776763124;0,0309927912383356;0,0116960606386279;0,0220442708448453;0,000333495492933561;0,000543741590270607;0,0149802499192607;1,22886543949544;0,022621829226069
"classe 70";1,5406318517869;-0,054797738049138;-0,0188975722565079;-0,812058629005302;0,121741010699186;-0,734983967402742;0,812959521558488;-0,0289156315022601;-0,00997185750927383;-0,42850652071609;0,0642402100782653;-0,387835818011856;0,170339711050926;0,000190416840940699;1,84913194063329e-05;0,0321085216270903;0,000671544327183283;0,0241029369870414;0,0352025255791117;4,45349882218782e-05;5,29648939463874e-06;0,00978027010444827;0,000219811233711214;0,00801183154315027;0,0148311927061337;1,10601981253937;0,0181426988289217
"classe 71";1,5406318517869;-0,054797738049138;-0,0188975722565078;-0,812058629005302;0,121741010699186;-0,734983967402742;0,812959521558489;-0,0289156315022601;-0,00997185750927374;-0,42850652071609;0,0642402100782652;-0,387835818011855;0,170339711050926;0,000190416840940699;1,84913194063326e-05;0,0321085216270903;0,000671544327183281;0,0241029369870414;0,0352025255791117;4,45349882218782e-05;5,29648939463865e-06;0,00978027010444829;0,000219811233711213;0,00801183154315027;0,0148311927061337;1,10601981253937;0,0181426988289217
"classe 72";1,0114316694934;0,329543629581663;-0,403949552393251;0,0933200316888687;0,70174157697246;-1,16006800892826;0,570631650176935;0,18592261921922;-0,227901109509306;0,0526494920846757;0,395910041324025;-0,654489613306029;0,0595005416961481;0,00558130294020764;0,00684762227567541;0,000343656811423348;0,0180836027523793;0,0486643354695989;0,0109026516150661;0,00115740373709489;0,00173905493595424;9,28129964693941e-05;0,00524823720779619;0,0143425357093965;0,0106575907385785;1,22856482116001;0,0160862639304085
"classe 73";-0,148132428630635;-0,56045842650911;0,000495340847106103;-0,156734684131555;0,147486211846251;0,135821101148562;-0,233977522201198;-0,885252980347506;0,000782398730124916;-0,247564921301132;0,232956812533418;0,214531585036113;0,00159344140332359;0,0201550810126351;1,28552878647162e-08;0,00121030106246928;0,000997289785079512;0,000832849209957231;0,00024421933651108;0,00349596090315232;2,73078837740498e-09;0,000273407224852772;0,000242093206537928;0,000205311962827844;0,0111296052468139;1,09952240085746;0,0134551308094884
"classe 74";1,51629112514409;0,059168672885667;-0,328969470042077;0,61225528946659;0,191061971221778;-0,712795328646226;0,830885114313263;0,0324227773407956;-0,180266065789648;0,335498769162158;0,104696614764159;-0,390591897758352;0,155002361442787;0,000208554092249036;0,005264074521515;0,0171461096810545;0,0015538330488328;0,0212960418171111;0,0259883274083121;3,95728018341051e-05;0,00122327565796321;0,00423719289154391;0,000412630809267731;0,00574305311767187;0,0113035053287954;1,14113078855472;0,0147191926526549
"classe 75";0,735012704427682;-0,16451085999135;-0,048790258555474;0,257207992986448;0,474304128291809;-0,470473752950628;0,706562089471425;-0,158143031101397;-0,0469017022741797;0,247252075860053;0,455944929811423;-0,45226281930065;0,0268002828548926;0,00118631702218596;8,52027544951532e-05;0,00222661937938367;0,00704605798890228;0,00682679023098597;0,00542216592479364;0,000271626574771017;2,38918264299218e-05;0,000663975466898645;0,00225785954016644;0,00222153884418655;0,0100365190172161;1,33029250526885;0,017761408402556
"classe 76";-0,54778778612279;-0,856892128998106;0,162331316910887;0,286717072029271;0,896764393296417;-1,33795351029283;-0,283360423364555;-0,443254345207745;0,0839709680472572;0,148313403427816;0,463879525210463;-0,692098441628424;0,016572161581637;0,0358318067808603;0,00105001814339487;0,00308027118380929;0,0280410259388358;0,0614656656226084;0,00413732292095113;0,0101238811271233;0,000363328406075637;0,00113344861409426;0,0110879546687646;0,0246817970242272;0,0137877922142449;1,26079579738521;0,0219171578193137
"classe 77";-1,64759818848532;-2,34600137986147;1,14871135735069;1,11723508958686;-0,286648222880265;-1,00230709727044;-0,478160811219708;-0,680849208719018;0,333375429960297;0,324240485631449;-0,0831901538524523;-0,290886441895585;0,142147766118771;0,254657155943349;0,049853650795376;0,0443459476048145;0,00271655593834154;0,0327065782900008;0,0428905360317308;0,0869591705875929;0,0208487821944728;0,0197218657013648;0,00129824712545011;0,0158730532622118;0,015800064591459;1,29480173787905;0,0264889906268773
"classe 78";-0,779066532748171;-0,445790068331397;-0,43916030099689;0,103018022058469;-0,0320688447448979;-1,3358157384894;-0,466032573343303;-0,266668742632951;-0,262702858588788;0,0616247161218567;-0,0191833760178254;-0,799076356065125;0,0267834964445615;0,00774891474356075;0,00614047592155976;0,000317740055030183;2,86528299557418e-05;0,0489561615613616;0,00886600903086914;0,00290295196863518;0,00281724891916993;0,000155026337586699;1,50226207319741e-05;0,0260658675892788;0,0146076068864432;1,41046690384588;0,0290606198162774
"classe 79";-0,707836118309359;0,0275274492455132;-0,663588407177196;-0,299203056749562;0,210314734083908;-0,497838387778692;-0,615221983156478;0,0239257244410101;-0,576763696148061;-0,260054966366516;0,182796899512804;-0,432700610068008;0,0277789198034307;3,71230616851185e-05;0,017615103766385;0,00336751349536608;0,00154836031378718;0,00854324283550888;0,00546426440260978;8,26415031928875e-06;0,00480246101029602;0,000976333787913339;0,0004823981853937;0,00270298123101216;0,0109060194271234;1,25833718252048;0,017268727103497
"classe 80";-0,285859116403284;0,337779810562929;-0,610697861352911;-0,130863060517928;0,675138388831115;-0,616661502415166;-0,239721337224385;0,283262009952167;-0,512130974885748;-0,109741708626764;0,566170774675537;-0,51713208182317;0,00296779701463152;0,00366150309735563;0,00977283593138417;0,000421979762191148;0,0104519764656354;0,0085865725896025;0,000720666266438712;0,00100623049587594;0,00328914407971237;0,000151030355896012;0,00401990422194825;0,00335369661985765;0,00881921844334584;1,55473701218402;0,0213178781172704
"classe 81";1,10349745804926;-0,444900118913814;0,300242131169608;-0,879415488441093;-0,905118719361965;1,20707139077972;0,517019687133619;-0,208448255688017;0,140671907841143;-0,412030963349963;-0,424073652086668;0,565546996285887;0,105798342568274;0,0151957858370205;0,00565089409375418;0,045588131018531;0,0449396826572027;0,0787042484117605;0,0199658753968146;0,003245418637972;0,00147804940345606;0,0126804277163107;0,0134324977381073;0,0238897494847505;0,0163962934439669;1,00520326929348;0,0165673660178093
"classe 82";-0,0804280452359211;0,0494142003641338;-0,00288220929365745;-1,06918554440443;-0,0027271284408643;0,546796393006498;-0,0667672211998187;0,041021124365842;-0,00239266172501546;-0,887582777095975;-0,00226392158751834;0,453922206066777;0,000523216831428865;0,000174514755719384;4,84791970055257e-07;0,0627336004349174;3,79804916328414e-07;0,0150353670281803;7,85824623051823e-05;2,96629370143712e-05;1,00916373231456e-07;0,0138872662700844;9,03486756669763e-08;0,00363213421243147;0,0121481628698482;1,04181030207036;0,0131852358082494
"classe 83";0,107672631760053;0,183992576143025;-0,590124370430603;-0,964146893857322;-0,49619039271781;0,515668600821313;0,0794769054484807;0,135811304491275;-0,435591273519495;-0,71167027562127;-0,366255345317087;0,38063288655893;0,00069678527802563;0,00179783917870664;0,0151012577292352;0,0379054886608914;0,00934259944694529;0,0099363243121022;0,000125285745139721;0,000365840350109305;0,00376338027154772;0,0100456355135419;0,00266064974123848;0,00287364012756216;0,0108066479517055;1,20858676099817;0,0157850756988081
"classe 84";1,98150021197132;0,285743833913157;-0,83956825167643;1,42902162721684;-0,957976471252097;-0,888093091164956;0,681197502996602;0,098232634537379;-0,288625655037519;0,491267151175225;-0,329331875012622;-0,305307459709147;0,136676455576324;0,00251143028491177;0,0177033390136283;0,0482292426249074;0,0201696268743795;0,017069410278713;0,0317985702271588;0,000661261262264205;0,00570862298081394;0,0165385316971017;0,00743239926832967;0,00638757966798564;0,00809877524656547;1,58806859222808;0,0204248022328904
"classe 85";0,065075820276002;-0,206659294252974;0,0549134171812272;0,993911070057418;-1,56049922119694;1,58642377144013;0,0265898900709451;-0,0844407015235441;0,0224375462356982;0,406110687211238;-0,637617821357276;0,648210556695558;0,000188800793733802;0,00168242738220906;9,69971923792446e-05;0,0298804371201359;0,0685447731840214;0,0697588004479536;3,66117335313862e-05;0,000369224809022826;2,60698138898662e-05;0,00854035741146184;0,0210527146085006;0,0217580218403955;0,00864531836136437;1,40326512057655;0,0170239545753633
"classe 86";-0,147177046829837;0,0578394104498882;-0,260469279100889;0,657488281255178;-2,03375593876142;1,25666128975657;-0,0589156003829594;0,0231533630131295;-0,104266964788931;0,263195366867871;-0,814121187681332;0,503046881010135;0,000700966368845641;9,56591811103658e-05;0,00158404581697911;0,00949118466942266;0,0845079173315761;0,031772366253822;0,000131302121076857;2,02786616125634e-05;0,000411248748334341;0,00262040009333577;0,0250720151367885;0,00957255890766212;0,00606166000049686;1,64707540025495;0,0164444190317865
"classe 87";0,346747256346516;-0,402144363703748;-0,217889979240449;0,606609621626025;-0,93641569974846;0,180767362423272;0,273533806974248;-0,317234171990668;-0,171883913808446;0,478527907902917;-0,738697557297122;0,142599498381952;0,00601990174125766;0,00715466392923216;0,00171504516199922;0,0124999795417303;0,0277193745080944;0,00101718383800764;0,000881149967362229;0,00118518933573434;0,00034793512783529;0,00269676033462188;0,00642630206461487;0,000239476997954255;0,00732864631207612;1,32415955730483;0,0128500376939485
