"";"banalfreq";"X.K_1Ko_1";"X.K_1Ko_10";"X.K_1Ko_11";"X.K_1Ko_12";"X.K_1Ko_13";"X.K_1Ko_14";"X.K_1Ko_15";"X.K_1Ko_16";"X.K_1Ko_2";"X.K_1Ko_3";"X.K_1Ko_4";"X.K_1Ko_5";"X.K_1Ko_6";"X.K_1Ko_7";"X.K_1Ko_8";"X.K_1Ko_9";"X.K_1Tm_1";"X.K_1Tm_2";"X.K_1Tm_3";"X.K_1Tm_4";"X.K_1Tm_5";"X.K_1Tm_6";"X.K_1Ts_1";"X.K_1Ts_2";"X.K_1Ts_3";"X.K_1Ts_4";"X.K_1Ts_5";"X.K_2Ko_1";"X.K_2Ko_10";"X.K_2Ko_11";"X.K_2Ko_12";"X.K_2Ko_13";"X.K_2Ko_2";"X.K_2Ko_3";"X.K_2Ko_4";"X.K_2Ko_5";"X.K_2Ko_6";"X.K_2Ko_7";"X.K_2Ko_8";"X.K_2Ko_9";"X.K_2Tm_1";"X.K_2Tm_2";"X.K_2Tm_3";"X.K_2Tm_4";"X.K_2Ts_1";"X.K_2Ts_2";"X.K_2Ts_3";"X.K_Ef_1";"X.K_Ef_2";"X.K_Ef_3";"X.K_Ef_4";"X.K_Ef_5";"X.K_Ef_6";"X.K_Erm_1";"X.K_Erm_10";"X.K_Erm_11";"X.K_Erm_12";"X.K_Erm_13";"X.K_Erm_14";"X.K_Erm_15";"X.K_Erm_16";"X.K_Erm_2";"X.K_Erm_3";"X.K_Erm_4";"X.K_Erm_5";"X.K_Erm_6";"X.K_Erm_7";"X.K_Erm_8";"X.K_Erm_9";"X.K_Flm_1";"X.K_Flp_1";"X.K_Flp_2";"X.K_Flp_3";"X.K_Flp_4";"X.K_Ga_1";"X.K_Ga_2";"X.K_Ga_3";"X.K_Ga_4";"X.K_Ga_5";"X.K_Ga_6";"X.K_Kol_1";"X.K_Kol_2";"X.K_Kol_3";"X.K_Kol_4";"X.K_Tt_1";"X.K_Tt_2";"X.K_Tt_3"
"tratar";24;-0,1626;-0,1689;0,489;0,5364;-0,0348;0,4346;-0,2761;-0,1026;0,7393;-0,1044;0,5901;1,8601;-0,117;0,3646;-0,0783;-0,1626;-0,1217;-0,0673;-0,0608;-0,0749;0,6194;-0,1177;-0,0657;0,6178;-0,0707;-0,0835;-0,0978;-0,1476;0,7005;0,4985;-0,135;0,7737;-0,0897;-0,0989;-0,0999;-0,0683;1,8412;-0,1073;1,4358;-0,0926;-0,1075;-0,1062;-0,0777;-0,0947;-0,0743;-0,0965;-0,0793;-0,1324;-0,1311;-0,1078;-0,1413;-0,1256;-0,1125;-0,1703;0,7111;-0,1792;-0,1054;-0,0824;-0,1353;-0,1676;-0,1295;-0,1524;-0,1172;-0,1453;-0,1395;-0,123;-0,1508;-0,2344;-0,1574;-0,1558;-0,1558;-0,1117;-0,1167;-0,1185;-0,1052;-0,1448;1,2619;0,5263;-0,1143;-0,0924;-0,1724;0,5947;0,639;-0,0848;-0,0905;-0,0634;0,7908
"otro";168;-0,5779;0,5447;0,5377;1,4751;-0,2438;0,6707;0,8178;-0,293;-0,229;0,6285;-0,4132;-0,1926;0,5391;0,7017;-0,5488;0,5798;-0,3789;-0,472;-0,4263;-0,1795;0,243;-0,8256;-0,461;-0,8403;-0,1637;0,4113;0,682;-0,5031;1,1513;0,3048;-0,4419;-0,1997;-0,2387;-0,6935;-0,7008;-0,1551;0,4334;-0,7522;0,7837;-0,6495;-0,754;0,2931;-0,5451;-0,6642;-0,1775;-0,677;-0,5561;-0,9286;0,7964;-0,316;1,5728;0,4861;-0,3371;0,8593;-0,6587;-0,6629;1,5533;-0,209;1,1725;1,2737;-0,4157;1,0056;-0,3585;-1,0188;-0,4634;-0,8624;0,6523;-0,5596;-0,269;0,6205;0,6205;-0,3336;-0,3561;-0,3645;1,5572;-0,2284;-1,1644;0,3512;1,9751;-0,6477;-1,2087;-0,1768;0,9596;-0,5945;-0,2419;-0,4445;0,4571
"según";27;0,4637;1,1579;-0,1915;-0,1679;-0,0391;-0,2239;-0,3106;1,5444;-0,0983;0,6254;-0,1451;-0,088;-0,1316;0,3273;-0,088;-0,183;-0,1369;-0,0757;-0,0684;-0,0842;-0,1342;-0,1325;-0,074;-0,1348;-0,0795;-0,0939;-0,1101;-0,1661;-0,1086;-0,1865;-0,1519;-0,0901;-0,101;-0,1113;-0,1124;1,8728;-0,0901;-0,1207;0,5363;0,671;-0,121;-0,1195;-0,0875;0,6624;-0,0836;-0,1086;-0,0892;1,3436;0,5407;-0,1213;-0,159;-0,1413;0,5972;-0,1915;-0,1057;-0,2016;1,5224;-0,0927;-0,1522;0,4532;0,5451;-0,1714;-0,1319;-0,1634;-0,1569;-0,1384;-0,1697;-0,2637;-0,177;-0,1753;-0,1753;0,5998;0,5836;-0,1333;-0,1183;-0,1629;0,4564;1,2306;0,5912;0,6721;-0,1939;-0,1434;-0,1274;-0,0954;-0,1018;-0,0713;-0,0863
"sobre";54;0,6912;-0,3803;0,2319;-0,3359;-0,0783;-0,4479;-0,6215;0,3848;-0,1967;0,9953;-0,2904;0,477;-0,2632;-0,5527;-0,1761;0,2445;0,8865;-0,1515;-0,1368;-0,1685;0,3361;0,9095;0,5395;0,3348;-0,1591;-0,1879;1,0423;0,7545;-0,2173;0,2392;-0,304;-0,1803;0,4295;0,3968;-0,2249;-0,1538;-0,1803;-0,2414;-0,2986;0,4188;0,3693;-0,2391;-0,175;0,4113;0,4952;-0,2173;0,4724;0,304;0,307;-0,2426;0,2846;0,3202;0,9417;0,2319;-0,2114;-0,4034;-0,2373;-0,1855;-0,3045;0,6718;-0,2916;0,2628;-0,2638;-0,327;0,2884;0,879;0,2658;-0,5277;0,2537;0,2565;0,2565;-0,2514;-0,2626;0,3382;0,3765;-0,3258;-0,3737;-0,3453;-0,2573;0,4198;0,2286;-0,2868;0,9367;0,4491;1,0995;-0,1427;0,4842
"antepasado";11;-0,0745;1,8898;-0,078;-0,0684;-0,0159;-0,0912;-0,1265;-0,047;-0,04;-0,0478;-0,0591;-0,0359;-0,0536;-0,1125;-0,0359;-0,0745;0,9191;-0,0308;-0,0279;-0,0343;-0,0547;-0,054;-0,0301;-0,0549;-0,0324;-0,0383;-0,0448;-0,0677;-0,0442;-0,076;-0,0619;-0,0367;-0,0411;-0,0453;-0,0458;-0,0313;-0,0367;-0,0492;-0,0608;-0,0424;0,9696;-0,0487;-0,0356;-0,0434;-0,0341;-0,0442;-0,0363;-0,0607;-0,0601;-0,0494;-0,0648;-0,0576;-0,0516;-0,078;-0,043;0,7637;-0,0483;-0,0378;-0,062;0,7902;-0,0594;-0,0698;-0,0537;0,8473;-0,0639;-0,0564;-0,0691;-0,1074;1,9482;-0,0714;-0,0714;-0,0512;-0,0535;-0,0543;0,9787;-0,0663;-0,0761;-0,0703;-0,0524;-0,0423;-0,079;-0,0584;-0,0519;-0,0389;-0,0415;-0,029;1,1094
"naturaleza";20;-0,1355;-0,1408;0,5549;-0,1243;-0,029;-0,1658;1,0217;-0,0855;-0,0728;-0,087;-0,1075;-0,0652;-0,0975;0,4251;-0,0652;-0,1355;-0,1014;-0,0561;-0,0507;-0,0624;-0,0994;-0,0981;-0,0548;-0,0999;-0,0589;-0,0696;-0,0815;-0,123;-0,0804;-0,1381;-0,1125;-0,0667;-0,0748;-0,0824;-0,0833;-0,057;-0,0667;-0,0894;-0,1106;-0,0772;-0,0896;-0,0885;-0,0648;-0,0789;-0,0619;-0,0804;-0,0661;-0,1103;1,5931;-0,0898;1,5332;-0,1047;-0,0937;0,5549;-0,0783;-0,1493;-0,0879;0,8348;-0,1127;-0,1397;-0,1079;0,596;-0,0977;-0,1211;-0,1162;0,6774;0,5999;0,441;-0,1311;-0,1298;-0,1298;-0,0931;-0,0972;-0,0988;-0,0876;-0,1206;-0,1384;1,4683;0,7056;-0,077;-0,1436;0,6637;1,7107;-0,0706;-0,0754;-0,0528;-0,0639
"gente";26;0,4769;0,4636;-0,1845;-0,1617;-0,0377;0,4075;-0,2991;-0,1111;-0,0947;0,6397;0,5604;0,7512;-0,1267;-0,266;-0,0848;-0,1762;-0,1318;-0,0729;-0,0659;1,8296;-0,1293;0,5943;-0,0712;0,5877;-0,0766;0,7259;0,6644;-0,1599;-0,1046;-0,1796;-0,1463;-0,0868;-0,0972;-0,1071;-0,1083;-0,074;-0,0868;-0,1162;-0,1437;-0,1003;-0,1165;-0,1151;1,7989;0,6769;-0,0805;-0,1046;-0,0859;-0,1435;-0,142;-0,1168;0,5271;-0,1361;0,6114;0,4609;-0,1018;-0,1942;-0,1142;-0,0893;-0,1466;-0,1816;0,5589;-0,1651;-0,127;-0,1574;-0,1511;-0,1332;-0,1634;-0,254;-0,1705;0,4921;0,4921;0,614;0,5977;-0,1284;-0,1139;-0,1568;-0,1799;0,4976;-0,1239;0,6866;-0,1867;-0,1381;-0,1227;-0,0918;0,6943;-0,0687;-0,0831
"valor";15;0,6806;0,6659;-0,1064;-0,0933;-0,0217;-0,1244;-0,1725;0,8627;-0,0546;0,8555;-0,0806;-0,0489;-0,0731;-0,1535;0,9727;-0,1016;-0,076;-0,0421;-0,038;-0,0468;-0,0746;-0,0736;-0,0411;0,8003;-0,0442;-0,0522;-0,0611;-0,0923;-0,0603;-0,1036;-0,0844;-0,05;-0,0561;-0,0618;-0,0625;-0,0427;-0,05;-0,067;-0,0829;-0,0579;-0,0672;-0,0664;-0,0486;-0,0592;-0,0465;-0,0603;-0,0496;-0,0828;-0,0819;-0,0674;-0,0883;-0,0785;0,8255;-0,1064;-0,0587;-0,112;0,8515;-0,0515;-0,0846;-0,1048;-0,0809;0,7058;1,9248;0,7244;-0,0872;-0,0769;-0,0942;-0,1465;-0,0983;-0,0974;-0,0974;-0,0698;1,9284;-0,0741;-0,0657;-0,0905;0,6726;-0,0959;-0,0714;-0,0577;-0,1077;-0,0796;-0,0708;-0,053;-0,0566;-0,0396;-0,0479
"fin";26;0,4769;-0,183;-0,1845;-0,1617;1,0806;-0,2156;0,3029;-0,1111;-0,0947;1,561;-0,1398;-0,0848;-0,1267;-0,266;-0,0848;0,4769;-0,1318;-0,0729;-0,0659;-0,0811;0,5894;0,5943;-0,0712;1,4516;-0,0766;-0,0904;-0,106;-0,1599;-0,1046;0,4702;-0,1463;-0,0868;-0,0972;-0,1071;-0,1083;-0,074;-0,0868;-0,1162;-0,1437;-0,1003;-0,1165;-0,1151;-0,0842;-0,1026;0,7714;-0,1046;-0,0859;0,5508;1,3812;-0,1168;-0,1531;-0,1361;-0,1219;1,1809;-0,1018;1,1425;-0,1142;-0,0893;-0,1466;0,4663;-0,1403;-0,1651;-0,127;0,5171;-0,1511;-0,1332;-0,1634;-0,254;-0,1705;0,4921;0,4921;-0,121;-0,1264;-0,1284;-0,1139;0,5184;-0,1799;-0,1662;-0,1239;-0,1001;-0,1867;0,5649;-0,1227;0,7198;-0,0981;-0,0687;-0,0831
"verdadero";23;-0,1558;-0,1619;0,5042;0,552;-0,0333;-0,1907;-0,2646;-0,0983;-0,0838;-0,1;-0,1236;-0,075;-0,1121;-0,2353;-0,075;-0,1558;0,6281;-0,0645;-0,0583;-0,0717;0,6355;0,6406;0,8696;-0,1148;-0,0677;-0,08;-0,0938;-0,1415;-0,0925;-0,1589;0,5889;-0,0767;-0,086;-0,0948;-0,0958;-0,0655;-0,0767;-0,1028;0,5955;-0,0888;-0,103;-0,1018;0,8024;-0,0908;-0,0712;-0,0925;-0,076;-0,1269;-0,1256;-0,1033;-0,1354;-0,1204;-0,1078;-0,1632;0,7277;-0,1717;0,6828;-0,079;-0,1297;-0,1606;-0,1241;0,5443;-0,1123;-0,1392;-0,1337;-0,1179;-0,1445;-0,2247;1,3366;-0,1493;-0,1493;-0,1071;0,644;0,638;-0,1008;-0,1387;0,5132;-0,147;-0,1096;-0,0885;1,2666;-0,1221;1,5955;-0,0812;1,7766;-0,0607;-0,0735
"ángel";12;-0,0813;0,7527;0,7496;-0,0746;-0,0174;-0,0995;-0,138;-0,0513;-0,0437;-0,0522;0,8601;-0,0391;0,8998;-0,1228;-0,0391;-0,0813;-0,0608;-0,0336;-0,0304;-0,0374;0,8917;-0,0589;-0,0329;-0,0599;-0,0353;-0,0417;-0,0489;-0,0738;-0,0483;0,7601;-0,0675;-0,04;-0,0449;-0,0494;-0,05;-0,0342;-0,04;-0,0536;-0,0663;-0,0463;-0,0538;-0,0531;-0,0389;-0,0473;1,0861;-0,0483;-0,0396;-0,0662;-0,0655;-0,0539;-0,0707;-0,0628;-0,0562;-0,0851;-0,047;-0,0896;-0,0527;-0,0412;-0,0676;-0,0838;-0,0648;-0,0762;-0,0586;-0,0726;-0,0697;-0,0615;-0,0754;0,6261;-0,0787;-0,0779;-0,0779;-0,0558;-0,0583;-0,0593;0,943;-0,0724;0,7595;0,7908;-0,0572;-0,0462;-0,0862;0,8651;-0,0566;-0,0424;-0,0453;-0,0317;-0,0383
"siervo";12;-0,0813;-0,0845;-0,0851;-0,0746;-0,0174;-0,0995;-0,138;-0,0513;-0,0437;-0,0522;-0,0645;-0,0391;-0,0585;-0,1228;-0,0391;-0,0813;-0,0608;-0,0336;-0,0304;-0,0374;-0,0596;-0,0589;-0,0329;-0,0599;-0,0353;-0,0417;-0,0489;-0,0738;-0,0483;0,7601;-0,0675;-0,04;-0,0449;-0,0494;-0,05;-0,0342;1,0552;-0,0536;-0,0663;-0,0463;-0,0538;0,939;-0,0389;-0,0473;-0,0372;-0,0483;-0,0396;-0,0662;-0,0655;-0,0539;-0,0707;-0,0628;0,9155;0,7496;-0,047;-0,0896;-0,0527;-0,0412;-0,0676;-0,0838;-0,0648;-0,0762;-0,0586;-0,0726;-0,0697;-0,0615;-0,0754;-0,1172;0,7807;0,7847;0,7847;-0,0558;-0,0583;-0,0593;0,943;-0,0724;-0,083;-0,0767;-0,0572;0,9963;-0,0862;-0,0637;-0,0566;1,0316;1,0045;-0,0317;-0,0383
"oír";18;-0,122;-0,1267;-0,1277;0,6437;-0,0261;-0,1492;-0,2071;-0,0769;-0,0655;-0,0783;-0,0967;0,8983;-0,0877;-0,1842;-0,0587;-0,122;-0,0912;-0,0505;-0,0456;-0,0561;-0,0895;-0,0883;-0,0493;-0,0899;-0,053;0,8721;-0,0734;-0,1107;-0,0724;-0,1243;0,6819;-0,0601;-0,0673;-0,0742;-0,0749;-0,0513;-0,0601;-0,0804;-0,0995;-0,0695;-0,0806;0,7758;-0,0583;0,8214;-0,0558;-0,0724;-0,0595;0,6895;-0,0983;-0,0808;0,6644;-0,0942;-0,0844;-0,1277;1,9523;0,5749;-0,0791;-0,0618;-0,1015;0,5998;-0,0971;0,6357;-0,0879;-0,109;-0,1046;-0,0922;-0,1131;-0,1758;-0,118;-0,1168;-0,1168;-0,0838;-0,0875;0,7326;1,8593;-0,1086;-0,1245;-0,1151;-0,0857;-0,0693;1,4618;-0,0956;-0,085;-0,0636;-0,0679;-0,0475;-0,0575
"este";311;1,2641;0,4159;1,1663;-1,1988;-0,4521;-0,5258;0,371;-0,1957;0,581;-0,2041;-0,5816;0,3858;0,5723;0,5215;0,3858;0,2775;0,8093;-0,1698;-0,3383;1,1321;-0,278;0,3347;-0,3803;0,3223;-0,4235;1,4044;-0,3536;0,3522;-0,3448;0,4349;-0,6294;-0,2409;0,3017;1,1199;1,1031;0,4788;-1,0415;0,4044;1,3424;0,8443;-0,4207;0,6786;-1,0109;-0,6451;1,1421;0,2613;0,6753;0,4482;0,263;1,3665;-0,6803;-0,5551;-0,2431;-0,9261;0,2761;-0,4125;-0,7494;0,637;-1,0525;0,6379;-0,3338;-1,9816;-0,4914;0,3657;-0,6653;-0,2976;-0,2695;-0,7527;0,3018;0,3094;0,3094;-0,8117;-0,2643;-1,5414;-0,7468;-1,1516;0,2627;-0,4786;-0,2523;-0,6226;1,1407;0,7461;-0,247;0,6098;-0,3054;0,2489;-0,2211
"enseñanza";26;-0,1762;-0,183;0,4609;-0,1617;-0,0377;0,4075;0,3029;-0,1111;-0,0947;0,6397;-0,1398;-0,0848;-0,1267;-0,266;-0,0848;-0,1762;1,4397;-0,0729;-0,0659;1,8296;-0,1293;1,4655;-0,0712;-0,1298;-0,0766;1,7408;-0,106;-0,1599;-0,1046;-0,1796;-0,1463;-0,0868;-0,0972;-0,1071;-0,1083;-0,074;-0,0868;-0,1162;-0,1437;-0,1003;0,6284;0,6331;0,7538;0,6769;-0,0805;-0,1046;0,746;-0,1435;-0,142;-0,1168;0,5271;-0,1361;-0,1219;-0,1845;-0,1018;-0,1942;0,6359;-0,0893;-0,1466;-0,1816;1,3907;-0,1651;-0,127;-0,1574;-0,1511;0,5781;-0,1634;-0,254;-0,1705;-0,1688;-0,1688;-0,121;-0,1264;-0,1284;-0,1139;-0,1568;-0,1799;-0,1662;-0,1239;-0,1001;-0,1867;0,5649;-0,1227;-0,0918;0,6943;1,9663;-0,0831
"él";164;-0,2735;0,3079;-0,596;-0,2312;-0,238;-0,3998;-0,2424;-0,702;0,3999;0,3122;-0,1726;-0,5357;-0,3446;1,0473;0,4592;-0,2735;0,2449;-0,1455;-0,4161;-0,1727;-0,8167;0,2586;-0,45;-0,8203;-0,1575;-0,2052;0,343;1,5379;-0,6608;-0,5738;-0,4265;-0,1922;-0,6143;-0,2671;0,3327;-0,1491;0,4466;-0,3024;-0,4156;-0,634;0,2985;-0,2979;-0,5321;0,7304;0,488;-0,2574;-0,1892;0,8119;0,8227;0,2974;-0,2076;0,5039;0,2783;0,8905;1,216;-0,3292;-0,7217;-0,2012;0,4503;0,3124;-0,4012;-0,5085;0,2605;0,4018;-0,2022;0,5195;0,6764;-0,2979;-0,2566;0,3568;0,3568;1,4999;0,5594;-0,8113;-0,7199;-0,9909;-0,2847;-0,2442;-0,7826;-0,2404;1,7219;1,2967;0,5825;0,4159;-0,233;0,1994;-0,1795
"incluso";10;-0,0677;-0,0704;0,8219;-0,0622;-0,0145;-0,0829;-0,115;1,0283;-0,0364;-0,0435;-0,0537;-0,0326;0,9742;-0,1023;-0,0326;-0,0677;-0,0507;-0,028;-0,0253;-0,0312;-0,0497;-0,049;-0,0274;-0,0499;-0,0294;-0,0348;-0,0408;-0,0615;-0,0402;-0,0691;-0,0563;-0,0334;-0,0374;1,0433;-0,0416;-0,0285;-0,0334;-0,0447;-0,0553;-0,0386;-0,0448;1,0138;-0,0324;-0,0395;-0,031;1,0533;-0,033;-0,0552;-0,0546;-0,0449;-0,0589;-0,0523;-0,0469;1,966;-0,0391;-0,0747;-0,0439;-0,0343;-0,0564;-0,0698;-0,054;-0,0635;-0,0488;-0,0605;0,9022;-0,0512;-0,0628;-0,0977;-0,0656;-0,0649;-0,0649;-0,0465;-0,0486;0,9687;-0,0438;-0,0603;-0,0692;-0,0639;-0,0476;-0,0385;-0,0718;-0,0531;-0,0472;-0,0353;-0,0377;-0,0264;-0,0319
"hacerlo";15;-0,1016;-0,1056;-0,1064;-0,0933;-0,0217;-0,1244;-0,1725;-0,0641;-0,0546;-0,0652;-0,0806;-0,0489;-0,0731;0,5263;-0,0489;0,6806;-0,076;1,0348;-0,038;-0,0468;-0,0746;-0,0736;-0,0411;1,9066;-0,0442;0,9462;-0,0611;-0,0923;-0,0603;-0,1036;0,753;-0,05;-0,0561;-0,0618;-0,0625;-0,0427;-0,05;-0,067;1,8231;-0,0579;-0,0672;-0,0664;-0,0486;-0,0592;-0,0465;-0,0603;-0,0496;-0,0828;-0,0819;-0,0674;0,7351;-0,0785;-0,0703;-0,1064;-0,0587;-0,112;-0,0659;-0,0515;-0,0846;0,6689;-0,0809;-0,0952;-0,0732;-0,0908;-0,0872;-0,0769;0,7098;0,5431;-0,0983;-0,0974;-0,0974;-0,0698;-0,0729;-0,0741;-0,0657;-0,0905;-0,1038;-0,0959;-0,0714;-0,0577;0,6582;-0,0796;-0,0708;0,9399;-0,0566;-0,0396;-0,0479
"compartir";11;-0,0745;0,7871;-0,078;0,8366;-0,0159;-0,0912;-0,1265;-0,047;-0,04;-0,0478;-0,0591;-0,0359;-0,0536;-0,1125;-0,0359;-0,0745;-0,0558;-0,0308;-0,0279;-0,0343;-0,0547;0,9325;-0,0301;-0,0549;-0,0324;-0,0383;-0,0448;-0,0677;-0,0442;-0,076;-0,0619;-0,0367;-0,0411;-0,0453;-0,0458;-0,0313;-0,0367;-0,0492;-0,0608;-0,0424;-0,0493;-0,0487;-0,0356;-0,0434;-0,0341;-0,0442;-0,0363;-0,0607;0,8887;-0,0494;0,8584;-0,0576;-0,0516;-0,078;-0,043;-0,0821;-0,0483;-0,0378;-0,062;0,7902;-0,0594;-0,0698;-0,0537;-0,0666;-0,0639;-0,0564;-0,0691;0,6593;-0,0721;-0,0714;-0,0714;0,9539;-0,0535;0,9297;-0,0482;-0,0663;-0,0761;0,8255;-0,0524;1,0322;-0,079;-0,0584;-0,0519;-0,0389;-0,0415;-0,029;-0,0351
"demostrar";17;-0,1152;-0,1197;-0,1206;-0,1057;-0,0246;-0,1409;-0,1956;-0,0726;-0,0619;-0,0739;0,7219;-0,0554;-0,0828;-0,1739;-0,0554;-0,1152;-0,0862;-0,0477;-0,0431;-0,053;-0,0845;-0,0834;-0,0466;-0,0849;-0,0501;-0,0591;-0,0693;-0,1046;-0,0684;1,5392;-0,0956;0,9121;0,866;-0,07;-0,0708;-0,0484;0,9121;0,7946;1,718;0,8533;-0,0762;-0,0752;-0,0551;-0,0671;0,9424;-0,0684;-0,0562;-0,0938;-0,0929;-0,0763;-0,1001;-0,089;-0,0797;-0,1206;-0,0665;-0,1269;-0,0747;-0,0584;-0,0958;0,6213;-0,0917;-0,1079;1,8188;-0,1029;-0,0988;-0,0871;1,6149;-0,166;-0,1115;-0,1103;-0,1103;-0,0791;-0,0826;-0,0839;-0,0745;-0,1025;-0,1176;-0,1087;-0,081;0,8544;-0,1221;-0,0903;-0,0802;-0,06;-0,0641;-0,0449;-0,0543
"ahora";107;-0,7258;-0,3142;-0,7599;-0,26;1,3034;-0,4013;-0,3302;-0,1437;-0,39;-0,1479;0,4207;-0,3493;-0,1775;0,9791;-0,3493;-0,2966;-0,543;-0,3004;-0,2713;-0,3341;-0,5325;-0,1794;-0,2934;-0,1845;0,287;0,2396;-0,4367;-0,6589;-0,4309;-0,3054;-0,2227;0,2511;0,2201;-0,1355;-0,446;0,2971;-0,3574;1,0113;1,9298;-0,4134;-0,1552;-0,474;0,2595;0,2061;-0,3318;1,1153;-0,3539;-0,591;0,4121;1,0066;-0,6308;-0,1988;0,4962;-0,3179;-0,4192;1,4373;-0,4705;0,2431;-0,6038;0,2917;-0,2087;-0,68;0,473;-0,2495;0,7677;0,8815;0,7004;0,667;-0,7023;0,673;0,673;-0,165;0,9306;-0,529;-0,1497;0,7355;0,6206;1,1419;-0,1712;0,6137;0,5908;-0,2034;0,4923;-0,3784;0,2178;-0,2829;-0,3423
"encargo";13;-0,0881;-0,0915;-0,0922;0,7701;-0,0188;-0,1078;-0,1495;-0,0555;-0,0473;-0,0565;0,828;-0,0424;-0,0633;-0,133;-0,0424;0,7362;0,8515;-0,0364;-0,0329;-0,0405;0,8593;-0,0638;-0,0356;-0,0649;-0,0383;-0,0452;0,9398;-0,08;-0,0523;-0,0898;-0,0731;-0,0434;-0,0486;-0,0536;-0,0541;1,0878;-0,0434;-0,0581;0,8167;-0,0502;-0,0582;-0,0575;-0,0421;0,9531;-0,0403;-0,0523;-0,0429;-0,0717;-0,071;-0,0584;0,7916;-0,068;-0,0609;-0,0922;-0,0509;-0,0971;0,9094;-0,0446;-0,0733;0,7244;-0,0702;-0,0825;-0,0635;-0,0787;-0,0756;-0,0666;-0,0817;-0,127;-0,0852;-0,0844;-0,0844;-0,0605;-0,0632;-0,0642;-0,057;-0,0784;-0,0899;-0,0831;-0,0619;-0,05;0,7135;-0,069;-0,0614;-0,0459;-0,049;-0,0343;-0,0415
"encontrar";18;-0,122;-0,1267;-0,1277;-0,1119;-0,0261;0,5364;-0,2071;-0,0769;-0,0655;-0,0783;-0,0967;-0,0587;-0,0877;1,1887;-0,0587;-0,122;0,7224;-0,0505;-0,0456;-0,0561;-0,0895;-0,0883;-0,0493;-0,0899;-0,053;-0,0626;-0,0734;0,6477;-0,0724;-0,1243;1,6562;-0,0601;0,843;-0,0742;0,8;-0,0513;-0,0601;0,7719;-0,0995;0,8303;1,8412;-0,0797;-0,0583;-0,071;-0,0558;-0,0724;-0,0595;-0,0993;-0,0983;-0,0808;-0,106;-0,0942;-0,0844;-0,1277;-0,0704;-0,1344;-0,0791;-0,0618;-0,1015;-0,1257;-0,0971;-0,1143;-0,0879;-0,109;-0,1046;-0,0922;-0,1131;-0,1758;-0,118;0,6273;0,6273;1,81;-0,0875;-0,0889;-0,0789;-0,1086;-0,1245;-0,1151;-0,0857;-0,0693;-0,1293;0,7044;-0,085;-0,0636;-0,0679;-0,0475;-0,0575
"servir";45;-0,305;0,2858;-0,3193;0,3233;-0,0652;0,2391;0,9473;0,4463;-0,1639;-0,1958;-0,242;-0,1468;-0,2193;-0,1438;-0,1468;0,2971;0,3886;-0,1262;-0,114;0,5587;-0,2238;-0,2208;0,607;-0,2247;-0,1326;-0,1566;-0,1835;0,3266;-0,1811;0,8003;-0,2533;-0,1502;-0,1683;0,4589;-0,1874;-0,1282;0,5341;-0,2012;0,3604;-0,1737;1,1084;0,4343;-0,1458;-0,1776;-0,1394;-0,1811;-0,1487;-0,2483;-0,2459;-0,2022;-0,2651;-0,2356;0,4148;0,2835;0,477;-0,3361;1,979;-0,1546;0,3541;0,7929;0,3681;-0,2858;1,8565;-0,2725;-0,2616;-0,2306;0,8653;-0,4397;-0,2951;-0,2922;-0,2922;1,0801;-0,2188;-0,2223;-0,1972;-0,2715;0,2909;0,3147;0,4093;-0,1732;-0,3233;0,3734;1,0698;0,5134;-0,1698;-0,1189;-0,1438
"antes";56;-0,3796;-0,3944;0,2222;-0,3483;-0,0812;-0,4645;-0,6445;-0,2394;0,4262;-0,2437;0,3009;-0,1827;0,331;-0,5732;0,4643;-0,3796;0,861;-0,1571;-0,1419;-0,1748;0,3248;0,3289;-0,1534;0,8715;-0,165;-0,1949;-0,2284;-0,3446;0,3927;-0,387;-0,3152;1,1635;0,4172;-0,2308;-0,2333;0,5123;-0,1869;0,9495;-0,3097;-0,2162;1,7011;-0,2479;-0,1815;0,3991;-0,1735;1,0253;-0,1851;0,2931;0,8097;-0,2516;0,2739;0,839;-0,2626;-0,3974;-0,2192;-0,4183;0,3639;-0,1924;-0,3158;0,2263;0,8179;-0,3557;-0,2736;0,266;0,2777;1,5514;-0,352;-0,5472;0,6888;0,2463;0,2463;-0,2608;0,3317;-0,2767;1,7261;0,2671;0,2289;0,2506;0,3381;-0,2156;0,631;-0,2975;0,341;-0,1979;0,4142;-0,148;0,4713
"unión";17;-0,1152;-0,1197;-0,1206;-0,1057;-0,0246;-0,1409;0,4406;-0,0726;-0,0619;-0,0739;-0,0914;-0,0554;-0,0828;1,2333;-0,0554;-0,1152;0,7448;0,9832;-0,0431;-0,053;-0,0845;-0,0834;-0,0466;-0,0849;-0,0501;-0,0591;-0,0693;-0,1046;-0,0684;-0,1174;-0,0956;-0,0567;0,866;-0,07;-0,0708;-0,0484;0,9121;-0,076;-0,094;-0,0656;0,7936;-0,0752;0,9242;-0,0671;-0,0527;-0,0684;-0,0562;1,7196;-0,0929;-0,0763;0,6864;-0,089;0,7757;-0,1206;-0,0665;-0,1269;-0,0747;-0,0584;-0,0958;-0,1187;-0,0917;-0,1079;-0,083;-0,1029;-0,0988;1,7796;-0,1068;-0,166;-0,1115;-0,1103;-0,1103;-0,0791;-0,0826;-0,0839;-0,0745;-0,1025;-0,1176;-0,1087;-0,081;-0,0654;-0,1221;0,7266;0,7729;-0,06;-0,0641;-0,0449;-0,0543
"ninguno";31;1,0817;0,4034;-0,2199;-0,1928;-0,0449;-0,2571;-0,3567;0,5802;-0,1129;-0,1348;-0,1666;0,6826;0,5319;0,2854;-0,1011;1,0817;0,5176;-0,0869;-0,0785;-0,0967;-0,1541;0,5295;-0,0849;0,5231;0,7221;0,6578;-0,1264;-0,1907;-0,1247;0,4097;0,4804;-0,1034;-0,1159;-0,1277;-0,1291;-0,0883;0,6738;1,3982;-0,1714;-0,1196;-0,1389;0,5672;-0,1004;-0,1223;-0,096;1,4809;0,6775;-0,1711;-0,1694;-0,1392;-0,1826;0,5062;-0,1453;-0,2199;-0,1213;-0,2315;-0,1362;-0,1065;0,4798;-0,2165;-0,1673;-0,1968;-0,1514;-0,1877;-0,1802;-0,1589;-0,1948;0,8216;-0,2033;-0,2012;-0,2012;-0,1443;0,5328;-0,1531;0,5709;-0,187;-0,2145;0,436;-0,1477;-0,1193;-0,2227;-0,1646;-0,1463;-0,1095;0,627;-0,0819;-0,0991
"algo";27;0,4637;1,1579;-0,1915;-0,1679;-0,0391;1,0368;-0,3106;0,6321;-0,0983;-0,1174;-0,1451;-0,088;-0,1316;-0,2763;0,7364;0,4637;-0,1369;-0,0757;0,8366;0,7538;-0,1342;-0,1325;-0,074;-0,1348;-0,0795;-0,0939;-0,1101;-0,1661;-0,1086;1,172;-0,1519;-0,0901;1,6512;0,6459;-0,1124;-0,0769;-0,0901;-0,1207;1,3421;-0,1042;-0,121;-0,1195;-0,0875;-0,1066;-0,0836;-0,1086;-0,0892;-0,149;0,5407;-0,1213;0,5134;-0,1413;-0,1266;-0,1915;-0,1057;0,4302;-0,1186;-0,0927;1,3269;-0,1886;-0,1457;-0,1714;-0,1319;-0,1634;-0,1569;-0,1384;-0,1697;0,3418;-0,177;-0,1753;-0,1753;-0,1257;1,4423;-0,1333;-0,1183;0,5049;-0,1868;-0,1726;-0,1286;0,6721;-0,1939;-0,1434;-0,1274;-0,0954;-0,1018;-0,0713;-0,0863
"propio";84;-0,5696;0,8148;1,321;-0,1776;0,6117;-0,697;-0,9671;-0,3592;0,8078;0,2448;1,6957;0,3297;1,1684;1,3329;-0,2741;-0,2035;-0,4262;-0,2357;1,0652;-0,2622;1,8061;0,2125;-0,2303;0,6031;-0,2476;0,8392;-0,3427;-0,1746;0,2668;0,4167;-0,473;-0,2805;-0,3143;-0,3464;-0,35;-0,2394;-0,2805;-0,3757;0,5417;-0,3244;-0,3766;-0,372;0,3318;0,2724;-0,2604;-0,3381;0,3256;-0,4638;1,6731;-0,3775;-0,4951;0,5745;-0,394;-0,2187;-0,329;0,3763;-0,3693;0,3137;-0,1518;-0,5871;0,556;0,9096;-0,4106;-0,1702;-0,4886;-0,4307;-0,1806;0,542;0,4447;-0,5457;-0,5457;1,2153;0,6195;-0,4151;-0,3684;-0,1692;-0,2103;0,4587;0,2202;1,4158;-0,2229;-0,4464;-0,3968;0,3051;-0,3171;-0,222;-0,2686
"junto";19;0,5909;-0,1337;-0,1348;-0,1181;-0,0275;-0,1575;-0,2186;1,8345;-0,0692;-0,0826;-0,1021;-0,0619;-0,0926;-0,1944;-0,0619;-0,1287;-0,0963;-0,0533;-0,0481;-0,0593;-0,0944;-0,0932;-0,052;-0,0949;-0,056;-0,0661;-0,0775;0,6272;-0,0764;-0,1312;-0,1069;-0,0634;-0,071;-0,0783;-0,0791;-0,0541;-0,0634;1,7978;0,6679;-0,0733;-0,0851;0,7544;-0,0615;-0,075;-0,0589;-0,0764;-0,0628;-0,1048;-0,1038;-0,0853;-0,1119;-0,0994;-0,0891;-0,1348;-0,0744;-0,1419;0,7574;-0,0653;-0,1071;0,5796;-0,1025;-0,1206;-0,0928;-0,115;-0,1104;-0,0974;-0,1194;0,4587;-0,1246;0,6069;0,6069;-0,0884;-0,0924;0,7115;0,7583;-0,1146;0,5831;0,6127;0,7256;-0,0731;0,5693;-0,1009;-0,0897;-0,0671;-0,0717;-0,0502;-0,0607
"vez";54;-0,366;0,6668;1,9438;-0,3359;-0,0783;0,5654;0,383;0,3848;-0,1967;0,379;-0,2904;-0,1761;0,3424;-0,5527;-0,1761;-0,366;-0,2739;-0,1515;-0,1368;-0,1685;-0,2685;-0,265;-0,148;-0,2697;-0,1591;-0,1879;-0,2202;0,7545;0,4049;1,9826;0,8146;0,4689;-0,202;0,3968;-0,2249;0,5254;1,1912;-0,2414;-0,2986;-0,2085;0,3693;0,3733;0,4794;-0,2132;0,4952;-0,2173;-0,1785;-0,298;-0,2951;-0,2426;-0,3181;-0,2827;-0,2532;0,2319;0,4141;-0,4034;-0,2373;-0,1855;-0,3045;1,9665;-0,2916;-0,343;-0,2638;-0,327;-0,314;0,879;-0,3394;-0,1794;-0,3542;0,7191;0,7191;-0,2514;0,3431;0,3382;-0,2367;0,7677;-0,3737;0,7292;0,9302;-0,2079;-0,388;-0,2868;-0,255;0,4491;-0,2038;-0,1427;0,4842
"derramar";16;0,6558;-0,1126;-0,1135;-0,0995;-0,0232;-0,1327;-0,1841;-0,0684;-0,0583;-0,0696;-0,086;-0,0522;-0,078;-0,1637;-0,0522;-0,1084;1,8394;-0,0449;-0,0405;-0,0499;-0,0795;-0,0785;-0,0438;-0,0799;-0,0471;-0,0556;-0,0652;0,693;-0,0644;-0,1105;-0,09;-0,0534;-0,0598;-0,0659;-0,0666;-0,0456;-0,0534;-0,0715;-0,0884;-0,0617;0,8178;-0,0708;-0,0518;-0,0631;0,9672;-0,0644;-0,0529;1,7704;0,7393;-0,0719;-0,0942;-0,0837;-0,075;0,6383;-0,0626;-0,1195;-0,0703;-0,0549;-0,0902;-0,1117;-0,0863;-0,1016;0,7834;-0,0968;-0,093;-0,082;-0,1005;-0,1563;-0,1049;0,6723;0,6723;-0,0745;-0,0778;-0,079;0,8266;-0,0965;-0,1107;-0,1023;-0,0762;-0,0616;0,6337;-0,0849;-0,0755;-0,0565;0,887;-0,0423;-0,0511
"acción";12;-0,0813;-0,0845;-0,0851;-0,0746;-0,0174;1,6824;-0,138;-0,0513;-0,0437;-0,0522;-0,0645;-0,0391;-0,0585;-0,1228;-0,0391;-0,0813;-0,0608;1,1276;-0,0304;1,0832;-0,0596;-0,0589;-0,0329;-0,0599;-0,0353;-0,0417;-0,0489;-0,0738;-0,0483;-0,0829;-0,0675;-0,04;-0,0449;0,9682;-0,05;-0,0342;-0,04;-0,0536;-0,0663;-0,0463;-0,0538;-0,0531;-0,0389;-0,0473;-0,0372;-0,0483;-0,0396;-0,0662;0,8536;0,933;0,8235;-0,0628;-0,0562;0,7496;-0,047;-0,0896;-0,0527;-0,0412;-0,0676;-0,0838;-0,0648;0,7935;-0,0586;-0,0726;-0,0697;-0,0615;-0,0754;-0,1172;-0,0787;0,7847;0,7847;-0,0558;-0,0583;-0,0593;-0,0526;-0,0724;-0,083;-0,0767;-0,0572;-0,0462;-0,0862;-0,0637;-0,0566;-0,0424;-0,0453;-0,0317;-0,0383
"siempre";73;0,5055;-0,5142;-0,175;-0,4542;-0,1058;-0,6057;-0,3687;-0,3121;-0,266;-0,3177;-0,3926;-0,2382;-0,3559;-0,7474;-0,2382;-0,495;0,2413;-0,2048;-0,185;-0,2279;0,2467;0,2504;0,4328;0,6922;0,4082;0,3537;0,8271;-0,1391;0,3084;0,4945;-0,411;-0,2437;0,3308;0,3011;0,2979;-0,208;0,3671;-0,3265;-0,4038;0,3211;0,2763;-0,3233;0,3767;0,8495;1,0211;0,3084;-0,2414;0,2185;-0,399;0,7617;0,2016;0,2326;0,7334;0,9389;-0,2859;0,4509;-0,3209;-0,2509;-0,4118;-0,5102;0,2243;-0,1464;0,2517;-0,4422;-0,4246;0,2384;-0,4589;-0,2881;-0,1542;1,6319;1,6319;0,738;-0,3551;0,6993;0,2828;-0,4406;-0,5054;-0,148;-0,348;0,3219;0,4725;0,2287;0,2613;1,666;0,3281;0,4453;0,3812
"suceder";18;-0,122;1,4776;-0,1277;-0,1119;-0,0261;0,5364;-0,2071;-0,0769;-0,0655;-0,0783;-0,0967;-0,0587;-0,0877;-0,1842;0,8983;-0,122;-0,0912;-0,0505;-0,0456;-0,0561;-0,0895;-0,0883;-0,0493;0,7283;0,9396;-0,0626;-0,0734;-0,1107;-0,0724;-0,1243;-0,1013;-0,0601;-0,0673;-0,0742;0,8;-0,0513;-0,0601;-0,0804;-0,0995;-0,0695;-0,0806;0,7758;0,901;-0,071;0,9191;-0,0724;0,8929;-0,0993;-0,0983;-0,0808;-0,106;-0,0942;-0,0844;-0,1277;-0,0704;0,5749;-0,0791;-0,0618;-0,1015;-0,1257;-0,0971;-0,1143;-0,0879;-0,109;-0,1046;-0,0922;-0,1131;-0,1758;0,6235;-0,1168;-0,1168;-0,0838;-0,0875;-0,0889;0,7797;-0,1086;0,6033;0,6331;-0,0857;0,8315;0,5893;-0,0956;-0,085;-0,0636;-0,0679;-0,0475;-0,0575
"aquel";57;-0,3864;0,2196;0,6275;-0,3545;-0,0826;-0,1506;0,3556;-0,2437;0,4202;-0,248;-0,3065;-0,1859;-0,2779;-0,5835;-0,1859;-0,3864;0,3133;-0,1599;-0,1444;-0,1779;-0,2835;0,3234;-0,1562;-0,2847;-0,168;-0,1983;-0,2325;-0,3508;0,3869;0,2246;-0,3209;-0,1903;-0,2132;0,9949;-0,2375;-0,1624;-0,1903;0,9368;-0,3152;-0,2201;0,9351;-0,2524;0,4604;0,3932;0,476;1,8029;-0,1884;-0,3146;0,2908;-0,2561;-0,3358;0,3037;-0,2673;-0,4045;-0,2232;-0,4258;-0,2505;-0,1959;1,4277;0,2216;-0,3078;0,2476;-0,2785;1,3517;1,3949;0,8413;1,3123;0,8747;0,6773;-0,3702;-0,3702;-0,2654;0,3262;-0,2816;-0,2499;-0,3439;1,212;0,6936;0,3325;-0,2194;0,2143;0,8169;-0,2692;-0,2014;-0,2151;0,533;-0,1822
"manera";62;1,1461;-0,4366;0,5754;1,2341;0,7284;-0,5143;-0,2877;-0,2651;0,392;0,3347;-0,3334;-0,2023;-0,3023;1,2487;-0,2023;0,6034;-0,3145;-0,1739;-0,1571;-0,1935;-0,3084;-0,3043;1,2353;0,2925;-0,1827;1,0566;-0,2529;-0,3816;-0,2495;0,2026;0,2578;0,4212;-0,232;-0,2556;0,9269;-0,1766;0,4212;0,8772;0,7331;-0,2394;-0,2779;0,884;-0,2009;-0,2448;1,1424;0,9514;-0,205;-0,3422;0,2662;-0,2786;0,2451;-0,3246;0,3115;0,5754;-0,2428;0,5448;0,8892;-0,2131;0,7202;0,1998;-0,3348;-0,3938;0,2991;0,2375;-0,3605;-0,3178;-0,3897;-0,2235;-0,4067;-0,4026;-0,4026;0,3137;0,3005;-0,3063;-0,2718;-0,3741;0,2022;0,6396;-0,2955;0,3738;-0,1369;-0,3294;-0,2928;-0,2191;-0,234;0,5027;-0,1982
"orgullo";11;-0,0745;-0,0774;-0,078;-0,0684;-0,0159;-0,0912;-0,1265;-0,047;-0,04;-0,0478;-0,0591;1,101;-0,0536;-0,1125;-0,0359;0,8022;-0,0558;-0,0308;1,2067;-0,0343;-0,0547;-0,054;-0,0301;-0,0549;-0,0324;-0,0383;-0,0448;0,8409;-0,0442;1,9053;0,8768;-0,0367;-0,0411;-0,0453;-0,0458;-0,0313;-0,0367;-0,0492;-0,0608;1,031;-0,0493;-0,0487;-0,0356;-0,0434;-0,0341;-0,0442;-0,0363;-0,0607;-0,0601;-0,0494;-0,0648;-0,0576;-0,0516;-0,078;-0,043;-0,0821;-0,0483;-0,0378;-0,062;-0,0768;-0,0594;-0,0698;0,9343;-0,0666;-0,0639;-0,0564;-0,0691;-0,1074;-0,0721;-0,0714;-0,0714;0,9539;-0,0535;-0,0543;-0,0482;-0,0663;-0,0761;-0,0703;-0,0524;-0,0423;-0,079;0,9003;-0,0519;-0,0389;-0,0415;-0,029;-0,0351
"fuerte";13;1,7783;0,7213;-0,0922;-0,0808;-0,0188;-0,1078;0,5357;-0,0555;-0,0473;0,9134;0,828;-0,0424;-0,0633;-0,133;-0,0424;-0,0881;-0,0659;-0,0364;-0,0329;-0,0405;-0,0646;-0,0638;-0,0356;0,8576;-0,0383;-0,0452;-0,053;-0,08;0,9453;-0,0898;0,8097;1,0221;-0,0486;-0,0536;-0,0541;-0,037;-0,0434;-0,0581;-0,0719;-0,0502;-0,0582;-0,0575;-0,0421;-0,0513;-0,0403;-0,0523;-0,0429;-0,0717;-0,071;-0,0584;-0,0765;-0,068;-0,0609;-0,0922;-0,0509;-0,0971;-0,0571;-0,0446;-0,0733;1,7537;-0,0702;-0,0825;-0,0635;-0,0787;-0,0756;-0,0666;-0,0817;-0,127;-0,0852;-0,0844;-0,0844;-0,0605;-0,0632;-0,0642;-0,057;-0,0784;-0,0899;-0,0831;-0,0619;-0,05;0,7135;-0,069;-0,0614;-0,0459;-0,049;-0,0343;-0,0415
"enemigo";16;-0,1084;-0,1126;-0,1135;-0,0995;-0,0232;-0,1327;1,1919;-0,0684;-0,0583;-0,0696;-0,086;-0,0522;-0,078;-0,1637;-0,0522;-0,1084;-0,0811;-0,0449;-0,0405;-0,0499;0,7764;-0,0785;-0,0438;-0,0799;-0,0471;-0,0556;-0,0652;-0,0984;-0,0644;-0,1105;-0,09;-0,0534;-0,0598;-0,0659;-0,0666;-0,0456;-0,0534;-0,0715;-0,0884;-0,0617;-0,0717;-0,0708;0,949;-0,0631;-0,0496;0,861;0,9408;-0,0883;-0,0874;-0,0719;-0,0942;-0,0837;-0,075;0,6383;-0,0626;0,6189;0,8256;-0,0549;-0,0902;-0,1117;-0,0863;-0,1016;-0,0781;-0,0968;0,715;-0,082;-0,1005;0,5197;-0,1049;0,6723;0,6723;-0,0745;0,7852;-0,079;-0,0701;-0,0965;-0,1107;0,6782;-0,0762;-0,0616;0,6337;-0,0849;-0,0755;-0,0565;-0,0603;-0,0423;-0,0511
"convencer";14;-0,0949;-0,0985;-0,0993;-0,087;-0,0203;0,6298;-0,161;-0,0598;0,9557;-0,0609;-0,0752;-0,0456;-0,0682;-0,1432;-0,0456;-0,0949;-0,071;-0,0393;-0,0355;-0,0437;-0,0696;-0,0687;1,0731;-0,0699;-0,0412;-0,0487;-0,0571;-0,0861;-0,0563;-0,0967;-0,0788;-0,0467;-0,0523;-0,0577;-0,0583;1,057;-0,0467;-0,0626;-0,0774;-0,054;-0,0627;-0,062;1,0038;0,9229;-0,0434;-0,0563;-0,0463;-0,0772;-0,0765;-0,0629;-0,0824;-0,0733;-0,0656;-0,0993;-0,0548;-0,1045;-0,0615;-0,0481;0,7795;0,6955;-0,0756;0,7327;-0,0684;0,7514;-0,0814;-0,0717;-0,088;0,5685;-0,0918;0,724;0,724;-0,0652;-0,0681;-0,0691;-0,0613;-0,0844;-0,0968;-0,0895;-0,0667;-0,0539;-0,1005;-0,0743;-0,0661;-0,0495;0,9413;-0,037;-0,0447
"agradar";20;-0,1355;1,3927;-0,1419;-0,1243;-0,029;-0,1658;-0,2301;-0,0855;-0,0728;-0,087;-0,1075;-0,0652;-0,0975;1,1078;-0,0652;-0,1355;-0,1014;0,9167;-0,0507;-0,0624;0,6891;-0,0981;-0,0548;1,6653;-0,0589;0,8297;-0,0815;-0,123;-0,0804;-0,1381;-0,1125;-0,0667;-0,0748;-0,0824;-0,0833;-0,057;-0,0667;1,755;-0,1106;-0,0772;-0,0896;0,7343;-0,0648;-0,0789;-0,0619;-0,0804;-0,0661;-0,1103;-0,1092;-0,0898;-0,1178;0,6693;-0,0937;-0,1419;-0,0783;-0,1493;-0,0879;-0,0687;0,6408;1,3988;-0,1079;-0,127;-0,0977;-0,1211;-0,1162;-0,1025;0,5999;0,441;-0,1311;-0,1298;-0,1298;-0,0931;-0,0972;-0,0988;-0,0876;-0,1206;-0,1384;-0,1278;-0,0953;-0,077;0,5504;-0,1062;0,7092;-0,0706;-0,0754;-0,0528;-0,0639
"nadie";70;1,6317;0,5079;-0,4969;0,5813;-0,1015;1,3598;-0,8058;-0,2993;0,3525;0,8118;0,2368;-0,2284;-0,3413;-0,7166;-0,2284;0,53;-0,3551;-0,1964;-0,1774;-0,2185;0,2585;0,2623;-0,1918;0,7196;-0,2063;1,7313;0,3171;-0,4309;0,3212;0,5188;0,643;-0,2337;-0,2619;-0,2886;-0,2917;0,4339;0,3807;1,4534;-0,3872;-0,2703;-0,3138;-0,31;-0,2269;0,3271;-0,217;-0,2817;0,384;-0,3864;0,2324;0,2879;-0,4125;0,6891;-0,3283;-0,1635;0,3297;-0,1775;0,805;0,3713;-0,3949;-0,4892;-0,378;-0,4447;0,2635;-0,424;-0,4071;-0,3589;-0,4401;-0,2701;0,5494;-0,4546;-0,4546;1,4095;0,7371;-0,3459;0,2952;0,5998;0,5178;-0,4477;-0,3337;0,8963;-0,503;0,6798;0,2733;-0,2474;-0,2642;1,1703;0,395
"paciencia";15;-0,1016;-0,1056;-0,1064;-0,0933;-0,0217;-0,1244;-0,1725;-0,0641;-0,0546;-0,0652;-0,0806;-0,0489;-0,0731;-0,1535;-0,0489;-0,1016;0,7942;-0,0421;-0,038;-0,0468;-0,0746;-0,0736;-0,0411;-0,0749;-0,0442;-0,0522;0,8816;-0,0923;-0,0603;-0,1036;0,753;-0,05;-0,0561;-0,0618;-0,0625;-0,0427;0,9632;-0,067;-0,0829;-0,0579;-0,0672;0,8485;0,9754;0,8948;-0,0465;-0,0603;-0,0496;-0,0828;-0,0819;-0,0674;0,7351;-0,0785;-0,0703;-0,1064;-0,0587;-0,112;-0,0659;-0,0515;-0,0846;-0,1048;-0,0809;0,7058;0,8091;-0,0908;-0,0872;-0,0769;-0,0942;-0,1465;0,6933;-0,0974;-0,0974;-0,0698;-0,0729;-0,0741;-0,0657;-0,0905;-0,1038;-0,0959;0,819;-0,0577;0,6582;-0,0796;1,9528;-0,053;-0,0566;-0,0396;-0,0479
"ante";16;-0,1084;-0,1126;-0,1135;-0,0995;-0,0232;-0,1327;-0,1841;-0,0684;0,9012;-0,0696;-0,086;-0,0522;0,7843;-0,1637;-0,0522;-0,1084;-0,0811;1,0081;-0,0405;-0,0499;-0,0795;0,7817;-0,0438;-0,0799;-0,0471;-0,0556;-0,0652;-0,0984;-0,0644;0,6485;0,7277;-0,0534;-0,0598;0,8513;-0,0666;-0,0456;-0,0534;-0,0715;-0,0884;-0,0617;-0,0717;-0,0708;-0,0518;0,8687;-0,0496;-0,0644;-0,0529;-0,0883;-0,0874;-0,0719;-0,0942;-0,0837;-0,075;-0,1135;-0,0626;0,6189;-0,0703;-0,0549;-0,0902;0,6442;-0,0863;-0,1016;-0,0781;-0,0968;-0,093;-0,082;-0,1005;-0,1563;-0,1049;0,6723;0,6723;-0,0745;-0,0778;-0,079;-0,0701;1,6981;0,6479;-0,1023;-0,0762;-0,0616;-0,1149;-0,0849;-0,0755;0,9136;-0,0603;-0,0423;-0,0511
"contrario";39;-0,2643;0,3292;-0,2767;0,3687;-0,0565;-0,3234;0,5664;0,4966;0,5545;-0,1697;-0,2097;-0,1272;0,4504;-0,3991;-0,1272;0,3411;-0,1977;-0,1094;-0,0988;-0,1217;0,4435;0,4481;0,6614;0,442;-0,1149;-0,1357;0,5134;-0,24;0,5182;-0,2695;0,4015;-0,1302;0,5447;0,5096;0,5058;-0,1111;0,5868;0,4807;-0,2156;-0,1505;0,4798;0,4841;-0,1263;-0,1539;-0,1208;-0,1569;0,5904;-0,2152;-0,2131;-0,1752;-0,2297;0,4259;-0,1828;0,3268;-0,1527;0,846;1,2319;0,576;-0,2199;0,3316;0,4155;-0,2477;0,4497;-0,2361;0,3907;0,4331;-0,2451;-0,381;0,3516;-0,2532;-0,2532;-0,1816;-0,1897;-0,1926;0,4876;-0,2353;-0,2699;0,3597;-0,1858;-0,1501;-0,2801;-0,2071;-0,1841;-0,1378;0,5416;-0,103;-0,1246
"caso";24;-0,1626;0,4918;0,489;-0,1492;-0,0348;-0,199;0,3275;0,6771;-0,0874;-0,1044;-0,129;0,7828;-0,117;0,9716;-0,0783;-0,1626;0,612;-0,0673;-0,0608;1,8965;0,6194;-0,1177;-0,0657;-0,1198;-0,0707;-0,0835;-0,0978;-0,1476;0,7005;-0,1658;-0,135;-0,0801;-0,0897;-0,0989;-0,0999;-0,0683;-0,0801;-0,1073;-0,1327;-0,0926;-0,1075;0,6636;-0,0777;0,7079;0,8032;-0,0965;0,7776;-0,1324;-0,1311;-0,1078;-0,1413;0,6001;-0,1125;-0,1703;-0,0939;-0,1792;-0,1054;-0,0824;-0,1353;-0,1676;-0,1295;-0,1524;0,6261;-0,1453;0,5611;-0,123;0,5326;-0,2344;-0,1574;-0,1558;-0,1558;-0,1117;-0,1167;-0,1185;-0,1052;-0,1448;-0,166;-0,1534;0,6355;-0,0924;-0,1724;-0,1274;-0,1133;-0,0848;0,7255;-0,0634;1,8767
"entonces";29;-0,1965;0,4259;0,4233;-0,1803;-0,042;0,3714;1,4059;-0,1239;-0,1056;0,5985;1,3076;0,7085;-0,1413;-0,2967;-0,0946;-0,1965;-0,147;-0,0813;-0,0735;-0,0905;-0,1442;-0,1423;-0,0794;-0,1448;0,7482;-0,1009;-0,1182;-0,1784;-0,1167;-0,2003;-0,1632;-0,0968;-0,1084;-0,1195;-0,1208;-0,0826;-0,0968;-0,1296;-0,1603;-0,1119;-0,1299;0,592;-0,0939;-0,1144;-0,0898;0,6279;-0,0958;-0,16;-0,1584;-0,1303;-0,1708;-0,1518;-0,1359;-0,2057;-0,1135;-0,2166;-0,1274;0,6883;0,5035;-0,2026;-0,1565;-0,1841;1,3819;0,4782;-0,1686;-0,1486;0,4651;0,3195;-0,1902;1,1641;1,1641;-0,135;-0,141;-0,1432;1,4669;-0,1749;1,1165;-0,1854;0,5647;-0,1116;-0,2083;-0,154;-0,1369;-0,1025;-0,1094;-0,0766;-0,0927
"mano";18;-0,122;-0,1267;1,4715;1,5762;-0,0261;-0,1492;-0,2071;-0,0769;-0,0655;-0,0783;0,6996;-0,0587;-0,0877;-0,1842;-0,0587;-0,122;-0,0912;0,9597;-0,0456;0,9163;0,7301;-0,0883;-0,0493;0,7283;-0,053;0,8721;-0,0734;-0,1107;-0,0724;0,6039;-0,1013;-0,0601;-0,0673;-0,0742;-0,0749;-0,0513;-0,0601;-0,0804;-0,0995;-0,0695;0,7709;-0,0797;-0,0583;-0,071;-0,0558;-0,0724;-0,0595;-0,0993;-0,0983;-0,0808;0,6644;-0,0942;-0,0844;-0,1277;0,8247;-0,1344;0,7787;-0,0618;-0,1015;-0,1257;-0,0971;-0,1143;-0,0879;-0,109;-0,1046;-0,0922;-0,1131;-0,1758;-0,118;-0,1168;-0,1168;-0,0838;-0,0875;-0,0889;-0,0789;0,6553;-0,1245;-0,1151;-0,0857;0,8315;-0,1293;0,7044;-0,085;-0,0636;-0,0679;-0,0475;-0,0575
"tanto";68;-0,1449;-0,1541;0,5203;-0,423;-0,0986;-0,2;-0,3313;-0,2907;-0,2478;-0,2959;0,2447;-0,2218;-0,3315;1,1306;0,3979;-0,1449;0,2612;-0,1908;0,4848;-0,2122;-0,3382;-0,3338;-0,1864;1,3659;0,4322;-0,2366;0,326;-0,4185;-0,2737;-0,1495;0,6614;-0,227;0,9372;0,3227;-0,2833;0,4438;0,3903;-0,3041;-0,3761;0,3432;-0,3048;-0,3011;-0,2204;0,3362;-0,2108;-0,2737;-0,2248;1,2607;0,6803;0,2965;0,22;0,2522;0,2838;-0,4827;-0,2663;-0,1694;0,3032;0,3808;0,6602;-0,4752;0,6881;-0,432;0,7535;0,2128;0,2235;0,2581;-0,4275;-0,6646;-0,4461;0,5729;0,5729;0,7856;-0,3308;0,7461;-0,2981;0,6178;1,0322;-0,4349;0,2791;-0,2618;-0,1591;0,2481;0,2818;-0,2403;-0,2566;-0,1797;-0,2174
"todavía";23;-0,1558;-0,1619;-0,1632;1,3779;-0,0333;-0,1907;0,9192;-0,0983;-0,0838;0,6867;-0,1236;-0,075;-0,1121;-0,2353;1,8958;-0,1558;0,6281;-0,0645;-0,0583;-0,0717;-0,1143;0,6406;-0,063;-0,1148;0,8403;0,7741;-0,0938;0,5559;-0,0925;-0,1589;-0,1294;-0,0767;-0,086;0,7076;-0,0958;-0,0655;-0,0767;-0,1028;0,5955;-0,0888;-0,103;-0,1018;-0,0745;-0,0908;-0,0712;-0,0925;-0,076;-0,1269;0,6;-0,1033;-0,1354;-0,1204;-0,1078;-0,1632;-0,09;0,4859;-0,101;-0,079;-0,1297;-0,1606;-0,1241;-0,146;-0,1123;-0,1392;-0,1337;0,624;-0,1445;-0,2247;-0,1508;1,3444;1,3444;-0,1071;-0,1118;-0,1136;-0,1008;-0,1387;-0,1591;-0,147;0,6517;-0,0885;-0,1652;0,6106;-0,1086;-0,0812;-0,0868;-0,0607;-0,0735
"traer";14;-0,0949;-0,0985;-0,0993;-0,087;-0,0203;-0,1161;-0,161;-0,0598;-0,051;-0,0609;-0,0752;-0,0456;-0,0682;-0,1432;-0,0456;-0,0949;-0,071;-0,0393;-0,0355;1,0193;-0,0696;0,8349;-0,0383;-0,0699;-0,0412;-0,0487;-0,0571;-0,0861;-0,0563;-0,0967;-0,0788;-0,0467;-0,0523;-0,0577;0,901;-0,0399;-0,0467;0,8724;-0,0774;-0,054;0,8714;0,8763;-0,0453;-0,0552;-0,0434;-0,0563;-0,0463;-0,0772;0,792;-0,0629;0,7622;-0,0733;-0,0656;-0,0993;0,9262;-0,1045;-0,0615;-0,0481;-0,0789;-0,0978;-0,0756;-0,0889;-0,0684;0,7514;0,7674;-0,0717;-0,088;-0,1367;-0,0918;-0,0909;-0,0909;-0,0652;-0,0681;-0,0691;-0,0613;-0,0844;-0,0968;-0,0895;-0,0667;-0,0539;0,6848;-0,0743;-0,0661;-0,0495;0,9413;1,0882;-0,0447
"reino";14;-0,0949;-0,0985;-0,0993;-0,087;-0,0203;-0,1161;1,2972;-0,0598;-0,051;-0,0609;1,9047;-0,0456;1,9856;-0,1432;-0,0456;-0,0949;-0,071;-0,0393;-0,0355;-0,0437;-0,0696;-0,0687;-0,0383;0,8278;-0,0412;-0,0487;-0,0571;-0,0861;-0,0563;-0,0967;-0,0788;-0,0467;-0,0523;-0,0577;-0,0583;-0,0399;-0,0467;-0,0626;-0,0774;-0,054;-0,0627;-0,062;-0,0453;0,9229;1,0222;-0,0563;-0,0463;-0,0772;-0,0765;-0,0629;-0,0824;0,8091;-0,0656;-0,0993;-0,0548;-0,1045;-0,0615;-0,0481;0,7795;-0,0978;-0,0756;-0,0889;-0,0684;-0,0847;-0,0814;-0,0717;-0,088;-0,1367;-0,0918;-0,0909;-0,0909;-0,0652;-0,0681;-0,0691;-0,0613;-0,0844;-0,0968;-0,0895;0,8467;-0,0539;0,6848;-0,0743;-0,0661;0,9681;-0,0528;-0,037;-0,0447
"eterno";17;-0,1152;-0,1197;-0,1206;-0,1057;-0,0246;-0,1409;-0,1956;-0,0726;-0,0619;-0,0739;-0,0914;-0,0554;-0,0828;-0,1739;-0,0554;-0,1152;1,7884;-0,0477;-0,0431;-0,053;-0,0845;0,7577;-0,0466;-0,0849;-0,0501;-0,0591;-0,0693;-0,1046;-0,0684;-0,1174;-0,0956;-0,0567;-0,0636;-0,07;1,9496;-0,0484;-0,0567;-0,076;-0,094;-0,0656;-0,0762;0,7985;-0,0551;-0,0671;0,9424;0,8366;-0,0562;-0,0938;-0,0929;0,7926;-0,1001;-0,089;-0,0797;-0,1206;-0,0665;-0,1269;-0,0747;-0,0584;-0,0958;-0,1187;0,7203;0,6575;-0,083;-0,1029;0,6915;1,7796;-0,1068;-0,166;-0,1115;-0,1103;-0,1103;-0,0791;-0,0826;-0,0839;-0,0745;-0,1025;-0,1176;-0,1087;-0,081;0,8544;-0,1221;-0,0903;-0,0802;-0,06;0,8625;-0,0449;0,9297
"buscar";29;0,4389;1,1036;-0,2057;-0,1803;-0,042;-0,2405;-0,3336;-0,1239;-0,1056;-0,1261;-0,1559;-0,0946;-0,1413;0,3054;-0,0946;-0,1965;-0,147;-0,0813;-0,0735;-0,0905;-0,1442;-0,1423;0,7769;0,5474;-0,0854;-0,1009;-0,1182;-0,1784;-0,1167;0,4324;0,5041;1,6845;-0,1084;-0,1195;-0,1208;-0,0826;-0,0968;-0,1296;-0,1603;-0,1119;-0,1299;-0,1284;1,7085;1,5499;-0,0898;-0,1167;-0,0958;-0,16;-0,1584;-0,1303;-0,1708;-0,1518;-0,1359;0,4233;-0,1135;0,406;-0,1274;0,6883;0,5035;1,1094;-0,1565;0,4615;-0,1416;-0,1756;-0,1686;-0,1486;-0,1822;-0,2833;0,4503;-0,1883;-0,1883;1,4194;-0,141;-0,1432;0,5957;0,4795;-0,2007;-0,1854;1,4013;-0,1116;-0,2083;-0,154;0,5681;-0,1025;-0,1094;-0,0766;-0,0927
"ya";125;-0,8481;-0,881;-0,4015;-0,7782;-0,1813;-0,5042;-0,4409;-0,5348;-0,1428;-0,1899;0,3411;0,2152;0,3902;0,2525;-0,4081;-0,3752;-0,2415;-0,351;-0,317;-0,3904;-0,2342;-0,614;0,2629;-0,6249;0,2425;1,7418;-0,1713;0,5892;-0,5034;0,5008;-0,2835;0,2092;0,5367;0,4808;-0,1772;1,3097;-0,4176;0,4359;0,3276;-0,1569;-0,5607;0,4412;0,217;0,5054;-0,3877;0,9618;0,2118;-0,6905;0,3333;0,4333;0,2982;-0,2536;-0,2137;-0,4015;-0,4898;-0,1931;-0,5498;1,1167;0,3184;-0,3924;-0,6755;-0,3404;0,3891;0,602;0,6348;1,2216;0,5726;1,2155;-0,8207;0,2555;0,2555;0,4142;1,8796;0,3834;0,8813;-0,3151;0,4997;0,262;1,3149;-0,4816;-0,8989;-0,2594;1,3269;-0,136;-0,4721;-0,3306;-0,3999
"así";184;-0,3409;-0,6936;0,2406;-1,1463;-0,2671;-0,4927;0,9551;0,2683;-0,2638;-0,8019;-0,218;1,3013;-0,1789;-0,709;-0,2223;-0,6576;-0,1938;-0,1752;-0,467;-0,2074;-0,4213;-0,4132;-0,505;-0,188;-0,1894;1,7858;-0,7517;1,3329;0,295;0,7778;0,374;-0,6152;0,329;-0,3185;-0,3236;0,4704;-0,6152;0,5353;-0,492;0,3141;-0,826;0,2533;0,4008;-0,2983;-0,5711;0,295;-0,2269;-0,4905;0,3931;0,5316;0,3453;0,7448;0,2298;-0,7012;-0,2946;1,0178;0,9367;0,3707;-0,2395;0,4711;-0,4751;-0,3014;0,8184;0,3286;1,9237;1,1778;0,5648;-0,384;1,2254;0,5351;0,5351;0,8713;-0,8964;0,4621;-0,8079;-0,2732;-1,2756;0,8749;-0,3957;0,3154;-0,1915;-0,2127;-0,3903;-0,6513;-0,6954;-0,1591;-0,5891
"obra";23;-0,1558;-0,1619;-0,1632;-0,143;-0,0333;-0,1907;0,3408;1,6755;-0,0838;-0,1;-0,1236;-0,075;-0,1121;-0,2353;-0,075;0,5207;-0,1166;0,8601;-0,0583;-0,0717;1,5542;0,6406;-0,063;-0,1148;-0,0677;-0,08;-0,0938;-0,1415;-0,0925;-0,1589;-0,1294;-0,0767;-0,086;-0,0948;-0,0958;0,8539;0,7905;-0,1028;0,5955;0,7332;-0,103;-0,1018;-0,0745;-0,0908;-0,0712;-0,0925;-0,076;-0,1269;0,6;-0,1033;-0,1354;0,6161;0,6579;-0,1632;-0,09;-0,1717;-0,101;-0,079;0,5882;-0,1606;1,4889;-0,146;-0,1123;-0,1392;-0,1337;-0,1179;-0,1445;-0,2247;-0,1508;0,5362;0,5362;-0,1071;-0,1118;-0,1136;-0,1008;-0,1387;-0,1591;0,5418;-0,1096;-0,0885;0,4998;-0,1221;-0,1086;-0,0812;0,7421;-0,0607;-0,0735
"pasar";29;-0,1965;0,4259;-0,2057;-0,1803;-0,042;-0,2405;0,2707;1,4867;-0,1056;-0,1261;1,3076;-0,0946;-0,1413;-0,2967;-0,0946;-0,1965;0,5418;-0,0813;-0,0735;-0,0905;-0,1442;-0,1423;-0,0794;-0,1448;-0,0854;-0,1009;-0,1182;0,4725;-0,1167;1,1176;-0,1632;0,6995;-0,1084;-0,1195;0,6148;-0,0826;-0,0968;-0,1296;1,286;0,6436;-0,1299;-0,1284;0,7111;-0,1144;-0,0898;0,6279;-0,0958;-0,16;-0,1584;-0,1303;-0,1708;-0,1518;-0,1359;-0,2057;-0,1135;0,406;-0,1274;-0,0996;-0,1635;-0,2026;-0,1565;-0,1841;0,5555;-0,1756;0,4926;-0,1486;1,1886;-0,2833;-0,1902;-0,1883;-0,1883;-0,135;-0,141;0,5514;0,5957;-0,1749;-0,2007;0,4591;-0,1382;-0,1116;-0,2083;0,525;0,5681;0,6775;-0,1094;-0,0766;0,7163
"miar";10;-0,0677;-0,0704;-0,0709;-0,0622;-0,0145;-0,0829;-0,115;1,0283;-0,0364;-0,0435;-0,0537;-0,0326;-0,0487;1,6672;-0,0326;-0,0677;0,958;-0,028;-0,0253;-0,0312;-0,0497;-0,049;-0,0274;-0,0499;-0,0294;-0,0348;-0,0408;-0,0615;-0,0402;-0,0691;-0,0563;-0,0334;-0,0374;-0,0412;-0,0416;-0,0285;-0,0334;-0,0447;-0,0553;-0,0386;-0,0448;1,0138;-0,0324;-0,0395;-0,031;-0,0402;-0,033;-0,0552;-0,0546;-0,0449;-0,0589;-0,0523;-0,0469;-0,0709;-0,0391;0,8015;-0,0439;-0,0343;-0,0564;-0,0698;0,9324;-0,0635;-0,0488;-0,0605;-0,0581;-0,0512;-0,0628;-0,0977;-0,0656;-0,0649;-0,0649;-0,0465;-0,0486;-0,0494;1,0179;-0,0603;-0,0692;-0,0639;-0,0476;-0,0385;-0,0718;-0,0531;-0,0472;1,1073;1,08;-0,0264;-0,0319
"sentar";16;-0,1084;0,6413;-0,1135;-0,0995;-0,0232;0,5797;0,4616;0,8367;-0,0583;-0,0696;-0,086;0,9462;-0,078;-0,1637;0,9462;-0,1084;-0,0811;-0,0449;-0,0405;-0,0499;-0,0795;-0,0785;-0,0438;-0,0799;-0,0471;-0,0556;-0,0652;-0,0984;-0,0644;1,5891;0,7277;-0,0534;-0,0598;-0,0659;-0,0666;-0,0456;-0,0534;0,8187;-0,0884;-0,0617;-0,0717;-0,0708;-0,0518;-0,0631;-0,0496;-0,0644;-0,0529;0,7354;0,7393;-0,0719;-0,0942;-0,0837;-0,075;0,6383;-0,0626;0,6189;-0,0703;-0,0549;-0,0902;-0,1117;-0,0863;-0,1016;-0,0781;-0,0968;-0,093;-0,082;-0,1005;-0,1563;0,6684;-0,1038;-0,1038;-0,0745;-0,0778;-0,079;-0,0701;-0,0965;-0,1107;-0,1023;-0,0762;-0,0616;-0,1149;-0,0849;0,797;-0,0565;-0,0603;-0,0423;-0,0511
"necesitar";11;-0,0745;-0,0774;-0,078;1,9921;-0,0159;-0,0912;-0,1265;-0,047;-0,04;-0,0478;0,8953;-0,0359;-0,0536;-0,1125;-0,0359;-0,0745;-0,0558;-0,0308;-0,0279;-0,0343;-0,0547;-0,054;-0,0301;-0,0549;-0,0324;-0,0383;-0,0448;-0,0677;-0,0442;1,9053;0,8768;-0,0367;-0,0411;1,004;-0,0458;-0,0313;-0,0367;-0,0492;-0,0608;-0,0424;-0,0493;-0,0487;-0,0356;-0,0434;-0,0341;-0,0442;-0,0363;-0,0607;-0,0601;-0,0494;0,8584;-0,0576;-0,0516;-0,078;-0,043;-0,0821;0,9776;-0,0378;-0,062;-0,0768;0,8936;-0,0698;-0,0537;-0,0666;-0,0639;-0,0564;-0,0691;-0,1074;-0,0721;-0,0714;-0,0714;-0,0512;-0,0535;0,9297;-0,0482;-0,0663;-0,0761;-0,0703;-0,0524;-0,0423;-0,079;-0,0584;-0,0519;-0,0389;-0,0415;-0,029;-0,0351
"merecer";14;-0,0949;-0,0985;-0,0993;-0,087;-0,0203;-0,1161;0,5089;0,8905;-0,051;-0,0609;0,7984;-0,0456;-0,0682;-0,1432;-0,0456;-0,0949;-0,071;-0,0393;-0,0355;-0,0437;-0,0696;-0,0687;-0,0383;-0,0699;-0,0412;-0,0487;-0,0571;-0,0861;-0,0563;0,6998;-0,0788;-0,0467;-0,0523;-0,0577;-0,0583;-0,0399;-0,0467;-0,0626;-0,0774;-0,054;-0,0627;-0,062;-0,0453;0,9229;-0,0434;0,9151;-0,0463;-0,0772;0,792;-0,0629;-0,0824;-0,0733;-0,0656;0,6895;-0,0548;-0,1045;-0,0615;0,9796;-0,0789;-0,0978;-0,0756;0,7327;0,8367;0,7514;-0,0814;-0,0717;-0,088;-0,1367;0,7201;-0,0909;-0,0909;-0,0652;-0,0681;0,8322;-0,0613;-0,0844;-0,0968;-0,0895;-0,0667;-0,0539;-0,1005;-0,0743;-0,0661;-0,0495;-0,0528;-0,037;-0,0447
"confianza";16;-0,1084;-0,1126;-0,1135;-0,0995;-0,0232;-0,1327;-0,1841;-0,0684;-0,0583;-0,0696;0,7456;-0,0522;-0,078;0,503;-0,0522;-0,1084;-0,0811;-0,0449;1,0502;-0,0499;-0,0795;-0,0785;-0,0438;-0,0799;-0,0471;-0,0556;-0,0652;-0,0984;-0,0644;-0,1105;-0,09;-0,0534;-0,0598;-0,0659;-0,0666;-0,0456;-0,0534;-0,0715;0,7346;0,8777;0,8178;0,8226;-0,0518;-0,0631;-0,0496;-0,0644;0,9408;-0,0883;-0,0874;0,8168;-0,0942;-0,0837;-0,075;-0,1135;-0,0626;-0,1195;-0,0703;-0,0549;-0,0902;-0,1117;-0,0863;-0,1016;-0,0781;-0,0968;-0,093;-0,082;-0,1005;-0,1563;-0,1049;1,6389;1,6389;-0,0745;0,7852;-0,079;-0,0701;-0,0965;0,6479;-0,1023;0,7933;-0,0616;-0,1149;-0,0849;-0,0755;-0,0565;-0,0603;-0,0423;-0,0511
"considerar";12;-0,0813;-0,0845;1,8089;0,8018;-0,0174;0,6888;-0,138;-0,0513;-0,0437;-0,0522;0,8601;-0,0391;-0,0585;-0,1228;-0,0391;-0,0813;0,8838;-0,0336;-0,0304;-0,0374;-0,0596;0,8971;-0,0329;-0,0599;-0,0353;-0,0417;-0,0489;-0,0738;-0,0483;-0,0829;-0,0675;-0,04;-0,0449;0,9682;-0,05;-0,0342;-0,04;-0,0536;-0,0663;-0,0463;-0,0538;-0,0531;-0,0389;-0,0473;-0,0372;-0,0483;-0,0396;-0,0662;-0,0655;-0,0539;-0,0707;-0,0628;-0,0562;-0,0851;-0,047;-0,0896;-0,0527;-0,0412;-0,0676;-0,0838;-0,0648;-0,0762;-0,0586;-0,0726;-0,0697;-0,0615;-0,0754;0,6261;0,7807;-0,0779;-0,0779;0,9184;0,9007;-0,0593;-0,0526;-0,0724;-0,083;-0,0767;-0,0572;-0,0462;-0,0862;-0,0637;-0,0566;-0,0424;-0,0453;-0,0317;-0,0383
"derrame";11;-0,0745;-0,0774;-0,078;-0,0684;-0,0159;-0,0912;-0,1265;0,989;-0,04;-0,0478;-0,0591;-0,0359;-0,0536;-0,1125;-0,0359;-0,0745;-0,0558;-0,0308;-0,0279;-0,0343;-0,0547;0,9325;1,1738;-0,0549;-0,0324;-0,0383;1,0084;-0,0677;-0,0442;-0,076;-0,0619;-0,0367;-0,0411;-0,0453;-0,0458;-0,0313;-0,0367;-0,0492;-0,0608;-0,0424;-0,0493;-0,0487;-0,0356;1,0218;-0,0341;-0,0442;1,0954;-0,0607;-0,0601;-0,0494;-0,0648;-0,0576;-0,0516;-0,078;-0,043;-0,0821;-0,0483;-0,0378;-0,062;-0,0768;-0,0594;-0,0698;-0,0537;-0,0666;-0,0639;-0,0564;-0,0691;-0,1074;-0,0721;-0,0714;-0,0714;-0,0512;-0,0535;0,9297;-0,0482;-0,0663;-0,0761;-0,0703;-0,0524;1,0322;0,7791;-0,0584;-0,0519;1,0677;-0,0415;-0,029;1,1094
"aunque";58;0,225;0,215;0,6166;0,7002;-0,0841;-0,4811;1,1872;-0,2479;-0,2113;0,9437;0,2904;0,452;0,3201;0,4063;0,452;1,2152;-0,2942;-0,1627;-0,147;0,4675;-0,2885;-0,2847;0,5136;0,847;-0,1709;-0,2018;-0,2366;-0,357;0,9997;1,1955;0,7659;0,4441;-0,217;-0,2391;0,9748;0,4997;-0,1936;0,3472;-0,3208;-0,2239;-0,26;-0,2568;0,4544;-0,229;-0,1797;-0,2334;0,4475;-0,3201;-0,317;-0,2606;-0,3417;-0,3037;-0,272;0,213;-0,2271;0,1998;0,3526;-0,1993;-0,3271;0,217;-0,3132;0,2427;0,3194;1,3329;0,7443;-0,2973;0,2456;-0,5668;0,2339;-0,3767;-0,3767;0,8958;0,3208;-0,2866;-0,2543;0,2571;-0,4015;0,2408;-0,2764;-0,2233;-0,4167;0,2941;-0,2739;-0,205;-0,2189;-0,1533;-0,1854
"año";10;-0,0677;-0,0704;-0,0709;-0,0622;-0,0145;-0,0829;-0,115;-0,0427;-0,0364;-0,0435;-0,0537;-0,0326;-0,0487;-0,1023;-0,0326;-0,0677;-0,0507;-0,028;-0,0253;-0,0312;0,966;-0,049;-0,0274;-0,0499;-0,0294;-0,0348;-0,0408;-0,0615;-0,0402;-0,0691;0,9154;-0,0334;-0,0374;-0,0412;-0,0416;-0,0285;-0,0334;-0,0447;0,9226;1,0705;-0,0448;-0,0442;-0,0324;-0,0395;-0,031;-0,0402;-0,033;-0,0552;-0,0546;-0,0449;-0,0589;-0,0523;-0,0469;-0,0709;-0,0391;-0,0747;-0,0439;-0,0343;-0,0564;0,8282;-0,054;-0,0635;-0,0488;0,8858;-0,0581;-0,0512;-0,0628;-0,0977;-0,0656;-0,0649;-0,0649;-0,0465;-0,0486;-0,0494;1,0179;0,8872;0,832;0,8637;-0,0476;-0,0385;-0,0718;-0,0531;-0,0472;-0,0353;-0,0377;-0,0264;-0,0319
"castigo";17;-0,1152;-0,1197;0,6154;-0,1057;-0,0246;-0,1409;-0,1956;-0,0726;-0,0619;-0,0739;-0,0914;-0,0554;-0,0828;-0,1739;-0,0554;0,6327;-0,0862;-0,0477;-0,0431;-0,053;-0,0845;-0,0834;0,9928;0,7508;-0,0501;-0,0591;0,8312;-0,1046;-0,0684;-0,1174;-0,0956;-0,0567;0,866;-0,07;-0,0708;-0,0484;-0,0567;-0,076;-0,094;-0,0656;-0,0762;-0,0752;-0,0551;-0,0671;-0,0527;-0,0684;-0,0562;-0,0938;0,7156;-0,0763;-0,1001;0,7323;-0,0797;0,6154;-0,0665;-0,1269;-0,0747;0,9004;-0,0958;-0,1187;-0,0917;1,6065;-0,083;0,6758;0,6915;-0,0871;-0,1068;-0,166;1,5807;-0,1103;-0,1103;-0,0791;-0,0826;-0,0839;-0,0745;-0,1025;-0,1176;-0,1087;-0,081;-0,0654;-0,1221;-0,0903;0,7729;-0,06;-0,0641;-0,0449;-0,0543
"formar";15;0,6806;0,6659;0,663;1,7275;-0,0217;-0,1244;-0,1725;-0,0641;-0,0546;-0,0652;-0,0806;-0,0489;-0,0731;0,5263;-0,0489;-0,1016;-0,076;-0,0421;-0,038;-0,0468;-0,0746;-0,0736;-0,0411;-0,0749;-0,0442;-0,0522;-0,0611;-0,0923;-0,0603;-0,1036;-0,0844;-0,05;-0,0561;-0,0618;-0,0625;-0,0427;-0,05;-0,067;-0,0829;-0,0579;-0,0672;-0,0664;-0,0486;-0,0592;-0,0465;-0,0603;-0,0496;0,7607;0,7647;-0,0674;-0,0883;-0,0785;-0,0703;0,663;-0,0587;-0,112;0,8515;-0,0515;-0,0846;-0,1048;-0,0809;-0,0952;-0,0732;-0,0908;-0,0872;-0,0769;-0,0942;-0,1465;-0,0983;0,6972;0,6972;-0,0698;-0,0729;-0,0741;-0,0657;-0,0905;-0,1038;0,7031;-0,0714;-0,0577;0,6582;-0,0796;0,8227;-0,053;-0,0566;-0,0396;-0,0479
"permitir";11;-0,0745;-0,0774;-0,078;-0,0684;-0,0159;0,7226;-0,1265;0,989;-0,04;0,9817;-0,0591;-0,0359;-0,0536;0,6416;-0,0359;-0,0745;-0,0558;1,164;-0,0279;-0,0343;-0,0547;-0,054;-0,0301;-0,0549;1,1434;-0,0383;-0,0448;-0,0677;1,0139;-0,076;0,8768;-0,0367;-0,0411;-0,0453;-0,0458;-0,0313;-0,0367;-0,0492;0,8839;-0,0424;-0,0493;-0,0487;-0,0356;-0,0434;-0,0341;-0,0442;-0,0363;-0,0607;-0,0601;-0,0494;-0,0648;-0,0576;-0,0516;-0,078;-0,043;-0,0821;-0,0483;-0,0378;-0,062;-0,0768;-0,0594;-0,0698;-0,0537;-0,0666;0,8637;-0,0564;-0,0691;-0,1074;-0,0721;-0,0714;-0,0714;-0,0512;-0,0535;-0,0543;-0,0482;-0,0663;-0,0761;-0,0703;-0,0524;-0,0423;-0,079;0,9003;-0,0519;-0,0389;-0,0415;-0,029;-0,0351
"gracia";76;1,5169;-0,1843;-0,1866;-0,4728;-0,1102;0,7595;-0,3915;0,2783;-0,2769;-0,3308;0,2148;-0,248;-0,3706;-0,7781;-0,248;-0,5153;1,2317;0,4112;-0,1926;0,9868;-0,3781;0,2393;1,0816;0,2344;0,3947;-0,2645;0,7995;0,5381;-0,3059;-0,5253;-0,4279;0,3541;0,3183;-0,3134;0,2859;-0,2166;-0,2538;-0,3399;0,2075;1,5226;0,7364;0,2682;-0,2463;0,302;0,9918;0,2962;0,3572;0,6036;-0,4154;-0,3415;-0,4479;0,2218;0,2519;0,9005;-0,2976;-0,5679;-0,3341;-0,2612;0,5904;-0,5312;0,2137;-0,4828;-0,3714;-0,4603;-0,1355;0,2274;-0,1537;-0,7429;-0,4987;1,5754;1,5754;-0,354;-0,3698;0,6732;0,271;-0,4587;-0,5262;-0,4862;-0,3623;0,3096;0,8891;0,218;0,2499;0,8983;0,3157;-0,2009;0,368
"precisamente";12;-0,0813;-0,0845;0,7496;-0,0746;-0,0174;-0,0995;-0,138;-0,0513;-0,0437;-0,0522;-0,0645;-0,0391;-0,0585;-0,1228;-0,0391;-0,0813;-0,0608;-0,0336;-0,0304;-0,0374;-0,0596;-0,0589;-0,0329;-0,0599;-0,0353;-0,0417;-0,0489;-0,0738;-0,0483;-0,0829;-0,0675;-0,04;1,0081;0,9682;-0,05;-0,0342;-0,04;-0,0536;-0,0663;0,9951;0,934;-0,0531;-0,0389;-0,0473;-0,0372;-0,0483;-0,0396;-0,0662;-0,0655;-0,0539;-0,0707;0,8709;-0,0562;-0,0851;-0,047;-0,0896;-0,0527;-0,0412;-0,0676;0,7558;-0,0648;1,8998;0,8989;-0,0726;-0,0697;-0,0615;0,7976;-0,1172;0,7807;-0,0779;-0,0779;-0,0558;-0,0583;-0,0593;-0,0526;-0,0724;-0,083;-0,0767;-0,0572;-0,0462;-0,0862;-0,0637;-0,0566;-0,0424;-0,0453;-0,0317;-0,0383
"predicar";21;-0,1423;-0,1478;-0,149;-0,1306;-0,0304;-0,1741;0,9856;-0,0897;0,792;-0,0913;-0,1129;-0,0685;-0,1023;-0,2149;-0,0685;-0,1423;-0,1065;-0,0589;-0,0532;-0,0655;0,6703;0,6754;-0,0575;1,6251;-0,0619;-0,073;-0,0856;0,5896;-0,0845;0,5468;-0,1182;-0,0701;-0,0785;-0,0865;1,7718;-0,0598;-0,0701;-0,0939;-0,1161;-0,081;-0,0941;0,7152;-0,068;0,7602;-0,065;-0,0845;-0,0694;-0,1159;-0,1147;-0,0943;-0,1237;-0,1099;-0,0984;-0,149;0,7635;-0,1568;-0,0922;-0,0721;-0,1184;-0,1467;-0,1133;1,4343;-0,1026;-0,1271;-0,1221;-0,1076;-0,1319;-0,2051;-0,1377;-0,1363;-0,1363;-0,0977;-0,1021;-0,1037;0,7191;-0,1267;-0,1453;0,5753;-0,1;-0,0808;1,3382;-0,1115;-0,0991;0,8041;-0,0792;-0,0555;-0,0671
"satanás";10;-0,0677;-0,0704;-0,0709;-0,0622;-0,0145;-0,0829;-0,115;-0,0427;-0,0364;-0,0435;-0,0537;1,1408;-0,0487;0,6781;-0,0326;-0,0677;0,958;-0,028;-0,0253;-0,0312;0,966;-0,049;-0,0274;0,9642;-0,0294;-0,0348;-0,0408;-0,0615;-0,0402;0,8326;0,9154;-0,0334;1,0836;-0,0412;-0,0416;-0,0285;-0,0334;-0,0447;-0,0553;-0,0386;-0,0448;-0,0442;-0,0324;-0,0395;-0,031;1,0533;-0,033;-0,0552;-0,0546;-0,0449;-0,0589;-0,0523;-0,0469;-0,0709;-0,0391;-0,0747;-0,0439;-0,0343;-0,0564;-0,0698;0,9324;-0,0635;-0,0488;-0,0605;-0,0581;-0,0512;-0,0628;-0,0977;-0,0656;-0,0649;-0,0649;-0,0465;-0,0486;-0,0494;-0,0438;-0,0603;-0,0692;-0,0639;-0,0476;-0,0385;-0,0718;-0,0531;-0,0472;-0,0353;-0,0377;-0,0264;-0,0319
"acaso";15;-0,1016;0,6659;-0,1064;-0,0933;-0,0217;-0,1244;-0,1725;-0,0641;-0,0546;0,8555;-0,0806;-0,0489;1,9266;1,3324;-0,0489;0,6806;-0,076;-0,0421;-0,038;-0,0468;-0,0746;-0,0736;-0,0411;-0,0749;-0,0442;-0,0522;-0,0611;-0,0923;-0,0603;-0,1036;0,753;-0,05;-0,0561;0,8773;-0,0625;-0,0427;-0,05;-0,067;-0,0829;-0,0579;-0,0672;0,8485;-0,0486;-0,0592;-0,0465;-0,0603;-0,0496;-0,0828;-0,0819;-0,0674;-0,0883;-0,0785;-0,0703;-0,1064;-0,0587;-0,112;-0,0659;-0,0515;-0,0846;-0,1048;-0,0809;-0,0952;0,8091;-0,0908;-0,0872;-0,0769;-0,0942;-0,1465;0,6933;-0,0974;-0,0974;-0,0698;-0,0729;-0,0741;-0,0657;-0,0905;0,6726;1,705;-0,0714;-0,0577;-0,1077;-0,0796;-0,0708;-0,053;-0,0566;-0,0396;-0,0479
"cuanto";37;-0,2508;-0,2605;-0,2625;-0,2301;-0,0536;0,2953;-0,4257;1,2939;-0,1348;-0,161;1,1202;0,6151;-0,1803;0,2352;0,6151;0,3579;-0,1876;-0,1038;-0,0937;-0,1154;-0,184;-0,1815;-0,1014;-0,1848;-0,109;0,5909;0,5324;-0,2277;-0,1489;0,3517;1,0864;-0,1235;-0,1384;0,5286;-0,1541;-0,1054;-0,1235;0,4993;-0,2046;0,5525;0,4985;-0,1638;-0,1199;-0,146;-0,1146;0,5373;-0,1223;-0,2042;-0,2022;0,4976;0,4039;-0,1937;-0,1735;-0,2625;0,5473;0,3272;-0,1626;-0,1271;-0,2086;-0,2585;-0,1997;0,379;-0,1807;-0,224;0,4083;-0,1896;-0,2325;-0,3615;0,975;-0,2402;-0,2402;0,4849;1,1954;0,4641;-0,1622;-0,2232;-0,256;-0,2366;1,2109;0,5535;0,3394;0,439;-0,1747;-0,1307;0,5609;-0,0977;-0,1182
"sino";153;-0,5051;-0,2572;-0,2611;-0,2012;0,3977;-0,673;0,4308;-0,2538;0,4369;0,3454;0,2495;-0,4997;0,292;-0,2825;-0,1658;0,3738;-0,7769;0,5876;0,6508;-0,478;0,5968;-0,7518;0,602;0,2812;-0,4514;0,4621;0,3776;-0,1969;0,3845;-0,5193;-0,3848;1,5169;0,4227;0,7535;0,3669;0,5782;-0,5114;1,1376;0,2379;-0,2166;0,3311;-0,2678;-0,4964;-0,2243;-0,4747;-0,2311;-0,1694;-0,8455;0,2428;-0,6883;-0,1803;0,9493;0,6442;-1,0872;-0,5997;-0,2882;0,3406;0,4691;-0,3859;-0,5276;0,2478;0,4167;-0,3113;1,2065;-0,1755;0,5729;0,7481;0,8961;-0,2237;-0,2193;-0,2193;0,65;-0,3092;0,2861;1,162;-0,1892;0,3606;0,412;-0,73;-0,2156;-1,1006;0,5454;-0,2956;-0,5414;-0,5781;0,2174;-0,1605
"tampoco";20;-0,1355;0,5577;-0,1419;1,4902;-0,029;0,4984;1,8368;-0,0855;0,8114;-0,087;-0,1075;-0,0652;-0,0975;0,4251;-0,0652;0,5718;-0,1014;-0,0561;-0,0507;-0,0624;0,6891;-0,0981;-0,0548;0,6874;-0,0589;-0,0696;-0,0815;-0,123;-0,0804;-0,1381;1,5695;-0,0667;-0,0748;-0,0824;-0,0833;-0,057;-0,0667;-0,0894;-0,1106;-0,0772;0,7295;-0,0885;-0,0648;-0,0789;-0,0619;-0,0804;0,8503;-0,1103;-0,1092;-0,0898;-0,1178;-0,1047;-0,0937;-0,1419;-0,0783;0,5361;-0,0879;-0,0687;-0,1127;0,5606;-0,1079;-0,127;-0,0977;0,6139;-0,1162;-0,1025;-0,1257;-0,1954;-0,1311;-0,1298;-0,1298;-0,0931;-0,0972;-0,0988;0,7382;-0,1206;-0,1384;-0,1278;-0,0953;-0,077;-0,1436;-0,1062;-0,0944;-0,0706;-0,0754;-0,0528;-0,0639
"tan";29;-0,1965;-0,2042;-0,2057;-0,1803;-0,042;-0,2405;0,2707;-0,1239;-0,1056;-0,1261;-0,1559;1,7031;0,5563;-0,2967;-0,0946;-0,1965;-0,147;-0,0813;-0,0735;-0,0905;-0,1442;-0,1423;-0,0794;-0,1448;-0,0854;-0,1009;-0,1182;1,2046;-0,1167;0,4324;1,2725;0,6995;0,6557;0,6188;0,6148;-0,0826;-0,0968;0,5883;0,5105;1,5677;-0,1299;-0,1284;-0,0939;-0,1144;-0,0898;-0,1167;-0,0958;-0,16;0,5148;-0,1303;-0,1708;-0,1518;-0,1359;0,4233;-0,1135;-0,2166;-0,1274;-0,0996;-0,1635;-0,2026;-0,1565;0,4615;0,5555;-0,1756;-0,1686;-0,1486;-0,1822;-0,2833;0,4503;-0,1883;-0,1883;-0,135;0,5571;-0,1432;0,5957;0,4795;0,4318;-0,1854;-0,1382;1,5699;-0,2083;-0,154;-0,1369;0,6775;-0,1094;-0,0766;-0,0927
"cambio";22;-0,1491;-0,1549;1,3109;-0,1368;-0,0319;1,192;0,3549;-0,094;0,7735;-0,0957;-0,1183;-0,0717;0,6601;-0,2251;-0,0717;0,5368;-0,1115;-0,0617;-0,0557;-0,0686;0,6524;0,6575;-0,0603;0,6508;-0,0648;-0,0765;-0,0897;-0,1353;-0,0885;-0,152;-0,1238;-0,0734;-0,0823;-0,0906;-0,0916;-0,0626;-0,0734;-0,0983;-0,1216;-0,0849;-0,0986;-0,0974;-0,0713;-0,0868;-0,0681;-0,0885;-0,0727;-0,1214;-0,1202;-0,0988;-0,1296;-0,1151;-0,1031;-0,1561;-0,0861;-0,1643;-0,0966;-0,0756;-0,124;-0,1537;-0,1187;1,3971;-0,1074;0,5783;-0,1279;0,6409;-0,1382;0,4086;0,5488;-0,1428;-0,1428;-0,1024;1,6082;-0,1086;0,701;-0,1327;-0,1522;-0,1406;0,6688;0,7518;-0,158;-0,1168;-0,1038;-0,0777;-0,083;-0,0581;-0,0703
"disponer";18;0,6111;-0,1267;-0,1277;0,6437;-0,0261;-0,1492;-0,2071;-0,0769;0,8536;-0,0783;0,6996;-0,0587;-0,0877;-0,1842;-0,0587;0,6111;-0,0912;-0,0505;-0,0456;-0,0561;-0,0895;0,7352;-0,0493;-0,0899;-0,053;-0,0626;-0,0734;-0,1107;1,9297;-0,1243;-0,1013;-0,0601;0,843;-0,0742;-0,0749;-0,0513;-0,0601;0,7719;-0,0995;1,9639;-0,0806;-0,0797;-0,0583;-0,071;-0,0558;-0,0724;-0,0595;-0,0993;0,6934;-0,0808;-0,106;-0,0942;-0,0844;-0,1277;-0,0704;-0,1344;-0,0791;-0,0618;-0,1015;-0,1257;-0,0971;-0,1143;0,737;-0,109;0,6694;-0,0922;-0,1131;1,2238;-0,118;-0,1168;-0,1168;-0,0838;-0,0875;-0,0889;-0,0789;-0,1086;-0,1245;-0,1151;-0,0857;-0,0693;-0,1293;-0,0956;-0,085;-0,0636;-0,0679;-0,0475;0,9065
"primero";15;-0,1016;-0,1056;-0,1064;-0,0933;-0,0217;0,6038;1,2425;-0,0641;-0,0546;-0,0652;-0,0806;-0,0489;-0,0731;-0,1535;-0,0489;-0,1016;1,8941;1,0348;1,077;-0,0468;-0,0746;-0,0736;-0,0411;-0,0749;-0,0442;0,9462;-0,0611;1,7361;-0,0603;-0,1036;-0,0844;-0,05;-0,0561;-0,0618;-0,0625;-0,0427;-0,05;-0,067;0,76;-0,0579;-0,0672;0,8485;-0,0486;-0,0592;-0,0465;-0,0603;-0,0496;-0,0828;-0,0819;-0,0674;0,7351;-0,0785;-0,0703;-0,1064;-0,0587;-0,112;-0,0659;-0,0515;-0,0846;-0,1048;-0,0809;-0,0952;-0,0732;-0,0908;-0,0872;-0,0769;-0,0942;-0,1465;-0,0983;-0,0974;-0,0974;-0,0698;0,8109;-0,0741;-0,0657;-0,0905;-0,1038;-0,0959;-0,0714;-0,0577;0,6582;-0,0796;-0,0708;-0,053;-0,0566;-0,0396;-0,0479
"nada";74;0,4976;0,476;-0,1788;-0,4604;-0,1073;-0,2286;0,5154;-0,3164;-0,2696;0,281;1,1992;-0,2414;0,6991;-0,3156;-0,2414;-0,1662;-0,3754;-0,2076;-0,1875;0,3846;-0,3681;1,294;0,4282;-0,3697;-0,2181;-0,2575;-0,3019;-0,1422;-0,2978;0,951;1,1526;0,9577;-0,2769;0,297;-0,3083;-0,2109;1,7147;0,7558;-0,4093;-0,2858;-0,3317;0,2759;-0,2398;-0,2922;-0,2294;-0,2978;0,3658;-0,4085;0,2175;-0,3326;-0,4361;0,2289;-0,3471;-0,5253;-0,2898;-0,194;-0,3253;-0,2543;1,1506;-0,1744;-0,3996;-0,4701;-0,3616;-0,1385;-0,4304;-0,3794;-0,4652;0,6435;-0,1577;0,5224;0,5224;0,2614;0,7005;0,2448;-0,3245;-0,4466;0,9495;0,5313;0,7138;1,5554;-0,5318;0,2251;-0,3495;-0,2616;0,3239;0,4406;0,9887
"sin";98;0,3475;1,1329;1,662;-0,6099;-0,1421;-0,8133;-0,5678;-0,4191;0,7048;-0,4266;0,9196;0,7778;-0,478;0,398;-0,3198;0,7116;-0,4973;0,3286;0,3609;-0,306;0,5132;-0,1558;-0,2687;-0,4898;0,3135;-0,3412;0,2205;-0,6034;0,2241;0,3381;0,4436;0,2763;0,2439;0,6261;0,215;0,3239;-0,3273;-0,1339;-0,5423;0,2353;0,5747;0,1993;-0,3177;-0,3871;-0,3038;-0,3946;1,4124;0,4544;0,9045;0,5732;-0,2083;-0,1728;1,0514;-0,278;0,2315;-0,7325;-0,4309;0,2679;-0,1945;-0,2714;-0,5294;0,7681;-0,1546;-0,2175;-0,2041;-0,5026;0,7772;-0,9582;0,3637;0,7487;0,7487;0,5518;-0,1535;-0,1574;0,2018;0,4065;-0,2675;-0,6271;-0,4673;-0,3775;0,6627;-0,5208;-0,463;-0,3465;0,2415;-0,2591;0,289
"modo";29;0,4389;1,1036;-0,2057;-0,1803;1,0353;1,7678;0,2707;-0,1239;-0,1056;-0,1261;-0,1559;-0,0946;-0,1413;0,3054;-0,0946;1,1319;-0,147;-0,0813;-0,0735;0,7257;0,549;-0,1423;0,7769;-0,1448;-0,0854;0,6835;-0,1182;-0,1784;-0,1167;-0,2003;-0,1632;-0,0968;-0,1084;-0,1195;0,6148;0,7615;-0,0968;-0,1296;-0,1603;-0,1119;-0,1299;-0,1284;-0,0939;-0,1144;-0,0898;-0,1167;-0,0958;-0,16;0,5148;-0,1303;1,2377;-0,1518;0,5706;-0,2057;-0,1135;-0,2166;-0,1274;-0,0996;-0,1635;-0,2026;-0,1565;-0,1841;-0,1416;0,4782;-0,1686;0,5379;0,4651;0,3195;0,4503;-0,1883;-0,1883;-0,135;0,5571;-0,1432;-0,1271;0,4795;-0,2007;-0,1854;0,5647;-0,1116;-0,2083;-0,154;-0,1369;-0,1025;-0,1094;-0,0766;-0,0927
"voluntad";24;0,5054;-0,1689;-0,1703;-0,1492;-0,0348;-0,199;-0,2761;-0,1026;-0,0874;-0,1044;-0,129;-0,0783;-0,117;-0,2456;-0,0783;-0,1626;-0,1217;-0,0673;-0,0608;-0,0749;-0,1193;-0,1177;-0,0657;-0,1198;-0,0707;-0,0835;-0,0978;0,5403;-0,0965;-0,1658;-0,135;-0,0801;-0,0897;-0,0989;-0,0999;-0,0683;-0,0801;-0,1073;1,4358;0,7166;0,6589;0,6636;-0,0777;-0,0947;-0,0743;-0,0965;-0,0793;1,4373;0,5841;-0,1078;-0,1413;0,6001;0,6417;0,489;-0,0939;-0,1792;0,6665;-0,0824;-0,1353;-0,1676;-0,1295;0,5288;-0,1172;-0,1453;-0,1395;-0,123;-0,1508;1,005;0,5172;-0,1558;-0,1558;0,6443;-0,1167;-0,1185;0,6674;-0,1448;-0,166;0,5263;-0,1143;-0,0924;1,2334;-0,1274;-0,1133;0,7512;-0,0905;-0,0634;-0,0767
"suyo";16;-0,1084;-0,1126;-0,1135;-0,0995;-0,0232;-0,1327;-0,1841;-0,0684;-0,0583;-0,0696;-0,086;-0,0522;-0,078;0,503;-0,0522;-0,1084;-0,0811;-0,0449;-0,0405;0,9644;0,7764;0,7817;-0,0438;-0,0799;-0,0471;-0,0556;-0,0652;-0,0984;-0,0644;-0,1105;-0,09;-0,0534;0,8905;-0,0659;-0,0666;-0,0456;-0,0534;-0,0715;-0,0884;-0,0617;0,8178;-0,0708;-0,0518;-0,0631;0,9672;-0,0644;-0,0529;0,7354;-0,0874;-0,0719;0,7099;-0,0837;-0,075;-0,1135;0,8721;-0,1195;-0,0703;-0,0549;-0,0902;-0,1117;-0,0863;-0,1016;-0,0781;-0,0968;0,715;0,7644;-0,1005;-0,1563;-0,1049;-0,1038;-0,1038;-0,0745;0,7852;-0,079;-0,0701;-0,0965;-0,1107;0,6782;-0,0762;-0,0616;0,6337;-0,0849;-0,0755;-0,0565;-0,0603;1,0328;-0,0511
"realidad";14;0,7073;-0,0985;-0,0993;-0,087;1,3409;-0,1161;0,5089;-0,0598;-0,051;-0,0609;-0,0752;1,001;-0,0682;-0,1432;-0,0456;0,7073;-0,071;-0,0393;-0,0355;-0,0437;-0,0696;-0,0687;-0,0383;-0,0699;-0,0412;-0,0487;-0,0571;-0,0861;-0,0563;-0,0967;-0,0788;-0,0467;-0,0523;-0,0577;-0,0583;-0,0399;-0,0467;-0,0626;-0,0774;-0,054;-0,0627;-0,062;-0,0453;-0,0552;-0,0434;-0,0563;-0,0463;-0,0772;-0,0765;-0,0629;-0,0824;-0,0733;-0,0656;-0,0993;-0,0548;-0,1045;-0,0615;-0,0481;0,7795;-0,0978;-0,0756;-0,0889;-0,0684;0,7514;-0,0814;-0,0717;-0,088;-0,1367;-0,0918;0,724;0,724;-0,0652;-0,0681;-0,0691;0,8803;-0,0844;-0,0968;1,763;-0,0667;0,9331;-0,1005;0,8033;-0,0661;-0,0495;-0,0528;-0,037;-0,0447
"llevar";54;-0,366;-0,3803;0,2319;-0,3359;-0,0783;-0,4479;-0,6215;0,3848;-0,1967;-0,235;-0,2904;-0,1761;0,3424;-0,5527;-0,1761;0,2445;-0,2739;0,531;0,5683;-0,1685;-0,2685;0,9095;-0,148;-0,2697;-0,1591;0,4544;0,4004;-0,3323;-0,2173;-0,3732;0,8146;-0,1803;1,1059;-0,2226;1,0268;-0,1538;-0,1803;0,3701;-0,2986;1,0826;-0,242;-0,2391;0,4794;0,4113;-0,1673;0,4049;-0,1785;0,8279;-0,2951;0,3685;-0,3181;0,3202;0,3548;-0,3832;-0,2114;-0,4034;-0,2373;0,4588;-0,3045;1,9665;-0,2916;0,7337;-0,2638;-0,327;-0,314;1,5923;0,7405;0,9261;-0,3542;0,2565;0,2565;-0,2514;-0,2626;-0,2668;-0,2367;0,7677;-0,3737;-0,3453;-0,2573;1,917;0,2286;0,3157;-0,255;0,4491;0,4266;0,5528;-0,1726
"presencia";12;-0,0813;-0,0845;-0,0851;0,8018;-0,0174;-0,0995;-0,138;-0,0513;-0,0437;-0,0522;-0,0645;-0,0391;-0,0585;-0,1228;-0,0391;-0,0813;-0,0608;-0,0336;-0,0304;-0,0374;-0,0596;-0,0589;-0,0329;-0,0599;-0,0353;-0,0417;-0,0489;-0,0738;-0,0483;-0,0829;0,8417;-0,04;1,0081;-0,0494;0,9639;-0,0342;1,0552;-0,0536;-0,0663;-0,0463;-0,0538;-0,0531;-0,0389;-0,0473;1,0861;-0,0483;-0,0396;0,8496;-0,0655;-0,0539;0,8235;-0,0628;-0,0562;-0,0851;-0,047;-0,0896;-0,0527;-0,0412;-0,0676;-0,0838;-0,0648;-0,0762;0,8989;-0,0726;-0,0697;-0,0615;-0,0754;-0,1172;0,7807;-0,0779;-0,0779;-0,0558;-0,0583;-0,0593;-0,0526;0,8139;-0,083;-0,0767;-0,0572;-0,0462;0,7448;-0,0637;-0,0566;-0,0424;-0,0453;-0,0317;-0,0383
"gran";19;0,5909;-0,1337;-0,1348;-0,1181;-0,0275;-0,1575;-0,2186;0,7683;-0,0692;-0,0826;-0,1021;-0,0619;-0,0926;0,4427;-0,0619;-0,1287;-0,0963;-0,0533;-0,0481;-0,0593;-0,0944;0,7141;-0,052;-0,0949;-0,056;-0,0661;-0,0775;0,6272;-0,0764;-0,1312;-0,1069;-0,0634;0,8213;-0,0783;-0,0791;-0,0541;-0,0634;-0,0849;1,6257;1,9181;-0,0851;-0,0841;0,8791;-0,075;-0,0589;-0,0764;-0,0628;0,6687;0,6725;-0,0853;-0,1119;-0,0994;-0,0891;-0,1348;0,8031;-0,1419;-0,0835;-0,0653;-0,1071;-0,1327;-0,1025;-0,1206;-0,0928;-0,115;0,6487;-0,0974;-0,1194;0,4587;0,6032;-0,1233;-0,1233;-0,0884;-0,0924;-0,0938;-0,0833;-0,1146;-0,1314;-0,1215;-0,0905;-0,0731;-0,1364;-0,1009;-0,0897;0,8441;-0,0717;0,9621;-0,0607
"favor";12;0,7677;-0,0845;0,7496;-0,0746;-0,0174;-0,0995;-0,138;-0,0513;-0,0437;-0,0522;-0,0645;-0,0391;-0,0585;-0,1228;-0,0391;-0,0813;-0,0608;-0,0336;-0,0304;-0,0374;-0,0596;-0,0589;-0,0329;-0,0599;-0,0353;-0,0417;-0,0489;-0,0738;-0,0483;-0,0829;-0,0675;1,0552;-0,0449;-0,0494;-0,05;-0,0342;-0,04;-0,0536;0,8488;-0,0463;0,934;-0,0531;-0,0389;-0,0473;-0,0372;-0,0483;-0,0396;-0,0662;-0,0655;0,933;-0,0707;-0,0628;-0,0562;-0,0851;0,9894;-0,0896;-0,0527;-0,0412;-0,0676;-0,0838;-0,0648;0,7935;-0,0586;0,8125;0,8287;-0,0615;-0,0754;0,6261;-0,0787;-0,0779;-0,0779;-0,0558;-0,0583;-0,0593;-0,0526;-0,0724;-0,083;0,7908;-0,0572;-0,0462;-0,0862;-0,0637;-0,0566;-0,0424;-0,0453;-0,0317;-0,0383
"escritura";11;0,8022;0,7871;-0,078;-0,0684;-0,0159;-0,0912;1,4936;-0,047;-0,04;-0,0478;-0,0591;-0,0359;-0,0536;-0,1125;-0,0359;-0,0745;-0,0558;-0,0308;-0,0279;1,1194;-0,0547;-0,054;-0,0301;-0,0549;-0,0324;-0,0383;-0,0448;-0,0677;-0,0442;-0,076;-0,0619;-0,0367;-0,0411;-0,0453;-0,0458;-0,0313;1,0914;-0,0492;-0,0608;-0,0424;-0,0493;-0,0487;1,1038;-0,0434;-0,0341;-0,0442;-0,0363;-0,0607;-0,0601;-0,0494;-0,0648;-0,0576;-0,0516;1,8835;-0,043;-0,0821;-0,0483;-0,0378;-0,062;0,7902;-0,0594;-0,0698;0,9343;-0,0666;-0,0639;-0,0564;-0,0691;-0,1074;-0,0721;-0,0714;-0,0714;-0,0512;-0,0535;-0,0543;-0,0482;-0,0663;-0,0761;-0,0703;-0,0524;-0,0423;-0,079;-0,0584;-0,0519;-0,0389;-0,0415;-0,029;-0,0351
"señal";12;0,7677;-0,0845;0,7496;-0,0746;-0,0174;1,6824;-0,138;-0,0513;-0,0437;-0,0522;-0,0645;-0,0391;-0,0585;-0,1228;-0,0391;-0,0813;-0,0608;-0,0336;-0,0304;-0,0374;-0,0596;-0,0589;-0,0329;-0,0599;-0,0353;-0,0417;-0,0489;-0,0738;-0,0483;-0,0829;0,8417;-0,04;-0,0449;-0,0494;-0,05;-0,0342;-0,04;-0,0536;-0,0663;-0,0463;-0,0538;-0,0531;-0,0389;-0,0473;-0,0372;0,9781;-0,0396;-0,0662;-0,0655;-0,0539;-0,0707;-0,0628;-0,0562;-0,0851;-0,047;-0,0896;-0,0527;-0,0412;-0,0676;0,7558;-0,0648;-0,0762;-0,0586;0,8125;-0,0697;-0,0615;-0,0754;-0,1172;-0,0787;1,8816;1,8816;-0,0558;-0,0583;-0,0593;-0,0526;-0,0724;-0,083;-0,0767;-0,0572;-0,0462;-0,0862;-0,0637;-0,0566;-0,0424;-0,0453;-0,0317;-0,0383
"demás";26;-0,1762;1,1868;-0,1845;1,2812;-0,0377;0,4075;-0,2991;0,6464;-0,0947;-0,1131;0,5604;-0,0848;-0,1267;0,3391;-0,0848;-0,1762;-0,1318;-0,0729;-0,0659;-0,0811;0,5894;-0,1276;-0,0712;0,5877;-0,0766;-0,0904;0,6644;-0,1599;-0,1046;-0,1796;0,5436;0,7421;-0,0972;-0,1071;-0,1083;-0,074;-0,0868;-0,1162;0,5501;-0,1003;-0,1165;-0,1151;-0,0842;-0,1026;-0,0805;-0,1046;-0,0859;-0,1435;0,5545;-0,1168;-0,1531;-0,1361;-0,1219;0,4609;-0,1018;1,1425;-0,1142;0,7308;-0,1466;-0,1816;-0,1403;-0,1651;0,596;-0,1574;-0,1511;-0,1332;-0,1634;-0,254;-0,1705;0,4921;0,4921;0,614;-0,1264;-0,1284;-0,1139;0,5184;-0,1799;0,4976;-0,1239;0,6866;-0,1867;-0,1381;-0,1227;-0,0918;-0,0981;-0,0687;-0,0831
"tiempo";49;-0,3321;0,2611;-0,3477;-0,3047;-0,071;0,2163;-0,199;1,0797;-0,1785;-0,2132;0,3421;-0,1598;-0,2388;0,9761;-0,1598;-0,3321;-0,2485;0,5666;-0,1241;0,5276;-0,2437;0,3714;-0,1343;0,3657;-0,1444;-0,1705;0,4332;0,8206;-0,1972;-0,3386;0,3278;-0,1636;-0,1833;-0,202;-0,2041;-0,1396;-0,1636;0,4022;-0,271;-0,1892;-0,2196;-0,2169;0,514;0,4444;-0,1518;0,4378;0,5069;0,3339;1,6312;0,4005;-0,2887;0,3506;-0,2298;-0,3477;-0,1918;0,2445;0,4079;0,493;-0,2763;-0,3423;-0,2645;-0,3112;0,9825;-0,2967;0,3178;-0,2512;0,2942;-0,1533;0,7774;0,2845;0,2845;-0,2282;-0,2383;-0,2421;0,4087;0,3065;-0,3391;1,4584;-0,2335;0,4531;-0,352;0,346;-0,2314;0,4831;0,46;-0,1295;-0,1566
"regresar";12;0,7677;-0,0845;-0,0851;-0,0746;-0,0174;-0,0995;-0,138;-0,0513;-0,0437;-0,0522;-0,0645;-0,0391;-0,0585;-0,1228;-0,0391;-0,0813;-0,0608;-0,0336;-0,0304;-0,0374;-0,0596;-0,0589;1,1374;0,8899;1,1071;-0,0417;-0,0489;1,9257;-0,0483;-0,0829;-0,0675;-0,04;-0,0449;-0,0494;-0,05;-0,0342;-0,04;-0,0536;-0,0663;-0,0463;-0,0538;-0,0531;-0,0389;-0,0473;-0,0372;0,9781;-0,0396;-0,0662;-0,0655;-0,0539;-0,0707;-0,0628;-0,0562;-0,0851;-0,047;-0,0896;-0,0527;-0,0412;-0,0676;-0,0838;-0,0648;-0,0762;-0,0586;-0,0726;-0,0697;-0,0615;-0,0754;-0,1172;-0,0787;1,8816;1,8816;-0,0558;-0,0583;-0,0593;0,943;-0,0724;-0,083;-0,0767;-0,0572;-0,0462;-0,0862;-0,0637;-0,0566;-0,0424;-0,0453;-0,0317;-0,0383
"necesidad";10;-0,0677;-0,0704;-0,0709;0,875;-0,0145;-0,0829;-0,115;-0,0427;-0,0364;-0,0435;-0,0537;-0,0326;-0,0487;-0,1023;-0,0326;-0,0677;-0,0507;-0,028;-0,0253;-0,0312;-0,0497;-0,049;-0,0274;-0,0499;-0,0294;1,1138;-0,0408;-0,0615;-0,0402;-0,0691;0,9154;-0,0334;-0,0374;-0,0412;-0,0416;-0,0285;1,1311;-0,0447;0,9226;-0,0386;-0,0448;-0,0442;-0,0324;-0,0395;-0,031;-0,0402;-0,033;-0,0552;-0,0546;-0,0449;-0,0589;-0,0523;-0,0469;-0,0709;-0,0391;-0,0747;1,0169;-0,0343;-0,0564;-0,0698;-0,054;-0,0635;-0,0488;-0,0605;-0,0581;-0,0512;-0,0628;-0,0977;-0,0656;-0,0649;-0,0649;0,993;-0,0486;0,9687;-0,0438;-0,0603;0,832;-0,0639;-0,0476;-0,0385;-0,0718;-0,0531;-0,0472;-0,0353;-0,0377;-0,0264;1,1492
"embargo";22;-0,1491;0,523;0,5202;-0,1368;-0,0319;-0,1824;0,3549;-0,094;1,8425;-0,0957;0,6228;-0,0717;-0,1072;0,3931;-0,0717;0,5368;-0,1115;-0,0617;-0,0557;-0,0686;-0,1094;-0,1079;-0,0603;-0,1098;-0,0648;-0,0765;-0,0897;-0,1353;-0,0885;-0,152;1,4919;0,8082;0,7631;0,725;-0,0916;-0,0626;-0,0734;0,6934;-0,1216;0,7506;-0,0986;-0,0974;-0,0713;-0,0868;-0,0681;-0,0885;-0,0727;-0,1214;-0,1202;-0,0988;-0,1296;-0,1151;-0,1031;0,5202;-0,0861;-0,1643;-0,0966;-0,0756;-0,124;0,5258;-0,1187;-0,1397;-0,1074;-0,1332;0,5934;-0,1127;0,5645;-0,2149;-0,1442;-0,1428;-0,1428;-0,1024;-0,107;0,655;-0,0964;1,4372;-0,1522;-0,1406;-0,1048;-0,0847;-0,158;-0,1168;-0,1038;-0,0777;-0,083;-0,0581;-0,0703
"bendición";10;-0,0677;-0,0704;-0,0709;-0,0622;-0,0145;-0,0829;-0,115;-0,0427;-0,0364;-0,0435;0,9341;-0,0326;-0,0487;-0,1023;-0,0326;-0,0677;-0,0507;-0,028;-0,0253;-0,0312;-0,0497;-0,049;-0,0274;-0,0499;-0,0294;-0,0348;-0,0408;0,8793;-0,0402;-0,0691;-0,0563;-0,0334;-0,0374;-0,0412;1,039;-0,0285;-0,0334;-0,0447;-0,0553;1,0705;-0,0448;-0,0442;-0,0324;-0,0395;-0,031;-0,0402;-0,033;0,9234;-0,0546;-0,0449;0,8969;-0,0523;-0,0469;-0,0709;-0,0391;-0,0747;-0,0439;-0,0343;-0,0564;0,8282;-0,054;-0,0635;-0,0488;-0,0605;-0,0581;-0,0512;-0,0628;-0,0977;-0,0656;0,8576;0,8576;-0,0465;-0,0486;-0,0494;-0,0438;-0,0603;0,832;-0,0639;-0,0476;-0,0385;-0,0718;-0,0531;-0,0472;-0,0353;-0,0377;-0,0264;-0,0319
