"";"X.K_1Ko_1";"X.K_1Ko_10";"X.K_1Ko_11";"X.K_1Ko_12";"X.K_1Ko_13";"X.K_1Ko_14";"X.K_1Ko_15";"X.K_1Ko_16";"X.K_1Ko_2";"X.K_1Ko_3";"X.K_1Ko_4";"X.K_1Ko_5";"X.K_1Ko_6";"X.K_1Ko_7";"X.K_1Ko_8";"X.K_1Ko_9";"X.K_1Tm_1";"X.K_1Tm_2";"X.K_1Tm_3";"X.K_1Tm_4";"X.K_1Tm_5";"X.K_1Tm_6";"X.K_1Ts_1";"X.K_1Ts_2";"X.K_1Ts_3";"X.K_1Ts_4";"X.K_1Ts_5";"X.K_2Ko_1";"X.K_2Ko_10";"X.K_2Ko_11";"X.K_2Ko_12";"X.K_2Ko_13";"X.K_2Ko_2";"X.K_2Ko_3";"X.K_2Ko_4";"X.K_2Ko_5";"X.K_2Ko_6";"X.K_2Ko_7";"X.K_2Ko_8";"X.K_2Ko_9";"X.K_2Tm_1";"X.K_2Tm_2";"X.K_2Tm_3";"X.K_2Tm_4";"X.K_2Ts_1";"X.K_2Ts_2";"X.K_2Ts_3";"X.K_Ef_1";"X.K_Ef_2";"X.K_Ef_3";"X.K_Ef_4";"X.K_Ef_5";"X.K_Ef_6";"X.K_Erm_1";"X.K_Erm_10";"X.K_Erm_11";"X.K_Erm_12";"X.K_Erm_13";"X.K_Erm_14";"X.K_Erm_15";"X.K_Erm_16";"X.K_Erm_2";"X.K_Erm_3";"X.K_Erm_4";"X.K_Erm_5";"X.K_Erm_6";"X.K_Erm_7";"X.K_Erm_8";"X.K_Erm_9";"X.K_Flm_1";"X.K_Flp_1";"X.K_Flp_2";"X.K_Flp_3";"X.K_Flp_4";"X.K_Ga_1";"X.K_Ga_2";"X.K_Ga_3";"X.K_Ga_4";"X.K_Ga_5";"X.K_Ga_6";"X.K_Kol_1";"X.K_Kol_2";"X.K_Kol_3";"X.K_Kol_4";"X.K_Tt_1";"X.K_Tt_2";"X.K_Tt_3"
"pre";2,0091;0,7443;-1,719;-2,2698;-2,9481;-1,3293;-3,4261;0,8012;-0,3085;-1,002;0,481;0,5473;-1,35;-1,1606;0,3783;0,3421;0,7099;-0,3803;-1,1657;-0,7304;-0,4844;-0,4156;-0,2746;0,5954;-0,3356;-0,4647;0,332;0,4665;0,412;-0,2898;-1,6949;0,6948;-0,7571;-0,6995;-0,329;0,786;0,4225;-0,9078;0,6367;-0,3591;0,4229;-0,3643;-0,2981;-0,3062;1,1024;-0,3435;-0,3666;1,6536;1,4954;0,9601;0,5935;-0,4027;-0,2766;0,342;-0,4657;-1,5513;0,6359;-0,2836;-0,7386;1,9164;2,9133;0,3716;-0,9776;-0,4418;1,6539;-0,4593;-0,8624;0,3733;0,9952;0,4217;0,4217;0,4212;0,722;0,6565;0,5831;1,2457;0,7741;-0,4164;-0,6201;0,2909;0,7539;0,4748;-0,5352;-0,509;0,5499;0,4646;-0,5101
"";0,2967;-0,3281;-0,3395;-0,2878;1,8907;-0,4017;-0,5397;-0,2033;-0,169;-0,2195;0,3603;-0,1564;-0,2303;-0,1465;-0,1447;0,28;-0,2349;-0,1366;-0,1344;0,5332;0,3686;0,9653;-0,1245;0,3855;-0,1344;-0,1641;-0,1961;-0,2787;-0,1979;0,7299;-0,2656;0,5246;0,4706;0,4304;2,0038;-0,1267;-0,1587;3,9017;-0,257;-0,1753;-0,2037;-0,2254;-0,1618;-0,1951;-0,1398;-0,1843;-0,1492;-0,2516;-0,2466;0,4259;-0,2878;-0,2511;-0,2258;1,383;0,4742;0,244;-0,2127;-0,174;-0,2584;-0,3227;-0,2606;-0,2914;-0,2222;-0,2669;-0,2665;-0,2344;0,3221;1,0997;-0,305;0,3044;0,3044;-0,22;0,3888;0,9992;1,0939;0,3221;-0,3172;-0,2955;-0,229;0,4778;-0,3277;1,6837;-0,2249;-0,1695;-0,1848;0,5837;-0,156
"adj_dem";0,4429;-0,2558;0,9894;-0,3616;-0,9272;-0,6942;-0,7663;-0,7635;0,462;-0,2413;-0,7764;1,4519;-0,28;-0,2481;0,641;0,89;0,8807;-0,5929;-0,5761;0,8617;-0,7353;0,5863;-0,8834;-0,6581;0,2766;0,7316;-0,4578;-0,4849;0,4845;0,2935;-0,2802;-0,2535;0,8577;1,8855;2,0143;0,8168;-0,7646;0,8197;0,713;0,4241;0,6548;0,5135;-0,2871;-1,0705;0,9825;0,5718;-0,2328;-0,5456;0,4029;1,4929;-0,5285;-0,2325;-0,2635;-1,0619;-0,2131;-1,2736;-1,7863;0,432;-0,2558;-0,355;-1,2026;-1,0707;-0,2507;0,6477;-0,4285;-0,2953;0,9841;-0,3861;0,3086;-0,4013;-0,4013;-0,8856;0,7004;-1,4185;-1,7097;-0,996;0,2691;0,6659;0,931;0,4216;0,8583;1,8255;-0,4107;-0,3224;-0,3981;0,292;-0,743
"ono";-0,039;-0,0419;-0,0433;-0,0367;-0,0095;-0,0513;-0,0689;-0,0259;-0,0216;-0,028;1,1517;-0,02;-0,0294;-0,0594;-0,0185;1,043;-0,03;-0,0174;-0,0171;-0,0192;-0,0309;-0,0313;-0,0159;-0,0294;-0,0171;-0,0209;-0,025;1,1044;-0,0252;1,0155;-0,0339;-0,0197;-0,0229;-0,0257;-0,0247;-0,0162;-0,0202;-0,0271;-0,0328;-0,0224;-0,026;-0,0288;-0,0206;-0,0249;-0,0178;-0,0235;-0,019;-0,0321;-0,0315;-0,0261;-0,0367;-0,032;-0,0288;-0,0429;-0,0227;-0,0468;-0,0271;-0,0222;-0,033;-0,0412;-0,0333;-0,0372;-0,0284;-0,0341;-0,034;-0,0299;-0,0359;-0,0564;-0,0389;-0,038;-0,038;-0,0281;-0,0291;-0,0299;-0,0262;-0,0359;-0,0405;1,0801;1,1866;-0,0224;-0,0418;-0,0326;-0,0287;-0,0216;-0,0236;-0,0167;-0,0199
"pro_per";-0,8247;-0,6378;0,33;-1,509;-1,1487;-0,3259;-0,6621;1,2499;-0,5548;-0,3884;4,4789;0,7643;-0,4991;-0,2786;-0,3677;0,7297;0,4775;-0,4999;-3,2366;-1,1064;-2,8408;-2,9174;0,6105;1,1693;0,7267;-0,2908;0,6485;4,061;0,8845;3,6541;2,7805;0,532;5,1249;-0,3069;3,7282;0,7198;2,1053;2,6626;1,5933;1,0159;2,2502;-2,3711;-1,1194;2,2999;0,2884;0,2891;1,944;-0,8983;-0,6928;-0,2575;-1,7172;-1,4182;-0,6737;0,3525;-1,0162;-0,3975;-0,6281;-1,9505;-2,0376;0,3228;-0,5229;-0,9;-2,9773;-1,1407;-1,9668;-2,6149;0,3019;-1,8116;-1,2602;-0,6177;-0,6177;1,7676;-0,7039;0,5871;0,6315;1,925;-3,9033;1,0019;0,7708;-0,6501;0,4969;0,441;-0,6618;1,7461;-2,6154;-0,9214;0,3974
"adv";-2,0287;-0,3443;-1,617;1,0904;0,3574;-0,6798;0,7002;-2,5857;0,2778;-1,6937;0,434;0,5246;0,4816;0,65;-0,3033;-0,6835;-1,2426;-0,9696;0,5431;-2,1651;2,2254;-0,7039;-0,5559;0,4816;0,5431;0,7533;-0,5665;1,4133;2,3033;-0,3618;1,4149;-0,4175;0,9928;0,6937;0,9761;0,5559;-0,7359;0,9874;1,3131;0,4554;-1,5247;-0,4473;-0,4178;0,3882;-3,4269;0,4313;0,3308;-5,1653;-0,3536;0,4519;0,2819;-0,3973;-1,8552;-1,241;-1,1188;1,3728;0,735;1,1208;1,283;-1,1512;-1,4202;0,3111;1,3671;0,9773;3,0802;1,2322;0,5586;0,8351;-0,8715;0,5293;0,5293;0,8475;0,5096;-0,4578;1,301;0,6488;0,2849;-0,6343;0,34;0,9263;-3,683;-0,5304;-0,5348;0,4384;-1,7421;-1,0468;-0,6872
"ver";-1,0116;0,7551;0,3088;-0,3738;-1,2168;2,3463;-2,3857;0,3135;-0,6239;-1,6139;0,3208;0,3307;-1,0126;0,6087;0,9121;0,5225;-0,4622;0,559;0,9234;0,4627;0,4291;-0,8515;-0,4018;-0,5432;0,631;0,4558;-0,5937;0,4057;0,3135;-0,5535;0,556;0,5801;1,1465;-0,3502;0,3453;1,0443;-0,9439;0,3846;0,6969;1,7117;-0,5748;0,3509;1,1492;-0,4419;-0,3738;1,6193;1,406;-1,1384;-1,4958;-1,0109;-0,5197;-0,8558;-0,7082;-0,5938;1,1164;-0,5862;0,8499;0,4723;1,7366;0,8933;-1,8284;0,8229;-0,3317;0,6454;-2,7023;1,1638;0,2891;-1,3567;-0,3059;0,5499;0,5499;-0,4408;0,3507;0,5535;-0,3744;-0,4448;-0,3624;-0,9738;1,0825;-0,2815;0,4421;0,6649;-0,547;0,3387;0,3545;-0,5913;-0,3689
"adj_ind";-0,9111;1,3073;0,4848;10,5927;2,0468;0,807;0,4777;0,6372;-2,9035;0,6179;-0,552;-0,6662;0,2976;0,5517;1,3277;0,7326;-0,9408;0,9916;0,6126;0,4329;-1,0318;0,4008;-0,7214;-0,539;0,309;-0,2825;1,8057;-1,8003;-0,7294;1,0911;0,5949;-0,4612;-0,2807;1,4438;-1,4532;-0,2383;0,4986;0,416;-1,2117;1,4644;-1,0213;0,7062;0,8027;-0,528;-0,9383;-0,7811;0,3149;-0,5746;0,3914;-0,3396;3,9328;0,3615;0,3248;-1,4753;-0,7033;-1,8757;1,0409;-0,3525;0,9746;-0,9026;-0,6532;-2,7666;-0,6193;-1,0979;1,4316;-0,7382;-3,5473;-3,3731;-0,2825;0,8421;0,8421;0,7672;-0,3932;1,7843;-1,3216;-2,5765;-0,3458;-0,9977;-0,6842;0,9952;-0,3166;-0,6094;0,5655;0,3984;-0,7864;0,8589;0,2675
"adj_pos";0,5058;-0,1745;0,4684;-0,153;-0,0397;0,4105;-0,287;-0,1081;-0,0899;-0,1167;-0,1323;-0,0832;-0,1225;0,362;-0,077;-0,1718;-0,1249;-0,0727;-0,0715;0,7737;0,5902;0,586;-0,0662;-0,1225;-0,0715;-0,0873;-0,1043;-0,1482;-0,1052;-0,1837;-0,1412;-0,082;0,7051;-0,1071;-0,1028;-0,0674;-0,0844;-0,1131;-0,1367;-0,0932;0,6561;-0,1199;-0,0861;-0,1038;0,8032;-0,098;-0,0794;0,5766;-0,1311;-0,1086;0,5273;-0,1335;-0,1201;-0,1788;0,709;-0,195;0,6395;-0,0925;-0,1374;0,4863;-0,1386;-0,155;-0,1182;-0,142;0,5553;0,6029;0,5359;-0,2352;-0,1622;-0,1583;-0,1583;-0,117;1,5058;0,6036;-0,1093;-0,1494;-0,1687;1,3035;-0,1218;-0,0935;0,4808;-0,1359;-0,1196;-0,0901;-0,0983;0,8284;-0,0829
"aux";1,3361;-0,7849;-0,304;0,8626;3,3029;-2,7305;6,5507;-1,6615;0,5568;1,3404;0,3907;-0,2612;1,3122;0,2835;-0,8242;-0,4194;-0,3535;-0,5236;0,7793;-0,4127;0,3545;-0,6747;-0,3778;0,9731;-1,1209;-2,1512;-2,1625;-0,2729;-0,3271;0,783;1,7368;-0,4519;-0,473;0,667;-0,7942;-0,2874;-0,2791;0,5311;0,3287;-0,4309;-0,3759;-0,5873;-0,541;-0,8197;-0,4204;-0,5272;-1,1425;0,5634;0,8769;-0,3798;-0,2615;-1,7633;-1,549;1,8147;0,5789;2,3387;-0,4581;-2,0046;-0,3608;-0,8607;-1,0281;-0,6534;0,6625;0,6219;-0,5258;0,4218;0,8198;-0,378;0,3044;-1,1899;-1,1899;-1,7096;-0,3033;-1,0131;-0,5021;0,8198;1,3012;1,3418;-0,7727;-0,4355;0,6412;0,3385;-0,3641;-0,4925;0,6183;0,3814;-0,2578
"nr";-0,2781;-1,8251;-0,4446;-2,9714;0,7447;-1,2436;-2,7452;5,1847;-0,4243;-0,245;-0,7163;-0,7095;-2,0473;0,4043;-0,5895;-0,9619;-0,3221;-1,08;-0,7263;-0,2957;-0,497;0,5842;0,527;0,5564;1,6899;0,4955;0,902;1,5607;3,2574;1,1393;-0,3795;1,2852;0,3749;-0,6989;-1,9482;-0,9423;-2,5721;-0,4373;-0,4524;-1,2444;0,6305;0,3308;-0,3716;5,9937;-0,2309;-1,0264;0,6445;-0,305;-1,4764;-0,9684;-0,5143;-0,3027;0,7611;-0,699;0,2648;-0,9358;0,7157;0,9726;-1,0264;1,4043;7,1229;-1,1154;-1,9228;1,743;-0,5149;-2,1103;-0,6175;-2,5746;1,0207;0,4751;0,4751;2,3487;0,4341;0,5278;0,7917;1,5276;0,7387;0,6216;-2,5429;0,7375;-1,2348;-0,9986;-0,5245;2,932;-1,0318;0,4591;0,9964
"pro_ind";0,4956;2,9627;-0,268;2,0039;-0,6186;1,6501;-0,2876;0,4908;-0,3782;1,8045;0,9045;-1,1285;0,6559;-0,3171;0,5564;1,8058;-0,8451;-2,1885;0,2648;0,5072;-0,3204;-0,4809;0,3218;-0,2682;0,2648;0,6;0,3748;-0,6881;0,3648;0,427;1,4506;0,3076;-0,4419;-0,2607;-1,5625;0,7381;1,1719;-0,3114;0,8317;-1,3472;-1,6889;-0,5433;-1,1902;-2,2071;-0,9431;-1,0215;0,743;-1,319;1,1592;-0,4145;-0,2792;1,3625;-1,0704;-0,2574;0,9314;-0,2674;0,8056;-0,6215;2,1459;-0,3064;-3,1428;0,4315;-0,3573;-2,4921;-1,9172;-2,0726;-0,7032;-0,2476;-0,2438;0,7023;0,7023;2,4868;-0,2591;-1,5472;2,0408;-0,2543;-1,5888;-0,3088;0,8725;1,8787;-4,1249;-0,5419;-0,5404;-1,2787;-0,7085;-0,3212;0,2979
"adj";0,529;-1,0735;-2,56;-0,4211;1,4267;-0,3876;0,4635;-1,2656;-0,7815;0,4436;-0,7537;1,8419;1,0689;-1,2796;-0,4963;-1,0183;0,6839;-0,414;4,0905;0,3195;0,6047;1,8631;-1,1986;-0,4413;-0,7688;-0,5357;-1,1566;-3,004;0,2903;0,7718;-1,1438;-0,3102;-0,7057;0,7706;0,3206;-1,2407;-0,4808;0,288;-0,3186;-0,2582;-1,5783;2,3157;0,9855;-0,9008;-0,3107;-1,2564;-0,9892;-0,9699;-0,5777;-0,476;0,3574;0,3184;0,788;2,8472;-0,5148;1,1036;0,9619;-0,4801;-0,6872;-1,6788;0,4475;-0,6978;1,1954;-0,3815;0,7686;-0,6098;1,061;0,3739;0,7784;-0,6141;-0,6141;-0,27;0,4877;-0,2683;-1,0393;-0,6048;-0,2553;-0,4752;0,3705;-0,6639;-0,4878;-0,3105;1,354;-0,3164;5,1227;4,2461;1,5768
"prep";-1,5873;0,4869;0,9806;2,0606;-0,192;-0,2689;0,8839;0,4493;2,9102;-0,2439;-1,1152;-0,7509;1,1803;0,3564;-1,0873;0,3658;-0,4633;-0,3416;0,2744;-1,1462;0,2737;-1,0865;1,5701;-1,3926;-0,5795;0,4902;0,9648;-0,4895;0,3087;-0,6221;-0,4286;-0,7329;-0,9406;0,4594;-0,4468;-0,523;-0,4698;-0,5563;0,3534;-0,3536;-0,3181;0,5089;-1,2606;-0,4566;0,6807;-0,3991;-0,235;-0,2367;-1,0972;0,2828;0,5231;1,5472;0,9521;-0,794;-0,5907;-0,3855;-0,3578;1,2075;0,6977;-0,3591;-0,2663;-0,5515;-0,2534;-0,9044;-0,4327;5,3317;0,3972;1,1014;-0,4359;0,6462;0,6462;-0,2455;-0,4298;-0,2966;0,4369;-1,0029;-2,2298;-0,5721;-0,2779;-0,3558;1,0713;-0,2498;0,5116;-0,8575;-0,4014;0,2897;0,342
"nom";1,4855;-1,8785;1,0365;0,4106;0,328;-0,391;-0,3993;-0,7466;1,0656;1,3925;-1,0276;-0,9527;0,7969;-0,6899;-0,7115;-0,5759;0,8049;0,671;-0,3392;0,9589;-0,4423;1,4799;0,9899;-0,3116;-0,542;0,3694;0,3706;-0,7449;-2,5143;-2,0256;-2,1804;-1,9505;-2,6331;-0,3308;-0,5406;-0,8291;1,011;-1,39;-2,1705;-0,9625;1,854;0,5347;0,6241;-0,4044;0,4901;-0,4451;-0,8784;2,7496;1,9783;1,8283;0,505;1,7448;2,0042;0,9192;-0,4066;-0,4806;-1,9113;0,3682;-1,4793;0,4494;0,6229;-0,8046;0,44;-1,1;1,6671;1,7834;-0,5528;1,1813;-0,3056;0,5528;0,5528;-1,4668;-0,5146;-1,2614;-0,4651;-1,2153;0,8475;0,3254;0,7651;-0,8805;1,3517;-0,4507;0,9795;-0,3945;0,6542;-0,4502;-0,7385
"adj_int";0,1985;0,5385;-0,1567;-0,4103;-0,1065;-0,5728;1,514;-0,2898;-0,241;-0,313;0,7102;-0,223;0,7612;-0,6639;-0,2064;-0,4607;-0,3349;-0,1948;-0,1916;-0,2147;-0,3458;0,7198;2,0975;-0,3284;-0,1916;-0,2339;-0,2795;0,2222;0,3208;-0,1611;-0,3787;-0,2198;-0,2558;0,8521;-0,2757;-0,1807;1,0214;-0,3033;-0,3664;-0,25;0,3119;0,2816;-0,2307;-0,2783;-0,1993;0,3429;-0,2128;-0,3587;-0,3516;-0,2911;0,6179;-0,3581;-0,322;-0,1544;0,9405;2,1632;-0,3033;-0,2481;0,686;-0,4601;-0,3716;1,8197;3,0919;0,2338;-0,38;0,2702;-0,4006;0,3746;0,5822;0,5969;0,5969;-0,3136;-0,3252;-0,3336;-0,293;0,2201;0,5585;1,1424;-0,3265;0,3581;-0,4672;0,2457;-0,3207;-0,2416;-0,2635;-0,1871;-0,2224
"adv_sup";-0,1624;-0,1745;-0,1805;-0,153;-0,0397;0,4105;0,3155;0,6569;0,7283;-0,1167;-0,1323;-0,0832;-0,1225;-0,2476;0,7894;0,4858;-0,1249;-0,0727;-0,0715;-0,0801;-0,129;-0,1304;0,8496;-0,1225;-0,0715;-0,0873;-0,1043;-0,1482;-0,1052;-0,1837;-0,1412;0,7644;-0,0954;-0,1071;1,6376;-0,0674;-0,0844;-0,1131;-0,1367;0,714;-0,1083;-0,1199;-0,0861;0,6725;-0,0743;-0,098;-0,0794;-0,1338;-0,1311;-0,1086;-0,153;-0,1335;-0,1201;0,4717;-0,0944;0,4416;-0,1131;-0,0925;0,5667;-0,1716;-0,1386;-0,155;0,623;2,3924;-0,1417;-0,1247;0,5359;-0,2352;1,2792;-0,1583;-0,1583;-0,117;-0,1213;-0,1244;0,6527;-0,1494;-0,1687;0,5177;-0,1218;-0,0935;-0,1742;-0,1359;0,6184;-0,0901;-0,0983;-0,0698;-0,0829
"pro_pos";0,7363;-1,175;0,2917;-4,1992;-0,5537;-1,1718;-1,3084;-0,3499;-1,1158;-1,4182;-0,6755;-0,4683;-0,5316;0,661;-0,2432;-0,7202;1,8433;-0,7216;0,6447;-1,2389;0,647;0,9776;1,3183;0,9502;2,9033;-0,5331;-0,6151;0,3911;-0,4538;-1,3484;-0,8179;-0,4499;-0,3299;-0,8957;0,3097;-1,3196;0,2751;-0,4094;0,5314;-0,4465;1,8526;-1,4952;0,7358;-0,4345;2,7297;0,5102;-0,4106;5,8121;-0,492;0,6643;-0,6264;0,5761;0,6325;1,9914;-0,3188;-0,3397;-0,7667;-0,6221;-0,7549;0,2763;2,5167;-0,653;-0,8585;0,4626;-1,0569;-0,2958;0,2788;-0,6187;0,7402;0,3951;0,3951;1,0778;-0,374;1,3421;0,3563;-3,3575;-1,3217;0,4078;-1,9581;0,5874;0,5681;-0,5552;1,015;0,6507;1,1025;1,4917;1,0423
"art_def";0,3232;2,2833;1,0784;0,33;0,586;0,3714;3,0946;0,3991;1,7413;0,5602;-0,8424;-0,3164;0,7438;-0,7372;-0,3912;0,49;-0,4377;0,4059;-0,6292;1,1906;-0,2725;-0,4974;-1,0031;-1,773;-3,5492;-0,3416;0,7979;-2,8819;-2,2871;-2,0066;-2,017;-0,3618;-1,4535;-0,879;-0,8385;-0,7317;0,8208;-1,1315;-1,5926;-0,7209;-1,0684;1,0746;-0,3132;1,5021;-0,4039;0,2905;-0,9775;0,4187;0,348;-0,5888;-0,3816;0,3598;-0,3973;-0,5353;1,4343;1,2683;1,4162;0,71;-0,5159;0,3209;0,5156;3,9271;2,8638;-0,406;0,4394;-1,0499;1,61;3,8968;0,4431;-2,808;-2,808;-3,4406;0,6877;0,4315;-0,4334;-0,3142;2,1598;-0,2914;0,297;0,3242;0,6456;-0,8545;-0,4598;-0,3379;-0,3879;-0,8414;-0,8345
"adj_num";-0,5852;0,7604;-0,2504;-0,1934;0,5517;2,7174;5,4027;0,2276;-0,3238;-0,4205;1,0164;-0,2997;0,5723;-0,892;-0,2773;-0,619;-0,4499;-0,2618;-0,2575;0,314;1,6548;-0,4698;-0,2385;-0,4413;-0,2575;-0,3143;-0,3756;-0,1839;0,2349;1,7472;2,199;2,3156;-0,3437;-0,386;-0,3704;-0,2428;-0,304;-0,4076;-0,4924;-0,3359;-0,3903;-0,4318;0,7989;0,2387;-0,2678;0,2545;0,3167;-0,1561;-0,4724;-0,3911;-0,5513;-0,1556;0,2002;0,363;0,2651;0,6655;-0,4076;-0,3333;-0,495;-0,6182;0,4998;0,4376;0,2043;-0,1717;-0,5106;-0,4491;-0,5383;-0,8474;-0,212;0,426;0,426;-0,4214;0,1977;-0,1388;0,6426;-0,1863;0,3926;1,3873;-0,4387;-0,3368;-0,2371;-0,4898;-0,4309;-0,3247;0,2538;-0,2514;-0,2988
"pro_dem";-0,052;-0,0558;-0,0578;-0,049;-0,0127;-0,0684;0,7199;-0,0346;-0,0288;-0,0373;-0,0423;-0,0266;-0,0392;-0,0792;-0,0246;-0,055;-0,04;-0,0232;-0,0229;-0,0256;-0,0413;-0,0417;-0,0212;1,0641;-0,0229;-0,0279;-0,0334;-0,0474;-0,0337;-0,0588;-0,0452;-0,0262;-0,0305;-0,0343;-0,0329;-0,0216;-0,027;1,0971;-0,0437;1,178;1,1152;-0,0383;-0,0275;-0,0332;-0,0238;-0,0314;-0,0254;-0,0428;-0,042;-0,0347;-0,049;-0,0427;-0,0384;-0,0572;-0,0302;-0,0624;-0,0362;-0,0296;1,0166;-0,0549;-0,0443;-0,0496;-0,0378;-0,0454;-0,0453;-0,0399;0,982;-0,0753;-0,0519;-0,0507;-0,0507;-0,0374;-0,0388;-0,0398;-0,035;-0,0478;-0,054;-0,0503;-0,039;-0,0299;-0,0557;-0,0435;-0,0383;-0,0288;-0,0314;-0,0223;1,2271
"pro_rel";-0,6436;-0,1908;-0,7459;-0,296;-0,3009;-0,9395;-0,3464;-0,8187;-0,2696;1,7825;-0,2231;0,3732;-0,9277;-0,7022;1,3405;0,4619;0,4351;-0,5503;0,4533;0,3926;0,4132;-0,2167;0,4962;-0,1911;-0,5412;-0,6608;-0,3377;-0,2784;1,9837;-0,2154;0,64;-0,2339;0,3069;0,2556;-0,3307;0,486;-0,2446;-0,3815;-0,5032;-0,7061;-0,3577;-0,1828;-0,2521;-0,786;0,8554;-0,3077;-0,2223;0,389;-0,2191;0,9188;-0,296;-0,2271;-0,1836;0,429;0,647;-0,8297;0,2331;1,6378;0,6672;-0,3671;-0,5134;0,5524;0,4741;0,9953;0,3523;0,4365;0,3201;0,4192;1,6337;-1,1991;-1,1991;1,2712;-0,1873;-0,1972;-0,3624;-0,5718;0,4774;-0,6142;-0,1888;-0,2863;-0,1902;0,3786;0,8113;-0,2707;0,6146;-0,5286;-0,2381
"con";-1,1626;-0,479;1,0979;-0,5359;0,4321;1,3101;0,8478;0,3617;-0,5117;0,5731;0,3651;0,3212;-0,2764;2,175;0,3405;-0,4086;-0,5085;2,1551;-0,3967;0,5887;0,5267;0,6817;-0,5021;0,4347;0,7672;0,6783;0,4242;0,7707;0,3363;0,6086;1,1093;0,7707;0,7189;-0,4329;0,3515;0,3483;-0,9364;0,5711;0,4559;0,3024;-0,4738;-0,4697;-0,6947;-1,1092;-0,3614;0,6773;0,3235;-1,0608;-0,9289;-1,5619;-0,4212;0,2885;0,5845;-1,263;-0,5375;0,5442;-1,2996;-0,3338;0,6935;-0,7699;-1,3237;0,7175;-0,7039;0,9776;-1,1537;-0,9091;-0,3296;0,3115;-1,3645;0,5932;0,5932;0,4331;-0,9437;-0,3738;-0,5824;0,8765;-0,8933;0,3566;-0,4085;-0,5793;-0,9572;0,6782;0,3044;-0,6981;-0,3353;-0,4875;1,0427
