"";"";"";"";"*zein_Juan2-13-22";""
"1";"*zein_Juan2-13-22";"-1.23705863440808";"0.128654218933547";"0.93077035236938";"24"
"2";"*zein_Juan12-44-50";"1.033756739535";"-0.751766221970036";"0.883434264884569";"37"
"3";"*zein_Juan3-14-21";"0.756496100444709";"-0.685504737285607";"0.883434264884569";"38"
"4";"*zein_Juan14-23-29";"0.74588691446536";"-1.16927889026801";"0.879873633049818";"41"
"5";"*egutegia_NavidadYOct";"0.241272045773165";"-0.449797679529812";"0.879841555285541";"42"
"6";"*zein_Juan17-1-11a";"0.71921555203926";"-0.416805386538323";"0.877542648845687";"44"
"7";"*zein_Juan20-19-23";"-1.26448001629613";"0.135207552583655";"0.87336184690158";"47"
"8";"*zein_Juan1-35-42";"-0.853159287975373";"0.03690754783203";"0.858884082624544";"51"
"9";"*zein_Juan14-6-14";"0.764449775226555";"-0.494418839047051";"0.858563304981774";"52"
"10";"*zein_Juan14-1-12";"0.825156059609629";"-0.894585727341168";"0.856670716889429";"53"
"11";"*zein_Juan17-20-26";"0.562469551995226";"-0.301408301854812";"0.855184447144593";"55"
"12";"*zein_Juan21-20-25";"-0.997121542887637";"0.0713125494950987";"0.850554556500608";"57"
"13";"*zein_Juan8-21-30";"0.375318620609282";"-0.256681799692823";"0.845603888213852";"59"
"14";"*zein_Juan15-26-16-4a";"0.517909806427144";"-0.290759134673386";"0.844032077764277";"60"
"15";"*zein_Juan3-5a7b-15";"0.517909806427144";"-0.290759134673386";"0.844032077764277";"61"
"16";"*zein_Juan19-25-27";"-1.12188883047827";"0.101130217603092";"0.840567679222357";"62"
"17";"*zein_Juan14-7-14";"0.746126775935682";"-0.514163233534094";"0.839231105710814";"64"
"18";"*zein_Juan11-45-57";"-0.62281968011575";"-0.01814045482888";"0.833916889428919";"65"
"19";"*zein_Juan1-43-51";"-0.670095261482608";"-0.0989495370717691";"0.833585419198056";"66"
"20";"*zein_Juan2-1-11";"-0.587654706191391";"-0.182418287647301";"0.833553341433779";"67"
"21";"*zein_Juan13-31-33a34-35";"0.458496812336368";"-0.276560245098152";"0.83314702308627";"68"
"22";"*zein_Juan16-12-15";"0.458496812336368";"-0.276560245098152";"0.83314702308627";"69"
"23";"*zein_Juan15-1-8";"0.46415280752311";"-0.370019247144432";"0.83022794653706";"71"
"24";"*zein_Juan14-1-6";"0.622232915206425";"-0.442338458046778";"0.826057837181045";"74"
"25";"*zein_Juan20-24-29";"-0.789176063569922";"0.0216164359817772";"0.822775212636695";"75"
"26";"*zein_Juan19-31-37";"-0.709491579288323";"-0.166290438940843";"0.822775212636695";"76"
"27";"*zein_Juan3-16-18";"0.375318620609282";"-0.256681799692823";"0.822700364520049";"77"
"28";"*zein_Juan3-13-17";"0.375318620609282";"-0.256681799692823";"0.822700364520049";"78"
"29";"*zein_Juan17-11b-19";"0.720474576928459";"-0.541805385815953";"0.821834264884569";"80"
"30";"*zein_Juan15-18-21";"0.586210792954228";"-0.451822170321347";"0.817247144592953";"81"
"31";"*zein_Juan15-12-17";"0.586210792954228";"-0.451822170321347";"0.817247144592953";"82"
"32";"*zein_Juan10-31-42";"-0.172931769726721";"-0.309872080149536";"0.816359659781288";"83"
"33";"*zein_Juan21-15-19";"0.0539178440744222";"-0.364086022164069";"0.816359659781288";"84"
"34";"*zein_Juan9-1-41";"-0.172141068147186";"-0.145330689086696";"0.815857108140948";"85"
"35";"*zein_Juan7-1-21025-30";"-0.486709911835064";"-0.0506688200375995";"0.814082138517618";"88"
"36";"*zein_Juan8-12-20";"0.237303193721967";"-0.315805305129899";"0.812349939246659";"89"
"37";"*zein_Juan13-21-3336-38";"-0.098282297618268";"0.456591959520948";"0.811473147023086";"90"
"38";"*zein_Juan1-47-51";"-0.62281968011575";"-0.01814045482888";"0.811205832320778";"91"
"39";"*zein_Juan8-51-59";"0.143366532390204";"-0.279185379886048";"0.811056136087485";"92"
"40";"*zein_Juan6-60-69";"0.182612073267537";"0.243787567073632";"0.811056136087485";"93"
"41";"*zein_Juan12-20-33";"0.111772711826714";"-0.0690085499677595";"0.808361603888214";"95"
"42";"*zein_Juan13-16-20";"0.374088700155519";"0.482036751032684";"0.807901822600243";"96"
"43";"*zein_Juan6-22-29";"-0.123750529753234";"-0.137411127260851";"0.806725637910085";"97"
"44";"*zein_Juan7-40-53";"-0.165339625616777";"-0.127471904558187";"0.80606269744836";"98"
"45";"*zein_Juan1-45-51";"-0.313521741723293";"-0.218705947236831";"0.805410449574727";"99"
"46";"*zein_Juan13-1-17";"-0.234654785389349";"-0.11090653338708";"0.805046901579587";"100"
"47";"*zein_Juan1-19-28";"-0.195046122662165";"-0.12037245977057";"0.802790765492102";"101"
"48";"*zein_Juan1-6-819-28";"0.095728843222004";"-0.302439268019922";"0.802502065613609";"102"
"49";"*egutegia_SemanaDeAdv";"0.095728843222004";"-0.302439268019922";"0.802502065613609";"103"
"50";"*zein_Juan18-33-37";"0.0104535799208228";"-0.261591363115367";"0.802341676792224";"104"
"51";"*ebanjelaria_Juan";"0.0247466015139762";"0.00436821672025509";"0.8";"105"
