el;280;47;75;1;384
que;139;40;47;7;301
y;211;28;43;5;222
de;144;24;26;3;200
yo;20;30;38;1;205
a;202;12;25;3;150
en;143;14;29;5;135
haber;83;12;13;4;181
no;58;13;31;4;190
él;128;10;22;0;115
ser;73;21;23;1;169
se;113;3;10;5;38
al;62;4;9;1;77
tú;33;3;4;0;66
estar;60;3;8;5;67
este;38;14;12;4;70
para;22;17;13;3;72
mío;5;13;18;4;74
por;31;5;10;1;62
del;29;22;6;0;56
un;41;4;7;0;40
porque;21;3;12;0;65
aquel;86;1;0;0;9
si;6;2;13;0;59
vosotros;5;4;7;5;57
tener;10;7;8;0;40
con;35;2;4;0;27
todo;9;0;6;0;51
sino;11;0;11;1;42
pero;19;2;7;3;33
otro;36;0;2;0;16
también;18;0;6;0;31
cuando;30;0;3;0;19
quien;10;3;1;0;26
como;5;5;1;0;28
poder;5;2;3;0;30
dicho;13;0;1;1;20
qué;9;3;0;0;15
ni;2;0;1;2;16
nosotros;1;0;0;0;26
entonces;21;0;1;0;3
mucho;18;0;0;0;10
donde;15;0;0;0;10
pues;3;0;2;1;17
ese;5;0;0;0;17
quién;8;1;0;0;10
antes;7;1;0;0;12
entre;14;0;0;0;3
sobre;4;1;0;0;10
hasta;6;0;1;1;6
verdadero;0;2;1;0;8
nada;2;1;0;1;9
sin;1;0;1;0;10
dentro;2;0;0;0;7
nuestro;1;2;0;0;7
ninguno;3;0;1;1;5
mientras;5;0;1;0;4
o;4;0;0;0;4
desde;4;0;0;0;4
aunque;3;1;1;0;2
algo;2;0;2;0;4
alguno;4;0;0;0;3
bien;3;1;0;0;2
encima;0;0;0;0;5
cada;2;1;0;0;2
según;0;0;2;0;1
hacia;2;0;0;0;1
demás;3;0;0;0;0
deber;0;0;0;0;3
cincuenta;3;0;0;0;0
ante;1;0;0;0;2
