"V1";"V2";"V3";"V4";"V5";"V6"
"***";"nb classes";"7";"***";"";""
"**";"classe";"1";"**";"";""
"****";"11";"4601";"0.24";"****";""
"0";"818";"0";"-2.384";"decir";"0.1225648"
"*****";"*";"*";"*";"*";"*"
"0";"1402";"0.00";"-4.832";"en";"0.02792916"
"0";"1148";"0.00";"-3.666";"él";"0.05553751"
"0";"1085";"0.00";"-3.403";"se";"0.06509306"
"0";" 968";"0.00";"-2.938";"no";"0.08652128"
"3";"2305";"0.13";"-2.298";"y";"0.12955466"
"0";" 761";"0.00";"-2.185";"haber";"0.13934548"
"*";"*";"*";"*";"*";"*"
"0";"1149";"0";"-3.670";"*ebanjelaria_Juan";"0.05539586"
"0";" 805";"0";"-2.338";"*ebanjelaria_Marcos";"0.12622651"
"**";"classe";"2";"**";"";""
"****";"1352";"4601";"29.38";"****";""
" 6";"379";" 1.58";"-153.850";"os";"2.497661e-35"
"12";"304";" 3.95";"-101.505";"padre";"7.126999e-24"
"10";"282";" 3.55";" -96.659";"dios";"8.236497e-23"
"24";"326";" 7.36";" -82.009";"hijo";"1.354507e-19"
"24";"267";" 8.99";" -56.826";"hombre";"4.760644e-14"
" 8";"175";" 4.57";" -53.980";"cielo";"2.025449e-13"
"12";"197";" 6.09";" -53.817";"venir";"2.200474e-13"
"36";"316";"11.39";" -52.936";"dar";"3.446169e-13"
"31";"281";"11.03";" -48.580";"hacer";"3.170109e-12"
" 0";"112";" 0.00";" -47.769";"vida";"4.794747e-12"
" 7";"143";" 4.90";" -42.658";"reino";"6.520817e-11"
" 2";"100";" 2.00";" -36.944";"mundo";"1.215701e-09"
" 0";" 84";" 0.00";" -35.605";"asegurar";"2.416927e-09"
" 2";" 91";" 2.20";" -33.069";"profeta";"8.894453e-09"
" 0";" 77";" 0.00";" -32.587";"vuestro";"1.139615e-08"
" 5";"106";" 4.72";" -31.818";"así";"1.693215e-08"
" 0";" 68";" 0.00";" -28.721";"crear|creer";"8.358420e-08"
"13";"139";" 9.35";" -27.719";"querer";"1.402603e-07"
" 0";" 63";" 0.00";" -26.580";"conocer";"2.528454e-07"
"20";"170";"11.76";" -26.412";"más";"2.758358e-07"
" 3";" 75";" 4.00";" -23.677";"nombre";"1.139303e-06"
"10";"111";" 9.01";" -22.758";"mismo";"1.837038e-06"
"43";"262";"16.41";" -22.532";"ir";"2.066546e-06"
" 8";" 99";" 8.08";" -22.130";"tierra";"2.547607e-06"
" 3";" 69";" 4.35";" -21.162";"recibir";"4.220451e-06"
" 2";" 63";" 3.17";" -21.147";"ahora";"4.253449e-06"
" 8";" 96";" 8.33";" -20.940";"nadie";"4.739002e-06"
"36";"225";"16.00";" -20.425";"señor";"6.200711e-06"
"26";"180";"14.44";" -20.152";"uno";"7.153798e-06"
" 0";" 47";" 0.00";" -19.760";"aquí";"8.780714e-06"
" 4";" 70";" 5.71";" -19.193";"bueno";"1.181156e-05"
" 1";" 50";" 2.00";" -18.269";"mis";"1.917967e-05"
" 0";" 43";" 0.00";" -18.062";"beber";"2.137916e-05"
" 0";" 43";" 0.00";" -18.062";"perder";"2.137916e-05"
" 0";" 41";" 0.00";" -17.215";"pagar";"3.338517e-05"
" 1";" 47";" 2.13";" -17.002";"oído";"3.734092e-05"
" 0";" 40";" 0.00";" -16.791";"luz";"4.172857e-05"
" 1";" 46";" 2.17";" -16.580";"parecer";"4.663622e-05"
" 3";" 57";" 5.26";" -16.184";"escuchar";"5.747880e-05"
" 0";" 38";" 0.00";" -15.945";"fruto";"6.522521e-05"
" 0";" 38";" 0.00";" -15.945";"israel";"6.522521e-05"
"13";"107";"12.15";" -15.683";"dejar";"7.490321e-05"
" 1";" 43";" 2.33";" -15.316";"corazón";"9.092038e-05"
"16";"120";"13.33";" -15.299";"saber";"9.174918e-05"
" 0";" 36";" 0.00";" -15.099";"amigo";"1.020309e-04"
" 0";" 35";" 0.00";" -14.676";"vuestra";"1.276531e-04"
" 1";" 41";" 2.44";" -14.476";"obra";"1.419922e-04"
" 0";" 34";" 0.00";" -14.254";"eterno";"1.597478e-04"
" 1";" 40";" 2.50";" -14.056";"vivir";"1.774900e-04"
" 4";" 56";" 7.14";" -13.516";"escribir";"2.365920e-04"
" 0";" 32";" 0.00";" -13.409";"amo";"2.503719e-04"
" 0";" 32";" 0.00";" -13.409";"conmigo";"2.503719e-04"
" 9";" 81";"11.11";" -13.269";"grande";"2.698457e-04"
" 0";" 31";" 0.00";" -12.987";"ángeles";"3.135816e-04"
" 1";" 37";" 2.70";" -12.798";"pecado";"3.470557e-04"
" 1";" 37";" 2.70";" -12.798";"gloria";"3.470557e-04"
" 0";" 30";" 0.00";" -12.566";"guardar";"3.928760e-04"
" 0";" 30";" 0.00";" -12.566";"dichosos";"3.928760e-04"
" 3";" 48";" 6.25";" -12.512";"santo";"4.044524e-04"
" 2";" 42";" 4.76";" -12.385";"hora";"4.328209e-04"
"14";"102";"13.73";" -12.327";"enviar";"4.463938e-04"
" 0";" 28";" 0.00";" -11.723";"vuestros";"6.173479e-04"
" 0";" 28";" 0.00";" -11.723";"salvar";"6.173479e-04"
" 3";" 46";" 6.52";" -11.705";"morir";"6.233103e-04"
" 1";" 34";" 2.94";" -11.543";"amar";"6.799970e-04"
" 0";" 27";" 0.00";" -11.302";"abrahán";"7.743285e-04"
" 0";" 27";" 0.00";" -11.302";"carne";"7.743285e-04"
" 0";" 27";" 0.00";" -11.302";"vengar|venir";"7.743285e-04"
" 6";" 60";"10.00";" -11.009";"caer";"9.065811e-04"
" 0";" 26";" 0.00";" -10.881";"perdonar";"9.716543e-04"
" 0";" 26";" 0.00";" -10.881";"paz";"9.716543e-04"
"12";" 88";"13.64";" -10.723";"ya";"1.057942e-03"
" 2";" 37";" 5.41";" -10.336";"fe";"1.304360e-03"
" 1";" 31";" 3.23";" -10.293";"último";"1.335706e-03"
" 0";" 24";" 0.00";" -10.039";"mandamiento";"1.532237e-03"
" 6";" 56";"10.71";"  -9.524";"cumplir";"2.028432e-03"
" 1";" 29";" 3.45";"  -9.461";"suceder";"2.098555e-03"
" 1";" 29";" 3.45";"  -9.461";"siempre";"2.098555e-03"
" 0";" 22";" 0.00";"  -9.199";"enemigo";"2.421736e-03"
" 2";" 34";" 5.88";"  -9.118";"tus";"2.530802e-03"
" 3";" 39";" 7.69";"  -8.920";"sembrar";"2.820698e-03"
" 7";" 59";"11.86";"  -8.842";"maestro";"2.944482e-03"
" 0";" 21";" 0.00";"  -8.779";"viuda|viudo";"3.047588e-03"
" 0";" 21";" 0.00";"  -8.779";"valer";"3.047588e-03"
" 1";" 27";" 3.70";"  -8.632";"david";"3.302456e-03"
" 0";" 20";" 0.00";"  -8.359";"vivo";"3.838037e-03"
" 0";" 20";" 0.00";"  -8.359";"merecer";"3.838037e-03"
" 1";" 26";" 3.85";"  -8.219";"justo";"4.145695e-03"
" 6";" 52";"11.54";"  -8.073";"cómo";"4.493582e-03"
" 0";" 19";" 0.00";"  -7.939";"generación";"4.837473e-03"
" 0";" 19";" 0.00";"  -7.939";"emplear";"4.837473e-03"
" 0";" 19";" 0.00";"  -7.939";"saber|ser";"4.837473e-03"
" 1";" 25";" 4.00";"  -7.806";"campo";"5.206930e-03"
" 3";" 36";" 8.33";"  -7.749";"dónde";"5.373386e-03"
" 3";" 36";" 8.33";"  -7.749";"oveja";"5.373386e-03"
" 0";" 18";" 0.00";"  -7.520";"viña";"6.102705e-03"
" 0";" 18";" 0.00";"  -7.520";"único";"6.102705e-03"
" 0";" 18";" 0.00";"  -7.520";"pequeño";"6.102705e-03"
" 0";" 18";" 0.00";"  -7.520";"embargo";"6.102705e-03"
" 2";" 30";" 6.67";"  -7.511";"verdad";"6.132785e-03"
" 2";" 30";" 6.67";"  -7.511";"signo";"6.132785e-03"
" 2";" 30";" 6.67";"  -7.511";"servir";"6.132785e-03"
" 2";" 30";" 6.67";"  -7.511";"alegría";"6.132785e-03"
" 4";" 40";"10.00";"  -7.307";"matar";"6.867430e-03"
" 0";" 17";" 0.00";"  -7.100";"satanás";"7.706625e-03"
" 0";" 17";" 0.00";"  -7.100";"labrador";"7.706625e-03"
" 0";" 17";" 0.00";"  -7.100";"criado";"7.706625e-03"
"16";" 93";"17.20";"  -6.787";"espíritu";"9.183218e-03"
" 0";" 16";" 0.00";"  -6.681";"juzgar";"9.743048e-03"
" 0";" 16";" 0.00";"  -6.681";"significar";"9.743048e-03"
" 0";" 16";" 0.00";"  -6.681";"sed";"9.743048e-03"
" 0";" 16";" 0.00";"  -6.681";"haz";"9.743048e-03"
" 4";" 38";"10.53";"  -6.567";"testimonio";"1.038734e-02"
" 7";" 52";"13.46";"  -6.427";"muerto";"1.124172e-02"
" 2";" 27";" 7.41";"  -6.322";"nacer";"1.192487e-02"
" 0";" 15";" 0.00";"  -6.262";"jacob";"1.233314e-02"
" 0";" 15";" 0.00";"  -6.262";"isaías";"1.233314e-02"
" 0";" 15";" 0.00";"  -6.262";"alma";"1.233314e-02"
" 3";" 32";" 9.38";"  -6.218";"sólo";"1.264590e-02"
" 3";" 32";" 9.38";"  -6.218";"quitar";"1.264590e-02"
" 1";" 21";" 4.76";"  -6.164";"fuego";"1.303721e-02"
" 2";" 26";" 7.69";"  -5.930";"hambre";"1.488739e-02"
" 0";" 14";" 0.00";"  -5.844";"tuyo";"1.563404e-02"
" 0";" 14";" 0.00";"  -5.844";"divorciar";"1.563404e-02"
" 0";" 14";" 0.00";"  -5.844";"adulterio";"1.563404e-02"
" 0";" 14";" 0.00";"  -5.844";"nunca";"1.563404e-02"
" 0";" 14";" 0.00";"  -5.844";"semilla";"1.563404e-02"
" 0";" 14";" 0.00";"  -5.844";"digno";"1.563404e-02"
" 0";" 14";" 0.00";"  -5.844";"dichoso";"1.563404e-02"
" 1";" 20";" 5.00";"  -5.756";"sano";"1.642974e-02"
" 1";" 20";" 5.00";"  -5.756";"cuenta";"1.642974e-02"
" 3";" 30";"10.00";"  -5.468";"elías";"1.936224e-02"
" 0";" 13";" 0.00";"  -5.425";"voluntad";"1.985052e-02"
" 0";" 13";" 0.00";"  -5.425";"tampoco";"1.985052e-02"
" 0";" 13";" 0.00";"  -5.425";"siervo";"1.985052e-02"
" 0";" 13";" 0.00";"  -5.425";"sandalia";"1.985052e-02"
" 0";" 13";" 0.00";"  -5.425";"ningún";"1.985052e-02"
" 0";" 13";" 0.00";"  -5.425";"mal";"1.985052e-02"
" 0";" 13";" 0.00";"  -5.425";"bastar";"1.985052e-02"
" 1";" 19";" 5.26";"  -5.350";"crecer";"2.072330e-02"
"18";" 96";"18.75";"  -5.344";"mujer";"2.079247e-02"
" 4";" 34";"11.76";"  -5.125";"cosa";"2.358253e-02"
" 4";" 34";"11.76";"  -5.125";"malo";"2.358253e-02"
" 0";" 12";" 0.00";"  -5.007";"esposo";"2.525094e-02"
" 0";" 12";" 0.00";"  -5.007";"compasión";"2.525094e-02"
" 0";" 12";" 0.00";"  -5.007";"limpio";"2.525094e-02"
" 0";" 12";" 0.00";"  -5.007";"caso";"2.525094e-02"
" 0";" 12";" 0.00";"  -5.007";"boca";"2.525094e-02"
" 0";" 12";" 0.00";"  -5.007";"tirar";"2.525094e-02"
" 0";" 12";" 0.00";"  -5.007";"sabiduría";"2.525094e-02"
" 0";" 12";" 0.00";"  -5.007";"podar|poder";"2.525094e-02"
" 0";" 12";" 0.00";"  -5.007";"ladrón";"2.525094e-02"
" 0";" 12";" 0.00";"  -5.007";"esclavo";"2.525094e-02"
" 1";" 18";" 5.56";"  -4.945";"sangre";"2.616427e-02"
" 1";" 18";" 5.56";"  -4.945";"luego";"2.616427e-02"
" 1";" 18";" 5.56";"  -4.945";"hipócrita";"2.616427e-02"
" 7";" 47";"14.89";"  -4.806";"creer";"2.836699e-02"
" 4";" 33";"12.12";"  -4.774";"cerca";"2.889194e-02"
" 3";" 28";"10.71";"  -4.733";"cambio";"2.959512e-02"
" 0";" 11";" 0.00";"  -4.588";"árbol";"3.218946e-02"
" 0";" 11";" 0.00";"  -4.588";"vientre";"3.218946e-02"
" 0";" 11";" 0.00";"  -4.588";"verdadero";"3.218946e-02"
" 0";" 11";" 0.00";"  -4.588";"talento";"3.218946e-02"
" 0";" 11";" 0.00";"  -4.588";"glorificado";"3.218946e-02"
" 0";" 11";" 0.00";"  -4.588";"amor";"3.218946e-02"
" 0";" 11";" 0.00";"  -4.588";"zarzas";"3.218946e-02"
" 0";" 11";" 0.00";"  -4.588";"tradición";"3.218946e-02"
" 0";" 11";" 0.00";"  -4.588";"mañana";"3.218946e-02"
" 0";" 11";" 0.00";"  -4.588";"justicia";"3.218946e-02"
" 0";" 11";" 0.00";"  -4.588";"trigo";"3.218946e-02"
" 0";" 11";" 0.00";"  -4.588";"serpiente";"3.218946e-02"
" 0";" 11";" 0.00";"  -4.588";"revelar";"3.218946e-02"
" 0";" 11";" 0.00";"  -4.588";"raíz";"3.218946e-02"
" 0";" 11";" 0.00";"  -4.588";"pájaro";"3.218946e-02"
" 0";" 11";" 0.00";"  -4.588";"prójimo";"3.218946e-02"
" 0";" 11";" 0.00";"  -4.588";"misericordia";"3.218946e-02"
" 0";" 11";" 0.00";"  -4.588";"joven";"3.218946e-02"
" 0";" 11";" 0.00";"  -4.588";"izquierda";"3.218946e-02"
" 0";" 11";" 0.00";"  -4.588";"falta";"3.218946e-02"
" 0";" 11";" 0.00";"  -4.588";"dedo";"3.218946e-02"
" 0";" 11";" 0.00";"  -4.588";"aceptar";"3.218946e-02"
" 1";" 17";" 5.88";"  -4.542";"permitir";"3.306930e-02"
" 2";" 22";" 9.09";"  -4.388";"dinero";"3.620318e-02"
" 3";" 27";"11.11";"  -4.371";"ay";"3.656091e-02"
" 5";" 36";"13.89";"  -4.199";"tres";"4.045085e-02"
" 0";" 10";" 0.00";"  -4.170";"tiniebla";"4.113744e-02"
" 0";" 10";" 0.00";"  -4.170";"obrero";"4.113744e-02"
" 0";" 10";" 0.00";"  -4.170";"viejo";"4.113744e-02"
" 0";" 10";" 0.00";"  -4.170";"tesoro";"4.113744e-02"
" 0";" 10";" 0.00";"  -4.170";"principio";"4.113744e-02"
" 0";" 10";" 0.00";"  -4.170";"nación";"4.113744e-02"
" 0";" 10";" 0.00";"  -4.170";"igual";"4.113744e-02"
" 0";" 10";" 0.00";"  -4.170";"guerra";"4.113744e-02"
" 0";" 10";" 0.00";"  -4.170";"ganar";"4.113744e-02"
" 0";" 10";" 0.00";"  -4.170";"final";"4.113744e-02"
" 0";" 10";" 0.00";"  -4.170";"dormir";"4.113744e-02"
" 0";" 10";" 0.00";"  -4.170";"comida";"4.113744e-02"
" 0";" 10";" 0.00";"  -4.170";"antiguo";"4.113744e-02"
" 0";" 10";" 0.00";"  -4.170";"abismo";"4.113744e-02"
" 0";" 10";" 0.00";"  -4.170";"abierto";"4.113744e-02"
" 1";" 16";" 6.25";"  -4.141";"ama";"4.184663e-02"
" 1";" 16";" 6.25";"  -4.141";"hoy";"4.184663e-02"
" 3";" 26";"11.54";"  -4.013";"ése";"4.513904e-02"
" 5";" 35";"14.29";"  -3.875";"criar";"4.901064e-02"
" 0";"  9";" 0.00";"  -3.752";"engendró";"5.272882e-02"
" 0";"  9";" 0.00";"  -3.752";"mies";"5.272882e-02"
" 0";"  9";" 0.00";"  -3.752";"acoger";"5.272882e-02"
" 0";"  9";" 0.00";"  -3.752";"jonás";"5.272882e-02"
" 0";"  9";" 0.00";"  -3.752";"creed";"5.272882e-02"
" 0";"  9";" 0.00";"  -3.752";"trono";"5.272882e-02"
" 0";"  9";" 0.00";"  -3.752";"testigo";"5.272882e-02"
" 0";"  9";" 0.00";"  -3.752";"terreno";"5.272882e-02"
" 0";"  9";" 0.00";"  -3.752";"saltar";"5.272882e-02"
" 0";"  9";" 0.00";"  -3.752";"nueve";"5.272882e-02"
" 0";"  9";" 0.00";"  -3.752";"fuerte";"5.272882e-02"
" 0";"  9";" 0.00";"  -3.752";"frente";"5.272882e-02"
" 0";"  9";" 0.00";"  -3.752";"familia";"5.272882e-02"
" 0";"  9";" 0.00";"  -3.752";"cosecha";"5.272882e-02"
" 0";"  9";" 0.00";"  -3.752";"ahogar";"5.272882e-02"
" 1";" 15";" 6.67";"  -3.743";"menos";"5.302439e-02"
" 1";" 15";" 6.67";"  -3.743";"isabel";"5.302439e-02"
" 1";" 15";" 6.67";"  -3.743";"comprar";"5.302439e-02"
" 3";" 25";"12.00";"  -3.661";"poco";"5.569180e-02"
" 3";" 25";"12.00";"  -3.661";"rico";"5.569180e-02"
" 2";" 20";"10.00";"  -3.638";"cuerpo";"5.648464e-02"
" 5";" 34";"14.71";"  -3.557";"buscar";"5.929795e-02"
"24";"112";"21.43";"  -3.502";"palabra";"6.129185e-02"
"22";"104";"21.15";"  -3.474";"comer";"6.233330e-02"
" 1";" 14";" 7.14";"  -3.348";"cuándo";"6.728857e-02"
" 1";" 14";" 7.14";"  -3.348";"sol";"6.728857e-02"
" 1";" 14";" 7.14";"  -3.348";"sentar|sentir";"6.728857e-02"
" 1";" 14";" 7.14";"  -3.348";"lejos";"6.728857e-02"
" 0";"  8";" 0.00";"  -3.335";"juez";"6.782771e-02"
" 0";"  8";" 0.00";"  -3.335";"isaac";"6.782771e-02"
" 0";"  8";" 0.00";"  -3.335";"ir|ser";"6.782771e-02"
" 0";"  8";" 0.00";"  -3.335";"bendito";"6.782771e-02"
" 0";"  8";" 0.00";"  -3.335";"disponer";"6.782771e-02"
" 0";"  8";" 0.00";"  -3.335";"construir";"6.782771e-02"
" 0";"  8";" 0.00";"  -3.335";"vela";"6.782771e-02"
" 0";"  8";" 0.00";"  -3.335";"trabajar";"6.782771e-02"
" 0";"  8";" 0.00";"  -3.335";"servidor";"6.782771e-02"
" 0";"  8";" 0.00";"  -3.335";"salar";"6.782771e-02"
" 0";"  8";" 0.00";"  -3.335";"sabed";"6.782771e-02"
" 0";"  8";" 0.00";"  -3.335";"razón";"6.782771e-02"
" 0";"  8";" 0.00";"  -3.335";"rama";"6.782771e-02"
" 0";"  8";" 0.00";"  -3.335";"pedregoso";"6.782771e-02"
" 0";"  8";" 0.00";"  -3.335";"mes";"6.782771e-02"
" 0";"  8";" 0.00";"  -3.335";"jesucristo";"6.782771e-02"
" 0";"  8";" 0.00";"  -3.335";"injusto";"6.782771e-02"
" 0";"  8";" 0.00";"  -3.335";"impuro";"6.782771e-02"
" 0";"  8";" 0.00";"  -3.335";"falso";"6.782771e-02"
" 0";"  8";" 0.00";"  -3.335";"dar|distar";"6.782771e-02"
" 0";"  8";" 0.00";"  -3.335";"cometer";"6.782771e-02"
" 0";"  8";" 0.00";"  -3.335";"celestial";"6.782771e-02"
" 0";"  8";" 0.00";"  -3.335";"capaz";"6.782771e-02"
" 0";"  8";" 0.00";"  -3.335";"belzebú";"6.782771e-02"
" 0";"  8";" 0.00";"  -3.335";"aguardar";"6.782771e-02"
" 0";"  8";" 0.00";"  -3.335";"administrador";"6.782771e-02"
" 0";"  8";" 0.00";"  -3.335";"además";"6.782771e-02"
"11";" 59";"18.64";"  -3.323";"mirar";"6.832278e-02"
" 3";" 24";"12.50";"  -3.315";"pobre";"6.865832e-02"
" 3";" 24";"12.50";"  -3.315";"momento";"6.865832e-02"
" 4";" 28";"14.29";"  -3.095";"pecador";"7.852130e-02"
" 1";" 13";" 7.69";"  -2.956";"pariente";"8.553437e-02"
" 1";" 13";" 7.69";"  -2.956";"mar";"8.553437e-02"
" 1";" 13";" 7.69";"  -2.956";"leer";"8.553437e-02"
" 1";" 13";" 7.69";"  -2.956";"grano";"8.553437e-02"
" 1";" 13";" 7.69";"  -2.956";"crear";"8.553437e-02"
" 1";" 13";" 7.69";"  -2.956";"acerca";"8.553437e-02"
" 0";"  7";" 0.00";"  -2.917";"medida";"8.763250e-02"
" 0";"  7";" 0.00";"  -2.917";"elegir";"8.763250e-02"
" 0";"  7";" 0.00";"  -2.917";"honra";"8.763250e-02"
" 0";"  7";" 0.00";"  -2.917";"vuestras";"8.763250e-02"
" 0";"  7";" 0.00";"  -2.917";"viaje";"8.763250e-02"
" 0";"  7";" 0.00";"  -2.917";"soldado";"8.763250e-02"
" 0";"  7";" 0.00";"  -2.917";"señal";"8.763250e-02"
" 0";"  7";" 0.00";"  -2.917";"sembrador";"8.763250e-02"
" 0";"  7";" 0.00";"  -2.917";"producir";"8.763250e-02"
" 0";"  7";" 0.00";"  -2.917";"permanecer";"8.763250e-02"
" 0";"  7";" 0.00";"  -2.917";"pegar";"8.763250e-02"
" 0";"  7";" 0.00";"  -2.917";"oprimir";"8.763250e-02"
" 0";"  7";" 0.00";"  -2.917";"lobo";"8.763250e-02"
" 0";"  7";" 0.00";"  -2.917";"libertad";"8.763250e-02"
" 0";"  7";" 0.00";"  -2.917";"jamás";"8.763250e-02"
" 0";"  7";" 0.00";"  -2.917";"fin";"8.763250e-02"
" 0";"  7";" 0.00";"  -2.917";"estado";"8.763250e-02"
" 0";"  7";" 0.00";"  -2.917";"echarán";"8.763250e-02"
" 0";"  7";" 0.00";"  -2.917";"denarios";"8.763250e-02"
" 0";"  7";" 0.00";"  -2.917";"darás";"8.763250e-02"
" 0";"  7";" 0.00";"  -2.917";"culpar";"8.763250e-02"
" 0";"  7";" 0.00";"  -2.917";"cuarto";"8.763250e-02"
" 0";"  7";" 0.00";"  -2.917";"criatura";"8.763250e-02"
" 0";"  7";" 0.00";"  -2.917";"creedme";"8.763250e-02"
" 0";"  7";" 0.00";"  -2.917";"creación";"8.763250e-02"
" 0";"  7";" 0.00";"  -2.917";"contrario";"8.763250e-02"
" 0";"  7";" 0.00";"  -2.917";"conceder";"8.763250e-02"
" 0";"  7";" 0.00";"  -2.917";"coma";"8.763250e-02"
" 0";"  7";" 0.00";"  -2.917";"colmar";"8.763250e-02"
" 0";"  7";" 0.00";"  -2.917";"claro";"8.763250e-02"
" 0";"  7";" 0.00";"  -2.917";"cargar";"8.763250e-02"
" 0";"  7";" 0.00";"  -2.917";"buey";"8.763250e-02"
" 0";"  7";" 0.00";"  -2.917";"blanco";"8.763250e-02"
" 0";"  7";" 0.00";"  -2.917";"amará";"8.763250e-02"
" 0";"  7";" 0.00";"  -2.917";"alforja";"8.763250e-02"
" 0";"  7";" 0.00";"  -2.917";"alegrar";"8.763250e-02"
" 0";"  7";" 0.00";"  -2.917";"aceite";"8.763250e-02"
"18";" 85";"21.18";"  -2.812";"pan";"9.356097e-02"
" 5";" 31";"16.13";"  -2.643";"entender";"1.040086e-01"
" 3";" 22";"13.64";"  -2.642";"entero";"1.040602e-01"
" 3";" 22";"13.64";"  -2.642";"derecha";"1.040602e-01"
" 1";" 12";" 8.33";"  -2.570";"secreto";"1.089363e-01"
" 1";" 12";" 8.33";"  -2.570";"propio";"1.089363e-01"
" 1";" 12";" 8.33";"  -2.570";"adonde";"1.089363e-01"
" 2";" 17";"11.76";"  -2.553";"dueño";"1.100826e-01"
" 2";" 17";"11.76";"  -2.553";"condenar";"1.100826e-01"
" 2";" 17";"11.76";"  -2.553";"causa";"1.100826e-01"
" 0";"  6";" 0.00";"  -2.500";"ahí";"1.138442e-01"
" 0";"  6";" 0.00";"  -2.500";"novio";"1.138442e-01"
" 0";"  6";" 0.00";"  -2.500";"jurar";"1.138442e-01"
" 0";"  6";" 0.00";"  -2.500";"odres";"1.138442e-01"
" 0";"  6";" 0.00";"  -2.500";"viga";"1.138442e-01"
" 0";"  6";" 0.00";"  -2.500";"mota";"1.138442e-01"
" 0";"  6";" 0.00";"  -2.500";"alimento";"1.138442e-01"
" 0";"  6";" 0.00";"  -2.500";"vid";"1.138442e-01"
" 0";"  6";" 0.00";"  -2.500";"vaso";"1.138442e-01"
" 0";"  6";" 0.00";"  -2.500";"unir";"1.138442e-01"
" 0";"  6";" 0.00";"  -2.500";"triste";"1.138442e-01"
" 0";"  6";" 0.00";"  -2.500";"trabajo";"1.138442e-01"
" 0";"  6";" 0.00";"  -2.500";"subsistir";"1.138442e-01"
" 0";"  6";" 0.00";"  -2.500";"sodoma";"1.138442e-01"
" 0";"  6";" 0.00";"  -2.500";"simeón";"1.138442e-01"
" 0";"  6";" 0.00";"  -2.500";"salar|salir";"1.138442e-01"
" 0";"  6";" 0.00";"  -2.500";"resultar";"1.138442e-01"
" 0";"  6";" 0.00";"  -2.500";"recompensa";"1.138442e-01"
" 0";"  6";" 0.00";"  -2.500";"proclamad";"1.138442e-01"
" 0";"  6";" 0.00";"  -2.500";"potestad";"1.138442e-01"
" 0";"  6";" 0.00";"  -2.500";"pidáis";"1.138442e-01"
" 0";"  6";" 0.00";"  -2.500";"oráculo";"1.138442e-01"
" 0";"  6";" 0.00";"  -2.500";"oración";"1.138442e-01"
" 0";"  6";" 0.00";"  -2.500";"onza";"1.138442e-01"
" 0";"  6";" 0.00";"  -2.500";"necio";"1.138442e-01"
" 0";"  6";" 0.00";"  -2.500";"médico";"1.138442e-01"
" 0";"  6";" 0.00";"  -2.500";"muéstranos";"1.138442e-01"
" 0";"  6";" 0.00";"  -2.500";"mostaza";"1.138442e-01"
" 0";"  6";" 0.00";"  -2.500";"maligno";"1.138442e-01"
" 0";"  6";" 0.00";"  -2.500";"largo";"1.138442e-01"
" 0";"  6";" 0.00";"  -2.500";"labio";"1.138442e-01"
" 0";"  6";" 0.00";"  -2.500";"hueso";"1.138442e-01"
" 0";"  6";" 0.00";"  -2.500";"habitar";"1.138442e-01"
" 0";"  6";" 0.00";"  -2.500";"guardará";"1.138442e-01"
" 0";"  6";" 0.00";"  -2.500";"fácil";"1.138442e-01"
" 0";"  6";" 0.00";"  -2.500";"exigir";"1.138442e-01"
" 0";"  6";" 0.00";"  -2.500";"deuda|deudo";"1.138442e-01"
" 0";"  6";" 0.00";"  -2.500";"derramar";"1.138442e-01"
" 0";"  6";" 0.00";"  -2.500";"derecho";"1.138442e-01"
" 0";"  6";" 0.00";"  -2.500";"cáliz";"1.138442e-01"
" 0";"  6";" 0.00";"  -2.500";"cristo";"1.138442e-01"
" 0";"  6";" 0.00";"  -2.500";"consuelo";"1.138442e-01"
" 0";"  6";" 0.00";"  -2.500";"consagrar";"1.138442e-01"
" 0";"  6";" 0.00";"  -2.500";"comparecer";"1.138442e-01"
" 0";"  6";" 0.00";"  -2.500";"civil";"1.138442e-01"
" 0";"  6";" 0.00";"  -2.500";"bandido";"1.138442e-01"
" 0";"  6";" 0.00";"  -2.500";"bandeja";"1.138442e-01"
" 0";"  6";" 0.00";"  -2.500";"apagar";"1.138442e-01"
" 0";"  6";" 0.00";"  -2.500";"alegre";"1.138442e-01"
" 0";"  6";" 0.00";"  -2.500";"abandonar";"1.138442e-01"
" 4";" 26";"15.38";"  -2.470";"id";"1.160420e-01"
" 5";" 30";"16.67";"  -2.354";"cabeza";"1.249670e-01"
" 3";" 21";"14.29";"  -2.318";"escritura";"1.278937e-01"
" 3";" 21";"14.29";"  -2.318";"casar";"1.278937e-01"
" 1";" 11";" 9.09";"  -2.188";"zacarías";"1.390450e-01"
" 1";" 11";" 9.09";"  -2.188";"vender";"1.390450e-01"
" 1";" 11";" 9.09";"  -2.188";"entréis";"1.390450e-01"
" 9";" 46";"19.57";"  -2.159";"pensar";"1.417170e-01"
"11";" 54";"20.37";"  -2.140";"entregar";"1.435143e-01"
" 0";"  5";" 0.00";"  -2.083";"siega";"1.489566e-01"
" 0";"  5";" 0.00";"  -2.083";"vestir";"1.489566e-01"
" 0";"  5";" 0.00";"  -2.083";"tribunal";"1.489566e-01"
" 0";"  5";" 0.00";"  -2.083";"tardar";"1.489566e-01"
" 0";"  5";" 0.00";"  -2.083";"surgir";"1.489566e-01"
" 0";"  5";" 0.00";"  -2.083";"sufrir";"1.489566e-01"
" 0";"  5";" 0.00";"  -2.083";"sordo";"1.489566e-01"
" 0";"  5";" 0.00";"  -2.083";"someter";"1.489566e-01"
" 0";"  5";" 0.00";"  -2.083";"sencillo";"1.489566e-01"
" 0";"  5";" 0.00";"  -2.083";"semejante";"1.489566e-01"
" 0";"  5";" 0.00";"  -2.083";"secó";"1.489566e-01"
" 0";"  5";" 0.00";"  -2.083";"salvador";"1.489566e-01"
" 0";"  5";" 0.00";"  -2.083";"salvación";"1.489566e-01"
" 0";"  5";" 0.00";"  -2.083";"saciados";"1.489566e-01"
" 0";"  5";" 0.00";"  -2.083";"rostro";"1.489566e-01"
" 0";"  5";" 0.00";"  -2.083";"rogad";"1.489566e-01"
" 0";"  5";" 0.00";"  -2.083";"riqueza";"1.489566e-01"
" 0";"  5";" 0.00";"  -2.083";"resucite";"1.489566e-01"
" 0";"  5";" 0.00";"  -2.083";"resucitaré";"1.489566e-01"
" 0";"  5";" 0.00";"  -2.083";"resto";"1.489566e-01"
" 0";"  5";" 0.00";"  -2.083";"repudio";"1.489566e-01"
" 0";"  5";" 0.00";"  -2.083";"recibo";"1.489566e-01"
" 0";"  5";" 0.00";"  -2.083";"realizar";"1.489566e-01"
" 0";"  5";" 0.00";"  -2.083";"punto";"1.489566e-01"
" 0";"  5";" 0.00";"  -2.083";"príncipe";"1.489566e-01"
" 0";"  5";" 0.00";"  -2.083";"práctica";"1.489566e-01"
" 0";"  5";" 0.00";"  -2.083";"propósito";"1.489566e-01"
" 0";"  5";" 0.00";"  -2.083";"probar";"1.489566e-01"
" 0";"  5";" 0.00";"  -2.083";"predilecto";"1.489566e-01"
" 0";"  5";" 0.00";"  -2.083";"precepto";"1.489566e-01"
" 0";"  5";" 0.00";"  -2.083";"pondrás";"1.489566e-01"
" 0";"  5";" 0.00";"  -2.083";"polvo";"1.489566e-01"
" 0";"  5";" 0.00";"  -2.083";"poderoso";"1.489566e-01"
" 0";"  5";" 0.00";"  -2.083";"pleno";"1.489566e-01"
" 0";"  5";" 0.00";"  -2.083";"plenitud";"1.489566e-01"
" 0";"  5";" 0.00";"  -2.083";"pleito";"1.489566e-01"
" 0";"  5";" 0.00";"  -2.083";"plantar";"1.489566e-01"
" 0";"  5";" 0.00";"  -2.083";"piara";"1.489566e-01"
" 0";"  5";" 0.00";"  -2.083";"perezca";"1.489566e-01"
" 0";"  5";" 0.00";"  -2.083";"perdón";"1.489566e-01"
" 0";"  5";" 0.00";"  -2.083";"par";"1.489566e-01"
" 0";"  5";" 0.00";"  -2.083";"paganos";"1.489566e-01"
" 0";"  5";" 0.00";"  -2.083";"ofender";"1.489566e-01"
" 0";"  5";" 0.00";"  -2.083";"ocupar";"1.489566e-01"
" 0";"  5";" 0.00";"  -2.083";"necesidad";"1.489566e-01"
" 0";"  5";" 0.00";"  -2.083";"muchacho";"1.489566e-01"
" 0";"  5";" 0.00";"  -2.083";"matarás";"1.489566e-01"
" 0";"  5";" 0.00";"  -2.083";"malvados";"1.489566e-01"
" 0";"  5";" 0.00";"  -2.083";"interior";"1.489566e-01"
" 0";"  5";" 0.00";"  -2.083";"insultar";"1.489566e-01"
" 0";"  5";" 0.00";"  -2.083";"importar";"1.489566e-01"
" 0";"  5";" 0.00";"  -2.083";"impedir";"1.489566e-01"
" 0";"  5";" 0.00";"  -2.083";"humilde";"1.489566e-01"
" 0";"  5";" 0.00";"  -2.083";"hortaliza";"1.489566e-01"
" 0";"  5";" 0.00";"  -2.083";"horno";"1.489566e-01"
" 0";"  5";" 0.00";"  -2.083";"higo";"1.489566e-01"
" 0";"  5";" 0.00";"  -2.083";"habitante";"1.489566e-01"
" 0";"  5";" 0.00";"  -2.083";"forastero";"1.489566e-01"
" 0";"  5";" 0.00";"  -2.083";"existir";"1.489566e-01"
" 0";"  5";" 0.00";"  -2.083";"estéril";"1.489566e-01"
" 0";"  5";" 0.00";"  -2.083";"espada";"1.489566e-01"
" 0";"  5";" 0.00";"  -2.083";"escandalizar";"1.489566e-01"
" 0";"  5";" 0.00";"  -2.083";"envío";"1.489566e-01"
" 0";"  5";" 0.00";"  -2.083";"encender";"1.489566e-01"
" 0";"  5";" 0.00";"  -2.083";"edificó";"1.489566e-01"
" 0";"  5";" 0.00";"  -2.083";"destruir";"1.489566e-01"
" 0";"  5";" 0.00";"  -2.083";"despreciar";"1.489566e-01"
" 0";"  5";" 0.00";"  -2.083";"descendencia";"1.489566e-01"
" 0";"  5";" 0.00";"  -2.083";"descansar";"1.489566e-01"
" 0";"  5";" 0.00";"  -2.083";"denario";"1.489566e-01"
" 0";"  5";" 0.00";"  -2.083";"daño";"1.489566e-01"
" 0";"  5";" 0.00";"  -2.083";"cuidar";"1.489566e-01"
" 0";"  5";" 0.00";"  -2.083";"correa";"1.489566e-01"
" 0";"  5";" 0.00";"  -2.083";"convidó";"1.489566e-01"
" 0";"  5";" 0.00";"  -2.083";"condena";"1.489566e-01"
" 0";"  5";" 0.00";"  -2.083";"cometerás";"1.489566e-01"
" 0";"  5";" 0.00";"  -2.083";"carga";"1.489566e-01"
" 0";"  5";" 0.00";"  -2.083";"camello";"1.489566e-01"
" 0";"  5";" 0.00";"  -2.083";"angustia";"1.489566e-01"
" 0";"  5";" 0.00";"  -2.083";"améis";"1.489566e-01"
" 0";"  5";" 0.00";"  -2.083";"amáis";"1.489566e-01"
" 0";"  5";" 0.00";"  -2.083";"agarrándolo";"1.489566e-01"
" 0";"  5";" 0.00";"  -2.083";"acta";"1.489566e-01"
"*****";"*";"*";"*";"*";"*"
"108";" 968";"11.16";"-196.297";"no";"1.342762e-44"
"359";"1908";"18.82";"-175.498";"que";"4.659787e-40"
" 40";" 553";" 7.23";"-148.637";"yo";"3.442675e-34"
"  7";" 281";" 2.49";"-104.318";"mío";"1.723502e-24"
" 12";" 286";" 4.20";" -93.248";"si";"4.612692e-22"
" 41";" 414";" 9.90";" -83.210";"tú";"7.379434e-20"
" 34";" 365";" 9.32";" -76.958";"porque";"1.746075e-18"
" 17";" 230";" 7.39";" -56.438";"vosotros";"5.800309e-14"
"139";" 761";"18.27";" -54.332";"haber";"1.693576e-13"
"195";" 969";"20.12";" -50.738";"ser";"1.055691e-12"
" 56";" 356";"15.73";" -34.670";"tener";"3.905183e-09"
" 15";" 160";" 9.38";" -31.986";"poder";"1.552870e-08"
" 22";" 187";"11.76";" -29.165";"qué";"6.646966e-08"
"  9";" 113";" 7.96";" -25.616";"sino";"4.166185e-07"
" 10";" 113";" 8.85";" -23.543";"ese";"1.221576e-06"
" 10";" 112";" 8.93";" -23.150";"o";"1.498274e-06"
" 78";" 408";"19.12";" -22.744";"para";"1.850375e-06"
"  7";"  94";" 7.45";" -22.257";"pues";"2.384731e-06"
"  5";"  82";" 6.10";" -21.819";"nosotros";"2.995611e-06"
"  9";" 102";" 8.82";" -21.253";"ni";"4.024898e-06"
" 28";" 192";"14.58";" -21.155";"como";"4.236514e-06"
" 20";" 145";"13.79";" -17.541";"también";"2.812263e-05"
"103";" 485";"21.24";" -17.345";"por";"3.116951e-05"
" 46";" 256";"17.97";" -17.026";"pero";"3.686504e-05"
"  9";"  89";"10.11";" -16.245";"sin";"5.564511e-05"
" 84";" 400";"21.00";" -14.843";"este";"1.168126e-04"
"  9";"  80";"11.25";" -12.904";"bien";"3.279195e-04"
"110";" 490";"22.45";" -12.714";"del";"3.628889e-04"
"921";"3299";"27.92";" -12.097";"el";"5.050257e-04"
"114";" 479";"23.80";"  -8.038";"estar";"4.580229e-03"
"  1";"  25";" 4.00";"  -7.806";"aunque";"5.206930e-03"
" 18";" 105";"17.14";"  -7.761";"hasta";"5.339455e-03"
"  3";"  36";" 8.33";"  -7.749";"nuestro";"5.373386e-03"
"  1";"  23";" 4.35";"  -6.983";"deber";"8.228163e-03"
"473";"1744";"27.12";"  -6.934";"de";"8.458086e-03"
" 15";"  89";"16.85";"  -6.868";"quien";"8.775959e-03"
"  3";"  32";" 9.38";"  -6.218";"contra";"1.264590e-02"
" 86";" 350";"24.57";"  -4.230";"todo";"3.971849e-02"
"  0";"   9";" 0.00";"  -3.752";"cuál";"5.272882e-02"
"  4";"  29";"13.79";"  -3.419";"cada";"6.444506e-02"
" 10";"  55";"18.18";"  -3.367";"dicho";"6.651580e-02"
"  0";"   8";" 0.00";"  -3.335";"noventa";"6.782771e-02"
"  0";"   7";" 0.00";"  -2.917";"cual";"8.763250e-02"
"  0";"   6";" 0.00";"  -2.500";"treinta";"1.138442e-01"
"  8";"  43";"18.60";"  -2.431";"antes";"1.189577e-01"
"  2";"  16";"12.50";"  -2.206";"cuánto";"1.374732e-01"
"*";"*";"*";"*";"*";"*"
"101";" 502";"20.12";"-23.312";"*egutegia_SemanaDePas";"1.377211e-06"
"  0";"  20";" 0.00";" -8.359";"*zein_Lucas10-1-1217-20";"3.838037e-03"
"  0";"  19";" 0.00";" -7.939";"*zein_Juan1-1-18";"4.837473e-03"
"  2";"  26";" 7.69";" -5.930";"*zein_Mateo5-17-37";"1.488739e-02"
"  1";"  20";" 5.00";" -5.756";"*zein_Mateo25-14-30";"1.642974e-02"
"  4";"  35";"11.43";" -5.480";"*zein_Lucas15-1-311-32";"1.923279e-02"
"367";"1361";"26.97";" -5.452";"*ebanjelaria_Lucas";"1.954302e-02"
"  1";"  19";" 5.26";" -5.350";"*zein_Lucas12-32-48";"2.072330e-02"
"  1";"  19";" 5.26";" -5.350";"*zein_Juan14-1-12";"2.072330e-02"
"  0";"  12";" 0.00";" -5.007";"*zein_Lucas10-1-12";"2.525094e-02"
"  0";"  12";" 0.00";" -5.007";"*zein_Juan10-11-18";"2.525094e-02"
"  1";"  18";" 5.56";" -4.945";"*zein_Mateo25-31-46";"2.616427e-02"
"  1";"  18";" 5.56";" -4.945";"*zein_Lucas1-67-79";"2.616427e-02"
"  1";"  18";" 5.56";" -4.945";"*zein_Lucas11-15-26";"2.616427e-02"
"  1";"  18";" 5.56";" -4.945";"*zein_Mateo6-24-34";"2.616427e-02"
"  1";"  18";" 5.56";" -4.945";"*zein_Juan5-31-47";"2.616427e-02"
"  1";"  17";" 5.88";" -4.542";"*zein_Mateo20-1-16";"3.306930e-02"
"  0";"  10";" 0.00";" -4.170";"*zein_Lucas10-1-9";"4.113744e-02"
"  1";"  16";" 6.25";" -4.141";"*zein_Juan8-31-42";"4.184663e-02"
"  7";"  44";"15.91";" -3.888";"*zein_Juan4-5-42";"4.863530e-02"
"  0";"   9";" 0.00";" -3.752";"*zein_Juan12-44-50";"5.272882e-02"
"  1";"  15";" 6.67";" -3.743";"*zein_Lucas21-5-19";"5.302439e-02"
"  2";"  20";"10.00";" -3.638";"*zein_Lucas1-39-56";"5.648464e-02"
"  4";"  29";"13.79";" -3.419";"*zein_Mateo13-24-43";"6.444506e-02"
"  1";"  14";" 7.14";" -3.348";"*zein_Mateo1-1-1618-23";"6.728857e-02"
"  1";"  14";" 7.14";" -3.348";"*zein_Lucas6-27-38";"6.728857e-02"
"  1";"  14";" 7.14";" -3.348";"*zein_Juan6-51-58";"6.728857e-02"
"  1";"  14";" 7.14";" -3.348";"*zein_Juan17-1-11a";"6.728857e-02"
"  1";"  14";" 7.14";" -3.348";"*zein_Juan14-6-14";"6.728857e-02"
"180";" 677";"26.59";" -2.993";"*egutegia_SemanaDeCua";"8.363328e-02"
"  1";"  12";" 8.33";" -2.570";"*zein_Mateo5-38-48";"1.089363e-01"
"  1";"  12";" 8.33";" -2.570";"*zein_Juan10-1-10";"1.089363e-01"
"  1";"  12";" 8.33";" -2.570";"*zein_Lucas12-39-48";"1.089363e-01"
"  1";"  12";" 8.33";" -2.570";"*zein_Mateo10-3442";"1.089363e-01"
"  1";"  12";" 8.33";" -2.570";"*zein_Lucas20-27-40";"1.089363e-01"
"  1";"  12";" 8.33";" -2.570";"*zein_Juan14-7-14";"1.089363e-01"
"  1";"  12";" 8.33";" -2.570";"*zein_Juan15-9-17";"1.089363e-01"
"  2";"  17";"11.76";" -2.553";"*zein_Lucas16-1-13";"1.100826e-01"
"  2";"  17";"11.76";" -2.553";"*zein_Juan5-17-30";"1.100826e-01"
"  0";"   6";" 0.00";" -2.500";"*zein_Mateo1-1-17";"1.138442e-01"
"  0";"   6";" 0.00";" -2.500";"*zein_Mateo11-25-30";"1.138442e-01"
"  0";"   6";" 0.00";" -2.500";"*zein_Lucas1-46-56";"1.138442e-01"
" 66";" 261";"25.29";" -2.239";"*egutegia_SemanaDeAdv";"1.345780e-01"
"  2";"  16";"12.50";" -2.206";"*zein_Lucas2-22-35";"1.374732e-01"
"  2";"  16";"12.50";" -2.206";"*zein_Lucas10-25-37";"1.374732e-01"
"  1";"  11";" 9.09";" -2.188";"*zein_Juan6-44-51";"1.390450e-01"
"  1";"  11";" 9.09";" -2.188";"*zein_Lucas12-13-21";"1.390450e-01"
"  1";"  11";" 9.09";" -2.188";"*zein_Juan14-23-29";"1.390450e-01"
"  1";"  11";" 9.09";" -2.188";"*zein_Lucas20-27-38";"1.390450e-01"
"  1";"  11";" 9.09";" -2.188";"*zein_Lucas6-20-26";"1.390450e-01"
"  1";"  11";" 9.09";" -2.188";"*zein_Juan15-1-8";"1.390450e-01"
"  6";"  33";"18.18";" -2.010";"*zein_Mateo13-1-23";"1.562184e-01"
"**";"classe";"3";"**";"";""
"****";"148";"4601";"3.22";"****";""
"0";"645";"0.00";"-24.932";"jesús";"5.937505e-07"
"4";"818";"0.49";"-23.777";"decir";"1.081869e-06"
"0";"311";"0.00";"-11.086";"discípulo";"8.699451e-04"
"1";"304";"0.33";" -8.719";"padre";"3.149058e-03"
"2";"282";"0.71";" -6.067";"dios";"1.377237e-02"
"0";"150";"0.00";" -5.153";"casa";"2.320073e-02"
"0";"140";"0.00";" -4.799";"día";"2.847511e-02"
"5";"379";"1.32";" -4.776";"os";"2.885340e-02"
"4";"326";"1.23";" -4.462";"hijo";"3.466344e-02"
"0";"129";"0.00";" -4.411";"mucho";"3.570533e-02"
"4";"322";"1.24";" -4.336";"ver";"3.732291e-02"
"6";"398";"1.51";" -4.088";"tiempo";"4.318447e-02"
"0";"118";"0.00";" -4.025";"llamar";"4.482849e-02"
"0";"115";"0.00";" -3.920";"juan";"4.771136e-02"
"0";"111";"0.00";" -3.780";"acercar";"5.185623e-02"
"0";"102";"0.00";" -3.467";"entrar";"6.260730e-02"
"0";"101";"0.00";" -3.432";"hermano";"6.393763e-02"
"0";"100";"0.00";" -3.397";"mundo";"6.529755e-02"
"0";"100";"0.00";" -3.397";"preguntar";"6.529755e-02"
"0";" 99";"0.00";" -3.363";"volver";"6.668776e-02"
"0";" 96";"0.00";" -3.259";"nadie";"7.104760e-02"
"0";" 96";"0.00";" -3.259";"mujer";"7.104760e-02"
"0";" 94";"0.00";" -3.189";"oír";"7.411969e-02"
"0";" 93";"0.00";" -3.155";"espíritu";"7.570786e-02"
"0";" 91";"0.00";" -3.086";"profeta";"7.899279e-02"
"0";" 89";"0.00";" -3.016";"pueblo";"8.242864e-02"
"0";" 88";"0.00";" -2.982";"ya";"8.420555e-02"
"0";" 88";"0.00";" -2.982";"mandar";"8.420555e-02"
"0";" 76";"0.00";" -2.568";"madre";"1.090206e-01"
"0";" 75";"0.00";" -2.534";"nombre";"1.114169e-01"
"0";" 72";"0.00";" -2.431";"jerusalén";"1.189542e-01"
"0";" 71";"0.00";" -2.397";"fariseos";"1.215882e-01"
"0";" 68";"0.00";" -2.294";"crear|creer";"1.298788e-01"
"0";" 67";"0.00";" -2.260";"ojo";"1.327781e-01"
"0";" 67";"0.00";" -2.260";"pedro";"1.327781e-01"
"2";"163";"1.23";" -2.149";"gente";"1.426717e-01"
"0";" 63";"0.00";" -2.123";"ahora";"1.451079e-01"
"1";"113";"0.88";" -2.023";"hablar";"1.549181e-01"
"*****";"*";"*";"*";"*";"*"
"28";"1842";"1.52";"-28.402";"a";"9.858721e-08"
"10";"1148";"0.87";"-27.033";"él";"1.999751e-07"
" 0";" 447";"0.00";"-16.455";"aquel";"4.981424e-05"
" 9";" 761";"1.18";"-12.118";"haber";"4.995034e-04"
" 6";" 553";"1.08";" -9.174";"yo";"2.454186e-03"
" 5";" 479";"1.04";" -8.108";"estar";"4.406313e-03"
" 4";" 414";"0.97";" -7.401";"tú";"6.518111e-03"
" 2";" 230";"0.87";" -4.284";"vosotros";"3.846981e-02"
" 0";" 113";"0.00";" -3.850";"sino";"4.973912e-02"
" 0";" 112";"0.00";" -3.815";"entonces";"5.078625e-02"
" 8";" 463";"1.73";" -3.665";"con";"5.555280e-02"
" 7";" 400";"1.75";" -3.027";"este";"8.188401e-02"
" 0";"  89";"0.00";" -3.016";"quien";"8.242864e-02"
" 0";"  84";"0.00";" -2.844";"quién";"9.173027e-02"
" 7";" 365";"1.92";" -2.148";"porque";"1.427164e-01"
"*";"*";"*";"*";"*";"*"
"9";"1149";"0.78";"-29.129";"*ebanjelaria_Juan";"6.773041e-08"
"4";" 677";"0.59";"-17.581";"*egutegia_SemanaDeCua";"2.753358e-05"
"3";" 502";"0.60";"-12.416";"*egutegia_SemanaDePas";"4.257705e-04"
"0";"  94";"0.00";" -3.189";"*egutegia_NavidadYOct";"7.411969e-02"
"0";"  62";"0.00";" -2.089";"*egutegia_TiempoDeNav";"1.483845e-01"
"**";"classe";"4";"**";"";""
"****";"35";"4601";"0.76";"****";""
"0";"645";"0";"-5.750";"jesús";"0.01648618"
"0";"398";"0";"-3.340";"tiempo";"0.06762675"
"0";"379";"0";"-3.166";"os";"0.07518824"
"0";"322";"0";"-2.654";"ver";"0.10329087"
"0";"311";"0";"-2.557";"discípulo";"0.10982447"
"0";"282";"0";"-2.303";"dios";"0.12914363"
"0";"281";"0";"-2.294";"hacer";"0.12986885"
"0";"267";"0";"-2.173";"hombre";"0.14047622"
"*****";"*";"*";"*";"*";"*"
" 3";"1148";"0.26";"-5.053";"él";"0.02458147"
" 1";" 761";"0.13";"-4.783";"haber";"0.02873857"
" 0";" 447";"0.00";"-3.795";"aquel";"0.05140222"
" 9";"1908";"0.47";"-3.607";"que";"0.05754758"
" 0";" 414";"0.00";"-3.487";"tú";"0.06184364"
" 4";"1085";"0.37";"-2.891";"se";"0.08909490"
"21";"3299";"0.64";"-2.380";"el";"0.12288711"
"13";"2305";"0.56";"-2.368";"y";"0.12387347"
"*";"*";"*";"*";"*";"*"
"1";"1149";"0.09";"-9.207";"*ebanjelaria_Juan";"0.00241145"
"3";"1286";"0.23";"-6.577";"*ebanjelaria_Mateo";"0.01033049"
"0";" 502";"0.00";"-4.319";"*egutegia_SemanaDePas";"0.03768313"
"0";" 261";"0.00";"-2.121";"*egutegia_SemanaDeAdv";"0.14529421"
"**";"classe";"5";"**";"";""
"****";"14";"4601";"0.3";"****";""
"*****";"*";"*";"*";"*";"*"
"0";"1402";"0.0";"-6.154";"en";"0.01310860"
"0";"1148";"0.0";"-4.669";"él";"0.03071700"
"0";"1085";"0.0";"-4.333";"se";"0.03737073"
"2";"1908";"0.1";"-4.275";"que";"0.03867318"
"0";" 761";"0.0";"-2.783";"haber";"0.09527270"
"0";" 665";"0.0";"-2.373";"un";"0.12348402"
"*";"*";"*";"*";"*";"*"
"0";"1361";"0.00";"-5.899";"*ebanjelaria_Lucas";"0.01515109"
"1";"1149";"0.09";"-2.383";"*ebanjelaria_Juan";"0.12268651"
"**";"classe";"6";"**";"";""
"****";"26";"4601";"0.57";"****";""
"0";"645";"0";"-4.263";"jesús";"0.03894599"
"0";"398";"0";"-2.476";"tiempo";"0.11559275"
"*****";"*";"*";"*";"*";"*"
"0";" 490";"0.00";"-3.117";"del";"0.07749764"
"0";" 447";"0.00";"-2.814";"aquel";"0.09346345"
"4";"1402";"0.29";"-2.809";"en";"0.09372471"
"0";" 408";"0.00";"-2.544";"para";"0.11069236"
"0";" 365";"0.00";"-2.253";"porque";"0.13335109"
"0";" 356";"0.00";"-2.193";"tener";"0.13865353"
"*";"*";"*";"*";"*";"*"
"1";"1361";"0.07";"-8.313";"*ebanjelaria_Lucas";"0.003936017"
"2";"1149";"0.17";"-4.167";"*ebanjelaria_Juan";"0.041209744"
"0";" 502";"0.00";"-3.202";"*egutegia_SemanaDePas";"0.073535363"
"**";"classe";"7";"**";"";""
"****";"3015";"4601";"65.53";"****";""
" 52";"645";" 8.06";"-1096.756";"jesús";"1.674861e-240"
" 35";"398";" 8.79";" -620.863";"tiempo";"4.852675e-137"
" 29";"311";" 9.32";" -466.456";"discípulo";"1.891841e-103"
"351";"818";"42.91";" -225.350";"decir";" 6.159808e-51"
"  4";"100";" 4.00";" -171.325";"preguntar";" 3.800383e-39"
" 13";"111";"11.71";" -145.845";"acercar";" 1.403861e-33"
"  0";" 67";" 0.00";" -129.250";"pedro";" 5.980051e-30"
"  3";" 48";" 6.25";"  -75.460";"galilea";" 3.729461e-18"
" 56";"163";"34.36";"  -72.700";"gente";" 1.509268e-17"
" 14";" 71";"19.72";"  -66.998";"fariseos";" 2.717276e-16"
"  7";" 52";"13.46";"  -63.123";"simón";" 1.941550e-15"
" 11";" 59";"18.64";"  -58.162";"judío";" 2.413537e-14"
"  1";" 31";" 3.23";"  -53.633";"sinagoga";" 2.416132e-13"
"  0";" 27";" 0.00";"  -51.630";"sumos";" 6.700230e-13"
" 11";" 55";"20.00";"  -51.083";"tomar";" 8.852201e-13"
" 19";" 72";"26.39";"  -49.607";"jerusalén";" 1.878129e-12"
"  5";" 39";"12.82";"  -48.377";"sembrar";" 3.516381e-12"
"  1";" 27";" 3.70";"  -45.959";"aparecer";" 1.207610e-11"
"  7";" 42";"16.67";"  -44.802";"sacerdote";" 2.179880e-11"
" 11";" 51";"21.57";"  -44.122";"subir";" 3.085799e-11"
"  3";" 31";" 9.68";"  -43.101";"lago";" 5.198857e-11"
"  2";" 28";" 7.14";"  -42.515";"orilla";" 7.012861e-11"
"  9";" 45";"20.00";"  -41.704";"barca";" 1.062022e-10"
"  8";" 42";"19.05";"  -40.542";"ciudad";" 1.924061e-10"
" 44";"115";"38.26";"  -38.826";"juan";" 4.633099e-10"
"  6";" 36";"16.67";"  -38.351";"doce";" 5.908772e-10"
"  1";" 22";" 4.55";"  -36.395";"judea";" 1.610802e-09"
"  3";" 27";"11.11";"  -35.606";"monte";" 2.415657e-09"
"  6";" 34";"17.65";"  -34.767";"junto";" 3.717019e-09"
"  1";" 21";" 4.76";"  -34.487";"acudir";" 4.290223e-09"
" 12";" 47";"25.53";"  -33.630";"letrado";" 6.664105e-09"
" 14";" 51";"27.45";"  -33.104";"enseñar";" 8.736388e-09"
"  2";" 21";" 9.52";"  -29.294";"santiago";" 6.218469e-08"
"  7";" 33";"21.21";"  -28.900";"herodes";" 7.621528e-08"
"  1";" 18";" 5.56";"  -28.775";"correr";" 8.130799e-08"
"  0";" 15";" 0.00";"  -28.608";"cizaña";" 8.859700e-08"
"  3";" 23";"13.04";"  -28.190";"parábola";" 1.099489e-07"
"  0";" 14";" 0.00";"  -26.695";"divorciar";" 2.381937e-07"
"  0";" 14";" 0.00";"  -26.695";"adulterio";" 2.381937e-07"
"  0";" 14";" 0.00";"  -26.695";"semilla";" 2.381937e-07"
"  3";" 22";"13.64";"  -26.353";"felipe";" 2.843452e-07"
"  5";" 26";"19.23";"  -24.813";"aldea";" 6.316563e-07"
"  0";" 13";" 0.00";"  -24.783";"ángel";" 6.415623e-07"
"  0";" 13";" 0.00";"  -24.783";"multitud";" 6.415623e-07"
"  2";" 18";"11.11";"  -23.691";"nazaret";" 1.131341e-06"
"  1";" 15";" 6.67";"  -23.084";"partir";" 1.551156e-06"
"  0";" 12";" 0.00";"  -22.872";"pronunciar";" 1.731777e-06"
"  0";" 12";" 0.00";"  -22.872";"aparte";" 1.731777e-06"
"  0";" 12";" 0.00";"  -22.872";"andrés";" 1.731777e-06"
"  2";" 17";"11.76";"  -21.835";"orar";" 2.970605e-06"
"  1";" 14";" 7.14";"  -21.193";"apóstol";" 4.153198e-06"
"  0";" 11";" 0.00";"  -20.961";"zarzas";" 4.686771e-06"
"  0";" 11";" 0.00";"  -20.961";"trigo";" 4.686771e-06"
"  0";" 11";" 0.00";"  -20.961";"tomás";" 4.686771e-06"
"  0";" 11";" 0.00";"  -20.961";"retirar";" 4.686771e-06"
"  0";" 11";" 0.00";"  -20.961";"raíz";" 4.686771e-06"
"  3";" 19";"15.79";"  -20.896";"montaña";" 4.847976e-06"
" 88";"177";"49.72";"  -20.374";"poner";" 6.367958e-06"
"  1";" 13";" 7.69";"  -19.306";"gentío";" 1.113449e-05"
"  3";" 18";"16.67";"  -19.100";"despedir";" 1.240220e-05"
"  0";" 10";" 0.00";"  -19.051";"tiro";" 1.272380e-05"
"  0";" 10";" 0.00";"  -19.051";"región";" 1.272380e-05"
"  0";" 10";" 0.00";"  -19.051";"guerra";" 1.272380e-05"
"  0";" 10";" 0.00";"  -19.051";"extender";" 1.272380e-05"
"  0";" 10";" 0.00";"  -19.051";"betania";" 1.272380e-05"
"  0";" 10";" 0.00";"  -19.051";"atravesar";" 1.272380e-05"
"  8";" 29";"27.59";"  -18.600";"miedo";" 1.611881e-05"
" 11";" 35";"31.43";"  -18.156";"coger";" 2.035103e-05"
" 14";" 41";"34.15";"  -18.037";"marchar";" 2.166208e-05"
"  1";" 12";" 8.33";"  -17.424";"terminar";" 2.989550e-05"
"  1";" 12";" 8.33";"  -17.424";"enfermedad";" 2.989550e-05"
"  1";" 12";" 8.33";"  -17.424";"comarca";" 2.989550e-05"
"  0";"  9";" 0.00";"  -17.143";"engendró";" 3.467555e-05"
"  0";"  9";" 0.00";"  -17.143";"mies";" 3.467555e-05"
"  0";"  9";" 0.00";"  -17.143";"zebedeo";" 3.467555e-05"
"  0";"  9";" 0.00";"  -17.143";"terreno";" 3.467555e-05"
"  0";"  9";" 0.00";"  -17.143";"borrico";" 3.467555e-05"
"  0";"  9";" 0.00";"  -17.143";"ahogar";" 3.467555e-05"
"  4";" 19";"21.05";"  -16.708";"crecer";" 4.359373e-05"
"  2";" 14";"14.29";"  -16.325";"cubrir";" 5.336577e-05"
"  5";" 21";"23.81";"  -16.256";"enterar";" 5.534626e-05"
"  1";" 11";" 9.09";"  -15.549";"jordán";" 8.040642e-05"
"  1";" 11";" 9.09";"  -15.549";"grupo";" 8.040642e-05"
"  1";" 11";" 9.09";"  -15.549";"explicar";" 8.040642e-05"
"  0";"  8";" 0.00";"  -15.235";"arrancar";" 9.494983e-05"
"  0";"  8";" 0.00";"  -15.235";"túnica";" 9.494983e-05"
"  0";"  8";" 0.00";"  -15.235";"pedregoso";" 9.494983e-05"
"  0";"  8";" 0.00";"  -15.235";"nicodemo";" 9.494983e-05"
"  0";"  8";" 0.00";"  -15.235";"montar";" 9.494983e-05"
"  0";"  8";" 0.00";"  -15.235";"lícito";" 9.494983e-05"
"  0";"  8";" 0.00";"  -15.235";"iscariote";" 9.494983e-05"
"  0";"  8";" 0.00";"  -15.235";"invitar";" 9.494983e-05"
"  0";"  8";" 0.00";"  -15.235";"dirigir";" 9.494983e-05"
"  0";"  8";" 0.00";"  -15.235";"asustar";" 9.494983e-05"
"  0";"  8";" 0.00";"  -15.235";"acción";" 9.494983e-05"
"  4";" 18";"22.22";"  -15.004";"parábolas";" 1.072871e-04"
" 71";"141";"50.35";"  -14.828";"llegar";" 1.177660e-04"
"  2";" 13";"15.38";"  -14.512";"sandalia";" 1.392510e-04"
"  2";" 13";"15.38";"  -14.512";"grano";" 1.392510e-04"
"  2";" 13";"15.38";"  -14.512";"comparación";" 1.392510e-04"
" 17";" 44";"38.64";"  -14.224";"maría";" 1.623090e-04"
"  7";" 24";"29.17";"  -14.122";"cama";" 1.713005e-04"
"  1";" 10";"10.00";"  -13.681";"recorrer";" 2.166919e-04"
"  0";"  7";" 0.00";"  -13.327";"senador";" 2.615646e-04"
"  0";"  7";" 0.00";"  -13.327";"proponer";" 2.615646e-04"
"  0";"  7";" 0.00";"  -13.327";"oprimir";" 2.615646e-04"
"  0";"  7";" 0.00";"  -13.327";"natanael";" 2.615646e-04"
"  0";"  7";" 0.00";"  -13.327";"mirada";" 2.615646e-04"
"  0";"  7";" 0.00";"  -13.327";"llamada";" 2.615646e-04"
"  0";"  7";" 0.00";"  -13.327";"increpó";" 2.615646e-04"
"  0";"  7";" 0.00";"  -13.327";"alforja";" 2.615646e-04"
"  2";" 12";"16.67";"  -12.717";"borde";" 3.623621e-04"
"  3";" 14";"21.43";"  -12.091";"judas";" 5.067073e-04"
"  3";" 14";"21.43";"  -12.091";"sinagogas";" 5.067073e-04"
"  3";" 14";"21.43";"  -12.091";"sentado";" 5.067073e-04"
"  4";" 16";"25.00";"  -11.676";"significar";" 6.332109e-04"
"  0";"  6";" 0.00";"  -11.421";"subsistir";" 7.262069e-04"
"  0";"  6";" 0.00";"  -11.421";"semana";" 7.262069e-04"
"  0";"  6";" 0.00";"  -11.421";"referir";" 7.262069e-04"
"  0";"  6";" 0.00";"  -11.421";"pasear";" 7.262069e-04"
"  0";"  6";" 0.00";"  -11.421";"olivo";" 7.262069e-04"
"  0";"  6";" 0.00";"  -11.421";"maligno";" 7.262069e-04"
"  0";"  6";" 0.00";"  -11.421";"magdalena";" 7.262069e-04"
"  0";"  6";" 0.00";"  -11.421";"judá";" 7.262069e-04"
"  0";"  6";" 0.00";"  -11.421";"fama";" 7.262069e-04"
"  0";"  6";" 0.00";"  -11.421";"embarcar";" 7.262069e-04"
"  0";"  6";" 0.00";"  -11.421";"ejecutar";" 7.262069e-04"
"  0";"  6";" 0.00";"  -11.421";"costumbre";" 7.262069e-04"
"  0";"  6";" 0.00";"  -11.421";"civil";" 7.262069e-04"
"  0";"  6";" 0.00";"  -11.421";"betsaida";" 7.262069e-04"
"  0";"  6";" 0.00";"  -11.421";"bendición";" 7.262069e-04"
"  0";"  6";" 0.00";"  -11.421";"adelantar";" 7.262069e-04"
"  5";" 18";"27.78";"  -11.401";"jefe";" 7.339080e-04"
" 17";" 41";"41.46";"  -10.607";"sentar";" 1.126694e-03"
" 52";"103";"50.49";"  -10.556";"salir";" 1.158124e-03"
"  4";" 15";"26.67";"  -10.062";"fiesta";" 1.513549e-03"
"  4";" 15";"26.67";"  -10.062";"cafarnaún";" 1.513549e-03"
"  1";"  8";"12.50";"   -9.977";"rama";" 1.585266e-03"
"  1";"  8";"12.50";"   -9.977";"endemoniado";" 1.585266e-03"
"  1";"  8";"12.50";"   -9.977";"cometer";" 1.585266e-03"
" 12";" 31";"38.71";"   -9.938";"presentar";" 1.618695e-03"
"  6";" 19";"31.58";"   -9.735";"contar";" 1.807576e-03"
"  0";"  5";" 0.00";"   -9.515";"exponer";" 2.037564e-03"
"  0";"  5";" 0.00";"   -9.515";"mago";" 2.037564e-03"
"  0";"  5";" 0.00";"   -9.515";"vosotras";" 2.037564e-03"
"  0";"  5";" 0.00";"   -9.515";"volviéndose";" 2.037564e-03"
"  0";"  5";" 0.00";"   -9.515";"rogad";" 2.037564e-03"
"  0";"  5";" 0.00";"   -9.515";"rogaban";" 2.037564e-03"
"  0";"  5";" 0.00";"   -9.515";"resto";" 2.037564e-03"
"  0";"  5";" 0.00";"   -9.515";"repudio";" 2.037564e-03"
"  0";"  5";" 0.00";"   -9.515";"purificación";" 2.037564e-03"
"  0";"  5";" 0.00";"   -9.515";"piara";" 2.037564e-03"
"  0";"  5";" 0.00";"   -9.515";"once";" 2.037564e-03"
"  0";"  5";" 0.00";"   -9.515";"muchedumbre";" 2.037564e-03"
"  0";"  5";" 0.00";"   -9.515";"mellizo";" 2.037564e-03"
"  0";"  5";" 0.00";"   -9.515";"mateo";" 2.037564e-03"
"  0";"  5";" 0.00";"   -9.515";"matarás";" 2.037564e-03"
"  0";"  5";" 0.00";"   -9.515";"instrucción";" 2.037564e-03"
"  0";"  5";" 0.00";"   -9.515";"hortaliza";" 2.037564e-03"
"  0";"  5";" 0.00";"   -9.515";"enrollar";" 2.037564e-03"
"  0";"  5";" 0.00";"   -9.515";"dolencia";" 2.037564e-03"
"  0";"  5";" 0.00";"   -9.515";"descubrir";" 2.037564e-03"
"  0";"  5";" 0.00";"   -9.515";"cometerás";" 2.037564e-03"
"  0";"  5";" 0.00";"   -9.515";"caná";" 2.037564e-03"
"  0";"  5";" 0.00";"   -9.515";"cadáver";" 2.037564e-03"
"  0";"  5";" 0.00";"   -9.515";"ayunan";" 2.037564e-03"
"  0";"  5";" 0.00";"   -9.515";"alejar";" 2.037564e-03"
"  0";"  5";" 0.00";"   -9.515";"acta";" 2.037564e-03"
" 16";" 38";"42.11";"   -9.307";"sábado";" 2.282517e-03"
" 31";" 65";"47.69";"   -9.286";"allí";" 2.308638e-03"
"  2";" 10";"20.00";"   -9.197";"marta";" 2.424306e-03"
"  2";" 10";"20.00";"   -9.197";"expulsar";" 2.424306e-03"
" 62";"118";"52.54";"   -9.042";"llamar";" 2.637769e-03"
"  3";" 12";"25.00";"   -8.749";"tarde";" 3.097454e-03"
"  3";" 12";"25.00";"   -8.749";"sidón";" 3.097454e-03"
"  3";" 12";"25.00";"   -8.749";"contestar";" 3.097454e-03"
"  4";" 14";"28.57";"   -8.491";"pascua";" 3.568348e-03"
" 10";" 26";"38.46";"   -8.481";"pez";" 3.588597e-03"
"  5";" 16";"31.25";"   -8.352";"apenas";" 3.851874e-03"
"  7";" 20";"35.00";"   -8.288";"manto";" 3.990039e-03"
"  7";" 20";"35.00";"   -8.288";"autoridad";" 3.990039e-03"
" 34";" 69";"49.28";"   -8.193";"pasar";" 4.205407e-03"
"  1";"  7";"14.29";"   -8.150";"siguiente";" 4.306405e-03"
"  1";"  7";"14.29";"   -8.150";"sembrador";" 4.306405e-03"
"  1";"  7";"14.29";"   -8.150";"perfume";" 4.306405e-03"
"  1";"  7";"14.29";"   -8.150";"fiebre";" 4.306405e-03"
"  1";"  7";"14.29";"   -8.150";"egipto";" 4.306405e-03"
"  1";"  7";"14.29";"   -8.150";"adelante";" 4.306405e-03"
"  0";"  4";" 0.00";"   -7.611";"césar";" 5.802451e-03"
"  0";"  4";" 0.00";"   -7.611";"ánimo";" 5.802451e-03"
"  0";"  4";" 0.00";"   -7.611";"zebedeos";" 5.802451e-03"
"  0";"  4";" 0.00";"   -7.611";"trabajador";" 5.802451e-03"
"  0";"  4";" 0.00";"   -7.611";"tiranizan";" 5.802451e-03"
"  0";"  4";" 0.00";"   -7.611";"tiberíades";" 5.802451e-03"
"  0";"  4";" 0.00";"   -7.611";"sirvieran";" 5.802451e-03"
"  0";"  4";" 0.00";"   -7.611";"sensato";" 5.802451e-03"
"  0";"  4";" 0.00";"   -7.611";"segadores";" 5.802451e-03"
"  0";"  4";" 0.00";"   -7.611";"saduceos";" 5.802451e-03"
"  0";"  4";" 0.00";"   -7.611";"rodilla";" 5.802451e-03"
"  0";"  4";" 0.00";"   -7.611";"quemar";" 5.802451e-03"
"  0";"  4";" 0.00";"   -7.611";"procesar";" 5.802451e-03"
"  0";"  4";" 0.00";"   -7.611";"postró";" 5.802451e-03"
"  0";"  4";" 0.00";"   -7.611";"pilato";" 5.802451e-03"
"  0";"  4";" 0.00";"   -7.611";"partidario";" 5.802451e-03"
"  0";"  4";" 0.00";"   -7.611";"llegada";" 5.802451e-03"
"  0";"  4";" 0.00";"   -7.611";"increparlo";" 5.802451e-03"
"  0";"  4";" 0.00";"   -7.611";"incienso";" 5.802451e-03"
"  0";"  4";" 0.00";"   -7.611";"honor";" 5.802451e-03"
"  0";"  4";" 0.00";"   -7.611";"hierba";" 5.802451e-03"
"  0";"  4";" 0.00";"   -7.611";"hacerse";" 5.802451e-03"
"  0";"  4";" 0.00";"   -7.611";"formar";" 5.802451e-03"
"  0";"  4";" 0.00";"   -7.611";"filipo";" 5.802451e-03"
"  0";"  4";" 0.00";"   -7.611";"establecer";" 5.802451e-03"
"  0";"  4";" 0.00";"   -7.611";"enfrente";" 5.802451e-03"
"  0";"  4";" 0.00";"   -7.611";"dividir";" 5.802451e-03"
"  0";"  4";" 0.00";"   -7.611";"despertar";" 5.802451e-03"
"  0";"  4";" 0.00";"   -7.611";"desatarle";" 5.802451e-03"
"  0";"  4";" 0.00";"   -7.611";"colocar";" 5.802451e-03"
"  0";"  4";" 0.00";"   -7.611";"bautizando";" 5.802451e-03"
"  0";"  4";" 0.00";"   -7.611";"bastón";" 5.802451e-03"
"  0";"  4";" 0.00";"   -7.611";"arrodillar";" 5.802451e-03"
"  0";"  4";" 0.00";"   -7.611";"arrestar";" 5.802451e-03"
"  0";"  4";" 0.00";"   -7.611";"apodar";" 5.802451e-03"
"  0";"  4";" 0.00";"   -7.611";"anochecer";" 5.802451e-03"
"  0";"  4";" 0.00";"   -7.611";"anidar";" 5.802451e-03"
"  0";"  4";" 0.00";"   -7.611";"alzar";" 5.802451e-03"
"  0";"  4";" 0.00";"   -7.611";"afán";" 5.802451e-03"
"  2";"  9";"22.22";"   -7.487";"familia";" 6.213684e-03"
" 51";" 97";"52.58";"   -7.359";"llevar";" 6.673506e-03"
" 54";"102";"52.94";"   -7.318";"entrar";" 6.828314e-03"
" 10";" 25";"40.00";"   -7.253";"poco";" 7.079712e-03"
"  3";" 11";"27.27";"   -7.144";"sueño";" 7.520461e-03"
"  3";" 11";"27.27";"   -7.144";"reconocer";" 7.520461e-03"
"  3";" 11";"27.27";"   -7.144";"ofrecer";" 7.520461e-03"
"  9";" 23";"39.13";"   -7.132";"sepulcro";" 7.573741e-03"
" 46";" 88";"52.27";"   -6.980";"mandar";" 8.243580e-03"
" 35";" 69";"50.72";"   -6.797";"pie";" 9.131022e-03"
"  1";"  6";"16.67";"   -6.350";"soler";" 1.173709e-02"
"  1";"  6";"16.67";"   -6.350";"sobras";" 1.173709e-02"
"  1";"  6";"16.67";"   -6.350";"puesto";" 1.173709e-02"
"  1";"  6";"16.67";"   -6.350";"mostaza";" 1.173709e-02"
"  1";"  6";"16.67";"   -6.350";"levantándose";" 1.173709e-02"
"  1";"  6";"16.67";"   -6.350";"espiga";" 1.173709e-02"
"  1";"  6";"16.67";"   -6.350";"comensal";" 1.173709e-02"
"  1";"  6";"16.67";"   -6.350";"calle";" 1.173709e-02"
"  2";"  8";"25.00";"   -5.828";"escriba";" 1.577582e-02"
"  2";"  8";"25.00";"   -5.828";"belzebú";" 1.577582e-02"
"  2";"  8";"25.00";"   -5.828";"anciano";" 1.577582e-02"
"  0";"  3";" 0.00";"   -5.707";"menudo";" 1.689982e-02"
"  0";"  3";" 0.00";"   -5.707";"virrey";" 1.689982e-02"
"  0";"  3";" 0.00";"   -5.707";"abías";" 1.689982e-02"
"  0";"  3";" 0.00";"   -5.707";"ázimos";" 1.689982e-02"
"  0";"  3";" 0.00";"   -5.707";"volcar";" 1.689982e-02"
"  0";"  3";" 0.00";"   -5.707";"talega";" 1.689982e-02"
"  0";"  3";" 0.00";"   -5.707";"servirles";" 1.689982e-02"
"  0";"  3";" 0.00";"   -5.707";"seducción";" 1.689982e-02"
"  0";"  3";" 0.00";"   -5.707";"saciaron";" 1.689982e-02"
"  0";"  3";" 0.00";"   -5.707";"robarás";" 1.689982e-02"
"  0";"  3";" 0.00";"   -5.707";"reverencias";" 1.689982e-02"
"  0";"  3";" 0.00";"   -5.707";"resolución";" 1.689982e-02"
"  0";"  3";" 0.00";"   -5.707";"repasar";" 1.689982e-02"
"  0";"  3";" 0.00";"   -5.707";"quedo";" 1.689982e-02"
"  0";"  3";" 0.00";"   -5.707";"prostitución";" 1.689982e-02"
"  0";"  3";" 0.00";"   -5.707";"prisa";" 1.689982e-02"
"  0";"  3";" 0.00";"   -5.707";"presentarte";" 1.689982e-02"
"  0";"  3";" 0.00";"   -5.707";"necias";" 1.689982e-02"
"  0";"  3";" 0.00";"   -5.707";"murmuraban";" 1.689982e-02"
"  0";"  3";" 0.00";"   -5.707";"mostrador";" 1.689982e-02"
"  0";"  3";" 0.00";"   -5.707";"leví";" 1.689982e-02"
"  0";"  3";" 0.00";"   -5.707";"lectura";" 1.689982e-02"
"  0";"  3";" 0.00";"   -5.707";"lancha";" 1.689982e-02"
"  0";"  3";" 0.00";"   -5.707";"intervenir";" 1.689982e-02"
"  0";"  3";" 0.00";"   -5.707";"incorporar";" 1.689982e-02"
"  0";"  3";" 0.00";"   -5.707";"granero";" 1.689982e-02"
"  0";"  3";" 0.00";"   -5.707";"genesaret";" 1.689982e-02"
"  0";"  3";" 0.00";"   -5.707";"faja";" 1.689982e-02"
"  0";"  3";" 0.00";"   -5.707";"espiar";" 1.689982e-02"
"  0";"  3";" 0.00";"   -5.707";"encadenar";" 1.689982e-02"
"  0";"  3";" 0.00";"   -5.707";"edificar";" 1.689982e-02"
"  0";"  3";" 0.00";"   -5.707";"discurso";" 1.689982e-02"
"  0";"  3";" 0.00";"   -5.707";"despeñarlo";" 1.689982e-02"
"  0";"  3";" 0.00";"   -5.707";"derrotará";" 1.689982e-02"
"  0";"  3";" 0.00";"   -5.707";"cosechan";" 1.689982e-02"
"  0";"  3";" 0.00";"   -5.707";"copo";" 1.689982e-02"
"  0";"  3";" 0.00";"   -5.707";"conversar";" 1.689982e-02"
"  0";"  3";" 0.00";"   -5.707";"cesarea";" 1.689982e-02"
"  0";"  3";" 0.00";"   -5.707";"capa";" 1.689982e-02"
"  0";"  3";" 0.00";"   -5.707";"betfagé";" 1.689982e-02"
"  0";"  3";" 0.00";"   -5.707";"bartolomé";" 1.689982e-02"
"  0";"  3";" 0.00";"   -5.707";"barranco";" 1.689982e-02"
"  0";"  3";" 0.00";"   -5.707";"asiento";" 1.689982e-02"
"  0";"  3";" 0.00";"   -5.707";"arbusto";" 1.689982e-02"
"  0";"  3";" 0.00";"   -5.707";"apremió";" 1.689982e-02"
"  0";"  3";" 0.00";"   -5.707";"amainó";" 1.689982e-02"
"  0";"  3";" 0.00";"   -5.707";"alzaba";" 1.689982e-02"
"  0";"  3";" 0.00";"   -5.707";"alfeo";" 1.689982e-02"
"  0";"  3";" 0.00";"   -5.707";"adelantaran";" 1.689982e-02"
"  0";"  3";" 0.00";"   -5.707";"abrasó";" 1.689982e-02"
" 26";" 52";"50.00";"   -5.615";"levantar";" 1.780688e-02"
"  3";" 10";"30.00";"   -5.601";"obrero";" 1.795485e-02"
"  3";" 10";"30.00";"   -5.601";"responder";" 1.795485e-02"
"  6";" 16";"37.50";"   -5.584";"noticiar";" 1.812211e-02"
" 25";" 50";"50.00";"   -5.397";"vez";" 2.017471e-02"
" 16";" 34";"47.06";"   -5.173";"empezar";" 2.293669e-02"
" 23";" 46";"50.00";"   -4.961";"templo";" 2.593096e-02"
"  1";"  5";"20.00";"   -4.593";"siega";" 3.209478e-02"
"  1";"  5";"20.00";"   -4.593";"secó";" 3.209478e-02"
"  1";"  5";"20.00";"   -4.593";"riqueza";" 3.209478e-02"
"  1";"  5";"20.00";"   -4.593";"regañaban";" 3.209478e-02"
"  1";"  5";"20.00";"   -4.593";"prender";" 3.209478e-02"
"  1";"  5";"20.00";"   -4.593";"predicar";" 3.209478e-02"
"  1";"  5";"20.00";"   -4.593";"postraron";" 3.209478e-02"
"  1";"  5";"20.00";"   -4.593";"notar";" 3.209478e-02"
"  1";"  5";"20.00";"   -4.593";"motivo";" 3.209478e-02"
"  1";"  5";"20.00";"   -4.593";"lisiado";" 3.209478e-02"
"  1";"  5";"20.00";"   -4.593";"huir";" 3.209478e-02"
"  1";"  5";"20.00";"   -4.593";"higo";" 3.209478e-02"
"  1";"  5";"20.00";"   -4.593";"gustar";" 3.209478e-02"
"  1";"  5";"20.00";"   -4.593";"furioso";" 3.209478e-02"
"  1";"  5";"20.00";"   -4.593";"fantasma";" 3.209478e-02"
"  1";"  5";"20.00";"   -4.593";"enseñanza";" 3.209478e-02"
"  1";"  5";"20.00";"   -4.593";"desembarcar";" 3.209478e-02"
"  1";"  5";"20.00";"   -4.593";"desechar";" 3.209478e-02"
"  1";"  5";"20.00";"   -4.593";"celebrar";" 3.209478e-02"
"  1";"  5";"20.00";"   -4.593";"ayudar";" 3.209478e-02"
"  1";"  5";"20.00";"   -4.593";"alcanzar";" 3.209478e-02"
" 47";" 86";"54.65";"   -4.591";"camino";" 3.213960e-02"
"  6";" 15";"40.00";"   -4.342";"imponer";" 3.718123e-02"
"  2";"  7";"28.57";"   -4.239";"libertad";" 3.950040e-02"
"  2";"  7";"28.57";"   -4.239";"amanecer";" 3.950040e-02"
"  2";"  7";"28.57";"   -4.239";"aceite";" 3.950040e-02"
"  5";" 13";"38.46";"   -4.229";"tercero";" 3.975002e-02"
"  4";" 11";"36.36";"   -4.152";"llorar";" 4.157820e-02"
"  4";" 11";"36.36";"   -4.152";"fariseo";" 4.157820e-02"
"  3";"  9";"33.33";"   -4.138";"ciento";" 4.192656e-02"
"  3";"  9";"33.33";"   -4.138";"cara";" 4.192656e-02"
"  3";"  9";"33.33";"   -4.138";"abundante";" 4.192656e-02"
" 10";" 22";"45.45";"   -3.944";"mesa";" 4.704416e-02"
" 53";" 94";"56.38";"   -3.554";"oír";" 5.940924e-02"
" 22";" 42";"52.38";"   -3.244";"después";" 7.168445e-02"
" 10";" 21";"47.62";"   -2.996";"sitio";" 8.347806e-02"
"  1";"  4";"25.00";"   -2.911";"simiente";" 8.796040e-02"
"  1";"  4";"25.00";"   -2.911";"persecución";" 8.796040e-02"
"  1";"  4";"25.00";"   -2.911";"juntar";" 8.796040e-02"
"  1";"  4";"25.00";"   -2.911";"jericó";" 8.796040e-02"
"  1";"  4";"25.00";"   -2.911";"intención";" 8.796040e-02"
"  1";"  4";"25.00";"   -2.911";"dificultad";" 8.796040e-02"
"  1";"  4";"25.00";"   -2.911";"dejadlos";" 8.796040e-02"
"  1";"  4";"25.00";"   -2.911";"cojos";" 8.796040e-02"
"  1";"  4";"25.00";"   -2.911";"barro";" 8.796040e-02"
"  4";" 10";"40.00";"   -2.892";"nube";" 8.904385e-02"
"  4";" 10";"40.00";"   -2.892";"prueba";" 8.904385e-02"
"  4";" 10";"40.00";"   -2.892";"principal";" 8.904385e-02"
"  3";"  8";"37.50";"   -2.787";"herodías";" 9.501478e-02"
" 23";" 43";"53.49";"   -2.786";"andar";" 9.509350e-02"
"  2";"  6";"33.33";"   -2.757";"suegro";" 9.683109e-02"
"  2";"  6";"33.33";"   -2.757";"samaría";" 9.683109e-02"
"  2";"  6";"33.33";"   -2.757";"curando";" 9.683109e-02"
" 12";" 24";"50.00";"   -2.576";"alto";" 1.085156e-01"
" 18";" 34";"52.94";"   -2.403";"resucitar";" 1.211124e-01"
" 10";" 20";"50.00";"   -2.145";"red";" 1.430771e-01"
" 34";" 60";"56.67";"   -2.114";"caer";" 1.459667e-01"
"*****";"*";"*";"*";"*";"*"
"  77";" 447";"17.23";"-511.400";"aquel";"3.145357e-113"
" 746";"1402";"53.21";"-135.484";"en";" 2.587278e-31"
"1033";"1842";"56.08";"-121.413";"a";" 3.103114e-28"
" 579";"1085";"53.36";" -93.022";"se";" 5.172579e-22"
" 422";" 779";"54.17";" -53.550";"suyo";" 2.521359e-13"
" 662";"1148";"57.67";" -41.876";"él";" 9.723348e-11"
" 367";" 628";"58.44";" -16.183";"al";" 5.749755e-05"
"1455";"2305";"63.12";" -11.833";"y";" 5.817904e-04"
" 138";" 244";"56.56";"  -9.182";"cuando";" 2.444188e-03"
" 119";" 212";"56.13";"  -8.688";"otro";" 3.202779e-03"
"   5";"  15";"33.33";"  -6.906";"alrededor";" 8.590852e-03"
"   0";"   3";" 0.00";"  -5.707";"durante";" 1.689982e-02"
"  22";"  43";"51.16";"  -3.966";"alguno";" 4.642641e-02"
"  32";"  59";"54.24";"  -3.374";"mientras";" 6.624417e-02"
"  65";" 112";"58.04";"  -2.854";"entonces";" 9.116470e-02"
"  10";"  20";"50.00";"  -2.145";"según";" 1.430771e-01"
"  39";"  68";"57.35";"  -2.043";"donde";" 1.529391e-01"
"*";"*";"*";"*";"*";"*"
" 452";" 805";"56.15";"-38.006";"*ebanjelaria_Marcos";"7.051280e-10"
"   3";"  18";"16.67";"-19.100";"*zein_Juan21-1-19";"1.240220e-05"
"   3";"  18";"16.67";"-19.100";"*zein_Juan21-1-14";"1.240220e-05"
"  22";"  57";"38.60";"-18.534";"*egutegia_SemanaDeNav";"1.669201e-05"
"1708";"2710";"63.03";"-18.294";"*egutegia_SemanaDelTi";"1.893165e-05"
"   7";"  25";"28.00";"-15.673";"*zein_Marcos4-1-20";"7.528067e-05"
"  45";"  95";"47.37";"-14.163";"*egutegia_OctavaDePas";"1.675945e-04"
"   5";"  19";"26.32";"-12.988";"*zein_Mateo14-22-36";"3.135317e-04"
"  10";"  29";"34.48";"-12.453";"*zein_Mateo13-24-43";"4.172662e-04"
"   1";"   9";"11.11";"-11.822";"*zein_Mateo13-18-23";"5.853241e-04"
"   2";"  11";"18.18";"-10.943";"*zein_Mateo13-36-43";"9.395492e-04"
"   3";"  13";"23.08";"-10.401";"*zein_Mateo13-1-9";"1.259247e-03"
"  54";" 106";"50.94";"-10.219";"*egutegia_SemanaSanta";"1.390071e-03"
"   4";"  15";"26.67";"-10.062";"*zein_Mateo14-22-33";"1.513549e-03"
"  13";"  33";"39.39";"-10.051";"*zein_Mateo13-1-23";"1.522662e-03"
"   2";"  10";"20.00";" -9.197";"*zein_Marcos8-27-33";"2.424306e-03"
"   6";"  18";"33.33";" -8.293";"*zein_Juan5-1-3a5-16";"3.980727e-03"
"  30";"  62";"48.39";" -8.176";"*egutegia_TiempoDeNav";"4.245412e-03"
"   1";"   7";"14.29";" -8.150";"*zein_Lucas9-18-22";"4.306405e-03"
"   0";"   4";" 0.00";" -7.611";"*zein_Lucas8-1-3";"5.802451e-03"
"   2";"   9";"22.22";" -7.487";"*zein_Marcos6-45-52";"6.213684e-03"
"   4";"  13";"30.77";" -6.973";"*zein_Marcos11-1-10";"8.272930e-03"
"   4";"  13";"30.77";" -6.973";"*zein_Juan1-35-42";"8.272930e-03"
"   4";"  13";"30.77";" -6.973";"*zein_Marcos1-29-39";"8.272930e-03"
"   5";"  15";"33.33";" -6.906";"*zein_Lucas19-28-40";"8.590852e-03"
"   5";"  15";"33.33";" -6.906";"*zein_Lucas8-4-15";"8.590852e-03"
"   1";"   6";"16.67";" -6.350";"*zein_Lucas6-12-19";"1.173709e-02"
"   1";"   6";"16.67";" -6.350";"*zein_Marcos3-1-6";"1.173709e-02"
"   2";"   8";"25.00";" -5.828";"*zein_Mateo10-1-7";"1.577582e-02"
"   2";"   8";"25.00";" -5.828";"*zein_Marcos6-30-34";"1.577582e-02"
"   2";"   8";"25.00";" -5.828";"*zein_Juan20-2-8";"1.577582e-02"
"   0";"   3";" 0.00";" -5.707";"*zein_Marcos3-13-19";"1.689982e-02"
"   3";"  10";"30.00";" -5.601";"*zein_Mateo8-28-34";"1.795485e-02"
"   3";"  10";"30.00";" -5.601";"*zein_Mateo13-24-30";"1.795485e-02"
"   3";"  10";"30.00";" -5.601";"*zein_Juan20-1-9";"1.795485e-02"
"   5";"  14";"35.71";" -5.526";"*zein_Marcos8-27-35";"1.873280e-02"
"   4";"  12";"33.33";" -5.521";"*zein_Mateo17-1-9";"1.878777e-02"
"  10";"  23";"43.48";" -4.976";"*zein_Marcos5-1-20";"2.570247e-02"
"   8";"  19";"42.11";" -4.634";"*zein_Marcos3-20-35";"3.133862e-02"
"   1";"   5";"20.00";" -4.593";"*zein_Marcos6-53-56";"3.209478e-02"
"   1";"   5";"20.00";" -4.593";"*zein_Lucas14-1-6";"3.209478e-02"
"   7";"  17";"41.18";" -4.480";"*zein_Lucas5-1-11";"3.429601e-02"
"   4";"  11";"36.36";" -4.152";"*zein_Marcos3-22-30";"4.157820e-02"
"   4";"  11";"36.36";" -4.152";"*zein_Mateo28-8-15";"4.157820e-02"
"   4";"  11";"36.36";" -4.152";"*zein_Juan12-1-11";"4.157820e-02"
"   4";"  11";"36.36";" -4.152";"*zein_Juan1-43-51";"4.157820e-02"
"   3";"   9";"33.33";" -4.138";"*zein_Lucas5-12-16";"4.192656e-02"
"   3";"   9";"33.33";" -4.138";"*zein_Marcos2-13-17";"4.192656e-02"
"   3";"   9";"33.33";" -4.138";"*zein_Lucas9-51-56";"4.192656e-02"
"   0";"   2";" 0.00";" -3.804";"*zein_Marcos3-20-21";"5.114034e-02"
" 816";"1286";"63.45";" -3.408";"*ebanjelaria_Mateo";"6.489411e-02"
"   6";"  14";"42.86";" -3.196";"*zein_Mateo25-1-13";"7.383794e-02"
"   6";"  14";"42.86";" -3.196";"*zein_Marcos10-1-12";"7.383794e-02"
"   6";"  14";"42.86";" -3.196";"*zein_Mateo21-1-11";"7.383794e-02"
"   6";"  14";"42.86";" -3.196";"*zein_Mateo15-29-37";"7.383794e-02"
"   5";"  12";"41.67";" -3.033";"*zein_Marcos6-34-44";"8.159010e-02"
"   5";"  12";"41.67";" -3.033";"*zein_Juan3-22-30";"8.159010e-02"
"   1";"   4";"25.00";" -2.911";"*zein_Mateo19-13-15";"8.796040e-02"
"   4";"  10";"40.00";" -2.892";"*zein_Mateo9-1-8";"8.904385e-02"
"   4";"  10";"40.00";" -2.892";"*zein_Mateo14-13-21";"8.904385e-02"
"   4";"  10";"40.00";" -2.892";"*zein_Marcos4-26-34";"8.904385e-02"
"   3";"   8";"37.50";" -2.787";"*zein_Marcos12-13-17";"9.501478e-02"
"   3";"   8";"37.50";" -2.787";"*zein_Mateo22-15-21";"9.501478e-02"
"   3";"   8";"37.50";" -2.787";"*zein_Mateo9-32-38";"9.501478e-02"
"   2";"   6";"33.33";" -2.757";"*zein_Mateo1-1-17";"9.683109e-02"
"   2";"   6";"33.33";" -2.757";"*zein_Lucas7-19-23";"9.683109e-02"
"   2";"   6";"33.33";" -2.757";"*zein_Mateo8-1-4";"9.683109e-02"
"   8";"  17";"47.06";" -2.577";"*zein_Lucas1-1-4-4-14-21";"1.084233e-01"
"   7";"  15";"46.67";" -2.370";"*zein_Juan8-1-11";"1.236539e-01"
"   7";"  15";"46.67";" -2.370";"*zein_Lucas4-14-22a";"1.236539e-01"
"   6";"  13";"46.15";" -2.167";"*zein_Lucas3-10-18";"1.410340e-01"
"   6";"  13";"46.15";" -2.167";"*zein_Mateo2-13-1519-23";"1.410340e-01"
"   6";"  13";"46.15";" -2.167";"*zein_Mateo2-1-12";"1.410340e-01"
"  28";"  50";"56.00";" -2.032";"*zein_Juan11-1-45";"1.540076e-01"
