el;11;921;124;21;10;18;2194
y;3;746;66;13;8;14;1455
que;5;359;61;9;2;9;1463
a;5;741;28;15;11;9;1033
de;5;473;57;16;10;14;1169
en;0;590;53;9;0;4;746
él;0;466;10;3;0;7;662
se;0;453;38;4;0;11;579
no;0;108;31;11;2;8;808
ser;5;195;32;4;4;7;722
haber;0;139;9;1;0;6;606
suyo;7;311;19;5;2;13;422
yo;0;40;6;2;0;5;500
un;0;193;30;6;0;5;431
al;5;223;24;3;4;2;367
tú;0;41;4;0;0;3;366
por;0;103;15;2;0;1;364
del;0;110;27;3;2;0;348
con;0;138;8;6;0;9;302
estar;0;114;5;8;1;4;347
para;0;78;13;7;0;0;310
aquel;0;370;0;0;0;0;77
este;0;84;7;1;0;1;307
tener;0;56;11;4;0;0;285
todo;0;86;10;3;0;2;249
porque;0;34;7;2;0;0;322
mío;0;7;5;1;0;0;268
si;0;12;9;6;0;5;254
vosotros;0;17;2;2;0;0;209
pero;2;46;20;1;0;2;185
cuando;0;97;7;2;0;0;138
otro;0;72;16;0;0;5;119
qué;0;22;3;0;1;1;160
como;0;28;6;2;0;1;155
poder;0;15;5;11;0;0;129
también;0;20;5;2;0;0;118
o;0;10;7;1;2;0;92
ni;0;9;9;0;0;0;84
ese;0;10;5;0;0;0;98
sino;0;9;0;0;0;0;104
hasta;0;18;2;0;0;0;85
entonces;0;47;0;0;0;0;65
nosotros;0;5;4;0;0;0;73
quien;0;15;0;0;0;0;74
sin;0;9;3;0;0;0;77
pues;5;7;1;0;2;2;77
quién;0;21;0;0;0;0;63
entre;0;27;7;0;0;0;48
bien;2;9;1;0;0;0;68
sobre;0;23;2;0;0;0;49
donde;0;25;4;0;0;0;39
mientras;0;25;2;0;0;0;32
dicho;0;10;2;0;0;0;43
ante;0;13;0;0;0;0;33
desde;0;14;0;0;0;1;32
contra;0;3;0;4;0;2;23
alguno;0;20;1;0;0;0;22
antes;0;8;0;0;0;0;35
nuestro;0;3;0;0;0;0;33
nada;0;8;2;1;0;0;26
dentro;0;7;1;2;0;0;22
cada;0;4;2;0;0;0;23
muy;0;7;1;0;0;0;18
demás;0;6;2;0;0;0;17
aunque;0;1;2;0;0;0;22
algo;0;6;2;0;0;0;16
deber;0;1;0;0;0;0;22
ninguno;0;4;0;0;0;0;17
cuanto;0;5;5;0;0;0;11
según;0;9;0;0;0;1;10
bajo;0;4;0;0;0;0;15
hacia;0;9;0;0;0;0;9
diez;0;3;0;0;0;0;14
cuánto;0;2;0;0;0;0;14
pocos;5;2;0;0;0;0;8
encima;0;4;0;0;0;0;11
alrededor;0;10;0;0;0;0;5
tras;0;1;0;2;0;0;6
cuál;0;0;0;0;0;0;9
setenta;0;3;0;0;0;0;5
noventa;0;0;0;0;0;0;8
cincuenta;0;4;0;0;0;0;4
cualquier;0;1;0;0;0;0;6
cual;0;0;0;0;3;0;4
treinta;0;0;1;0;0;0;5
cuarenta;0;1;0;0;0;0;4
cierto;0;3;0;0;0;0;2
ochenta;0;0;0;0;0;0;4
arriba;0;0;0;0;0;0;4
tal;0;1;0;0;0;0;2
sesenta;0;0;1;0;0;0;2
incluso;0;0;0;0;0;0;3
durante;0;3;0;0;0;0;0
diversos;0;0;0;0;0;0;3
dieciocho;0;0;0;0;0;0;3
conforme;0;1;0;0;0;0;2
