"";"Valeurs propres";"Pourcentages";"Pourcentage cumules"
"facteur 1";0,584503347485083;20,0682823527077;20,0682823527077
"facteur 2";0,440442957440118;15,1221266194638;35,1904089721715
"facteur 3";0,425199784556649;14,5987689711411;49,7891779433126
"facteur 4";0,407720196320244;13,9986264507491;63,7878043940617
"facteur 5";0,376333218574214;12,9209889413735;76,7087933354352
"facteur 6";0,347932149537591;11,9458693376997;88,6546626731349
"facteur 7";0,330441217108218;11,3453373268651;100
