"";"";"";"";"*zein_Juan15-26-16-4a";""
"1";"*zein_Juan15-26-16-4a";"0.523111703671308";"-0.314101399855067";"0.843360984641982";"51"
"2";"*zein_Juan19-25-27";"-1.10930559977238";"0.0910316415160369";"0.840108640665596";"54"
"3";"*zein_Juan11-45-57";"-0.612482942202563";"-0.0322697189012556";"0.832998865461404";"57"
"4";"*zein_Juan16-5-11";"0.46396614919871";"-0.299422666472056";"0.832588270540797";"60"
"5";"*zein_Juan16-23b-28";"0.46396614919871";"-0.299422666472056";"0.832588270540797";"62"
"6";"*zein_Juan16-12-15";"0.46396614919871";"-0.299422666472056";"0.832588270540797";"63"
"7";"*zein_Juan15-1-8";"0.470878785860701";"-0.484672552272222";"0.829389952211859";"65"
"8";"*zein_Juan14-1-6";"0.628728105099515";"-0.592672934577689";"0.825413664559666";"70"
"9";"*zein_Juan20-24-29";"-0.778090494725836";"0.00883073457117527";"0.822334202655115";"71"
"10";"*zein_Juan3-16-18";"0.381162372937074";"-0.278872439735841";"0.822258566748687";"73"
"11";"*egutegia_SemanaDeNav";"-0.563477153743556";"-0.246319706649546";"0.821891192346039";"75"
"12";"*zein_Juan3-22-30";"-0.563477153743556";"-0.246319706649546";"0.821891192346039";"76"
"13";"*zein_Juan17-11b-19";"0.727585278639999";"-0.768623095441068";"0.821134833281763";"78"
"14";"*zein_Juan15-18-21";"0.593119972898462";"-0.619887096638339";"0.816726340449985";"80"
"15";"*zein_Juan15-12-17";"0.593119972898462";"-0.619887096638339";"0.816726340449985";"81"
"16";"*zein_Juan10-31-42";"-0.162055939499045";"-0.51112523147436";"0.816132058328054";"82"
"17";"*zein_Juan21-15-19";"0.0637725412145091";"-0.567171304391311";"0.816132058328054";"83"
"18";"*zein_Juan9-1-41";"-0.16356178580253";"-0.182507458452763";"0.814230355537874";"86"
"19";"*zein_Juan7-1-21025-30";"-0.476985853774431";"-0.0658973626514262";"0.813538827250537";"87"
"20";"*zein_Juan13-21-3336-38";"-0.0877944799412748";"0.428186772084788";"0.81125894492822";"89"
"21";"*zein_Juan1-47-51";"-0.612482942202563";"-0.0322697189012556";"0.810902375655061";"90"
"22";"*zein_Juan8-51-59";"0.151339240752562";"-0.377133236240599";"0.810426949957516";"91"
"23";"*zein_Juan12-20-33";"0.121318768161037";"-0.202694553858356";"0.80811465224673";"94"
"24";"*zein_Juan7-40-53";"-0.157062172763563";"-0.14529596595044";"0.805597057075641";"97"
"25";"*zein_Juan1-45-51";"-0.302814377843894";"-0.361482883795265";"0.805110826248606";"98"
"26";"*zein_Juan16-20-23a";"0.0499472678905281";"-0.196671532790979";"0.804538154385655";"99"
"27";"*zein_Juan13-1-17";"-0.22606531964826";"-0.128170777003594";"0.804516544126676";"100"
"28";"*zein_Juan1-19-28";"-0.186634949999862";"-0.137956599258935";"0.802550010559558";"101"
"29";"*zein_Juan1-6-819-28";"0.104398143956092";"-0.434504852511302";"0.802236661804358";"102"
"30";"*egutegia_SemanaDeAdv";"0.104398143956092";"-0.434504852511302";"0.802236661804358";"103"
"31";"*zein_Juan18-33-37";"0.0192218244335929";"-0.37258040643832";"0.802052974603034";"104"
"32";"*ebanjelaria_Juan";"0.0245183061183011";"0.000293491604396851";"0.8";"105"
