"";"";"";"";"fiesta";""
"1";"fiesta";"-1.35771692855729";"0.152682321724682";"0.878820836265111";"115"
"2";"judas";"-1.6061282573422";"0.214333001933329";"0.878323521826755";"121"
"3";"suelo";"-1.6061282573422";"0.214333001933329";"0.866871280887143";"130"
"4";"pascua";"-1.6061282573422";"0.214333001933329";"0.866871280887143";"131"
"5";"sentar";"-1.6061282573422";"0.214333001933329";"0.866871280887143";"134"
"6";"debajo";"-1.6061282573422";"0.214333001933329";"0.866871280887143";"136"
"7";"tres";"-1.29561409636107";"0.137269651672521";"0.856616797256811";"150"
"8";"costado";"-1.6061282573422";"0.214333001933329";"0.855433048804949";"153"
"9";"vendar|vender";"-1.6061282573422";"0.214333001933329";"0.855433048804949";"154"
"10";"mellizo";"-1.6061282573422";"0.214333001933329";"0.855433048804949";"158"
"11";"marchar";"-1.6061282573422";"0.214333001933329";"0.855433048804949";"159"
"12";"empezar";"-1.6061282573422";"0.214333001933329";"0.855433048804949";"161"
"13";"después";"-1.6061282573422";"0.214333001933329";"0.855433048804949";"162"
"14";"coger";"-1.6061282573422";"0.214333001933329";"0.855433048804949";"163"
"15";"caná";"-1.6061282573422";"0.214333001933329";"0.855433048804949";"165"
"16";"cama";"-1.6061282573422";"0.214333001933329";"0.855433048804949";"166"
"17";"andrés";"-1.6061282573422";"0.214333001933329";"0.855433048804949";"168"
"18";"condenar";"0.629573701721984";"-0.340523119944487";"0.848512673240217";"177"
"19";"voluntad";"0.877985030506893";"-0.402173800153133";"0.844345038158217";"179"
"20";"tiberíades";"-1.6061282573422";"0.214333001933329";"0.844022834437592";"190"
"21";"perezca";"0.877985030506893";"-0.402173800153133";"0.836682193150306";"198"
"22";"israel";"0.877985030506893";"-0.402173800153133";"0.836682193150306";"199"
"23";"sudario";"-1.6061282573422";"0.214333001933329";"0.832633633356363";"209"
"24";"samaría";"-1.6061282573422";"0.214333001933329";"0.832633633356363";"210"
"25";"suceder";"0.877985030506893";"-0.402173800153133";"0.829033356999812";"215"
"26";"elevar";"0.877985030506893";"-0.402173800153133";"0.829033356999812";"216"
"27";"trabajo";"0.877985030506893";"-0.402173800153133";"0.829033356999812";"218"
"28";"tampoco";"0.877985030506893";"-0.402173800153133";"0.829033356999812";"219"
"29";"significar";"0.877985030506893";"-0.402173800153133";"0.829033356999812";"220"
"30";"principio";"0.877985030506893";"-0.402173800153133";"0.829033356999812";"221"
"31";"pidáis";"0.877985030506893";"-0.402173800153133";"0.829033356999812";"222"
"32";"pecador";"0.877985030506893";"-0.402173800153133";"0.829033356999812";"223"
"33";"dichosos";"0.877985030506893";"-0.402173800153133";"0.829033356999812";"224"
"34";"comunicar";"0.877985030506893";"-0.402173800153133";"0.829033356999812";"225"
"35";"comparación";"0.877985030506893";"-0.402173800153133";"0.829033356999812";"226"
"36";"propio";"0.523111703671308";"-0.314101399855067";"0.826686873382216";"228"
"37";"muerte";"0.523111703671308";"-0.314101399855067";"0.826686873382216";"229"
"38";"paz";"0.877985030506893";"-0.402173800153133";"0.821398529706737";"238"
"39";"razón";"0.877985030506893";"-0.402173800153133";"0.821398529706737";"240"
"40";"surgir";"0.877985030506893";"-0.402173800153133";"0.821398529706737";"242"
"41";"siervo";"0.877985030506893";"-0.402173800153133";"0.821398529706737";"243"
"42";"serpiente";"0.877985030506893";"-0.402173800153133";"0.821398529706737";"244"
"43";"saltar";"0.975996607424909";"-0.830273775649714";"0.813007224113064";"259"
"44";"embargo";"0.975996607424909";"-0.830273775649714";"0.813007224113064";"261"
"45";"sorprender";"0.0499472678905281";"-0.196671532790979";"0.801519961029906";"283"
"46";"soplar";"0.0499472678905281";"-0.196671532790979";"0.801519961029906";"284"
"47";"sarmiento";"0.0499472678905281";"-0.196671532790979";"0.801519961029906";"285"
