agur	993
goraintzi	931
zaituztete	255
asia	247
arreba	247
priska	185
etxe	142
probintzia	137
laguntzaile	137
eli	93
elkarte	72
bildu	52
izen	27
fededun	23
ditudan	19
zerbitzari	19
herritar	19
agurgarri	19
jaunarengan	17
maite	16
dizue	14
zaitu	14
jesusengatik	14
senide	13
kristau	12
parte	11
gomendatu	11
azkenik	11
adiskide	11
esku	10
zintzo	9
hiri	9
ama	9
jesusen	8
oso	7
haia	7
idatzi	7
jaunarengatik	6
jardun	6
bereizi	6
kristorengan	5
iritzi	5
zerbitzu	4
zaiteztu	4
nolako	3
ardura	3
gutun	2
fruitu	2