izan;1388
eta;1076
ez;764
ere;460
bera;343
ni;283
guzti;240
gu;240
bat;221
hau;236
baina;190
hori;180
zuek;169
dena;116
baizik;125
zu;115
beste;116
arte;96
neu;87
bai;75
hura;81
esker;84
beraz;83
ari;67
inor;61
ordea;61
berak;56
horiek;56
nor;46
zer;49
berriz;50
edo;44
nahiz;35
elkar;39
haiek;39
hots;44
arabera;42
zeu;40
asko;40
ezer;41
batzuk;32
zaitezte;38
gehiago;36
bitart;37
arren;33
geu;30
zeren;30
hauek;28
duzu;29
lehen;27
berau;26
gaitu;24
ezik;23
aurka;20
buruz;21
norbait;21
nau;21
dadin;20
barru;20
alegia;19
zein;18
zaituzte;16
ezazue;15
ala;19
lehenengo;17
edota;16
bi;16
akikan;18
zerbait;15
dezata;16
bezalako;13
daiteu;15
baldin;16
bestela;15
azken;13
gaitezen;14
gainera;12
bila;12
oro;12
ikan;13
edozein;13
ugari;11
itzazue;9
erein;11
beraiek;12
natzaizue;11
kontra;11
harek;10
badakizue;11
hiru;8
egizue;10
baitugu;10
zenbait;9
omen;9
nitu;7
baitut;9
aldiz;8
izi;8
gaituzte;8
duten;7
aitzitik;8
zinetu;6
zigun;7
zenbat;6
hainbeste;6
gehien;7
bit;7
bazarete;7
zaitzatu;4
testigu;6
norbera;5
nadin;6
hurbil;6
dezake;5
dezada;6
behartsu;4
aurkako;6
ukzkion;5
ordez;4
kontrako;3
kanpo;5
hirugarren;5
gutxi;5
ezakekan;5
duzuena;5
berorren;4
berbera;5
berauek;5
behintzat;4
zid;4
niregandik;3
nauzue;4
mila;4
izkikan;4
iokan;3
iitakn;4
gutxiago;4
gisa;3
ditzala;4
dagokia;4
bazaio;4
balute;4
zakan;3
zaiteu;3
nindun;3
izaizkn;3
guregandik;3
daitezke;3
dagoenak;3
besterak;3
barren;3
baituzue;3
baitiote;3
baitakit;3
baduzue;3
