izan;322;2090
eta;329;2095
ez;48;983
ni;9;659
hura;376;361
bera;193;409
bat;83;449
zu;11;344
ere;19;394
hau;50;308
guzti;14;312
beste;33;205
baina;21;219
zer;12;194
hori;21;189
zuek;2;191
haiek;39;147
arte;18;142
inor;14;128
bai;9;118
ari;31;95
asko;12;96
dena;4;111
gu;0;86
bi;18;83
hauek;11;90
baizik;2;90
batzuk;27;65
ordea;15;78
berriz;14;67
edo;2;62
nau;1;67
nor;9;52
beraz;3;56
berak;12;47
gehiago;2;56
horiek;3;50
aurka;0;36
ezer;5;40
elkar;16;27
hots;3;37
lehenengo;2;37
ezazue;0;41
bila;4;35
inguru;11;28
zein;1;35
zaituzte;0;33
hiru;0;33
zeu;1;30
zaitezte;0;31
lehen;3;28
hamar;1;27
barru;11;19
izn;4;26
hamabi;7;20
bost;1;24
gainera;2;25
duzu;0;22
zuten;5;22
gora;2;22
dezake;0;24
dadin;0;26
ehun;0;25
arren;0;18
zazpi;0;18
norbait;2;21
azken;0;22
ala;2;19
erein;0;21
iokan;2;12
hurbil;3;16
gutxi;0;18
esker;0;19
zietu;5;12
izi;0;17
harek;1;16
baldin;0;17
nauzue;0;16
itzazue;1;15
dezata;0;14
larunbata;2;12
daiteu;0;14
behartsu;0;15
badakizue;0;15
zerbait;0;14
ondoan;6;7
hirugarren;2;12
aldiz;0;7
zenbat;0;13
idakan;1;12
berrogei;1;11
barren;4;8
baduzue;0;13
mila;0;10
kanpo;1;10
horrenbeste;0;10
bigarren;0;12
akikan;0;12
har;0;11
nigandik;0;10
besterak;3;7
bazaituzte;0;10
zabiltzate;0;9
ugari;0;9
sei;0;9
omen;0;9
lau;0;9
izaizkn;0;9
hirurogei;0;9
bana;0;6
zerate;0;7
zaitzatu;0;8
hainbeste;1;7
dizkio;0;8
bazarete;0;6
baza;0;8
zinetu;0;6
kontrako;0;7
bitart;0;7
bezait;0;7
zigun;0;6
zeren;0;5
zakan;0;6
neu;0;6
laurogei;0;5
izenn;0;6
hemeretzi;0;6
duten;0;6
dezada;0;5
bezalako;0;6
azpi;0;6
kontra;0;5
idn;0;5
hoiek;0;5
ezakekan;0;5
egizue;0;5
diezai;0;5
badituzue;0;5
zutenek;3;1
zintugun;0;4
zaitugu;0;4
nauzula;0;4
litzake;0;4
lehehenbiziko;2;2
iterri;0;4
iskariote;4;0
iezaiozue;1;3
honek;0;4
hogei;0;4
hemezortzi;0;4
gehien;2;2
esazu;0;4
best;0;4
beraiek;2;2
bederen;0;4
badituzte;0;4
zituzten;0;3
zintuda;0;3
zid;0;3
testigu;0;3
nuela;0;3
nitu;0;3
natzaizue;0;3
nadin;0;3
jiezaioken;0;3
horrek;0;3
hesiz;0;3
handiagoko;0;3
hamarren;0;3
hamaika;1;2
ezik;0;3
esadazue;0;3
edozein;0;3
edbiltzi;0;3
dizkid;0;3
buruz;1;2
bit;0;3
bene;0;3
bazaizkio;0;3
balute;0;3
balitzaio;0;3
baliote;0;3
badidazue;0;3
arkan;0;3
aitukan;1;2
