decir;200;ver
jesús;185;nom
padre;180;nom
os;153;nr
ver;129;ver
dar;127;ver
dios;100;nom
discípulo;95;nom
mundo;93;nom
hijo;84;nom
hacer;84;ver
ir;83;ver
tiempo;75;nom
venir;71;ver
vida;63;nom
crear|creer;63;ver
enviar;61;ver
saber;60;ver
conocer;54;ver
señor;50;nom
judío;50;nom
pan;48;nom
hombre;48;nom
hablar;46;ver
palabra;45;nom
ya;42;adv
mismo;39;adj
llegar;38;ver
testimonio;37;nom
querer;36;ver
día;36;nom
verdad;34;nom
nadie;34;nom
ahora;34;adv
cielo;33;nom
asegurar;33;ver
uno;32;nom
obra;29;nom
más;29;adv
quedar;28;ver
luz;28;nom
creer;28;ver
preguntar;27;ver
pedro;27;nom
nombre;26;nom
llamar;26;ver
juan;26;nom
eterno;25;adj
echar;25;ver
comer;25;ver
así;25;adv
morir;24;ver
mano;24;nom
allí;24;adv
seguir;23;ver
salir;23;ver
oír;23;ver
cómo;23;adv
simón;22;nr
poner;22;ver
dónde;22;adv
agua;22;nom
oveja;21;nom
hora;21;nom
vuestro;20;nr
templo;19;nom
tanto;19;adj
siempre;19;adv
mis;19;nr
espíritu;19;nom
nacer;18;ver
llevar;18;ver
escribir;18;ver
encontrar;18;ver
casa;18;nom
carne;18;nom
voz;17;nom
vivir;17;ver
vez;17;nom
subir;17;ver
sepulcro;17;nom
ojo;17;nom
gente;17;nom
bajar;17;ver
amar;17;ver
signo;16;nom
recibir;16;ver
pie;16;nom
muerto;16;adj
maría;16;nom
hecho;16;nom
guardar;16;ver
volver;15;ver
profeta;15;nom
hermano;15;nom
galilea;15;nr
ciego;15;adj
ama;15;nom
ése;14;nr
tierra;14;nom
pasar;14;ver
mujer;14;nom
mesías;14;nr
medio;14;nom
junto;14;adj
jerusalén;14;nom
grande;14;adj
gloria;14;nom
fruto;14;nom
felipe;14;nom
escuchar;14;ver
entregar;14;ver
entrar;14;ver
camino;14;nom
alegría;14;nom
vino;13;nom
tomar;13;ver
saber|ser;13;ver
primero;13;adj
glorificado;13;nr
dejar;13;ver
aquí;13;adv
pecado;12;nom
moisés;12;nr
único;11;adj
vuestra;11;nr
vengar|venir;11;ver
todavía;11;adv
sitio;11;nom
poco;11;adv
pedir;11;ver
maestro;11;nom
levantar;11;ver
fiesta;11;nom
escritura;11;nom
amor;11;nom
acercar;11;ver
sangre;10;nom
madre;10;nom
lázaro;10;nr
juzgar;10;ver
fariseos;10;nr
dos;10;nom
desierto;10;nom
cuenta;10;nom
condenar;10;ver
bueno;10;adj
beber;10;ver
andar;10;ver
acerca;10;adv
abrahán;10;nr
traer;9;ver
solo;9;adj
sacerdote;9;nom
puerta;9;nom
pez;9;nom
orilla;9;nom
mandamiento;9;nom
lago;9;nom
enseñar;9;ver
costado;9;nom
amigo;9;nom
abierto;9;adj
último;8;adj
voluntad;8;nom
vivo;8;adj
tres;8;adj
tomás;8;nom
sólo;8;adv
sábado;8;nom
suelo;8;nom
sacar;8;ver
resucitar;8;ver
red;8;nom
pueblo;8;nom
podar|poder;8;ver
oído;8;nom
nuevo;8;adj
nicodemo;8;nr
mandar;8;ver
ley;8;nom
fe;8;nom
erar|ser;8;ver
entender;8;ver
enfermo;8;nom
dar|distar;8;ver
culto;8;adj
creed;8;nr
conmigo;8;nr
cambio;8;nom
barca;8;nom
acudir;8;ver
vendar|vender;7;ver
suceder;7;ver
propio;7;adj
permanecer;7;ver
pascua;7;nom
natanael;7;nr
muerte;7;nom
matar;7;ver
marta;7;nom
llenar;7;ver
lado;7;nom
judas;7;nr
gracia;7;nom
elevar;7;ver
crear;7;ver
cosa;7;nom
correr;7;ver
cerca;7;adv
aparecer;7;ver
adonde;7;adv
acordar;7;ver
vuestros;6;nr
vi;6;nr
tiniebla;6;nr
testigo;6;nom
sentar;6;ver
sed;6;nom
santo;6;adj
salvar;6;ver
rey;6;nom
rabí;6;nr
quitar;6;ver
pensar;6;ver
pastor;6;nom
nunca;6;adv
noche;6;nom
muéstranos;6;nr
modo;6;nom
meter;6;ver
higuera;6;nom
guardará;6;nr
detrás;6;adv
debajo;6;adv
cinco;6;adj
bautizar;6;ver
bajo;6;adj
año;6;nom
alimento;6;nom
ahí;6;adv
aceptar;6;ver
sumos;5;nr
servir;5;ver
seis;5;adj
saltar;5;ver
resucitaré;5;nr
reino;5;nom
pescado;5;nom
perezca;5;nr
paz;5;nom
paloma;5;nom
mirar;5;ver
mesa;5;nom
mellizo;5;nr
marchar;5;ver
llorar;5;ver
juicio;5;nom
judea;5;nr
israel;5;nom
gritar;5;ver
glorificará;5;nr
existir;5;ver
empezar;5;ver
embargo;5;nom
elegir;5;ver
doce;5;adj
después;5;adv
delante;5;adv
dedo;5;nom
curar;5;ver
corazón;5;nom
convertir;5;ver
coma;5;nom
coger;5;ver
cerrado;5;adj
caná;5;nr
caminar;5;ver
cama;5;nom
caer;5;ver
cabeza;5;nom
buscar;5;ver
betania;5;nr
aún;5;adv
andrés;5;nom
améis;5;nr
acusar;5;ver
ángeles;4;nom
válido;4;adj
vista;4;nom
tristeza;4;nom
trabajo;4;nom
tiberíades;4;nr
tampoco;4;adv
significar;4;ver
semana;4;nom
sano;4;adj
resurrección;4;nom
realizar;4;ver
razón;4;nom
principio;4;nom
pobre;4;adj
piedra;4;nom
pidáis;4;nr
perfume;4;nom
perdonar;4;ver
perder;4;ver
pecador;4;nom
nazaret;4;nr
nación;4;nom
maná;4;nom
manifestar;4;ver
mando;4;nom
malo;4;adj
magdalena;4;nom
ladrón;4;nom
josé;4;nom
jordán;4;nr
jamás;4;adv
iscariote;4;nr
haz;4;nom
estado;4;nom
esposo;4;nom
embarcar;4;ver
elías;4;nr
dichosos;4;nr
cumplir;4;ver
cuerpo;4;nom
cuatro;4;adj
comunicar;4;ver
comparación;4;nom
comida;4;nom
clavo;4;nom
causa;4;nom
cambista;4;nom
cafarnaún;4;nr
buey;4;nom
bautizando;4;nr
bastar;4;ver
barro;4;nom
amo;4;nom
amará;4;nr
amanecer;4;ver
acabar;4;ver
abundante;4;adj
abrir;4;ver
viento;3;nom
viejo;3;adj
vid;3;nom
vender;3;ver
tiemble;3;nr
tercero;3;adj
tarde;3;adv
surgir;3;ver
sudario;3;nr
sorprender;3;ver
soplar;3;ver
siervo;3;nr
señal;3;nom
serpiente;3;nom
segundo;3;adj
sarmiento;3;nr
samaría;3;nr
samaritanos;3;nr
rogar;3;ver
retirar;3;ver
recordar;3;ver
recoger;3;ver
príncipe;3;nom
proceder;3;ver
presentar;3;ver
pregunta;3;nom
plenitud;3;nom
piscina;3;nom
pierna;3;nom
pedazo;3;nom
paráclito;3;nr
parte;3;nom
ocho;3;nr
necesitar;3;ver
moriréis;3;nr
monte;3;nom
miedo;3;nom
marido;3;nom
mal;3;adj
lugar;3;nom
linaje;3;nom
limpio;3;adj
libre;3;adj
lavar;3;ver
juzgo;3;nr
jacob;3;nr
israelita;3;adj
intentar;3;ver
igual;3;adj
hambre;3;nom
habitar;3;ver
fariseo;3;nr
esclavo;3;nom
envío;3;nom
enterar;3;ver
engaño;3;nom
derecha;3;nom
cuándo;3;adv
cubrir;3;ver
conocierais;3;nr
conoceríais;3;nr
condena;3;nom
conceder;3;ver
comprender;3;ver
cien;3;nr
celebrar;3;ver
buscáis;3;nr
asomar;3;ver
aprender;3;ver
apodar;3;ver
anunciar;3;ver
además;3;adv
adelantar;3;ver
acompañar;3;ver
acaso;3;adv
ésas;2;nr
ésa;2;nr
zebedeos;2;nr
volcar;2;ver
verse;2;ver
veraz;2;adj
vendremos;2;nr
vendedor;2;nom
vecino;2;nom
untó;2;nr
ungió;2;nr
túnica;2;nr
tuyos;2;nr
tuyo;2;nr
tropezar;2;ver
triste;2;adj
trigo;2;nom
tratáis;2;nr
tratar;2;ver
traed;2;nr
trabajad;2;nr
tocar;2;ver
toalla;2;nom
tirar;2;ver
tinajas;2;nr
superar;2;ver
sumo;2;nom
soldado;2;nom
sirvientes;2;nr
sinagoga;2;nr
siloé;2;nr
siguiente;2;adj
siervos;2;nr
siega;2;nr
servirme;2;nr
servidor;2;nom
sentar|sentir;2;ver
sellar;2;ver
segador;2;nr
sandalia;2;nr
saciaros;2;nr
ruido;2;nom
romper;2;ver
rogaban;2;nr
retengáis;2;nr
retener;2;ver
respuesta;2;nom
repleto;2;adj
remolcando;2;nr
región;2;nom
referir;2;ver
recuperar;2;ver
recibiréis;2;nr
quebrar;2;ver
pronto;2;adv
prepararos;2;nr
preparar;2;ver
prenderlo;2;nr
premiar;2;ver
preguntádselo;2;nr
preferir;2;ver
pozo;2;nom
poseer;2;ver
pilato;2;nr
perversamente;2;nr
permanezco;2;nr
permanecéis;2;nr
permaneceréis;2;nr
permaneced;2;nr
perecerán;2;nr
perece;2;nr
perdurar;2;ver
pediréis;2;nr
pecó;2;nr
pecho;2;nom
pecar;2;ver
parecer;2;ver
oirán;2;nr
odiar;2;ver
odiado;2;nr
ocurrir;2;ver
ocupas;2;nr
ocupar;2;ver
obrar;2;ver
niño;2;nom
ningún;2;adj
necesario;2;adj
nacimiento;2;nom
métela;2;nr
multitud;2;nom
muestra;2;nom
mostrar;2;ver
morada;2;nom
montaña;2;nom
moneda;2;nom
metro;2;nom
mercado;2;nom
mayordomo;2;nom
manto;2;nom
manera;2;nom
mandato;2;nom
manantial;2;nom
luego;2;adv
losa;2;nom
lobo;2;nom
libro;2;nom
levitas;2;nr
levantaré;2;nr
lavó;2;nr
lavé;2;nr
lavarme;2;nr
lavarles;2;nr
lancha;2;nom
kilómetro;2;nom
justo;2;adj
justicia;2;nom
jesucristo;2;nr
jefe;2;nom
isaías;2;nr
intervenir;2;ver
insistir;2;ver
infecundo;2;nr
incrédulo;2;nr
incorporar;2;ver
inclinar;2;ver
hoy;2;adv
honra;2;nom
guardáis;2;nr
guardia;2;nom
grano;2;nom
glorifica;2;nr
fuerza;2;nom
faltar;2;ver
extraño;2;adj
exhaló;2;nr
estrago;2;nr
estancia;2;nom
esparcir;2;ver
enviaste;2;nr
enrollar;2;ver
enjugó;2;nr
encuentro;2;nom
encargar;2;ver
durar;2;ver
dormir;2;ver
distaban;2;nr
disponer;2;ver
digno;2;adj
devora;2;nr
detesta;2;nr
destruid;2;nr
destinar;2;ver
desnudo;2;adj
desatar;2;ver
denarios;2;nr
defensor;2;nom
decidir;2;ver
david;2;nom
cruz;2;nom
criticar;2;ver
cristo;2;nr
criar;2;ver
creyente;2;adj
creedme;2;nr
crecer;2;ver
correa;2;nom
cordero;2;nom
cordeles;2;nr
convirtáis;2;nr
convenir;2;ver
contigo;2;nr
contestar;2;ver
contemplar;2;ver
construir;2;ver
consagrar;2;ver
conoceréis;2;nr
conmover;2;ver
confiaste;2;nr
confiar;2;ver
comprendéis;2;nr
comprar;2;ver
comisteis;2;nr
claro;2;adj
ciudad;2;nom
ciento;2;adj
cena;2;nom
celo;2;nom
cebada;2;nom
caso;2;nom
campo;2;nom
cabellera;2;nom
brasas;2;nr
bolsa;2;nom
boda;2;nom
betsaida;2;nr
bebida;2;nom
bautizas;2;nr
bandido;2;nom
azote;2;nr
aun;2;adv
ató;2;nr
atrever;2;ver
atravesar;2;ver
asalariar;2;ver
arrebatará;2;nr
arrebatarlas;2;nr
arrastrar;2;ver
arder;2;ver
apoyar;2;ver
apedrear;2;nr
aparte;2;adv
anochecer;2;ver
amáis;2;nr
amaré;2;nr
amarais;2;nr
alto;2;adj
allanad;2;nr
aliento;2;nom
alegraríais;2;nr
alegrar;2;ver
aldea;2;nom
agujero;2;nom
adónde;2;nr
adulterio;2;nom
acobarde;2;nr
acción;2;nom
aborrece;2;nr
ésto;1;nr
ángel;1;nom
vuelta;1;nom
volviéndose;1;nr
viviréis;1;nr
visitar;1;ver
violar;1;ver
vientre;1;nom
vestido;1;nom
veracidad;1;nom
vencer;1;ver
valor;1;nom
valer;1;ver
vacilar;1;ver
usar;1;ver
untando;1;nr
untado;1;nr
término;1;nom
tus;1;nr
trueno;1;nr
trozo;1;nom
trescientos;1;nr
traspasar;1;ver
traicionar;1;ver
traducir;1;ver
tomándolo;1;nr
tomarse;1;ver
tirárselas;1;nr
tantearlo;1;nr
tambalee;1;nr
sígueme;1;nr
suéltame;1;nr
suyas;1;nr
suspenso;1;adj
surtidor;1;nr
suponer;1;ver
suicidar;1;ver
sueño;1;nom
sudores;1;nr
sudaron;1;nr
sudar;1;ver
soportales;1;nr
sollozó;1;nr
sollozando;1;nr
soler;1;ver
solemne;1;adj
sobraron;1;nr
sobrado;1;nr
sicar;1;nr
seña;1;nom
sepultura;1;nom
sentándose;1;nr
sentado;1;adj
sentaba;1;nr
seno;1;nom
semejante;1;adj
sembrar;1;ver
sembrador;1;nr
semblante;1;nr
segar;1;nr
secándoselos;1;nr
seco;1;adj
satanás;1;nr
sarmientos;1;nr
santifícalos;1;nr
sanedrín;1;nr
sanado;1;nr
samaritana;1;nr
salín;1;nr
salvéis;1;nr
salvador;1;adj
salvación;1;nom
salomón;1;nr
saliva;1;nom
salar|salir;1;ver
salario;1;nom
sacándoos;1;nr
saciaron;1;nr
sacad;1;nr
sabed;1;nr
rumor;1;nom
romano;1;nom
rogaré;1;nr
rodear;1;ver
robar;1;ver
revelaré;1;nr
reunir;1;ver
retires;1;nr
resucite;1;nr
resucita;1;nr
responder;1;ver
repartir;1;ver
remueve;1;nr
remado;1;nr
religioso;1;adj
redil;1;nr
recorrer;1;ver
reconocer;1;ver
recogéis;1;nr
recogeré;1;nr
recoged;1;nr
recibo;1;nom
recibisteis;1;nr
recibirlo;1;ver
rechazar;1;ver
recado;1;nom
rebaño;1;nom
realmente;1;adv
real;1;adj
raro;1;adj
quisisteis;1;nr
quebrarán;1;nr
quebraran;1;nr
públicamente;1;adv
pórtico;1;nr
pésame;1;nom
purificarse;1;nr
purificación;1;nom
purificaciones;1;nr
punto;1;nom
práctica;1;nom
prueba;1;nom
proverbio;1;nr
prostituta;1;nom
pronunciar;1;ver
pronunciado;1;adj
proféticamente;1;nr
profundo;1;adv
prodigios;1;nr
proclamarlo;1;nr
procedo;1;nr
probar;1;ver
preparación;1;nom
predicación;1;nr
potestad;1;nom
potente;1;adj
posarse;1;nr
posar;1;ver
podar;1;ver
pleno;1;adj
pidas;1;nr
pesar;1;ver
persistir;1;ver
perseguirán;1;nr
perseguir;1;ver
perplejo;1;adj
permitir;1;ver
perdáis;1;nr
perdición;1;nr
pedirías;1;nr
pedid;1;nr
patria;1;nom
pasto;1;nom
pasear;1;ver
pariente;1;nom
paralíticos;1;nr
par;1;nom
oscuro;1;adj
oscurecer;1;nr
originar;1;ver
ordenar;1;ver
olivo;1;nom
oler;1;ver
ofrendar;1;ver
ofrecer;1;ver
novio;1;nom
notar;1;ver
negar;1;ver
natural;1;adj
nardo;1;nr
muestres;1;nr
muchedumbre;1;nom
muchacho;1;nom
movimiento;1;nom
mostraré;1;nr
morir|murar;1;ver
momento;1;nom
mirarán;1;nr
milagro;1;nom
mil;1;adj
meta;1;nom
mes;1;nom
mensajeros;1;nr
menguar;1;nr
mejoría;1;nom
medida;1;nom
mantenéis;1;nr
maldito;1;adj
magistrado;1;nom
líbrame;1;nr
lámpara;1;nom
luchar;1;ver
lloras;1;nr
lloraréis;1;nr
llevádselo;1;nr
lleno;1;adj
llenad;1;nr
llamada;1;nom
litro;1;nom
limosna;1;nom
libremente;1;adv
libra;1;nom
levantéis;1;nr
levantad;1;nr
legítimo;1;adj
lección;1;nom
lavase;1;nr
lavarte;1;nr
lavaros;1;nr
lanzar;1;ver
lamentaréis;1;nr
labrador;1;adj
joven;1;adj
jofaina;1;nr
ir|ser;1;ver
ira;1;nr
invitado;1;nom
invierno;1;nom
instante;1;nom
inmediatamente;1;adv
impulso;1;nom
improperios;1;nr
importasen;1;nr
importar;1;ver
impedir;1;ver
humano;1;adj
huirán;1;nr
huir;1;ver
hueso;1;nom
hortelano;1;nr
honren;1;nr
honran;1;nr
hondo;1;adj
hierba;1;nom
hebreo;1;adj
haríais;1;nr
haciéndose;1;ver
hacerlo;1;ver
hacerlas;1;ver
hablándoos;1;nr
haberse;1;ver
guárdalos;1;nr
guiará;1;nr
guardaréis;1;nr
guardarán;1;nr
griego;1;nom
gozo;1;nom
gozar;1;ver
glorifícame;1;nr
glorifique;1;nr
glorificarlo;1;nr
glorificara;1;nr
ganar;1;ver
gana;1;nom
gallo;1;nom
galileos;1;nr
galileo;1;nr
fundación;1;nom
funcionario;1;nom
fuerte;1;adj
fuego;1;nom
franco;1;adv
fragancia;1;nom
flagrante;1;adj
fijar;1;ver
fiebre;1;nom
familia;1;nom
falta;1;nom
fallar;1;ver
extremo;1;nom
extrañes;1;nr
extrañaban;1;nr
extenderás;1;nr
expulsar;1;ver
exponer;1;ver
explicar;1;ver
excluir;1;ver
exclamar;1;ver
estudiáis;1;nr
estudiar;1;ver
estimar;1;ver
esperanza;1;nom
escupir;1;ver
escriba;1;nom
esconder;1;ver
escoger;1;ver
escabulló;1;nr
escabullendo;1;nr
enón;1;nr
envolver;1;ver
enviasteis;1;nr
entristeció;1;nr
entretanto;1;adv
enterrar;1;ver
entero;1;adj
enterase;1;nr
enfermedad;1;nom
endemoniado;1;nr
encrespando;1;nr
encontréis;1;nr
encomendaste;1;nr
encargo;1;nom
empecatado;1;nr
embustero;1;nr
embaucar;1;nr
ejemplo;1;nom
efraín;1;nr
dínoslo;1;nr
dárselos;1;nr
duro;1;adj
dueño;1;nom
dorar;1;ver
don;1;nom
distaba;1;nr
disputar;1;ver
disperséis;1;nr
dispersos;1;nr
disperso;1;adj
discutir;1;ver
discusión;1;nom
discurso;1;nom
discordia;1;nom
diablo;1;nom
determinar;1;ver
detenerlo;1;ver
destruir;1;ver
deseáis;1;nr
deseo;1;nom
desear;1;ver
deprisa;1;adv
depender;1;ver
dedicación;1;nom
darás;1;nr
dar|decir;1;ver
darle;1;ver
cárcel;1;nom
cántaro;1;nom
custodiar;1;ver
cumplís;1;nr
cumplirse;1;ver
cubo;1;nom
crucificar;1;ver
criado;1;nom
creyerais;1;nr
creeríais;1;nr
creeréis;1;nr
creerán;1;nr
costoso;1;adj
cosecha;1;nom
coronar;1;ver
convocar;1;ver
convicto;1;adj
conversación;1;nom
convencer;1;ver
contemplen;1;nr
contemplad;1;nr
contar;1;ver
consolándola;1;nr
consistir;1;ver
consagro;1;nr
consagren;1;nr
conque;1;nr
confiésalo;1;nr
condenación;1;nr
comprometerlo;1;nr
comprendáis;1;nr
compraremos;1;nr
completo;1;adj
completamente;1;adv
compartir;1;ver
cometer;1;ver
comenzar;1;ver
comensal;1;nom
colocándola;1;nr
colocar;1;ver
colmar;1;ver
cojos;1;nr
cleofás;1;nr
claramente;1;adv
ceñías;1;nr
ceñirá;1;nr
ceñir;1;ver
ceñida;1;nr
certifica;1;nr
cenáculo;1;nr
cefas;1;nr
cavidad;1;nom
carnal;1;nr
cargar;1;ver
cara;1;nom
cantar;1;ver
cansar;1;ver
canasta;1;nom
campamento;1;nom
calma;1;nom
caifás;1;nr
cafarnaúm;1;nr
cabida;1;nom
caber;1;ver
cabecera;1;nom
buscaréis;1;nr
brillar;1;ver
brillaba;1;nr
bordo;1;nom
blasfemia;1;nom
blasfema;1;nr
blanco;1;adj
betesda;1;nr
belén;1;nr
bebieron;1;nr
bebidos;1;nr
bañar;1;ver
barullo;1;nom
bajase;1;nr
avisara;1;nr
averiguase;1;nr
averiguar;1;ver
auténtico;1;adj
atrás;1;adv
atraeré;1;nr
atraer;1;ver
atender;1;ver
atar;1;ver
asustar;1;ver
asombro;1;nom
asir|asistir;1;ver
arrancar;1;ver
arca;1;nom
apuro;1;nom
aprovechar;1;ver
aprisco;1;nr
apenas;1;adv
apedreáis;1;nr
apedrearte;1;nr
apedreamos;1;nr
amaríais;1;nr
amaría;1;nr
amaos;1;nr
amabas;1;nr
alumbrar;1;ver
aludir;1;ver
almacenando;1;nr
alma;1;nom
allá;1;adv
alejar;1;ver
alegre;1;adj
alegrará;1;nr
alegran;1;nr
alcanzar;1;ver
aguardar;1;ver
agradar;1;ver
agitar;1;ver
agarrar;1;ver
afuera;1;adv
afirmación;1;nom
adúlteras;1;nr
adquirir;1;ver
adorarán;1;nr
adoramos;1;nr
adivinando;1;nr
adelante;1;adv
acusador;1;nom
actúo;1;nr
actuar;1;ver
acosaban;1;nr
acompañarte;1;nr
acampó;1;nr
abandonar;1;ver
abajo;1;adv