el;1503;art_def
que;810;con
y;647;con
de;533;pre
yo;484;pro_per
a;479;pre
en;406;pre
haber;381;ver_sup
no;373;pre
él;345;pro_per
ser;337;ver_sup
decir;200;ver
se;194;sw
jesús;185;nom
al;183;sw
padre;180;nom
suyo;165;pron
tú;162;pro_per
estar;157;ver_sup
os;153;nr
este;150;pro_dem
para;140;pre
mío;139;pro_pos
por;134;pre
ver;129;ver
del;129;sw
dar;127;ver
un;118;art_def
porque;108;con
dios;100;nom
aquel;97;pro_dem
discípulo;95;nom
mundo;93;nom
si;90;con
vosotros;87;pro_per
tener;84;ver_sup
hijo;84;nom
hacer;84;ver
ir;83;ver
con;81;pre
tiempo;75;nom
venir;71;ver
todo;71;adj_ind
sino;67;con
pero;67;con
vida;63;nom
crear|creer;63;ver
enviar;61;ver
saber;60;ver
otro;59;adj_ind
también;57;adv_sup
cuando;54;con
conocer;54;ver
señor;50;nom
judío;50;nom
pan;48;nom
hombre;48;nom
quien;47;pro_rel
hablar;46;ver
palabra;45;nom
como;43;con
ya;42;adv
poder;42;ver_sup
mismo;39;adj
dicho;39;adj_ind
llegar;38;ver
testimonio;37;nom
qué;36;pro
querer;36;ver
día;36;nom
verdad;34;nom
nadie;34;nom
ahora;34;adv
cielo;33;nom
asegurar;33;ver
uno;32;nom
ni;32;con
obra;29;nom
nosotros;29;pro_per
más;29;adv
entonces;29;adv_sup
quedar;28;ver
mucho;28;adj_ind
luz;28;nom
creer;28;ver
preguntar;27;ver
pedro;27;nom
nombre;26;nom
llamar;26;ver
juan;26;nom
donde;26;adv_sup
eterno;25;adj
echar;25;ver
comer;25;ver
así;25;adv
pues;24;con
morir;24;ver
mano;24;nom
allí;24;adv
seguir;23;ver
salir;23;ver
oír;23;ver
cómo;23;adv
simón;22;nr
poner;22;ver
ese;22;pro_dem
dónde;22;adv
agua;22;nom
oveja;21;nom
hora;21;nom
vuestro;20;nr
quién;20;pro
antes;20;adv_sup
templo;19;nom
tanto;19;adj
siempre;19;adv
mis;19;nr
espíritu;19;nom
nacer;18;ver
llevar;18;ver
escribir;18;ver
encontrar;18;ver
casa;18;nom
carne;18;nom
voz;17;nom
vivir;17;ver
vez;17;nom
subir;17;ver
sepulcro;17;nom
ojo;17;nom
gente;17;nom
entre;17;pre
bajar;17;ver
amar;17;ver
sobre;16;pre
signo;16;nom
recibir;16;ver
pie;16;nom
muerto;16;adj
maría;16;nom
hecho;16;nom
guardar;16;ver
volver;15;ver
profeta;15;nom
hermano;15;nom
galilea;15;nr
ciego;15;adj
ama;15;nom
ése;14;nr
tierra;14;nom
pasar;14;ver
mujer;14;nom
mesías;14;nr
medio;14;nom
junto;14;adj
jerusalén;14;nom
hasta;14;pre
grande;14;adj
gloria;14;nom
fruto;14;nom
felipe;14;nom
escuchar;14;ver
entregar;14;ver
entrar;14;ver
camino;14;nom
alegría;14;nom
vino;13;nom
verdadero;13;adj_sup
tomar;13;ver
saber|ser;13;ver
primero;13;adj
nada;13;adj_ind
glorificado;13;nr
dejar;13;ver
aquí;13;adv
sin;12;pre
pecado;12;nom
moisés;12;nr
único;11;adj
vuestra;11;nr
vengar|venir;11;ver
todavía;11;adv
sitio;11;nom
poco;11;adv
pedir;11;ver
maestro;11;nom
levantar;11;ver
fiesta;11;nom
escritura;11;nom
dentro;11;adv_sup
amor;11;nom
acercar;11;ver
sangre;10;nom
nuestro;10;pro_pos
ninguno;10;adj_ind
mientras;10;con
madre;10;nom
lázaro;10;nr
juzgar;10;ver
fariseos;10;nr
dos;10;nom
desierto;10;nom
cuenta;10;nom
condenar;10;ver
bueno;10;adj
beber;10;ver
andar;10;ver
acerca;10;adv
abrahán;10;nr
traer;9;ver
solo;9;adj
sacerdote;9;nom
puerta;9;nom
pez;9;nom
orilla;9;nom
mandamiento;9;nom
lago;9;nom
enseñar;9;ver
costado;9;nom
amigo;9;nom
abierto;9;adj
último;8;adj
voluntad;8;nom
vivo;8;adj
tres;8;adj
tomás;8;nom
sólo;8;adv
sábado;8;nom
suelo;8;nom
sacar;8;ver
resucitar;8;ver
red;8;nom
pueblo;8;nom
podar|poder;8;ver
oído;8;nom
o;8;con
nuevo;8;adj
nicodemo;8;nr
mandar;8;ver
ley;8;nom
fe;8;nom
erar|ser;8;ver
entender;8;ver
enfermo;8;nom
desde;8;pre
dar|distar;8;ver
culto;8;adj
creed;8;nr
conmigo;8;nr
cambio;8;nom
barca;8;nom
aunque;8;con
algo;8;adj_ind
acudir;8;ver
vendar|vender;7;ver
suceder;7;ver
propio;7;adj
permanecer;7;ver
pascua;7;nom
natanael;7;nr
muerte;7;nom
matar;7;ver
marta;7;nom
llenar;7;ver
lado;7;nom
judas;7;nr
gracia;7;nom
elevar;7;ver
crear;7;ver
cosa;7;nom
correr;7;ver
cerca;7;adv
aparecer;7;ver
alguno;7;adj_ind
adonde;7;adv
acordar;7;ver
vuestros;6;nr
vi;6;nr
tiniebla;6;nr
testigo;6;nom
sentar;6;ver
sed;6;nom
santo;6;adj
salvar;6;ver
rey;6;nom
rabí;6;nr
quitar;6;ver
pensar;6;ver
pastor;6;nom
nunca;6;adv
noche;6;nom
muéstranos;6;nr
modo;6;nom
meter;6;ver
higuera;6;nom
guardará;6;nr
detrás;6;adv
debajo;6;adv
cinco;6;adj
bien;6;adv_sup
bautizar;6;ver
bajo;6;adj
año;6;nom
alimento;6;nom
ahí;6;adv
aceptar;6;ver
sumos;5;nr
servir;5;ver
seis;5;adj
saltar;5;ver
resucitaré;5;nr
reino;5;nom
pescado;5;nom
perezca;5;nr
paz;5;nom
paloma;5;nom
mirar;5;ver
mesa;5;nom
mellizo;5;nr
marchar;5;ver
llorar;5;ver
juicio;5;nom
judea;5;nr
israel;5;nom
gritar;5;ver
glorificará;5;nr
existir;5;ver
encima;5;adv_sup
empezar;5;ver
embargo;5;nom
elegir;5;ver
doce;5;adj
después;5;adv
delante;5;adv
dedo;5;nom
curar;5;ver
corazón;5;nom
convertir;5;ver
coma;5;nom
coger;5;ver
cerrado;5;adj
caná;5;nr
caminar;5;ver
cama;5;nom
caer;5;ver
cada;5;adj_ind
cabeza;5;nom
buscar;5;ver
betania;5;nr
aún;5;adv
andrés;5;nom
améis;5;nr
acusar;5;ver
ángeles;4;nom
válido;4;adj
vista;4;nom
tristeza;4;nom
trabajo;4;nom
tiberíades;4;nr
tampoco;4;adv
significar;4;ver
semana;4;nom
sano;4;adj
resurrección;4;nom
realizar;4;ver
razón;4;nom
principio;4;nom
pobre;4;adj
piedra;4;nom
pidáis;4;nr
perfume;4;nom
perdonar;4;ver
perder;4;ver
pecador;4;nom
nazaret;4;nr
nación;4;nom
maná;4;nom
manifestar;4;ver
mando;4;nom
malo;4;adj
magdalena;4;nom
ladrón;4;nom
josé;4;nom
jordán;4;nr
jamás;4;adv
iscariote;4;nr
haz;4;nom
estado;4;nom
esposo;4;nom
embarcar;4;ver
elías;4;nr
dichosos;4;nr
cumplir;4;ver
cuerpo;4;nom
cuatro;4;adj
comunicar;4;ver
comparación;4;nom
comida;4;nom
clavo;4;nom
causa;4;nom
cambista;4;nom
cafarnaún;4;nr
buey;4;nom
bautizando;4;nr
bastar;4;ver
barro;4;nom
amo;4;nom
amará;4;nr
amanecer;4;ver
acabar;4;ver
abundante;4;adj
abrir;4;ver
viento;3;nom
viejo;3;adj
vid;3;nom
vender;3;ver
tiemble;3;nr
tercero;3;adj
tarde;3;adv
surgir;3;ver
sudario;3;nr
sorprender;3;ver
soplar;3;ver
siervo;3;nr
señal;3;nom
serpiente;3;nom
según;3;pre
segundo;3;adj
sarmiento;3;nr
samaría;3;nr
samaritanos;3;nr
rogar;3;ver
retirar;3;ver
recordar;3;ver
recoger;3;ver
príncipe;3;nom
proceder;3;ver
presentar;3;ver
pregunta;3;nom
plenitud;3;nom
piscina;3;nom
pierna;3;nom
pedazo;3;nom
paráclito;3;nr
parte;3;nom
ocho;3;nr
necesitar;3;ver
moriréis;3;nr
monte;3;nom
miedo;3;nom
marido;3;nom
mal;3;adj
lugar;3;nom
linaje;3;nom
limpio;3;adj
libre;3;adj
lavar;3;ver
juzgo;3;nr
jacob;3;nr
israelita;3;adj
intentar;3;ver
igual;3;adj
hambre;3;nom
hacia;3;pre
habitar;3;ver
fariseo;3;nr
esclavo;3;nom
envío;3;nom
enterar;3;ver
engaño;3;nom
derecha;3;nom
demás;3;adj_ind
deber;3;ver_sup
cuándo;3;adv
cubrir;3;ver
conocierais;3;nr
conoceríais;3;nr
condena;3;nom
conceder;3;ver
comprender;3;ver
cincuenta;3;num
cien;3;nr
celebrar;3;ver
buscáis;3;nr
asomar;3;ver
aprender;3;ver
apodar;3;ver
anunciar;3;ver
ante;3;pre
además;3;adv
adelantar;3;ver
acompañar;3;ver
acaso;3;adv
ésas;2;nr
ésa;2;nr
zebedeos;2;nr
volcar;2;ver
verse;2;ver
veraz;2;adj
vendremos;2;nr
vendedor;2;nom
vecino;2;nom
untó;2;nr
ungió;2;nr
túnica;2;nr
tuyos;2;nr
tuyo;2;nr
tropezar;2;ver
triste;2;adj
trigo;2;nom
tratáis;2;nr
tratar;2;ver
tras;2;pre
traed;2;nr
trabajad;2;nr
tocar;2;ver
toalla;2;nom
tirar;2;ver
tinajas;2;nr
superar;2;ver
sumo;2;nom
soldado;2;nom
sirvientes;2;nr
sinagoga;2;nr
siloé;2;nr
siguiente;2;adj
siervos;2;nr
siega;2;nr
servirme;2;nr
servidor;2;nom
sentar|sentir;2;ver
sellar;2;ver
segador;2;nr
sandalia;2;nr
saciaros;2;nr
ruido;2;nom
romper;2;ver
rogaban;2;nr
retengáis;2;nr
retener;2;ver
respuesta;2;nom
repleto;2;adj
remolcando;2;nr
región;2;nom
referir;2;ver
recuperar;2;ver
recibiréis;2;nr
quebrar;2;ver
pronto;2;adv
prepararos;2;nr
preparar;2;ver
prenderlo;2;nr
premiar;2;ver
preguntádselo;2;nr
preferir;2;ver
pozo;2;nom
poseer;2;ver
pilato;2;nr
perversamente;2;nr
permanezco;2;nr
permanecéis;2;nr
permaneceréis;2;nr
permaneced;2;nr
perecerán;2;nr
perece;2;nr
perdurar;2;ver
pediréis;2;nr
pecó;2;nr
pecho;2;nom
pecar;2;ver
parecer;2;ver
oirán;2;nr
odiar;2;ver
odiado;2;nr
ocurrir;2;ver
ocupas;2;nr
ocupar;2;ver
obrar;2;ver
niño;2;nom
ningún;2;adj
necesario;2;adj
nacimiento;2;nom
métela;2;nr
multitud;2;nom
muestra;2;nom
mostrar;2;ver
morada;2;nom
montaña;2;nom
moneda;2;nom
metro;2;nom
mercado;2;nom
mayordomo;2;nom
manto;2;nom
manera;2;nom
mandato;2;nom
manantial;2;nom
luego;2;adv
losa;2;nom
lobo;2;nom
libro;2;nom
levitas;2;nr
levantaré;2;nr
lavó;2;nr
lavé;2;nr
lavarme;2;nr
lavarles;2;nr
lancha;2;nom
kilómetro;2;nom
justo;2;adj
justicia;2;nom
jesucristo;2;nr
jefe;2;nom
isaías;2;nr
intervenir;2;ver
insistir;2;ver
infecundo;2;nr
incrédulo;2;nr
incorporar;2;ver
inclinar;2;ver
hoy;2;adv
honra;2;nom
guardáis;2;nr
guardia;2;nom
grano;2;nom
glorifica;2;nr
fuerza;2;nom
faltar;2;ver
extraño;2;adj
exhaló;2;nr
estrago;2;nr
estancia;2;nom
esparcir;2;ver
enviaste;2;nr
enrollar;2;ver
enjugó;2;nr
encuentro;2;nom
encargar;2;ver
durar;2;ver
dormir;2;ver
distaban;2;nr
disponer;2;ver
digno;2;adj
devora;2;nr
detesta;2;nr
destruid;2;nr
destinar;2;ver
desnudo;2;adj
desatar;2;ver
denarios;2;nr
defensor;2;nom
decidir;2;ver
david;2;nom
cuarenta;2;num
cuanto;2;pro_rel
cruz;2;nom
criticar;2;ver
cristo;2;nr
criar;2;ver
creyente;2;adj
creedme;2;nr
crecer;2;ver
correa;2;nom
cordero;2;nom
cordeles;2;nr
convirtáis;2;nr
convenir;2;ver
contigo;2;nr
contestar;2;ver
contemplar;2;ver
construir;2;ver
consagrar;2;ver
conoceréis;2;nr
conmover;2;ver
confiaste;2;nr
confiar;2;ver
comprendéis;2;nr
comprar;2;ver
comisteis;2;nr
claro;2;adj
ciudad;2;nom
ciento;2;adj
cena;2;nom
celo;2;nom
cebada;2;nom
caso;2;nom
campo;2;nom
cabellera;2;nom
brasas;2;nr
bolsa;2;nom
boda;2;nom
betsaida;2;nr
bebida;2;nom
bautizas;2;nr
bandido;2;nom
azote;2;nr
aun;2;adv
ató;2;nr
atrever;2;ver
atravesar;2;ver
asalariar;2;ver
arrebatará;2;nr
arrebatarlas;2;nr
arrastrar;2;ver
arder;2;ver
apoyar;2;ver
apedrear;2;nr
aparte;2;adv
anochecer;2;ver
amáis;2;nr
amaré;2;nr
amarais;2;nr
alto;2;adj
allanad;2;nr
aliento;2;nom
alegraríais;2;nr
alegrar;2;ver
aldea;2;nom
agujero;2;nom
adónde;2;nr
adulterio;2;nom
acobarde;2;nr
acción;2;nom
aborrece;2;nr