"";"";"";"";"grec";""
"1";"grec";"0.235213508788227";"-0.0795976180599552";"1.57139896979345";"10"
"2";"circoncire";"0.112099776268626";"0.0564791879152029";"1.54603141325519";"12"
"3";"incirconcis";"0.235213508788227";"-0.0795976180599551";"1.51172353605113";"15"
"4";"mort";"0.0652897950228869";"-0.189627494128956";"1.36964108539793";"18"
"5";"aimer";"-0.171006499807638";"-0.218574436014022";"1.25916349958192";"27"
"6";"dieu";"-0.107527676586785";"0.089505522209219";"1.2466754751846";"28"
"7";"péché";"-0.129066756130591";"-0.344819758139513";"1.23508041022991";"31"
"8";"estil";"0.156676890859405";"0.0156093243165855";"1.18817992779291";"32"
"9";"remporter";"-1.5218588981847";"-9.1172065218002";"1.17142822317404";"34"
"10";"animosité";"-1.5218588981847";"-9.1172065218002";"1.17142822317404";"35"
"11";"inquiéter";"0.0866934977169184";"0.369585036460356";"1.14347832446387";"38"
"12";"usage";"0.18404177844234";"-0.11303970843002";"1.09959727846049";"41"
"13";"achoppement";"0.235213508788227";"-0.0795976180599553";"1.09547303935311";"42"
"14";"christ";"-0.132349822302616";"0.0893439790864999";"1.06497297718968";"46"
"15";"répudier";"0.0569894955026567";"0.459421567364418";"1.0501090907318";"48"
"16";"estu";"0.235213508788227";"-0.0795976180599551";"1.03621592895329";"51"
"17";"justice";"-0.113180419457166";"-0.185858781400149";"1.03566889073619";"52"
"18";"seigneur";"0.07508000705146";"0.170374497748763";"1.01732970266376";"54"
"19";"pierre";"0.0599080391956501";"-0.0363137901446065";"1.00039833353242";"57"
"20";"incirconcision";"0.163573086303985";"-0.126416544578046";"0.984724615988435";"58"
"21";"membre";"-0.131681544908957";"-0.11884618005495";"0.96465045866863";"61"
"22";"gloire";"-0.0637474443050883";"-0.055521874894441";"0.964076604852648";"62"
"23";"ressusciter";"0.218079187884718";"-0.236520154351491";"0.960502085522258";"66"
"24";"soumettre";"-0.095833962941546";"0.318714741930539";"0.95720108530042";"67"
"25";"gagner";"0.115812804647825";"-0.157629162256773";"0.950432828143702";"68"
"26";"père";"-0.201414089830166";"0.138285705577884";"0.946767135777128";"69"
"27";"noncroyant";"-0.0341262149587504";"0.578837395468495";"0.943704794385301";"71"
"28";"postérité";"-0.130613514257763";"-0.281091850423853";"0.943584124190352";"72"
"29";"paix";"-0.212725708627631";"0.169236688465828";"0.942208483967929";"73"
"30";"commettre";"0.584532820009362";"-0.363848765458904";"0.941583680514079";"74"
"31";"imputer";"-0.106225046054697";"-0.267658901599593";"0.929489845420261";"78"
"32";"oser";"0.11897579349618";"-0.0240198754146269";"0.928749734891238";"79"
"33";"rompre";"0.11897579349618";"-0.0240198754146269";"0.928749734891238";"80"
"34";"esprit";"-0.199508843731762";"0.094742387762953";"0.924772981577684";"83"
"35";"aller";"-0.217098927096956";"0.402782015965988";"0.921120697010548";"84"
"36";"jeune";"-0.0569051425741021";"0.608691352494515";"0.917141262137106";"90"
"37";"promesse";"-0.130137092180913";"-0.130952084483992";"0.912378811776436";"92"
"38";"moïse";"-0.122988603632979";"-0.313692250650408";"0.910437362417694";"94"
"39";"païen";"-0.132616640010661";"-0.100915530033535";"0.904280500915387";"100"
"40";"premièrement";"0.082370428416168";"0.0410952065588676";"0.899834474621473";"101"
"41";"affranchi";"0.0919326638197444";"-0.173235471096136";"0.899834474621473";"102"
"42";"vivre";"-0.16635484367774";"-0.0151615989026171";"0.899791569663269";"103"
"43";"siècle";"-0.22973735237996";"0.142713352521358";"0.899437603758084";"104"
"44";"veuf";"-0.0731758051564962";"0.6300156075131";"0.898193359970162";"105"
"45";"prophétiser";"-0.0731758051564962";"0.6300156075131";"0.898193359970162";"106"
"46";"convenir";"-0.0663456370110845";"0.476922266330954";"0.898193359970162";"107"
"47";"langue";"-0.177600269696526";"0.686971008574236";"0.897112691335393";"108"
"48";"israël";"-0.120616361996713";"-0.213485285518798";"0.895168560416763";"109"
"49";"charité";"-0.19948129147274";"0.367898235638652";"0.894844091670344";"110"
"50";"prendre";"0.0981298785448014";"0.534282922360888";"0.890076278189898";"111"
"51";"exhorter";"-0.179531272758876";"0.666813317609314";"0.889271810223569";"112"
"52";"seul";"0.0404980947223345";"-0.201058301701697";"0.888317174903525";"113"
"53";"travailler";"0.24857130329828";"0.223753692919995";"0.886445446101865";"117"
"54";"autorité";"-0.202033567594358";"-0.0257688626978165";"0.885520307940586";"118"
"55";"besoin";"-0.176412882720299";"0.69936611047192";"0.884029360642989";"121"
"56";"connaître";"-0.200922884352237";"0.227082373444248";"0.883506456464875";"124"
"57";"écriture";"-0.142397467041521";"-0.230709413710087";"0.881782213457043";"126"
"58";"apprendre";"-0.166020905316282";"0.691481348908668";"0.881141320643867";"127"
"59";"part";"-0.213672202640235";"0.276996757478039";"0.880771265379355";"128"
"60";"glorifier";"-0.203760891409345";"0.218227931540356";"0.878658196187797";"129"
"61";"puissance";"-0.189540462897187";"0.0962238289502458";"0.878658196187797";"130"
"62";"déshonorer";"-0.0449523483196316";"0.34077800542576";"0.877931493458213";"131"
"63";"charger";"-0.170799780650861";"0.757961137624611";"0.875914960422614";"133"
"64";"sagesse";"-0.190930801794976";"0.171819783226687";"0.875424234963153";"134"
"65";"barbare";"0.0998757456418641";"0.1995886338349";"0.874976414461896";"135"
"66";"vil";"0.0802298883988311";"-0.00549396119951742";"0.874976414461896";"136"
"67";"jour";"-0.197554765350551";"0.330115928580054";"0.874949598863019";"137"
"68";"adam";"-0.122988603632979";"-0.313692250650407";"0.873431835966544";"138"
"69";"envoyer";"-0.169816765743344";"0.586982070892628";"0.871908709950294";"140"
"70";"foi";"-0.173951339700463";"0.0459420624854453";"0.871058655465872";"141"
"71";"compagnon";"-0.170799780650861";"0.757961137624611";"0.870439215131799";"143"
"72";"propre";"0.0557131353662118";"0.312586357779447";"0.866403467500713";"147"
"73";"macédoine";"-0.170799780650861";"0.757961137624611";"0.864971514520647";"148"
"74";"timothée";"-0.25374076237221";"0.140877876181784";"0.862627831178741";"149"
"75";"fermer";"-0.171454274457403";"0.658731656837654";"0.862627831178741";"150"
"76";"éternel";"-0.218500641985541";"0.0946706574506458";"0.862528613462893";"151"
"77";"commandement";"-0.111001602891559";"-0.0957070958571571";"0.862295317752658";"152"
"78";"voir";"0.0936429897583002";"0.474452893835585";"0.862150513518719";"153"
"79";"devenir";"-0.120247333992959";"-0.214589344529881";"0.861665151179033";"154"
"80";"luimême";"0.0928178020090081";"0.177669275531919";"0.861573978142849";"155"
"81";"donnée";"-0.226053754146892";"0.181166339090311";"0.861378224271042";"156"
"82";"richesse";"-0.22973735237996";"0.142713352521358";"0.861230738477215";"157"
"83";"mortel";"-0.122988603632979";"-0.313692250650407";"0.861120794521817";"158"
"84";"impudique";"-0.122988603632979";"-0.313692250650407";"0.861120794521817";"159"
"85";"adultère";"-0.122988603632979";"-0.313692250650407";"0.861120794521817";"160"
"86";"ôter";"-0.122988603632979";"-0.313692250650407";"0.861120794521817";"161"
"87";"transgression";"-0.122988603632979";"-0.313692250650407";"0.861120794521817";"162"
"88";"incrédulité";"-0.122988603632979";"-0.313692250650407";"0.861120794521817";"163"
"89";"réjouir";"-0.154529118068467";"0.736636882606026";"0.860501354187743";"164"
"90";"vierge";"-0.0796840701894539";"0.638545309520534";"0.860251969118181";"165"
"91";"prochain";"-0.0796840701894539";"0.638545309520534";"0.860251969118181";"166"
"92";"maison";"0.45712028547279";"0.603874697156026";"0.860184930120987";"167"
"93";"offense";"-0.152101898745792";"-0.189217995239926";"0.860080349285364";"168"
"94";"paul";"-0.168928785684272";"0.596209513828036";"0.859820237976251";"169"
"95";"désirer";"-0.170799780650861";"0.757961137624611";"0.859506495469383";"170"
"96";"appeler";"-0.129075632249366";"0.151878589533792";"0.859375099034882";"171"
"97";"présent";"-0.220532556797956";"0.151537918184218";"0.857894877976836";"172"
"98";"sage";"-0.223188733298949";"0.21107421753283";"0.857894877976836";"173"
"99";"moyen";"-0.131118767302412";"0.299460135390805";"0.85699119229466";"174"
"100";"agréable";"-0.225808180931354";"0.183729871528242";"0.856664041988352";"177"
"101";"vase";"-0.0406463865096153";"0.213158684829179";"0.856639907949362";"179"
"102";"bienaimé";"-0.175333440014638";"0.710634384924361";"0.855100692573786";"180"
"103";"pur";"-0.174692223230878";"0.630063973264526";"0.855025608896928";"181"
"104";"prophétie";"-0.170799780650861";"0.757961137624611";"0.854046839537894";"186"
"105";"justifier";"-0.150376632101235";"-0.116340202416938";"0.853859130345751";"187"
"106";"vie";"-0.177515629300953";"0.0479181490222319";"0.851995446223754";"188"
"107";"lumière";"-0.225527525827882";"0.186659622885876";"0.851960585945213";"189"
"108";"reconnaître";"-0.148748591260456";"-0.0590157520759435";"0.851823826390937";"190"
"109";"joie";"-0.182561867318427";"0.574763441513283";"0.850472320207504";"191"
"110";"enseigner";"-0.168641852279881";"0.595693222233241";"0.849909192631073";"192"
"111";"gens";"-0.175711244961619";"0.706690488866007";"0.849716120319154";"193"
"112";"injustice";"-0.149119471084163";"-0.115245791188553";"0.84924148421902";"194"
"113";"trompette";"-0.122988603632979";"-0.313692250650407";"0.848817797756753";"195"
"114";"recherche";"-0.122988603632979";"-0.313692250650407";"0.848817797756753";"196"
"115";"infâme";"-0.122988603632979";"-0.313692250650407";"0.848817797756753";"197"
"116";"estàdire";"-0.122988603632979";"-0.313692250650407";"0.848817797756753";"198"
"117";"désobéissance";"-0.122988603632979";"-0.313692250650407";"0.848817797756753";"199"
"118";"cupide";"-0.122988603632979";"-0.313692250650407";"0.848817797756753";"200"
"119";"conviction";"-0.122988603632979";"-0.313692250650407";"0.848817797756753";"201"
"120";"attrister";"-0.170799780650861";"0.757961137624611";"0.848592546726181";"202"
"121";"travail";"-0.170799780650861";"0.757961137624611";"0.848592546726181";"203"
"122";"peine";"-0.170799780650861";"0.757961137624611";"0.848592546726181";"204"
"123";"cieux";"-0.22973735237996";"0.142713352521358";"0.846972884553971";"206"
"124";"tribulation";"-0.14600865795729";"0.654189241854052";"0.84683076187992";"207"
"125";"pratique";"-0.0632882515627779";"-0.274676478551999";"0.846525064052715";"209"
"126";"justification";"-0.130957133135959";"-0.135083352604571";"0.846525064052715";"210"
"127";"descendre";"-0.140780061757476";"-0.23762465012178";"0.846525064052715";"211"
"128";"cupidité";"-0.130957133135959";"-0.135083352604571";"0.846525064052715";"212"
"129";"évangile";"-0.19891898104009";"0.339919062831206";"0.846267634303489";"213"
"130";"apôtre";"-0.169376971535231";"0.543618150049357";"0.845331769902659";"216"
"131";"auprès_de";"-0.181850575350067";"0.642602177917751";"0.844843726003086";"217"
"132";"nuit";"-0.176157741717143";"0.702029520797043";"0.844353000543625";"218"
"133";"ordre";"-0.176157741717143";"0.702029520797043";"0.844353000543625";"219"
"134";"sauver";"-0.183290863208157";"0.240485571277787";"0.84350830917898";"220"
"135";"porte";"-0.170799780650861";"0.757961137624611";"0.843143617034244";"221"
"136";"enseignement";"-0.170799780650861";"0.757961137624611";"0.843143617034244";"222"
"137";"fils";"-0.166850741052459";"0.0499555139829852";"0.842634120655568";"223"
"138";"lieu";"-0.224825888069202";"0.193984001279962";"0.842593897257252";"224"
"139";"homme";"-0.193936171861335";"-0.0880170290243743";"0.842197026393863";"225"
"140";"livrer";"-0.226469310824818";"-0.568195473331071";"0.841658032856422";"226"
"141";"tite";"-0.144101648519323";"0.646206788333241";"0.84163658037732";"227"
"142";"observer";"-0.0106197438174694";"0.0855574006751302";"0.840805296812113";"228"
"143";"regarder";"-0.212296687066688";"0.159433582198357";"0.840118817480845";"229"
"144";"demeurer";"-0.182587294996681";"0.634911580603961";"0.839834572132742";"230"
"145";"user";"-0.175470711746882";"0.60448454039251";"0.839834572132742";"231"
"146";"obtenir";"-0.135527291583958";"-0.133969204332602";"0.839097143163607";"232"
"147";"combattre";"-0.176693537823771";"0.696436359114286";"0.839008651687311";"233"
"148";"édification";"-0.176693537823771";"0.696436359114286";"0.839008651687311";"234"
"149";"permettre";"-0.176693537823771";"0.696436359114286";"0.839008651687311";"235"
"150";"jérusalem";"-0.176693537823771";"0.696436359114286";"0.839008651687311";"236"
"151";"croix";"-0.187469092273761";"0.122503264286693";"0.837936027732205";"240"
"152";"miséricorde";"-0.203968599533699";"0.070244646836333";"0.837826083776806";"241"
"153";"agir";"-0.135744490917652";"0.193060546469722";"0.837788541938378";"242"
"154";"céphas";"-0.170799780650861";"0.757961137624611";"0.837697368902194";"243"
"155";"ancien";"-0.170799780650861";"0.757961137624611";"0.837697368902194";"244"
"156";"fondement";"-0.22973735237996";"0.142713352521358";"0.837488207230948";"245"
"157";"avènement";"-0.22973735237996";"0.142713352521358";"0.837488207230948";"246"
"158";"enfant";"-0.141450144101546";"0.433266609577588";"0.836769549181027";"248"
"159";"ravisseur";"-0.122988603632979";"-0.313692250650407";"0.836525527231241";"249"
"160";"incorruptibilité";"-0.122988603632979";"-0.313692250650407";"0.836525527231241";"250"
"161";"idolâtre";"-0.122988603632979";"-0.313692250650407";"0.836525527231241";"251"
"162";"accomplissement";"-0.122988603632979";"-0.313692250650407";"0.836525527231241";"252"
"163";"pécheur";"-0.0870666945366611";"-0.215049359827233";"0.836265415922128";"253"
"164";"perdre";"-0.136648939923802";"-0.00750556828611632";"0.836265415922128";"254"
"165";"honte";"-0.183429260307097";"0.626122326531057";"0.834897820379368";"256"
"166";"prier";"-0.15388991408235";"0.522724962168196";"0.834865641660714";"257"
"167";"hériter";"-0.0513481811487378";"-0.266873324132317";"0.834830781382173";"260"
"168";"opérer";"-0.144338353382375";"-0.222411130016054";"0.834830781382173";"261"
"169";"séparer";"-0.116634060290286";"0.261600951714995";"0.833857375142915";"263"
"170";"sanctifier";"-0.135954051010894";"0.452608325645843";"0.833857375142915";"264"
"171";"folie";"-0.183242266263141";"0.120482255463227";"0.83329961068626";"272"
"172";"crucifier";"-0.219062477505262";"0.0970727922041814";"0.83329961068626";"273"
"173";"ciel";"-0.219062477505262";"0.0970727922041814";"0.83329961068626";"274"
"174";"estce";"-0.169379870228892";"0.510991374567302";"0.833248661048392";"275"
"175";"donner";"-0.196266476467918";"0.338500385117404";"0.833093130574902";"276"
"176";"main";"-0.131311091178074";"0.505515144718327";"0.832886650463544";"277"
"177";"image";"-0.22973735237996";"0.142713352521358";"0.832752572469156";"278"
"178";"dessein";"-0.22973735237996";"0.142713352521358";"0.832752572469156";"279"
"179";"élu";"-0.22973735237996";"0.142713352521358";"0.832752572469156";"280"
"180";"prêchons";"-0.22973735237996";"0.142713352521358";"0.832752572469156";"281"
"181";"audessus";"-0.22973735237996";"0.142713352521358";"0.832752572469156";"282"
"182";"garder";"-0.220463218555959";"0.138768690587083";"0.832704304391176";"283"
"183";"avantage";"-0.0649308033690481";"0.171150993178129";"0.832323522887114";"285"
"184";"éphèse";"-0.170799780650861";"0.757961137624611";"0.83225648388992";"287"
"185";"soeur";"-0.170799780650861";"0.757961137624611";"0.83225648388992";"288"
"186";"sobre";"-0.170799780650861";"0.757961137624611";"0.83225648388992";"289"
"187";"persévérer";"-0.170799780650861";"0.757961137624611";"0.83225648388992";"290"
"188";"ouvrir";"-0.170799780650861";"0.757961137624611";"0.83225648388992";"291"
"189";"modèle";"-0.170799780650861";"0.757961137624611";"0.83225648388992";"292"
"190";"informer";"-0.170799780650861";"0.757961137624611";"0.83225648388992";"293"
"191";"imitateur";"-0.170799780650861";"0.757961137624611";"0.83225648388992";"294"
"192";"conduite";"-0.170799780650861";"0.757961137624611";"0.83225648388992";"295"
"193";"aspirer";"-0.170799780650861";"0.757961137624611";"0.83225648388992";"296"
"194";"apollos";"-0.170799780650861";"0.757961137624611";"0.83225648388992";"297"
"195";"régner";"-0.153900588785952";"-0.0080804523610507";"0.832039277539011";"298"
"196";"plaire";"-0.152057662805288";"0.38890192616706";"0.831830115867765";"299"
"197";"produire";"-0.163189938173263";"-0.00839000532447668";"0.830376710408597";"300"
"198";"consoler";"-0.184400758742192";"0.61598087952386";"0.830041515422626";"302"
"199";"toimême";"-0.114867588503648";"0.5725464122029";"0.829006433305949";"303"
"200";"chose";"-0.0558839432228468";"-0.0172506954423942";"0.828995707066398";"304"
"201";"résurrection";"-0.104900526767073";"-0.170329020783659";"0.828714143278183";"306"
"202";"louange";"-0.223188733298949";"0.21107421753283";"0.828690009239193";"307"
"203";"déclarer";"-0.223188733298949";"0.21107421753283";"0.828690009239193";"308"
"204";"lien";"-0.120048119470975";"0.653266293164041";"0.828421853250416";"309"
"205";"souvenir";"-0.178166977116998";"0.681055164486705";"0.828421853250416";"310"
"206";"persuader";"-0.178166977116998";"0.681055164486705";"0.828421853250416";"311"
"207";"temps";"-0.187188067530457";"0.462877417330734";"0.828368222052661";"312"
"208";"renverser";"-0.22973735237996";"0.142713352521358";"0.828019619267252";"314"
"209";"odeur";"-0.22973735237996";"0.142713352521358";"0.828019619267252";"315"
"210";"invisible";"-0.22973735237996";"0.142713352521358";"0.828019619267252";"316"
"211";"approuver";"-0.22973735237996";"0.142713352521358";"0.828019619267252";"317"
"212";"détruire";"-0.206038363756833";"0.0955902884956053";"0.827695150520832";"318"
"213";"précédemment";"-0.640798677071839";"-2.73884401055141";"0.827201743501483";"319"
"214";"simplicité";"-0.660444534314872";"-2.94392660558583";"0.827201743501483";"322"
"215";"perfection";"-0.640798677071839";"-2.73884401055141";"0.827201743501483";"324"
"216";"emporter";"-0.640798677071839";"-2.73884401055141";"0.827201743501483";"329"
"217";"déshonnête";"-0.640798677071839";"-2.73884401055141";"0.827201743501483";"330"
"218";"atteindre";"-0.624861618065878";"-3.09606180664308";"0.827201743501483";"333"
"219";"progrès";"-0.170799780650861";"0.757961137624611";"0.826820961997421";"335"
"220";"prisonnier";"-0.170799780650861";"0.757961137624611";"0.826820961997421";"336"
"221";"persécution";"-0.170799780650861";"0.757961137624611";"0.826820961997421";"337"
"222";"ouvrier";"-0.170799780650861";"0.757961137624611";"0.826820961997421";"338"
"223";"modéré";"-0.170799780650861";"0.757961137624611";"0.826820961997421";"339"
"224";"don";"-0.16704523111874";"0.202815799738678";"0.826783420158992";"340"
"225";"monde";"0.0774735679534455";"0.0599549546106817";"0.826732470521125";"341"
"226";"conduire";"-0.155436878955489";"0.0615596921831004";"0.826657386844267";"342"
"227";"condamner";"-0.171510762154334";"-0.106235158299605";"0.826657386844267";"343"
"228";"soin";"-0.153914610208419";"0.666582402088266";"0.82640263865493";"345"
"229";"créer";"-0.219021430247397";"0.254576586176495";"0.826268560660541";"346"
"230";"plutôt";"-0.0785562497272472";"0.184405038313163";"0.826233700382";"347"
"231";"atil";"-0.0953955559355612";"0.00861995685509034";"0.826233700382";"348"
"232";"intelligence";"-0.333808044787414";"-0.559268503075317";"0.825893142276254";"352"
"233";"promettre";"-0.158571519881973";"-0.161557049593152";"0.825702751524223";"353"
"234";"plaisir";"-0.373925110849428";"-1.70487702864675";"0.825702751524223";"354"
"235";"passion";"-0.148748591260456";"-0.0590157520759435";"0.825702751524223";"355"
"236";"haut";"-0.148748591260456";"-0.0590157520759435";"0.825702751524223";"356"
"237";"condamnation";"-0.13892566263894";"0.0435255454412654";"0.825702751524223";"357"
"238";"piété";"-0.414123403148336";"-1.44165623091004";"0.825367556538253";"358"
"239";"corps";"0.145076863922633";"-0.0233816509671837";"0.825048450911608";"359"
"240";"bonté";"-0.21613637428863";"0.284693610622109";"0.824732026844852";"360"
"241";"nousmêmes";"-0.2124585914411";"0.202258734600953";"0.824732026844852";"361"
"242";"pied";"-0.193896496394633";"0.182301879376741";"0.824117949630554";"362"
"243";"considérer";"-0.222370155913823";"0.219619325659265";"0.824117949630554";"363"
"244";"domination";"-0.193896496394633";"0.182301879376741";"0.824117949630554";"364"
"245";"cacher";"-0.222370155913823";"0.219619325659265";"0.824117949630554";"365"
"246";"attendre";"-0.222370155913823";"0.219619325659265";"0.824117949630554";"366"
"247";"différence";"0.0208218839703077";"0.174179100608607";"0.824072363112462";"367"
"248";"surprendre";"-0.114515879176055";"0.453365352503462";"0.824072363112462";"368"
"249";"échapper";"-0.0629959039211003";"-0.0559876446454655";"0.824072363112462";"369"
"250";"soumission";"-0.0948700219330217";"0.65844794753788";"0.824072363112462";"370"
"251";"marque";"-0.0948700219330217";"0.65844794753788";"0.824072363112462";"371"
"252";"diacre";"-0.0948700219330217";"0.65844794753788";"0.824072363112462";"372"
"253";"gratuitement";"2.69514429668192";"-0.246404962815638";"0.824024095034482";"377"
"254";"bénédiction";"2.69514429668192";"-0.246404962815638";"0.824024095034482";"378"
"255";"avonsnous";"2.68319150242744";"0.021508384253117";"0.824024095034482";"379"
"256";"parole";"-0.204485347530392";"0.200729068027111";"0.824021413474595";"380"
"257";"mettre";"-0.176174481143614";"0.13700316940541";"0.823949011357625";"381"
"258";"oeil";"-0.210833254784342";"0.235335869330558";"0.823723760327053";"382"
"259";"trouver";"-0.27898157312261";"-0.641811043962284";"0.82364331353042";"383"
"260";"passager";"-0.149675790819724";"-0.199590849857466";"0.823452922778389";"384"
"261";"destiner";"-0.149675790819724";"-0.199590849857466";"0.823452922778389";"385"
"262";"épreuve";"-0.22973735237996";"0.142713352521358";"0.823292029185123";"386"
"263";"sanctification";"-0.22973735237996";"0.142713352521358";"0.823292029185123";"387"
"264";"reposer";"-0.22973735237996";"0.142713352521358";"0.823292029185123";"388"
"265";"puissant";"-0.22973735237996";"0.142713352521358";"0.823292029185123";"389"
"266";"fonder";"-0.22973735237996";"0.142713352521358";"0.823292029185123";"390"
"267";"créature";"-0.22973735237996";"0.142713352521358";"0.823292029185123";"391"
"268";"espérance";"-0.203430256430156";"0.327575130089801";"0.822860298043193";"392"
"269";"connaissance";"0.490377951183095";"0.211363090742625";"0.822648454812059";"393"
"270";"espèce";"-0.395700833725416";"-1.5395049790952";"0.822463427179803";"394"
"271";"effet";"-0.17493973212397";"-0.00295385364326591";"0.822326667625528";"395"
"272";"cause";"-0.178438362504598";"0.181988126119369";"0.822305215146425";"396"
"273";"fin";"-0.171451513695711";"-0.0342188003059203";"0.822267673307997";"397"
"274";"manifester";"-0.198843593296386";"0.123744454236616";"0.822240857709119";"398"
"275";"marcher";"-0.242496765519844";"-0.150038772507848";"0.822200634310803";"399"
"276";"parent";"-0.135753000117523";"0.494394946806256";"0.821994154199445";"400"
"277";"instruction";"-0.150815392888076";"0.479954748448848";"0.821994154199445";"401"
"278";"persécuter";"-0.113499637087914";"0.0871356098760297";"0.821806445007301";"402"
"279";"confier";"-0.0840308512233639";"0.394759502427656";"0.821806445007301";"403"
"280";"honneur";"-0.113090280046376";"0.408653938088988";"0.821280859269299";"404"
"281";"réconcilier";"-0.188776374111015";"0.187957383213224";"0.819594158099895";"405"
"282";"iniquité";"-0.168738067381685";"-0.118089849291079";"0.819344773030333";"407"
"283";"empressement";"-0.0938968626820728";"-0.061956018645088";"0.819344773030333";"408"
"284";"vousmêmes";"-0.157249587171675";"0.212206807116384";"0.819234829074935";"409"
"285";"source";"-0.523298952966594";"-1.86464272350741";"0.819092706400883";"410"
"286";"renoncer";"-0.538033345898869";"-2.01845466978322";"0.819092706400883";"412"
"287";"profession";"-0.48108602686049";"-2.09308956234827";"0.819092706400883";"413"
"288";"inimitié";"-0.526080551644399";"-2.28636801685197";"0.819092706400883";"414"
"289";"avancer";"-0.511346158712124";"-2.13255607057616";"0.819092706400883";"416"
"290";"tenir";"-0.106769081543997";"0.298393509648817";"0.818341869632309";"417"
"291";"motif";"2.11239324581178";"0.168798934927416";"0.818186339158819";"420"
"292";"mauvais";"-0.398281580908838";"-1.12484020330781";"0.817934272529369";"422"
"293";"bénir";"1.06366142812208";"-0.0985889859732238";"0.817738518657562";"423"
"294";"évident";"-0.116634060290286";"0.261600951714995";"0.816757067738641";"424"
"295";"pleinement";"-0.113852461612482";"0.683326245059563";"0.816757067738641";"425"
"296";"ordonner";"-0.128586854544756";"0.52951429878375";"0.816757067738641";"426"
"297";"occuper";"-0.113852461612482";"0.683326245059563";"0.816757067738641";"427"
"298";"instruit";"-0.158055640409306";"0.221890406232123";"0.816757067738641";"428"
"299";"fille";"-0.128586854544756";"0.52951429878375";"0.816757067738641";"429"
"300";"enfantement";"-0.113852461612482";"0.683326245059563";"0.816757067738641";"430"
"301";"dépendre";"-0.158055640409306";"0.221890406232123";"0.816757067738641";"431"
"302";"douleur";"-0.113852461612482";"0.683326245059563";"0.816757067738641";"432"
"303";"convenable";"-0.113852461612482";"0.683326245059563";"0.816757067738641";"433"
"304";"ardent";"-0.128586854544756";"0.52951429878375";"0.816757067738641";"434"
"305";"anathème";"-0.116634060290286";"0.261600951714995";"0.816757067738641";"435"
"306";"ennemi";"0.833855974551631";"0.001215783307905";"0.8167222074601";"436"
"307";"nombre";"-0.141783566239165";"0.0382954180978074";"0.816153716763894";"437"
"308";"naturel";"-0.0391708157415708";"-0.0835255053963349";"0.815998186290403";"438"
"309";"confus";"-0.0195249584985377";"0.121557089638083";"0.815998186290403";"439"
"310";"bonheur";"-0.0195249584985377";"0.121557089638083";"0.815998186290403";"440"
"311";"vertu";"-0.0747537319905646";"0.0686096956609202";"0.815998186290403";"441"
"312";"utilité";"-0.0551078747475315";"0.273692290695338";"0.815998186290403";"442"
"313";"suisje";"-0.0391708157415708";"-0.0835255053963349";"0.815998186290403";"443"
"314";"prouver";"-0.0391708157415708";"-0.0835255053963349";"0.815998186290403";"444"
"315";"prescrire";"-0.0354620175044984";"0.478774885729756";"0.815998186290403";"445"
"316";"parfaire";"-0.0747537319905646";"0.0686096956609202";"0.815998186290403";"446"
"317";"légitime";"-0.0354620175044984";"0.478774885729756";"0.815998186290403";"447"
"318";"injuste";"-0.0195249584985377";"0.121557089638083";"0.815998186290403";"448"
"319";"ignorant";"-0.0747537319905646";"0.0686096956609202";"0.815998186290403";"449"
"320";"dégager";"-0.0195249584985377";"0.121557089638083";"0.815998186290403";"450"
"321";"consister";"-0.0747537319905646";"0.0686096956609202";"0.815998186290403";"451"
"322";"complaire";"-0.0551078747475315";"0.273692290695338";"0.815998186290403";"452"
"323";"comparer";"-0.0551078747475315";"0.273692290695338";"0.815998186290403";"453"
"324";"liberté";"-0.102497276579985";"0.29870971212922";"0.815593270747351";"454"
"325";"méchant";"-0.39517148930727";"-1.75373281645922";"0.814257853923244";"456"
"326";"écouter";"-0.385891513523348";"-1.49111098596739";"0.814257853923244";"457"
"327";"vocation";"-0.476374147195088";"-1.5862210653223";"0.814257853923244";"458"
"328";"science";"-0.476374147195088";"-1.5862210653223";"0.814257853923244";"459"
"329";"pureté";"-0.464586632849268";"-1.46317150830165";"0.814257853923244";"460"
"330";"humilité";"-0.476374147195088";"-1.5862210653223";"0.814257853923244";"461"
"331";"raison";"1.22533627568484";"-0.128751778285046";"0.813657184508385";"464"
"332";"quelqu";"0.737523169871201";"0.266413867411287";"0.813195956207689";"465"
"333";"nombreux";"-0.125241925420157";"0.698253223572573";"0.813029699494648";"466"
"334";"supérieur";"-0.127467204362401";"0.360872988896918";"0.812399532921023";"467"
"335";"baptême";"-0.151042233054041";"0.114773874855617";"0.812399532921023";"468"
"336";"diriger";"-0.14667810859023";"0.627420086858405";"0.812171600330563";"469"
"337";"habiter";"-0.167420513410416";"0.108774634997965";"0.811090931695794";"470"
"338";"visible";"-0.113499637087914";"0.0871356098760297";"0.810742328910385";"471"
"339";"sceau";"-0.113499637087914";"0.0871356098760297";"0.810742328910385";"472"
"340";"ordonnance";"-0.113499637087914";"0.0871356098760297";"0.810742328910385";"473"
"341";"invoquer";"-0.0868124499011682";"-0.0269657909169117";"0.810742328910385";"474"
"342";"efforcer";"-0.0987652441556388";"0.240947556151843";"0.810742328910385";"475"
"343";"sujet";"0.00416615833133779";"-0.0678088419861607";"0.810559982838017";"476"
"344";"maître";"-0.144605472570447";"0.250491922840368";"0.809991492141811";"477"
"345";"élevé";"-0.144512229031994";"0.324513049500991";"0.80952490072134";"478"
"346";"posséder";"-0.334899255290296";"-0.78261596685367";"0.809374733367625";"479"
"347";"peuple";"0.675615767826795";"0.200073021531631";"0.809369370247849";"480"
"348";"annoncer";"0.242484798344166";"0.254601945456215";"0.809101214259073";"481"
"349";"rester";"-0.174106934034172";"0.457145353785075";"0.808760656153327";"482"
"350";"signe";"-0.113172151454683";"0.344350272446397";"0.807637082560353";"483"
"351";"former";"-0.120373473629388";"0.0839862457405784";"0.807583451362598";"484"
"352";"spirituel";"0.436607895114095";"0.227144778308485";"0.807513730805516";"485"
"353";"âme";"-0.0818460419535198";"0.354675494864178";"0.807494959886302";"486"
"354";"faiblesse";"0.751061861177358";"0.204852993949153";"0.806505464287717";"488"
"355";"tirer";"-0.164427710530083";"0.489925771928367";"0.805993286349154";"489"
"356";"rebelle";"-0.113676049350198";"0.385230927467796";"0.805993286349154";"490"
"357";"changer";"-0.106839697314752";"0.0560676205510928";"0.805607141725316";"491"
"358";"sainteté";"-0.167608250479329";"0.144840551810556";"0.804842897157303";"492"
"359";"instruire";"-0.159823365319294";"0.400634880530725";"0.804842897157303";"493"
"360";"partie";"-0.129637188367877";"0.462524805354458";"0.804609601447067";"494"
"361";"manière";"0.115236489357734";"-0.257950813574631";"0.803488709413982";"496"
"362";"concerner";"0.41897775792768";"0.239421248733529";"0.801665248690302";"497"
