"";"Valeurs propres";"Pourcentages";"Pourcentage cumules"
"facteur 1";0,432107959841497;19,9537956635661;19,9537956635661
"facteur 2";0,415680408386087;19,1952074507635;39,1490031143296
"facteur 3";0,393051286819214;18,1502443633975;57,2992474777271
"facteur 4";0,343609965511578;15,8671528344399;73,166400312167
"facteur 5";0,304526614832533;14,0623696187286;87,2287699308956
"facteur 6";0,276566436926257;12,7712300691044;100
