dieu;4;4;9;301;81;4;90
christ;2;3;8;208;58;3;65
seigneur;6;2;3;153;11;6;64
jésus;0;1;1;137;16;0;36
homme;0;4;11;81;33;2;28
chose;2;4;2;72;20;8;39
esprit;0;1;3;87;23;1;22
foi;0;2;5;32;45;0;45
frère;2;0;2;21;7;3;93
loi;0;1;10;5;77;1;2
mort;2;0;2;25;77;0;4
corps;2;1;4;24;24;6;16
donner;0;0;0;48;7;1;33
chair;0;2;8;41;18;0;6
rendre;0;0;1;42;12;1;26
oeuvre;0;1;0;33;18;2;26
femme;2;1;7;8;7;39;8
parole;0;1;1;40;6;2;26
saint;0;0;0;37;2;1;33
péché;0;1;4;7;51;2;1
gloire;1;1;1;57;9;0;2
seul;1;1;3;18;27;3;5
connaître;0;0;1;46;6;0;14
venir;1;0;2;36;18;0;13
évangile;0;0;1;40;2;0;23
cause;0;0;1;32;12;2;12
père;0;0;2;49;5;0;4
recevoir;0;0;2;25;5;0;27
parler;0;0;1;11;2;1;41
justice;0;0;5;12;35;0;0
église;0;0;1;9;0;5;44
enfant;0;0;2;15;3;6;23
coeur;0;1;1;34;6;0;16
vie;0;0;0;24;22;0;8
écrire;0;0;4;22;16;0;14
part;0;0;0;35;1;0;11
voir;1;0;2;9;3;0;30
vivre;0;0;0;16;24;0;6
vérité;0;2;0;25;5;0;14
propre;1;1;0;6;4;4;32
monde;1;0;0;26;11;2;4
jour;0;1;1;9;4;0;33
sujet;1;2;0;15;7;0;22
effet;0;1;2;11;16;1;16
paix;0;0;1;39;1;0;3
glorifier;0;0;1;32;2;0;7
mettre;0;0;2;25;9;0;7
manger;28;0;1;4;2;0;5
charité;0;1;1;7;2;0;33
sorte;0;0;0;18;10;0;16
prendre;1;0;1;7;2;0;32
devenir;0;1;8;10;16;0;6
quelqu;3;0;3;10;3;1;19
puissance;0;0;2;32;6;0;2
païen;0;1;10;22;4;0;5
appeler;0;0;8;27;2;0;5
ressusciter;1;0;0;8;22;0;0
luimême;1;0;0;29;2;3;5
saluer;0;0;0;0;0;0;41
fils;0;0;3;24;7;0;1
temps;0;0;0;13;3;0;22
grand;0;2;2;10;2;0;22
espérance;0;0;0;21;2;0;12
don;0;0;0;9;14;0;14
seulement;0;0;3;16;1;0;17
mari;0;1;1;0;2;26;1
aimer;0;2;0;10;2;14;5
aller;0;1;0;3;0;0;29
manière;1;2;2;12;1;1;13
amour;0;0;0;19;3;0;10
connaissance;2;0;0;20;1;0;10
sauver;0;0;1;22;1;2;5
apôtre;0;0;1;7;1;0;20
volonté;0;0;0;13;0;0;18
siècle;0;0;0;21;0;0;0
sagesse;0;0;2;23;0;0;2
membre;0;0;0;0;18;0;4
vain;0;9;0;7;5;0;6
paul;0;0;1;6;0;0;21
juif;0;0;19;3;0;0;3
chercher;0;2;4;3;16;0;2
agir;0;0;0;2;12;2;10
égard;0;1;2;16;2;0;7
nom;0;0;0;22;0;0;4
joie;0;0;0;6;1;0;19
exhorter;0;0;0;4;0;0;23
esclave;0;0;15;1;5;1;1
circoncire;0;0;18;4;0;0;3
annoncer;1;0;0;14;2;0;9
rester;0;0;0;10;1;2;13
prier;0;0;0;8;0;4;14
langue;0;0;0;3;0;0;23
juger;0;0;0;13;5;0;8
garder;0;1;1;5;1;0;16
servir;0;1;2;12;1;1;7
miséricorde;0;0;0;17;5;0;1
milieu;0;1;0;11;1;0;11
marcher;0;1;1;16;2;0;5
fidèle;0;0;0;3;0;1;22
envoyer;0;0;0;2;3;0;21
lettre;0;0;2;5;4;0;14
apprendre;0;0;0;2;0;1;20
travailler;1;1;0;1;0;0;21
quelquesuns;1;6;1;4;5;0;5
prière;0;0;0;0;1;0;23
manifester;0;0;0;15;5;0;3
entendre;0;0;0;12;0;0;11
spirituel;1;0;0;10;1;0;6
promesse;0;0;1;4;16;0;2
livrer;0;1;0;7;10;1;0
justifier;0;0;1;9;12;0;0
faible;6;0;2;5;3;0;4
colère;0;3;1;13;2;0;2
trouver;0;2;0;0;9;0;10
serviteur;0;1;2;12;0;0;6
intelligence;0;2;0;15;0;0;5
vivant;0;1;0;9;6;2;3
soumettre;0;0;0;4;3;6;4
pensée;0;3;0;16;0;0;2
moimême;0;1;1;0;7;1;10
marier;0;0;0;0;1;14;4
conscience;3;0;0;6;1;0;11
besoin;0;0;0;2;0;0;19
autorité;0;1;0;7;0;5;7
éternel;0;0;0;17;2;0;0
terre;0;0;0;12;4;0;2
regarder;0;0;0;15;2;0;2
présent;0;0;0;16;1;0;1
mystère;0;0;0;12;1;0;6
mourir;1;0;1;1;14;1;0
maison;1;0;0;0;0;2;16
main;0;0;2;2;2;0;14
estce;0;0;0;2;3;0;13
enseigner;0;0;0;1;2;0;14
crainte;0;0;1;6;0;0;12
concerner;1;0;0;7;3;0;8
sage;0;0;0;16;0;0;2
pur;0;0;0;2;1;0;15
ministère;0;0;0;7;5;0;5
habiter;0;0;0;10;4;2;1
boire;16;0;0;1;0;0;0
action;0;0;0;7;1;0;11
abraham;0;0;2;0;16;0;0
réjouir;0;0;0;0;0;1;13
plaire;0;0;0;7;1;3;6
contraire;0;0;1;8;4;1;3
arriver;0;0;0;4;2;0;11
éprouver;1;0;0;0;0;0;16
timothée;0;1;0;1;0;0;15
supporter;0;0;0;6;0;0;9
prêcher;0;1;1;10;1;0;2
obtenir;0;0;1;5;8;0;0
nouveau;0;2;0;8;1;0;6
laisser;0;0;0;1;4;0;10
israël;0;0;1;3;12;0;0
honneur;0;0;3;5;0;0;8
fois;2;0;1;1;1;0;8
fermer;0;0;0;1;1;0;15
détruire;0;0;0;12;3;0;1
digne;0;1;0;11;0;0;5
demeurer;0;0;0;3;0;0;12
commettre;1;0;0;1;14;0;0
vousmêmes;0;0;0;2;7;0;7
user;0;0;0;2;1;0;12
souffrir;0;0;0;8;2;0;3
remplir;0;0;0;9;1;0;6
premier;0;0;0;8;5;0;2
plutôt;0;0;3;2;4;0;5
obéir;0;0;0;7;3;0;4
lumière;0;0;0;13;0;0;1
juge;2;0;1;5;7;0;1
espérer;0;0;0;5;2;0;9
donnée;0;0;0;15;0;0;1
consolation;0;0;0;7;0;0;8
auprès_de;0;0;0;3;0;0;13
attacher;0;0;0;1;7;0;8
zèle;0;0;0;6;0;0;9
recommander;0;0;1;7;0;0;6
postérité;0;0;0;1;13;0;0
peuple;1;0;0;8;0;0;4
patience;0;0;0;7;2;0;6
oeil;0;0;0;11;1;0;3
nombre;0;0;2;9;2;0;0
maître;0;0;2;8;0;0;3
libre;0;0;12;0;0;2;1
imputer;0;0;1;1;13;0;0
fruit;0;0;0;4;4;0;5
former;0;0;2;5;5;0;3
désir;0;0;0;7;2;0;6
doctrine;0;0;0;3;1;0;10
consoler;0;0;0;3;0;0;10
compagnon;0;0;0;0;0;0;13
bonté;0;0;0;10;0;0;3
bienaimés;0;0;0;5;0;0;9
agréable;0;0;0;14;0;0;1
témoignage;0;0;0;9;0;0;5
tribulation;0;0;1;1;0;0;12
tite;0;0;1;1;0;0;11
royaume;0;0;0;9;5;0;0
richesse;0;0;0;13;0;0;0
prophète;0;0;0;8;1;0;4
produire;0;0;0;4;7;0;2
porter;0;0;0;3;1;0;7
nousmêmes;0;0;0;10;1;0;2
nation;0;1;0;8;0;0;2
moyen;0;0;0;5;1;3;2
montrer;0;0;0;7;1;0;6
ministre;0;0;0;4;3;0;6
mauvais;0;2;0;9;1;0;2
macédoine;0;0;0;0;0;0;12
honte;0;0;0;3;0;0;11
circoncision;0;0;13;0;0;0;0
charger;0;0;0;0;0;0;14
atil;0;0;3;6;4;0;1
ange;0;1;0;8;1;1;1
reconnaître;0;0;0;2;8;0;2
prédication;0;0;0;7;3;0;3
paraître;0;0;0;9;1;0;2
offense;0;0;0;3;8;0;0
occasion;2;0;1;2;3;0;5
jugement;2;1;0;7;3;0;0
incirconcis;0;0;12;0;0;0;0
idole;6;0;0;2;1;0;0
grec;0;0;13;0;0;0;0
estil;0;0;9;0;1;1;1
espèce;0;2;0;4;5;0;1
entier;0;0;1;2;0;1;9
douceur;0;0;0;5;1;0;7
demander;0;0;1;1;2;0;9
céleste;0;1;0;6;0;0;1
conduire;0;0;0;2;6;0;3
commandement;0;0;1;1;9;0;2
chef;0;0;0;5;0;4;1
bienaimé;0;0;0;1;0;0;12
baptiser;0;0;1;6;2;0;1
accomplir;0;0;1;6;6;0;0
établir;0;0;0;4;2;0;6
ténèbres;0;1;0;9;0;0;2
tristesse;0;0;0;0;2;0;7
tomber;0;1;0;6;1;0;4
savezvous;0;1;0;5;5;0;0
sauveur;0;0;0;7;0;1;4
sang;3;0;0;6;2;0;1
régner;0;0;0;2;6;0;2
retenir;0;0;0;1;1;1;9
penser;0;0;1;5;1;0;4
passer;0;0;0;2;1;0;9
parent;0;0;0;2;1;2;6
nuit;0;0;0;1;0;0;10
naître;0;2;3;2;1;0;0
lieu;0;0;0;11;0;0;1
impudicité;0;6;0;1;3;0;1
gens;0;0;0;1;0;0;11
fin;0;0;0;5;6;0;1
faiblesse;1;0;0;7;0;0;4
désirer;0;0;0;0;0;0;11
demeure;0;0;1;1;0;1;8
créer;0;0;0;9;0;0;2
confiance;0;0;0;4;0;0;6
bouche;0;1;0;6;2;0;3
écriture;0;0;0;2;9;0;0
utile;0;0;1;0;4;0;5
tirer;0;0;0;3;0;1;4
sentiment;0;0;0;3;1;0;7
révélation;0;0;0;8;0;0;2
prophétie;0;0;0;0;0;0;10
piété;0;2;0;2;3;0;4
pierre;0;0;6;3;1;0;0
pain;5;1;1;1;1;0;1
orgueil;0;9;0;0;0;0;1
ordre;0;0;0;1;0;0;10
liberté;0;0;2;3;1;0;4
irréprochable;0;0;0;3;1;0;7
instruction;0;0;0;4;0;2;5
euxmêmes;0;2;3;0;2;0;4
ennemi;1;0;0;8;1;0;1
délivrer;0;0;0;4;4;0;1
croix;0;0;1;10;0;0;0
couper;10;0;0;0;0;0;0
condamner;0;0;0;5;6;0;0
combattre;0;0;0;1;0;0;9
bénir;1;0;0;7;1;0;0
attrister;0;0;0;0;0;0;9
arrivée;0;2;0;3;0;0;5
édification;0;0;0;1;0;0;9
témoin;0;0;0;2;2;0;6
temple;1;0;0;9;0;0;0
séparer;0;0;0;2;2;2;2
souffrance;0;0;0;1;1;0;8
soin;0;0;0;1;0;1;8
service;0;0;0;2;1;0;7
répandre;0;0;0;8;0;0;2
revêtir;0;0;0;4;2;0;2
périr;0;0;0;6;1;0;0
péril;0;0;0;1;0;0;2
pourvoir;0;0;1;1;0;0;7
porte;0;0;0;0;0;0;8
permettre;0;0;0;1;0;0;9
parvenir;0;0;0;4;4;0;1
obéissance;0;0;0;6;3;0;1
manquer;0;0;0;1;0;1;8
jérusalem;0;0;0;1;0;0;9
insensé;0;1;1;8;0;0;0
injustice;0;0;0;2;7;0;1
ignorer;0;0;1;2;1;0;4
glorieux;0;0;0;4;4;0;0
folie;0;0;1;9;0;0;0
droit;1;0;0;0;1;0;8
dispute;0;7;0;1;0;0;2
crucifier;0;0;0;9;1;0;0
convoitise;0;1;0;5;4;0;0
continuellement;0;0;0;4;0;0;6
combat;0;0;0;1;1;0;7
cieux;0;0;0;10;0;0;0
ciel;0;0;0;9;1;0;0
avance;0;0;0;6;2;0;1
affermir;0;0;0;7;0;0;3
édifier;0;0;0;2;0;0;7
veuf;0;0;0;0;0;3;4
vase;0;0;3;3;0;0;2
travail;0;0;0;0;0;0;9
toimême;0;0;0;0;1;2;6
tenter;0;0;0;1;0;0;4
tenir;0;0;2;4;0;0;3
sentir;0;0;0;1;3;0;2
sanctifier;0;0;0;3;0;2;3
sainteté;0;0;0;5;2;1;1
sain;0;0;0;0;2;0;7
résurrection;0;0;1;2;5;0;0
rapport;0;0;0;7;2;0;0
présenter;0;0;0;2;1;0;6
posséder;0;1;0;6;0;1;1
pied;0;0;0;7;0;1;0
peine;0;0;0;0;0;0;9
partie;0;0;1;2;0;0;4
moïse;0;0;0;0;9;0;0
louange;0;0;0;8;0;0;1
lien;0;0;1;0;0;0;7
jalousie;0;7;0;1;0;0;1
instruire;0;0;0;3;1;1;4
iniquité;0;0;0;3;4;0;0
image;0;0;0;7;0;0;0
héritier;0;0;1;4;4;0;0
exposer;0;0;0;1;1;0;6
détourner;0;3;0;4;1;0;1
déclarer;0;0;0;8;0;0;1
dernier;0;0;0;0;4;0;5
considérer;0;0;0;7;0;0;1
assurance;0;0;0;5;0;0;4
appartenir;0;0;0;7;2;0;0
aliment;2;0;0;2;1;0;2
vrai;0;1;0;1;2;0;4
tête;0;0;0;1;0;6;1
table;3;1;0;1;0;0;1
souvenir;0;0;0;1;0;0;7
semblable;0;1;0;4;3;0;0
révéler;0;0;1;6;1;0;0
réconcilier;0;0;0;6;0;1;0
rebelle;0;0;1;3;0;1;3
raison;1;0;0;6;1;0;0
querelle;0;8;0;0;0;0;0
pécher;0;0;0;2;0;0;5
persécuter;0;0;2;6;0;0;0
persuader;0;0;0;1;0;0;7
parfait;0;0;0;3;0;0;5
nouvelle;2;0;1;2;3;0;0
mépriser;1;0;0;1;0;0;1
mère;0;0;0;1;2;0;5
monter;0;0;0;3;2;0;3
miracle;0;0;1;3;3;0;1
mesure;0;0;0;6;0;0;2
lier;0;0;4;0;1;2;1
libéralité;0;0;0;5;0;0;2
impureté;0;2;0;1;5;0;0
fondement;0;0;0;8;0;0;0
faveur;0;1;0;2;0;0;5
faux;0;1;0;0;1;0;6
enseignement;0;0;0;0;0;0;8
enflé;0;5;0;0;0;0;2
domination;0;0;0;7;0;1;0
disparaître;0;1;4;0;0;0;3
dessein;0;0;0;7;0;0;0
delà;0;0;0;4;0;0;4
craindre;0;8;0;0;0;0;0
courir;0;2;0;2;0;0;2
confier;0;0;2;2;0;0;4
cacher;0;0;0;7;0;0;1
avènement;0;0;0;8;0;0;0
attendre;0;0;0;7;0;0;1
affliction;0;0;0;4;1;0;2
affection;0;0;0;4;1;0;2
acte;0;0;0;3;3;0;2
accorder;0;0;0;5;1;0;2
abondance;0;0;0;5;2;0;1
abandonner;0;2;0;2;1;0;3
étranger;0;0;0;2;1;0;4
état;0;0;0;1;0;0;6
élu;0;0;0;7;0;0;0
éloigner;0;0;0;5;0;0;2
âme;0;0;1;1;1;1;3
visage;0;0;0;1;3;0;3
vin;3;0;1;0;0;1;2
viande;7;0;0;0;0;0;0
usage;0;0;6;0;1;0;0
séduire;0;3;0;1;2;0;0
scandale;1;0;4;1;0;0;1
sacrifier;6;0;0;0;0;0;0
rédemption;0;0;0;6;0;0;1
riche;0;0;1;5;1;0;0
rejeter;0;0;0;4;0;0;1
rappeler;0;1;0;0;0;0;6
racheter;0;2;0;3;2;0;0
pécheur;0;0;1;1;5;0;0
prêt;0;0;0;0;1;0;6
prêchons;0;0;0;7;0;0;0
présence;0;0;0;2;0;0;4
prophétiser;0;0;0;0;0;3;4
pratiquer;0;0;1;4;0;0;2
persévérance;0;0;0;3;0;0;3
perdre;0;0;0;0;5;0;2
partir;0;0;0;2;0;0;5
nature;1;0;2;3;0;0;0
lire;0;0;0;2;1;0;2
jeune;0;0;0;0;0;3;3
impur;1;0;0;2;1;0;0
héritage;0;0;0;4;3;0;0
gain;0;1;0;1;1;0;4
famille;0;0;0;1;0;0;6
faim;2;0;0;0;0;0;4
face;0;0;0;3;0;0;2
estimer;0;0;0;1;1;0;5
ensemble;0;0;0;4;0;0;1
empêcher;0;0;0;1;0;0;2
empressement;0;0;1;1;4;0;1
dépouiller;0;0;0;4;1;0;0
docteur;0;0;0;1;1;0;5
discours;0;4;0;1;0;0;1
diriger;0;0;0;1;0;1;5
céphas;0;0;0;0;0;0;7
convenir;0;0;0;0;1;3;3
charnel;0;2;0;2;1;0;2
avantage;0;0;2;3;0;0;1
audessus;0;0;0;7;0;0;0
assister;0;0;0;2;0;0;4
asseoir;2;0;0;4;1;0;0
ancien;0;0;0;0;0;0;7
affaire;0;0;0;0;0;0;6
adam;0;0;0;0;6;0;0
achaïe;0;0;0;1;0;0;6
absent;0;0;0;1;1;0;4
abord;0;0;0;1;0;0;6
abonder;0;0;0;1;3;0;2
abondamment;0;0;0;4;0;0;1
éphèse;0;0;0;0;0;0;6
élevé;0;0;0;2;1;1;2
égarer;0;6;0;0;0;0;0
voile;1;0;0;1;3;0;1
veiller;0;0;0;1;0;0;5
suivre;1;0;0;1;0;0;3
soeur;0;0;0;0;0;0;6
sobre;0;0;0;0;0;0;6
servitude;0;0;0;2;0;0;3
saisir;0;0;0;3;0;0;2
récompense;0;0;0;2;0;0;4
ruse;0;2;0;0;0;0;4
revenir;0;0;0;1;1;0;4
renverser;0;0;0;6;0;0;0
prémices;0;0;0;2;1;0;3
promettre;0;0;0;2;4;0;0
progrès;0;0;0;0;0;0;5
prix;0;6;0;0;0;0;0
pratique;0;0;1;0;5;0;0
portant;0;2;0;2;1;0;1
pleurer;0;2;0;1;0;1;0
plaisir;0;1;0;1;4;0;0
persévérer;0;0;0;0;0;0;6
pauvre;0;0;0;2;0;0;2
passion;0;0;0;1;4;0;1
participer;2;0;0;1;1;0;1
ouvrir;0;0;0;0;0;0;6
odeur;0;0;0;6;0;0;0
nécessaire;0;0;0;0;1;0;5
méchant;0;1;1;3;0;0;0
mortel;0;0;0;0;5;0;0
modèle;0;0;0;0;0;0;6
mentir;0;0;0;4;0;0;2
langage;0;0;0;2;0;0;4
justification;0;0;0;0;5;0;1
invisible;0;0;0;6;0;0;0
inquiéter;0;0;1;0;0;5;0
informer;0;0;0;0;0;0;6
impudique;0;0;0;0;5;0;0
impie;0;0;0;3;3;0;0
imitateur;0;0;0;0;0;0;6
hériter;0;0;1;0;4;0;0
honorer;0;0;0;0;1;0;4
haut;0;0;0;1;4;0;1
gagner;0;0;4;0;2;0;0
fortifier;0;0;0;5;1;0;0
exercer;0;0;0;1;0;0;5
envie;0;6;0;0;0;0;0
dormir;0;0;0;1;1;0;3
division;0;1;0;1;0;0;4
descendre;0;0;0;1;5;0;0
cupidité;0;0;0;0;5;0;1
conjurer;0;1;0;3;0;0;2
conduite;0;0;0;0;0;0;6
condamnation;0;0;0;0;4;0;2
comprendre;0;0;0;4;1;0;1
communion;3;0;1;1;1;0;0
commencer;0;0;0;1;1;0;4
changer;0;0;1;2;2;0;1
capable;0;0;0;2;1;0;3
aspirer;0;0;0;0;0;0;6
approuver;0;0;0;6;0;0;0
apparence;0;2;0;4;0;0;0
apollos;0;0;0;0;0;0;6
alliance;1;0;0;0;5;0;0
aije;0;0;0;0;1;0;5
adversaire;0;0;0;1;0;0;5
adultère;0;0;0;0;5;0;0
ôter;0;0;0;0;5;0;0
éviter;0;5;0;0;0;0;0
épreuve;0;0;0;5;0;0;0
épargner;0;0;0;1;0;0;2
écouter;0;1;0;0;1;1;2
vocation;0;1;0;3;0;0;1
vierge;0;0;0;0;0;2;3
victoire;0;0;0;2;2;0;0
transgression;0;0;0;0;5;0;0
survenir;0;0;0;0;1;0;4
supérieur;0;0;0;1;1;1;2
subsister;0;0;0;4;1;0;0
signe;0;0;1;2;0;0;2
science;0;1;0;3;0;0;1
sanctification;0;0;0;5;0;0;0
salaire;0;0;0;1;3;0;1
sacrifice;0;0;0;4;0;0;1
résolution;0;0;0;2;0;0;2
résister;0;0;0;0;0;0;4
réprouvé;0;0;0;1;3;0;1
règle;0;0;0;3;0;0;2
roi;0;0;0;2;0;0;2
reposer;0;0;0;5;0;0;0
renier;0;2;0;1;0;0;2
pureté;0;1;0;2;0;0;2
puissant;0;0;0;5;0;0;0
préparer;0;0;0;3;1;0;0
précédemment;0;1;0;1;0;0;1
près_de;0;0;0;1;2;0;1
provoquer;0;3;0;1;1;0;0
prochain;0;0;0;0;0;2;3
prisonnier;0;0;0;0;0;0;5
preuve;0;0;0;3;0;0;2
premièrement;0;0;3;0;1;0;1
piège;1;0;0;1;0;0;3
peutêtre;0;0;0;0;0;0;4
persécution;0;0;0;0;0;0;5
perdition;0;0;0;4;0;0;1
ouvrier;0;0;0;0;0;0;5
oser;0;0;3;1;0;0;0
opérer;0;0;0;1;4;0;0
offrir;0;0;0;3;1;0;1
observer;0;0;2;1;1;0;1
noncroyant;0;0;0;0;0;3;2
nommer;0;0;0;2;3;0;0
nombreux;0;0;0;0;0;1;4
mériter;0;0;0;1;1;0;3
méchanceté;0;4;0;0;1;0;0
motif;1;0;0;1;0;0;3
modéré;0;0;0;0;0;0;5
louer;0;0;0;2;0;0;2
jouir;0;0;0;1;0;0;3
intérêt;0;2;0;1;1;0;1
infidèle;0;0;0;0;0;0;5
incrédulité;0;0;0;0;5;0;0
incirconcision;0;0;4;0;1;0;0
imposer;0;0;0;2;1;0;1
immortalité;0;0;0;3;2;0;0
humilité;0;1;0;3;0;0;1
honnête;0;0;0;0;0;0;4
heureux;0;0;0;1;2;0;0
haïr;0;4;0;0;0;0;0
glorifierai;0;0;0;3;1;0;0
fonder;0;0;0;5;0;0;0
excellence;0;0;0;1;0;0;3
entendement;0;1;0;0;4;0;0
détresse;0;0;0;0;0;0;5
désordre;0;0;0;2;1;0;2
démon;4;0;0;0;0;0;1
disposition;0;0;0;2;1;0;2
culte;0;1;0;4;0;0;0
créature;0;0;0;5;0;0;0
création;0;0;0;4;0;0;1
croyant;0;0;0;1;0;0;4
coupable;1;0;0;0;4;0;0
corruptible;0;0;0;1;2;0;0
contribuer;0;0;0;1;0;0;4
conserver;0;0;0;1;0;0;4
commun;0;0;0;2;0;0;3
chute;2;1;1;1;0;0;0
choisir;0;0;0;4;0;0;1
chaîne;0;0;0;0;0;0;5
chanter;0;0;0;4;0;0;0
cesser;0;0;0;1;0;0;4
cesse;0;0;0;0;1;0;4
calomnie;0;5;0;0;0;0;0
bâtir;0;0;0;4;0;0;1
bientôt;0;0;0;0;0;0;4
barnabas;0;0;0;0;0;0;5
baptême;0;0;0;3;1;1;0
augmenter;0;0;0;2;0;0;2
assistance;0;0;0;0;0;0;5
asservir;0;1;0;1;0;0;3
arme;0;0;0;2;0;0;3
apparaître;0;0;0;1;0;0;4
anéantir;0;0;0;4;1;0;0
annonce;0;0;0;2;0;0;2
affranchi;0;0;3;0;2;0;0
adoption;0;0;0;3;2;0;0
achoppement;0;0;5;0;0;0;0
achever;0;0;0;1;1;0;3
accès;0;0;0;4;0;0;1
accompagner;0;0;0;0;0;0;5
abstenir;1;1;0;0;0;0;3
évêque;0;0;0;0;0;0;4
évident;0;0;0;1;1;1;1
élection;0;0;0;3;1;0;0
véritablement;0;0;0;0;0;0;4
voyage;0;0;0;1;0;0;3
voleur;0;0;0;0;2;0;2
visible;0;0;1;3;0;0;0
violent;1;0;0;1;1;0;1
ville;0;0;0;0;0;0;4
tychique;0;0;0;0;0;0;4
trésor;0;0;0;4;0;0;0
trouble;0;1;0;0;0;0;2
trompette;0;0;0;0;4;0;0
troisième;0;0;0;1;1;0;2
tremblement;0;0;0;1;0;0;3
tranquilliser;0;0;0;0;0;0;4
tour;0;0;0;1;0;0;2
surprendre;0;0;0;1;0;1;1
supplication;0;0;0;0;0;0;4
source;0;1;0;1;0;0;2
solide;0;0;0;2;0;0;1
secret;1;0;0;1;0;0;2
sceau;0;0;1;3;0;0;0
réunir;1;0;0;1;0;0;2
résoudre;0;0;0;0;0;0;4
réserver;0;0;0;3;0;0;0
régler;0;0;0;0;0;0;4
réconciliation;0;0;0;3;1;0;0
ruine;0;1;0;2;0;1;0
rudiment;0;0;0;4;0;0;0
rompre;0;0;3;1;0;0;0
revêtezvous;0;0;0;2;0;0;2
reprendre;0;0;0;0;1;0;2
repos;0;0;0;1;0;0;3
repentance;0;0;0;1;1;0;2
renouveler;0;0;0;3;0;0;1
renoncer;0;1;0;2;0;0;1
remporter;0;4;0;0;0;0;0
recherche;0;0;0;0;4;0;0
prétexte;0;0;0;1;1;0;1
prédicateur;0;0;0;0;0;0;4
prédestiner;0;0;0;4;0;0;0
précepte;0;0;0;4;0;0;0
profondeur;0;0;0;4;0;0;0
profession;0;1;0;2;0;1;0
profane;0;3;0;0;1;0;0
plénitude;0;0;0;4;0;0;0
pleinement;0;0;0;0;0;1;3
plante;0;0;0;0;1;0;3
placer;0;0;0;2;1;0;0
passager;0;0;0;1;3;0;0
ordonner;0;0;0;1;0;1;2
ordonnance;0;0;1;3;0;0;0
ontils;0;0;0;1;2;0;1
occuper;0;0;0;0;0;1;3
objet;0;0;0;4;0;0;0
nourrir;0;0;0;1;0;0;3
naturel;0;0;1;1;1;0;0
médiateur;0;0;0;2;1;0;0
mer;0;0;0;1;1;0;1
mention;0;0;0;0;0;0;4
mensonge;0;0;0;1;2;0;1
meilleur;0;0;0;0;0;0;4
manifestation;0;0;0;4;0;0;0
malédiction;0;0;0;1;2;0;0
magistrat;0;0;0;3;0;0;1
livre;0;0;0;0;1;0;3
limite;0;0;0;3;0;0;0
laodicée;0;0;0;0;0;0;4
judée;0;0;0;0;0;0;4
jourlà;0;0;0;3;0;0;1
jacques;0;0;0;0;0;0;4
invoquer;0;0;1;2;1;0;0
instruit;0;0;0;3;0;1;0
inimitié;0;1;0;2;1;0;0
infâme;0;0;0;0;4;0;0
impiété;0;0;0;4;0;0;0
ignorance;0;0;0;1;1;0;2
humain;0;0;0;0;0;0;4
honteux;2;0;0;0;0;0;2
hardiesse;0;0;0;4;0;0;0
gratuitement;1;0;0;1;1;0;1
genou;0;0;0;4;0;0;0
fou;0;2;0;2;0;0;0
fonction;0;0;0;3;1;0;0
fille;0;0;0;1;0;1;2
feu;0;0;0;2;0;0;1
exister;0;0;0;4;0;0;0
exemple;0;0;0;4;0;0;0
estàdire;0;0;0;0;4;0;0
estu;0;0;4;0;0;0;0
entièrement;0;0;0;4;0;0;0
enrichir;0;0;0;4;0;0;0
enlever;0;0;0;3;1;0;0
enfantement;0;0;0;0;0;1;3
efforcer;0;0;1;2;0;0;1
désobéissance;0;0;0;0;4;0;0
déshonorer;0;0;0;0;1;2;1
dépendre;0;0;0;3;0;1;0
défense;0;0;0;0;0;0;4
douleur;0;0;0;0;0;1;3
diversité;0;0;0;1;2;0;1
discussion;0;3;0;0;1;0;0
destruction;0;0;0;1;0;0;2
destiner;0;0;0;1;3;0;0
cupide;0;0;0;0;4;0;0
corrompre;0;2;0;2;0;0;0
corinthe;0;0;0;0;0;0;4
conviction;0;0;0;0;4;0;0
convenable;0;0;0;0;0;1;3
convaincre;0;0;0;2;1;0;1
confus;0;0;1;0;1;0;1
conformément;0;0;0;3;0;0;1
compte;0;0;0;1;1;0;1
combler;0;0;0;3;0;0;1
captif;0;0;0;2;2;0;0
bénédiction;1;0;0;1;1;0;1
but;0;1;0;1;0;1;1
briller;0;0;0;4;0;0;0
bonheur;0;0;1;0;1;0;1
beau;0;0;0;4;0;0;0
barbare;0;0;2;0;0;0;1
avonsnous;1;0;0;1;0;0;2
avancer;0;1;0;1;1;0;1
autel;1;0;0;2;0;0;0
attester;0;0;0;0;0;0;4
assemblée;0;0;0;0;0;0;4
assembler;0;0;0;1;0;0;3
asie;0;0;0;0;0;0;4
argent;0;0;0;1;0;0;2
ardent;0;0;0;1;0;1;2
approcher;0;0;0;0;0;0;4
apparition;0;0;0;4;0;0;0
année;0;0;0;0;0;0;4
animosité;0;4;0;0;0;0;0
animal;0;0;0;3;0;0;0
anathème;0;0;0;1;1;1;1
air;0;0;0;1;1;0;1
adresser;0;0;0;1;0;0;3
adresse;0;0;0;0;1;0;3
accueillir;2;0;0;1;0;0;1
acception;0;0;0;3;1;0;0
êtesvous;0;1;0;2;0;0;0
éternellement;0;0;0;3;0;0;0
épée;0;0;0;1;0;0;2
épaphras;0;0;0;0;0;0;3
élève;0;0;0;3;0;0;0
égal;0;0;0;1;0;0;2
édifice;0;0;0;3;0;0;0
éclater;0;0;0;1;1;0;1
échapper;0;0;0;0;2;1;0
âge;0;0;0;0;0;0;3
voilé;1;0;0;0;0;2;0
voie;0;0;0;1;0;0;2
vil;0;0;2;1;0;0;0
vif;0;0;0;1;1;0;1
vieillard;0;0;0;1;0;0;2
vieil;0;0;0;2;1;0;0
vertu;0;0;1;2;0;0;0
vengeance;0;0;0;1;0;0;2
utilité;0;0;1;1;0;0;1
tuer;0;0;0;2;1;0;0
tribunal;0;0;0;2;0;0;1
transformer;0;0;0;3;0;0;0
tourner;0;0;0;0;0;0;3
taire;0;0;0;1;0;0;2
suisje;0;0;1;1;1;0;0
stéphanas;0;0;0;0;0;0;3
soumission;0;0;0;0;0;1;2
sonde;0;0;0;3;0;0;0
situation;0;0;0;0;0;0;3
sincère;0;0;0;1;0;0;2
simplicité;0;1;0;2;0;0;0
silvain;0;0;0;1;0;0;2
secourir;0;0;0;1;0;0;2
satisfaire;0;0;0;2;0;0;1
répudier;0;0;0;0;0;3;0
répondre;0;0;0;1;1;0;1
réellement;0;0;0;2;1;0;0
réduire;0;0;0;1;0;0;2
rébellion;0;0;0;2;1;0;0
rome;0;0;0;2;1;0;0
reprocher;0;0;0;2;0;0;1
repentir;0;0;0;0;2;0;1
repas;1;0;0;0;0;0;2
regard;0;0;0;0;2;0;1
recueillir;0;0;0;1;0;0;2
rechercher;0;0;0;2;0;0;1
ravisseur;0;0;0;0;3;0;0
rang;0;0;0;2;1;0;0
quitter;0;0;0;1;1;0;1
punir;0;0;0;1;1;0;1
publier;0;0;0;3;0;0;0
prouver;0;0;1;1;1;0;0
prononcer;0;0;0;3;0;0;0
prodige;0;0;0;3;0;0;0
privé;0;1;0;0;2;0;0
principalement;0;0;0;0;0;0;3
prescrire;0;0;1;0;0;0;2
premierné;0;0;0;2;1;0;0
pousser;0;0;0;2;0;0;1
possible;0;0;0;2;0;0;1
perte;0;0;0;2;1;0;0
perfection;0;1;0;1;0;0;1
particulier;0;0;0;2;1;0;0
parfaire;0;0;1;2;0;0;0
ouvrage;0;0;0;3;0;0;0
outrage;0;0;0;1;0;0;2
oreille;0;0;0;2;0;0;1
opinion;0;0;0;1;1;0;1
noncroyants;0;0;0;0;0;0;3
mot;0;2;0;1;0;0;0
moment;0;0;0;1;0;0;2
marquer;0;0;0;2;1;0;0
marque;0;0;0;0;0;1;2
marc;0;0;0;0;0;0;3
manifeste;0;1;0;1;1;0;0
malice;0;1;0;1;1;0;0
malade;0;0;0;0;2;0;1
légitime;0;0;1;0;0;0;2
luc;0;0;0;0;1;0;2
longanimité;0;0;0;3;0;0;0
larme;0;0;0;0;0;0;3
joug;0;0;0;1;0;0;2
israélite;0;0;0;1;2;0;0
isaac;0;0;0;1;1;0;1
irrépréhensibles;0;0;0;3;0;0;0
inviter;0;0;0;0;0;0;3
inutile;0;2;0;0;0;0;1
intérieur;0;0;0;2;1;0;0
interprète;0;0;0;0;0;0;3
intercéder;0;0;0;2;1;0;0
intelligent;0;0;0;1;1;0;1
injuste;0;0;1;0;1;0;1
inférieur;0;0;0;0;1;0;2
incrédule;0;0;0;1;0;0;2
incorruptibilité;0;0;0;0;3;0;0
ignorant;0;0;1;2;0;0;0
idolâtrie;0;1;0;0;1;0;1
idolâtre;0;0;0;0;3;0;0
hypocrisie;0;0;0;0;0;0;3
honorable;0;0;0;1;0;0;2
honnêteté;0;0;0;1;1;0;1
hiver;0;0;0;1;0;0;2
hauteur;0;0;0;3;0;0;0
génération;0;0;0;3;0;0;0
gré;0;1;0;1;0;0;1
gratuit;0;0;0;1;2;0;0
galatie;0;0;0;1;0;0;2
fuir;0;0;0;0;2;0;1
foutre;0;0;0;2;0;0;1
fléchir;0;0;0;3;0;0;0
fidélité;0;0;0;1;1;0;1
favorable;0;0;0;0;0;0;3
fable;0;0;0;0;2;0;1
exprimer;0;0;0;1;2;0;0
exhortation;0;0;0;0;0;0;3
excès;0;2;0;0;0;0;1
entrer;0;0;0;1;1;0;1
ensevelir;0;0;0;1;2;0;0
engager;0;0;0;0;0;0;3
endurcissement;0;0;0;3;0;0;0
encourager;0;0;0;0;0;0;3
emporter;0;1;0;1;0;0;1
déshonnête;0;1;0;1;0;0;1
dépôt;0;1;0;1;0;0;1
démas;0;0;0;1;0;0;2
dégager;0;0;1;0;1;0;1
droite;0;0;0;1;2;0;0
dironsnous;0;0;0;1;2;0;0
dignité;0;0;0;2;0;0;1
différence;0;0;1;1;0;1;0
diacre;0;0;0;0;0;1;2
destinée;0;0;0;1;0;0;2
david;0;0;0;1;2;0;0
courage;0;0;0;0;2;0;1
convertir;0;1;0;1;1;0;0
contrée;0;0;0;1;0;0;2
consister;0;0;1;2;0;0;0
considération;0;0;0;1;0;0;2
complaire;0;0;1;1;0;0;1
comparer;0;0;1;1;0;0;1
communiquer;0;0;0;1;0;0;2
commencement;0;0;0;1;1;0;1
cheveu;2;0;0;1;0;0;0
captivité;0;0;0;0;0;0;3
cantique;0;0;0;2;0;0;1
calamité;0;0;0;0;0;0;3
bois;0;0;0;1;1;0;1
blâmer;0;0;0;1;0;0;2
bienveillant;0;0;0;3;0;0;0
bienheureux;0;0;0;3;0;0;0
bienfaisance;0;0;0;1;0;0;2
avezvous;1;0;0;1;0;0;1
avertissement;0;0;0;2;0;0;1
attirer;1;0;0;0;0;0;2
atteindre;0;1;0;1;1;0;0
arrogant;0;0;0;1;0;0;2
arracher;0;0;0;2;0;0;1
aquilas;0;0;0;0;0;0;3
appel;0;0;0;2;1;0;0
apostolat;0;0;0;3;0;0;0
ami;0;0;0;0;0;0;3
amener;0;0;0;3;0;0;0
affligé;0;0;0;1;0;0;2
adorer;0;0;0;3;0;0;0
adonner;1;0;0;0;0;1;1
accuser;0;0;0;2;0;0;1
accomplissement;0;0;0;0;3;0;0
accompli;0;0;0;1;2;0;0
abondant;0;0;0;0;0;0;3
