"";"";"";"";"*Tx_Ef_2_14";""
"1";"*Tx_Ef_2_14";"-0.394417049104387";"8.21836861770357";"1.44183903568245";"8"
"2";"*Tx_Erm_16_20";"-0.394417049104387";"8.21836861770357";"1.44183903568245";"9"
"3";"*Tx_1Ts_5_3";"-0.394417049104387";"8.21836861770357";"1.44183903568245";"10"
"4";"*Tx_Erm_16_23";"6.51774581621484";"-0.0724077576229593";"1.22813991294772";"15"
"5";"*Tx_2Ko_8_23";"6.51774581621484";"-0.0724077576229593";"1.22813991294772";"17"
"6";"*Tx_1Ko_4_17";"6.51774581621484";"-0.0724077576229593";"1.22813991294772";"18"
"7";"*Tx_1Ko_3_9";"6.51774581621484";"-0.0724077576229593";"1.22813991294772";"19"
"8";"*Tx_Erm_16_5";"6.51774581621484";"-0.0724077576229593";"1.22813991294772";"20"
"9";"*Tx_1Ko_10_23";"6.51774581621484";"-0.0724077576229593";"1.01397930822652";"27"
"10";"*Tx_2Ko_6_2";"6.51774581621484";"-0.0724077576229593";"1.01397930822652";"28"
"11";"*Tx_1Ko_14_4";"6.51774581621484";"-0.0724077576229593";"1.01397930822652";"29"
"12";"*Tx_1Ko_16_20";"6.51774581621484";"-0.0724077576229593";"1.01397930822652";"30"
"13";"*Tx_1Ko_14_26";"6.51774581621484";"-0.0724077576229593";"1.01397930822652";"31"
"14";"*Tx_Erm_16_16";"6.51774581621484";"-0.0724077576229593";"1.01397930822652";"32"
"15";"*Tx_Erm_15_24";"3.01756307666265";"-0.140753915333121";"0.891175655326896";"41"
"16";"*Tx_Erm_9_15";"3.01756307666265";"-0.140753915333121";"0.891175655326896";"43"
"17";"*Tx_Erm_9_9";"3.01756307666265";"-0.140753915333121";"0.891175655326896";"44"
"18";"*Tx_Erm_3_3";"3.01756307666265";"-0.140753915333121";"0.891175655326896";"45"
"19";"*Tx_1Ko_5_10";"3.01756307666265";"-0.140753915333121";"0.891175655326896";"46"
"20";"*Tx_2Ko_9_5";"3.01756307666265";"-0.140753915333121";"0.891175655326896";"47"
"21";"*Tx_1Tm_5_11";"3.01756307666265";"-0.140753915333121";"0.891175655326896";"48"
"22";"*Tx_2Tm_4_21";"3.01756307666265";"-0.140753915333121";"0.891175655326896";"49"
"23";"*Tx_1Ko_6_3";"3.01756307666265";"-0.140753915333121";"0.891175655326896";"50"
"24";"*Tx_1Ko_11_34";"3.01756307666265";"-0.140753915333121";"0.891175655326896";"51"
"25";"*Tx_1Ko_12_28";"3.01756307666265";"-0.140753915333121";"0.891175655326896";"52"
"26";"*Tx_Erm_15_12";"3.01756307666265";"-0.140753915333121";"0.891175655326896";"53"
"27";"*Tx_1Tm_4_12";"3.01756307666265";"-0.140753915333121";"0.891175655326896";"54"
"28";"*Tx_1Tm_4_14";"3.01756307666265";"-0.140753915333121";"0.891175655326896";"55"
"29";"*Tx_2Ko_10_8";"3.01756307666265";"-0.140753915333121";"0.891175655326896";"56"
"30";"*Tx_2Ko_8_22";"3.01756307666265";"-0.140753915333121";"0.891175655326896";"57"
"31";"*Tx_2Tm_3_2";"3.01756307666265";"-0.140753915333121";"0.891175655326896";"58"
"32";"*Tx_2Tm_4_10";"3.01756307666265";"-0.140753915333121";"0.891175655326896";"59"
"33";"*Tx_1Ts_2_14";"3.01756307666265";"-0.140753915333121";"0.891175655326896";"60"
"34";"*Tx_Ga_4_31";"3.01756307666265";"-0.140753915333121";"0.891175655326896";"61"
"35";"*Tx_Ga_4_30";"3.01756307666265";"-0.140753915333121";"0.891175655326896";"62"
"36";"*Tx_1Tm_6_10";"3.01756307666265";"-0.140753915333121";"0.891175655326896";"63"
"37";"*Tx_1Ko_7_17";"3.01756307666265";"-0.140753915333121";"0.891175655326896";"64"
"38";"*Tx_Kol_4_9";"3.01756307666265";"-0.140753915333121";"0.891175655326896";"65"
"39";"*Tx_1Ko_16_15";"3.01756307666265";"-0.140753915333121";"0.891175655326896";"66"
"40";"*Tx_1Ko_4_10";"3.01756307666265";"-0.140753915333121";"0.891175655326896";"67"
"41";"*Tx_Erm_16_2";"3.01756307666265";"-0.140753915333121";"0.891175655326896";"68"
"42";"*Tx_Erm_16_4";"3.01756307666265";"-0.140753915333121";"0.891175655326896";"69"
"43";"*Tx_Flm_1_19";"3.01756307666265";"-0.140753915333121";"0.891175655326896";"70"
"44";"*Tx_Erm_16_7";"3.01756307666265";"-0.140753915333121";"0.891175655326896";"71"
"45";"*Tx_Flp_1_7";"3.01756307666265";"-0.140753915333121";"0.891175655326896";"72"
"46";"*Tx_2Ko_11_9";"3.01756307666265";"-0.140753915333121";"0.891175655326896";"73"
"47";"*Tx_Flp_4_17";"3.01756307666265";"-0.140753915333121";"0.891175655326896";"74"
"48";"*Tx_Erm_13_9";"3.01756307666265";"-0.140753915333121";"0.891175655326896";"75"
"49";"*Tx_2Ko_8_15";"3.01756307666265";"-0.140753915333121";"0.891175655326896";"76"
"50";"*Tx_1Ko_15_3";"3.01756307666265";"-0.140753915333121";"0.891175655326896";"77"
"51";"*Tx_Flp_4_3";"3.01756307666265";"-0.140753915333121";"0.891175655326896";"78"
"52";"*Tx_1Ko_14_34";"3.01756307666265";"-0.140753915333121";"0.891175655326896";"79"
"53";"*Tx_Ef_4_17";"3.01756307666265";"-0.140753915333121";"0.891175655326896";"80"
"54";"*Tx_Kol_4_12";"3.01756307666265";"-0.140753915333121";"0.891175655326896";"81"
"55";"*Tx_Ga_4_6";"3.01756307666265";"-0.140753915333121";"0.891175655326896";"82"
"56";"*Tx_Ga_6_7";"3.01756307666265";"-0.140753915333121";"0.891175655326896";"83"
"57";"*Tx_Ga_2_4";"3.01756307666265";"-0.140753915333121";"0.891175655326896";"84"
"58";"*Tx_Flm_1_20";"3.01756307666265";"-0.140753915333121";"0.891175655326896";"85"
"59";"*Tx_1Tm_5_13";"3.01756307666265";"-0.140753915333121";"0.891175655326896";"86"
"60";"*Tx_Erm_11_17";"3.01756307666265";"-0.140753915333121";"0.891175655326896";"87"
"61";"*Tx_Ga_4_17";"3.01756307666265";"-0.140753915333121";"0.891175655326896";"88"
"62";"*Tx_Erm_11_18";"3.01756307666265";"-0.140753915333121";"0.891175655326896";"89"
"63";"*Tx_2Ko_12_15";"3.01756307666265";"-0.140753915333121";"0.891175655326896";"90"
"64";"*K_Erm_6";"-0.482619662889535";"-0.209100073043283";"0.847367829611261";"105"
"65";"*K_Ef_5";"-0.482619662889535";"-0.209100073043283";"0.845818568656683";"107"
"66";"*L_Tesalonikarrei2";"0.0424594551022814";"0.425282223709841";"0.845241716173595";"108"
"67";"*K_Flp_3";"-0.482619662889535";"-0.209100073043283";"0.844285789201621";"109"
"68";"*L_Galaziarrei";"-0.00720070690245467";"0.205267135242068";"0.841500415783283";"110"
"69";"*K_2Ko_4";"-0.482619662889535";"-0.209100073043283";"0.838105226882824";"111"
"70";"*K_Kol_2";"-0.482619662889535";"-0.209100073043283";"0.838105226882824";"112"
"71";"*K_Ga_3";"-0.478699546721306";"0.165454090989911";"0.837363559404568";"113"
"72";"*K_2Ko_5";"-0.482619662889535";"-0.209100073043283";"0.836572447427762";"114"
"73";"*K_2Tm_2";"-0.482619662889535";"-0.209100073043283";"0.836572447427762";"115"
"74";"*K_Ga_6";"0.16179561828224";"0.569460018426461";"0.832748739539867";"117"
"75";"*K_2Ko_3";"-0.482619662889535";"-0.209100073043283";"0.83195762756306";"118"
"76";"*K_1Ko_15";"-0.293591180412481";"0.0192775537878418";"0.831941146063544";"119"
"77";"*K_1Ts_4";"-0.482619662889535";"-0.209100073043283";"0.830424848107999";"120"
"78";"*K_Erm_3";"-0.307610525911926";"-0.205682765157775";"0.830227070113797";"122"
"79";"*K_1Ko_2";"-0.482619662889535";"-0.209100073043283";"0.828892068652937";"123"
"80";"*K_Ef_3";"-0.482619662889535";"-0.209100073043283";"0.828892068652937";"124"
"81";"*K_1Ko_8";"-0.482619662889535";"-0.209100073043283";"0.827359289197875";"126"
"82";"*K_Kol_1";"0.0844657845416267";"0.476032807450091";"0.825974843238465";"127"
"83";"*K_Ga_1";"0.364480403705802";"0.481500500066904";"0.825974843238465";"128"
"84";"*K_2Ts_2";"-0.482619662889535";"-0.209100073043283";"0.825842991242331";"129"
"85";"*L_Filipostarrei";"0.147731848922327";"0.214220476664885";"0.825150768262625";"130"
"86";"*K_Erm_12";"-0.477579513530384";"0.272469566427966";"0.823304840316744";"131"
"87";"*K_1Tm_2";"-0.482619662889535";"-0.209100073043283";"0.822777432332207";"132"
"88";"*K_Ef_6";"-0.216813340420103";"0.42021954536094";"0.822381876343804";"134"
"89";"*K_Tt_2";"-0.482619662889535";"-0.209100073043283";"0.819728354921601";"135"
"90";"*K_Ef_4";"-0.263858241667523";"-0.204828438186398";"0.81926687293513";"136"
"91";"*L_Korintoarrei2";"-0.0343940615713651";"-0.106728411883131";"0.818772427949627";"137"
"92";"*K_Kol_3";"-0.249274146919389";"-0.204543662529272";"0.81664631451196";"138"
"93";"*K_1Ko_3";"-0.0530094754416852";"0.309939987936546";"0.814487238075261";"139"
"94";"*L_Tesalonikarrei1";"-0.204636600423279";"0.126749378178959";"0.814338904579609";"140"
"95";"*K_1Ts_2";"-0.232606610064379";"-0.204218204635414";"0.814091682086858";"141"
"96";"*K_Flp_1";"-0.0775586290101337";"0.280280555880556";"0.812558902631796";"142"
"97";"*K_Erm_15";"-0.149268925789327";"-0.202590915166125";"0.812064457646292";"143"
"98";"*K_2Ko_6";"-0.213374836770136";"-0.203842676296347";"0.811635938658856";"145"
"99";"*K_2Ko_11";"-0.141138420006395";"-0.202432155217901";"0.811026123176734";"146"
"100";"*Tx_Erm_3_10";"-0.482619662889535";"-0.209100073043283";"0.810597604189298";"147"
"101";"*K_2Ko_2";"-0.20260504372536";"-0.20363238042647";"0.81043278919413";"148"
"102";"*K_2Ko_10";"-0.20260504372536";"-0.20363238042647";"0.81043278919413";"149"
"103";"*Tx_2Ko_6_16";"-0.482619662889535";"-0.209100073043283";"0.807565008278208";"150"
"104";"*Tx_Erm_4_17";"-0.482619662889535";"-0.209100073043283";"0.807565008278208";"151"
"105";"*Tx_Ga_3_12";"-0.482619662889535";"-0.209100073043283";"0.807565008278208";"152"
"106";"*Tx_Erm_11_4";"-0.482619662889535";"-0.209100073043283";"0.807565008278208";"153"
"107";"*K_Erm_1";"0.00988037582868403";"0.192411888067291";"0.80698815579512";"154"
"108";"*K_1Ko_1";"-0.15291882135979";"0.189232997011004";"0.80698815579512";"155"
"109";"*Tx_2Ko_7_9";"-0.482619662889535";"-0.209100073043283";"0.806048710322663";"156"
"110";"*Tx_2Ko_7_11";"-0.482619662889535";"-0.209100073043283";"0.806048710322663";"157"
"111";"*Tx_Erm_11_33";"-0.482619662889535";"-0.209100073043283";"0.806048710322663";"158"
"112";"*Tx_1Ts_2_13";"-0.482619662889535";"-0.209100073043283";"0.806048710322663";"159"
"113";"*Tx_Erm_10_8";"-0.482619662889535";"-0.209100073043283";"0.806048710322663";"160"
"114";"*K_Erm_9";"-0.167572192094445";"0.171529305008592";"0.805982784324596";"161"
"115";"*K_1Ko_7";"-0.0381520134225906";"-0.200421195873739";"0.805768524830877";"162"
"116";"*L_Titori";"-0.193290352975677";"0.140457519045173";"0.805504820838609";"163"
"117";"*K_2Tm_3";"-0.132601388934316";"-0.202265457272267";"0.804977412854071";"164"
"118";"*Tx_Ga_3_8";"-0.482619662889535";"-0.209100073043283";"0.804532412367118";"165"
"119";"*Tx_Ga_3_9";"-0.482619662889535";"-0.209100073043283";"0.804532412367118";"166"
"120";"*Tx_2Ko_6_10";"-0.482619662889535";"-0.209100073043283";"0.804532412367118";"167"
"121";"*Tx_Erm_4_18";"-0.482619662889535";"-0.209100073043283";"0.804532412367118";"168"
"122";"*Tx_Erm_4_12";"-0.482619662889535";"-0.209100073043283";"0.804532412367118";"169"
"123";"*Tx_Erm_10_21";"-0.482619662889535";"-0.209100073043283";"0.804532412367118";"170"
"124";"*Tx_2Ko_7_7";"-0.482619662889535";"-0.209100073043283";"0.804532412367118";"171"
"125";"*Tx_2Ko_7_5";"-0.482619662889535";"-0.209100073043283";"0.804532412367118";"172"
"126";"*Tx_1Ko_11_25";"-0.482619662889535";"-0.209100073043283";"0.804532412367118";"173"
"127";"*Tx_Erm_13_10";"-0.482619662889535";"-0.209100073043283";"0.804532412367118";"174"
"128";"*Tx_2Ko_2_16";"-0.482619662889535";"-0.209100073043283";"0.804532412367118";"175"
"129";"*Tx_Erm_9_13";"-0.482619662889535";"-0.209100073043283";"0.804532412367118";"176"
"130";"*Tx_Erm_7_7";"-0.482619662889535";"-0.209100073043283";"0.804532412367118";"177"
"131";"*Tx_Ga_3_10";"-0.482619662889535";"-0.209100073043283";"0.804532412367118";"178"
"132";"*Tx_2Ko_2_3";"-0.482619662889535";"-0.209100073043283";"0.804532412367118";"179"
"133";"*Tx_Erm_3_4";"-0.482619662889535";"-0.209100073043283";"0.804532412367118";"180"
"134";"*Tx_Erm_3_8";"-0.482619662889535";"-0.209100073043283";"0.804532412367118";"181"
"135";"*Tx_2Ko_4_2";"-0.482619662889535";"-0.209100073043283";"0.804532412367118";"182"
"136";"*Tx_Flp_4_18";"-0.482619662889535";"-0.209100073043283";"0.804532412367118";"183"
"137";"*Tx_1Ko_3_10";"-0.482619662889535";"-0.209100073043283";"0.804532412367118";"184"
"138";"*Tx_Flp_4_12";"-0.482619662889535";"-0.209100073043283";"0.804532412367118";"185"
"139";"*Tx_Erm_4_11";"-0.482619662889535";"-0.209100073043283";"0.804532412367118";"186"
"140";"*Tx_1Ko_1_10";"-0.482619662889535";"-0.209100073043283";"0.804532412367118";"187"
"141";"*Tx_1Ko_1_13";"-0.482619662889535";"-0.209100073043283";"0.804532412367118";"188"
"142";"*Tx_Ga_3_1";"-0.482619662889535";"-0.209100073043283";"0.801516297955545";"189"
"143";"*Tx_1Tm_5_24";"-0.482619662889535";"-0.209100073043283";"0.801516297955545";"190"
"144";"*Tx_2Tm_2_17";"-0.482619662889535";"-0.209100073043283";"0.801516297955545";"191"
"145";"*Tx_2Ts_2_3";"-0.482619662889535";"-0.209100073043283";"0.801516297955545";"192"
"146";"*Tx_1Tm_1_3";"-0.482619662889535";"-0.209100073043283";"0.801516297955545";"193"
"147";"*Tx_1Tm_2_14";"-0.482619662889535";"-0.209100073043283";"0.801516297955545";"194"
"148";"*Tx_1Ts_2_2";"-0.482619662889535";"-0.209100073043283";"0.801516297955545";"195"
"149";"*Tx_1Ko_3_18";"-0.482619662889535";"-0.209100073043283";"0.801516297955545";"196"
"150";"*Tx_1Ko_14_22";"-0.482619662889535";"-0.209100073043283";"0.801516297955545";"197"
"151";"*Tx_2Ko_10_7";"-0.482619662889535";"-0.209100073043283";"0.801516297955545";"198"
"152";"*Tx_1Ko_7_18";"-0.482619662889535";"-0.209100073043283";"0.801516297955545";"199"
"153";"*Tx_1Ko_14_5";"-0.482619662889535";"-0.209100073043283";"0.801516297955545";"200"
"154";"*Tx_1Ko_14_2";"-0.482619662889535";"-0.209100073043283";"0.801516297955545";"201"
"155";"*Tx_Kol_2_8";"-0.482619662889535";"-0.209100073043283";"0.801516297955545";"202"
"156";"*Tx_1Ko_6_11";"-0.482619662889535";"-0.209100073043283";"0.801516297955545";"203"
"157";"*Tx_1Ko_3_5";"-0.482619662889535";"-0.209100073043283";"0.801516297955545";"204"
"158";"*Tx_1Ko_15_49";"-0.482619662889535";"-0.209100073043283";"0.801516297955545";"205"
"159";"*Tx_1Ko_15_45";"-0.482619662889535";"-0.209100073043283";"0.801516297955545";"206"
"160";"*Tx_2Ko_13_1";"-0.482619662889535";"-0.209100073043283";"0.801516297955545";"207"
"161";"*Tx_1Tm_1_15";"-0.482619662889535";"-0.209100073043283";"0.801516297955545";"208"
"162";"*Tx_2Tm_1_12";"-0.482619662889535";"-0.209100073043283";"0.801516297955545";"209"
"163";"*Tx_Erm_1_29";"-0.482619662889535";"-0.209100073043283";"0.801516297955545";"210"
"164";"*Tx_Erm_8_23";"-0.482619662889535";"-0.209100073043283";"0.801516297955545";"211"
"165";"*Tx_1Ko_12_30";"-0.482619662889535";"-0.209100073043283";"0.801516297955545";"212"
"166";"*Tx_1Ko_7_19";"-0.482619662889535";"-0.209100073043283";"0.801516297955545";"213"
"167";"*Tx_Erm_15_6";"-0.482619662889535";"-0.209100073043283";"0.801516297955545";"214"
"168";"*Tx_Ga_2_10";"-0.482619662889535";"-0.209100073043283";"0.801516297955545";"215"
"169";"*Tx_Erm_15_3";"-0.482619662889535";"-0.209100073043283";"0.801516297955545";"216"
"170";"*Tx_1Ko_14_23";"-0.482619662889535";"-0.209100073043283";"0.801516297955545";"217"
"171";"*Tx_1Tm_5_18";"-0.482619662889535";"-0.209100073043283";"0.801516297955545";"218"
