"";"newcol";"newcol";"newcol";"newcol";"newcol";"newcol";"newcol";"newcol";"newcol"
"1";2;4;6;8;10;12;14;16;16
"2";2;4;6;8;10;12;14;17;19
"3";2;4;6;8;10;12;14;17;19
"4";2;4;6;8;10;12;14;17;19
"5";2;4;6;8;10;12;14;17;19
"6";2;4;6;8;10;12;14;17;19
"7";2;4;6;8;10;12;14;16;16
"8";2;4;6;8;10;12;14;16;16
"9";2;4;6;8;10;12;14;17;18
"10";2;4;6;8;10;12;14;17;19
"11";2;4;6;8;10;12;14;17;19
"12";2;4;6;8;10;12;14;17;19
"13";2;4;6;8;10;12;14;17;19
"14";2;4;6;8;10;12;14;17;19
"15";2;4;6;8;10;12;14;17;19
"16";2;4;6;8;10;12;14;17;19
"17";2;4;6;8;10;12;14;17;19
"18";2;4;6;8;10;12;14;17;19
"19";2;4;6;8;10;12;14;17;19
"20";2;4;6;8;10;12;14;17;19
"21";2;4;6;8;10;12;14;17;19
"22";2;4;6;8;10;12;14;17;19
"23";2;4;6;8;10;12;14;17;19
"24";2;4;6;8;10;12;14;17;19
"25";2;4;6;8;10;12;14;17;19
"26";2;4;6;8;10;12;14;17;19
"27";2;4;6;8;10;12;14;17;19
"28";2;4;6;8;10;12;14;17;19
"29";2;4;6;8;10;12;14;17;19
"30";2;4;6;8;10;12;14;17;19
"31";2;4;6;8;10;12;14;17;19
"32";2;4;6;8;10;12;14;17;19
"33";2;4;6;8;10;12;14;17;19
"34";2;4;6;8;10;12;14;17;19
"35";2;4;6;8;10;12;14;17;19
"36";2;4;6;8;10;12;14;17;19
"37";2;4;6;8;10;12;14;17;19
"38";2;4;6;8;10;12;15;15;15
"39";2;4;6;8;10;12;14;17;19
"40";2;4;6;8;10;12;14;17;19
"41";2;4;6;8;10;12;14;17;19
"42";2;4;6;8;10;12;14;17;19
"43";2;4;6;8;10;12;14;17;19
"44";2;4;6;8;10;12;14;17;19
"45";2;4;6;8;10;12;14;17;19
"46";2;4;6;8;10;12;14;17;19
"47";2;4;6;8;10;12;14;17;19
"48";2;4;6;8;10;12;14;17;19
"49";2;4;6;8;10;12;14;17;19
"50";2;4;6;8;10;12;14;17;19
"51";2;4;6;8;10;12;14;17;19
"52";2;4;6;8;10;12;14;17;19
"53";2;4;6;8;10;12;14;17;19
"54";2;4;6;8;10;12;14;17;19
"55";2;4;6;8;10;12;14;17;19
"56";2;4;6;8;10;12;14;17;19
"57";2;4;6;8;10;12;14;17;19
"58";2;4;6;8;10;12;14;17;19
"59";2;4;6;8;10;12;14;17;19
"60";2;4;6;8;10;12;14;17;19
"61";2;4;6;8;10;12;14;17;19
"62";2;4;6;8;10;12;14;17;19
"63";2;4;6;8;10;12;14;17;19
"64";2;4;6;8;10;12;14;17;19
"65";2;4;6;8;10;12;14;17;19
"66";2;4;6;8;10;12;14;17;19
"67";2;4;6;8;10;12;14;17;19
"68";2;4;6;8;10;12;14;17;19
"69";2;4;6;8;10;12;14;17;19
"70";2;4;6;8;10;12;14;17;19
"71";2;4;6;8;10;12;14;17;19
"72";2;4;6;8;10;12;14;17;19
"73";2;4;6;8;10;12;14;17;19
"74";2;4;6;8;10;12;14;17;19
"75";2;4;6;8;10;12;14;17;19
"76";2;4;6;8;10;12;14;17;19
"77";2;4;6;8;10;12;14;17;19
"78";2;4;6;8;10;12;14;17;19
"79";2;4;6;8;10;12;14;17;19
"80";2;4;6;8;10;12;14;17;19
"81";2;4;6;8;10;12;14;17;19
"82";2;4;6;8;10;12;14;17;19
"83";2;4;6;8;10;12;14;17;19
"84";2;4;6;8;10;12;14;17;19
"85";2;4;6;8;10;12;14;17;19
"86";2;4;6;8;10;12;14;16;16
"87";2;4;6;8;10;12;14;17;19
"88";2;4;6;8;10;12;14;17;19
"89";2;4;6;8;10;12;14;17;19
"90";2;4;6;8;10;12;14;17;19
"91";2;4;6;8;10;12;14;17;19
"92";2;4;6;8;10;12;14;17;19
"93";2;4;6;8;10;12;14;17;19
"94";2;4;6;8;10;12;14;17;19
"95";2;4;6;8;10;12;14;17;19
"96";2;4;6;8;10;12;14;17;19
"97";2;4;6;8;10;12;14;17;19
"98";2;4;6;8;10;12;14;17;19
"99";2;4;6;8;10;12;14;17;19
"100";2;4;6;8;10;12;14;17;19
"101";2;4;6;8;10;12;14;17;19
"102";2;4;6;8;10;12;14;17;19
"103";2;4;6;8;10;12;14;17;19
"104";2;4;6;8;10;12;14;17;19
"105";2;4;6;8;10;12;14;17;19
"106";2;4;6;8;10;12;14;17;19
"107";2;4;6;8;10;12;14;17;19
"108";2;4;6;8;10;12;14;17;19
"109";2;4;6;8;10;12;14;17;19
"110";2;4;6;8;10;12;14;17;19
"111";2;4;6;8;10;12;14;17;19
"112";2;4;6;8;10;12;14;17;19
"113";2;4;6;8;10;12;14;17;19
"114";2;4;6;8;10;12;14;17;19
"115";2;4;6;8;10;12;14;17;19
"116";2;4;6;8;10;12;14;17;19
"117";2;4;6;8;10;12;14;17;19
"118";2;4;6;8;10;12;14;17;19
"119";2;4;6;8;10;12;14;17;19
"120";2;4;6;8;10;12;14;17;19
"121";2;4;6;8;10;12;14;17;19
"122";2;4;6;8;10;12;14;17;19
"123";2;4;6;8;10;12;14;17;19
"124";2;4;6;8;10;12;14;17;19
"125";2;4;6;8;10;12;14;17;19
"126";2;4;6;8;10;12;14;17;19
"127";2;4;6;8;10;12;14;17;19
"128";2;4;6;8;10;12;14;17;19
"129";2;4;6;8;10;12;14;17;19
"130";2;4;6;8;10;12;14;17;19
"131";2;4;6;8;10;12;14;17;19
"132";2;4;6;8;10;12;14;17;19
"133";2;4;6;8;10;12;14;17;19
"134";2;4;6;8;10;12;14;17;19
"135";2;4;6;8;10;12;14;17;19
"136";2;4;6;8;10;12;14;17;19
"137";2;4;6;8;10;12;14;17;19
"138";2;4;6;8;10;12;14;17;19
"139";2;4;6;8;10;12;14;17;19
"140";2;4;6;8;10;12;14;17;19
"141";2;4;6;8;10;12;14;17;19
"142";2;4;6;8;10;12;14;17;19
"143";2;4;6;8;10;12;14;17;19
"144";2;4;6;8;10;12;14;17;19
"145";2;4;6;8;10;12;14;17;19
"146";2;4;6;8;10;12;14;17;19
"147";2;4;6;8;10;12;14;17;19
"148";2;4;6;8;10;12;14;17;19
"149";2;4;6;8;10;12;14;17;19
"150";2;4;6;8;10;12;14;17;19
"151";2;4;6;8;10;12;14;17;19
"152";2;4;6;8;10;12;14;17;19
"153";2;4;6;8;10;12;14;17;19
"154";2;4;6;8;10;12;14;17;19
"155";2;4;6;8;10;12;14;17;19
"156";2;4;6;8;10;12;14;17;19
"157";2;4;6;8;10;12;14;17;19
"158";2;4;6;8;10;12;14;17;19
"159";2;4;6;8;10;12;14;17;19
"160";2;4;6;8;10;12;14;17;19
"161";2;4;6;8;10;12;14;17;19
"162";2;4;6;8;10;12;14;17;19
"163";2;4;6;8;10;12;14;17;19
"164";2;4;6;8;10;12;14;17;19
"165";2;4;6;8;10;12;14;17;19
"166";2;4;6;8;10;12;14;17;19
"167";2;4;6;8;10;12;14;17;19
"168";2;4;6;8;10;12;14;17;19
"169";2;4;6;8;10;12;14;17;19
"170";2;4;6;8;10;12;14;17;19
"171";2;4;6;8;10;12;14;17;19
"172";2;4;6;8;10;12;14;17;19
"173";2;4;6;8;10;12;14;17;19
"174";2;4;6;8;10;12;14;17;19
"175";2;4;6;8;10;12;14;17;19
"176";2;4;6;8;10;12;14;17;19
"177";2;4;6;8;10;12;14;17;19
"178";2;4;6;8;10;12;14;17;19
"179";2;4;6;8;10;12;14;17;19
"180";2;4;6;8;10;12;14;17;19
"181";2;4;6;8;10;12;14;17;19
"182";2;4;6;8;10;12;14;17;19
"183";2;4;6;8;10;12;14;17;19
"184";2;4;6;9;9;9;9;9;9
"185";2;4;6;8;10;12;14;17;19
"186";2;4;6;8;10;12;14;17;19
"187";2;4;6;8;10;12;14;17;19
"188";2;4;6;8;10;12;14;17;19
"189";2;4;6;8;10;12;14;17;19
"190";2;4;6;8;10;12;14;17;19
"191";2;4;6;8;10;12;14;17;19
"192";2;4;6;8;10;12;14;17;19
"193";2;4;6;8;10;12;14;17;19
"194";2;4;6;8;10;12;14;17;19
"195";2;4;6;8;10;12;14;17;19
"196";2;4;6;8;10;12;14;17;19
"197";2;4;6;8;10;12;14;17;19
"198";2;4;6;8;10;12;14;17;19
"199";2;4;6;8;10;12;14;17;19
"200";2;4;6;8;10;12;14;17;19
"201";2;4;6;8;10;12;14;17;19
"202";2;4;6;8;10;12;14;17;19
"203";2;4;6;8;10;12;14;17;19
"204";2;4;6;8;10;12;14;17;19
"205";2;4;6;8;10;12;14;17;19
"206";2;4;6;8;10;12;14;17;19
"207";2;4;6;8;10;12;14;17;19
"208";2;4;6;8;10;12;14;17;19
"209";2;4;6;8;10;12;14;17;19
"210";2;4;6;8;10;12;14;17;19
"211";2;4;6;8;10;12;14;17;19
"212";2;4;6;8;10;12;14;17;19
"213";2;4;6;8;10;12;14;17;19
"214";2;4;6;8;10;12;14;17;19
"215";2;4;6;8;10;12;14;17;19
"216";2;4;6;8;10;12;14;17;19
"217";2;4;6;8;10;12;14;17;19
"218";2;4;6;8;10;12;14;17;19
"219";2;4;6;8;10;12;14;17;19
"220";2;4;6;8;10;12;14;17;19
"221";2;4;6;8;10;12;14;17;19
"222";2;4;6;8;10;12;14;17;19
"223";2;4;6;8;10;12;14;17;19
"224";2;4;6;8;10;12;14;17;19
"225";2;4;6;8;10;12;14;17;19
"226";2;4;6;8;10;12;14;17;19
"227";2;4;6;8;10;12;14;17;19
"228";2;4;6;8;10;12;14;17;19
"229";2;4;6;8;10;12;14;17;19
"230";2;4;6;8;10;12;14;17;19
"231";2;4;6;8;10;12;14;17;19
"232";2;4;6;8;10;12;14;17;19
"233";2;4;6;8;10;12;14;17;19
"234";2;4;6;8;10;12;14;17;19
"235";2;4;6;8;10;12;14;17;19
"236";2;4;6;8;10;12;14;17;19
"237";2;4;6;8;10;12;14;17;19
"238";2;4;6;8;10;12;14;17;19
"239";2;4;6;8;10;12;14;17;19
"240";2;4;6;8;10;12;14;17;19
"241";2;4;6;8;10;12;14;17;19
"242";2;4;6;8;10;12;14;17;19
"243";2;4;6;8;10;12;14;17;19
"244";2;4;6;8;10;12;14;17;19
"245";2;4;6;8;10;12;14;17;19
"246";2;4;6;8;10;12;14;17;19
"247";2;4;6;8;10;12;14;17;19
"248";2;4;6;8;10;12;14;17;19
"249";2;4;6;8;10;12;14;17;19
"250";2;4;6;8;10;12;14;17;19
"251";2;4;6;8;10;12;14;17;19
"252";2;4;6;8;10;12;14;17;19
"253";2;4;6;8;10;12;14;17;19
"254";2;4;6;8;10;12;14;17;19
"255";2;4;6;8;10;12;14;17;19
"256";2;4;6;8;10;12;14;17;19
"257";2;4;6;8;10;12;14;17;19
"258";2;4;6;8;10;12;14;17;19
"259";2;4;6;8;10;12;14;17;19
"260";2;4;6;8;10;12;14;17;19
"261";2;4;6;8;10;12;14;17;19
"262";2;4;6;8;10;12;14;17;19
"263";2;4;6;8;10;12;14;17;19
"264";2;4;6;8;10;12;14;17;19
"265";2;4;6;8;10;12;14;17;19
"266";2;4;6;8;10;12;14;17;19
"267";2;4;6;8;10;12;14;17;19
"268";2;4;6;8;10;12;14;17;19
"269";2;4;6;8;10;12;14;17;19
"270";2;4;6;8;10;12;14;17;19
"271";2;4;6;8;10;12;14;17;19
"272";2;4;6;8;10;12;14;17;19
"273";2;4;6;8;10;12;14;17;19
"274";2;4;6;8;10;12;14;17;19
"275";2;4;6;8;10;12;14;17;19
"276";2;4;6;8;10;12;14;17;19
"277";2;4;6;8;10;12;14;17;19
"278";2;4;6;8;10;12;14;17;19
"279";2;4;6;8;10;12;14;17;19
"280";2;4;6;8;10;12;14;17;19
"281";2;4;6;8;10;12;14;17;19
"282";2;4;6;8;10;12;14;17;19
"283";2;4;6;8;10;12;14;17;19
"284";2;4;6;8;10;12;14;17;19
"285";2;4;6;8;10;12;14;17;19
"286";2;4;6;8;10;12;14;17;19
"287";2;4;6;8;10;12;14;17;19
"288";2;4;6;8;10;12;14;17;19
"289";2;4;6;8;10;12;14;17;19
"290";2;4;6;8;10;12;14;17;19
"291";2;4;6;8;10;12;14;17;19
"292";2;4;6;8;10;12;14;17;19
"293";2;4;6;8;10;12;14;17;19
"294";2;4;6;8;10;12;14;17;19
"295";0;0;0;0;0;0;0;0;0
"296";2;4;6;8;10;12;14;17;19
"297";2;4;6;8;10;12;14;17;19
"298";2;4;6;8;10;12;14;17;19
"299";2;4;6;8;10;12;14;17;19
"300";2;4;6;8;10;12;14;17;19
"301";2;4;6;8;10;12;14;17;19
"302";2;4;6;8;10;12;14;17;19
"303";2;4;6;8;10;12;14;17;19
"304";2;4;6;8;10;12;14;17;19
"305";2;4;6;8;10;12;14;17;19
"306";2;4;6;8;10;12;14;17;19
"307";2;4;6;8;10;12;14;17;19
"308";2;4;6;8;10;12;14;17;19
"309";2;4;6;8;10;12;14;17;19
"310";2;4;6;8;10;12;14;17;19
"311";2;4;6;8;10;12;14;17;19
"312";2;4;6;8;10;12;14;17;19
"313";2;4;6;8;10;12;14;17;19
"314";2;4;6;8;10;12;14;17;19
"315";2;4;6;8;10;12;14;17;19
"316";2;4;6;8;10;12;14;17;19
"317";2;4;6;8;10;12;14;17;19
"318";2;4;6;8;10;12;14;17;19
"319";2;4;6;8;10;12;14;17;19
"320";2;4;6;8;10;12;14;17;19
"321";2;4;6;8;10;12;14;17;19
"322";2;4;6;8;10;12;14;17;19
"323";2;4;6;8;10;12;14;17;19
"324";2;4;6;8;10;12;14;17;18
"325";2;4;6;8;10;12;14;17;19
"326";2;4;6;8;10;12;14;17;19
"327";2;4;6;8;10;12;14;17;19
"328";2;4;6;8;10;12;14;17;19
"329";2;4;6;8;10;12;14;16;16
"330";2;4;6;8;10;12;14;17;19
"331";2;4;6;8;10;12;14;17;19
"332";2;4;6;8;10;12;14;17;19
"333";2;4;6;8;10;12;14;17;19
"334";2;4;6;8;10;12;14;17;19
"335";2;4;6;8;10;12;14;17;19
"336";2;4;6;8;10;12;14;17;19
"337";2;4;6;8;10;12;14;16;16
"338";2;4;6;8;10;12;14;17;19
"339";2;4;6;8;10;12;14;17;19
"340";2;4;6;8;10;12;14;17;19
"341";2;4;6;8;10;12;14;17;19
"342";2;4;6;8;10;12;14;17;19
"343";2;4;6;8;10;12;14;17;19
"344";2;4;6;8;10;12;14;17;19
"345";2;4;6;8;10;12;14;17;19
"346";2;4;6;8;10;12;14;17;19
"347";2;4;6;8;10;12;14;17;19
"348";2;4;6;8;10;12;14;17;19
"349";2;4;6;8;10;12;14;17;19
"350";2;4;6;8;10;12;14;17;19
"351";2;4;6;8;10;12;14;17;19
"352";2;4;6;8;10;12;14;17;19
"353";2;4;6;8;10;12;14;17;19
"354";2;4;6;8;10;12;14;17;19
"355";2;4;6;8;10;12;14;17;19
"356";2;4;6;8;10;12;14;17;19
"357";2;4;6;8;10;12;14;17;19
"358";2;4;6;8;10;12;14;17;19
"359";2;4;6;8;10;12;14;17;19
"360";2;4;6;8;10;12;14;17;19
"361";2;5;5;5;5;5;5;5;5
"362";2;4;6;8;10;12;14;17;19
"363";2;4;6;8;10;12;14;17;19
"364";2;4;6;8;10;12;14;17;19
"365";2;4;6;8;10;12;14;17;19
"366";2;4;6;8;10;12;14;17;19
"367";2;4;6;8;10;12;14;17;19
"368";2;4;6;8;10;12;14;17;19
"369";2;4;6;8;10;12;14;17;19
"370";2;4;6;8;10;12;14;17;19
"371";2;4;6;8;10;12;14;17;19
"372";2;4;6;8;10;12;14;17;19
"373";2;4;6;8;10;12;14;17;19
"374";2;4;6;8;10;12;14;17;19
"375";2;4;6;8;10;12;14;17;19
"376";2;4;6;8;10;12;14;17;19
"377";2;4;6;8;10;12;14;17;19
"378";2;4;6;8;10;12;14;17;19
"379";2;4;6;8;10;12;14;17;19
"380";2;4;6;8;10;12;14;17;19
"381";2;4;6;8;10;12;14;17;19
"382";2;4;6;8;10;12;14;17;19
"383";2;4;6;8;10;12;14;17;19
"384";2;4;6;8;10;12;14;17;19
"385";2;4;6;8;10;12;14;17;19
"386";2;4;6;8;10;12;14;17;19
"387";2;4;6;8;10;12;14;17;19
"388";2;4;6;8;10;12;14;17;19
"389";2;4;6;8;10;12;14;17;19
"390";2;4;6;8;10;12;14;17;19
"391";2;4;6;8;10;12;14;17;19
"392";2;4;6;8;10;12;14;17;19
"393";2;4;6;8;10;12;14;17;19
"394";2;4;6;8;10;12;14;17;19
"395";2;4;6;8;10;12;14;17;19
"396";2;4;6;8;10;12;14;17;19
"397";2;4;6;8;10;12;14;17;19
"398";2;4;6;8;10;12;14;17;19
"399";2;4;6;8;10;12;14;17;19
"400";2;4;6;8;10;12;14;17;19
"401";2;4;6;8;10;12;14;17;19
"402";2;4;6;8;10;12;14;17;19
"403";2;4;6;8;10;12;14;17;19
"404";2;4;6;8;10;12;14;17;19
"405";2;4;6;8;10;12;14;17;19
"406";2;4;6;8;10;12;14;17;19
"407";2;4;6;8;10;12;14;17;19
"408";2;4;6;8;10;12;14;17;19
"409";2;4;6;8;10;12;14;17;19
"410";2;4;6;8;10;12;14;17;19
"411";2;4;6;8;10;12;14;17;19
"412";2;4;6;8;10;12;14;17;19
"413";2;4;6;8;10;12;14;17;19
"414";2;4;6;8;10;12;14;17;19
"415";2;4;6;8;10;12;14;17;19
"416";2;4;6;8;10;12;14;17;19
"417";2;4;6;8;10;12;14;17;19
"418";2;4;6;8;10;12;14;17;19
"419";2;4;6;8;10;12;14;17;19
"420";2;4;6;8;10;12;14;17;19
"421";2;4;6;8;10;12;14;17;19
"422";2;4;6;8;10;12;14;17;19
"423";2;4;6;8;10;12;14;17;19
"424";2;4;6;8;10;12;14;17;19
"425";2;4;6;8;10;12;14;17;19
"426";2;4;6;8;10;12;14;17;19
"427";2;4;6;8;10;12;14;17;19
"428";2;4;6;8;10;12;14;17;19
"429";2;4;6;8;10;12;14;16;16
"430";2;4;6;8;10;12;14;17;19
"431";2;4;6;8;10;12;14;16;16
"432";2;4;6;8;10;12;14;17;19
"433";2;4;6;8;10;12;14;16;16
"434";2;4;6;8;10;12;14;17;19
"435";2;4;6;8;10;12;14;17;19
"436";2;4;6;8;10;12;14;17;19
"437";2;4;6;8;10;12;14;17;19
"438";2;4;6;8;10;12;14;17;19
"439";2;4;6;8;10;12;14;17;19
"440";2;4;6;8;10;12;14;17;19
"441";2;4;6;8;10;12;14;17;19
"442";2;4;6;8;10;12;14;17;19
"443";2;4;6;8;10;12;14;17;19
"444";2;4;6;8;10;12;14;17;19
"445";2;4;6;8;10;12;14;17;19
"446";2;4;6;8;10;12;14;17;19
"447";2;4;6;8;10;12;14;16;16
"448";2;4;6;8;10;12;14;17;19
"449";2;4;6;8;10;12;14;17;19
"450";2;4;6;8;10;12;14;17;19
"451";2;4;6;8;10;12;14;17;19
"452";2;4;6;8;10;12;14;17;19
"453";2;4;6;8;10;12;14;17;19
"454";2;4;6;8;10;12;14;17;19
"455";2;4;6;8;10;12;14;17;19
"456";0;0;0;0;0;0;0;0;0
"457";2;4;6;8;10;12;14;17;19
"458";2;4;6;8;10;12;14;17;19
"459";2;4;6;8;10;12;14;17;19
"460";2;4;6;8;10;12;14;17;19
"461";2;4;6;8;10;12;14;17;19
"462";2;4;6;8;10;12;14;17;19
"463";2;4;6;8;10;12;14;17;19
"464";2;4;6;8;10;12;14;17;19
"465";2;4;6;8;10;12;14;17;19
"466";2;4;6;8;10;12;14;17;19
"467";2;4;6;8;10;12;14;17;19
"468";2;4;6;8;10;12;14;17;19
"469";2;4;6;8;10;12;14;17;19
"470";2;4;6;8;10;12;14;17;19
"471";2;4;6;8;10;12;14;17;19
"472";2;4;6;8;10;12;14;17;19
"473";2;4;6;8;10;12;14;17;19
"474";2;4;6;8;10;12;14;17;19
"475";2;4;6;8;10;12;14;17;19
"476";2;4;6;8;10;12;14;17;19
"477";2;4;6;8;10;12;14;17;19
"478";2;4;6;8;10;12;14;17;19
"479";2;4;6;8;10;12;15;15;15
"480";2;4;6;8;10;12;14;17;19
"481";2;4;6;8;10;12;14;17;19
"482";2;4;6;8;10;12;14;17;19
"483";2;4;6;8;10;12;14;17;19
"484";2;4;6;8;10;12;14;17;19
"485";2;4;6;8;10;12;14;17;19
"486";2;4;6;8;10;12;14;17;19
"487";2;4;6;8;10;12;14;17;19
"488";2;4;6;8;10;12;14;17;19
"489";2;4;6;8;10;12;14;17;19
"490";2;4;6;8;10;12;14;17;19
"491";2;4;6;8;10;12;14;17;18
"492";2;4;6;8;10;12;14;17;19
"493";2;4;6;8;10;12;14;17;19
"494";2;4;6;8;10;12;14;17;19
"495";2;4;6;8;10;12;14;17;19
"496";2;4;6;8;10;12;14;17;19
"497";2;4;6;8;10;12;14;17;19
"498";2;4;6;8;10;12;14;17;19
"499";2;4;6;8;10;12;14;17;19
"500";2;4;6;8;10;12;14;16;16
"501";2;4;6;8;10;12;14;17;19
"502";2;4;6;8;10;12;14;17;19
"503";2;4;6;8;10;12;14;17;19
"504";2;4;6;8;10;12;14;17;19
"505";2;4;6;8;10;12;14;16;16
"506";2;4;6;8;10;12;14;17;19
"507";2;4;6;8;10;12;14;16;16
"508";2;4;6;8;10;12;14;17;19
"509";2;4;6;8;10;12;14;17;19
"510";2;4;6;8;10;12;14;17;19
"511";2;4;6;8;10;12;14;17;19
"512";2;4;6;8;10;12;14;17;19
"513";2;4;6;8;10;12;14;17;19
"514";2;4;6;8;10;12;14;17;19
"515";2;4;6;8;10;12;14;17;19
"516";2;4;6;8;10;12;15;15;15
"517";2;4;6;8;10;12;14;17;19
"518";2;4;6;8;10;12;14;17;19
"519";2;4;6;8;10;12;14;17;19
"520";2;4;6;8;10;12;14;17;19
"521";2;4;6;8;10;12;14;17;19
"522";2;4;6;8;10;12;14;17;19
"523";2;4;6;8;10;12;14;17;19
"524";2;4;6;8;10;12;14;17;19
"525";2;4;6;8;10;12;14;17;19
"526";2;4;6;8;10;12;14;17;19
"527";2;4;6;8;10;12;14;17;19
"528";2;4;6;8;10;12;14;17;19
"529";2;4;6;8;10;12;14;17;19
"530";2;4;6;8;10;12;14;17;19
"531";2;4;6;8;10;12;14;17;19
"532";2;4;6;8;10;12;14;17;19
"533";2;4;6;8;10;12;14;17;19
"534";2;4;6;8;10;12;14;17;19
"535";2;4;6;8;10;12;14;17;19
"536";2;4;6;8;10;12;14;17;19
"537";2;4;6;8;10;12;14;17;19
"538";2;4;6;8;10;12;14;17;19
"539";2;4;6;8;10;12;14;17;19
"540";2;4;6;8;10;12;14;17;19
"541";2;4;6;8;10;12;14;17;19
"542";2;4;6;8;10;12;14;17;19
"543";2;4;6;8;10;12;14;17;19
"544";2;4;6;8;10;12;14;17;19
"545";2;4;6;8;10;12;14;17;19
"546";2;4;6;8;10;12;14;17;19
"547";2;4;6;8;10;12;14;17;19
"548";2;4;6;8;10;12;14;17;19
"549";2;4;6;8;10;12;14;17;19
"550";2;4;6;8;10;12;14;17;19
"551";2;4;6;8;10;12;14;17;19
"552";2;4;6;8;10;12;14;17;19
"553";2;4;6;8;10;12;14;17;19
"554";2;4;6;8;10;12;14;17;19
"555";2;4;6;8;10;12;14;17;19
"556";2;4;6;8;10;12;14;17;19
"557";2;4;6;8;10;12;14;17;19
"558";2;4;6;8;10;12;14;17;19
"559";2;4;6;8;10;12;14;17;19
"560";2;4;6;8;10;12;14;17;19
"561";2;4;6;8;10;12;15;15;15
"562";2;4;6;8;10;12;14;17;19
"563";2;4;6;8;10;12;14;17;19
"564";2;4;6;8;10;12;14;17;19
"565";2;4;6;8;10;12;15;15;15
"566";2;4;6;8;10;12;14;17;19
"567";2;4;6;8;10;12;14;17;19
"568";2;4;6;8;10;12;14;17;19
"569";2;4;6;8;10;12;14;17;19
"570";2;4;6;8;10;12;14;17;19
"571";2;4;6;8;10;12;14;17;19
"572";2;4;6;8;10;12;14;17;19
"573";2;4;6;8;10;12;14;17;19
"574";2;4;6;8;10;12;14;16;16
"575";2;4;6;8;10;12;14;17;19
"576";2;4;6;8;10;12;14;17;19
"577";2;4;6;8;10;12;14;17;19
"578";2;4;6;8;10;12;14;17;19
"579";2;4;6;8;10;12;14;17;19
"580";2;4;6;8;10;12;14;17;19
"581";2;4;6;8;10;12;14;17;19
"582";2;4;6;8;10;12;14;17;19
"583";2;4;6;8;10;12;14;17;19
"584";2;4;6;8;10;12;14;17;19
"585";2;4;6;8;10;12;14;17;19
"586";2;4;6;8;10;12;14;17;19
"587";2;4;6;8;10;12;14;17;19
"588";2;4;6;8;10;12;14;17;19
"589";2;4;6;8;10;12;14;17;19
"590";2;4;6;8;10;12;14;17;19
"591";2;4;6;8;10;12;14;16;16
"592";2;4;6;8;10;12;14;17;19
"593";2;4;6;8;10;12;14;17;19
"594";2;4;6;8;10;12;14;17;19
"595";2;4;6;8;10;12;14;17;19
"596";2;4;6;8;10;12;14;17;19
"597";2;4;6;8;10;12;14;17;19
"598";2;4;6;8;10;12;14;17;19
"599";2;4;6;8;10;12;14;17;19
"600";2;4;6;8;10;12;14;17;19
"601";2;4;6;8;10;12;14;17;19
"602";2;4;6;8;10;12;14;16;16
"603";2;4;6;8;10;12;14;17;19
"604";2;4;6;8;10;12;14;16;16
"605";2;4;6;8;10;12;14;16;16
"606";2;4;6;8;10;12;14;17;19
"607";2;4;6;8;10;12;14;16;16
"608";2;4;6;8;10;12;14;16;16
"609";2;4;6;8;10;12;14;16;16
"610";2;4;6;8;10;12;14;17;19
"611";2;4;6;8;10;12;14;16;16
"612";2;4;6;8;10;12;14;17;19
"613";2;4;6;8;10;12;14;16;16
"614";2;4;6;8;10;12;14;16;16
"615";2;4;6;8;10;12;14;16;16
"616";2;4;6;8;10;12;14;16;16
"617";2;4;6;8;10;12;14;16;16
"618";2;4;6;8;10;12;14;17;19
"619";2;4;6;8;10;12;14;16;16
"620";2;4;6;8;10;12;14;16;16
"621";2;4;6;8;10;12;14;16;16
"622";2;4;6;8;11;11;11;11;11
"623";2;4;6;8;10;12;14;16;16
"624";2;4;6;8;10;12;14;17;19
"625";2;4;6;8;10;12;14;17;19
"626";2;4;6;8;10;12;14;17;19
"627";2;4;6;8;10;12;14;17;19
"628";2;4;6;8;10;12;14;17;19
"629";2;4;6;8;10;12;14;17;18
"630";2;4;6;8;10;12;14;16;16
"631";2;4;6;8;10;12;14;16;16
"632";2;4;6;8;10;12;14;16;16
"633";2;4;6;8;10;12;14;16;16
"634";2;4;6;8;10;12;14;17;19
"635";2;4;6;8;10;12;14;17;19
"636";2;4;6;8;10;12;14;17;19
"637";2;4;6;8;10;12;14;17;19
"638";2;4;6;8;10;12;14;16;16
"639";2;4;6;8;10;12;14;17;19
"640";2;4;6;8;10;12;14;17;18
"641";2;4;6;8;10;12;14;17;19
"642";2;4;6;8;10;12;14;17;19
"643";2;4;6;8;10;12;14;17;19
"644";2;4;6;8;10;12;14;17;19
"645";2;4;6;8;10;12;14;17;19
"646";2;4;6;8;10;12;14;17;19
"647";2;4;6;8;10;12;14;17;19
"648";2;4;6;8;10;12;14;17;19
"649";2;4;6;8;10;12;14;17;19
"650";2;4;6;8;10;12;14;17;19
"651";2;4;6;8;10;12;14;17;19
"652";2;4;6;8;10;12;14;17;19
"653";2;4;6;8;10;12;14;17;19
"654";2;4;6;8;10;12;14;17;19
"655";2;4;6;8;10;12;14;17;19
"656";2;4;6;8;10;12;14;17;19
"657";2;4;6;8;10;12;14;16;16
"658";2;4;6;8;10;12;14;17;19
"659";2;4;6;8;10;12;14;17;19
"660";2;4;6;8;10;12;14;17;19
"661";2;4;6;8;10;12;14;17;19
"662";2;4;6;8;10;12;14;17;19
"663";2;4;6;8;10;12;14;17;19
"664";2;4;6;8;10;12;14;17;19
"665";2;4;6;8;10;12;14;17;19
"666";2;4;6;8;10;12;14;17;19
"667";2;4;6;8;10;12;14;17;19
"668";2;4;6;8;10;12;14;17;19
"669";2;4;6;8;10;12;14;17;19
"670";2;4;6;8;10;12;14;17;19
"671";2;4;6;8;10;12;14;17;19
"672";2;4;6;8;10;12;14;17;19
"673";2;4;6;8;10;12;14;17;19
"674";2;4;6;8;10;12;14;17;19
"675";2;4;6;8;10;12;14;17;19
"676";2;4;6;8;10;12;14;17;19
"677";2;4;6;8;10;12;14;17;19
"678";2;4;6;8;10;12;14;17;19
"679";2;4;6;8;10;12;14;17;19
"680";2;4;6;8;10;12;14;17;19
"681";2;4;6;8;10;12;14;17;19
"682";2;4;6;8;10;12;14;17;19
"683";2;4;6;8;10;12;14;17;19
"684";2;4;6;8;10;12;14;17;19
"685";2;4;6;8;10;12;14;17;19
"686";2;4;6;8;10;12;14;17;19
"687";2;4;6;8;10;12;14;17;19
"688";2;4;6;8;10;12;14;17;19
"689";2;4;6;8;10;12;14;17;19
"690";2;4;6;8;10;12;14;17;19
"691";2;4;6;8;10;12;14;17;19
"692";2;4;6;8;10;12;14;17;19
"693";2;4;6;8;10;12;14;17;19
"694";2;4;6;8;10;12;14;17;19
"695";2;4;6;8;10;12;14;17;19
"696";2;4;6;8;10;12;14;17;19
"697";2;4;6;8;10;12;14;17;19
"698";2;4;6;8;10;12;14;17;19
"699";0;0;0;0;0;0;0;0;0
"700";2;4;6;8;10;12;14;17;19
"701";2;4;6;8;10;12;14;17;19
"702";2;4;6;8;10;12;14;17;19
"703";2;4;6;8;10;12;14;17;19
"704";2;4;6;8;10;12;14;17;19
"705";2;4;6;8;10;12;14;17;19
"706";2;4;6;8;10;12;14;17;19
"707";2;0;0;0;0;0;0;0;0
"708";2;4;6;8;10;12;14;17;19
"709";2;4;6;8;10;12;14;17;19
"710";2;4;6;8;10;12;14;17;19
"711";2;4;6;8;10;12;14;17;19
"712";2;4;6;8;10;12;14;17;19
"713";2;4;6;8;10;12;14;16;16
"714";2;4;6;8;10;12;14;16;16
"715";2;4;6;8;10;12;14;17;19
"716";2;4;6;8;10;12;14;17;19
"717";2;4;6;8;10;12;14;17;19
"718";2;4;6;8;10;12;14;17;19
"719";2;4;6;8;10;12;14;17;19
"720";2;4;6;8;10;12;14;17;19
"721";2;4;6;8;10;12;14;17;19
"722";2;4;6;8;10;12;14;17;19
"723";2;4;6;8;10;12;14;17;19
"724";2;4;6;8;10;12;14;17;19
"725";2;4;6;8;10;12;14;17;19
"726";2;4;6;8;10;12;14;17;19
"727";2;4;6;8;10;12;15;15;15
"728";2;4;6;8;10;12;14;17;19
"729";2;4;6;8;10;12;14;17;19
"730";2;4;6;8;10;12;14;17;19
"731";2;4;6;8;10;12;14;17;19
"732";2;4;6;8;10;12;14;17;19
"733";2;4;6;8;10;12;14;17;19
"734";2;4;6;8;10;12;14;17;19
"735";2;4;6;8;10;12;14;17;18
"736";2;4;6;8;10;12;14;17;19
"737";2;4;6;8;10;12;14;16;16
"738";2;4;6;8;10;12;14;17;19
"739";2;4;6;8;10;12;14;17;19
"740";2;4;6;8;10;12;14;17;19
"741";2;4;6;8;10;12;14;17;19
"742";2;4;6;8;10;12;14;17;19
"743";2;4;6;8;10;12;14;17;19
"744";2;4;6;8;10;12;14;17;19
"745";2;4;6;8;10;12;14;17;19
"746";2;4;6;8;10;12;14;17;19
"747";2;4;6;8;10;12;14;17;19
"748";2;4;6;8;10;12;14;17;19
"749";2;4;6;8;10;12;14;17;19
"750";2;4;6;8;10;12;14;17;19
"751";2;4;6;8;10;12;14;17;19
"752";2;4;6;8;10;12;14;17;19
"753";2;4;6;8;10;12;14;17;19
"754";2;4;6;8;10;12;14;16;16
"755";2;4;6;8;10;12;14;17;19
"756";2;4;6;8;10;12;14;17;19
"757";2;4;6;8;10;12;15;15;15
"758";2;4;6;8;10;12;14;17;19
"759";2;4;6;8;10;12;14;17;19
"760";2;4;6;8;10;12;14;17;19
"761";2;4;6;8;10;12;14;17;19
"762";2;4;6;8;10;12;14;17;19
"763";2;4;6;8;10;12;14;17;19
"764";2;4;6;8;10;12;14;17;19
"765";2;4;6;8;10;12;14;16;16
"766";2;4;6;8;10;12;14;16;16
"767";2;4;6;8;10;12;14;17;19
"768";2;4;6;8;10;12;14;17;19
"769";2;4;6;8;10;12;14;17;19
"770";2;4;6;8;10;12;14;17;19
"771";2;4;6;8;10;12;14;17;19
"772";2;4;6;8;10;12;14;17;19
"773";2;4;6;8;10;12;14;17;19
"774";2;4;6;8;10;12;14;17;19
"775";2;4;6;8;10;12;14;17;19
"776";2;4;6;8;10;12;14;17;19
"777";2;4;6;8;10;12;14;17;19
"778";2;4;6;8;10;12;14;17;19
"779";2;4;6;8;10;12;14;17;19
"780";2;4;6;8;10;12;14;17;19
"781";2;4;6;8;10;12;14;17;19
"782";2;4;6;8;10;12;14;17;19
"783";2;4;6;8;10;12;14;16;16
"784";2;4;6;8;10;12;14;17;19
"785";2;4;6;8;10;12;14;17;19
"786";2;4;6;8;10;12;14;16;16
"787";2;4;6;8;10;12;14;17;19
"788";2;4;6;8;10;12;14;17;19
"789";2;4;6;8;10;12;14;17;19
"790";2;4;6;8;10;12;14;17;19
"791";2;4;6;8;10;12;14;17;19
"792";2;4;6;8;10;12;14;17;19
"793";2;4;6;8;10;12;14;17;19
"794";2;4;6;8;10;12;14;16;16
"795";2;4;6;8;10;12;14;16;16
"796";2;4;6;8;10;12;14;17;19
"797";2;4;6;8;10;12;14;17;19
"798";2;4;6;8;10;12;14;17;19
"799";2;4;6;8;10;12;14;17;19
"800";2;4;6;8;10;12;14;17;19
"801";2;4;6;8;10;12;14;17;19
"802";2;4;6;8;10;12;14;17;19
"803";3;3;3;3;3;3;3;3;3
"804";2;4;6;8;10;12;14;17;19
"805";2;4;6;8;10;12;14;17;19
"806";0;0;0;0;0;0;0;0;0
"807";2;4;6;8;10;12;14;17;19
"808";2;4;6;8;10;12;14;17;19
"809";2;4;6;8;10;12;14;17;19
"810";2;4;6;8;10;12;14;17;19
"811";2;4;6;8;10;12;14;17;19
"812";2;4;6;8;10;12;14;17;19
"813";2;4;6;8;10;12;14;17;19
"814";2;4;6;8;10;12;14;17;19
"815";2;4;6;8;10;12;14;17;19
"816";2;4;6;8;10;12;14;17;19
"817";2;4;6;8;10;12;14;17;19
"818";2;4;6;8;10;12;14;17;19
"819";2;4;6;8;10;12;14;17;19
"820";2;4;6;8;10;12;14;17;19
"821";2;4;6;8;10;12;14;17;19
"822";2;4;6;8;10;12;14;17;19
"823";2;4;6;8;10;12;14;17;19
"824";2;4;6;8;10;12;14;17;19
"825";2;4;6;8;10;12;14;17;19
"826";2;4;6;8;10;12;14;17;19
"827";2;4;6;8;10;12;14;17;19
"828";2;4;6;8;10;12;14;17;19
"829";2;4;6;8;10;12;14;17;19
"830";2;4;6;8;10;12;14;17;19
"831";2;4;6;8;10;12;14;17;19
"832";2;4;6;8;10;12;14;17;19
"833";2;4;6;8;10;12;14;17;19
"834";2;4;6;8;10;12;14;17;19
"835";2;4;6;8;10;12;14;17;19
"836";2;4;6;8;10;12;14;17;19
"837";2;4;6;8;10;12;14;17;19
"838";2;4;6;8;10;12;14;17;19
"839";2;4;6;8;10;12;14;17;19
"840";2;4;6;8;10;12;14;17;19
"841";2;4;6;8;10;12;14;16;16
"842";2;4;6;8;10;12;14;17;19
"843";2;4;6;8;10;12;14;17;19
"844";2;4;6;8;10;12;14;17;19
"845";2;4;6;8;10;12;14;16;16
"846";2;4;6;8;10;12;14;16;16
"847";2;4;6;8;10;12;14;17;19
"848";2;4;6;8;10;12;14;16;16
"849";2;4;6;9;9;9;9;9;9
"850";2;4;6;8;10;12;14;17;19
"851";2;4;6;9;9;9;9;9;9
"852";2;4;6;8;10;12;14;17;19
"853";2;4;6;8;10;12;14;17;19
"854";2;4;6;8;10;12;14;17;19
"855";2;4;6;8;10;12;14;17;19
"856";2;4;6;8;10;12;14;17;19
"857";2;4;6;8;10;12;14;17;19
"858";2;4;6;8;10;12;14;17;19
"859";2;4;6;8;10;12;14;17;19
"860";2;4;6;8;10;12;14;17;19
"861";2;4;6;8;10;12;14;17;19
"862";2;4;6;8;10;12;14;17;19
"863";2;4;6;8;10;12;14;17;19
"864";2;4;6;8;10;12;14;17;19
"865";2;4;6;8;10;12;14;17;19
"866";2;4;6;8;10;12;14;17;19
"867";2;4;6;8;10;12;14;17;19
"868";2;4;6;8;10;12;14;17;19
"869";2;4;6;8;10;12;14;17;19
"870";2;4;6;8;10;12;14;17;19
"871";2;4;6;8;10;12;14;17;19
"872";2;4;6;8;10;12;14;17;19
"873";2;4;6;8;10;12;14;17;19
"874";2;4;6;8;10;12;14;17;19
"875";2;4;6;8;10;12;14;17;19
"876";2;4;6;8;10;12;14;17;19
"877";2;4;6;8;10;12;14;17;19
"878";2;4;6;8;10;12;14;17;19
"879";2;4;6;8;10;12;14;17;19
"880";2;4;6;8;10;12;14;17;19
"881";2;4;6;8;10;12;14;17;19
"882";2;4;6;8;10;12;14;17;19
"883";2;4;6;8;10;12;14;17;19
"884";2;4;6;8;10;12;14;17;19
"885";2;4;6;8;10;12;14;17;19
"886";2;4;6;8;10;12;14;17;19
"887";2;4;6;8;10;12;14;17;19
"888";2;4;6;8;10;12;14;17;19
"889";2;4;6;8;10;12;14;17;19
"890";2;4;6;8;10;12;14;17;19
"891";2;4;6;8;10;12;14;17;19
"892";2;4;6;8;10;12;14;17;19
"893";2;4;6;8;10;12;14;17;19
"894";2;4;6;8;10;12;14;17;19
"895";2;4;6;8;10;12;14;17;19
"896";2;4;6;8;10;12;14;17;19
"897";2;4;6;8;10;12;14;17;19
"898";2;4;6;8;10;12;14;17;19
"899";2;4;6;8;10;12;14;17;19
"900";2;4;6;8;10;12;14;17;19
"901";2;4;6;8;10;12;14;17;19
"902";2;4;6;8;10;12;14;17;19
"903";2;4;6;8;10;12;14;17;19
"904";2;4;6;8;10;12;14;17;19
"905";2;4;6;8;10;12;14;17;19
"906";2;4;6;8;10;12;14;17;19
"907";2;4;6;8;10;12;14;17;19
"908";2;4;6;8;10;12;14;17;19
"909";2;4;6;8;10;12;14;17;19
"910";2;4;6;8;10;12;14;17;19
"911";2;4;6;8;10;12;14;17;19
"912";2;4;6;8;10;12;14;17;19
"913";2;4;6;8;10;12;14;17;19
"914";2;4;6;8;10;12;14;17;19
"915";2;4;6;8;10;12;14;17;19
"916";2;4;6;8;10;12;14;17;19
"917";2;5;5;5;5;5;5;5;5
"918";2;4;6;8;10;12;14;17;19
"919";2;4;6;8;10;12;14;17;19
"920";2;4;6;8;10;12;14;17;19
"921";2;4;6;8;10;12;14;17;19
"922";2;4;6;8;10;12;14;17;19
"923";2;4;6;8;10;12;14;17;19
"924";2;5;5;5;5;5;5;5;5
"925";2;4;6;8;10;12;14;17;19
"926";2;4;6;8;10;12;14;17;19
"927";2;4;6;8;10;12;14;17;19
"928";2;4;6;8;10;12;14;17;19
"929";2;4;6;8;10;12;14;17;19
"930";2;4;6;8;10;12;14;17;19
"931";2;4;6;8;10;12;14;17;19
"932";2;4;6;8;10;12;14;17;19
"933";2;4;6;8;10;12;14;17;19
"934";2;4;6;8;10;12;14;17;19
"935";2;4;6;8;10;12;14;17;19
"936";2;4;6;8;10;12;14;17;19
"937";2;4;6;8;10;12;14;17;19
"938";2;4;6;8;10;12;14;17;19
"939";2;4;6;8;10;12;14;17;19
"940";2;4;6;8;10;12;14;17;19
"941";2;4;6;8;10;12;14;17;19
"942";2;4;6;8;10;12;14;17;19
"943";2;4;6;8;10;12;14;17;19
"944";2;4;6;8;10;12;14;17;19
"945";2;4;6;8;10;12;14;17;19
"946";2;4;6;8;10;12;14;17;19
"947";2;4;6;8;10;12;14;17;19
"948";2;4;6;8;10;12;14;17;19
"949";2;4;6;8;10;12;14;17;19
"950";2;4;6;8;10;12;14;17;19
"951";2;4;6;8;10;12;14;17;19
"952";2;4;6;8;10;12;14;17;19
"953";2;4;6;8;10;12;14;17;19
"954";2;4;6;8;10;12;14;17;19
"955";2;4;6;8;10;12;14;17;19
"956";2;4;6;8;10;12;14;17;19
"957";2;4;6;8;10;12;14;17;19
"958";2;4;6;8;10;12;14;17;19
"959";2;4;6;8;10;12;14;17;19
"960";2;4;6;8;10;12;14;17;19
"961";2;4;6;8;10;12;14;17;19
"962";2;4;6;8;10;12;14;17;19
"963";2;4;6;8;10;12;14;17;19
"964";2;4;6;8;10;12;14;17;19
"965";2;4;6;8;10;12;14;17;19
"966";2;4;6;8;10;12;14;17;19
"967";2;4;6;8;10;12;14;17;19
"968";2;4;6;8;10;12;14;17;19
"969";2;4;6;8;10;12;14;17;19
"970";2;4;6;8;10;12;14;17;19
"971";2;4;6;8;10;12;14;17;19
"972";2;4;6;8;10;12;14;17;19
"973";2;4;6;8;10;12;14;17;19
"974";2;4;6;8;10;12;14;17;19
"975";2;4;6;8;10;12;14;17;19
"976";2;4;6;8;10;12;14;17;19
"977";2;4;6;8;10;12;14;17;19
"978";2;4;6;8;10;12;14;17;19
"979";2;4;6;8;10;12;14;17;19
"980";2;4;6;8;10;12;14;17;19
"981";2;4;6;8;10;12;14;17;19
"982";0;0;0;0;0;0;0;0;0
"983";2;4;6;8;10;12;14;16;16
"984";2;4;6;8;10;12;14;17;19
"985";2;4;6;8;10;12;14;17;19
"986";2;4;6;8;10;12;14;17;19
"987";2;4;6;8;10;12;14;17;19
"988";2;4;6;8;10;12;14;17;19
"989";2;4;6;8;10;12;14;17;19
"990";2;4;6;8;10;12;14;17;19
"991";2;4;6;8;10;12;14;17;19
"992";2;4;6;8;10;12;14;17;19
"993";2;4;6;8;10;12;14;16;16
"994";2;4;6;8;10;12;14;17;19
"995";2;4;6;8;10;12;14;17;19
"996";2;4;6;8;10;12;14;17;19
"997";2;4;6;8;10;12;14;17;19
"998";2;4;6;8;10;12;14;17;19
"999";2;4;6;8;10;12;14;17;19
"1000";2;4;6;8;10;12;14;17;19
"1001";2;4;6;8;10;12;14;17;19
"1002";2;4;6;8;10;12;14;17;19
"1003";2;4;6;8;10;12;14;17;19
"1004";2;4;6;8;10;12;14;17;19
"1005";2;4;6;8;10;12;14;17;19
"1006";2;4;6;8;10;12;14;17;19
"1007";2;4;6;8;10;12;14;17;19
"1008";2;4;6;8;10;12;14;17;19
"1009";2;4;6;8;10;12;14;17;19
"1010";2;4;6;8;10;12;14;17;19
"1011";2;4;6;8;10;12;14;17;19
"1012";2;4;6;8;10;12;14;16;16
"1013";2;4;6;8;10;12;14;17;19
"1014";2;4;6;8;10;12;14;17;19
"1015";2;4;6;8;10;12;14;17;19
"1016";2;4;6;8;10;12;14;17;19
"1017";2;4;6;8;10;12;14;16;16
"1018";2;4;6;8;10;12;14;17;19
"1019";2;4;6;8;10;12;14;17;19
"1020";2;4;6;8;10;12;14;16;16
"1021";2;4;6;8;10;12;14;17;19
"1022";2;4;6;8;10;12;14;17;19
"1023";2;4;6;8;10;12;14;17;19
"1024";2;4;6;8;10;12;14;17;19
"1025";2;4;6;8;10;12;14;17;19
"1026";2;4;6;8;10;12;14;17;19
"1027";2;4;6;8;10;12;14;17;19
"1028";2;4;6;8;10;12;14;17;19
"1029";2;4;6;8;10;12;14;17;19
"1030";2;4;6;8;10;12;14;17;19
"1031";2;4;6;8;10;12;14;17;19
"1032";2;4;6;8;10;12;14;17;19
"1033";2;4;6;8;10;12;14;17;19
"1034";2;4;6;8;10;12;14;17;19
"1035";2;4;6;8;10;12;14;16;16
"1036";2;4;6;8;10;12;14;16;16
"1037";2;4;6;8;10;12;14;17;19
"1038";2;4;6;8;10;12;14;17;19
"1039";2;4;6;8;10;12;14;17;19
"1040";2;4;6;8;10;12;14;17;19
"1041";2;4;6;8;10;12;14;17;19
"1042";2;4;6;8;10;12;14;17;19
"1043";2;4;6;8;10;12;14;17;19
"1044";2;4;6;8;10;12;14;17;19
"1045";2;4;6;8;10;12;14;17;19
"1046";2;4;6;8;10;12;14;17;19
"1047";2;4;6;8;10;12;14;17;19
"1048";2;4;6;8;10;12;14;17;19
"1049";2;4;6;8;10;12;14;17;19
"1050";2;4;6;8;10;12;14;17;19
"1051";2;4;6;8;10;12;14;17;19
"1052";2;4;6;8;10;13;13;13;13
"1053";2;4;6;8;10;12;14;17;19
"1054";2;4;6;8;10;12;14;17;19
"1055";2;4;6;8;10;12;14;17;19
"1056";2;4;6;8;10;12;14;17;19
"1057";2;4;6;8;10;12;14;17;19
"1058";2;4;6;8;10;12;14;17;19
"1059";2;4;6;8;10;12;14;17;19
"1060";2;4;6;8;10;12;14;17;19
"1061";2;4;6;8;10;12;14;17;19
"1062";2;4;6;8;10;12;14;17;19
"1063";2;4;6;8;10;12;14;17;19
"1064";2;4;6;8;10;12;14;17;19
"1065";2;4;6;8;10;12;14;17;19
"1066";2;4;6;8;10;12;14;16;16
"1067";2;4;6;8;10;12;14;16;16
"1068";2;4;6;8;10;12;14;17;19
"1069";2;4;6;8;10;12;14;17;19
"1070";2;4;6;8;10;12;14;17;19
"1071";2;4;6;8;10;12;14;17;19
"1072";2;4;6;8;10;12;14;17;19
"1073";2;4;6;8;10;12;14;17;19
"1074";2;4;6;8;10;12;14;16;16
"1075";2;4;6;8;10;12;14;17;19
"1076";2;4;6;8;10;13;13;13;13
"1077";2;4;6;8;10;12;14;17;19
"1078";2;4;6;8;10;13;13;13;13
"1079";2;4;6;8;10;13;13;13;13
"1080";2;4;6;8;10;12;14;17;19
"1081";2;4;6;8;10;12;14;17;19
"1082";2;4;6;8;10;12;14;17;19
"1083";2;4;6;8;10;12;14;17;19
"1084";2;4;6;8;10;12;14;17;19
"1085";2;4;6;8;10;12;14;17;19
"1086";2;4;6;8;10;12;14;17;19
"1087";2;4;6;8;10;13;13;13;13
"1088";2;4;6;8;10;12;14;17;19
"1089";2;4;6;8;10;12;14;17;19
"1090";2;4;6;8;10;12;14;17;19
"1091";2;4;6;8;10;13;13;13;13
"1092";2;4;6;8;10;12;14;16;16
"1093";2;4;6;8;10;13;13;13;13
"1094";2;4;6;8;10;12;14;17;19
"1095";2;4;6;8;10;13;13;13;13
"1096";2;4;6;8;10;12;14;17;19
"1097";2;4;6;8;10;12;14;17;19
"1098";2;4;6;8;10;12;14;17;19
"1099";2;4;6;8;10;12;14;17;19
"1100";2;4;6;8;10;12;14;17;19
"1101";2;4;6;8;10;12;14;17;19
"1102";2;4;6;8;10;12;14;17;19
"1103";2;4;6;8;10;13;13;13;13
"1104";2;4;6;8;10;12;14;16;16
"1105";2;4;6;8;10;13;13;13;13
"1106";2;4;6;8;10;12;14;17;19
"1107";2;4;6;8;10;12;14;17;19
"1108";2;4;6;8;10;12;14;17;19
"1109";2;4;6;8;10;12;14;17;19
"1110";2;4;6;8;10;12;14;17;19
"1111";2;4;6;8;10;13;13;13;13
"1112";2;4;6;8;10;12;14;16;16
"1113";2;4;6;8;10;12;14;17;19
"1114";2;4;6;8;10;12;14;17;19
"1115";2;4;6;8;10;12;14;17;19
"1116";2;4;6;8;10;12;14;17;19
"1117";2;4;6;8;10;12;14;17;19
"1118";2;4;6;8;10;13;13;13;13
"1119";2;4;6;8;10;12;14;17;19
"1120";2;4;6;8;10;13;13;13;13
"1121";2;4;6;8;10;12;14;17;19
"1122";2;4;6;8;10;12;14;17;19
"1123";2;4;6;8;10;12;14;17;19
"1124";2;4;6;8;10;13;13;13;13
"1125";2;4;6;8;10;12;14;16;16
"1126";2;4;6;8;10;13;13;13;13
"1127";2;4;6;8;10;13;13;13;13
"1128";2;4;6;8;10;13;13;13;13
"1129";2;4;6;8;10;12;14;17;19
"1130";2;4;6;8;10;12;14;17;19
"1131";2;4;6;8;10;12;14;17;19
"1132";2;4;6;8;10;12;14;17;19
"1133";2;4;6;8;10;12;14;16;16
"1134";2;4;6;8;10;12;14;17;19
"1135";2;4;6;8;10;12;14;16;16
"1136";2;4;6;8;10;12;14;17;19
"1137";2;4;6;8;10;12;14;17;19
"1138";2;4;6;8;10;12;14;17;19
"1139";2;4;6;8;10;12;14;17;19
"1140";2;4;6;8;10;13;13;13;13
"1141";2;4;6;8;10;12;14;17;19
"1142";2;4;6;8;10;12;14;17;19
"1143";2;4;6;8;10;12;14;17;19
"1144";2;4;6;8;10;12;14;16;16
"1145";2;4;6;8;10;12;14;17;19
"1146";2;4;6;8;10;12;14;17;19
"1147";2;4;6;8;10;12;14;17;19
"1148";2;4;6;8;10;12;14;17;19
"1149";2;4;6;8;10;12;14;17;19
"1150";2;4;6;8;10;12;14;17;19
"1151";2;4;6;8;10;12;14;17;19
"1152";2;4;6;8;10;12;14;17;19
"1153";2;4;6;8;10;12;14;17;19
"1154";2;4;6;8;10;12;14;17;19
"1155";2;4;6;8;10;12;14;17;19
"1156";2;4;6;8;10;12;14;17;19
"1157";2;4;6;8;10;12;14;17;19
"1158";2;4;6;8;10;12;14;17;19
"1159";2;4;6;8;10;12;14;17;19
"1160";2;4;6;8;10;12;14;17;19
"1161";2;4;6;8;10;12;14;17;19
"1162";2;4;6;8;10;12;14;17;19
"1163";2;4;6;8;10;12;14;17;19
"1164";2;4;6;8;10;12;14;17;19
"1165";2;4;6;8;10;12;14;17;19
"1166";2;4;6;8;10;12;14;17;19
"1167";2;4;6;8;10;12;14;17;19
"1168";2;4;6;8;10;12;14;17;19
"1169";2;4;6;8;10;12;14;17;19
"1170";2;4;6;8;10;12;14;17;18
"1171";2;4;6;8;10;12;14;17;19
"1172";2;4;6;8;10;12;14;17;19
"1173";2;4;6;8;10;12;14;17;19
"1174";2;4;6;8;10;12;14;17;19
"1175";2;4;6;8;10;12;14;17;19
"1176";2;4;6;8;10;12;14;17;19
"1177";2;4;6;8;10;12;14;17;19
"1178";2;4;6;8;10;12;14;17;19
"1179";2;4;6;8;10;12;14;17;19
"1180";2;4;6;8;10;12;14;17;19
"1181";2;4;6;8;10;12;14;17;19
"1182";2;4;6;8;10;12;14;17;19
"1183";2;4;6;8;10;12;14;17;19
"1184";2;4;6;8;10;12;14;17;19
"1185";2;4;6;8;10;12;14;17;19
"1186";2;4;6;8;10;12;14;17;19
"1187";2;4;6;8;10;12;14;17;19
"1188";2;4;6;8;10;12;14;17;19
"1189";2;4;6;8;10;12;14;17;19
"1190";2;4;6;8;10;12;14;17;19
"1191";2;4;6;8;10;12;14;17;19
"1192";2;4;6;8;10;12;14;17;19
"1193";2;4;6;8;10;12;14;17;19
"1194";2;4;6;8;10;12;14;17;19
"1195";2;4;6;8;10;12;14;17;19
"1196";2;4;6;8;10;12;14;17;19
"1197";2;4;6;8;10;12;14;17;19
"1198";2;4;6;8;10;12;14;17;19
"1199";2;4;6;8;10;12;14;17;19
"1200";2;4;6;8;10;12;14;17;19
"1201";2;4;6;8;10;12;14;17;19
"1202";2;4;6;8;10;12;14;17;19
"1203";2;4;6;9;9;9;9;9;9
"1204";2;4;6;9;9;9;9;9;9
"1205";2;4;6;8;10;12;14;17;19
"1206";2;4;6;8;10;12;14;17;19
"1207";2;4;6;9;9;9;9;9;9
"1208";2;4;6;8;10;12;14;17;19
"1209";2;4;6;9;9;9;9;9;9
"1210";2;4;6;8;10;12;14;17;19
"1211";2;4;6;8;10;12;14;16;16
"1212";2;4;6;8;10;12;14;17;19
"1213";2;4;6;8;10;12;14;17;19
"1214";2;4;6;8;10;12;14;17;19
"1215";2;4;6;8;10;12;14;17;19
"1216";2;4;6;8;10;12;14;17;19
"1217";2;4;6;8;10;12;14;17;19
"1218";2;4;6;8;10;12;14;17;19
"1219";2;4;6;8;10;12;14;17;19
"1220";2;4;6;8;10;12;14;17;19
"1221";2;4;6;8;10;12;14;16;16
"1222";2;4;6;8;10;12;14;17;19
"1223";2;4;6;8;10;12;14;17;19
"1224";2;4;6;8;10;12;14;17;19
"1225";2;4;6;8;10;12;14;17;19
"1226";2;4;6;8;10;12;14;16;16
"1227";2;4;6;8;10;12;14;17;19
"1228";2;4;6;8;10;12;14;17;19
"1229";2;4;6;8;10;12;14;17;19
"1230";2;4;6;8;10;12;14;17;19
"1231";2;4;6;8;10;12;14;17;19
"1232";2;4;6;8;10;12;14;17;19
"1233";2;4;6;8;10;12;14;17;19
"1234";2;4;6;8;10;12;14;17;19
"1235";2;4;6;8;10;12;14;17;19
"1236";2;4;6;8;10;12;14;17;19
"1237";2;4;6;8;10;12;14;17;19
"1238";2;4;6;8;10;12;14;17;19
"1239";2;4;6;8;10;12;14;16;16
"1240";2;4;6;8;10;12;14;17;19
"1241";2;4;6;8;10;12;14;17;19
"1242";2;4;6;8;10;12;14;17;19
"1243";2;4;6;8;10;12;14;16;16
"1244";2;4;6;8;10;12;14;16;16
"1245";2;4;6;8;10;12;14;16;16
"1246";2;4;6;8;11;11;11;11;11
"1247";2;4;6;8;10;12;14;16;16
"1248";2;4;6;8;10;12;14;17;19
"1249";2;4;6;8;10;12;14;17;18
"1250";2;4;6;8;10;12;14;16;16
"1251";2;4;6;8;10;12;14;16;16
"1252";2;4;6;8;10;12;14;17;18
"1253";2;4;6;8;10;12;14;17;19
"1254";2;4;6;8;10;12;14;17;19
"1255";2;4;6;8;10;12;14;17;19
"1256";2;4;6;8;10;12;14;17;19
"1257";2;4;6;8;10;12;14;17;19
"1258";2;4;6;8;10;12;14;17;19
"1259";2;4;6;8;10;12;14;16;16
"1260";2;4;6;8;10;12;14;17;19
"1261";2;4;6;8;10;12;14;17;19
"1262";2;4;6;8;10;12;14;17;19
"1263";2;4;6;8;10;12;14;17;19
"1264";2;4;6;8;10;12;14;17;19
"1265";2;4;6;8;10;12;14;17;19
"1266";2;4;6;8;10;12;14;17;19
"1267";2;4;6;8;10;12;15;15;15
"1268";2;4;6;8;10;12;14;17;19
"1269";2;4;6;8;10;12;14;17;19
"1270";2;4;6;8;10;12;14;16;16
"1271";2;4;6;8;10;12;14;17;19
"1272";2;4;6;8;10;12;14;17;19
"1273";2;4;6;8;10;12;14;17;19
"1274";2;4;6;8;10;12;14;16;16
"1275";2;4;6;8;10;12;14;17;19
"1276";2;4;6;8;10;12;14;17;19
"1277";2;4;6;8;10;12;14;17;19
"1278";2;4;6;8;10;12;14;16;16
"1279";2;4;6;8;10;12;14;17;19
"1280";2;4;6;8;10;12;14;17;19
"1281";2;4;6;8;10;12;14;17;19
"1282";2;4;6;8;10;12;14;17;19
"1283";2;4;6;8;10;12;14;17;19
"1284";2;4;6;8;10;12;14;17;19
"1285";2;4;6;8;10;12;14;17;19
"1286";2;4;6;8;10;12;14;17;19
"1287";2;4;6;8;10;12;14;17;19
"1288";2;4;6;8;10;12;14;17;19
"1289";2;4;6;8;10;12;14;17;19
"1290";2;4;6;8;10;12;14;17;19
"1291";2;4;6;8;10;12;14;17;19
"1292";2;4;6;8;10;12;14;17;19
"1293";2;4;6;8;10;12;14;17;19
"1294";2;4;6;8;10;12;14;17;19
"1295";2;4;6;8;10;12;14;17;19
"1296";2;4;6;8;10;12;14;17;19
"1297";2;4;6;8;10;12;14;17;19
"1298";2;4;6;8;10;12;14;17;19
"1299";2;4;6;8;10;12;14;17;19
"1300";2;4;6;8;10;12;14;17;19
"1301";2;4;6;8;10;12;14;17;19
"1302";2;4;6;8;10;12;14;17;19
"1303";2;4;6;8;10;12;14;16;16
"1304";2;4;6;8;10;12;14;17;19
"1305";2;4;6;8;10;12;14;17;19
"1306";2;4;6;8;10;12;14;17;19
"1307";2;4;6;8;10;12;14;17;19
"1308";2;4;6;8;10;12;14;17;19
"1309";2;4;6;8;10;12;14;17;19
"1310";2;4;6;8;10;12;14;17;19
"1311";2;4;6;8;10;12;14;17;19
"1312";2;4;6;8;10;12;14;17;19
"1313";2;4;6;8;10;12;14;17;19
"1314";2;4;6;8;10;12;14;17;19
"1315";2;4;6;8;10;12;14;17;19
"1316";2;4;6;8;10;12;14;17;19
"1317";2;4;6;8;10;12;14;17;19
"1318";2;4;6;8;10;12;14;17;19
"1319";2;4;6;8;10;12;14;17;19
"1320";2;4;6;8;10;12;14;17;19
"1321";2;4;6;8;10;12;14;17;19
"1322";2;4;6;8;10;12;14;17;19
"1323";2;4;6;8;10;12;14;17;19
"1324";2;4;6;8;10;12;14;17;19
"1325";2;4;6;8;10;12;14;17;19
"1326";2;4;6;8;10;12;14;17;19
"1327";2;4;6;8;10;12;14;17;19
"1328";2;4;6;8;10;12;14;17;19
"1329";2;4;6;8;10;12;14;17;19
"1330";2;4;6;8;10;12;14;17;19
"1331";2;4;6;8;10;12;14;17;19
"1332";2;4;6;8;10;12;14;17;19
"1333";2;4;6;8;10;12;14;17;19
"1334";2;4;6;8;10;12;14;17;19
"1335";2;4;6;8;10;12;14;17;19
"1336";2;4;6;8;10;12;14;17;19
"1337";2;4;6;8;10;12;14;17;19
"1338";2;4;6;8;10;12;14;17;19
"1339";2;4;6;8;10;12;14;17;19
"1340";2;4;6;8;10;12;14;17;19
"1341";2;4;6;8;10;12;14;17;19
"1342";2;4;6;8;10;12;14;17;19
"1343";2;4;6;8;10;12;14;17;19
"1344";2;4;6;8;10;12;14;17;19
"1345";2;4;6;8;10;12;14;17;19
"1346";2;4;6;8;10;12;14;17;19
"1347";2;4;6;8;10;12;14;17;19
"1348";2;4;6;8;10;12;14;17;19
"1349";2;4;6;8;10;12;14;17;19
"1350";2;4;6;8;10;12;14;17;19
"1351";2;4;6;8;10;12;14;17;19
"1352";2;4;6;8;10;12;14;17;19
"1353";2;4;6;8;10;12;14;17;19
"1354";2;4;6;8;10;12;14;17;19
"1355";2;4;6;8;10;12;14;17;19
"1356";2;4;6;8;10;12;14;17;19
"1357";2;4;6;8;10;12;14;17;19
"1358";2;4;6;8;10;12;14;17;19
"1359";2;4;6;8;10;12;14;17;19
"1360";2;4;6;8;10;12;14;17;19
"1361";2;4;6;8;10;12;14;17;19
"1362";2;4;6;8;10;12;14;17;19
"1363";2;4;6;8;10;12;14;17;19
"1364";2;4;6;8;10;12;14;17;19
"1365";2;4;6;8;10;12;14;17;19
"1366";2;4;6;8;10;12;14;17;19
"1367";2;4;6;8;10;12;14;17;19
"1368";2;4;6;8;10;12;14;17;19
"1369";2;4;6;8;10;12;14;17;19
"1370";2;4;6;8;10;12;14;17;19
"1371";2;4;6;8;10;12;14;17;19
"1372";2;4;6;8;10;12;14;17;19
"1373";2;4;6;8;10;12;14;17;19
"1374";2;4;6;8;10;12;14;17;19
"1375";2;4;6;8;10;12;14;17;19
"1376";2;4;6;8;10;12;14;17;19
"1377";2;4;6;8;10;12;14;17;19
"1378";2;4;6;8;10;12;14;17;19
"1379";2;4;6;8;10;12;14;17;19
"1380";2;4;6;8;10;12;14;17;19
"1381";2;4;6;8;10;12;14;17;19
"1382";2;4;6;8;10;12;14;16;16
"1383";2;4;6;8;10;12;15;15;15
"1384";2;4;6;8;10;12;14;17;19
"1385";2;4;6;8;10;12;14;17;19
"1386";2;4;6;8;10;12;14;17;19
"1387";2;4;6;8;10;12;14;17;19
"1388";2;4;6;8;10;12;14;17;19
"1389";2;4;6;8;10;12;14;17;19
"1390";2;4;6;8;10;12;14;17;19
"1391";2;4;6;8;10;12;14;17;19
"1392";2;4;6;8;10;12;14;17;19
"1393";2;4;6;8;10;12;14;17;19
"1394";2;4;6;8;10;12;14;17;19
"1395";2;4;6;8;10;12;14;17;19
"1396";2;4;6;8;10;12;14;17;19
"1397";2;4;6;8;10;12;14;17;19
"1398";2;4;6;8;10;12;14;17;19
"1399";2;4;6;8;10;12;14;17;19
"1400";2;4;6;8;10;12;14;17;19
"1401";2;4;6;8;10;12;14;17;19
"1402";2;4;6;8;10;12;14;17;19
"1403";2;4;6;8;10;12;14;17;19
"1404";2;4;6;8;10;12;14;17;19
"1405";2;4;6;8;10;12;14;17;19
"1406";2;4;6;8;10;12;14;17;19
"1407";2;4;6;8;10;12;14;17;19
"1408";2;4;6;8;10;12;14;17;19
"1409";2;4;6;8;10;12;14;17;19
"1410";2;4;6;8;10;12;14;17;19
"1411";2;4;6;8;10;12;14;17;19
"1412";2;4;6;8;10;12;14;17;19
"1413";2;4;6;8;10;12;14;17;19
"1414";2;4;6;8;10;12;14;17;19
"1415";2;4;6;8;10;12;14;17;19
"1416";2;4;6;8;10;12;14;17;19
"1417";2;4;6;8;10;12;14;17;19
"1418";2;4;6;8;10;12;14;17;19
"1419";2;4;6;8;10;12;14;17;19
"1420";2;4;6;8;10;12;14;17;19
"1421";2;4;6;8;10;12;14;17;19
"1422";2;4;6;8;10;12;14;17;19
"1423";2;4;6;8;10;12;14;17;19
"1424";2;4;6;8;10;12;14;17;19
"1425";2;4;6;8;10;12;14;17;19
"1426";2;4;6;8;10;12;14;17;19
"1427";2;4;6;8;10;12;14;17;19
"1428";2;4;6;8;10;12;14;17;19
"1429";2;4;6;8;10;12;14;17;19
"1430";2;4;6;8;10;12;14;17;19
"1431";2;4;6;8;10;12;14;17;19
"1432";2;4;6;8;10;12;14;17;19
"1433";2;4;6;8;10;12;14;17;19
"1434";2;4;6;8;10;12;14;17;19
"1435";2;4;6;8;10;12;14;17;19
"1436";2;4;6;8;10;12;14;17;19
"1437";2;4;6;8;10;12;14;17;19
"1438";2;4;6;8;10;12;14;17;19
"1439";2;4;6;8;10;12;14;16;16
"1440";2;4;6;8;10;12;14;17;19
"1441";2;4;6;8;10;12;14;17;19
"1442";2;4;6;8;10;12;14;17;19
"1443";2;4;6;8;10;12;14;17;19
"1444";2;4;6;8;10;12;14;17;19
"1445";2;4;6;8;10;12;14;17;19
"1446";2;4;6;8;10;12;14;17;19
"1447";2;4;6;8;10;12;14;17;19
"1448";2;4;6;8;10;12;14;16;16
"1449";2;4;6;8;10;12;14;17;19
"1450";2;4;6;8;10;12;14;17;19
"1451";2;4;6;8;10;12;14;17;19
"1452";2;4;6;8;10;12;14;17;19
"1453";2;4;6;8;10;12;14;17;19
"1454";2;4;6;8;10;12;14;17;19
"1455";2;4;6;8;10;12;14;17;19
"1456";2;4;6;8;10;12;14;17;19
"1457";2;4;6;8;10;12;14;17;19
"1458";2;4;6;8;10;12;14;17;19
"1459";2;4;6;8;10;12;14;16;16
"1460";2;4;6;8;10;12;14;17;19
"1461";2;4;6;8;10;12;14;17;19
"1462";2;4;6;8;10;12;14;16;16
"1463";2;4;6;8;10;12;14;17;19
"1464";2;4;6;8;10;12;14;17;19
"1465";2;4;6;8;10;12;14;17;19
"1466";2;4;6;8;10;12;14;16;16
"1467";2;4;6;8;10;12;14;17;19
"1468";2;4;6;8;10;12;14;16;16
"1469";2;4;6;8;10;12;14;16;16
"1470";2;4;6;8;10;12;14;16;16
"1471";2;4;6;8;10;12;14;17;19
"1472";2;4;6;8;10;12;14;17;19
"1473";2;4;6;8;10;12;14;17;19
"1474";2;4;6;8;10;12;14;17;19
"1475";2;4;6;8;10;12;14;17;19
"1476";2;4;6;8;10;12;14;17;19
"1477";2;4;6;8;10;12;14;16;16
"1478";2;4;6;8;10;12;14;17;19
"1479";2;4;6;8;10;12;14;17;19
"1480";2;4;6;8;10;12;14;17;19
"1481";2;4;6;8;10;12;14;17;19
"1482";2;4;6;8;10;12;14;17;19
"1483";2;4;6;8;10;12;14;17;19
"1484";2;4;6;8;10;12;14;17;19
"1485";2;4;6;8;10;12;14;17;19
"1486";2;4;6;8;10;12;14;17;19
"1487";2;4;6;8;10;12;14;17;19
"1488";2;4;6;8;10;12;14;17;19
"1489";2;4;6;8;10;12;14;17;19
"1490";2;4;6;8;10;12;14;17;19
"1491";2;4;6;8;10;12;14;17;19
"1492";2;4;6;8;10;12;14;17;19
"1493";2;4;6;8;10;12;14;17;19
"1494";2;4;6;8;10;12;14;17;19
"1495";2;4;6;8;10;12;14;17;19
"1496";2;4;7;7;7;7;7;7;7
"1497";2;4;6;8;10;12;14;17;19
"1498";2;4;6;8;10;12;14;16;16
"1499";2;4;6;8;10;12;14;17;19
"1500";2;4;6;8;10;12;14;17;19
"1501";2;4;6;8;10;12;14;17;19
"1502";2;4;7;7;7;7;7;7;7
"1503";2;4;6;8;10;12;14;17;19
"1504";2;4;6;8;10;12;14;17;19
"1505";2;4;6;8;10;12;14;17;19
"1506";2;4;6;8;10;12;14;17;19
"1507";2;4;6;8;10;12;14;17;19
"1508";2;4;6;8;10;12;14;17;19
"1509";2;4;6;8;10;12;14;17;19
"1510";2;4;6;8;10;12;14;17;19
"1511";2;4;6;8;10;12;14;17;19
"1512";2;4;6;8;10;12;14;17;19
"1513";2;4;6;8;10;12;14;17;19
"1514";2;4;6;8;10;12;14;17;19
"1515";2;4;6;8;10;12;14;17;19
"1516";2;4;6;8;10;12;14;17;19
"1517";2;4;6;8;10;12;14;17;19
"1518";2;4;6;8;10;12;14;17;19
"1519";2;4;6;8;10;12;14;17;19
"1520";2;4;6;8;10;12;14;17;19
"1521";2;4;6;8;10;12;14;17;19
"1522";2;4;6;8;10;12;14;17;19
"1523";2;4;6;8;10;12;14;17;19
"1524";2;4;6;8;10;12;14;17;19
"1525";2;4;6;8;10;12;14;17;19
"1526";2;4;6;8;10;12;14;16;16
"1527";2;4;6;8;10;12;14;16;16
"1528";2;4;6;8;10;12;15;15;15
"1529";2;4;6;8;10;12;14;17;19
"1530";2;4;6;8;10;12;14;17;19
"1531";2;4;6;8;10;12;14;17;19
"1532";2;4;6;8;10;12;14;17;19
"1533";2;4;6;8;10;12;14;17;19
"1534";2;4;6;8;10;12;14;17;19
"1535";2;4;6;8;10;12;14;17;19
"1536";2;4;6;8;10;12;14;17;19
"1537";2;4;6;8;10;12;14;17;19
"1538";2;4;6;8;10;12;14;17;19
"1539";2;4;6;8;10;12;14;17;19
"1540";2;4;6;8;10;12;14;17;19
"1541";2;4;6;8;10;12;14;17;19
"1542";2;4;6;8;10;12;14;17;19
"1543";2;4;6;8;10;12;14;17;19
"1544";2;4;6;8;10;12;14;17;19
"1545";2;4;6;8;10;12;14;17;19
"1546";2;4;6;8;10;12;14;17;19
"1547";2;4;6;8;10;12;14;17;19
"1548";2;4;6;8;10;12;14;17;19
"1549";2;4;6;8;10;12;14;17;19
"1550";2;4;6;8;10;12;14;17;19
"1551";2;4;6;8;10;12;14;17;19
"1552";2;4;6;8;10;12;14;17;19
"1553";2;4;6;8;10;12;14;17;19
"1554";2;4;6;8;10;12;14;17;19
"1555";2;4;6;8;10;12;14;17;19
"1556";2;4;6;8;10;12;14;17;19
"1557";2;4;6;8;10;12;14;17;19
"1558";2;4;6;8;10;12;14;17;19
"1559";2;4;6;8;10;12;14;17;19
"1560";2;4;6;8;10;12;14;17;19
"1561";2;4;6;8;10;12;14;17;19
"1562";2;4;6;8;10;12;14;17;19
"1563";2;4;6;8;10;12;14;17;19
"1564";2;4;6;8;10;12;14;17;19
"1565";2;4;6;8;10;12;14;17;19
"1566";2;4;6;8;10;12;14;17;19
"1567";2;4;6;8;10;12;14;17;19
"1568";2;4;6;8;10;12;14;17;19
"1569";2;4;6;8;10;12;14;17;19
"1570";2;4;6;8;10;12;14;17;19
"1571";2;4;6;8;10;12;14;17;19
"1572";2;4;6;8;10;12;14;17;19
"1573";2;4;6;8;10;12;14;17;19
"1574";2;4;6;8;10;12;14;17;19
"1575";2;4;6;8;10;12;14;17;19
"1576";2;4;6;8;10;12;14;16;16
"1577";2;4;6;8;10;12;14;17;19
"1578";2;4;6;8;10;12;14;17;19
"1579";2;4;6;8;10;12;14;17;19
"1580";2;4;6;8;10;12;14;17;19
"1581";2;4;6;8;10;12;14;16;16
"1582";2;4;6;8;10;12;14;17;19
"1583";2;4;6;8;10;12;14;16;16
"1584";2;4;6;8;10;12;14;17;19
"1585";2;4;6;8;10;12;14;16;16
"1586";2;4;6;8;10;12;14;17;19
"1587";2;4;6;8;10;12;14;17;19
"1588";2;4;6;8;10;12;14;17;19
"1589";2;4;6;8;10;12;14;17;19
"1590";2;4;6;8;10;12;14;17;19
"1591";2;4;6;8;10;12;14;17;19
"1592";2;4;6;8;10;12;14;17;19
"1593";2;4;6;8;10;12;14;17;19
"1594";2;4;6;8;10;12;15;15;15
"1595";2;4;6;8;10;12;14;17;19
"1596";2;4;6;8;10;12;14;17;19
"1597";2;4;6;8;10;12;14;17;19
"1598";2;4;6;8;10;12;14;17;19
"1599";2;4;6;8;10;12;14;17;19
"1600";2;4;6;8;10;12;14;17;19
"1601";2;4;6;8;10;12;14;17;19
"1602";2;4;6;8;10;12;14;17;19
"1603";2;4;6;8;10;12;15;15;15
"1604";2;4;6;8;10;12;14;17;19
"1605";2;4;6;8;10;12;14;17;19
"1606";2;4;6;8;10;12;14;17;19
"1607";2;4;6;8;10;12;14;17;19
"1608";2;4;6;8;10;12;14;17;19
"1609";2;4;6;8;10;12;14;17;19
"1610";2;4;6;8;10;12;14;17;19
"1611";2;4;6;8;10;12;14;17;19
"1612";2;4;6;8;10;12;14;17;19
"1613";2;4;6;8;10;12;14;17;19
"1614";2;4;6;8;10;12;14;17;19
"1615";2;4;6;8;10;12;14;17;19
"1616";2;4;6;8;10;12;14;17;19
"1617";2;4;6;8;11;11;11;11;11
"1618";2;4;6;8;10;12;14;17;18
"1619";2;4;6;8;10;12;14;16;16
"1620";2;4;6;8;10;12;14;17;18
"1621";2;4;6;8;10;12;14;17;19
"1622";2;4;6;8;10;12;14;17;19
"1623";2;4;6;8;10;12;14;17;19
"1624";2;4;6;8;10;12;14;17;19
"1625";2;4;6;8;10;12;14;17;19
"1626";2;4;6;8;10;12;14;17;19
"1627";2;4;6;8;10;12;14;17;19
"1628";2;4;6;8;10;12;14;17;19
"1629";2;4;6;8;10;12;14;17;19
"1630";2;4;6;8;10;12;14;17;19
"1631";2;4;6;8;10;12;14;17;19
"1632";2;4;6;8;10;12;14;17;19
"1633";2;4;6;8;10;12;14;17;19
"1634";2;4;6;8;10;12;14;17;19
"1635";2;4;6;8;10;12;14;17;19
"1636";2;4;6;8;10;12;14;17;19
"1637";2;4;6;8;10;12;14;17;19
"1638";2;4;6;8;10;12;14;16;16
"1639";2;4;6;8;10;12;14;17;19
"1640";2;4;6;8;10;12;14;17;19
"1641";2;4;6;8;10;12;14;16;16
"1642";2;4;6;8;10;12;14;17;19
"1643";2;4;6;8;10;12;14;17;19
"1644";2;4;6;8;10;12;14;16;16
"1645";2;4;6;8;10;12;14;17;19
"1646";2;4;6;8;10;12;14;17;19
"1647";2;4;6;8;10;12;14;16;16
"1648";2;4;6;8;10;12;14;16;16
"1649";2;4;6;8;10;12;14;17;19
"1650";2;4;6;8;10;12;14;17;19
"1651";2;4;6;8;10;12;14;17;19
"1652";2;4;6;8;10;12;14;17;19
"1653";2;4;6;8;10;12;14;17;19
"1654";2;4;6;8;10;12;14;17;19
"1655";2;4;6;8;10;12;14;17;19
"1656";2;4;6;8;10;12;15;15;15
"1657";2;4;6;8;10;12;14;17;19
"1658";2;4;6;8;10;12;14;17;19
"1659";2;4;6;8;10;12;14;17;19
"1660";2;4;6;8;10;12;14;17;19
"1661";2;4;6;8;10;12;14;17;19
"1662";2;4;6;8;10;12;14;17;19
"1663";2;4;6;8;10;12;14;17;19
"1664";2;4;6;8;10;12;14;17;19
"1665";2;4;6;8;10;12;14;17;19
"1666";2;4;6;8;10;12;14;17;19
"1667";2;4;6;8;10;12;14;17;19
"1668";2;4;6;8;10;12;14;17;19
"1669";2;4;6;8;10;12;14;17;19
"1670";2;4;6;8;10;12;14;17;19
"1671";2;4;6;8;10;12;14;17;19
"1672";2;4;6;8;10;12;14;17;19
"1673";2;4;6;8;10;12;14;17;19
"1674";2;4;6;8;10;12;14;17;19
"1675";2;4;6;8;10;12;14;17;19
"1676";2;4;6;9;9;9;9;9;9
"1677";2;4;6;8;10;12;14;17;19
"1678";2;4;6;8;10;12;14;17;19
"1679";2;4;6;8;10;12;14;17;19
"1680";2;4;6;8;10;12;14;17;19
"1681";2;4;6;8;10;12;14;17;19
"1682";2;4;6;8;10;12;14;17;19
"1683";2;4;6;8;10;12;14;17;19
"1684";2;4;6;8;10;12;14;17;19
"1685";2;4;6;8;10;12;14;17;19
"1686";2;4;6;8;10;12;14;17;19
"1687";2;4;6;8;10;12;14;17;19
"1688";2;4;6;8;10;12;14;17;19
"1689";2;4;6;8;10;12;14;17;19
"1690";2;4;6;8;10;12;14;17;19
"1691";2;4;6;8;10;12;14;17;19
"1692";2;4;6;8;10;12;14;17;19
"1693";2;4;6;8;10;12;14;17;19
"1694";2;4;6;8;10;12;14;17;19
"1695";2;4;6;8;10;12;14;17;19
"1696";2;4;6;8;10;12;14;17;19
"1697";2;4;6;8;10;12;14;17;19
"1698";2;4;6;8;10;12;14;17;19
"1699";2;4;6;8;10;12;14;17;19
"1700";2;4;6;8;10;12;14;17;19
"1701";2;4;6;8;10;12;14;17;19
"1702";2;4;6;8;10;12;14;17;19
"1703";2;4;6;8;10;12;14;17;19
"1704";2;4;6;8;10;12;14;17;19
"1705";2;4;6;8;10;12;14;17;19
"1706";2;4;6;8;10;12;14;17;19
"1707";2;4;6;8;10;12;14;17;19
"1708";2;4;6;8;10;12;14;17;19
"1709";2;4;6;8;10;12;14;17;19
"1710";2;4;6;8;10;12;14;17;19
"1711";2;4;6;8;10;12;14;17;19
"1712";2;4;6;8;10;12;14;17;19
"1713";2;4;6;8;10;12;14;17;19
"1714";2;4;6;8;10;12;14;17;19
"1715";2;4;6;8;10;12;14;17;19
"1716";2;4;6;8;10;12;14;17;19
"1717";2;4;6;8;10;12;14;17;19
"1718";2;4;6;8;10;12;14;17;19
"1719";2;4;6;8;10;12;14;17;19
"1720";2;4;6;8;10;12;14;17;19
"1721";2;4;6;8;10;12;14;17;18
"1722";2;4;6;8;10;12;14;17;19
"1723";2;4;6;8;10;12;14;17;19
"1724";2;4;6;8;10;12;14;17;19
"1725";2;4;6;8;10;12;14;17;19
"1726";2;4;6;8;10;12;14;16;16
"1727";2;4;6;8;10;12;14;17;19
"1728";2;4;6;8;10;12;14;17;19
"1729";2;4;6;8;10;12;14;17;19
"1730";2;4;6;8;10;12;14;17;19
"1731";2;4;6;8;10;12;14;17;19
"1732";2;4;6;8;10;12;14;17;19
"1733";2;4;6;8;10;12;14;17;19
"1734";2;4;6;8;10;12;14;17;19
"1735";2;4;6;8;10;12;14;17;19
"1736";2;4;6;8;10;12;14;17;19
"1737";2;4;6;8;10;12;14;17;19
"1738";2;4;6;8;10;12;14;17;19
"1739";2;4;6;8;10;12;14;17;19
"1740";2;4;6;8;10;12;14;17;19
"1741";2;4;6;8;10;12;14;17;19
"1742";2;4;6;8;10;12;14;17;19
"1743";2;4;6;8;10;12;14;16;16
"1744";2;4;6;8;10;12;14;17;19
"1745";2;4;6;8;10;12;14;17;19
"1746";2;4;6;8;10;12;14;17;19
"1747";2;4;6;8;10;12;14;17;19
"1748";2;4;6;8;10;12;14;17;19
"1749";2;4;6;8;10;12;14;17;19
"1750";2;4;6;8;10;12;14;17;19
"1751";2;4;6;8;10;12;14;17;19
"1752";2;4;6;8;10;12;14;17;19
"1753";2;4;6;8;10;12;14;17;19
"1754";2;4;6;8;10;12;14;17;19
"1755";2;4;6;8;10;12;14;17;19
"1756";2;4;6;8;10;12;14;17;19
"1757";2;4;6;8;10;12;14;17;19
"1758";2;4;6;8;10;12;14;17;19
"1759";2;4;6;8;10;12;14;17;19
"1760";2;4;6;8;10;12;14;17;19
"1761";2;4;6;8;10;12;14;16;16
"1762";2;4;6;8;10;12;14;17;19
"1763";2;4;6;8;10;12;14;17;19
"1764";2;4;6;8;10;12;14;17;19
"1765";2;4;6;8;10;12;14;17;19
"1766";2;4;6;8;10;12;14;16;16
"1767";2;4;6;8;10;12;14;17;19
"1768";2;4;6;8;10;12;14;16;16
"1769";2;4;6;8;10;12;14;17;19
"1770";2;4;6;8;10;12;14;17;19
"1771";2;4;6;8;10;12;14;16;16
"1772";2;4;6;8;10;12;14;17;19
"1773";2;4;6;8;10;12;14;17;19
"1774";2;4;6;8;10;12;14;17;19
"1775";2;4;6;8;10;12;14;17;19
"1776";2;4;6;8;10;12;14;17;18
"1777";2;4;6;8;10;12;14;17;19
"1778";2;4;6;8;10;12;14;17;19
"1779";2;4;6;8;10;12;14;17;19
"1780";2;4;6;8;10;12;14;17;19
"1781";2;4;6;8;10;12;14;17;19
"1782";2;4;6;8;10;12;14;17;19
"1783";2;4;6;8;10;12;14;17;19
"1784";2;4;6;8;10;12;14;17;19
"1785";2;4;6;8;10;12;14;17;19
"1786";2;4;6;8;10;12;14;17;19
"1787";2;4;6;8;10;12;14;17;19
"1788";2;4;6;8;10;12;14;17;19
"1789";2;4;6;8;10;12;14;17;19
"1790";2;4;6;8;10;12;14;17;19
"1791";2;4;6;8;10;12;14;17;19
"1792";2;4;6;8;10;12;14;17;19
"1793";2;4;6;8;10;12;14;17;19
"1794";2;4;6;8;10;12;14;17;19
"1795";2;4;6;8;10;12;14;17;19
"1796";2;4;6;8;10;12;14;17;19
"1797";2;4;6;8;10;12;14;17;19
"1798";2;4;6;8;10;12;14;17;19
"1799";2;4;6;8;10;12;15;15;15
"1800";2;4;6;8;10;12;14;17;19
"1801";2;4;6;8;10;12;14;17;19
"1802";2;4;6;8;10;12;14;17;19
"1803";2;4;6;8;10;12;14;17;19
"1804";2;4;6;8;10;12;14;17;19
"1805";2;4;6;8;10;12;14;17;18
"1806";2;4;6;8;10;12;14;17;19
"1807";2;4;6;8;10;12;14;17;19
"1808";2;4;6;8;10;12;14;17;19
"1809";2;4;6;8;10;12;14;17;19
"1810";2;4;6;8;10;12;14;17;19
"1811";2;4;6;8;10;12;14;17;19
"1812";2;4;6;8;10;12;14;17;19
"1813";2;4;6;8;10;12;14;17;19
"1814";2;4;6;8;10;12;14;17;19
"1815";2;4;6;8;10;12;14;16;16
"1816";2;4;6;8;10;12;14;17;19
"1817";2;4;6;8;10;12;14;17;19
"1818";2;4;6;8;10;12;14;17;19
"1819";2;4;6;8;10;12;14;17;19
"1820";2;4;6;8;10;12;14;17;19
"1821";2;4;6;8;10;12;14;16;16
"1822";2;4;6;8;10;12;14;17;19
"1823";2;4;6;8;10;12;14;17;19
"1824";2;4;6;8;10;12;14;17;19
"1825";2;4;6;8;10;12;14;17;19
"1826";2;4;6;9;9;9;9;9;9
"1827";2;4;6;8;10;12;14;17;19
"1828";2;4;6;8;10;12;14;17;19
"1829";2;4;6;8;10;12;14;17;19
"1830";2;4;6;8;10;12;14;17;18
"1831";2;4;6;8;10;12;14;17;19
"1832";2;4;6;8;10;12;14;17;18
"1833";2;4;6;8;10;12;14;17;19
"1834";2;4;6;8;10;12;14;17;19
"1835";2;4;6;8;10;12;14;17;19
"1836";2;4;6;8;10;12;14;17;19
"1837";2;4;6;8;10;12;14;17;19
"1838";2;4;6;8;10;12;14;17;19
"1839";2;4;6;8;10;12;14;17;19
"1840";2;4;6;8;10;12;14;17;19
"1841";2;4;6;8;10;12;14;17;19
"1842";2;4;6;8;10;12;14;17;19
"1843";2;4;6;8;10;12;14;17;19
"1844";2;4;6;8;10;12;14;17;19
"1845";2;4;6;8;10;12;14;17;19
"1846";2;4;6;8;10;12;14;17;19
"1847";2;4;6;8;10;12;14;17;19
"1848";2;4;6;8;10;12;14;17;19
"1849";2;4;6;8;10;12;14;17;19
"1850";2;4;6;8;10;12;14;17;19
"1851";2;4;6;8;10;12;14;17;19
"1852";2;4;6;8;10;12;14;17;19
"1853";2;4;6;8;10;12;14;17;19
"1854";2;4;6;8;10;12;14;17;19
"1855";2;4;6;8;10;12;14;17;19
"1856";2;4;6;8;10;12;14;17;19
"1857";2;4;6;8;10;12;14;17;18
"1858";2;4;6;8;10;12;14;17;19
"1859";2;4;6;8;10;12;14;17;19
"1860";2;4;6;8;10;12;14;17;19
"1861";2;4;6;8;10;12;14;17;19
"1862";2;4;6;8;10;12;14;17;19
"1863";2;4;6;8;10;12;14;17;19
"1864";2;4;6;8;10;12;14;17;19
"1865";2;4;6;8;10;12;14;17;19
"1866";2;4;6;8;10;12;14;17;19
"1867";2;4;6;8;10;12;14;17;19
"1868";2;4;6;8;10;12;14;17;19
"1869";2;4;6;8;10;12;14;17;19
"1870";2;4;6;8;10;12;14;17;19
"1871";2;4;6;8;10;12;14;17;19
"1872";2;4;6;8;10;12;14;17;19
"1873";2;4;6;8;10;12;14;17;19
"1874";2;4;6;8;10;12;14;17;19
"1875";2;4;6;8;10;12;14;17;19
"1876";2;4;6;8;10;12;14;17;19
"1877";2;4;6;8;10;12;14;17;19
"1878";2;4;6;8;10;12;14;17;19
"1879";2;4;6;8;10;12;14;17;19
"1880";2;4;6;8;10;12;14;17;19
"1881";2;4;6;8;10;12;14;17;19
"1882";2;4;6;8;10;12;14;17;19
"1883";2;4;6;8;10;12;14;17;19
"1884";2;4;6;8;10;12;14;17;19
"1885";2;4;6;8;10;12;14;17;19
"1886";2;4;6;8;10;12;14;17;19
"1887";2;4;6;8;10;12;14;17;19
"1888";2;4;6;8;10;12;14;17;19
"1889";2;4;6;8;10;12;14;17;19
"1890";2;4;6;8;10;12;14;17;19
"1891";2;4;6;8;10;12;14;17;19
"1892";2;4;6;8;10;12;14;17;19
"1893";2;4;6;8;10;12;14;17;19
"1894";2;4;6;8;10;12;14;17;19
"1895";2;4;6;8;10;12;14;17;19
"1896";2;4;6;8;10;12;14;17;19
"1897";2;4;6;8;10;12;14;17;19
"1898";2;4;6;8;10;12;14;17;19
"1899";2;4;6;8;10;12;14;17;19
"1900";2;4;6;8;10;12;14;16;16
"1901";2;4;6;8;10;12;14;17;19
"1902";2;4;6;8;10;12;14;17;19
"1903";2;4;6;8;10;12;14;17;19
"1904";2;4;6;8;10;12;14;17;19
"1905";2;4;6;8;10;12;14;17;19
"1906";2;4;6;8;10;12;14;17;19
"1907";2;4;6;8;10;12;14;17;19
"1908";2;4;6;8;10;12;14;17;19
"1909";2;4;6;8;10;12;14;17;19
"1910";2;4;6;8;10;12;14;17;19
"1911";2;4;6;8;10;12;14;17;19
"1912";2;4;6;8;10;12;14;17;19
"1913";2;4;6;8;10;12;14;17;19
"1914";2;4;6;8;10;12;14;17;19
"1915";2;4;6;8;10;12;14;17;19
"1916";2;4;6;8;10;12;14;17;19
"1917";2;4;6;8;10;12;15;15;15
"1918";2;4;6;8;10;12;14;17;19
"1919";2;4;6;8;10;12;14;17;19
"1920";2;4;6;8;10;12;14;17;19
"1921";2;4;6;8;10;12;14;17;19
"1922";0;0;0;0;0;0;0;0;0
"1923";2;4;7;7;7;7;7;7;7
"1924";2;4;6;8;10;12;14;17;19
"1925";2;4;6;8;10;12;15;15;15
"1926";2;4;6;8;10;12;14;17;19
"1927";2;4;6;8;10;12;14;17;19
"1928";2;4;6;8;10;12;14;17;19
"1929";2;4;6;8;10;12;14;17;19
"1930";2;4;6;8;10;12;14;17;19
"1931";2;4;6;8;10;12;14;17;19
"1932";2;4;6;8;10;12;14;17;19
"1933";2;4;6;8;10;12;14;17;19
"1934";2;4;6;8;10;12;14;17;19
"1935";2;4;6;8;10;12;14;17;19
"1936";2;0;0;0;0;0;0;0;0
"1937";2;4;6;8;10;12;14;17;19
"1938";2;4;6;8;10;12;14;17;19
"1939";2;4;6;8;10;12;14;17;19
"1940";2;4;6;8;10;12;14;17;19
"1941";2;4;6;8;10;12;14;17;19
"1942";2;4;6;8;10;12;14;17;19
"1943";2;4;6;8;10;12;14;17;19
"1944";2;4;6;8;10;12;14;17;19
"1945";2;4;6;8;10;12;14;17;19
"1946";2;4;6;8;10;12;14;17;19
"1947";2;4;6;8;10;12;14;17;19
"1948";2;4;6;8;10;12;14;17;19
"1949";2;4;6;8;10;12;14;17;19
"1950";2;4;6;8;10;12;14;17;19
"1951";2;4;6;8;10;12;14;17;19
"1952";2;4;6;8;10;12;14;17;19
"1953";2;4;6;8;10;12;14;17;19
"1954";2;4;6;8;10;12;14;17;19
"1955";2;4;6;8;10;12;14;17;19
"1956";2;4;6;8;10;12;14;17;19
"1957";2;4;6;8;10;12;14;17;19
"1958";2;4;6;8;10;12;14;17;19
"1959";2;4;6;8;10;12;14;17;19
"1960";2;4;6;8;10;12;14;17;19
"1961";2;4;6;8;10;12;14;17;19
"1962";2;4;6;8;10;12;14;17;19
"1963";2;4;6;8;10;12;14;17;19
"1964";2;4;6;8;10;12;14;17;19
"1965";2;4;6;8;10;12;14;17;19
"1966";2;4;6;8;10;12;14;17;19
"1967";2;4;6;8;10;12;14;17;19
"1968";2;4;6;8;10;12;14;17;19
"1969";2;4;6;8;10;12;14;17;19
"1970";2;4;6;8;10;12;14;17;19
"1971";2;4;6;8;10;12;14;17;19
"1972";2;4;6;8;10;12;14;17;19
"1973";2;4;6;8;10;12;14;17;19
"1974";2;4;6;8;10;12;14;17;19
"1975";2;4;6;8;10;12;14;17;19
"1976";2;4;6;8;10;12;14;16;16
"1977";2;4;6;8;10;12;14;17;19
"1978";2;4;6;8;10;12;14;17;19
"1979";2;4;6;8;10;12;14;17;18
"1980";2;4;6;8;10;12;14;16;16
"1981";2;4;6;8;10;12;14;17;18
"1982";2;4;6;8;10;12;14;17;19
"1983";2;4;6;8;10;12;14;17;19
"1984";2;4;6;8;10;12;14;17;19
"1985";2;4;6;8;10;12;14;16;16
"1986";2;4;6;8;10;12;14;17;19
"1987";2;4;6;8;10;12;14;17;19
"1988";2;4;6;8;10;12;14;17;19
"1989";2;4;6;8;10;12;14;17;19
"1990";2;4;6;8;10;12;14;17;19
"1991";2;4;6;8;10;12;14;17;19
"1992";2;4;6;8;10;12;14;17;19
"1993";2;4;6;8;10;12;14;17;19
"1994";2;4;6;8;10;12;14;17;19
"1995";2;4;6;8;10;12;14;17;19
"1996";2;4;6;8;10;12;14;17;19
"1997";2;4;6;8;10;12;14;17;19
"1998";2;4;6;8;10;12;14;17;19
"1999";2;4;6;8;10;12;14;17;19
"2000";2;4;6;8;10;12;14;17;19
"2001";2;4;6;8;10;12;14;17;19
"2002";2;4;6;8;10;12;14;17;19
"2003";2;4;6;8;10;12;14;17;19
"2004";2;4;6;8;10;12;14;17;19
"2005";2;4;6;8;10;12;14;17;19
"2006";2;4;6;8;10;12;14;17;19
"2007";2;4;6;8;10;12;14;17;19
"2008";2;4;6;8;10;12;14;17;19
"2009";2;4;6;8;10;12;14;17;19
"2010";2;4;6;8;10;12;14;17;19
"2011";2;4;6;8;10;12;14;17;19
"2012";2;4;6;8;10;12;14;17;19
"2013";2;4;6;8;10;12;14;17;19
"2014";2;4;6;8;10;12;14;17;19
"2015";2;4;6;8;10;12;14;17;19
"2016";2;4;6;8;10;12;14;17;19
"2017";2;4;6;8;10;12;14;17;19
"2018";2;4;6;8;10;12;14;17;19
"2019";2;4;6;8;10;12;14;17;19
"2020";2;4;6;8;10;12;14;17;19
"2021";2;4;6;8;10;12;14;17;19
"2022";2;4;6;8;10;12;14;17;19
"2023";2;4;6;8;10;12;14;17;19
"2024";2;4;6;8;10;12;14;17;19
"2025";2;4;6;8;10;12;14;17;19
"2026";2;4;6;8;10;12;14;17;19
"2027";2;4;6;8;10;12;14;17;19
"2028";2;4;6;8;10;12;14;17;19
"2029";2;4;6;8;10;12;14;17;19
"2030";2;4;6;8;10;12;14;17;19
"2031";2;4;6;8;10;12;14;17;19
"2032";2;4;6;8;10;12;14;17;19
"2033";2;4;6;8;10;12;14;17;19
"2034";2;4;6;8;10;12;14;16;16
"2035";2;4;6;8;10;12;14;16;16
"2036";2;4;6;8;10;12;14;17;19
"2037";2;4;6;8;10;12;14;17;19
"2038";2;4;6;8;10;12;14;17;19
"2039";2;4;6;8;10;12;14;17;19
"2040";2;4;6;8;10;12;14;17;19
"2041";2;4;6;8;10;12;14;17;19
"2042";2;4;6;8;10;12;14;17;19
"2043";2;4;6;8;10;12;14;17;19
"2044";2;4;6;8;10;12;14;17;19
"2045";2;4;6;8;10;12;14;17;19
"2046";2;4;6;8;10;12;14;17;19
"2047";2;4;6;8;10;12;14;17;19
"2048";2;4;6;8;10;12;14;17;19
"2049";2;4;6;8;10;12;14;17;19
"2050";2;4;6;8;10;12;14;17;19
"2051";2;4;6;8;10;12;14;17;19
"2052";2;4;6;8;10;12;14;17;19
"2053";2;4;6;8;10;12;14;17;19
"2054";2;4;6;8;10;12;14;17;19
"2055";2;4;6;8;10;12;14;17;19
"2056";2;4;6;8;10;12;14;17;19
"2057";2;4;6;8;10;12;14;17;19
"2058";2;4;6;8;10;12;14;17;19
"2059";2;4;6;8;10;12;14;17;19
"2060";2;4;6;8;10;12;14;17;19
"2061";2;4;6;8;10;12;14;17;19
"2062";2;4;6;8;10;12;14;17;19
"2063";2;4;6;8;10;12;14;17;19
"2064";2;4;6;8;10;12;14;17;19
"2065";2;4;6;8;10;12;14;17;19
"2066";2;4;6;8;10;12;14;17;19
"2067";2;4;6;8;10;12;14;17;19
"2068";2;4;6;8;10;12;14;17;19
"2069";2;4;6;8;10;12;14;17;19
"2070";2;4;6;8;10;12;14;17;19
"2071";2;4;6;8;10;12;14;17;19
"2072";2;4;6;8;10;12;14;17;19
"2073";2;4;6;8;10;12;14;17;19
"2074";2;4;6;8;10;12;14;16;16
"2075";2;4;6;8;10;12;14;17;19
"2076";2;4;6;8;10;12;14;17;19
"2077";2;4;6;8;10;12;14;17;19
"2078";2;4;6;8;10;12;14;17;19
"2079";2;4;6;8;10;12;14;17;19
"2080";2;4;6;8;10;12;14;17;19
"2081";2;4;6;8;10;12;14;17;19
"2082";2;4;6;8;10;12;14;17;19
"2083";2;4;6;8;10;12;14;17;19
"2084";2;4;6;8;10;12;14;17;19
"2085";2;4;6;8;10;12;14;17;19
"2086";2;4;6;8;10;12;14;17;19
"2087";2;4;6;8;10;12;14;17;19
"2088";2;4;6;8;10;12;14;17;19
"2089";2;4;6;8;10;12;14;17;19
"2090";2;4;6;8;10;12;14;16;16
"2091";2;4;6;8;10;12;14;16;16
"2092";2;4;6;8;10;12;14;16;16
"2093";2;4;6;8;10;12;14;17;19
"2094";2;4;6;8;10;12;14;17;19
"2095";2;4;6;8;10;12;14;17;19
"2096";2;4;6;8;10;12;14;17;19
"2097";2;4;6;8;10;12;14;17;19
"2098";2;4;6;8;10;12;14;17;18
"2099";2;4;6;8;10;12;14;16;16
"2100";2;4;6;8;10;12;14;16;16
"2101";2;4;6;8;10;12;14;16;16
"2102";2;4;6;8;10;12;14;17;18
"2103";2;4;6;8;10;12;14;16;16
"2104";2;4;6;8;10;12;14;17;18
"2105";2;4;6;8;10;12;14;17;19
"2106";2;4;6;8;10;12;14;17;19
"2107";2;4;6;8;10;12;14;17;19
"2108";2;4;6;8;10;12;14;16;16
"2109";2;4;6;8;10;12;14;17;19
"2110";2;4;6;8;10;12;14;17;19
"2111";2;4;6;8;10;12;14;17;19
"2112";2;4;6;8;10;12;14;17;19
"2113";2;4;6;8;10;12;14;17;19
"2114";2;4;6;8;10;12;14;17;19
"2115";2;4;6;8;10;12;14;17;19
"2116";2;4;6;8;10;12;14;17;19
"2117";2;4;6;8;10;12;14;17;19
"2118";2;4;6;8;10;12;14;17;19
"2119";2;4;6;8;10;12;14;17;19
"2120";2;4;6;8;10;12;14;17;19
"2121";2;4;6;8;10;12;14;17;19
"2122";2;4;6;8;10;12;14;17;19
"2123";2;4;6;8;10;12;14;17;19
"2124";2;4;6;8;10;12;14;17;19
"2125";2;4;6;8;10;12;14;17;19
"2126";2;4;6;8;10;12;14;17;19
"2127";2;4;6;8;10;12;14;17;19
"2128";2;4;6;8;10;12;14;17;19
"2129";2;4;6;8;10;12;14;17;19
"2130";2;4;6;8;10;12;14;17;19
"2131";2;4;6;8;10;12;15;15;15
"2132";2;4;6;8;10;12;14;17;19
"2133";2;4;6;8;10;12;14;17;19
"2134";2;4;6;8;10;12;14;17;19
"2135";2;4;6;8;10;12;15;15;15
"2136";2;4;6;8;10;12;14;17;19
"2137";2;4;6;8;10;12;14;17;19
"2138";2;4;6;8;10;12;14;17;19
"2139";2;4;6;8;10;12;14;17;19
"2140";2;4;6;8;10;12;14;17;19
"2141";2;4;6;8;10;12;14;17;19
"2142";2;4;6;8;10;12;14;17;19
"2143";2;4;6;8;10;12;14;17;19
"2144";2;4;6;8;10;12;14;17;19
"2145";2;4;6;8;10;12;14;17;19
"2146";2;4;6;8;10;12;15;15;15
"2147";2;4;6;8;10;12;14;17;19
"2148";2;4;6;8;10;12;14;17;19
"2149";2;4;6;8;10;12;14;17;19
"2150";2;4;6;8;10;12;14;17;19
"2151";2;4;6;8;10;12;14;17;19
"2152";2;4;6;8;10;12;14;17;19
"2153";2;4;6;8;10;12;14;17;19
"2154";2;4;6;8;10;12;14;17;19
"2155";2;4;6;8;10;12;14;17;19
"2156";2;4;6;8;10;12;14;17;19
"2157";2;4;6;8;10;12;14;17;19
"2158";2;4;6;8;10;12;14;17;19
"2159";2;4;6;8;10;12;14;17;19
"2160";2;4;6;8;10;12;14;17;19
"2161";2;4;6;8;10;12;14;17;19
"2162";2;4;6;8;10;12;14;17;19
"2163";2;4;6;8;10;12;15;15;15
"2164";2;4;6;8;10;12;14;17;19
"2165";2;4;6;8;10;12;14;17;19
"2166";2;4;6;8;10;12;14;17;19
"2167";2;4;6;8;10;12;14;17;19
"2168";2;4;6;8;10;12;14;17;19
"2169";2;4;6;8;10;12;14;17;19
"2170";2;4;6;8;10;12;14;17;19
"2171";2;4;6;8;10;12;14;17;19
"2172";2;4;6;8;10;12;14;17;19
"2173";2;4;6;8;10;12;14;17;19
"2174";2;4;6;8;10;12;14;17;19
"2175";2;4;6;8;10;12;14;17;19
"2176";2;4;6;8;10;12;14;17;19
"2177";2;4;6;8;10;12;14;17;19
"2178";2;4;6;8;10;12;14;17;19
"2179";2;4;6;8;10;12;14;17;19
"2180";2;4;6;8;10;12;14;17;19
"2181";2;4;6;8;10;12;14;16;16
"2182";2;4;6;8;10;12;14;17;19
"2183";2;4;6;8;10;12;14;17;19
"2184";2;4;6;8;10;12;14;17;19
"2185";2;4;6;8;10;12;14;17;19
"2186";2;4;6;8;10;12;14;17;19
"2187";2;4;6;8;10;12;14;17;19
"2188";2;4;6;8;10;12;14;17;19
"2189";2;4;6;8;10;12;14;17;19
"2190";2;4;6;8;10;12;14;17;19
"2191";2;4;6;8;10;12;14;17;19
"2192";2;4;6;8;10;12;14;17;19
"2193";2;4;6;8;10;12;14;16;16
"2194";2;4;6;8;10;12;14;17;19
"2195";2;4;6;8;10;12;14;16;16
"2196";2;4;6;8;10;12;14;17;19
"2197";2;4;6;8;10;12;14;16;16
"2198";2;4;6;8;10;12;14;16;16
"2199";2;4;6;8;10;12;14;17;19
"2200";2;4;6;8;10;12;14;16;16
"2201";2;4;6;8;10;12;14;17;19
"2202";2;4;6;8;10;12;14;17;19
"2203";2;4;6;8;10;12;14;16;16
"2204";2;4;6;8;10;12;14;16;16
"2205";2;4;6;8;10;12;14;16;16
"2206";2;4;6;8;10;12;14;16;16
"2207";2;4;6;8;10;12;14;17;19
"2208";2;4;6;8;10;12;14;16;16
"2209";2;4;6;8;10;12;14;16;16
"2210";2;4;6;8;10;12;14;17;19
"2211";2;4;6;8;10;12;14;17;19
"2212";2;4;6;8;10;12;14;17;19
"2213";2;4;6;8;10;12;14;17;19
"2214";2;4;6;8;10;12;14;17;19
"2215";2;4;6;8;10;12;14;17;19
"2216";2;4;6;8;10;12;14;17;19
"2217";2;4;6;8;10;12;14;17;19
"2218";2;4;6;8;10;12;14;17;19
"2219";2;4;6;8;10;12;14;17;19
"2220";2;4;6;8;10;12;14;17;19
"2221";2;4;6;8;10;12;14;17;19
"2222";2;4;6;8;10;12;15;15;15
"2223";2;4;6;8;10;12;14;17;19
"2224";2;4;6;8;10;12;14;17;19
"2225";2;4;6;8;10;12;14;17;19
"2226";2;4;6;8;10;12;14;17;19
"2227";2;4;6;8;10;12;14;17;19
"2228";2;4;6;8;10;12;14;17;19
"2229";2;4;6;8;10;12;14;17;19
"2230";2;4;6;8;10;12;14;17;19
"2231";2;4;6;8;10;12;14;17;19
"2232";2;4;6;8;10;12;14;17;19
"2233";2;4;6;8;10;12;14;17;19
"2234";2;4;6;8;10;12;14;17;19
"2235";2;4;6;8;10;12;14;17;19
"2236";2;4;6;8;10;12;14;17;19
"2237";2;4;6;8;10;12;14;17;19
"2238";2;4;6;8;10;12;14;16;16
"2239";2;4;6;8;10;12;14;17;19
"2240";2;4;6;8;10;12;14;17;19
"2241";2;4;6;8;10;12;14;17;19
"2242";2;4;6;8;10;12;14;17;19
"2243";2;4;6;8;10;12;14;17;19
"2244";2;4;6;8;10;12;14;17;19
"2245";2;4;6;8;10;12;14;17;19
"2246";2;4;6;8;10;12;14;17;19
"2247";2;4;6;8;10;12;14;17;19
"2248";2;4;6;8;10;12;14;17;19
"2249";2;4;6;8;10;12;14;17;19
"2250";2;4;6;8;10;12;14;16;16
"2251";2;4;6;8;10;12;14;17;19
"2252";2;4;6;8;10;12;14;17;19
"2253";2;4;6;8;10;12;14;17;19
"2254";2;4;6;8;10;12;14;17;19
"2255";2;4;6;8;10;12;14;17;19
"2256";2;4;6;8;10;12;14;17;19
"2257";2;4;6;8;10;12;14;17;19
"2258";2;4;6;8;10;12;14;17;19
"2259";2;4;6;8;10;12;14;17;19
"2260";2;4;6;8;10;12;14;17;19
"2261";2;4;6;8;10;12;14;17;19
"2262";2;4;6;8;10;12;14;17;19
"2263";2;4;6;8;10;12;14;17;19
"2264";2;4;6;8;10;12;14;17;19
"2265";2;4;6;8;10;12;14;17;19
"2266";2;4;6;8;10;12;14;17;19
"2267";2;4;6;8;10;12;14;17;19
"2268";2;4;6;8;10;12;14;17;19
"2269";2;4;6;8;10;12;14;17;19
"2270";2;4;6;8;10;12;14;17;19
"2271";2;4;6;8;10;12;14;17;19
"2272";2;4;6;8;10;12;14;17;19
"2273";2;4;6;8;10;12;14;17;19
"2274";2;4;6;8;10;12;14;17;19
"2275";2;4;6;8;10;12;14;17;19
"2276";2;4;6;8;10;12;14;17;19
"2277";2;4;6;8;10;12;14;17;19
"2278";2;4;6;8;10;12;14;17;19
"2279";2;4;6;8;10;12;14;17;19
"2280";2;4;6;8;10;12;14;17;19
"2281";2;4;6;8;10;12;14;17;19
"2282";2;4;6;8;10;12;14;17;19
"2283";2;4;6;8;10;12;14;17;19
"2284";2;4;6;8;10;12;14;17;19
"2285";2;4;6;8;10;12;14;17;19
"2286";2;4;6;8;10;12;14;17;19
"2287";2;4;6;8;10;12;14;17;18
"2288";2;4;6;8;10;12;14;17;19
"2289";2;4;6;8;10;12;14;17;19
"2290";2;4;6;8;10;12;14;17;19
"2291";2;4;6;8;10;12;14;17;19
"2292";2;4;6;8;10;12;14;17;19
"2293";2;4;6;8;10;12;14;17;19
"2294";2;4;6;8;10;12;14;17;19
"2295";2;4;6;8;10;12;14;17;19
"2296";2;4;6;8;10;12;14;17;19
"2297";2;4;6;8;10;12;14;17;19
"2298";2;4;6;8;10;12;14;17;19
"2299";2;4;6;8;10;12;14;17;19
"2300";2;4;6;8;10;12;14;17;19
"2301";2;4;6;8;10;12;14;17;19
"2302";2;4;6;8;10;12;14;17;19
"2303";2;4;6;8;10;12;14;17;19
"2304";2;4;6;8;10;12;14;17;19
"2305";2;4;6;8;10;12;14;17;19
"2306";2;4;6;8;10;12;14;17;19
"2307";2;4;6;8;10;12;14;17;19
"2308";2;4;6;8;10;12;14;17;19
"2309";2;4;6;8;10;12;14;17;19
"2310";2;4;6;8;11;11;11;11;11
"2311";2;4;6;8;10;12;14;16;16
"2312";2;4;6;8;10;12;14;17;18
"2313";2;4;6;8;10;12;14;16;16
"2314";2;4;6;8;10;12;14;17;18
"2315";2;4;6;8;10;12;14;17;19
"2316";2;4;6;8;10;12;14;16;16
"2317";2;4;6;8;10;12;14;17;19
"2318";2;4;6;8;10;12;14;17;19
"2319";2;4;6;8;10;12;14;17;19
"2320";2;4;6;8;10;12;14;17;19
"2321";2;4;6;8;10;12;14;17;19
"2322";2;4;6;8;10;12;14;17;19
"2323";2;4;6;8;10;12;14;17;19
"2324";2;4;6;8;10;12;15;15;15
"2325";2;4;6;8;10;12;14;17;19
"2326";2;4;6;8;10;12;14;17;19
"2327";2;4;6;8;10;12;14;17;19
"2328";2;4;6;8;10;12;14;17;19
"2329";2;4;6;8;10;12;15;15;15
"2330";2;4;6;8;10;12;14;17;19
"2331";2;4;6;8;10;12;14;17;19
"2332";2;4;6;8;10;12;14;17;19
"2333";2;4;6;8;10;12;14;17;19
"2334";2;4;6;8;10;12;14;17;19
"2335";2;4;6;8;10;12;14;17;19
"2336";2;4;6;8;10;12;14;17;19
"2337";2;4;6;8;10;12;14;17;19
"2338";2;4;6;8;10;12;14;17;19
"2339";2;4;6;8;10;12;14;17;19
"2340";2;4;6;8;10;12;14;17;19
"2341";2;4;6;8;10;12;14;17;19
"2342";2;4;6;8;10;12;14;17;19
"2343";2;4;6;8;10;12;14;17;19
"2344";2;4;6;8;10;12;14;17;19
"2345";2;4;6;8;10;12;14;17;19
"2346";2;4;6;8;10;12;14;17;19
"2347";2;4;6;8;10;12;14;16;16
"2348";2;4;6;8;10;12;14;17;19
"2349";2;4;6;8;10;12;14;17;19
"2350";2;4;6;8;10;12;14;17;19
"2351";2;4;6;8;10;12;14;17;19
"2352";2;4;6;8;10;12;14;17;19
"2353";2;4;6;8;10;12;14;17;19
"2354";2;4;6;8;10;12;14;17;19
"2355";2;4;6;8;10;12;14;17;19
"2356";2;4;6;8;10;12;14;17;19
"2357";2;4;6;8;10;12;14;17;19
"2358";2;4;6;8;10;12;14;17;19
"2359";2;4;6;8;10;12;14;17;19
"2360";2;4;6;8;10;12;14;17;19
"2361";2;4;6;8;10;12;14;17;19
"2362";2;4;6;8;10;12;14;17;19
"2363";2;4;6;8;10;12;14;17;19
"2364";2;4;6;8;10;12;14;17;19
"2365";2;4;6;8;10;12;14;17;19
"2366";2;4;6;8;10;12;14;16;16
"2367";2;4;6;8;10;12;14;17;19
"2368";2;4;6;8;10;12;14;17;18
"2369";2;4;6;8;10;12;14;16;16
"2370";2;4;6;8;10;12;14;17;18
"2371";2;4;6;8;10;12;14;17;19
"2372";2;4;6;8;10;13;13;13;13
"2373";2;4;6;8;10;12;14;17;19
"2374";2;4;6;8;10;12;14;17;19
"2375";2;4;6;8;10;12;14;17;19
"2376";2;4;6;8;10;12;14;17;19
"2377";2;4;6;8;10;12;14;17;19
"2378";2;4;6;8;10;12;14;17;19
"2379";2;4;6;8;10;12;14;17;19
"2380";2;4;6;8;10;12;14;17;19
"2381";2;4;6;8;10;12;14;17;19
"2382";2;4;6;8;10;12;14;17;19
"2383";2;4;6;8;10;12;14;17;19
"2384";2;4;6;8;10;12;14;17;19
"2385";2;4;6;8;10;13;13;13;13
"2386";2;4;6;8;10;12;14;17;19
"2387";0;0;0;0;0;0;0;0;0
"2388";2;4;6;8;10;12;14;17;19
"2389";2;4;6;8;10;12;14;17;18
"2390";2;4;6;8;10;12;14;16;16
"2391";2;4;6;8;10;12;14;17;19
"2392";2;4;6;8;10;12;14;17;19
"2393";2;4;6;8;10;12;14;17;19
"2394";2;4;6;8;10;12;14;17;19
"2395";2;4;6;8;10;12;14;17;19
"2396";2;4;6;8;10;12;14;17;19
"2397";2;4;6;8;10;12;14;17;19
"2398";2;4;6;8;10;12;14;17;19
"2399";2;4;6;8;10;12;14;17;19
"2400";2;4;6;8;10;12;14;17;19
"2401";2;4;6;8;10;12;14;17;19
"2402";2;4;6;8;10;12;14;17;19
"2403";2;4;6;8;10;12;14;17;19
"2404";2;4;6;8;10;12;14;17;19
"2405";2;4;6;8;10;12;14;17;19
"2406";2;4;6;8;10;12;14;17;19
"2407";2;4;6;9;9;9;9;9;9
"2408";2;4;6;8;10;12;14;17;19
"2409";2;4;6;8;10;12;14;17;19
"2410";2;4;6;8;10;12;14;17;19
"2411";2;4;6;8;10;12;14;17;19
"2412";2;4;6;8;10;12;14;16;16
"2413";2;4;6;8;10;12;14;16;16
"2414";2;4;6;8;10;12;14;16;16
"2415";2;4;6;8;10;12;14;17;19
"2416";2;4;6;8;10;12;14;17;19
"2417";2;4;6;8;10;12;14;17;19
"2418";2;4;6;8;10;12;14;17;19
"2419";2;4;6;8;10;12;14;17;19
"2420";2;4;6;8;10;12;14;17;19
"2421";2;4;6;8;10;12;14;17;19
"2422";2;4;6;8;10;12;14;16;16
"2423";2;4;6;8;10;12;14;17;19
"2424";2;4;6;8;10;12;14;17;19
"2425";2;4;6;8;10;12;14;17;19
"2426";2;4;6;8;10;12;14;17;19
"2427";2;4;6;8;10;12;14;17;19
"2428";2;4;6;8;10;12;14;17;19
"2429";2;4;6;8;10;12;14;17;19
"2430";2;4;6;8;10;12;14;17;19
"2431";2;4;6;8;10;12;14;17;19
"2432";2;4;6;8;10;12;15;15;15
"2433";2;4;6;8;10;12;14;17;19
"2434";2;4;6;8;10;12;14;17;19
"2435";2;4;6;8;10;12;14;17;19
"2436";2;4;6;8;10;12;14;17;19
"2437";2;4;6;8;10;12;14;17;19
"2438";2;4;6;8;10;12;14;16;16
"2439";2;4;6;8;10;12;14;17;19
"2440";2;4;6;8;10;12;14;17;19
"2441";2;4;6;8;10;12;14;17;19
"2442";2;4;6;8;10;12;14;16;16
"2443";2;4;6;8;10;12;14;17;19
"2444";2;4;6;8;10;12;14;17;19
"2445";2;4;6;8;10;12;14;17;19
"2446";2;4;6;8;10;12;14;16;16
"2447";2;4;6;8;10;12;14;16;16
"2448";2;4;6;8;10;12;14;17;19
"2449";2;4;6;8;10;12;14;17;19
"2450";2;4;6;8;10;12;14;17;19
"2451";2;4;6;8;10;12;14;17;19
"2452";2;4;6;8;10;12;14;17;19
"2453";2;4;6;8;10;12;14;17;19
"2454";2;4;6;8;10;12;14;16;16
"2455";2;4;6;8;10;12;14;16;16
"2456";2;4;6;8;10;12;14;17;19
"2457";2;4;6;8;10;12;14;17;19
"2458";2;4;6;8;10;12;14;16;16
"2459";2;4;6;8;10;12;14;17;19
"2460";2;4;6;8;10;12;14;16;16
"2461";2;4;6;8;10;12;14;17;19
"2462";2;4;6;8;10;12;14;16;16
"2463";2;4;6;8;10;12;14;16;16
"2464";2;5;5;5;5;5;5;5;5
"2465";2;4;6;8;10;12;14;17;19
"2466";2;4;6;8;10;12;15;15;15
"2467";2;5;5;5;5;5;5;5;5
"2468";2;4;6;8;10;12;14;17;19
"2469";2;4;6;8;10;12;14;17;19
"2470";2;4;6;8;10;12;14;17;19
"2471";2;4;6;8;10;12;15;15;15
"2472";2;4;6;8;10;12;14;17;19
"2473";2;4;6;8;10;12;14;17;19
"2474";2;4;6;8;10;12;14;17;19
"2475";2;4;6;8;10;12;14;17;19
"2476";2;4;6;8;10;12;14;17;19
"2477";2;4;6;8;10;12;14;17;19
"2478";2;4;6;8;10;12;14;17;19
"2479";2;4;6;8;10;12;14;17;19
"2480";2;4;6;8;10;12;15;15;15
"2481";2;4;6;8;10;12;14;17;19
"2482";2;4;6;8;10;12;14;17;19
"2483";2;4;6;8;10;12;14;17;19
"2484";2;4;6;8;10;12;14;17;19
"2485";2;4;6;8;10;12;14;17;19
"2486";2;4;6;8;10;12;14;17;19
"2487";2;4;6;8;10;12;14;16;16
"2488";2;4;6;8;10;12;14;17;19
"2489";2;4;6;8;10;12;14;17;19
"2490";2;4;6;8;10;12;14;17;19
"2491";2;4;6;8;10;12;14;17;19
"2492";2;4;6;8;10;12;14;17;19
"2493";2;4;6;8;10;12;14;17;19
"2494";2;4;6;8;10;12;14;17;19
"2495";2;4;6;8;10;12;14;17;19
"2496";2;4;6;8;10;12;14;16;16
"2497";2;4;6;8;10;12;15;15;15
"2498";2;4;6;8;10;12;14;16;16
"2499";2;4;6;8;10;12;14;17;18
"2500";2;4;6;8;10;12;14;17;19
"2501";2;4;6;8;10;12;14;17;19
"2502";2;4;6;8;10;12;14;17;19
"2503";2;4;6;8;10;12;14;17;19
"2504";2;4;6;8;10;12;14;17;19
"2505";2;4;6;8;10;12;14;17;19
"2506";2;4;6;8;10;12;14;16;16
"2507";2;4;6;8;10;12;14;17;19
"2508";2;4;6;8;10;12;14;17;19
"2509";2;4;6;8;10;12;14;17;19
"2510";2;4;6;8;10;12;14;17;19
"2511";2;4;6;8;10;12;14;17;19
"2512";2;4;6;8;10;12;15;15;15
"2513";2;4;6;8;10;12;14;17;19
"2514";2;4;6;8;10;12;14;17;19
"2515";2;4;6;8;10;12;14;17;19
"2516";2;4;6;8;10;12;14;16;16
"2517";2;4;6;8;10;12;14;16;16
"2518";2;4;6;8;10;12;14;17;19
"2519";2;4;6;8;10;12;14;17;19
"2520";2;4;6;8;10;12;14;17;19
"2521";2;4;6;8;10;12;14;17;19
"2522";2;4;6;8;10;12;14;17;19
"2523";2;4;6;8;10;12;14;17;19
"2524";2;4;6;8;10;12;14;17;19
"2525";2;4;6;8;10;12;14;17;19
"2526";2;4;6;8;10;12;14;17;19
"2527";2;4;6;8;10;12;14;17;19
"2528";2;4;6;8;10;12;14;17;19
"2529";2;4;6;8;10;12;14;17;19
"2530";2;4;6;8;10;12;14;17;19
"2531";2;4;6;8;10;12;14;17;19
"2532";2;4;6;8;10;12;14;17;19
"2533";2;4;6;8;10;12;14;17;19
"2534";2;4;6;8;10;12;14;17;19
"2535";3;3;3;3;3;3;3;3;3
"2536";2;4;6;8;10;12;14;17;19
"2537";2;4;6;8;10;12;14;17;19
"2538";2;4;6;8;10;12;14;17;19
"2539";2;4;6;8;10;12;14;17;19
"2540";2;4;6;8;10;12;14;17;19
"2541";2;4;6;8;10;12;14;17;19
"2542";2;4;6;8;10;12;14;17;19
"2543";2;4;6;8;10;12;14;17;19
"2544";2;4;6;8;10;12;14;17;19
"2545";2;4;6;8;10;12;14;17;19
"2546";2;4;6;8;10;12;14;17;19
"2547";2;4;6;8;10;12;14;16;16
"2548";2;4;6;8;10;12;14;17;19
"2549";2;4;6;8;10;12;14;17;19
"2550";2;4;6;8;10;12;14;17;19
"2551";2;4;6;8;10;12;14;17;19
"2552";2;4;6;8;10;12;14;17;19
"2553";2;4;6;8;10;12;14;17;19
"2554";2;4;6;8;10;12;14;17;19
"2555";2;4;6;8;10;12;14;17;19
"2556";2;4;6;8;10;12;14;17;19
"2557";2;4;6;8;10;12;14;17;19
"2558";2;4;6;8;10;12;14;17;19
"2559";2;4;6;8;10;12;14;17;19
"2560";2;4;6;8;10;12;14;17;19
"2561";2;4;6;8;10;12;14;17;19
"2562";2;4;6;8;10;12;14;17;19
"2563";2;4;6;8;10;12;14;17;19
"2564";2;4;6;8;10;12;14;17;19
"2565";2;4;6;8;10;12;14;17;19
"2566";2;4;6;8;10;12;14;17;19
"2567";2;4;6;8;10;12;14;17;19
"2568";2;4;6;8;10;12;14;17;19
"2569";2;4;6;8;10;12;14;17;19
"2570";2;4;6;8;10;12;14;17;19
"2571";2;4;6;8;10;12;14;17;19
"2572";2;4;6;8;10;12;14;17;19
"2573";2;4;6;8;10;12;14;17;19
"2574";2;4;6;8;10;12;14;17;19
"2575";2;4;6;8;10;12;14;17;19
"2576";2;4;6;8;10;12;14;17;19
"2577";2;4;6;8;10;12;14;17;19
"2578";2;4;6;8;10;12;14;17;19
"2579";2;4;6;8;10;12;14;16;16
"2580";2;4;6;8;10;12;14;17;19
"2581";2;4;6;8;10;12;14;16;16
"2582";2;4;6;8;10;12;14;17;19
"2583";2;4;6;8;10;12;14;17;19
"2584";2;4;6;8;10;12;14;17;19
"2585";2;4;6;8;10;12;14;17;19
"2586";2;4;6;8;10;12;14;17;19
"2587";2;4;6;8;10;12;14;17;19
"2588";2;4;6;8;10;12;14;17;19
"2589";2;4;6;8;10;12;14;17;19
"2590";2;4;6;8;10;12;14;16;16
"2591";2;4;6;8;10;12;14;17;19
"2592";2;4;6;8;10;12;14;17;19
"2593";2;4;6;8;10;12;14;16;16
"2594";2;4;6;8;10;12;14;17;19
"2595";2;4;6;8;10;12;14;17;19
"2596";2;4;6;8;10;12;14;16;16
"2597";2;4;6;8;10;12;14;17;18
"2598";2;4;6;8;10;12;14;17;19
"2599";2;4;6;8;10;12;14;17;19
"2600";2;4;6;8;10;12;14;17;19
"2601";2;4;6;8;10;12;14;17;19
"2602";2;4;6;8;10;12;14;17;19
"2603";2;4;6;8;10;12;14;17;19
"2604";2;4;6;8;10;12;14;17;19
"2605";2;4;6;8;10;12;14;17;19
"2606";2;4;6;8;10;12;14;17;19
"2607";2;4;6;8;10;12;14;17;19
"2608";2;4;6;8;10;12;14;17;19
"2609";2;4;6;8;10;12;14;17;19
"2610";2;4;6;8;10;12;14;17;19
"2611";2;4;6;8;10;12;14;17;19
"2612";2;4;6;8;10;12;14;17;19
"2613";2;4;6;8;10;12;14;17;19
"2614";2;4;6;8;10;12;14;17;19
"2615";2;4;6;8;10;13;13;13;13
"2616";2;4;6;8;10;12;14;17;19
"2617";2;4;6;8;10;12;14;17;19
"2618";2;4;6;8;10;12;14;17;19
"2619";2;4;6;8;10;12;14;17;19
"2620";2;4;6;8;10;12;14;17;19
"2621";2;4;6;8;10;12;14;17;19
"2622";2;4;6;8;10;12;14;17;19
"2623";2;4;6;8;10;12;14;17;19
"2624";2;4;6;8;10;12;14;17;19
"2625";2;4;6;8;10;12;14;17;19
"2626";2;4;6;8;10;12;14;17;19
"2627";2;4;6;8;10;12;14;17;19
"2628";2;4;6;8;10;12;14;17;19
"2629";2;4;6;8;10;12;14;17;19
"2630";2;4;6;8;10;12;14;17;19
"2631";2;4;6;8;10;12;14;17;19
"2632";2;4;6;8;10;12;14;17;19
"2633";2;4;6;8;10;12;14;17;19
"2634";2;4;6;8;10;12;14;17;19
"2635";2;4;6;8;10;12;14;17;19
"2636";2;4;6;8;10;12;14;17;19
"2637";2;4;6;8;10;12;14;17;19
"2638";2;4;6;8;10;12;14;17;19
"2639";2;4;6;8;10;12;14;17;19
"2640";2;4;6;8;10;12;14;17;19
"2641";2;4;6;8;10;12;14;17;19
"2642";2;4;6;8;10;12;14;16;16
"2643";2;4;6;8;10;12;14;17;19
"2644";2;4;6;8;10;12;14;16;16
"2645";2;4;6;8;10;12;14;16;16
"2646";2;4;6;8;10;12;14;17;18
"2647";2;4;6;8;10;12;14;17;19
"2648";2;4;6;8;10;12;14;17;19
"2649";2;4;6;8;10;12;14;17;19
"2650";2;4;6;8;10;12;14;17;19
"2651";2;4;6;8;10;12;14;16;16
"2652";2;4;6;8;10;12;14;17;19
"2653";2;4;6;8;10;12;14;17;19
"2654";2;4;6;8;10;12;14;16;16
"2655";2;4;6;8;10;12;14;17;19
"2656";2;4;6;8;10;12;14;17;19
"2657";2;4;6;8;10;12;14;17;19
"2658";2;4;6;8;10;12;14;17;19
"2659";2;4;6;8;10;12;14;17;19
"2660";2;4;6;8;10;12;14;17;19
"2661";2;4;6;8;10;12;14;16;16
"2662";2;4;6;8;10;12;14;17;19
"2663";2;4;6;8;10;12;14;16;16
"2664";2;4;6;8;10;12;14;17;19
"2665";2;4;6;8;10;12;14;17;19
"2666";2;4;6;8;10;12;14;17;19
"2667";2;4;6;8;10;12;14;16;16
"2668";2;4;6;8;10;12;14;16;16
"2669";2;4;6;8;10;12;14;17;18
