"V1";"V2";"V3";"V4";"V5";"V6"
"***";"nb classes";"3";"***";"";""
"**";"classe";"1";"**";"";""
"****";"185";"2586";"7.15";"****";""
"45";" 49";" 91.84";"539.247";"elkarte";"2.749000e-119"
"37";" 38";" 97.37";"472.562";"eli";"8.877438e-105"
"22";" 26";" 84.62";"237.261";"etxe";" 1.555650e-53"
"18";" 18";"100.00";"235.248";"agur";" 4.274027e-53"
"17";" 17";"100.00";"222.092";"goraintzi";" 3.162127e-50"
"19";" 23";" 82.61";"198.918";"anaia";" 3.596721e-45"
" 9";"  9";"100.00";"117.213";"zuri";" 2.577916e-27"
"10";" 12";" 83.33";"105.334";"paulok";" 1.031750e-24"
" 7";"  7";"100.00";" 91.095";"semealaba";" 1.369212e-21"
" 8";" 10";" 80.00";" 80.203";"lankide";" 3.379251e-19"
" 6";"  6";"100.00";" 78.051";"zaituztete";" 1.003957e-18"
" 6";"  6";"100.00";" 78.051";"iruditu";" 1.003957e-18"
" 9";" 13";" 69.23";" 75.803";"timoteo";" 3.134695e-18"
"10";" 17";" 58.82";" 68.782";"bildu";" 1.099517e-16"
"10";" 17";" 58.82";" 68.782";"lagundu";" 1.099517e-16"
" 5";"  5";"100.00";" 65.018";"sustrai";" 7.423200e-16"
" 5";"  5";"100.00";" 65.018";"hona";" 7.423200e-16"
" 5";"  5";"100.00";" 65.018";"tito";" 7.423200e-16"
" 5";"  5";"100.00";" 65.018";"hara";" 7.423200e-16"
"13";" 29";" 44.83";" 62.671";"bidali";" 2.443146e-15"
"16";" 44";" 36.36";" 57.498";"maite";" 3.382965e-14"
" 5";"  6";" 83.33";" 52.545";"nu";" 4.205737e-13"
" 4";"  4";"100.00";" 51.994";"timoteok";" 5.567226e-13"
" 4";"  4";"100.00";" 51.994";"probintzia";" 5.567226e-13"
" 4";"  4";"100.00";" 51.994";"mazedoniatik";" 5.567226e-13"
" 4";"  4";"100.00";" 51.994";"gobernatu";" 5.567226e-13"
" 4";"  4";"100.00";" 51.994";"diruzale";" 5.567226e-13"
" 4";"  4";"100.00";" 51.994";"arreba";" 5.567226e-13"
" 7";" 12";" 58.33";" 47.543";"leial";" 5.381464e-12"
" 9";" 19";" 47.37";" 46.603";"izukan";" 8.692131e-12"
"15";" 49";" 30.61";" 41.380";"idatzi";" 1.253251e-10"
" 4";"  5";" 80.00";" 40.024";"mesede";" 2.509122e-10"
" 3";"  3";"100.00";" 38.980";"priska";" 4.280916e-10"
" 3";"  3";"100.00";" 38.980";"korinton";" 4.280916e-10"
" 3";"  3";"100.00";" 38.980";"asia";" 4.280916e-10"
" 3";"  4";" 75.00";" 27.764";"zareten";" 1.370841e-07"
" 3";"  4";" 75.00";" 27.764";"batzar";" 1.370841e-07"
" 3";"  4";" 75.00";" 27.764";"laguntzaile";" 1.370841e-07"
" 3";"  4";" 75.00";" 27.764";"jesusengatik";" 1.370841e-07"
" 9";" 30";" 30.00";" 23.851";"seme";" 1.040895e-06"
"10";" 36";" 27.78";" 23.379";"fededun";" 1.330285e-06"
" 4";"  8";" 50.00";" 22.179";"irakurri";" 2.483145e-06"
" 9";" 32";" 28.12";" 21.453";"kristau";" 3.625624e-06"
" 3";"  5";" 60.00";" 21.063";"itzazu";" 4.443234e-06"
" 3";"  5";" 60.00";" 21.063";"kartzela";" 4.443234e-06"
" 3";"  5";" 60.00";" 21.063";"bidaia";" 4.443234e-06"
" 4";"  9";" 44.44";" 18.908";"ukzuen";" 1.371715e-05"
" 3";"  6";" 50.00";" 16.622";"gazte";" 4.562576e-05"
" 4";" 10";" 40.00";" 16.306";"zaindu";" 5.389747e-05"
" 4";" 10";" 40.00";" 16.306";"hemen";" 5.389747e-05"
" 2";"  3";" 66.67";" 16.015";"arduradun";" 6.282820e-05"
" 2";"  3";" 66.67";" 16.015";"zenidaten";" 6.282820e-05"
" 2";"  3";" 66.67";" 16.015";"tikiko";" 6.282820e-05"
" 2";"  3";" 66.67";" 16.015";"mazedoniara";" 6.282820e-05"
" 2";"  3";" 66.67";" 16.015";"herritar";" 6.282820e-05"
" 2";"  3";" 66.67";" 16.015";"gogoratu";" 6.282820e-05"
" 2";"  3";" 66.67";" 16.015";"duzula";" 6.282820e-05"
" 2";"  3";" 66.67";" 16.015";"barren";" 6.282820e-05"
" 2";"  3";" 66.67";" 16.015";"argibide";" 6.282820e-05"
" 3";"  7";" 42.86";" 13.470";"haia";" 2.423443e-04"
" 3";"  7";" 42.86";" 13.470";"sentitu";" 2.423443e-04"
" 3";"  7";" 42.86";" 13.470";"lotsatu";" 2.423443e-04"
" 3";"  7";" 42.86";" 13.470";"gorabehera";" 2.423443e-04"
" 3";"  7";" 42.86";" 13.470";"beharrezko";" 2.423443e-04"
"16";"101";" 15.84";" 11.943";"kristo";" 5.484442e-04"
" 9";" 44";" 20.45";" 11.922";"izen";" 5.547918e-04"
" 6";" 24";" 25.00";" 11.616";"zerbitz";" 6.540234e-04"
" 2";"  4";" 50.00";" 11.073";"titori";" 8.761480e-04"
" 2";"  4";" 50.00";" 11.073";"profetek";" 8.761480e-04"
" 2";"  4";" 50.00";" 11.073";"itxaron";" 8.761480e-04"
" 4";" 14";" 28.57";"  9.721";"dizue";" 1.821604e-03"
" 6";" 27";" 22.22";"  9.327";"apostolu";" 2.257947e-03"
" 3";"  9";" 33.33";"  9.319";"paulo";" 2.267877e-03"
" 2";"  5";" 40.00";"  8.137";"juzun";" 4.336792e-03"
" 2";"  5";" 40.00";"  8.137";"errespetu";" 4.336792e-03"
" 2";"  5";" 40.00";"  8.137";"begirune";" 4.336792e-03"
" 3";" 10";" 30.00";"  7.889";"zintzo";" 4.974745e-03"
" 4";" 16";" 25.00";"  7.720";"gutun";" 5.462444e-03"
" 5";" 23";" 21.74";"  7.432";"lagun";" 6.406102e-03"
" 8";" 47";" 17.02";"  7.017";"agindu";" 8.073337e-03"
" 3";" 11";" 27.27";"  6.732";"zaretu";" 9.469993e-03"
" 2";"  6";" 33.33";"  6.205";"gutxietsi";" 1.273573e-02"
" 2";"  6";" 33.33";"  6.205";"dudan";" 1.273573e-02"
" 2";"  6";" 33.33";"  6.205";"zertan";" 1.273573e-02"
" 2";"  6";" 33.33";"  6.205";"zama";" 1.273573e-02"
" 2";"  6";" 33.33";"  6.205";"lapur";" 1.273573e-02"
" 2";"  6";" 33.33";"  6.205";"ezazu";" 1.273573e-02"
"15";"116";" 12.93";"  6.102";"jesu";" 1.349918e-02"
" 3";" 12";" 25.00";"  5.781";"dizued";" 1.620305e-02"
" 6";" 34";" 17.65";"  5.711";"zerbitzu";" 1.685643e-02"
" 8";" 53";" 15.09";"  5.136";"hala";" 2.343046e-02"
"13";"102";" 12.75";"  4.998";"senide";" 2.537952e-02"
" 3";" 13";" 23.08";"  4.987";"hasi";" 2.553224e-02"
" 2";"  7";" 28.57";"  4.847";"nago";" 2.768820e-02"
" 6";" 38";" 15.79";"  4.330";"esku";" 3.744630e-02"
" 2";"  8";" 25.00";"  3.848";"arrazoi";" 4.981060e-02"
" 2";"  8";" 25.00";"  3.848";"oinordeko";" 4.981060e-02"
" 2";"  8";" 25.00";"  3.848";"ditudan";" 4.981060e-02"
" 6";" 40";" 15.00";"  3.766";"eskatu";" 5.231813e-02"
" 1";"  3";" 33.33";"  3.099";"jarraitzaile";" 7.833448e-02"
" 1";"  3";" 33.33";"  3.099";"hizkera";" 7.833448e-02"
" 1";"  3";" 33.33";"  3.099";"eskas";" 7.833448e-02"
" 1";"  3";" 33.33";"  3.099";"zizun";" 7.833448e-02"
" 1";"  3";" 33.33";"  3.099";"zinez";" 7.833448e-02"
" 1";"  3";" 33.33";"  3.099";"zerbitzari";" 7.833448e-02"
" 1";"  3";" 33.33";"  3.099";"zerbitzadu";" 7.833448e-02"
" 1";"  3";" 33.33";"  3.099";"uttu";" 7.833448e-02"
" 1";"  3";" 33.33";"  3.099";"sinestedun";" 7.833448e-02"
" 1";"  3";" 33.33";"  3.099";"sesiozale";" 7.833448e-02"
" 1";"  3";" 33.33";"  3.099";"nolatan";" 7.833448e-02"
" 1";"  3";" 33.33";"  3.099";"mozkor";" 7.833448e-02"
" 1";"  3";" 33.33";"  3.099";"landu";" 7.833448e-02"
" 1";"  3";" 33.33";"  3.099";"kate";" 7.833448e-02"
" 1";"  3";" 33.33";"  3.099";"inguratu";" 7.833448e-02"
" 1";"  3";" 33.33";"  3.099";"indarberritu";" 7.833448e-02"
" 1";"  3";" 33.33";"  3.099";"gutxiets";" 7.833448e-02"
" 1";"  3";" 33.33";"  3.099";"goraipatu";" 7.833448e-02"
" 1";"  3";" 33.33";"  3.099";"ezinik";" 7.833448e-02"
" 1";"  3";" 33.33";"  3.099";"erorbide";" 7.833448e-02"
" 1";"  3";" 33.33";"  3.099";"egunero";" 7.833448e-02"
" 1";"  3";" 33.33";"  3.099";"direlaeta";" 7.833448e-02"
" 1";"  3";" 33.33";"  3.099";"diezaioten";" 7.833448e-02"
" 1";"  3";" 33.33";"  3.099";"bultzatu";" 7.833448e-02"
" 1";"  3";" 33.33";"  3.099";"baketsu";" 7.833448e-02"
" 1";"  3";" 33.33";"  3.099";"arreta";" 7.833448e-02"
" 1";"  3";" 33.33";"  3.099";"ardozale";" 7.833448e-02"
" 1";"  3";" 33.33";"  3.099";"apaltasun";" 7.833448e-02"
" 1";"  3";" 33.33";"  3.099";"agian";" 7.833448e-02"
" 1";"  3";" 33.33";"  3.099";"adulteriorik";" 7.833448e-02"
" 2";"  9";" 22.22";"  3.087";"balu";" 7.890550e-02"
" 4";" 25";" 16.00";"  2.974";"harro";" 8.460729e-02"
" 6";" 45";" 13.33";"  2.633";"oso";" 1.046737e-01"
" 2";" 11";" 18.18";"  2.023";"han";" 1.549671e-01"
" 2";" 11";" 18.18";"  2.023";"eraiki";" 1.549671e-01"
"*****";"*";"*";"*";"*";"*"
"46";"291";"15.81";"36.968";"ni";"1.200571e-09"
"16";" 91";"17.58";"15.443";"neu";"8.502246e-05"
" 4";" 18";"22.22";" 6.196";"zaituzte";"1.280216e-02"
" 2";"  8";"25.00";" 3.848";"nitu";"4.981060e-02"
" 1";"  3";"33.33";" 3.099";"zuten";"7.833448e-02"
" 1";"  3";"33.33";" 3.099";"nindun";"7.833448e-02"
" 1";"  3";"33.33";" 3.099";"izaizkn";"7.833448e-02"
" 2";" 10";"20.00";" 2.494";"itzazue";"1.142719e-01"
" 2";" 11";"18.18";" 2.023";"badakizue";"1.549671e-01"
"*";"*";"*";"*";"*";"*"
"20";" 35";" 57.14";"133.483";"*K_Erm_16";"7.087222e-31"
"10";" 22";" 45.45";" 49.005";"*K_Kol_4";"2.553403e-12"
" 2";"  2";"100.00";" 25.977";"*Tx_1Ko_7_16";"3.455366e-07"
" 2";"  2";"100.00";" 25.977";"*Tx_1Ko_16_19";"3.455366e-07"
" 2";"  2";"100.00";" 25.977";"*Tx_Kol_4_16";"3.455366e-07"
" 2";"  2";"100.00";" 25.977";"*Tx_Flp_4_21";"3.455366e-07"
" 2";"  2";"100.00";" 25.977";"*Tx_Erm_16_23";"3.455366e-07"
" 2";"  2";"100.00";" 25.977";"*Tx_Flp_2_25";"3.455366e-07"
" 2";"  2";"100.00";" 25.977";"*Tx_2Ko_8_23";"3.455366e-07"
" 2";"  2";"100.00";" 25.977";"*Tx_1Ko_4_17";"3.455366e-07"
" 2";"  2";"100.00";" 25.977";"*Tx_1Ko_3_9";"3.455366e-07"
" 2";"  2";"100.00";" 25.977";"*Tx_Erm_16_5";"3.455366e-07"
" 8";" 25";" 32.00";" 23.462";"*K_1Tm_5";"1.273936e-06"
" 8";" 26";" 30.77";" 22.052";"*L_Filemoni";"2.653986e-06"
" 8";" 26";" 30.77";" 22.052";"*K_Flm_1";"2.653986e-06"
" 8";" 29";" 27.59";" 18.434";"*K_1Ko_16";"1.758761e-05"
" 8";" 32";" 25.00";" 15.536";"*K_2Ko_8";"8.095209e-05"
" 1";"  1";"100.00";" 12.983";"*Tx_1Ko_10_23";"3.142649e-04"
" 1";"  1";"100.00";" 12.983";"*Tx_2Ko_6_2";"3.142649e-04"
" 1";"  1";"100.00";" 12.983";"*Tx_1Ko_14_4";"3.142649e-04"
" 1";"  1";"100.00";" 12.983";"*Tx_1Ko_16_20";"3.142649e-04"
" 1";"  1";"100.00";" 12.983";"*Tx_1Ko_14_26";"3.142649e-04"
" 1";"  1";"100.00";" 12.983";"*Tx_Erm_16_16";"3.142649e-04"
"18";"118";" 15.25";" 12.214";"*L_Timoteori1";"4.742779e-04"
" 7";" 32";" 21.88";" 10.571";"*K_Flp_4";"1.148531e-03"
" 4";" 17";" 23.53";"  6.909";"*K_1Tm_3";"8.577762e-03"
" 1";"  2";" 50.00";"  5.532";"*Tx_Tt_1_4";"1.867182e-02"
" 1";"  2";" 50.00";"  5.532";"*Tx_Ga_5_2";"1.867182e-02"
" 1";"  2";" 50.00";"  5.532";"*Tx_2Ko_1_8";"1.867182e-02"
" 1";"  2";" 50.00";"  5.532";"*Tx_Erm_15_24";"1.867182e-02"
" 1";"  2";" 50.00";"  5.532";"*Tx_Kol_4_11";"1.867182e-02"
" 1";"  2";" 50.00";"  5.532";"*Tx_Erm_9_15";"1.867182e-02"
" 1";"  2";" 50.00";"  5.532";"*Tx_Erm_1_7";"1.867182e-02"
" 1";"  2";" 50.00";"  5.532";"*Tx_Erm_9_9";"1.867182e-02"
" 1";"  2";" 50.00";"  5.532";"*Tx_Erm_3_3";"1.867182e-02"
" 1";"  2";" 50.00";"  5.532";"*Tx_1Ko_5_10";"1.867182e-02"
" 1";"  2";" 50.00";"  5.532";"*Tx_2Ko_9_5";"1.867182e-02"
" 1";"  2";" 50.00";"  5.532";"*Tx_1Tm_5_11";"1.867182e-02"
" 1";"  2";" 50.00";"  5.532";"*Tx_2Tm_4_21";"1.867182e-02"
" 1";"  2";" 50.00";"  5.532";"*Tx_1Ko_6_3";"1.867182e-02"
" 1";"  2";" 50.00";"  5.532";"*Tx_1Ko_11_34";"1.867182e-02"
" 1";"  2";" 50.00";"  5.532";"*Tx_1Ko_12_28";"1.867182e-02"
" 1";"  2";" 50.00";"  5.532";"*Tx_Erm_15_12";"1.867182e-02"
" 1";"  2";" 50.00";"  5.532";"*Tx_1Tm_4_12";"1.867182e-02"
" 1";"  2";" 50.00";"  5.532";"*Tx_1Tm_4_14";"1.867182e-02"
" 1";"  2";" 50.00";"  5.532";"*Tx_2Ko_10_8";"1.867182e-02"
" 1";"  2";" 50.00";"  5.532";"*Tx_2Ko_8_22";"1.867182e-02"
" 1";"  2";" 50.00";"  5.532";"*Tx_2Tm_3_2";"1.867182e-02"
" 1";"  2";" 50.00";"  5.532";"*Tx_2Tm_4_10";"1.867182e-02"
" 1";"  2";" 50.00";"  5.532";"*Tx_1Ts_2_14";"1.867182e-02"
" 1";"  2";" 50.00";"  5.532";"*Tx_Ga_4_31";"1.867182e-02"
" 1";"  2";" 50.00";"  5.532";"*Tx_Ga_4_30";"1.867182e-02"
" 1";"  2";" 50.00";"  5.532";"*Tx_1Tm_6_10";"1.867182e-02"
" 1";"  2";" 50.00";"  5.532";"*Tx_1Ko_7_17";"1.867182e-02"
" 1";"  2";" 50.00";"  5.532";"*Tx_Kol_4_9";"1.867182e-02"
" 1";"  2";" 50.00";"  5.532";"*Tx_1Ko_16_15";"1.867182e-02"
" 1";"  2";" 50.00";"  5.532";"*Tx_1Ko_4_10";"1.867182e-02"
" 1";"  2";" 50.00";"  5.532";"*Tx_Erm_16_2";"1.867182e-02"
" 1";"  2";" 50.00";"  5.532";"*Tx_Erm_16_4";"1.867182e-02"
" 1";"  2";" 50.00";"  5.532";"*Tx_Flm_1_19";"1.867182e-02"
" 1";"  2";" 50.00";"  5.532";"*Tx_Erm_16_7";"1.867182e-02"
" 1";"  2";" 50.00";"  5.532";"*Tx_Flp_1_7";"1.867182e-02"
" 1";"  2";" 50.00";"  5.532";"*Tx_2Ko_11_9";"1.867182e-02"
" 1";"  2";" 50.00";"  5.532";"*Tx_Flp_4_17";"1.867182e-02"
" 1";"  2";" 50.00";"  5.532";"*Tx_Erm_13_9";"1.867182e-02"
" 1";"  2";" 50.00";"  5.532";"*Tx_2Ko_8_15";"1.867182e-02"
" 1";"  2";" 50.00";"  5.532";"*Tx_1Ko_15_3";"1.867182e-02"
" 1";"  2";" 50.00";"  5.532";"*Tx_Flp_4_3";"1.867182e-02"
" 1";"  2";" 50.00";"  5.532";"*Tx_1Ko_14_34";"1.867182e-02"
" 1";"  2";" 50.00";"  5.532";"*Tx_Ef_4_17";"1.867182e-02"
" 1";"  2";" 50.00";"  5.532";"*Tx_Kol_4_12";"1.867182e-02"
" 1";"  2";" 50.00";"  5.532";"*Tx_Ga_4_6";"1.867182e-02"
" 1";"  2";" 50.00";"  5.532";"*Tx_Ga_6_7";"1.867182e-02"
" 1";"  2";" 50.00";"  5.532";"*Tx_Ga_2_4";"1.867182e-02"
" 1";"  2";" 50.00";"  5.532";"*Tx_Flm_1_20";"1.867182e-02"
" 1";"  2";" 50.00";"  5.532";"*Tx_1Tm_5_13";"1.867182e-02"
" 1";"  2";" 50.00";"  5.532";"*Tx_Erm_11_17";"1.867182e-02"
" 1";"  2";" 50.00";"  5.532";"*Tx_Ga_4_17";"1.867182e-02"
" 1";"  2";" 50.00";"  5.532";"*Tx_Erm_11_18";"1.867182e-02"
" 1";"  2";" 50.00";"  5.532";"*Tx_2Ko_12_15";"1.867182e-02"
" 1";"  2";" 50.00";"  5.532";"*Tx_2Ko_12_17";"1.867182e-02"
" 1";"  2";" 50.00";"  5.532";"*Tx_2Ts_3_17";"1.867182e-02"
" 1";"  2";" 50.00";"  5.532";"*Tx_Tt_3_15";"1.867182e-02"
" 1";"  2";" 50.00";"  5.532";"*Tx_Erm_16_12";"1.867182e-02"
"13";"102";" 12.75";"  4.998";"*L_Kolosarrei";"2.537952e-02"
" 4";" 22";" 18.18";"  4.063";"*K_2Tm_1";"4.384079e-02"
" 1";"  3";" 33.33";"  3.099";"*Tx_1Ko_11_22";"7.833448e-02"
" 1";"  3";" 33.33";"  3.099";"*Tx_2Tm_1_8";"7.833448e-02"
" 1";"  3";" 33.33";"  3.099";"*Tx_1Ko_5_11";"7.833448e-02"
" 1";"  3";" 33.33";"  3.099";"*Tx_Erm_11_26";"7.833448e-02"
" 1";"  3";" 33.33";"  3.099";"*Tx_Erm_13_4";"7.833448e-02"
" 1";"  3";" 33.33";"  3.099";"*Tx_2Ko_12_18";"7.833448e-02"
" 6";" 43";" 13.95";"  3.044";"*K_1Ko_14";"8.104873e-02"
" 5";" 34";" 14.71";"  2.958";"*K_2Ko_1";"8.543809e-02"
" 4";" 28";" 14.29";"  2.168";"*K_2Tm_4";"1.409463e-01"
"**";"classe";"2";"**";"";""
"****";"32";"2586";"1.24";"****";""
"21";" 21";"100.00";"1689.785";"grazia";" 0.000000e+00"
" 8";"  8";"100.00";" 640.481";"biezazkizuete";"2.625709e-141"
" 5";"  6";" 83.33";" 331.657";"kristoren";" 4.186884e-74"
"14";" 46";" 30.43";" 326.682";"bake";" 5.074397e-73"
"13";" 49";" 26.53";" 261.455";"aita";" 8.266765e-59"
"20";"116";" 17.24";" 254.525";"jesu";" 2.679470e-57"
" 3";"  3";"100.00";" 239.716";"biezazkizute";" 4.536483e-54"
" 4";"  6";" 66.67";" 210.664";"mende";" 9.841126e-48"
" 3";"  4";" 75.00";" 178.357";"menda";" 1.106962e-40"
"21";"182";" 11.54";" 169.986";"kristu";" 7.451609e-39"
"19";"214";"  8.88";" 111.461";"jaun";" 4.689724e-26"
" 2";"  4";" 50.00";"  77.946";"guztiokin";" 1.059180e-18"
" 3";" 21";" 14.29";"  29.495";"bedi";" 5.605156e-08"
"12";"253";"  4.74";"  28.201";"eman";" 1.093729e-07"
" 1";"  3";" 33.33";"  25.317";"gizaldi";" 4.864258e-07"
" 1";"  3";" 33.33";"  25.317";"iraunkor";" 4.864258e-07"
" 1";"  3";" 33.33";"  25.317";"elkartasun";" 4.864258e-07"
" 1";"  3";" 33.33";"  25.317";"bedeinkatu";" 4.864258e-07"
" 2";" 14";" 14.29";"  19.610";"erruki";" 9.496895e-06"
" 1";"  4";" 25.00";"  18.510";"ohore";" 1.690199e-05"
" 1";"  4";" 25.00";"  18.510";"etortu";" 1.690199e-05"
" 1";"  6";" 16.67";"  11.715";"agintzariaren";" 6.200488e-04"
"16";"630";"  2.54";"  11.558";"jainko";" 6.746555e-04"
" 1";"  7";" 14.29";"   9.778";"abrahamen";" 1.765733e-03"
" 1";"  7";" 14.29";"   9.778";"errege";" 1.765733e-03"
" 1";"  7";" 14.29";"   9.778";"gurutu";" 1.765733e-03"
" 1";"  7";" 14.29";"   9.778";"bit";" 1.765733e-03"
" 1";"  8";" 12.50";"   8.329";"gaitz";" 3.901559e-03"
" 1";"  8";" 12.50";"   8.329";"oinordeko";" 3.901559e-03"
" 1";"  8";" 12.50";"   8.329";"salbatzaile";" 3.901559e-03"
" 2";" 31";"  6.45";"   6.980";"aintza";" 8.242399e-03"
" 1";" 10";" 10.00";"   6.307";"izaera";" 1.202535e-02"
" 1";" 11";"  9.09";"   5.575";"jende";" 1.821744e-02"
" 1";" 12";"  8.33";"   4.967";"ondorengo";" 2.583400e-02"
" 1";" 17";"  5.88";"   3.021";"balio";" 8.219088e-02"
"*****";"*";"*";"*";"*";"*"
"21";"242";" 8.68";"120.934";"gu";"3.950858e-28"
" 7";"116";" 6.03";" 22.868";"zu";"1.735352e-06"
" 1";"  7";"14.29";"  9.778";"bazarete";"1.765733e-03"
"*";"*";"*";"*";"*";"*"
"1";"  2";"50.00";"38.943";"*Tx_1Ko_15_23";"4.364443e-10"
"1";"  2";"50.00";"38.943";"*Tx_Tt_1_4";"4.364443e-10"
"1";"  2";"50.00";"38.943";"*Tx_Ga_5_6";"4.364443e-10"
"1";"  2";"50.00";"38.943";"*Tx_Erm_1_7";"4.364443e-10"
"1";"  2";"50.00";"38.943";"*Tx_Erm_9_5";"4.364443e-10"
"1";"  2";"50.00";"38.943";"*Tx_Ef_2_14";"4.364443e-10"
"1";"  2";"50.00";"38.943";"*Tx_Erm_16_20";"4.364443e-10"
"1";"  2";"50.00";"38.943";"*Tx_1Ts_5_3";"4.364443e-10"
"1";"  4";"25.00";"18.510";"*Tx_Erm_12_21";"1.690199e-05"
"2";" 22";" 9.09";"11.198";"*K_1Tm_1";"8.188234e-04"
"2";" 26";" 7.69";" 8.954";"*L_Filemoni";"2.768417e-03"
"2";" 26";" 7.69";" 8.954";"*K_Flm_1";"2.768417e-03"
"2";" 27";" 7.41";" 8.499";"*K_1Ts_5";"3.553144e-03"
"1";"  9";"11.11";" 7.204";"*K_Ef_1";"7.272307e-03"
"2";" 32";" 6.25";" 6.661";"*K_Flp_4";"9.852453e-03"
"2";" 38";" 5.26";" 5.114";"*K_Ga_5";"2.372928e-02"
"1";" 13";" 7.69";" 4.454";"*K_2Ts_1";"3.481045e-02"
"2";" 54";" 3.70";" 2.745";"*L_Tesalonikarrei2";"9.756520e-02"
"5";"208";" 2.40";" 2.518";"*L_Galaziarrei";"1.125467e-01"
"1";" 21";" 4.76";" 2.152";"*K_Tt_1";"1.423877e-01"
"**";"classe";"3";"**";"";""
"****";"2369";"2586";"91.61";"****";""
" 522";" 543";" 96.13";"18.299";"egin";"1.888166e-05"
"1074";"1140";" 94.21";"17.954";"ukan";"2.262819e-05"
" 181";" 185";" 97.84";"10.058";"bezala";"1.517071e-03"
" 103";" 103";"100.00";" 9.826";"lege";"1.720474e-03"
"  94";"  94";"100.00";" 8.935";"bete";"2.797308e-03"
"  84";"  84";"100.00";" 7.953";"gauza";"4.801541e-03"
"  81";"  81";"100.00";" 7.660";"gabe";"5.647412e-03"
" 120";" 122";" 98.36";" 7.594";"espiritu";"5.857800e-03"
"  72";"  72";"100.00";" 6.784";"gorputz";"9.197486e-03"
" 192";" 199";" 96.48";" 6.662";"on";"9.850448e-03"
"  68";"  68";"100.00";" 6.397";"ote";"1.143133e-02"
"  88";"  89";" 98.88";" 6.333";"sinesmen";"1.184904e-02"
"  83";"  84";" 98.81";" 5.856";"esker";"1.552158e-02"
"  55";"  55";"100.00";" 5.147";"jarri";"2.328028e-02"
" 590";" 630";" 93.65";" 4.519";"jainko";"3.352907e-02"
" 194";" 203";" 95.57";" 4.489";"esan";"3.411368e-02"
"  67";"  68";" 98.53";" 4.351";"hil";"3.698044e-02"
"  85";"  87";" 97.70";" 4.347";"agertu";"3.707128e-02"
"  84";"  86";" 97.67";" 4.258";"buru";"3.906961e-02"
"  66";"  67";" 98.51";" 4.258";"mundu";"3.905486e-02"
"  83";"  85";" 97.65";" 4.169";"bide";"4.117536e-02"
"  44";"  44";"100.00";" 4.100";"menpe";"4.287927e-02"
"  64";"  65";" 98.46";" 4.073";"alde";"4.356592e-02"
"  43";"  43";"100.00";" 4.005";"heriotza";"4.535488e-02"
"  42";"  42";"100.00";" 3.911";"arabera";"4.797938e-02"
"  42";"  42";"100.00";" 3.911";"egun";"4.797938e-02"
"  40";"  40";"100.00";" 3.722";"handi";"5.371423e-02"
"  77";"  79";" 97.47";" 3.640";"orain";"5.641211e-02"
"  39";"  39";"100.00";" 3.627";"indar";"5.684598e-02"
" 124";" 129";" 96.12";" 3.601";"hartu";"5.774232e-02"
"  38";"  38";"100.00";" 3.533";"bihotz";"6.016955e-02"
"  37";"  37";"100.00";" 3.438";"huts";"6.369775e-02"
"  37";"  37";"100.00";" 3.438";"bitart";"6.369775e-02"
"  74";"  76";" 97.37";" 3.379";"bekatu";"6.602554e-02"
"  73";"  75";" 97.33";" 3.293";"gero";"6.958071e-02"
"  35";"  35";"100.00";" 3.250";"beti";"7.142430e-02"
"  54";"  55";" 98.18";" 3.158";"onartu";"7.553312e-02"
"  34";"  34";"100.00";" 3.156";"zuzen";"7.565357e-02"
"  34";"  34";"100.00";" 3.156";"eraman";"7.565357e-02"
"  34";"  34";"100.00";" 3.156";"mezu";"7.565357e-02"
"  33";"  33";"100.00";" 3.062";"judu";"8.014953e-02"
"  33";"  33";"100.00";" 3.062";"argi";"8.014953e-02"
"  33";"  33";"100.00";" 3.062";"bihurtu";"8.014953e-02"
"  86";"  89";" 96.63";" 3.022";"horrela";"8.212779e-02"
"  32";"  32";"100.00";" 2.968";"poz";"8.493096e-02"
" 158";" 166";" 95.18";" 2.944";"bizi";"8.617773e-02"
"  31";"  31";"100.00";" 2.874";"otoitz";"9.001821e-02"
"  31";"  31";"100.00";" 2.874";"gain";"9.001821e-02"
"  68";"  70";" 97.14";" 2.867";"santu";"9.043944e-02"
"  30";"  30";"100.00";" 2.780";"gizon";"9.543337e-02"
"  30";"  30";"100.00";" 2.780";"galdu";"9.543337e-02"
"  30";"  30";"100.00";" 2.780";"garbi";"9.543337e-02"
"  30";"  30";"100.00";" 2.780";"aldu";"9.543337e-02"
"  49";"  50";" 98.00";" 2.709";"dohain";"9.976164e-02"
"  48";"  49";" 97.96";" 2.620";"liburu";"1.055028e-01"
"  28";"  28";"100.00";" 2.593";"adore";"1.073457e-01"
"  28";"  28";"100.00";" 2.593";"krist";"1.073457e-01"
"  47";"  48";" 97.92";" 2.532";"piztu";"1.115873e-01"
"  27";"  27";"100.00";" 2.499";"ezin";"1.138976e-01"
"  27";"  27";"100.00";" 2.499";"atsegin";"1.138976e-01"
"  26";"  26";"100.00";" 2.406";"asmo";"1.208876e-01"
"  62";"  64";" 96.88";" 2.368";"giza";"1.238753e-01"
"  92";"  96";" 95.83";" 2.315";"arte";"1.281456e-01"
"  25";"  25";"100.00";" 2.312";"eragin";"1.283499e-01"
"  25";"  25";"100.00";" 2.312";"duenak";"1.283499e-01"
"  24";"  24";"100.00";" 2.219";"esklabo";"1.363222e-01"
"  24";"  24";"100.00";" 2.219";"bizitu";"1.363222e-01"
"  24";"  24";"100.00";" 2.219";"iritsi";"1.363222e-01"
"  24";"  24";"100.00";" 2.219";"sendo";"1.363222e-01"
"  24";"  24";"100.00";" 2.219";"garai";"1.363222e-01"
"  43";"  44";" 97.73";" 2.180";"sinetsi";"1.398204e-01"
"  23";"  23";"100.00";" 2.126";"hain";"1.448464e-01"
"  23";"  23";"100.00";" 2.126";"iraun";"1.448464e-01"
"  74";"  77";" 96.10";" 2.086";"egia";"1.486356e-01"
"  22";"  22";"100.00";" 2.032";"jakinduria";"1.539684e-01"
"  22";"  22";"100.00";" 2.032";"grina";"1.539684e-01"
"  22";"  22";"100.00";" 2.032";"ezakan";"1.539684e-01"
"*****";"*";"*";"*";"*";"*"
"1288";"1391";" 92.6";"3.812";"izan";"0.05090177"
"  30";"  30";"100.0";"2.780";"geu";"0.09543337"
"  24";"  24";"100.0";"2.219";"gaitu";"0.13632223"
"*";"*";"*";"*";"*";"*"
"588";"627";" 93.78";"5.076";"*L_Erromatarrei";"0.02426110"
"139";"144";" 96.53";"4.800";"*L_Efesoarrei";"0.02845783"
" 51";" 51";"100.00";"4.766";"*K_Erm_8";"0.02903434"
" 46";" 46";"100.00";"4.290";"*K_1Ko_9";"0.03833939"
" 40";" 40";"100.00";"3.722";"*K_Erm_14";"0.05371423"
" 40";" 40";"100.00";"3.722";"*K_Erm_4";"0.05371423"
" 38";" 38";"100.00";"3.533";"*K_Erm_2";"0.06016955"
" 38";" 38";"100.00";"3.533";"*K_Erm_10";"0.06016955"
" 38";" 38";"100.00";"3.533";"*K_Erm_7";"0.06016955"
" 32";" 32";"100.00";"2.968";"*K_Erm_5";"0.08493096"
" 31";" 31";"100.00";"2.874";"*K_Erm_6";"0.09001821"
" 31";" 31";"100.00";"2.874";"*K_2Ko_7";"0.09001821"
" 30";" 30";"100.00";"2.780";"*K_Ef_5";"0.09543337"
" 29";" 29";"100.00";"2.687";"*K_Flp_3";"0.10120047"
" 25";" 25";"100.00";"2.312";"*K_2Ko_4";"0.12834985"
" 25";" 25";"100.00";"2.312";"*K_Kol_2";"0.12834985"
" 44";" 45";" 97.78";"2.267";"*K_Ga_3";"0.13212749"
" 24";" 24";"100.00";"2.219";"*K_2Ko_5";"0.13632223"
" 24";" 24";"100.00";"2.219";"*K_2Tm_2";"0.13632223"
