izan;94;9;1288
ni;46;0;245
gu;12;21;209
zuek;16;2;150
zu;5;7;104
neu;16;0;75
ari;4;0;64
inor;6;0;53
nor;5;0;43
elkar;1;0;38
zeu;2;0;38
ezer;1;1;39
zaitezte;1;0;37
geu;0;0;30
gaitu;0;0;24
norbait;2;0;19
nau;0;0;21
zaituzte;4;0;14
ezazue;1;0;14
akikan;1;0;17
zerbait;0;0;15
dezata;2;0;14
daiteu;2;0;13
kristoria;0;0;15
gaitezen;0;0;14
ikan;0;0;13
beraiek;1;0;12
itzazue;2;0;8
natzaizue;0;0;11
diotsuet;0;0;10
badakizue;2;0;9
ukrenentzan;0;0;8
egizue;0;0;10
baitugu;0;0;10
zaituztet;1;0;8
nitu;2;0;6
baitut;1;0;8
izi;1;0;7
gaituzte;0;0;8
duten;0;0;7
did;0;0;8
zinetu;0;0;6
zigun;0;0;7
bazarete;0;1;6
zedin;0;0;6
zaitzatu;0;0;4
testigu;0;0;6
norbera;0;0;5
nadin;0;0;6
ezagut;0;0;6
dezake;0;0;5
dezada;0;0;6
ukzkion;0;0;5
ezakekan;0;0;5
zid;0;0;4
niregandik;1;0;3
nauzue;0;0;4
izkikan;1;0;3
iokan;0;0;3
iitakn;0;0;4
ditzala;1;0;3
dagokia;0;0;4
bazaio;0;0;4
zuten;1;0;2
zaudetu;0;0;3
zakan;0;0;3
zaiteu;0;0;3
nindun;1;0;2
izaizkn;1;0;2
guregandik;0;0;3
daitezke;0;0;3
baituzue;0;0;3
baitiote;0;0;3
baitakit;0;0;3
baduzue;0;0;3
