"";"Valeurs propres";"Pourcentages";"Pourcentage cumules"
"facteur 1";0,58706098314192;42,4086646045739;42,4086646045739
"facteur 2";0,437676579444633;31,6172932556437;74,0259578602177
"facteur 3";0,359557341805704;25,9740421397823;100
