"V1";"V2";"V3";"V4";"V5";"V6"
"***";"nb classes";"4";"***";"";""
"**";"classe";"1";"**";"";""
"****";"422";"1104";"38.22";"****";""
" 3";"149";" 2.01";"-95.649";"padre";"1.371835e-22"
" 1";"106";" 0.94";"-69.019";"os";"9.753679e-17"
" 1";" 87";" 1.15";"-54.976";"dios";"1.219882e-13"
" 7";"110";" 6.36";"-52.521";"dar";"4.256054e-13"
" 0";" 69";" 0.00";"-45.541";"mundo";"1.494503e-11"
" 0";" 58";" 0.00";"-37.879";"vida";"7.528811e-10"
" 4";" 67";" 5.97";"-31.426";"venir";"2.072059e-08"
" 8";" 81";" 9.88";"-29.749";"hijo";"4.918442e-08"
" 0";" 46";" 0.00";"-29.701";"conocer";"5.041194e-08"
" 4";" 59";" 6.78";"-26.100";"crear|creer";"3.241017e-07"
" 4";" 58";" 6.90";"-25.443";"enviar";"4.555634e-07"
" 0";" 33";" 0.00";"-21.049";"ahora";"4.477980e-06"
" 0";" 32";" 0.00";"-20.392";"asegurar";"6.310458e-06"
" 2";" 37";" 5.41";"-17.462";"mismo";"2.930428e-05"
" 0";" 27";" 0.00";"-17.126";"obra";"3.498795e-05"
" 0";" 25";" 0.00";"-15.828";"eterno";"6.938216e-05"
"13";" 74";"17.57";"-14.333";"hacer";"1.531424e-04"
" 1";" 27";" 3.70";"-13.968";"verdad";"1.859827e-04"
" 4";" 39";"10.26";"-13.392";"hablar";"2.526589e-04"
" 0";" 21";" 0.00";"-13.246";"luz";"2.731478e-04"
" 1";" 25";" 4.00";"-12.688";"nombre";"3.679320e-04"
" 2";" 29";" 6.90";"-12.378";"testimonio";"4.343084e-04"
" 3";" 33";" 9.09";"-12.227";"nadie";"4.709783e-04"
" 1";" 23";" 4.35";"-11.416";"cómo";"7.281055e-04"
" 7";" 47";"14.89";"-11.316";"hombre";"7.683365e-04"
"16";" 78";"20.51";"-11.150";"ir";"8.402120e-04"
" 0";" 17";" 0.00";"-10.684";"siempre";"1.080911e-03"
" 0";" 17";" 0.00";"-10.684";"mis";"1.080911e-03"
" 0";" 17";" 0.00";"-10.684";"carne";"1.080911e-03"
" 6";" 42";"14.29";"-10.596";"palabra";"1.133289e-03"
" 0";" 16";" 0.00";"-10.046";"espíritu";"1.526886e-03"
" 2";" 25";" 8.00";" -9.896";"así";"1.656559e-03"
" 7";" 44";"15.91";" -9.664";"pan";"1.878791e-03"
" 0";" 14";" 0.00";" -8.774";"nacer";"3.055511e-03"
" 0";" 14";" 0.00";" -8.774";"ama";"3.055511e-03"
" 0";" 14";" 0.00";" -8.774";"escuchar";"3.055511e-03"
" 0";" 13";" 0.00";" -8.140";"vuestro";"4.330316e-03"
" 0";" 13";" 0.00";" -8.140";"saber|ser";"4.330316e-03"
" 1";" 17";" 5.88";" -7.648";"voz";"5.682238e-03"
" 1";" 17";" 5.88";" -7.648";"vivir";"5.682238e-03"
" 0";" 12";" 0.00";" -7.507";"moisés";"6.146594e-03"
"11";" 53";"20.75";" -7.196";"saber";"7.308363e-03"
" 1";" 16";" 6.25";" -7.029";"guardar";"8.018621e-03"
" 4";" 28";"14.29";" -6.972";"cielo";"8.278896e-03"
" 0";" 11";" 0.00";" -6.875";"fruto";"8.741210e-03"
" 0";" 11";" 0.00";" -6.875";"glorificado";"8.741210e-03"
" 0";" 11";" 0.00";" -6.875";"único";"8.741210e-03"
" 0";" 11";" 0.00";" -6.875";"maestro";"8.741210e-03"
" 0";" 10";" 0.00";" -6.244";"cuenta";"1.245976e-02"
" 0";" 10";" 0.00";" -6.244";"bueno";"1.245976e-02"
" 0";" 10";" 0.00";" -6.244";"beber";"1.245976e-02"
" 1";" 14";" 7.14";" -5.801";"ése";"1.601453e-02"
" 0";"  9";" 0.00";" -5.615";"amor";"1.781056e-02"
" 0";"  9";" 0.00";" -5.615";"juzgar";"1.781056e-02"
" 3";" 21";"14.29";" -5.195";"comer";"2.264807e-02"
" 2";" 17";"11.76";" -5.119";"bajar";"2.366170e-02"
" 0";"  8";" 0.00";" -4.986";"último";"2.554909e-02"
" 0";"  8";" 0.00";" -4.986";"vivo";"2.554909e-02"
" 0";"  8";" 0.00";" -4.986";"podar|poder";"2.554909e-02"
" 0";"  8";" 0.00";" -4.986";"oído";"2.554909e-02"
" 0";"  8";" 0.00";" -4.986";"ley";"2.554909e-02"
" 0";"  8";" 0.00";" -4.986";"dar|distar";"2.554909e-02"
" 0";"  8";" 0.00";" -4.986";"conmigo";"2.554909e-02"
" 0";"  8";" 0.00";" -4.986";"cambio";"2.554909e-02"
" 1";" 12";" 8.33";" -4.590";"profeta";"3.214988e-02"
" 1";" 12";" 8.33";" -4.590";"gloria";"3.214988e-02"
" 1";" 11";" 9.09";" -3.994";"mesías";"4.567077e-02"
" 0";"  6";" 0.00";" -3.733";"mandamiento";"5.335077e-02"
" 0";"  6";" 0.00";" -3.733";"voluntad";"5.335077e-02"
" 0";"  6";" 0.00";" -3.733";"culto";"5.335077e-02"
" 0";"  6";" 0.00";" -3.733";"creed";"5.335077e-02"
" 0";"  6";" 0.00";" -3.733";"crear";"5.335077e-02"
" 0";"  6";" 0.00";" -3.733";"testigo";"5.335077e-02"
" 0";"  6";" 0.00";" -3.733";"sed";"5.335077e-02"
" 0";"  6";" 0.00";" -3.733";"santo";"5.335077e-02"
" 0";"  6";" 0.00";" -3.733";"rabí";"5.335077e-02"
" 0";"  6";" 0.00";" -3.733";"pastor";"5.335077e-02"
" 0";"  6";" 0.00";" -3.733";"nunca";"5.335077e-02"
" 0";"  6";" 0.00";" -3.733";"muéstranos";"5.335077e-02"
" 0";"  6";" 0.00";" -3.733";"modo";"5.335077e-02"
" 0";"  6";" 0.00";" -3.733";"guardará";"5.335077e-02"
" 0";"  6";" 0.00";" -3.733";"aceptar";"5.335077e-02"
" 1";" 10";"10.00";" -3.404";"sangre";"6.501990e-02"
" 1";" 10";"10.00";" -3.404";"desierto";"6.501990e-02"
" 1";" 10";"10.00";" -3.404";"condenar";"6.501990e-02"
" 1";" 10";"10.00";" -3.404";"acerca";"6.501990e-02"
" 0";"  5";" 0.00";" -3.108";"vuestra";"7.791253e-02"
" 0";"  5";" 0.00";" -3.108";"tiniebla";"7.791253e-02"
" 0";"  5";" 0.00";" -3.108";"saltar";"7.791253e-02"
" 0";"  5";" 0.00";" -3.108";"resucitaré";"7.791253e-02"
" 0";"  5";" 0.00";" -3.108";"reino";"7.791253e-02"
" 0";"  5";" 0.00";" -3.108";"perezca";"7.791253e-02"
" 0";"  5";" 0.00";" -3.108";"juicio";"7.791253e-02"
" 0";"  5";" 0.00";" -3.108";"israel";"7.791253e-02"
" 0";"  5";" 0.00";" -3.108";"existir";"7.791253e-02"
" 0";"  5";" 0.00";" -3.108";"embargo";"7.791253e-02"
" 0";"  5";" 0.00";" -3.108";"coma";"7.791253e-02"
" 1";"  9";"11.11";" -2.825";"poco";"9.280977e-02"
" 1";"  9";"11.11";" -2.825";"abierto";"9.280977e-02"
" 0";"  4";" 0.00";" -2.484";"suceder";"1.150040e-01"
" 0";"  4";" 0.00";" -2.484";"elevar";"1.150040e-01"
" 0";"  4";" 0.00";" -2.484";"vuestros";"1.150040e-01"
" 0";"  4";" 0.00";" -2.484";"alimento";"1.150040e-01"
" 0";"  4";" 0.00";" -2.484";"válido";"1.150040e-01"
" 0";"  4";" 0.00";" -2.484";"trabajo";"1.150040e-01"
" 0";"  4";" 0.00";" -2.484";"tampoco";"1.150040e-01"
" 0";"  4";" 0.00";" -2.484";"significar";"1.150040e-01"
" 0";"  4";" 0.00";" -2.484";"resurrección";"1.150040e-01"
" 0";"  4";" 0.00";" -2.484";"realizar";"1.150040e-01"
" 0";"  4";" 0.00";" -2.484";"principio";"1.150040e-01"
" 0";"  4";" 0.00";" -2.484";"pidáis";"1.150040e-01"
" 0";"  4";" 0.00";" -2.484";"perder";"1.150040e-01"
" 0";"  4";" 0.00";" -2.484";"pecador";"1.150040e-01"
" 0";"  4";" 0.00";" -2.484";"nazaret";"1.150040e-01"
" 0";"  4";" 0.00";" -2.484";"maná";"1.150040e-01"
" 0";"  4";" 0.00";" -2.484";"haz";"1.150040e-01"
" 0";"  4";" 0.00";" -2.484";"dichosos";"1.150040e-01"
" 0";"  4";" 0.00";" -2.484";"cumplir";"1.150040e-01"
" 0";"  4";" 0.00";" -2.484";"comunicar";"1.150040e-01"
" 0";"  4";" 0.00";" -2.484";"comparación";"1.150040e-01"
" 0";"  4";" 0.00";" -2.484";"comida";"1.150040e-01"
" 0";"  4";" 0.00";" -2.484";"bastar";"1.150040e-01"
" 0";"  4";" 0.00";" -2.484";"amo";"1.150040e-01"
" 0";"  4";" 0.00";" -2.484";"amará";"1.150040e-01"
" 4";" 19";"21.05";" -2.414";"morir";"1.202381e-01"
" 2";" 12";"16.67";" -2.388";"dejar";"1.222913e-01"
" 1";"  8";"12.50";" -2.258";"abrahán";"1.328969e-01"
" 1";"  8";"12.50";" -2.258";"entender";"1.328969e-01"
"*****";"*";"*";"*";"*";"*"
" 20";"293";" 6.83";"-166.525";"yo";"4.247173e-38"
"139";"527";"26.38";" -59.952";"que";"9.720257e-15"
"  5";"110";" 4.55";" -58.687";"mío";"1.848857e-14"
" 58";"292";"19.86";" -56.684";"no";"5.118199e-14"
"  6";" 80";" 7.50";" -34.481";"si";"4.305359e-09"
"  5";" 73";" 6.85";" -32.587";"vosotros";"1.139455e-08"
" 73";"286";"25.52";" -26.366";"ser";"2.824922e-07"
" 22";"124";"17.74";" -24.819";"para";"6.298072e-07"
"  9";" 66";"13.64";" -17.973";"todo";"2.240972e-05"
" 10";" 65";"15.38";" -15.258";"tener";"9.377235e-05"
" 83";"289";"28.72";" -14.978";"haber";"1.087854e-04"
" 21";"101";"20.79";" -14.307";"porque";"1.552741e-04"
"  1";" 27";" 3.70";" -13.968";"nosotros";"1.859827e-04"
" 11";" 64";"17.19";" -12.733";"sino";"3.592621e-04"
"  5";" 40";"12.50";" -11.631";"poder";"6.485212e-04"
"  5";" 39";"12.82";" -11.049";"como";"8.872178e-04"
" 29";"113";"25.66";"  -8.411";"del";"3.729157e-03"
"280";"786";"35.62";"  -7.819";"el";"5.169390e-03"
"  0";" 11";" 0.00";"  -6.875";"verdadero";"8.741210e-03"
" 38";"134";"28.36";"  -6.287";"este";"1.216069e-02"
"  2";" 19";"10.53";"  -6.281";"ni";"1.220269e-02"
"  3";" 22";"13.64";"  -5.747";"pues";"1.651426e-02"
" 31";"108";"28.70";"  -4.596";"por";"3.205576e-02"
"  1";" 12";" 8.33";"  -4.590";"sin";"3.214988e-02"
"  1";" 10";"10.00";"  -3.404";"nuestro";"6.501990e-02"
"  0";"  5";" 0.00";"  -3.108";"encima";"7.791253e-02"
" 10";" 40";"25.00";"  -3.074";"quien";"7.955612e-02"
" 33";"106";"31.13";"  -2.498";"tú";"1.139911e-01"
"  2";" 12";"16.67";"  -2.388";"nada";"1.222913e-01"
"  5";" 22";"22.73";"  -2.283";"ese";"1.307917e-01"
"*";"*";"*";"*";"*";"*"
"107";"429";"24.94";"-52.426";"*egutegia_SemanaDePas";"4.466645e-13"
"  0";" 19";" 0.00";"-11.962";"*zein_Juan1-1-18";"5.428274e-04"
"  1";" 18";" 5.56";" -8.270";"*zein_Juan5-31-47";"4.029645e-03"
"  1";" 18";" 5.56";" -8.270";"*zein_Juan14-1-12";"4.029645e-03"
"  0";" 12";" 0.00";" -7.507";"*zein_Juan10-11-18";"6.146594e-03"
"  1";" 15";" 6.67";" -6.413";"*zein_Juan8-31-42";"1.132590e-02"
"  1";" 14";" 7.14";" -5.801";"*zein_Juan14-6-14";"1.601453e-02"
"  1";" 14";" 7.14";" -5.801";"*zein_Juan6-51-58";"1.601453e-02"
"  0";"  9";" 0.00";" -5.615";"*zein_Juan12-44-50";"1.781056e-02"
"  1";" 13";" 7.69";" -5.193";"*zein_Juan17-1-11a";"2.267327e-02"
"  1";" 12";" 8.33";" -4.590";"*zein_Juan14-7-14";"3.214988e-02"
"  1";" 12";" 8.33";" -4.590";"*zein_Juan10-1-10";"3.214988e-02"
"  1";" 11";" 9.09";" -3.994";"*zein_Juan6-44-51";"4.567077e-02"
"  2";" 14";"14.29";" -3.441";"*zein_Juan6-41-51";"6.358606e-02"
"  2";" 14";"14.29";" -3.441";"*zein_Juan6-24-35";"6.358606e-02"
"  1";" 10";"10.00";" -3.404";"*zein_Juan17-11b-19";"6.501990e-02"
"  1";" 10";"10.00";" -3.404";"*zein_Juan3-31-36";"6.501990e-02"
"  1";" 10";"10.00";" -3.404";"*zein_Juan14-23-29";"6.501990e-02"
"  3";" 17";"17.65";" -3.096";"*zein_Juan5-17-30";"7.847895e-02"
"  1";"  9";"11.11";" -2.825";"*zein_Juan3-14-21";"9.280977e-02"
"  1";"  9";"11.11";" -2.825";"*zein_Juan15-9-17";"9.280977e-02"
"  1";"  9";"11.11";" -2.825";"*zein_Juan14-15-21";"9.280977e-02"
"  0";"  4";" 0.00";" -2.484";"*zein_Juan10-27-30";"1.150040e-01"
"  1";"  8";"12.50";" -2.258";"*zein_Juan16-29-33";"1.328969e-01"
"  1";"  8";"12.50";" -2.258";"*zein_Juan6-35-40";"1.328969e-01"
"  1";"  8";"12.50";" -2.258";"*zein_Juan14-1-6";"1.328969e-01"
"  1";"  8";"12.50";" -2.258";"*zein_Juan3-16-21";"1.328969e-01"
"  1";"  8";"12.50";" -2.258";"*zein_Juan17-20-26";"1.328969e-01"
"**";"classe";"2";"**";"";""
"****";"62";"1104";"5.62";"****";""
"0";"194";"0.00";"-14.004";"decir";"0.0001824181"
"0";"182";"0.00";"-12.967";"jesús";"0.0003170599"
"0";" 75";"0.00";" -4.788";"tiempo";"0.0286614750"
"0";" 74";"0.00";" -4.719";"hacer";"0.0298240065"
"0";" 67";"0.00";" -4.244";"venir";"0.0393861515"
"1";" 94";"1.06";" -4.017";"discípulo";"0.0450491101"
"2";"111";"1.80";" -3.387";"ver";"0.0657125162"
"0";" 53";"0.00";" -3.313";"saber";"0.0687515315"
"0";" 50";"0.00";" -3.116";"judío";"0.0775183456"
"2";"106";"1.89";" -3.076";"os";"0.0794361944"
"1";" 78";"1.28";" -2.974";"ir";"0.0846088190"
"0";" 42";"0.00";" -2.598";"palabra";"0.1070072800"
"0";" 42";"0.00";" -2.598";"ya";"0.1070072800"
"0";" 39";"0.00";" -2.406";"hablar";"0.1209083393"
"0";" 35";"0.00";" -2.151";"llegar";"0.1425032742"
"0";" 35";"0.00";" -2.151";"querer";"0.1425032742"
"0";" 33";"0.00";" -2.024";"ahora";"0.1548274872"
"*****";"*";"*";"*";"*";"*"
"12";"389";"3.08";"-7.260";"a";"0.007052272"
" 3";"164";"1.83";"-5.211";"se";"0.022450849"
" 0";" 66";"0.00";"-4.177";"todo";"0.040981952"
" 1";" 96";"1.04";"-4.151";"aquel";"0.041621597"
" 0";" 64";"0.00";"-4.042";"sino";"0.044370582"
" 3";"138";"2.17";"-3.525";"estar";"0.060443996"
" 0";" 55";"0.00";"-3.444";"también";"0.063476616"
" 0";" 54";"0.00";"-3.378";"otro";"0.066060381"
" 0";" 52";"0.00";"-3.247";"cuando";"0.071554847"
" 4";"152";"2.63";"-2.962";"al";"0.085252252"
"10";"275";"3.64";"-2.708";"él";"0.099876263"
" 0";" 34";"0.00";"-2.087";"dicho";"0.148526822"
"*";"*";"*";"*";"*";"*"
"9";"374";"2.41";"-10.992";"*egutegia_SemanaDeCua";"0.0009150434"
"0";" 52";"0.00";" -3.247";"*zein_Juan9-1-41";"0.0715548474"
"0";" 39";"0.00";" -2.406";"*egutegia_OctavaDePas";"0.1209083393"
"**";"classe";"3";"**";"";""
"****";"90";"1104";"8.15";"****";""
"0";"194";"0.00";"-20.890";"decir";"4.864820e-06"
"0";"182";"0.00";"-19.343";"jesús";"1.092437e-05"
"0";" 94";"0.00";" -9.120";"discípulo";"2.528727e-03"
"0";" 75";"0.00";" -7.142";"tiempo";"7.529936e-03"
"0";" 58";"0.00";" -5.433";"enviar";"1.975543e-02"
"1";" 78";"1.28";" -5.291";"ir";"2.144112e-02"
"0";" 50";"0.00";" -4.648";"señor";"3.108260e-02"
"0";" 50";"0.00";" -4.648";"judío";"3.108260e-02"
"0";" 44";"0.00";" -4.067";"pan";"4.371766e-02"
"0";" 39";"0.00";" -3.588";"hablar";"5.818777e-02"
"4";"111";"3.60";" -3.410";"ver";"6.480370e-02"
"0";" 35";"0.00";" -3.208";"llegar";"7.326921e-02"
"0";" 35";"0.00";" -3.208";"querer";"7.326921e-02"
"0";" 33";"0.00";" -3.019";"nadie";"8.228186e-02"
"4";"106";"3.77";" -3.002";"os";"8.314060e-02"
"0";" 28";"0.00";" -2.550";"creer";"1.103028e-01"
"0";" 27";"0.00";" -2.457";"preguntar";"1.170372e-01"
"0";" 27";"0.00";" -2.457";"pedro";"1.170372e-01"
"3";" 81";"3.70";" -2.310";"hijo";"1.285240e-01"
"0";" 25";"0.00";" -2.270";"echar";"1.318704e-01"
"0";" 24";"0.00";" -2.178";"allí";"1.400404e-01"
"5";"110";"4.55";" -2.123";"dar";"1.451448e-01"
"0";" 23";"0.00";" -2.085";"cómo";"1.487664e-01"
"*****";"*";"*";"*";"*";"*"
" 0";" 96";"0.00";"-9.332";"aquel";"0.002251611"
"13";"289";"4.50";"-6.980";"haber";"0.008240649"
" 4";"106";"3.77";"-3.002";"tú";"0.083140599"
" 0";" 28";"0.00";"-2.550";"mucho";"0.110302778"
" 0";" 27";"0.00";"-2.457";"qué";"0.117037241"
" 0";" 27";"0.00";"-2.457";"nosotros";"0.117037241"
"25";"389";"6.43";"-2.388";"a";"0.122254888"
" 0";" 25";"0.00";"-2.270";"donde";"0.131870395"
"*";"*";"*";"*";"*";"*"
"18";"374";"4.81";"-8.424";"*egutegia_SemanaDeCua";"0.003703858"
" 0";" 43";"0.00";"-3.971";"*zein_Juan4-5-42";"0.046283535"
" 0";" 39";"0.00";"-3.588";"*egutegia_OctavaDePas";"0.058187773"
" 1";" 52";"1.92";"-2.828";"*zein_Juan9-1-41";"0.092639237"
" 6";"125";"4.80";"-2.115";"*egutegia_SemanaDelTi";"0.145817147"
"**";"classe";"4";"**";"";""
"****";"530";"1104";"48.01";"****";""
"14";"182";" 7.69";"-141.903";"jesús";"1.021094e-32"
" 5";" 94";" 5.32";" -75.014";"discípulo";"4.675020e-18"
" 1";" 75";" 1.33";" -70.229";"tiempo";"5.281617e-17"
"51";"194";"26.29";" -44.478";"decir";"2.572631e-11"
" 5";" 50";"10.00";" -30.310";"judío";"3.682792e-08"
" 0";" 27";" 0.00";" -25.555";"pedro";"4.298819e-07"
" 1";" 27";" 3.70";" -21.764";"preguntar";"3.082856e-06"
" 0";" 22";" 0.00";" -20.727";"simón";"5.297444e-06"
" 0";" 21";" 0.00";" -19.766";"comer";"8.751526e-06"
" 1";" 24";" 4.17";" -18.891";"allí";"1.383897e-05"
" 0";" 19";" 0.00";" -17.851";"oveja";"2.389228e-05"
" 0";" 19";" 0.00";" -17.851";"templo";"2.389228e-05"
" 2";" 25";" 8.00";" -16.403";"echar";"5.121223e-05"
" 8";" 44";"18.18";" -16.332";"pan";"5.315838e-05"
" 0";" 15";" 0.00";" -14.041";"maría";"1.788728e-04"
" 1";" 16";" 6.25";" -11.342";"sepulcro";"7.579008e-04"
" 7";" 34";"20.59";" -10.566";"día";"1.151752e-03"
" 1";" 15";" 6.67";" -10.412";"hermano";"1.251961e-03"
" 1";" 15";" 6.67";" -10.412";"galilea";"1.251961e-03"
" 0";" 11";" 0.00";" -10.259";"todavía";"1.360184e-03"
" 0";" 11";" 0.00";" -10.259";"acercar";"1.360184e-03"
" 0";" 10";" 0.00";"  -9.318";"lázaro";"2.269321e-03"
" 0";" 10";" 0.00";"  -9.318";"fariseos";"2.269321e-03"
" 2";" 17";"11.76";"  -9.086";"mis";"2.575637e-03"
" 2";" 17";"11.76";"  -9.086";"carne";"2.575637e-03"
" 4";" 23";"17.39";"  -8.821";"seguir";"2.977866e-03"
" 1";" 13";" 7.69";"  -8.566";"primero";"3.425285e-03"
" 0";"  9";" 0.00";"  -8.378";"sacerdote";"3.797051e-03"
" 0";"  9";" 0.00";"  -8.378";"puerta";"3.797051e-03"
" 0";"  9";" 0.00";"  -8.378";"pez";"3.797051e-03"
" 0";"  9";" 0.00";"  -8.378";"lago";"3.797051e-03"
" 2";" 16";"12.50";"  -8.201";"muerto";"4.187702e-03"
" 0";"  8";" 0.00";"  -7.441";"tomás";"6.376588e-03"
" 0";"  8";" 0.00";"  -7.441";"resucitar";"6.376588e-03"
" 0";"  8";" 0.00";"  -7.441";"red";"6.376588e-03"
" 0";"  8";" 0.00";"  -7.441";"nicodemo";"6.376588e-03"
" 0";"  8";" 0.00";"  -7.441";"enfermo";"6.376588e-03"
" 0";"  8";" 0.00";"  -7.441";"barca";"6.376588e-03"
" 2";" 15";"13.33";"  -7.325";"pie";"6.801414e-03"
" 5";" 24";"20.83";"  -7.258";"juan";"7.058957e-03"
" 9";" 35";"25.71";"  -7.197";"llegar";"7.302974e-03"
" 4";" 21";"19.05";"  -7.193";"luz";"7.319786e-03"
" 1";" 11";" 9.09";"  -6.741";"levantar";"9.419592e-03"
" 0";"  7";" 0.00";"  -6.505";"natanael";"1.075923e-02"
" 0";"  7";" 0.00";"  -6.505";"marta";"1.075923e-02"
" 0";"  7";" 0.00";"  -6.505";"judas";"1.075923e-02"
" 0";"  7";" 0.00";"  -6.505";"aparecer";"1.075923e-02"
" 2";" 14";"14.29";"  -6.460";"ama";"1.103268e-02"
" 2";" 14";"14.29";"  -6.460";"jerusalén";"1.103268e-02"
" 2";" 14";"14.29";"  -6.460";"entrar";"1.103268e-02"
" 3";" 17";"17.65";"  -6.376";"gente";"1.156744e-02"
" 6";" 25";"24.00";"  -5.906";"quedar";"1.508599e-02"
" 1";" 10";"10.00";"  -5.840";"fiesta";"1.566318e-02"
" 1";" 10";"10.00";"  -5.840";"sangre";"1.566318e-02"
" 1";" 10";"10.00";"  -5.840";"dos";"1.566318e-02"
" 1";" 10";"10.00";"  -5.840";"andar";"1.566318e-02"
" 2";" 13";"15.38";"  -5.609";"vino";"1.786970e-02"
" 0";"  6";" 0.00";"  -5.570";"mandamiento";"1.826718e-02"
" 0";"  6";" 0.00";"  -5.570";"suelo";"1.826718e-02"
" 0";"  6";" 0.00";"  -5.570";"creed";"1.826718e-02"
" 0";"  6";" 0.00";"  -5.570";"pascua";"1.826718e-02"
" 0";"  6";" 0.00";"  -5.570";"llenar";"1.826718e-02"
" 0";"  6";" 0.00";"  -5.570";"vi";"1.826718e-02"
" 0";"  6";" 0.00";"  -5.570";"sentar";"1.826718e-02"
" 0";"  6";" 0.00";"  -5.570";"pastor";"1.826718e-02"
" 0";"  6";" 0.00";"  -5.570";"higuera";"1.826718e-02"
" 0";"  6";" 0.00";"  -5.570";"guardará";"1.826718e-02"
" 0";"  6";" 0.00";"  -5.570";"debajo";"1.826718e-02"
" 0";"  6";" 0.00";"  -5.570";"bajo";"1.826718e-02"
" 0";"  6";" 0.00";"  -5.570";"año";"1.826718e-02"
" 3";" 16";"18.75";"  -5.568";"guardar";"1.829456e-02"
" 1";"  9";"11.11";"  -4.949";"orilla";"2.610712e-02"
" 4";" 18";"22.22";"  -4.874";"llevar";"2.726216e-02"
" 4";" 18";"22.22";"  -4.874";"encontrar";"2.726216e-02"
" 0";"  5";" 0.00";"  -4.638";"costado";"3.127637e-02"
" 0";"  5";" 0.00";"  -4.638";"vendar|vender";"3.127637e-02"
" 0";"  5";" 0.00";"  -4.638";"correr";"3.127637e-02"
" 0";"  5";" 0.00";"  -4.638";"tiniebla";"3.127637e-02"
" 0";"  5";" 0.00";"  -4.638";"sumos";"3.127637e-02"
" 0";"  5";" 0.00";"  -4.638";"seis";"3.127637e-02"
" 0";"  5";" 0.00";"  -4.638";"paloma";"3.127637e-02"
" 0";"  5";" 0.00";"  -4.638";"mellizo";"3.127637e-02"
" 0";"  5";" 0.00";"  -4.638";"marchar";"3.127637e-02"
" 0";"  5";" 0.00";"  -4.638";"judea";"3.127637e-02"
" 0";"  5";" 0.00";"  -4.638";"empezar";"3.127637e-02"
" 0";"  5";" 0.00";"  -4.638";"doce";"3.127637e-02"
" 0";"  5";" 0.00";"  -4.638";"después";"3.127637e-02"
" 0";"  5";" 0.00";"  -4.638";"coma";"3.127637e-02"
" 0";"  5";" 0.00";"  -4.638";"coger";"3.127637e-02"
" 0";"  5";" 0.00";"  -4.638";"cerrado";"3.127637e-02"
" 0";"  5";" 0.00";"  -4.638";"caná";"3.127637e-02"
" 0";"  5";" 0.00";"  -4.638";"caminar";"3.127637e-02"
" 0";"  5";" 0.00";"  -4.638";"cama";"3.127637e-02"
" 0";"  5";" 0.00";"  -4.638";"betania";"3.127637e-02"
" 0";"  5";" 0.00";"  -4.638";"andrés";"3.127637e-02"
" 4";" 17";"23.53";"  -4.145";"vez";"4.176700e-02"
" 1";"  8";"12.50";"  -4.070";"tres";"4.364196e-02"
" 1";"  8";"12.50";"  -4.070";"erar|ser";"4.364196e-02"
" 3";" 14";"21.43";"  -4.013";"junto";"4.514617e-02"
" 3";" 14";"21.43";"  -4.013";"felipe";"4.514617e-02"
" 0";"  4";" 0.00";"  -3.707";"vuestros";"5.419086e-02"
" 0";"  4";" 0.00";"  -3.707";"llorar";"5.419086e-02"
" 0";"  4";" 0.00";"  -3.707";"vista";"5.419086e-02"
" 0";"  4";" 0.00";"  -3.707";"tiberíades";"5.419086e-02"
" 0";"  4";" 0.00";"  -3.707";"semana";"5.419086e-02"
" 0";"  4";" 0.00";"  -3.707";"sano";"5.419086e-02"
" 0";"  4";" 0.00";"  -3.707";"realizar";"5.419086e-02"
" 0";"  4";" 0.00";"  -3.707";"piedra";"5.419086e-02"
" 0";"  4";" 0.00";"  -3.707";"perfume";"5.419086e-02"
" 0";"  4";" 0.00";"  -3.707";"maná";"5.419086e-02"
" 0";"  4";" 0.00";"  -3.707";"malo";"5.419086e-02"
" 0";"  4";" 0.00";"  -3.707";"magdalena";"5.419086e-02"
" 0";"  4";" 0.00";"  -3.707";"iscariote";"5.419086e-02"
" 0";"  4";" 0.00";"  -3.707";"estado";"5.419086e-02"
" 0";"  4";" 0.00";"  -3.707";"embarcar";"5.419086e-02"
" 0";"  4";" 0.00";"  -3.707";"cuerpo";"5.419086e-02"
" 0";"  4";" 0.00";"  -3.707";"cuatro";"5.419086e-02"
" 0";"  4";" 0.00";"  -3.707";"comida";"5.419086e-02"
" 0";"  4";" 0.00";"  -3.707";"cambista";"5.419086e-02"
" 0";"  4";" 0.00";"  -3.707";"cafarnaún";"5.419086e-02"
" 0";"  4";" 0.00";"  -3.707";"buey";"5.419086e-02"
" 0";"  4";" 0.00";"  -3.707";"barro";"5.419086e-02"
" 0";"  4";" 0.00";"  -3.707";"amará";"5.419086e-02"
" 0";"  4";" 0.00";"  -3.707";"amanecer";"5.419086e-02"
" 3";" 13";"23.08";"  -3.276";"tomar";"7.031623e-02"
" 1";"  7";"14.29";"  -3.209";"sábado";"7.321579e-02"
" 2";" 10";"20.00";"  -3.171";"bueno";"7.494089e-02"
" 0";"  3";" 0.00";"  -2.778";"pobre";"9.559235e-02"
" 0";"  3";" 0.00";"  -2.778";"vender";"9.559235e-02"
" 0";"  3";" 0.00";"  -2.778";"tercero";"9.559235e-02"
" 0";"  3";" 0.00";"  -2.778";"sudario";"9.559235e-02"
" 0";"  3";" 0.00";"  -2.778";"samaría";"9.559235e-02"
" 0";"  3";" 0.00";"  -2.778";"retirar";"9.559235e-02"
" 0";"  3";" 0.00";"  -2.778";"recoger";"9.559235e-02"
" 0";"  3";" 0.00";"  -2.778";"presentar";"9.559235e-02"
" 0";"  3";" 0.00";"  -2.778";"pierna";"9.559235e-02"
" 0";"  3";" 0.00";"  -2.778";"ocho";"9.559235e-02"
" 0";"  3";" 0.00";"  -2.778";"mal";"9.559235e-02"
" 0";"  3";" 0.00";"  -2.778";"enterar";"9.559235e-02"
" 0";"  3";" 0.00";"  -2.778";"derecha";"9.559235e-02"
" 0";"  3";" 0.00";"  -2.778";"cien";"9.559235e-02"
" 0";"  3";" 0.00";"  -2.778";"celebrar";"9.559235e-02"
" 0";"  3";" 0.00";"  -2.778";"asomar";"9.559235e-02"
" 0";"  3";" 0.00";"  -2.778";"apodar";"9.559235e-02"
" 0";"  3";" 0.00";"  -2.778";"adelantar";"9.559235e-02"
" 5";" 17";"29.41";"  -2.392";"siempre";"1.219607e-01"
" 5";" 17";"29.41";"  -2.392";"voz";"1.219607e-01"
" 5";" 17";"29.41";"  -2.392";"vivir";"1.219607e-01"
" 5";" 17";"29.41";"  -2.392";"ojo";"1.219607e-01"
" 1";"  6";"16.67";"  -2.374";"cerca";"1.233698e-01"
" 1";"  6";"16.67";"  -2.374";"noche";"1.233698e-01"
" 1";"  6";"16.67";"  -2.374";"cinco";"1.233698e-01"
" 8";" 24";"33.33";"  -2.116";"llamar";"1.457282e-01"
"*****";"*";"*";"*";"*";"*"
"  9";" 96";" 9.38";"-62.868";"aquel";"2.210272e-15"
" 38";"164";"23.17";"-47.601";"se";"5.223985e-12"
"150";"389";"38.56";"-21.475";"a";"3.584486e-06"
"  3";" 25";"12.00";"-13.287";"entonces";"2.672924e-04"
" 16";" 54";"29.63";" -7.682";"otro";"5.575902e-03"
"135";"321";"42.06";" -6.422";"en";"1.127176e-02"
"  3";" 17";"17.65";" -6.376";"entre";"1.156744e-02"
"222";"504";"44.05";" -5.825";"y";"1.579859e-02"
"115";"275";"41.82";" -5.620";"él";"1.775516e-02"
" 19";" 52";"36.54";" -2.876";"cuando";"8.992650e-02"
"  0";"  3";" 0.00";" -2.778";"demás";"9.559235e-02"
"  0";"  3";" 0.00";" -2.778";"cincuenta";"9.559235e-02"
" 27";" 68";"39.71";" -2.001";"con";"1.572335e-01"
"*";"*";"*";"*";"*";"*"
" 5";" 39";"12.82";"-20.054";"*egutegia_OctavaDePas";"7.530162e-06"
" 1";" 18";" 5.56";"-13.211";"*zein_Juan5-1-3a5-16";"2.782366e-04"
" 0";" 14";" 0.00";"-13.093";"*zein_Juan6-51-58";"2.964231e-04"
" 2";" 20";"10.00";"-11.788";"*zein_Juan6-1-15";"5.960257e-04"
" 0";" 11";" 0.00";"-10.259";"*zein_Juan12-1-11";"1.360184e-03"
"13";" 50";"26.00";"-10.162";"*zein_Juan11-1-45";"1.433631e-03"
" 2";" 18";"11.11";" -9.980";"*zein_Juan21-1-19";"1.582628e-03"
" 2";" 18";"11.11";" -9.980";"*zein_Juan21-1-14";"1.582628e-03"
" 0";" 10";" 0.00";" -9.318";"*zein_Juan6-52-59";"2.269321e-03"
" 0";" 10";" 0.00";" -9.318";"*zein_Juan20-1-9";"2.269321e-03"
"44";"125";"35.20";" -9.263";"*egutegia_SemanaDelTi";"2.338116e-03"
" 0";"  8";" 0.00";" -7.441";"*zein_Juan20-2-8";"6.376588e-03"
" 2";" 13";"15.38";" -5.609";"*zein_Juan2-13-22";"1.786970e-02"
" 3";" 15";"20.00";" -4.779";"*zein_Juan8-1-11";"2.881131e-02"
" 3";" 15";"20.00";" -4.779";"*zein_Juan2-13-25";"2.881131e-02"
" 0";"  5";" 0.00";" -4.638";"*zein_Juan6-16-21";"3.127637e-02"
" 3";" 13";"23.08";" -3.276";"*zein_Juan2-1-11";"7.031623e-02"
" 1";"  7";"14.29";" -3.209";"*egutegia_FinDelTiemp";"7.321579e-02"
" 1";"  7";"14.29";" -3.209";"*zein_Juan20-19-23";"7.321579e-02"
"17";" 47";"36.17";" -2.756";"*egutegia_SemanaSanta";"9.690987e-02"
" 3";" 12";"25.00";" -2.573";"*zein_Juan10-11-18";"1.087146e-01"
" 3";" 12";"25.00";" -2.573";"*zein_Juan10-1-10";"1.087146e-01"
" 1";"  6";"16.67";" -2.374";"*zein_Juan19-31-37";"1.233698e-01"
" 4";" 14";"28.57";" -2.146";"*zein_Juan20-19-31";"1.429433e-01"
