"";"";"";"";"strange";""
"1";"strange";"-1.03857601532411";"4.92622387762563";"2.64869169413425";"5"
"2";"hateful";"-2.06600755558335";"-28.2249510524792";"2.15993318970475";"6"
"3";"advantage";"-0.299395432231246";"-1.11728272620715";"1.47040001112792";"11"
"4";"tolerate";"-0.553620065571099";"-1.43857155071329";"1.4450158439053";"12"
"5";"food";"0.971727734468016";"0.48916139632353";"1.4113691991057";"13"
"6";"brother";"0.0874106183119074";"0.341865946170334";"1.27868699151978";"15"
"7";"reap";"15.3722892976637";"-0.841083567692404";"1.24698944399475";"18"
"8";"sing";"-1.03857601532411";"4.92622387762563";"1.20867956042592";"20"
"9";"province";"-1.03857601532411";"4.92622387762563";"1.20867956042592";"21"
"10";"hymn";"-1.03857601532411";"4.92622387762563";"1.20867956042592";"22"
"11";"close";"-1.03857601532411";"4.92622387762563";"1.20867956042592";"23"
"12";"asia";"-1.03857601532411";"4.92622387762563";"1.20867956042592";"24"
"13";"pass";"0.971727734468015";"0.48916139632353";"1.16546986287519";"26"
"14";"husband";"-0.357362196460633";"-0.920351324648433";"1.15829727906406";"27"
"15";"wife";"-0.342143810891601";"-0.882276736319958";"1.14417220877896";"29"
"16";"psalm";"-1.03857601532411";"4.92622387762563";"1.10635548448431";"31"
"17";"judgement";"0.69247855730186";"0.379654392380747";"1.06571398153087";"32"
"18";"man";"-0.201302068786351";"-0.456984372106766";"1.0657033886109";"33"
"19";"god";"-0.090211268889075";"0.0601285060920183";"1.04324286730014";"36"
"20";"gladly";"-0.417503035112935";"-0.942003240291394";"1.01323312502374";"37"
"21";"bread";"0.860028063601553";"0.445358594746417";"0.994801444275089";"39"
"22";"send";"0.0654765966898116";"0.332461559541612";"0.99111393113425";"40"
"23";"marry";"-0.269698377687798";"-0.752727218079752";"0.971880719441165";"41"
"24";"cup";"0.971727734468016";"0.48916139632353";"0.969976347828692";"42"
"25";"wise";"-0.232078100489796";"-0.310620793223184";"0.954757852804422";"44"
"26";"letter";"0.0991893706103331";"0.221886325205848";"0.931036774017172";"48"
"27";"sacrifice";"0.723506243653655";"0.391821837263278";"0.928605110388391";"51"
"28";"sleep";"0.812156776087356";"0.426585965499082";"0.922814314137857";"52"
"29";"greedy";"0.812156776087356";"0.426585965499082";"0.922814314137857";"53"
"30";"widow";"-0.357362196460633";"-0.920351324648433";"0.922609517685094";"54"
"31";"christ";"-0.122040729470014";"0.060628324180328";"0.921618491172299";"55"
"32";"offer";"0.435452866027244";"0.285670383406459";"0.921479606221575";"56"
"33";"thief";"0.971727734468016";"0.48916139632353";"0.921272455786597";"57"
"34";"chance";"-0.357362196460633";"-0.920351324648434";"0.910291128750522";"59"
"35";"treat";"-0.287123493834331";"-0.744622455440082";"0.910259349990611";"60"
"36";"night";"0.568489397002963";"0.257084685084265";"0.902314660012744";"62"
"37";"hungry";"0.785561616357245";"0.416156727028341";"0.899106182252793";"63"
"38";"commit";"-0.357362196460633";"-0.920351324648433";"0.897980978753706";"65"
"39";"supper";"0.971727734468015";"0.48916139632353";"0.896945226578813";"66"
"40";"pagan";"0.971727734468015";"0.48916139632353";"0.896945226578813";"67"
"41";"drunkard";"0.971727734468015";"0.48916139632353";"0.896945226578813";"68"
"42";"pay";"0.0869664533699861";"0.213348677973175";"0.892151341796613";"69"
"43";"christian";"-0.160602021481312";"-0.398690617693332";"0.888316704767296";"70"
"44";"devil";"-0.357362196460633";"-0.920351324648433";"0.885679067694644";"71"
"45";"clothe";"0.652585817706695";"0.364010534674635";"0.883289775745744";"72"
"46";"child";"-0.225429998646535";"-1.02676538487988";"0.883135589910618";"73"
"47";"see";"0.0812533008576656";"0.191809932787921";"0.879579899773857";"74"
"48";"demon";"0.748328392735091";"0.401555793169303";"0.875668758322531";"76"
"49";"jesus";"-0.114664082674197";"0.0608907474893199";"0.873813820336587";"77"
"50";"hate";"-0.357362196460633";"-0.920351324648433";"0.873385395573336";"78"
"51";"macedonia";"0.0991893706103331";"0.221886325205848";"0.873014643374369";"79"
"52";"family";"-0.234138441445689";"-0.514092892961424";"0.872763944268401";"80"
"53";"branch";"0.971727734468016";"0.48916139632353";"0.872635652237647";"81"
"54";"thirsty";"0.971727734468016";"0.48916139632353";"0.872635652237647";"82"
"55";"meat";"0.971727734468016";"0.48916139632353";"0.872635652237647";"83"
"56";"happy";"0.0720273322984509";"0.202913775799909";"0.870128661177965";"84"
"57";"dont";"-0.145090879025797";"-0.404402198113581";"0.868881050603663";"85"
"58";"young";"-0.277295104497086";"-0.639877955534257";"0.866217519726639";"86"
"59";"hour";"7.09659378898431";"-0.218370696149743";"0.864732156948554";"89"
"60";"encourage";"0.105816195821612";"0.210220431737149";"0.864470864922616";"90"
"61";"work";"-0.0168249619058838";"0.147600499509177";"0.863677572915937";"91"
"62";"unmarried";"-0.357362196460633";"-0.920351324648434";"0.861101139380892";"92"
"63";"humble";"-0.357362196460633";"-0.920351324648434";"0.861101139380892";"93"
"64";"hair";"-0.357362196460633";"-0.920351324648434";"0.861101139380892";"94"
"65";"disgrace";"-0.357362196460633";"-0.920351324648434";"0.861101139380892";"95"
"66";"beg";"0.0817280602669803";"0.20968968630203";"0.860751573021866";"96"
"67";"law";"-0.14448594703831";"0.0317608379585083";"0.859636962442749";"97"
"68";"allow";"-0.173209867916661";"-0.545791342879441";"0.859194413786204";"98"
"69";"spirit";"0.0199005798091544";"0.0780694880089179";"0.856442608576092";"99"
"70";"sad";"0.0803848825482608";"0.208751483309428";"0.855546918343032";"100"
"71";"bad";"-0.293734229781425";"-0.628905913088184";"0.855120847561997";"101"
"72";"submit";"-0.293734229781425";"-0.628905913088184";"0.855120847561997";"102"
"73";"altar";"0.69247855730186";"0.379654392380747";"0.852692714906539";"104"
"74";"boast";"-0.171132289390587";"-0.0981234937802365";"0.852286652974337";"105"
"75";"dare";"-0.352083745409446";"-0.769263164936442";"0.851994759179594";"106"
"76";"prison";"0.0788178418764214";"0.207656913151393";"0.850351679593061";"107"
"77";"talk";"-0.373444825251082";"-0.262406173781742";"0.849854989345556";"108"
"78";"visit";"0.0642667499236275";"0.197493047398212";"0.849612529177342";"109"
"79";"hard";"0.0533534309590319";"0.189870148083325";"0.849458343342216";"110"
"80";"escape";"-0.135847207972525";"-0.685432537819773";"0.848955768139172";"112"
"81";"watch";"-0.322013326083296";"-0.758437207114962";"0.848955768139172";"113"
"82";"temple";"0.362456802469131";"0.25023702408473";"0.848875732743839";"114"
"83";"master";"-0.24317371864186";"-0.453137760750781";"0.848860431859437";"115"
"84";"superior";"-0.357362196460633";"-0.920351324648433";"0.848825122126202";"116"
"85";"manage";"-0.357362196460633";"-0.920351324648433";"0.848825122126202";"117"
"86";"gossip";"-0.357362196460633";"-0.920351324648433";"0.848825122126202";"118"
"87";"case";"-0.357362196460633";"-0.920351324648433";"0.848825122126202";"119"
"88";"burn";"-0.357362196460633";"-0.920351324648433";"0.848825122126202";"120"
"89";"duty";"-0.258013902473084";"-0.551561164152363";"0.848679175228831";"121"
"90";"deceive";"-0.280237388364624";"-0.567084159120859";"0.848679175228831";"122"
"91";"parent";"-0.536232738182312";"-4.65783162150221";"0.846431122212872";"125"
"92";"put";"-0.149527901609489";"0.021310541737733";"0.845147024914227";"127"
"93";"dear";"0.0231726230824356";"0.367130248704436";"0.845031679785659";"128"
"94";"titus";"0.030168772072766";"0.0810239543925717";"0.844540874493693";"129"
"95";"cover";"-0.286664455705958";"-0.59652308958149";"0.844300768307696";"130"
"96";"ruin";"0.386717727352701";"0.14871180028786";"0.843835856820102";"131"
"97";"wrong";"0.0137409116983535";"-1.03877021187676";"0.843834679828994";"132"
"98";"slave";"-0.172324421453524";"-0.249339858798194";"0.843097883395491";"133"
"99";"cheer";"0.0991893706103331";"0.221886325205848";"0.841552494070907";"134"
"100";"glad";"0.0991893706103331";"0.221886325205848";"0.841552494070907";"135"
"101";"defend";"0.0991893706103331";"0.221886325205848";"0.841552494070907";"136"
"102";"heart";"-0.210153843828663";"0.555717724725065";"0.841521892302104";"137"
"103";"sit";"0.524929051002167";"0.313950190015077";"0.840749786135366";"138"
"104";"jerusalem";"0.0747435361296391";"0.204811030740503";"0.840004750764108";"139"
"105";"urge";"0.0316559237042727";"0.115904643837192";"0.839597511840798";"140"
"106";"respect";"-0.165450576643798";"-0.4062995589198";"0.838817166736305";"141"
"107";"worship";"0.070730608692612";"0.423234975708275";"0.83865709594564";"142"
"108";"bite";"-0.186242160838495";"-0.278604616100662";"0.838382857017515";"143"
"109";"life";"0.136352631996788";"-0.021470550934573";"0.838365202150898";"144"
"110";"adultery";"-0.357362196460633";"-0.920351324648433";"0.836557343809268";"146"
"111";"marri";"-0.357362196460633";"-0.920351324648433";"0.836557343809268";"147"
"112";"divorce";"-0.357362196460633";"-0.920351324648433";"0.836557343809268";"148"
"113";"discipline";"-0.357362196460633";"-0.920351324648433";"0.836557343809268";"149"
"114";"judea";"0.0991893706103331";"0.221886325205848";"0.836320768596593";"150"
"115";"welcome";"0.0720273322984509";"0.202913775799909";"0.834857768649558";"151"
"116";"leader";"0.0720273322984509";"0.202913775799909";"0.834857768649558";"152"
"117";"finish";"0.0720273322984509";"0.202913775799909";"0.834857768649558";"153"
"118";"human";"-0.141314353234466";"0.0421336831824833";"0.834176290798123";"154"
"119";"understand";"-0.228494233606118";"0.674472448579905";"0.834116264251624";"155"
"120";"faith";"-0.123283454086108";"0.0337042616230465";"0.833811423554695";"156"
"121";"act";"-0.221475742811378";"-0.434940160498269";"0.833696078426128";"157"
"122";"break";"0.245518159848258";"0.155144131416512";"0.832931034206037";"158"
"123";"feel";"0.130031044289421";"0.159667084006999";"0.832758016513185";"159"
"124";"ability";"-0.443037987905773";"1.67616354624347";"0.832314290865533";"160"
"125";"thousand";"-0.513735728660449";"1.35233531117653";"0.832314290865533";"161"
"126";"firm";"0.0227961378581644";"0.168526030001644";"0.831659883809578";"163"
"127";"faithful";"0.0227961378581644";"0.168526030001644";"0.831659883809578";"164"
"128";"barnabas";"0.099189370610333";"0.221886325205848";"0.831093751086711";"165"
"129";"happen";"0.0141946133609199";"0.103708004933374";"0.830704167030018";"166"
"130";"unclean";"0.599395498246475";"0.343152057733152";"0.830622954643578";"167"
"131";"vegetable";"0.599395498246475";"0.343152057733152";"0.830622954643578";"168"
"132";"orgy";"0.599395498246475";"0.343152057733152";"0.830622954643578";"169"
"133";"power";"-0.159501934302474";"0.189814999851137";"0.830509963497226";"170"
"134";"need";"-0.0352842181051724";"0.0507691912869647";"0.830253379435718";"171"
"135";"stand";"0.0173616036854641";"0.0475548441072698";"0.82993206086328";"172"
"136";"gospel";"-0.0285956732660217";"0.132629104136998";"0.829779052019262";"174"
"137";"peter";"0.0502977016489452";"0.187735736275157";"0.829553069726558";"176"
"138";"blood";"0.260911647135983";"0.210416295378263";"0.829455379464608";"177"
"139";"worldly";"-0.286664455705958";"-0.59652308958149";"0.829438901589098";"178"
"140";"time";"0.182855184738829";"0.0766381145606641";"0.829396529909217";"179"
"141";"born";"-0.263098542121066";"-0.488580344559176";"0.828860998955153";"180"
"142";"afraid";"-0.263098542121066";"-0.488580344559176";"0.828860998955153";"181"
"143";"live";"-0.137203184895056";"0.0138104959495797";"0.828856290990722";"182"
"144";"give";"0.0545693769697014";"0.0351457410850666";"0.82823837065911";"184"
"145";"grace";"-0.12755460138451";"0.0635067823388785";"0.827389760070363";"185"
"146";"message";"-0.194422690990534";"0.379485104934104";"0.827335618479402";"186"
"147";"peace";"-0.145268974196607";"0.0511333805523965";"0.827040193711337";"187"
"148";"proclaim";"-0.198775908826323";"0.531913237191542";"0.82687541495624";"188"
"149";"believe";"-0.152017530209042";"0.21556134808527";"0.826610591956978";"189"
"150";"write";"-0.0243421213079075";"0.11478720166406";"0.826431689308587";"190"
"151";"punish";"-0.28495899391159";"-2.29097757681245";"0.826095069851747";"191"
"152";"poor";"0.0991893706103331";"0.221886325205848";"0.825870264550151";"192"
"153";"laodicea";"0.0991893706103331";"0.221886325205848";"0.825870264550151";"193"
"154";"selfcontrolled";"-0.304338890894627";"-0.677480148348226";"0.825639574293016";"194"
"155";"vision";"-0.304338890894627";"-0.677480148348226";"0.825639574293016";"195"
"156";"stir";"-0.304338890894627";"-0.677480148348226";"0.825639574293016";"196"
"157";"settle";"-0.304338890894627";"-0.677480148348226";"0.825639574293016";"197"
"158";"cut";"-0.304338890894627";"-0.677480148348226";"0.825639574293016";"198"
"159";"character";"-0.304338890894627";"-0.677480148348226";"0.825639574293016";"199"
"160";"church";"-0.163854547069255";"0.268177517394016";"0.825302954836176";"200"
"161";"world";"-0.160135715909152";"-0.0101643755488061";"0.825269999085157";"201"
"162";"meet";"0.00891586499788061";"0.89552678328546";"0.825198202627579";"202"
"163";"unbeliever";"-0.267308785999288";"0.104125961055341";"0.824885122992896";"203"
"164";"trap";"-0.284025230180364";"-0.520979009725494";"0.824778016802083";"204"
"165";"messenger";"-0.172584431957865";"-0.168691950549643";"0.824778016802083";"205"
"166";"house";"0.0448652939865687";"0.18394122639397";"0.824672087602378";"206"
"167";"partner";"0.145410125808857";"0.124668260901781";"0.824672087602378";"207"
"168";"achaia";"0.0642667499236275";"0.197493047398212";"0.824648547780222";"208"
"169";"death";"0.174783995808382";"0.0397674889691669";"0.824247193812451";"209"
"170";"shameful";"-0.266465101204622";"-0.504000736705221";"0.823947061079954";"210"
"171";"revelation";"-0.421619040044488";"1.0270348285205";"0.8236233885253";"211"
"172";"desert";"-0.368595734478482";"1.2699060048207";"0.8236233885253";"212"
"173";"evil";"-0.198772702623615";"-0.216007631488452";"0.823303246943969";"213"
"174";"immoral";"0.304162084653494";"0.236738004548253";"0.8229171938606";"214"
"175";"please";"-0.138626435356744";"-0.221092424891265";"0.822511131928398";"216"
"176";"bring";"-0.116793625913463";"0.0230987900626706";"0.822488769097349";"217"
"177";"fee";"0.360206074569698";"0.0272762121377559";"0.821790813370405";"218"
"178";"sin";"-0.112002058419462";"-0.00680804484775865";"0.821662521339651";"219"
"179";"fall";"0.176184737032065";"0.119089116447908";"0.821308247016194";"220"
"180";"being";"-0.140854597225247";"0.0775107739355822";"0.820780954999885";"221"
"181";"year";"-0.0165667772845542";"-0.0236364992303537";"0.820672671817964";"222"
"182";"support";"0.0991893706103331";"0.221886325205848";"0.820650308986916";"223"
"183";"waste";"0.0991893706103331";"0.221886325205848";"0.820650308986916";"224"
"184";"tychicus";"0.0991893706103331";"0.221886325205848";"0.820650308986916";"225"
"185";"toil";"0.0991893706103331";"0.221886325205848";"0.820650308986916";"226"
"186";"shake";"0.0991893706103331";"0.221886325205848";"0.820650308986916";"227"
"187";"request";"0.0991893706103331";"0.221886325205848";"0.820650308986916";"228"
"188";"personally";"0.0991893706103331";"0.221886325205848";"0.820650308986916";"229"
"189";"occasion";"0.0991893706103331";"0.221886325205848";"0.820650308986916";"230"
"190";"joyful";"0.0991893706103331";"0.221886325205848";"0.820650308986916";"231"
"191";"james";"0.0991893706103331";"0.221886325205848";"0.820650308986916";"232"
"192";"expect";"0.0991893706103331";"0.221886325205848";"0.820650308986916";"233"
"193";"discourage";"0.0991893706103331";"0.221886325205848";"0.820650308986916";"234"
"194";"corinth";"0.0991893706103331";"0.221886325205848";"0.820650308986916";"235"
"195";"jealous";"0.0380747844085982";"0.179198089042485";"0.819880556802393";"236"
"196";"preach";"-0.0568928582782147";"0.0924488516670353";"0.81968164530517";"237"
"197";"start";"-0.0904381937120737";"1.00594258394248";"0.819612202829808";"238"
"198";"appeal";"0.023097442765172";"0.0315133835634674";"0.819612202829808";"239"
"199";"concern";"-0.224803932545617";"-0.313173383897915";"0.81932854797282";"240"
"200";"timothy";"-0.0212417394296416";"0.0920247550709344";"0.819321486026173";"241"
"201";"rid";"-0.272524907555023";"-0.531757442568102";"0.81913316744892";"242"
"202";"commandment";"-0.233641150139951";"-0.353651913281283";"0.818977804622686";"243"
"203";"proud";"-0.111907793611919";"-1.08213886121389";"0.818658840032464";"244"
"204";"good";"-0.15790991863962";"-0.230434374989639";"0.818622353308121";"245"
"205";"back";"-0.0354221127067477";"0.0973668463040274";"0.818618822334797";"246"
"206";"true";"-0.108261539334898";"0.0701391175470262";"0.818583512601562";"247"
"207";"union";"-0.113358179863923";"0.0536682125724661";"0.818562326761621";"248"
"208";"quiet";"-0.323930382422107";"1.02615147996704";"0.818414025882034";"249"
"209";"ordinary";"-0.226147044499331";"1.09445265782842";"0.818414025882034";"250"
"210";"decision";"-0.323930382422107";"1.02615147996704";"0.818414025882034";"251"
"211";"raise";"-0.109582009790418";"0.0684563562207973";"0.818406963935387";"252"
"212";"face";"-0.135198274416683";"-0.0923914996924513";"0.817984424127676";"253"
"213";"difference";"1.92206320839979";"-0.233666996144834";"0.817731371039492";"254"
"214";"glory";"-0.125742544843617";"0.0233377878445407";"0.817372388751603";"255"
"215";"joy";"-0.0277694886279029";"0.0898725774646955";"0.817293530347378";"256"
"216";"money";"0.290849888579847";"0.170769787090379";"0.817027530357008";"257"
"217";"scripture";"-0.11980137957951";"0.0334069062547148";"0.816806256028736";"258"
"218";"anger";"-0.263759629954983";"-1.57373157157162";"0.816616760460375";"259"
"219";"relation";"0.259111064816437";"0.032047645820684";"0.816513185242886";"260"
"220";"wisdom";"-0.145268974196607";"0.0511333805523965";"0.816175388794938";"261"
"221";"priscilla";"0.0991893706103331";"0.221886325205848";"0.815433884397003";"262"
"222";"personal";"0.0991893706103331";"0.221886325205848";"0.815433884397003";"263"
"223";"owe";"0.0991893706103331";"0.221886325205848";"0.815433884397003";"264"
"224";"onesimus";"0.0991893706103331";"0.221886325205848";"0.815433884397003";"265"
"225";"galatia";"0.0991893706103331";"0.221886325205848";"0.815433884397003";"266"
"226";"fellowworkers";"0.0991893706103331";"0.221886325205848";"0.815433884397003";"267"
"227";"fellowworker";"0.0991893706103331";"0.221886325205848";"0.815433884397003";"268"
"228";"aquila";"0.0991893706103331";"0.221886325205848";"0.815433884397003";"269"
"229";"matter";"0.49323744154607";"-0.184975131428654";"0.815335017143946";"270"
"230";"reveal";"-0.137120362703042";"0.0568251453741782";"0.815256158739721";"271"
"231";"rule";"-0.106370258383133";"0.0685271222788132";"0.815220849006486";"272"
"232";"bold";"0.0293441292369218";"0.173099769590576";"0.815217318033162";"273"
"233";"thanksgiving";"-0.253410423583367";"0.892107287506844";"0.814945433087253";"274"
"234";"despise";"0.203813463585916";"0.201641556608788";"0.814901884416263";"275"
"235";"gentile";"-0.138879561276407";"0.00885617369337861";"0.814821849020931";"276"
"236";"worker";"0.0502977016489452";"0.187735736275157";"0.814653539292511";"277"
"237";"stone";"0.0502977016489452";"0.187735736275157";"0.814653539292511";"278"
"238";"christians";"0.00787905719613982";"-0.00656120476500862";"0.814653539292511";"279"
"239";"usual";"-0.286664455705958";"-0.59652308958149";"0.814606459648197";"280"
"240";"train";"-0.286664455705958";"-0.59652308958149";"0.814606459648197";"281"
"241";"swell";"-0.286664455705958";"-0.59652308958149";"0.814606459648197";"282"
"242";"stephanas";"-0.205178340770311";"-0.539605441363673";"0.814606459648197";"283"
"243";"represent";"-0.286664455705958";"-0.59652308958149";"0.814606459648197";"284"
"244";"religious";"-0.286664455705958";"-0.59652308958149";"0.814606459648197";"285"
"245";"reflect";"-0.286664455705958";"-0.59652308958149";"0.814606459648197";"286"
"246";"property";"-0.205178340770311";"-0.539605441363673";"0.814606459648197";"287"
"247";"insist";"-0.205178340770311";"-0.539605441363673";"0.814606459648197";"288"
"248";"call";"-0.107283345438833";"0.0568531668709243";"0.814363999479984";"289"
"249";"thing";"-0.11553548089545";"-0.0267717662143116";"0.814336928684504";"290"
"250";"lord";"-0.0485862453795826";"0.0899723929489138";"0.814272194173573";"291"
"251";"pride";"-0.205660428621523";"-0.32038520706259";"0.814194512760456";"292"
"252";"ready";"0.0775204003461859";"0.174161260460815";"0.813892026045743";"293"
"253";"free";"-0.144566644917735";"-0.13423517906066";"0.813834353481459";"294"
"254";"obey";"-0.155660781863993";"-0.0309742128420989";"0.813807282685979";"295"
"255";"presence";"-0.145268974196607";"0.0511333805523965";"0.813637795966451";"296"
"256";"dead";"-0.103898725727547";"0.0673566403957718";"0.813369441993866";"297"
"257";"read";"0.00140603268755724";"0.153585147344467";"0.813363557038327";"298"
"258";"rob";"0.349292434428404";"0.2825191914695";"0.8130139906793";"299"
"259";"servant";"-0.13586673016557";"0.0577008015006061";"0.812743282724499";"300"
"260";"conscience";"0.0919715409038105";"0.107240042911927";"0.812492583618531";"301"
"261";"perform";"-0.303183297538253";"0.608791350819883";"0.81247139777859";"302"
"262";"standard";"-0.182391800685197";"-0.0842943404717567";"0.812436088045355";"303"
"263";"light";"-0.145268974196607";"0.0511333805523965";"0.812371353534424";"304"
"264";"gift";"-0.171630063156986";"0.244694945612938";"0.81224894645921";"305"
"265";"promise";"-0.138078541873519";"0.0178610415653894";"0.811827583642606";"306"
"266";"public";"-0.201243448765912";"-0.34082392958318";"0.811792273909371";"307"
"267";"gentle";"-0.0765951110719577";"-0.302641776566369";"0.811792273909371";"308"
"268";"righteous";"-0.145268974196607";"0.0511333805523965";"0.811739309309518";"309"
"269";"choose";"-0.135083209829651";"0.0582480865796236";"0.811492141176873";"310"
"270";"abraham";"-0.154106191790941";"0.0106548511690285";"0.811492141176873";"311"
"271";"jews";"-0.121805424562321";"0.0110939583764803";"0.811262627910846";"312"
"272";"cross";"-0.145268974196607";"0.0511333805523965";"0.811107265084612";"313"
"273";"father";"-0.17030841270187";"-0.0799204935330033";"0.811063716413623";"314"
"274";"believer";"0.121682126153008";"0.145102172752078";"0.810916592525143";"315"
"275";"heaven";"-0.154490418642869";"0.00889491510888214";"0.810868335889722";"316"
"276";"holy";"-0.127581769643448";"-0.00510255006169874";"0.810702380143518";"317"
"277";"remind";"-0.165260475034942";"0.724552046931595";"0.810618813774862";"318"
"278";"body";"-0.0895550761860424";"-0.0229894004154562";"0.810598804926029";"319"
"279";"decide";"-0.135749820507515";"-0.184375960785068";"0.810516415548481";"320"
"280";"learn";"-0.0937375425478123";"-0.187318382187821";"0.810494052717432";"321"
"281";"race";"-0.145268974196607";"0.0511333805523965";"0.809844353625908";"322"
"282";"past";"-0.145268974196607";"0.0511333805523965";"0.809844353625908";"323"
"283";"list";"-0.25131558532862";"-0.434608972048019";"0.809817282830428";"324"
"284";"helper";"-0.25131558532862";"-0.434608972048019";"0.809817282830428";"325"
"285";"harm";"-0.25131558532862";"-0.434608972048019";"0.809817282830428";"326"
"286";"nature";"-0.14402416179111";"0.020336005146728";"0.809713707612939";"327"
"287";"die";"0.27181612336405";"0.000721026080079759";"0.809546574875627";"328"
"288";"eternal";"1.06700111879622";"-0.02219251626393";"0.809472424435833";"329"
"289";"accept";"-0.157801839824326";"-0.0252145091747056";"0.809377088156099";"330"
"290";"home";"-0.0198782916519853";"-0.167261222878957";"0.809095787281327";"331"
"291";"part";"-0.149146947280243";"-0.0165757832974874";"0.809047530645906";"332"
"292";"judge";"-0.149146947280243";"-0.0165757832974874";"0.809047530645906";"333"
"293";"praise";"-0.189934326252982";"0.294887905406058";"0.809006335957132";"334"
"294";"place";"-0.13304605695626";"0.059671027785069";"0.809006335957132";"335"
"295";"knowledge";"-0.0598051203298416";"0.0872302418005247";"0.808798008531046";"336"
"296";"truth";"-0.105068660205105";"0.0403606254135805";"0.808746220922301";"337"
"297";"descendant";"-0.145268974196607";"0.0511333805523965";"0.80858379614942";"338"
"298";"lie";"-0.145268974196607";"0.0511333805523965";"0.80858379614942";"339"
"299";"belong";"-0.0966737453331175";"0.0255600540345396";"0.808562610309479";"340"
"300";"full";"-0.124897445462695";"0.0653627926068507";"0.808515530665166";"341"
"301";"hear";"-0.112234062736209";"0.0742081028028629";"0.808506114736303";"342"
"302";"include";"-0.255809000535759";"0.441493959739637";"0.808032964310955";"343"
"303";"sound";"-0.145268974196607";"0.0511333805523965";"0.80795410590673";"344"
"304";"salvation";"-0.145268974196607";"0.0511333805523965";"0.80795410590673";"345"
"305";"physical";"-0.145268974196607";"0.0511333805523965";"0.80795410590673";"346"
"306";"word";"-0.165488491772288";"0.311963199871403";"0.807943512986759";"347"
"307";"mind";"-0.189674580517346";"0.319374621089236";"0.807887017413583";"348"
"308";"bless";"-0.131687955040665";"0.060619655255366";"0.807772849276124";"349"
"309";"circumcise";"-0.151925570482574";"-0.0145042663271668";"0.807652796183125";"350"
"310";"command";"-0.123045488305067";"0.066656375520892";"0.807331477610687";"351"
"311";"earth";"-0.145268974196607";"0.0511333805523965";"0.80732441566404";"352"
"312";"saviour";"-0.145268974196607";"0.0511333805523965";"0.80732441566404";"353"
"313";"ruler";"-0.145268974196607";"0.0511333805523965";"0.80732441566404";"354"
"314";"end";"-0.145268974196607";"0.0511333805523965";"0.80732441566404";"355"
"315";"havent";"0.160872717968509";"0.097447842808151";"0.807256150179785";"356"
"316";"darkness";"0.102952516617754";"0.148472939612648";"0.807256150179785";"357"
"317";"wish";"-0.0954862827140702";"-0.0333767352444158";"0.807238495313168";"358"
"318";"heathen";"-0.00670692136929285";"-0.249854898373709";"0.8069877962072";"359"
"319";"christs";"-0.134434842761729";"0.0185518439755521";"0.806963079393935";"360"
"320";"day";"0.0299167214463954";"0.117098338120249";"0.806854796212015";"361"
"321";"suffer";"-0.121987227072136";"0.067395565757487";"0.806745336038986";"362"
"322";"stumble";"0.308549376960581";"0.254060367360591";"0.806402831626607";"363"
"323";"steal";"0.390035491896227";"0.310978015578408";"0.806402831626607";"364"
"324";"sweetsmelling";"0.227063262024934";"0.197142719142774";"0.806402831626607";"365"
"325";"solid";"0.308549376960581";"0.254060367360591";"0.806402831626607";"366"
"326";"sea";"0.227063262024934";"0.197142719142774";"0.806402831626607";"367"
"327";"room";"0.227063262024934";"0.197142719142774";"0.806402831626607";"368"
"328";"recognize";"0.308549376960581";"0.254060367360591";"0.806402831626607";"369"
"329";"question";"0.156365521270259";"-0.126685515924169";"0.806402831626607";"370"
"330";"properly";"0.156365521270259";"-0.126685515924169";"0.806402831626607";"371"
"331";"pervert";"0.156365521270259";"-0.126685515924169";"0.806402831626607";"372"
"332";"peaceful";"0.227063262024934";"0.197142719142774";"0.806402831626607";"373"
"333";"criticize";"0.308549376960581";"0.254060367360591";"0.806402831626607";"374"
"334";"cloud";"0.308549376960581";"0.254060367360591";"0.806402831626607";"375"
"335";"spiritual";"0.561746228464644";"0.0502552494909304";"0.806400477644391";"376"
"336";"person";"0.0869393596603189";"0.144703183253371";"0.806127415707374";"377"
"337";"guilty";"0.102576202017012";"0.155814278171968";"0.806127415707374";"378"
"338";"set";"-0.171161999072909";"0.153434223551724";"0.8058908404947";"379"
"339";"share";"-0.0172819890636317";"-0.541501708533359";"0.805843760850387";"380"
"340";"remember";"0.747523025584462";"0.0490825952202608";"0.805727238730711";"381"
"341";"weep";"0.0177032556746866";"0.164968676988031";"0.805269389189765";"382"
"342";"travel";"0.0177032556746866";"0.164968676988031";"0.805269389189765";"383"
"343";"whip";"0.0177032556746866";"0.164968676988031";"0.805269389189765";"384"
"344";"supply";"0.0177032556746866";"0.164968676988031";"0.805269389189765";"385"
"345";"wait";"0.0800448223612283";"0.146297832933825";"0.805214070607697";"386"
"346";"clear";"-0.191615309648075";"0.41155076924716";"0.805101079461345";"387"
"347";"order";"-0.125600463641722";"0.0716119303137883";"0.804401946743292";"388"
"348";"desire";"0.507928941333584";"-0.103414141298377";"0.804204212237177";"389"
"349";"present";"-0.185822017716642";"0.366498595660314";"0.804193619317206";"390"
"350";"show";"-0.159539934056034";"-0.48914731587931";"0.804041787464296";"391"
"351";"sake";"-0.0533584790998722";"0.0412698751098693";"0.803957044104532";"392"
"352";"find";"-0.163453560250935";"-0.158648718657086";"0.8037569556162";"393"
"353";"save";"-0.171803313558785";"0.090644183453193";"0.803503902528016";"394"
"354";"teach";"-0.125806081524082";"0.125171811322405";"0.803332061826273";"395"
"355";"flesh";"0.0781303675363179";"0.138738983706623";"0.802961309627306";"396"
"356";"exist";"0.0781303675363179";"0.138738983706623";"0.802961309627306";"397"
"357";"terrible";"0.127022036497706";"0.172889572637313";"0.802961309627306";"398"
"358";"socalled";"0.127022036497706";"0.172889572637313";"0.802961309627306";"399"
"359";"persons";"0.0846033920449005";"-0.0214073684028525";"0.802961309627306";"400"
"360";"trouble";"-0.173084138541118";"0.21515147201106";"0.802704725565798";"401"
"361";"succeed";"-0.215966714951282";"-0.272694854514547";"0.802469327344232";"402"
"362";"pot";"-0.134480600015636";"-0.21577720629673";"0.802469327344232";"403"
"363";"fulfil";"-0.134480600015636";"-0.21577720629673";"0.802469327344232";"404"
"364";"angry";"-0.134480600015636";"-0.21577720629673";"0.802469327344232";"405"
"365";"worth";"-0.215966714951282";"-0.272694854514547";"0.802469327344232";"406"
"366";"upright";"-0.215966714951282";"-0.272694854514547";"0.802469327344232";"407"
"367";"slavery";"-0.134480600015636";"-0.21577720629673";"0.802469327344232";"408"
"368";"single";"-0.215966714951282";"-0.272694854514547";"0.802469327344232";"409"
"369";"reverence";"-0.215966714951282";"-0.272694854514547";"0.802469327344232";"410"
"370";"repay";"-0.134480600015636";"-0.21577720629673";"0.802469327344232";"411"
"371";"great";"-0.125990361701851";"0.128572169135947";"0.802406946815517";"412"
"372";"friend";"-0.0268028892278437";"0.288105322724826";"0.802357513188988";"413"
"373";"acceptable";"0.0462913310046493";"-0.00931724357697767";"0.802129176914068";"414"
"374";"refuse";"0.0408971439141638";"0.124138049847585";"0.802129176914068";"415"
"375";"pour";"0.0408971439141638";"0.124138049847585";"0.802129176914068";"416"
"376";"increase";"-0.145268974196607";"0.0511333805523965";"0.801679566310877";"417"
"377";"foreigner";"-0.145268974196607";"0.0511333805523965";"0.801679566310877";"418"
"378";"wonderful";"-0.145268974196607";"0.0511333805523965";"0.801679566310877";"419"
"379";"wonder";"-0.145268974196607";"0.0511333805523965";"0.801679566310877";"420"
"380";"wealth";"-0.145268974196607";"0.0511333805523965";"0.801679566310877";"421"
"381";"voice";"-0.145268974196607";"0.0511333805523965";"0.801679566310877";"422"
"382";"uncircumcised";"-0.145268974196607";"0.0511333805523965";"0.801679566310877";"423"
"383";"trumpet";"-0.145268974196607";"0.0511333805523965";"0.801679566310877";"424"
"384";"treasure";"-0.145268974196607";"0.0511333805523965";"0.801679566310877";"425"
"385";"transform";"-0.145268974196607";"0.0511333805523965";"0.801679566310877";"426"
"386";"stubborn";"-0.145268974196607";"0.0511333805523965";"0.801679566310877";"427"
"387";"store";"-0.145268974196607";"0.0511333805523965";"0.801679566310877";"428"
"388";"simply";"-0.145268974196607";"0.0511333805523965";"0.801679566310877";"429"
"389";"silas";"-0.145268974196607";"0.0511333805523965";"0.801679566310877";"430"
"390";"selfcontrol";"-0.145268974196607";"0.0511333805523965";"0.801679566310877";"431"
"391";"risk";"-0.145268974196607";"0.0511333805523965";"0.801679566310877";"432"
"392";"repent";"-0.145268974196607";"0.0511333805523965";"0.801679566310877";"433"
"393";"pray";"-0.126771513199612";"0.122098673257776";"0.801671327373122";"434"
"394";"tell";"-0.050375068107181";"0.0754418371481986";"0.801479477822545";"435"
"395";"root";"-0.06378285926096";"0.108051028770214";"0.80032602653687";"436"
"396";"wear";"-0.06378285926096";"0.108051028770214";"0.80032602653687";"437"
"397";"imitate";"-0.06378285926096";"0.108051028770214";"0.80032602653687";"438"
"398";"timid";"-0.06378285926096";"0.108051028770214";"0.80032602653687";"439"
"399";"straight";"-0.06378285926096";"0.108051028770214";"0.80032602653687";"440"
"400";"soul";"-0.06378285926096";"0.108051028770214";"0.80032602653687";"441"
"401";"soldier";"-0.06378285926096";"0.108051028770214";"0.80032602653687";"442"
"402";"repeat";"-0.06378285926096";"0.108051028770214";"0.80032602653687";"443"
