"";"V1"
"1";8
"2";8
"3";8
"4";8
"5";8
"6";8
"7";8
"8";8
"9";8
"10";8
"11";8
"12";8
"13";8
"14";8
"15";8
"16";6
"17";8
"18";8
"19";8
"20";6
"21";8
"22";8
"23";8
"24";8
"25";8
"26";8
"27";8
"28";8
"29";8
"30";8
"31";8
"32";5
"33";8
"34";8
"35";8
"36";8
"37";7
"38";7
"39";7
"40";8
"41";8
"42";8
"43";8
"44";7
"45";3
"46";7
"47";8
"48";8
"49";8
"50";2
"51";8
"52";8
"53";8
"54";2
"55";2
"56";8
"57";8
"58";8
"59";8
"60";8
"61";8
"62";6
"63";8
"64";8
"65";8
"66";8
"67";8
"68";8
"69";8
"70";8
"71";8
"72";8
"73";8
"74";8
"75";6
"76";8
"77";8
"78";8
"79";8
"80";8
"81";8
"82";7
"83";6
"84";7
"85";2
"86";8
"87";8
"88";8
"89";8
"90";8
"91";8
"92";8
"93";8
"94";8
"95";8
"96";8
"97";5
"98";8
"99";0
"100";8
"101";6
"102";6
"103";8
"104";8
"105";6
"106";8
"107";8
"108";8
"109";8
"110";8
"111";8
"112";8
"113";8
"114";8
"115";8
"116";8
"117";8
"118";8
"119";8
"120";8
"121";8
"122";8
"123";8
"124";8
"125";8
"126";8
"127";8
"128";8
"129";8
"130";6
"131";8
"132";8
"133";8
"134";8
"135";8
"136";8
"137";8
"138";8
"139";8
"140";8
"141";8
"142";6
"143";6
"144";8
"145";8
"146";8
"147";8
"148";8
"149";8
"150";8
"151";0
"152";8
"153";8
"154";8
"155";8
"156";8
"157";8
"158";8
"159";8
"160";8
"161";8
"162";8
"163";8
"164";8
"165";6
"166";8
"167";8
"168";8
"169";8
"170";8
"171";8
"172";8
"173";8
"174";8
"175";8
"176";8
"177";8
"178";8
"179";8
"180";8
"181";8
"182";8
"183";8
"184";8
"185";8
"186";8
"187";0
"188";8
"189";8
"190";8
"191";8
"192";8
"193";8
"194";8
"195";8
"196";8
"197";8
"198";8
"199";2
"200";8
"201";8
"202";8
"203";8
"204";8
"205";8
"206";8
"207";8
"208";8
"209";0
"210";8
"211";8
"212";8
"213";8
"214";8
"215";8
"216";8
"217";8
"218";8
"219";8
"220";8
"221";8
"222";8
"223";8
"224";8
"225";7
"226";8
"227";8
"228";8
"229";8
"230";8
"231";8
"232";8
"233";8
"234";8
"235";8
"236";8
"237";8
"238";8
"239";8
"240";6
"241";8
"242";6
"243";8
"244";7
"245";8
"246";7
"247";7
"248";6
"249";8
"250";8
"251";8
"252";8
"253";8
"254";8
"255";8
"256";8
"257";7
"258";8
"259";8
"260";8
"261";7
"262";7
"263";8
"264";8
"265";8
"266";8
"267";8
"268";8
"269";8
"270";8
"271";7
"272";8
"273";8
"274";8
"275";8
"276";8
"277";7
"278";7
"279";7
"280";8
"281";8
"282";8
"283";8
"284";8
"285";8
"286";7
"287";8
"288";8
"289";8
"290";8
"291";8
"292";8
"293";8
"294";8
"295";8
"296";8
"297";8
"298";8
"299";8
"300";8
"301";8
"302";8
"303";8
"304";8
"305";8
"306";8
"307";8
"308";6
"309";8
"310";8
"311";8
"312";8
"313";8
"314";8
"315";8
"316";8
"317";8
"318";8
"319";8
"320";8
"321";8
"322";8
"323";8
"324";8
"325";6
"326";6
"327";6
"328";8
"329";8
"330";8
"331";8
"332";8
"333";8
"334";8
"335";8
"336";8
"337";8
"338";8
"339";8
"340";8
"341";8
"342";8
"343";8
"344";8
"345";8
"346";8
"347";8
"348";8
"349";8
"350";8
"351";8
"352";8
"353";8
"354";8
"355";8
"356";8
"357";8
"358";8
"359";8
"360";8
"361";8
"362";7
"363";8
"364";8
"365";6
"366";0
"367";8
"368";8
"369";7
"370";8
"371";7
"372";8
"373";8
"374";8
"375";8
"376";8
"377";8
"378";8
"379";8
"380";8
"381";7
"382";6
"383";8
"384";8
"385";8
"386";8
"387";8
"388";6
"389";8
"390";8
"391";8
"392";6
"393";6
"394";8
"395";8
"396";8
"397";8
"398";8
"399";8
"400";8
"401";8
"402";8
"403";8
"404";8
"405";8
"406";8
"407";0
"408";8
"409";8
"410";8
"411";8
"412";8
"413";8
"414";8
"415";8
"416";8
"417";8
"418";8
"419";8
"420";8
"421";8
"422";8
"423";8
"424";8
"425";8
"426";8
"427";8
"428";8
"429";8
"430";8
"431";8
"432";8
"433";8
"434";0
"435";8
"436";8
"437";8
"438";8
"439";8
"440";8
"441";8
"442";6
"443";2
"444";8
"445";8
"446";8
"447";8
"448";8
"449";8
"450";8
"451";8
"452";8
"453";2
"454";0
"455";0
"456";8
"457";2
"458";6
"459";2
"460";6
"461";2
"462";8
"463";6
"464";0
"465";6
"466";6
"467";8
"468";2
"469";8
"470";8
"471";0
"472";0
"473";0
"474";6
"475";8
"476";8
"477";8
"478";8
"479";4
"480";8
"481";6
"482";8
"483";2
"484";8
"485";8
"486";8
"487";0
"488";8
"489";8
"490";8
"491";8
"492";8
"493";8
"494";8
"495";6
"496";8
"497";6
"498";8
"499";8
"500";7
"501";6
"502";6
"503";8
"504";6
"505";8
"506";8
"507";6
"508";7
"509";7
"510";5
"511";6
"512";8
"513";8
"514";8
"515";6
"516";8
"517";2
"518";2
"519";7
"520";8
"521";8
"522";8
"523";8
"524";2
"525";8
"526";8
"527";8
"528";8
"529";8
"530";8
"531";6
"532";6
"533";6
"534";6
"535";8
"536";7
"537";8
"538";6
"539";8
"540";2
"541";4
"542";2
"543";8
"544";8
"545";8
"546";6
"547";8
"548";2
"549";2
"550";8
"551";8
"552";7
"553";8
"554";8
"555";8
"556";8
"557";2
"558";8
"559";8
"560";8
"561";8
"562";8
"563";2
"564";2
"565";8
"566";8
"567";8
"568";2
"569";2
"570";6
"571";2
"572";7
"573";8
"574";8
"575";8
"576";2
"577";2
"578";2
"579";8
"580";6
"581";8
"582";8
"583";8
"584";7
"585";6
"586";8
"587";8
"588";8
"589";8
"590";8
"591";8
"592";8
"593";6
"594";6
"595";8
"596";8
"597";8
"598";8
"599";8
"600";8
"601";8
"602";6
"603";6
"604";6
"605";6
"606";6
"607";8
"608";6
"609";8
"610";6
"611";8
"612";6
"613";8
"614";6
"615";6
"616";8
"617";6
"618";8
"619";8
"620";6
"621";8
"622";8
"623";6
"624";4
"625";6
"626";0
"627";6
"628";8
"629";6
"630";8
"631";7
"632";6
"633";6
"634";6
"635";6
"636";6
"637";0
"638";6
"639";6
"640";8
"641";8
"642";8
"643";6
"644";8
"645";8
"646";8
"647";6
"648";0
"649";6
"650";6
"651";6
"652";8
"653";8
"654";8
"655";8
"656";8
"657";6
"658";8
"659";8
"660";8
"661";8
"662";8
"663";8
"664";8
"665";6
"666";8
"667";8
"668";8
"669";0
"670";6
"671";8
"672";8
"673";8
"674";8
"675";8
"676";8
"677";7
"678";8
"679";6
"680";8
"681";8
"682";8
"683";8
"684";8
"685";8
"686";8
"687";8
"688";8
"689";6
"690";8
"691";8
"692";8
"693";8
"694";8
"695";8
"696";8
"697";8
"698";6
"699";8
"700";8
"701";8
"702";8
"703";8
"704";8
"705";8
"706";8
"707";8
"708";8
"709";8
"710";8
"711";8
"712";8
"713";6
"714";7
"715";2
"716";8
"717";8
"718";7
"719";1
"720";8
"721";8
"722";1
"723";1
"724";8
"725";1
"726";8
"727";6
"728";8
"729";8
"730";8
"731";8
"732";6
"733";0
"734";8
"735";8
"736";8
"737";8
"738";8
"739";7
"740";8
"741";8
"742";8
"743";5
"744";5
"745";8
"746";8
"747";8
"748";8
"749";8
"750";8
"751";8
"752";8
"753";8
"754";2
"755";8
"756";2
"757";2
"758";2
"759";8
"760";8
"761";6
"762";6
"763";7
"764";8
"765";8
"766";6
"767";6
"768";6
"769";8
"770";5
"771";8
"772";8
"773";8
"774";2
"775";2
"776";8
"777";6
"778";8
"779";8
"780";8
"781";8
"782";8
"783";6
"784";7
"785";8
"786";6
"787";6
"788";8
"789";6
"790";8
"791";8
"792";8
"793";8
"794";2
"795";6
"796";8
"797";8
"798";2
"799";8
"800";6
"801";8
"802";8
"803";8
"804";2
"805";8
"806";6
"807";2
"808";8
"809";2
"810";2
"811";8
"812";8
"813";8
"814";7
"815";8
"816";8
"817";8
"818";8
"819";7
"820";8
"821";7
"822";8
"823";6
"824";2
"825";6
"826";8
"827";2
"828";0
"829";8
"830";8
"831";8
"832";7
"833";8
"834";7
"835";2
"836";8
"837";8
"838";8
"839";8
"840";8
"841";8
"842";7
"843";8
"844";8
"845";7
"846";8
"847";8
"848";8
"849";0
"850";8
"851";8
"852";7
"853";7
"854";7
"855";7
"856";7
"857";6
"858";2
"859";8
"860";8
"861";0
"862";8
"863";7
"864";7
"865";8
"866";7
"867";7
"868";7
"869";8
"870";7
"871";7
"872";7
"873";2
"874";8
"875";6
"876";7
"877";8
"878";7
"879";7
"880";8
"881";8
"882";8
"883";8
"884";7
"885";8
"886";8
"887";8
"888";7
"889";8
"890";8
"891";0
"892";8
"893";8
"894";7
"895";8
"896";8
"897";7
"898";7
"899";7
"900";7
"901";7
"902";7
"903";8
"904";7
"905";6
"906";6
"907";0
"908";8
"909";8
"910";0
"911";7
"912";7
"913";0
"914";7
"915";7
"916";0
"917";8
"918";8
"919";7
"920";7
"921";8
"922";7
"923";7
"924";7
"925";7
"926";6
"927";8
"928";2
"929";8
"930";8
"931";7
"932";8
"933";2
"934";2
"935";8
"936";8
"937";8
"938";8
"939";2
"940";2
"941";2
"942";2
"943";8
"944";2
"945";2
"946";8
"947";6
"948";2
"949";7
"950";6
"951";8
"952";8
"953";8
"954";8
"955";6
"956";2
"957";6
"958";6
"959";6
"960";2
"961";8
"962";8
"963";8
"964";8
"965";0
"966";6
"967";6
"968";1
"969";1
"970";6
"971";8
"972";8
"973";2
"974";8
"975";6
"976";8
"977";8
"978";6
"979";8
"980";6
"981";6
"982";8
"983";6
"984";6
"985";7
"986";8
"987";8
"988";8
"989";8
"990";8
"991";8
"992";8
"993";8
"994";8
"995";8
"996";8
"997";7
"998";0
"999";6
"1000";6
"1001";8
"1002";6
"1003";2
"1004";8
"1005";2
"1006";2
"1007";8
"1008";8
"1009";8
"1010";2
"1011";8
"1012";8
"1013";8
"1014";6
"1015";8
"1016";6
"1017";8
"1018";8
"1019";8
"1020";2
"1021";8
"1022";8
"1023";2
"1024";2
"1025";2
"1026";2
"1027";2
"1028";8
"1029";2
"1030";2
"1031";2
"1032";2
"1033";2
"1034";2
"1035";6
"1036";8
"1037";7
"1038";8
"1039";7
"1040";8
"1041";2
"1042";8
"1043";7
"1044";2
"1045";8
"1046";2
"1047";2
"1048";8
"1049";0
"1050";8
"1051";8
"1052";8
"1053";7
"1054";7
"1055";7
"1056";7
"1057";7
"1058";7
"1059";7
"1060";7
"1061";7
"1062";7
"1063";7
"1064";7
"1065";7
"1066";8
"1067";7
"1068";7
"1069";7
"1070";8
"1071";8
"1072";8
"1073";8
"1074";8
"1075";2
"1076";2
"1077";2
"1078";8
"1079";6
"1080";2
"1081";2
"1082";0
"1083";2
"1084";2
"1085";2
"1086";2
"1087";2
"1088";2
"1089";6
"1090";2
"1091";8
"1092";2
"1093";2
"1094";7
"1095";8
"1096";6
"1097";2
"1098";8
"1099";8
"1100";8
"1101";8
"1102";8
"1103";8
"1104";8
"1105";8
"1106";8
"1107";8
"1108";8
"1109";4
"1110";8
"1111";8
"1112";8
"1113";8
"1114";8
"1115";8
"1116";8
"1117";8
"1118";8
"1119";0
"1120";8
"1121";8
"1122";8
"1123";8
"1124";7
"1125";8
"1126";7
"1127";7
"1128";8
"1129";8
"1130";8
"1131";8
"1132";8
"1133";8
"1134";8
"1135";4
"1136";8
"1137";4
"1138";8
"1139";0
"1140";8
"1141";8
"1142";8
"1143";8
"1144";8
"1145";8
"1146";6
"1147";6
"1148";6
"1149";6
"1150";8
"1151";8
"1152";4
"1153";2
"1154";8
"1155";8
"1156";3
"1157";8
"1158";6
"1159";6
"1160";8
"1161";8
"1162";8
"1163";8
"1164";8
"1165";4
"1166";8
"1167";8
"1168";4
"1169";4
"1170";8
"1171";4
"1172";4
"1173";8
"1174";8
"1175";8
"1176";4
"1177";8
"1178";8
"1179";8
"1180";8
"1181";4
"1182";8
"1183";0
"1184";8
"1185";4
"1186";8
"1187";8
"1188";8
"1189";4
"1190";4
"1191";6
"1192";7
"1193";8
"1194";4
"1195";8
"1196";8
"1197";6
"1198";4
"1199";6
"1200";4
"1201";4
"1202";8
"1203";8
"1204";6
"1205";8
"1206";8
"1207";7
"1208";8
"1209";7
"1210";7
"1211";8
"1212";0
"1213";8
"1214";6
"1215";4
"1216";7
"1217";6
"1218";6
"1219";8
"1220";2
"1221";8
"1222";8
"1223";6
"1224";8
"1225";6
"1226";8
"1227";8
"1228";8
"1229";6
"1230";8
"1231";8
"1232";8
"1233";8
"1234";8
"1235";8
"1236";8
"1237";8
"1238";8
"1239";8
"1240";8
"1241";8
"1242";8
"1243";8
"1244";8
"1245";8
"1246";8
"1247";8
"1248";8
"1249";8
"1250";8
"1251";8
"1252";8
"1253";6
"1254";8
"1255";8
"1256";6
"1257";8
"1258";8
"1259";2
"1260";7
"1261";8
"1262";8
"1263";8
"1264";8
"1265";1
"1266";1
"1267";8
"1268";8
"1269";8
"1270";8
"1271";8
"1272";8
"1273";8
"1274";8
"1275";8
"1276";8
"1277";8
"1278";8
"1279";8
"1280";8
"1281";8
"1282";8
"1283";8
"1284";8
"1285";8
"1286";8
"1287";8
"1288";8
"1289";8
"1290";8
"1291";8
"1292";8
"1293";8
"1294";8
"1295";8
"1296";8
"1297";8
"1298";6
"1299";8
"1300";6
"1301";6
"1302";6
"1303";6
"1304";0
"1305";6
"1306";6
"1307";2
"1308";6
"1309";6
"1310";8
"1311";6
"1312";8
"1313";6
"1314";6
"1315";7
"1316";6
"1317";6
"1318";7
"1319";6
"1320";6
"1321";6
"1322";6
"1323";7
"1324";4
"1325";6
"1326";6
"1327";0
"1328";8
"1329";8
"1330";8
"1331";8
"1332";8
"1333";6
"1334";8
"1335";8
"1336";8
"1337";8
"1338";8
"1339";8
"1340";6
"1341";8
"1342";4
"1343";8
"1344";2
"1345";8
"1346";8
"1347";8
"1348";8
"1349";8
"1350";8
"1351";6
"1352";8
"1353";6
"1354";6
"1355";6
"1356";6
"1357";8
"1358";8
"1359";8
"1360";8
"1361";8
"1362";8
"1363";8
"1364";8
"1365";6
"1366";8
"1367";6
"1368";6
"1369";6
"1370";6
"1371";6
"1372";6
"1373";6
"1374";8
"1375";6
"1376";6
"1377";6
"1378";8
"1379";6
"1380";6
"1381";6
"1382";8
"1383";8
"1384";6
"1385";8
"1386";6
"1387";6
"1388";8
"1389";8
"1390";8
"1391";8
"1392";8
"1393";8
"1394";6
"1395";8
"1396";8
"1397";8
"1398";6
"1399";6
"1400";6
"1401";8
"1402";8
"1403";6
"1404";8
"1405";8
"1406";8
"1407";6
"1408";8
"1409";8
"1410";8
"1411";8
"1412";8
"1413";8
"1414";6
"1415";8
"1416";4
"1417";8
"1418";8
"1419";8
"1420";8
"1421";8
"1422";8
"1423";8
"1424";8
"1425";8
"1426";6
"1427";8
"1428";8
"1429";8
"1430";8
"1431";8
"1432";8
"1433";6
"1434";8
"1435";8
"1436";8
"1437";8
"1438";8
"1439";8
"1440";8
"1441";8
"1442";8
"1443";8
"1444";8
"1445";8
"1446";8
"1447";8
"1448";6
"1449";8
"1450";6
"1451";8
"1452";8
"1453";6
"1454";6
"1455";8
"1456";8
"1457";2
"1458";8
"1459";8
"1460";8
"1461";8
"1462";8
"1463";8
"1464";8
"1465";7
"1466";8
"1467";8
"1468";8
"1469";8
"1470";0
"1471";8
"1472";8
"1473";6
"1474";8
"1475";8
"1476";8
"1477";8
"1478";8
"1479";0
"1480";8
"1481";8
"1482";8
"1483";6
"1484";8
"1485";8
"1486";8
"1487";6
"1488";8
"1489";8
"1490";0
"1491";2
"1492";8
"1493";6
"1494";7
"1495";8
"1496";7
"1497";0
"1498";8
"1499";8
"1500";6
"1501";6
"1502";8
"1503";4
"1504";8
"1505";4
"1506";4
"1507";7
"1508";3
"1509";6
"1510";6
"1511";8
"1512";7
"1513";6
"1514";2
"1515";8
"1516";8
"1517";6
"1518";8
"1519";8
"1520";6
"1521";2
"1522";8
"1523";8
"1524";0
"1525";7
"1526";8
"1527";6
"1528";6
"1529";8
"1530";6
"1531";6
"1532";6
"1533";6
"1534";6
"1535";6
"1536";6
"1537";8
"1538";8
"1539";8
"1540";6
"1541";8
"1542";3
"1543";8
"1544";6
"1545";8
"1546";6
"1547";6
"1548";6
"1549";8
"1550";8
"1551";8
"1552";6
"1553";6
"1554";8
"1555";6
"1556";8
"1557";6
"1558";6
"1559";8
"1560";8
"1561";6
"1562";8
"1563";8
"1564";6
"1565";8
"1566";8
"1567";8
"1568";6
"1569";6
"1570";7
"1571";6
"1572";6
"1573";8
"1574";8
"1575";6
"1576";6
"1577";7
"1578";8
"1579";6
"1580";6
"1581";8
"1582";6
"1583";8
"1584";7
"1585";8
"1586";6
"1587";8
"1588";6
"1589";6
"1590";8
"1591";8
"1592";6
"1593";6
"1594";6
"1595";7
"1596";6
"1597";6
"1598";6
"1599";6
"1600";6
"1601";1
"1602";1
"1603";7
"1604";8
"1605";8
"1606";6
"1607";8
"1608";7
"1609";8
"1610";8
"1611";8
"1612";8
"1613";8
"1614";8
"1615";8
"1616";8
"1617";8
"1618";6
"1619";6
"1620";6
"1621";0
"1622";8
"1623";8
"1624";8
"1625";8
"1626";8
"1627";8
"1628";8
"1629";8
"1630";8
"1631";5
"1632";6
"1633";8
"1634";8
"1635";5
"1636";8
"1637";6
"1638";8
"1639";8
"1640";8
"1641";7
"1642";6
"1643";6
"1644";6
"1645";6
"1646";6
"1647";8
"1648";7
"1649";8
"1650";7
"1651";8
"1652";8
"1653";8
"1654";8
"1655";8
"1656";8
"1657";5
"1658";5
"1659";8
"1660";5
"1661";8
"1662";5
"1663";5
"1664";8
"1665";5
"1666";8
"1667";6
"1668";8
"1669";6
"1670";6
"1671";1
"1672";0
"1673";8
"1674";6
"1675";2
"1676";2
"1677";2
"1678";8
"1679";6
"1680";8
"1681";8
"1682";8
"1683";8
"1684";6
"1685";7
"1686";8
"1687";7
"1688";7
"1689";8
"1690";8
"1691";5
"1692";8
"1693";8
"1694";8
"1695";8
"1696";6
"1697";8
"1698";8
"1699";5
"1700";8
"1701";6
"1702";8
"1703";7
"1704";8
"1705";6
"1706";2
"1707";7
"1708";6
"1709";8
"1710";7
"1711";8
"1712";5
"1713";6
"1714";5
"1715";6
"1716";6
"1717";8
"1718";7
"1719";7
"1720";8
"1721";6
"1722";8
"1723";8
"1724";6
"1725";7
"1726";8
"1727";8
"1728";8
"1729";8
"1730";8
"1731";8
"1732";8
"1733";8
"1734";8
"1735";8
"1736";8
"1737";8
"1738";6
"1739";8
"1740";6
"1741";8
"1742";6
"1743";8
"1744";0
"1745";6
"1746";8
"1747";8
"1748";6
"1749";8
"1750";8
"1751";8
"1752";0
"1753";8
"1754";8
"1755";8
"1756";0
"1757";8
"1758";8
"1759";8
"1760";8
"1761";8
"1762";6
"1763";8
"1764";8
"1765";8
"1766";8
"1767";8
"1768";6
"1769";0
"1770";6
"1771";6
"1772";8
"1773";8
"1774";8
"1775";6
"1776";8
"1777";8
"1778";8
"1779";6
"1780";8
"1781";6
"1782";8
"1783";6
"1784";8
"1785";8
"1786";6
"1787";6
"1788";6
"1789";8
"1790";6
"1791";6
"1792";6
"1793";8
"1794";6
"1795";6
"1796";7
"1797";6
"1798";6
"1799";8
"1800";8
"1801";8
"1802";8
"1803";8
"1804";8
"1805";8
"1806";6
"1807";8
"1808";8
"1809";8
"1810";8
"1811";8
"1812";8
"1813";8
"1814";8
"1815";8
"1816";8
"1817";8
"1818";6
"1819";8
"1820";8
"1821";8
"1822";8
"1823";8
"1824";8
"1825";8
"1826";8
"1827";8
"1828";8
"1829";8
"1830";8
"1831";8
"1832";8
"1833";8
"1834";8
"1835";0
"1836";8
"1837";6
"1838";6
"1839";8
"1840";8
"1841";8
"1842";8
"1843";8
"1844";8
"1845";8
"1846";8
"1847";7
"1848";6
"1849";8
"1850";8
"1851";8
"1852";8
"1853";8
"1854";8
"1855";8
"1856";8
"1857";8
"1858";7
"1859";8
"1860";8
"1861";7
"1862";7
"1863";8
"1864";8
"1865";8
"1866";8
"1867";8
"1868";8
"1869";8
"1870";8
"1871";7
"1872";6
"1873";0
"1874";6
"1875";6
"1876";0
"1877";6
"1878";6
"1879";1
"1880";8
"1881";8
"1882";8
"1883";8
"1884";8
"1885";8
"1886";8
"1887";8
"1888";8
"1889";8
"1890";0
"1891";8
"1892";8
"1893";7
"1894";7
"1895";8
"1896";7
"1897";7
"1898";6
"1899";6
"1900";6
"1901";8
"1902";0
"1903";8
"1904";6
"1905";7
"1906";6
"1907";8
"1908";7
"1909";8
"1910";8
"1911";8
"1912";8
"1913";8
"1914";8
"1915";8
"1916";8
"1917";0
"1918";8
"1919";0
"1920";8
"1921";8
"1922";6
"1923";8
"1924";6
"1925";8
"1926";6
"1927";8
"1928";6
"1929";8
"1930";8
"1931";8
"1932";8
"1933";7
"1934";0
"1935";8
"1936";8
"1937";8
"1938";8
"1939";8
"1940";8
"1941";2
"1942";8
"1943";6
"1944";8
"1945";2
"1946";8
"1947";8
"1948";8
"1949";8
"1950";8
"1951";8
"1952";8
"1953";6
"1954";6
"1955";7
"1956";8
"1957";8
"1958";7
"1959";8
"1960";6
"1961";8
"1962";8
"1963";5
"1964";1
"1965";1
"1966";1
"1967";8
"1968";1
"1969";7
"1970";6
"1971";8
"1972";8
"1973";8
"1974";8
"1975";8
"1976";8
"1977";8
"1978";8
"1979";8
"1980";8
"1981";6
"1982";8
"1983";8
"1984";8
"1985";8
"1986";8
"1987";8
"1988";8
"1989";8
"1990";8
"1991";8
"1992";8
"1993";8
"1994";8
"1995";8
"1996";8
"1997";8
"1998";8
"1999";8
"2000";8
"2001";8
"2002";8
"2003";8
"2004";8
"2005";7
"2006";8
"2007";8
"2008";8
"2009";8
"2010";8
"2011";8
"2012";8
"2013";8
"2014";8
"2015";8
"2016";8
"2017";8
"2018";8
"2019";8
"2020";8
"2021";8
"2022";8
"2023";8
"2024";8
"2025";8
"2026";8
"2027";8
"2028";8
"2029";8
"2030";8
"2031";8
"2032";8
"2033";8
"2034";8
"2035";8
"2036";8
"2037";8
"2038";8
"2039";8
"2040";6
"2041";8
"2042";8
"2043";8
"2044";8
"2045";8
"2046";8
"2047";8
"2048";8
"2049";8
"2050";6
"2051";0
"2052";8
"2053";8
"2054";8
"2055";8
"2056";8
"2057";8
"2058";6
"2059";8
"2060";7
"2061";8
"2062";8
"2063";8
"2064";8
"2065";8
"2066";8
"2067";8
"2068";8
"2069";8
"2070";6
"2071";8
"2072";8
"2073";8
"2074";8
"2075";8
"2076";8
"2077";8
"2078";7
"2079";6
"2080";8
"2081";8
"2082";8
"2083";7
"2084";3
"2085";8
"2086";6
"2087";8
"2088";8
"2089";8
"2090";8
"2091";8
"2092";8
"2093";8
"2094";8
"2095";8
"2096";8
"2097";7
"2098";8
"2099";8
"2100";7
"2101";8
"2102";8
"2103";0
"2104";8
"2105";8
"2106";8
"2107";5
"2108";2
"2109";8
"2110";4
"2111";4
"2112";8
"2113";7
"2114";7
"2115";7
"2116";8
"2117";7
"2118";7
"2119";8
"2120";7
"2121";7
"2122";7
"2123";7
"2124";8
"2125";7
"2126";8
"2127";6
"2128";7
"2129";7
"2130";7
"2131";8
"2132";7
"2133";7
"2134";8
"2135";8
"2136";7
"2137";8
"2138";8
"2139";8
"2140";7
"2141";8
"2142";8
"2143";7
"2144";8
"2145";8
"2146";8
"2147";8
"2148";8
"2149";8
"2150";7
"2151";8
"2152";8
"2153";6
"2154";8
"2155";8
"2156";8
"2157";6
"2158";6
"2159";6
"2160";6
"2161";8
"2162";8
"2163";8
"2164";8
"2165";8
"2166";6
"2167";8
"2168";8
"2169";6
"2170";6
"2171";8
"2172";8
"2173";8
"2174";8
"2175";6
"2176";8
"2177";6
"2178";6
"2179";6
"2180";8
"2181";6
"2182";6
"2183";8
"2184";8
"2185";8
"2186";8
"2187";8
"2188";0
"2189";8
"2190";8
"2191";6
"2192";8
"2193";8
"2194";6
"2195";7
"2196";8
"2197";8
"2198";8
"2199";8
"2200";8
"2201";8
"2202";6
"2203";7
"2204";8
"2205";8
"2206";8
"2207";8
"2208";8
"2209";8
"2210";6
"2211";2
"2212";6
"2213";6
"2214";6
"2215";3
"2216";8
"2217";8
"2218";6
"2219";8
"2220";6
"2221";6
"2222";6
"2223";8
"2224";6
"2225";6
"2226";8
"2227";6
"2228";8
"2229";7
"2230";8
"2231";8
"2232";8
"2233";6
"2234";8
"2235";8
"2236";8
"2237";8
"2238";8
"2239";8
"2240";6
"2241";8
"2242";8
"2243";8
"2244";8
"2245";8
"2246";8
"2247";6
"2248";8
"2249";8
"2250";8
"2251";8
"2252";8
"2253";6
"2254";6
"2255";6
"2256";8
"2257";8
"2258";8
"2259";8
"2260";8
"2261";6
"2262";6
"2263";6
"2264";6
"2265";6
"2266";6
"2267";6
"2268";8
"2269";8
"2270";8
"2271";8
"2272";8
"2273";8
"2274";8
"2275";8
"2276";7
"2277";7
"2278";6
"2279";6
"2280";8
"2281";8
"2282";8
"2283";6
"2284";8
"2285";6
"2286";8
"2287";6
"2288";0
"2289";8
"2290";2
"2291";8
"2292";8
"2293";8
"2294";6
"2295";6
"2296";8
"2297";6
"2298";8
"2299";8
"2300";8
"2301";8
"2302";8
"2303";8
"2304";6
"2305";8
"2306";8
"2307";8
"2308";8
"2309";8
"2310";8
"2311";8
"2312";8
"2313";8
"2314";7
"2315";8
"2316";8
"2317";8
"2318";7
"2319";8
"2320";8
"2321";8
"2322";8
"2323";8
"2324";8
"2325";8
"2326";6
"2327";8
"2328";8
"2329";8
"2330";8
"2331";8
"2332";8
"2333";8
"2334";8
"2335";6
"2336";6
"2337";8
"2338";8
"2339";8
"2340";8
"2341";6
"2342";8
"2343";8
"2344";8
"2345";8
"2346";8
"2347";8
"2348";8
"2349";8
"2350";8
"2351";8
"2352";8
"2353";8
"2354";8
"2355";8
"2356";2
"2357";8
"2358";7
"2359";8
"2360";8
"2361";8
"2362";8
"2363";8
"2364";8
"2365";8
"2366";8
"2367";8
"2368";8
"2369";8
"2370";8
"2371";8
"2372";8
"2373";8
"2374";8
"2375";7
"2376";3
"2377";7
"2378";8
"2379";8
"2380";8
"2381";8
"2382";8
"2383";8
"2384";8
"2385";8
"2386";8
"2387";8
"2388";8
"2389";8
"2390";8
"2391";4
"2392";4
"2393";8
"2394";7
"2395";7
"2396";7
"2397";6
"2398";7
"2399";8
"2400";8
"2401";8
"2402";8
"2403";8
"2404";7
"2405";8
"2406";8
"2407";8
"2408";6
"2409";8
"2410";8
"2411";8
"2412";6
"2413";6
"2414";6
"2415";6
"2416";6
"2417";6
"2418";6
"2419";8
"2420";8
"2421";6
"2422";6
"2423";6
"2424";6
"2425";6
"2426";6
"2427";6
"2428";8
"2429";0
"2430";8
"2431";8
"2432";8
"2433";8
"2434";8
"2435";6
"2436";8
"2437";8
"2438";8
"2439";8
"2440";8
"2441";6
"2442";6
"2443";6
"2444";8
"2445";8
"2446";6
"2447";8
"2448";8
"2449";6
"2450";8
"2451";8
"2452";8
"2453";8
"2454";7
"2455";8
"2456";6
"2457";6
"2458";8
"2459";8
"2460";7
"2461";8
"2462";8
"2463";8
"2464";8
"2465";6
"2466";8
"2467";8
"2468";0
"2469";8
"2470";7
"2471";8
"2472";6
"2473";0
"2474";8
"2475";0
"2476";8
"2477";6
"2478";8
"2479";6
"2480";8
"2481";8
"2482";8
"2483";6
"2484";6
"2485";8
"2486";7
"2487";6
"2488";6
"2489";6
"2490";6
"2491";8
"2492";8
"2493";6
"2494";8
"2495";8
"2496";8
"2497";6
"2498";8
"2499";6
"2500";8
"2501";8
"2502";7
"2503";5
"2504";8
"2505";8
"2506";8
"2507";6
"2508";8
"2509";6
"2510";6
"2511";8
"2512";6
"2513";6
"2514";8
"2515";8
"2516";8
"2517";8
"2518";8
"2519";6
"2520";8
"2521";6
"2522";6
"2523";2
"2524";8
"2525";7
"2526";2
"2527";8
"2528";2
"2529";2
"2530";0
"2531";2
"2532";2
"2533";0
"2534";8
"2535";8
"2536";6
"2537";6
"2538";7
"2539";8
"2540";6
"2541";6
"2542";6
"2543";8
"2544";8
"2545";8
"2546";8
"2547";8
"2548";8
"2549";6
"2550";6
"2551";0
"2552";6
"2553";8
"2554";8
"2555";8
"2556";6
"2557";8
"2558";8
"2559";8
"2560";8
"2561";8
"2562";8
"2563";8
"2564";8
"2565";8
"2566";8
"2567";8
"2568";8
"2569";8
"2570";8
"2571";6
"2572";6
"2573";7
"2574";8
"2575";8
"2576";2
"2577";8
"2578";6
"2579";8
"2580";6
"2581";8
"2582";8
"2583";6
"2584";6
"2585";8
"2586";6
"2587";8
"2588";8
"2589";8
"2590";6
"2591";8
"2592";6
"2593";8
"2594";8
"2595";8
"2596";8
"2597";8
"2598";6
"2599";8
"2600";6
"2601";6
"2602";6
"2603";2
"2604";6
"2605";6
"2606";2
"2607";8
"2608";8
"2609";6
"2610";6
"2611";8
"2612";7
"2613";8
"2614";8
"2615";8
"2616";8
"2617";6
"2618";6
"2619";8
"2620";8
"2621";8
"2622";6
"2623";8
"2624";8
"2625";8
"2626";8
"2627";8
"2628";8
"2629";8
"2630";8
"2631";8
"2632";8
"2633";8
"2634";8
"2635";8
"2636";8
"2637";8
"2638";8
"2639";8
"2640";8
"2641";8
"2642";8
"2643";8
"2644";8
"2645";8
"2646";6
"2647";8
"2648";8
"2649";8
"2650";8
"2651";8
"2652";8
"2653";2
"2654";7
"2655";7
"2656";7
"2657";8
"2658";7
"2659";7
"2660";7
"2661";8
"2662";6
"2663";6
"2664";0
"2665";6
"2666";8
"2667";2
"2668";6
"2669";7
"2670";7
"2671";7
"2672";7
"2673";7
"2674";2
"2675";8
"2676";2
"2677";7
"2678";0
"2679";7
"2680";8
"2681";6
"2682";6
"2683";8
"2684";8
"2685";8
"2686";8
"2687";2
"2688";2
"2689";8
"2690";8
"2691";8
"2692";8
"2693";8
"2694";8
"2695";8
"2696";8
"2697";8
"2698";8
"2699";8
"2700";8
"2701";8
"2702";7
"2703";8
"2704";7
"2705";6
"2706";7
"2707";7
"2708";7
"2709";7
"2710";8
"2711";7
"2712";7
"2713";7
"2714";7
"2715";7
"2716";8
"2717";6
"2718";7
"2719";7
"2720";7
"2721";7
"2722";6
"2723";6
"2724";8
"2725";7
"2726";8
"2727";8
"2728";8
"2729";1
"2730";8
"2731";8
"2732";8
"2733";7
"2734";6
"2735";6
"2736";8
"2737";8
"2738";8
"2739";8
"2740";8
"2741";8
"2742";8
"2743";2
"2744";8
"2745";8
"2746";8
"2747";8
"2748";8
"2749";8
"2750";8
"2751";8
"2752";8
"2753";8
"2754";0
"2755";6
"2756";8
"2757";8
"2758";6
"2759";8
"2760";8
"2761";7
"2762";8
"2763";8
"2764";8
"2765";8
"2766";8
"2767";8
"2768";8
"2769";6
"2770";8
"2771";0
"2772";8
"2773";8
"2774";8
"2775";8
"2776";8
"2777";8
"2778";8
"2779";8
"2780";8
"2781";8
"2782";8
"2783";8
"2784";8
"2785";4
"2786";6
"2787";6
"2788";8
"2789";6
"2790";8
"2791";8
"2792";8
"2793";8
"2794";8
"2795";6
"2796";8
"2797";8
"2798";8
"2799";8
"2800";8
"2801";8
"2802";8
"2803";8
"2804";8
"2805";2
"2806";7
"2807";8
"2808";6
"2809";8
"2810";8
"2811";6
"2812";6
"2813";6
"2814";8
"2815";8
"2816";8
"2817";8
"2818";8
"2819";8
"2820";7
"2821";6
"2822";2
"2823";3
"2824";0
"2825";7
"2826";7
"2827";8
"2828";8
"2829";8
"2830";8
"2831";8
"2832";6
"2833";6
"2834";8
"2835";8
"2836";8
"2837";8
"2838";8
"2839";7
"2840";8
"2841";8
"2842";8
"2843";8
"2844";6
"2845";8
"2846";8
"2847";8
"2848";8
"2849";2
"2850";8
"2851";8
"2852";8
"2853";0
"2854";8
"2855";6
"2856";0
"2857";6
"2858";6
"2859";8
"2860";8
"2861";7
"2862";8
"2863";8
"2864";6
"2865";8
"2866";8
"2867";8
"2868";8
"2869";8
"2870";6
"2871";6
"2872";0
"2873";6
"2874";8
"2875";8
"2876";8
"2877";8
"2878";8
"2879";8
"2880";6
"2881";8
"2882";8
"2883";8
"2884";7
"2885";6
"2886";2
"2887";8
"2888";7
"2889";8
"2890";6
"2891";7
"2892";7
"2893";8
"2894";8
"2895";8
"2896";8
"2897";8
"2898";3
"2899";8
"2900";0
"2901";8
"2902";7
"2903";2
"2904";7
"2905";7
"2906";8
"2907";8
"2908";8
"2909";7
"2910";6
"2911";8
"2912";8
"2913";8
"2914";8
"2915";8
"2916";8
"2917";8
"2918";8
"2919";3
"2920";7
"2921";6
"2922";7
"2923";8
"2924";8
"2925";8
"2926";8
"2927";8
"2928";8
"2929";8
"2930";8
"2931";8
"2932";6
"2933";6
"2934";6
"2935";8
"2936";6
"2937";8
"2938";8
"2939";6
"2940";8
"2941";6
"2942";8
"2943";8
"2944";6
"2945";6
"2946";6
"2947";6
"2948";8
"2949";6
"2950";6
"2951";6
"2952";6
"2953";6
"2954";8
"2955";8
"2956";6
"2957";6
"2958";7
"2959";6
"2960";0
"2961";6
"2962";6
"2963";6
"2964";8
"2965";6
"2966";6
"2967";6
"2968";6
"2969";8
"2970";8
"2971";6
"2972";8
