decir;847;ver
jesús;651;nom
os;486;nr
tiempo;398;nom
ver;359;ver
dar;351;ver
padre;349;nom
hijo;346;nom
discípulo;315;nom
hacer;312;ver
dios;310;nom
hombre;281;nom
ir;276;ver
señor;240;nom
venir;208;ver
cielo;188;nom
uno;185;nom
poner;183;ver
más;182;adv
gente;165;nom
casa;164;nom
reino;147;nom
día;146;nom
llegar;145;ver
querer;143;ver
echar;142;ver
mucho;140;adj
quedar;133;ver
saber;129;ver
hermano;129;nom
llamar;123;ver
mundo;122;nom
hablar;121;ver
vida;119;nom
juan;117;nom
palabra;116;nom
mismo;115;adj
dos;113;nom
comer;112;ver
dejar;111;ver
acercar;111;ver
seguir;108;ver
oír;108;ver
salir;107;ver
tierra;106;nom
entrar;106;ver
así;106;adv
enviar;104;ver
nadie;101;nom
mujer;101;nom
preguntar;100;ver
volver;99;ver
mano;99;nom
encontrar;99;ver
profeta;98;nom
pueblo;97;nom
llevar;97;ver
espíritu;97;nom
pan;93;nom
ya;89;adv
mandar;88;ver
primero;87;adj
camino;86;nom
asegurar;84;ver
grande;83;adj
vuestro;82;nr
madre;82;nom
recibir;78;ver
nombre;77;nom
ojo;76;nom
niño;75;nom
allí;75;adv
pasar;74;ver
conocer;74;ver
bueno;74;adj
jerusalén;73;nom
pie;72;nom
fariseos;71;nr
crear|creer;69;ver
pedro;67;nom
caer;64;ver
maestro;63;nom
ahora;63;adv
pedir;61;ver
mirar;59;ver
judío;59;nom
escuchar;58;ver
escribir;57;ver
levantar;56;ver
entregar;56;ver
cumplir;56;ver
vez;55;nom
tomar;55;ver
muerto;54;adj
enseñar;53;ver
cómo;53;adv
subir;52;ver
simón;52;nr
morir;51;ver
mis;51;nr
templo;49;nom
tanto;49;adj
solo;49;adj
parecer;49;ver
hecho;49;nom
demonio;49;nom
curar;49;ver
beber;49;ver
agua;49;nom
santo;48;adj
galilea;48;nr
perder;47;ver
pensar;47;ver
oído;47;nom
luz;47;nom
letrado;47;nom
creer;47;ver
aquí;47;adv
testimonio;46;nom
pagar;45;ver
moisés;45;nr
maría;45;nom
barca;45;nom
rey;44;nom
fruto;44;nom
después;44;adv
ciego;44;adj
sacerdote;43;nom
obra;43;nom
corazón;43;nom
ciudad;43;nom
andar;43;ver
vino;42;nom
matar;42;ver
hora;42;nom
tus;41;nr
sábado;41;nom
sentar;41;ver
sembrar;41;ver
pecado;41;nom
marchar;41;ver
dónde;41;adv
vivir;40;ver
tres;40;adj
gloria;40;nom
bajar;40;ver
amigo;40;nom
amar;40;ver
enfermo;39;adj
oveja;38;nom
medio;38;nom
israel;38;nom
fe;38;nom
doce;38;adj
amo;38;nom
verdad;37;nom
tocar;36;ver
mesías;36;nr
criar;36;ver
último;35;adj
vuestra;35;nr
ley;35;nom
lago;35;nom
eterno;35;adj
cosa;35;nom
coger;35;ver
vuestros;34;nr
resucitar;34;ver
perdonar;34;ver
nuevo;34;adj
malo;34;adj
junto;34;adj
herodes;34;nr
empezar;34;ver
cerca;34;adv
buscar;34;ver
voz;33;nom
signo;33;nom
paz;33;nom
acabar;33;ver
sólo;32;adv
suceder;32;ver
servir;32;ver
quitar;32;ver
noche;32;nom
gracia;32;nom
entender;32;ver
conmigo;32;nr
cinco;32;adj
alegría;32;nom
ángeles;31;nom
sinagoga;31;nr
siempre;31;adv
presentar;31;ver
piedra;31;nom
david;31;nom
abrir;31;ver
justo;30;adj
josé;30;nom
guardar;30;ver
elías;30;nr
dichosos;30;nr
cabeza;30;nom
sacar;29;ver
pecador;29;nom
nacer;29;ver
miedo;29;nom
gritar;29;ver
delante;29;adv
año;29;nom
abrahán;29;nr
siete;28;adj
salvar;28;ver
poco;28;adv
orilla;28;nom
carne;28;nom
cambio;28;nom
ay;28;nr
vengar|venir;27;ver
sumos;27;nr
monte;27;nom
campo;27;nom
aparecer;27;ver
aldea;27;nom
ése;26;nr
pez;26;nom
meter;26;ver
id;26;nom
hambre;26;nom
rico;25;adj
pobre;25;adj
mandamiento;25;nom
erar|ser;25;ver
traer;24;ver
sepulcro;24;nom
santiago;24;nom
momento;24;nom
cama;24;nom
anunciar;24;ver
alto;24;adj
parábola;23;nr
judea;23;nr
generación;23;nom
vivo;22;adj
viento;22;nom
todavía;22;adv
sitio;22;nom
sano;22;adj
preparar;22;ver
mesa;22;nom
manto;22;nom
felipe;22;nom
escritura;22;nom
entero;22;adj
enemigo;22;nom
dinero;22;nom
derecha;22;nom
autoridad;22;nom
viuda|viudo;21;nom
valer;21;ver
juzgar;21;ver
fuego;21;nom
enterar;21;ver
desierto;21;nom
convertir;21;ver
casar;21;ver
acudir;21;ver
sangre;20;nom
reunir;20;ver
red;20;nom
puerta;20;nom
parábolas;20;nr
muerte;20;nom
merecer;20;ver
esconder;20;ver
emplear;20;ver
cuerpo;20;nom
cuenta;20;nom
crecer;20;ver
correr;20;ver
viña;19;nom
satanás;19;nr
saber|ser;19;ver
pregunta;19;nom
parte;19;nom
montaña;19;nom
labrador;19;adj
jacob;19;nr
cárcel;19;nom
criado;19;nom
contar;19;ver
único;18;adj
vista;18;nom
pequeño;18;adj
orar;18;ver
nazaret;18;nr
luego;18;adv
llenar;18;ver
jefe;18;nom
hipócrita;18;adj
embargo;18;nom
despedir;18;ver
compañero;18;nom
bautista;18;nr
banquete;18;nom
tuyo;17;nr
permitir;17;ver
pastor;17;nom
modo;17;nom
menos;17;adv
lleno;17;adj
fuerza;17;nom
fiesta;17;nom
evangelio;17;nom
engendró;17;nr
dueño;17;nom
condenar;17;ver
causa;17;nom
bautizar;17;ver
ama;17;nom
significar;16;ver
sed;16;nom
recoger;16;ver
noticiar;16;ver
milagro;16;nom
ir|ver|vetar;16;ver
hoy;16;adv
haz;16;nom
divorciar;16;ver
detrás;16;adv
cien;16;nr
apenas;16;adv
adulterio;16;nom
voluntad;15;nom
tampoco;15;adv
pascua;15;nom
partir;15;ver
nunca;15;adv
mil;15;adv
mies;15;nr
lázaro;15;nr
lavar;15;ver
judas;15;nr
isaías;15;nr
isabel;15;nom
importante;15;adj
imponer;15;ver
cuándo;15;adv
comprar;15;ver
cizaña;15;nr
cafarnaún;15;nr
atar;15;ver
alma;15;nom
ahí;15;adv
acoger;15;ver
árbol;14;nom
tratar;14;ver
sol;14;nom
sinagogas;14;nr
sentar|sentir;14;ver
sentado;14;adj
semilla;14;nom
segundo;14;adj
resurrección;14;nom
país;14;nom
negar;14;ver
necesitar;14;ver
lugar;14;nom
lejos;14;adv
lado;14;nom
higuera;14;nom
esposo;14;nom
esperar;14;ver
digno;14;adj
diente;14;nom
dichoso;14;adj
cubrir;14;ver
compasión;14;nom
apóstol;14;nom
ángel;13;nom
vientre;13;nom
vestido;13;nom
verdadero;13;adv
vendar|vender;13;ver
tercero;13;adj
talento;13;nom
suelo;13;nom
siervo;13;nr
secreto;13;nom
sandalia;13;nom
pariente;13;nom
paralítico;13;nr
nube;13;nom
novio;13;nom
ningún;13;adj
multitud;13;nom
mar;13;nom
mal;13;adj
limpio;13;adj
leer;13;ver
grano;13;nom
glorificado;13;nr
gentío;13;nr
crear;13;ver
comparación;13;nom
caso;13;nom
boca;13;nom
bastar;13;ver
amor;13;nom
acompañar;13;ver
acerca;13;adv
zarzas;12;nr
tradición;12;nom
tirar;12;ver
tiniebla;12;nom
terminar;12;ver
tarde;12;adv
sidón;12;nr
sabiduría;12;nom
publicanos;12;nr
propio;12;adj
pronunciar;12;ver
podar|poder;12;ver
padecer;12;ver
ofrendar;12;ver
mañana;12;nom
llorar;12;ver
leproso;12;nr
ladrón;12;nom
justicia;12;nom
inmediatamente;12;adv
esclavo;12;nom
enfermedad;12;nom
culto;12;adj
cuidado;12;adj
contestar;12;ver
comprender;12;ver
comarca;12;nom
caminar;12;ver
borde;12;nom
aparte;12;adv
andrés;12;nom
adonde;12;adv
acordar;12;ver
zebedeo;11;nr
zacarías;11;nr
vender;11;ver
vecino;11;adj
trigo;11;nom
tomás;11;nom
sueño;11;nom
serpiente;11;nom
revelar;11;ver
retirar;11;ver
reconocer;11;ver
raíz;11;nom
pájaro;11;nom
prójimo;11;nr
plaza;11;nom
ofrecer;11;ver
obrero;11;nom
misericordia;11;nr
medida;11;nom
marta;11;nom
lástima;11;nom
jurar;11;ver
juez;11;nom
joven;11;adj
jordán;11;nr
jonás;11;nr
izquierda;11;nom
grupo;11;nom
fiel;11;adj
fariseo;11;nr
falta;11;nom
explicar;11;ver
entréis;11;nr
discutir;11;ver
diablo;11;nom
dedo;11;nom
debajo;11;adv
cuatro;11;adj
cruz;11;nom
creed;11;nr
convidados;11;nr
cerrado;11;adj
arrancar;11;ver
aceptar;11;ver
viejo;10;adj
tiro;10;nom
tesoro;10;nom
seis;10;adj
salomón;10;nr
responder;10;ver
repartir;10;ver
región;10;nom
recorrer;10;ver
prueba;10;nom
principio;10;nom
principal;10;adj
parar;10;ver
paloma;10;nom
odres;10;nr
nación;10;nom
mando;10;nom
lámpara;10;nom
llanto;10;nom
libro;10;nom
juicio;10;nom
isaac;10;nr
ir|ser;10;ver
intentar;10;ver
igual;10;adj
guerra;10;nom
ganar;10;ver
final;10;nom
extender;10;ver
expulsar;10;ver
dormir;10;ver
comida;10;nom
boda;10;nom
betania;10;nr
bendito;10;adj
atravesar;10;ver
antiguo;10;adj
altar;10;nom
abismo;10;nom
abierto;10;adv
viga;9;nom
trono;9;nom
testigo;9;nom
terreno;9;nom
temer;9;ver
tan;9;adv
sentir;9;ver
saltar;9;ver
sal;9;nom
rechinar;9;nr
pronto;9;adv
proclamar;9;ver
nueve;9;adj
mota;9;nom
inmundo;9;nr
grito;9;nom
fuerte;9;adj
frente;9;nom
familia;9;nom
encargar;9;ver
elegir;9;ver
disponer;9;ver
costado;9;nom
cosecha;9;nom
construir;9;ver
ciento;9;adj
cerdo;9;nom
cara;9;nom
borrico;9;nr
bendecir;9;ver
bautismo;9;nom
ahogar;9;ver
abundante;9;adj
vela;8;nom
usar;8;ver
túnica;8;nr
trabajar;8;ver
servidor;8;nom
salar;8;ver
sabed;8;nr
razón;8;nom
rama;8;nom
pescador;8;nom
pedregoso;8;nr
ocurrir;8;ver
ocasión;8;nom
nicodemo;8;nr
montar;8;ver
mes;8;nom
lícito;8;adj
llevadero;8;nr
limosna;8;nom
lengua;8;nom
jesucristo;8;nr
iscariote;8;nr
invitar;8;ver
inmundos;8;nr
injusto;8;adj
impuro;8;nr
honrar;8;ver
honra;8;nom
herodías;8;nr
fijo;8;adj
fiar;8;ver
falso;8;adj
escriba;8;nom
enterrar;8;ver
endemoniado;8;adj
dirigir;8;ver
desatar;8;ver
dar|distar;8;ver
copa;8;nom
contigo;8;nr
cometer;8;ver
comenzar;8;ver
celestial;8;adj
capaz;8;adj
brazo;8;nom
belzebú;8;nr
asustar;8;ver
anciano;8;nom
alimento;8;nom
aguardar;8;ver
administrador;8;nom
además;8;adv
acción;8;nom
vuestras;7;nr
viaje;7;nom
suegro;7;nom
soldado;7;nom
siguiente;7;adj
siega;7;nr
señal;7;nom
separar;7;ver
senador;7;nom
sembrador;7;nr
saludar;7;ver
rodear;7;ver
proponer;7;ver
producir;7;ver
proceder;7;ver
permanecer;7;ver
perfume;7;nom
pegar;7;ver
oro;7;nom
orden;7;nom
oprimir;7;ver
natanael;7;nr
mudo;7;adj
moneda;7;nom
mirada;7;nom
menudo;7;adj
lobo;7;nom
llamada;7;nom
libertad;7;nom
jamás;7;adv
infierno;7;nom
increpó;7;nr
guardia;7;nom
fin;7;nom
fiebre;7;nom
exponer;7;ver
estrella;7;nom
estado;7;nom
encuentro;7;nom
empujar;7;ver
elevar;7;ver
egipto;7;nom
echarán;7;nr
denarios;7;nr
darás;7;nr
culpar;7;ver
cuarto;7;nom
criatura;7;nom
creedme;7;nr
creación;7;nom
cordero;7;nom
contrario;7;nom
conceder;7;ver
comunicar;7;ver
coma;7;nom
colmar;7;ver
claro;7;adj
cena;7;nom
cargar;7;ver
buey;7;nom
blanco;7;adj
ayunar;7;nr
atrever;7;ver
asombrar;7;ver
amará;7;nr
amanecer;7;ver
alforja;7;nom
alegrar;7;ver
agarrar;7;ver
adelante;7;adv
acusar;7;ver
aceite;7;nom
acaso;7;adv
visitar;6;ver
vid;6;nom
vi;6;nr
vaso;6;nom
unir;6;ver
triste;6;adj
trabajo;6;nom
territorio;6;nom
subsistir;6;ver
sorprender;6;ver
soler;6;ver
sodoma;6;nr
sobras;6;nr
simeón;6;nr
semana;6;nom
samaría;6;nr
salar|salir;6;ver
río;6;nom
romper;6;ver
rogar;6;ver
robar;6;ver
resultar;6;ver
replicar;6;ver
referir;6;ver
recompensa;6;nom
rabí;6;nr
puesto;6;nom
proclamad;6;nr
potestad;6;nom
pidáis;6;nr
pescado;6;nom
perro;6;nom
pasear;6;ver
oráculo;6;nr
oración;6;nom
onza;6;nom
olivo;6;nom
ocho;6;nr
necio;6;nom
nacimiento;6;nom
médico;6;nom
muéstranos;6;nr
mostaza;6;nom
manera;6;nom
maligno;6;adj
mago;6;nom
magdalena;6;nom
lluvia;6;nom
levantándose;6;nr
largo;6;adj
labio;6;nom
judá;6;nr
insistir;6;ver
impidáis;6;nr
hundir;6;ver
hueso;6;nom
habitar;6;ver
guardará;6;nr
gratis;6;adv
gorrión;6;nom
gobernador;6;nom
gentiles;6;nr
fácil;6;adj
fijar;6;ver
fama;6;nom
faltar;6;ver
exigir;6;ver
espiga;6;nom
embarcar;6;ver
ejecutar;6;ver
deuda|deudo;6;nom
desnudo;6;adj
des;6;nr
derramar;6;ver
derecho;6;nom
dañar;6;ver
césar;6;nr
cáliz;6;nr
curando;6;nr
cumplirse;6;ver
cristo;6;nr
costumbre;6;nom
contento;6;adj
consuelo;6;nom
consagrar;6;ver
comparecer;6;ver
comensal;6;nom
clase;6;nom
civil;6;adj
calle;6;nom
betsaida;6;nr
bendición;6;nom
bandido;6;nom
bandeja;6;nom
babilonia;6;nr
aún;6;adv
avisar;6;ver
apagar;6;ver
alegre;6;adj
adelantar;6;ver
acuerdo;6;nom
abandonar;6;ver
abajo;6;adv
vosotras;5;nr
volviéndose;5;nr
virrey;5;nr
vestir;5;ver
vacío;5;adj
uséis;5;nr
tuyos;5;nr
tribunal;5;nom
tardar;5;ver
surgir;5;ver
sufrir;5;ver
sordo;5;nom
someter;5;ver
seña;5;nom
sencillo;5;adj
semejante;5;adj
secó;5;nr
salvador;5;adj
salvación;5;nom
saludo;5;nom
saciados;5;nr
rostro;5;nom
rogad;5;nr
rogaban;5;nr
rogaba;5;nr
roca;5;nom
riqueza;5;nom
resucite;5;nr
resucitaré;5;nr
resto;5;nom
repudio;5;nom
regañaban;5;nr
recibo;5;nom
rechazar;5;ver
recaudadores;5;nr
realizar;5;ver
quedarás;5;nr
purificación;5;nom
punto;5;nom
príncipe;5;nom
práctica;5;nom
propósito;5;nom
profundo;5;adj
probar;5;ver
presente;5;adj
presencia;5;nom
prender;5;ver
predilecto;5;nr
predicar;5;ver
precepto;5;nom
postraron;5;nr
pondrás;5;nr
polvo;5;nom
poderoso;5;adj
pleno;5;adj
plenitud;5;nom
pleito;5;nom
plantar;5;ver
piara;5;nr
perezca;5;nr
perdón;5;nom
paso;5;nom
par;5;nom
paganos;5;nr
once;5;adj
ofender;5;ver
ocupar;5;ver
notar;5;ver
necesidad;5;nom
nazareno;5;nr
muchedumbre;5;nom
muchacho;5;nom
motivo;5;nom
mellizo;5;nr
mateo;5;nr
matarás;5;nr
marido;5;nom
manifestar;5;ver
malvados;5;nr
madrugada;5;nom
lisiado;5;nom
libre;5;adj
levadura;5;nr
jornalero;5;nom
interior;5;nom
insultar;5;ver
instrucción;5;nom
indignar;5;ver
importar;5;ver
impedir;5;ver
humilde;5;adj
huir;5;ver
hortaliza;5;nom
horno;5;nom
higo;5;nom
habitante;5;nom
gustar;5;ver
glorificará;5;nr
furioso;5;adj
forastero;5;nr
favor;5;nom
fantasma;5;nom
existir;5;ver
estéril;5;adj
espada;5;nom
escoger;5;ver
escandalizar;5;ver
envío;5;nom
enseñanza;5;nom
enrollar;5;ver
encender;5;ver
enaltece;5;nr
edificó;5;nr
dolencia;5;nom
devolver;5;ver
destruir;5;ver
despreciar;5;nr
despoblado;5;nr
desembarcar;5;ver
desechar;5;ver
descubrir;5;ver
descendencia;5;nom
descansar;5;ver
denario;5;nr
decidir;5;ver
daño;5;nom
cuidar;5;ver
cuello;5;nom
correa;5;nom
convidó;5;nr
condena;5;nom
cometerás;5;nr
cesto;5;nom
celebrar;5;ver
carga;5;nom
caná;5;nr
camello;5;nom
cambista;5;nom
cadáver;5;nom
cabello;5;nom
boquete;5;nr
belén;5;nr
azotea;5;nom
ayunan;5;nr
ayudar;5;ver
asunto;5;nom
arca;5;nom
angustia;5;nom
améis;5;nr
amáis;5;nr
alejar;5;ver
alcanzar;5;ver
agarrándolo;5;nr
acta;5;nom
abías;5;nr
ésa;4;nr
ánimo;4;nom
zorobabel;4;nr
zebedeos;4;nr
yugo;4;nom
válido;4;adj
tropezar;4;ver
tristeza;4;nom
tribu;4;nom
trabajador;4;nom
torpe;4;adj
tiranizan;4;nr
tienda;4;nom
tiberíades;4;nr
ternero;4;nom
tentación;4;nom
tema;4;nom
sácatelo;4;nr
sur;4;nom
suponed;4;nr
sumo;4;nom
soplaron;4;nr
soplar;4;ver
soltar;4;ver
sobrar;4;ver
sirvieran;4;nr
sirio;4;adj
simiente;4;nr
siervos;4;nr
servicio;4;nom
sensato;4;adj
seno;4;nom
seguro;4;adj
segadores;4;nr
santuario;4;nom
salmón;4;nom
salatiel;4;nr
salario;4;nom
saduceos;4;nr
sadoc;4;nr
sabio;4;nom
rodilla;4;nom
roboam;4;nr
robo;4;nom
rezar;4;ver
respuesta;4;nom
rescatar;4;ver
recordar;4;ver
real;4;adj
quemar;4;ver
prohibir;4;ver
procesar;4;ver
practicar;4;ver
postró;4;nr
poseer;4;ver
plata;4;nom
pilato;4;nr
pieza;4;nom
perseguirán;4;nr
perseguir;4;ver
persecución;4;nom
perfecto;4;adj
pelo;4;nom
pedid;4;nr
pedazo;4;nom
pecho;4;nom
partidario;4;nom
paciencia;4;nom
ozías;4;nr
oscuro;4;adj
orientar;4;ver
ordenar;4;ver
ola;4;nom
odiarán;4;nr
odiar;4;ver
obligar;4;ver
obed;4;nr
nuera;4;nom
noé;4;nr
necesario;4;adj
naasón;4;nr
mostrar;4;ver
mitad;4;nom
miembro;4;nom
mente;4;nom
medianoche;4;nom
matán;4;nr
maná;4;nom
manasés;4;nr
llegada;4;nom
llave;4;nom
juzguéis;4;nr
juntar;4;ver
josías;4;nr
josafat;4;nr
joram;4;nr
joatán;4;nr
jesé;4;nr
jericó;4;nr
jeremías;4;nr
jeconías;4;nr
israelita;4;nom
intención;4;nom
indignaron;4;nr
increparlo;4;nr
incienso;4;nom
impuras;4;nr
imposible;4;adj
humillar;4;ver
humilla;4;nr
hoyo;4;nom
honor;4;nom
hierba;4;nom
herencia;4;nom
hacerse;4;ver
guía;4;nom
futuro;4;adj
formar;4;ver
filipo;4;nr
farés;4;nr
ezequías;4;nr
establecer;4;ver
esrón;4;nr
escuchad;4;nr
entráis;4;nr
entraréis;4;nr
enfrente;4;adv
encendido;4;nom
enaltecido;4;nr
eliud;4;nr
eliaquín;4;nr
eleazar;4;nr
ejemplo;4;nom
duda;4;nom
dividir;4;ver
difícil;4;adj
dificultad;4;nom
destierro;4;nom
desposada;4;nr
despertar;4;ver
desearon;4;nr
desatarle;4;nr
deportación;4;nom
dejadlos;4;nr
darle;4;ver
dale;4;nr
córtatela;4;nr
corresponder;4;ver
conviden;4;nr
convertirse;4;ver
conversión;4;nom
conservar;4;ver
confiar;4;ver
confianza;4;nom
condenen;4;nr
concederlo;4;nr
comprended;4;nr
compasivo;4;adj
colocar;4;ver
cojos;4;nr
cobrar;4;ver
clavo;4;nom
centurión;4;nr
cavó;4;nr
cautivo;4;nom
castigo;4;nom
calma;4;nom
booz;4;nr
blasfemia;4;nom
bebida;4;nom
bautizará;4;nr
bautizando;4;nr
bastón;4;nom
barro;4;nom
añadir;4;ver
azote;4;nr
azor;4;nr
aun;4;adv
atónito;4;adj
atardecer;4;ver
asaf;4;nr
arte;4;nom
arrojándose;4;nr
arrodillar;4;ver
arrestar;4;ver
arrastrar;4;ver
arramblar;4;nr
arder;4;ver
aram;4;nr
aquim;4;nr
aprisa;4;adv
apodar;4;ver
apedrear;4;ver
apalearon;4;nr
anochecer;4;ver
anidar;4;ver
amós;4;nr
aminadab;4;nr
amad;4;nr
alzar;4;ver
aliento;4;nom
ajustar;4;ver
agobiar;4;ver
afán;4;nom
admiraban;4;nr
actuar;4;ver
acaz;4;nr
abolir;4;ver
abiud;4;nr
ázimos;3;nr
zorro;3;nom
zarza;3;nom
zaqueo;3;nr
zabulón;3;nr
vuelta;3;nom
volcar;3;ver
verse;3;ver
vendedor;3;nom
vencer;3;ver
velad;3;nr
varón;3;nom
valor;3;nom
untó;3;nr
tírate;3;nr
trozo;3;nom
tratad;3;nr
transfiguró;3;nr
tranquilo;3;adj
traed;3;nr
tomad;3;nr
tiemble;3;nr
terminante;3;adv
tentar;3;ver
temor;3;nom
temed;3;nr
techo;3;nom
talega;3;nr
sígueme;3;nr
sácate;3;nr
sudario;3;nr
sostener;3;ver
sombra;3;nom
sobrecogidos;3;nr
siquiera;3;adv
sincero;3;adj
siloé;3;nr
servirles;3;nr
servidumbre;3;nr
sentido;3;nom
sentarán;3;nr
sellar;3;ver
seducción;3;nr
sarmiento;3;nr
sarepta;3;nr
saque;3;nom
sanedrín;3;nr
samaritanos;3;nr
saliva;3;nom
salid;3;nr
saldrás;3;nr
sacudir;3;ver
sacrificio;3;nom
saciaron;3;nr
robarás;3;nr
rezad;3;nr
reverencias;3;nr
retener;3;ver
resuciten;3;nr
resucitad;3;nr
respetar;3;ver
resolución;3;nom
reservar;3;ver
repudiarla;3;nr
repleto;3;adj
repetir;3;ver
repente;3;nom
repasar;3;ver
reparo;3;nom
reparas;3;nr
renegar;3;ver
recobrarla;3;nr
recobrar;3;ver
realmente;3;adv
quedo;3;adj
quedaréis;3;nr
publicano;3;nr
prostituta;3;nom
prostitución;3;nom
propietario;3;nom
prometer;3;ver
profetizó;3;nr
procurar;3;ver
prisa;3;nom
preséntale;3;nr
prestar;3;ver
presentarte;3;nr
preocupar;3;ver
premio;3;nom
predicando;3;nr
predicación;3;nr
pozo;3;nom
portándose;3;nr
poneos;3;nr
pollino;3;nr
polilla;3;nr
piscina;3;nom
pierna;3;nom
pidas;3;nr
pesar;3;ver
perverso;3;adj
persona;3;nom
perla;3;nom
percibir;3;ver
pensamiento;3;nom
pena;3;nom
pecar;3;ver
pascual;3;nom
pasaje;3;nom
parálisis;3;nom
paráclito;3;nr
palacio;3;nom
oraba;3;nr
occidente;3;nom
obedecer;3;ver
nínive;3;nr
neftalí;3;nr
necias;3;nr
naamán;3;nr
mérito;3;adj
murmuraban;3;nr
mozo;3;nom
mostrador;3;nom
moriréis;3;nr
molino;3;nr
molestar;3;ver
mejilla;3;nom
mantener;3;ver
mancha;3;nom
malvar;3;ver
maldades;3;nr
majestad;3;nom
luna;3;nom
lot;3;nr
lloraréis;3;nr
llamad;3;nr
llama;3;nom
linaje;3;nom
limpiad;3;nr
liberación;3;nom
leví;3;nr
lepra;3;nom
lectura;3;nom
lancha;3;nom
lagar;3;nr
juzgo;3;nr
jurista;3;nom
juramento;3;nom
jornada;3;nom
intervenir;3;ver
insistencia;3;nom
injusticia;3;nom
indicar;3;ver
incorporar;3;ver
imponiéndoles;3;nr
horizonte;3;nom
hombro;3;nom
hipocresía;3;nr
heredero;3;nom
heredar;3;ver
harina;3;nom
granero;3;nom
gozo;3;nom
genesaret;3;nr
generoso;3;adj
gastar;3;ver
garantizar;3;ver
gana;3;nom
galileos;3;nr
fundación;3;nom
fortuna;3;nom
felicitadme;3;nr
faja;3;nom
extraño;3;adj
expresaban;3;nr
exigente;3;adj
exclamar;3;ver
estropear;3;ver
estrado;3;nom
espiar;3;ver
episodio;3;nom
envidia;3;nom
entrabar|entrar;3;ver
enterase;3;nr
entendimiento;3;nom
entended;3;nr
engaño;3;nom
encontréis;3;nr
encadenar;3;ver
eliseo;3;nr
ejército;3;nom
edificáis;3;nr
edificar;3;ver
edad;3;nom
duro;3;adj
durar;3;ver
dudar;3;ver
doncellas;3;nr
divulgar;3;ver
disperso;3;adj
discurso;3;nom
disciplina;3;nom
diríais;3;nr
diluvio;3;nom
deudor;3;adj
detesta;3;nr
detengáis;3;nr
despeñarlo;3;nr
designar;3;ver
deseáis;3;nr
deseo;3;nom
desenrollándolo;3;nr
desenfreno;3;nr
desear;3;ver
descarriadas;3;nr
desates;3;nr
derrumbar;3;ver
derrotará;3;nr
denunciarla;3;nr
defender;3;ver
dedicar;3;ver
danzó;3;nr
dadlo;3;nr
cásese;3;nr
cálculo;3;nom
cumplidor;3;nr
cumpleaños;3;nom
cosechan;3;nr
copo;3;nr
convertíos;3;nr
conversar;3;ver
contéis;3;nr
contestadle;3;nr
contemplar;3;ver
consternar;3;ver
consistir;3;ver
conocierais;3;nr
conoceríais;3;nr
conoceréis;3;nr
conmover;3;ver
confiará;3;nr
comprendéis;3;nr
claridad;3;nom
ciudadano;3;nom
circuncidar;3;nr
cintura;3;nom
cimiento;3;nom
ceñirá;3;nr
ceñida;3;nr
cesarea;3;nr
cerrar;3;ver
cepillo;3;nom
cenar;3;ver
cebado;3;nr
casi;3;adv
casarán;3;nr
capa;3;nom
cantar;3;ver
cansar;3;ver
candelero;3;nom
canasta;3;nom
callar;3;ver
cafarnaúm;3;nr
cadena;3;nom
buscáis;3;nr
brotó;3;nr
borracho;3;nom
blasfeme;3;nr
betfagé;3;nr
bendecía;3;nr
bebieron;3;nr
bebed;3;nr
bartolomé;3;nr
barranco;3;nom
azotarán;3;nr
ayunarán;3;nr
averiguad;3;nr
avanzar;3;ver
atrás;3;adv
asombro;3;nom
asomar;3;ver
asiento;3;nom
arrendará;3;nr
arrendar;3;ver
arquitecto;3;nom
arbusto;3;nom
aprobación;3;nom
aprender;3;ver
aprended;3;nr
apremió;3;nr
apariencia;3;nom
amasa;3;nr
amainó;3;nr
alzaba;3;nr
alumbrar;3;nr
allanad;3;nr
alianza;3;nom
alfeo;3;nr
aguja;3;nom
adversario;3;nom
admirar;3;ver
administración;3;nom
adelantaran;3;nr
abrasó;3;nr
ésas;2;nr
zara;2;nr
voto;2;nom
viñador;2;nr
viéndole;2;nr
visión;2;nom
visitasteis;2;nr
violar;2;ver
vil;2;adj
vicio;2;nom
vestisteis;2;nr
verterán;2;nr
verdugos;2;nr
verdear;2;nr
veraz;2;adj
veras;2;adv
veneno;2;nom
vendremos;2;nr
vendimiar;2;ver
vendimian;2;nr
urías;2;nr
ungió;2;nr
ungir;2;ver
tórtolas;2;nr
título;2;nom
tírala;2;nr
término;2;nom
tuvierais;2;nr
turno;2;nom
turbar;2;ver
tumba;2;nom
tullidos;2;nr
tuerto;2;adj
trueno;2;nom
tropiece;2;nr
tronos;2;nr
traédmelo;2;nr
travesía;2;nom
tratáis;2;nr
traspasará;2;nr
transjordania;2;nr
trajese;2;nr
traje;2;nom
traicionarán;2;nr
trabajad;2;nr
totalmente;2;adv
total;2;adj
torre;2;nom
torno;2;nom
toalla;2;nom
tinajas;2;nr
tilde;2;nom
terremoto;2;nom
terquedad;2;nr
tentarás;2;nr
tarea;2;nom
tambalearán;2;nr
tamar;2;nr
tablilla;2;nom
sírveme;2;nr
sálvate;2;nr
sustentar;2;ver
suponer;2;ver
suplicaba;2;nr
superar;2;ver
sugerirá;2;nr
sucumbe;2;nr
soso;2;adj
soportar;2;ver
solícito;2;nr
sobresaltó;2;nr
sobresaltar;2;ver
sobrenombre;2;nom
sobraron;2;nr
sobrado;2;nr
soberbios;2;nr
sirvientes;2;nr
siembro;2;nr
siego;2;nr
siegas;2;nr
severo;2;adj
servirme;2;nr
separarán;2;nr
sentencia;2;nom
sentaréis;2;nr
sentarte;2;nr
sensatamente;2;nr
senderos;2;nr
sembraste;2;nr
seguidme;2;nr
segador;2;nr
seco;2;adj
sayal;2;nr
satisfacer;2;ver
santificado;2;nr
salven;2;nr
salvaréis;2;nr
saludáis;2;nr
saludad;2;nr
salud;2;nom
saltad;2;nr
salisteis;2;nr
salir|saltar;2;ver
sala;2;nom
sacudíos;2;nr
sacudimos;2;nr
sacrificaba;2;nr
sació;2;nr
saciarse;2;nr
saciaros;2;nr
sacad;2;nr
rut;2;nr
ruinar;2;ver
ruido;2;nom
roto;2;adj
rogándole;2;nr
robusteciéndose;2;nr
reís;2;nr
revés;2;nom
revolución;2;nom
revivir;2;ver
reventar;2;ver
retorció;2;nr
retengáis;2;nr
restregando;2;nr
restablecer;2;ver
respeto;2;nom
resistir;2;ver
requerir;2;ver
repréndelo;2;nr
replicará;2;nr
repartí;2;nr
renovación;2;nom
remolcando;2;nr
remojar;2;nr
remiendo;2;nr
remecida;2;nr
reiréis;2;nr
reinos;2;nr
reina;2;nom
rehúyas;2;nr
regir;2;ver
refrán;2;nom
reflexionaban;2;nr
redada;2;nom
recéis;2;nr
recuperar;2;ver
reconciliarte;2;nr
recogisteis;2;nr
reclinar;2;nr
recitaréis;2;nr
recibiréis;2;nr
recibirlo;2;ver
rebosante;2;nr
rebosa;2;nr
rebelarán;2;nr
rebelar;2;ver
rebaño;2;nom
rayo;2;nom
rato;2;nom
rahab;2;nr
ración;2;nom
racimos;2;nr
quitadle;2;nr
quemarla;2;nr
quejar;2;ver
quebrar;2;ver
público;2;nr
pídeme;2;nr
pánico;2;nom
págales;2;nr
préstame;2;nr
prudente;2;adj
proscriban;2;nr
promesa;2;nom
profetizado;2;nr
profetisa;2;nr
profecía;2;nom
proezas;2;nr
primogénito;2;nom
prever;2;ver
pretextar;2;ver
presentarlo;2;ver
prescribía;2;nr
prepárame;2;nr
prepararos;2;nr
prenderlo;2;nr
premiar;2;ver
preguntándole;2;nr
preguntádselo;2;nr
pregonadlo;2;nr
preferir;2;ver
predicará;2;nr
predicaba;2;nr
potencia;2;nom
posible;2;adj
posesión;2;nom
posar;2;ver
porquerizos;2;nr
ponderaban;2;nr
podríais;2;nr
pobrecillos;2;nr
plántate;2;nr
plazo;2;nom
plato;2;nom
planear;2;ver
pisotear;2;nr
pisar;2;ver
piel;2;nom
pichones;2;nr
piadoso;2;adj
petición;2;nom
pesebre;2;nr
pesaroso;2;nr
perversamente;2;nr
personaje;2;nom
persigan;2;nr
persevere;2;nr
perseverancia;2;nom
permanezco;2;nr
permanecéis;2;nr
permaneceréis;2;nr
permaneced;2;nr
pereceréis;2;nr
perecerán;2;nr
perecerá;2;nr
perece;2;nr
perdónanos;2;nr
perdurar;2;ver
perdoné;2;nr
perdonándole;2;nr
perdonáis;2;nr
perdonamos;2;nr
perdición;2;nr
pequeñuelos;2;nr
pelear;2;ver
pediréis;2;nr
pecó;2;nr
paño;2;nom
participar;2;ver
pago;2;nom
padecerá;2;nr
oíd;2;nr
oréis;2;nr
orgullo;2;nom
olvidar;2;ver
olla;2;nom
oleaje;2;nom
oiréis;2;nr
oirán;2;nr
oigáis;2;nr
oh;2;nr
oficial;2;adj
odien;2;nr
odiado;2;nr
ocupas;2;nr
oculto;2;adj
obtener;2;ver
observar;2;ver
obrar;2;ver
oblación;2;nr
obedecería;2;nr
nombrar;2;ver
noble;2;adj
nido;2;nom
negro;2;adj
negaré;2;nr
métela;2;nr
muestra;2;nom
mudos;2;nr
mover;2;ver
mortal;2;adj
morera;2;nr
moradas;2;nr
morada;2;nom
moraba;2;nr
moliendo;2;nr
mojar;2;ver
miraréis;2;nr
milla;2;nom
migaja;2;nom
metro;2;nom
meta;2;nom
mercado;2;nom
mensajero;2;nom
mendigo;2;nr
mayordomo;2;nom
mausoleos;2;nr
mate;2;nom
mata;2;nom
manso;2;adj
mandato;2;nom
mancar;2;ver
manantial;2;nom
malogra;2;nr
maldito;2;adj
maldad;2;nom
magnate;2;nom
magistrado;2;nom
madriguera;2;nom
lágrima;2;nom
luto;2;nom
lujo;2;nom
losa;2;nom
lloráis;2;nr
llano;2;nom
llagar;2;ver
limpiáis;2;nr
limpiarme;2;nr
ligero;2;adj
libra;2;nom
levitas;2;nr
levantaré;2;nr
levantaos;2;nr
letra;2;nom
lejano;2;adj
legión;2;nom
lazo;2;nom
lavó;2;nr
lavé;2;nr
lavarme;2;nr
lavarles;2;nr
kilómetro;2;nom
juréis;2;nr
jures;2;nr
jurarás;2;nr
jarra;2;nom
ira;2;nr
inválido;2;nom
invitándote;2;nr
invites;2;nr
invitado;2;nom
introducirlo;2;nr
interés;2;nom
interpretar;2;ver
instante;2;nom
insoportable;2;adj
inscripción;2;nom
inscribir;2;ver
inmenso;2;adj
infecundo;2;nr
infame;2;adj
inducir;2;ver
incrédulo;2;nr
inconstante;2;nr
inclinar;2;ver
impulsar;2;ver
importunidad;2;nr
imbécil;2;adj
iglesia;2;nom
hágase;2;nr
humillación;2;nom
humano;2;adj
huevo;2;nom
huerta;2;nom
hozando;2;nr
hospedasteis;2;nr
homicidio;2;nom
holocaustos;2;nr
holgazán;2;nr
hoja;2;nom
heredará;2;nr
hebreo;2;adj
haréis;2;nr
hambriento;2;adj
hallaréis;2;nr
gusto;2;nom
gusano;2;nom
guiar;2;ver
guardáis;2;nr
griego;2;adj
granito|grano;2;nom
grandeza;2;nom
grabar;2;ver
glorifica;2;nr
gestión;2;nom
gerasenos;2;nr
general;2;adj
genealogía;2;nom
gavillas;2;nr
ganaos;2;nr
gallo;2;nom
gabriel;2;nom
fuente;2;nom
frunció;2;nr
frivolidad;2;nom
fresco;2;adj
fraude;2;nom
forzudo;2;adj
fornicaciones;2;nr
flujo;2;nom
flauta;2;nom
fiéis;2;nr
fino;2;adj
fiaba;2;nr
fermente;2;nr
felicitarán;2;nr
felicitar;2;ver
felicitaban;2;nr
fanuel;2;nr
fanega;2;nom
fallar;2;ver
exvotos;2;nr
extrañaron;2;nr
extrañaban;2;nr
extraviado;2;nr
extraordinario;2;adj
extranjero;2;nom
extenuadas;2;nr
expectación;2;nom
exhaló;2;nr
excluyan;2;nr
eunucos;2;nr
eternas;2;nr
estruendo;2;nom
estrecho;2;adj
estrangulaba;2;nr
estrago;2;nr
estimar;2;ver
estatura;2;nom
estancia;2;nom
estafarás;2;nr
espumarajos;2;nr
espinos;2;nr
esparcir;2;ver
espantos;2;nr
espantados;2;nr
escuchándolos;2;nr
escucharla;2;nr
escorpión;2;nom
escorpiones;2;nr
escogían;2;nr
escapar;2;ver
escalar;2;ver
epidemia;2;nom
enviaste;2;nr
entrégame;2;nr
entretanto;2;adv
entregándoos;2;nr
entrega;2;nom
entrada;2;nom
entierren;2;nr
entenderla;2;nr
enséñanos;2;nr
enseguida;2;adv
enorme;2;adv
enmendáis;2;nr
enjugó;2;nr
engañe;2;nr
enfadar;2;ver
enemistar;2;nr
encargándoles;2;nr
encantar;2;ver
encajasen;2;nr
empleo;2;nom
emmanuel;2;nr
embote;2;nr
embotado;2;nr
emborracharse;2;nr
echasen;2;nr
dártelos;2;nr
duelo;2;nom
dracmas;2;nr
don;2;nom
distaban;2;nr
difamación;2;nom
diezmo;2;nr
diciéndose;2;nr
devora;2;nr
destruid;2;nr
destinar;2;ver
despierto;2;adj
desparrama;2;nr
deslumbrador;2;nr
deseándola;2;nr
descuidar;2;ver
descolgaron;2;nr
descarriada;2;nr
descargar;2;ver
descanso;2;nom
descampado;2;nr
desatáis;2;nr
desairarla;2;nr
derrochaba;2;nr
derribar;2;ver
depender;2;ver
denuncia;2;nom
defensor;2;nom
defensa;2;nom
decápolis;2;nr
decidlo;2;nr
decapitó;2;nr
decapitar;2;nr
dar|decir;2;ver
cúrate;2;nr
córtatelo;2;nr
cólera;2;nom
cíñete;2;nr
cédele;2;nr
cántaro;2;nom
curaría;2;nr
curara;2;nr
curada;2;nr
cumplirás;2;nr
cueva;2;nom
cruzar;2;ver
criticar;2;ver
creísteis;2;nr
creyente;2;adj
costa;2;nom
cortijo;2;nom
cortar;2;ver
corruptores;2;nr
corro;2;nom
cordeles;2;nr
convocar;2;ver
convirtáis;2;nr
convidado;2;nr
conversación;2;nom
conversaban;2;nr
convenir;2;ver
convencer;2;ver
contárselo;2;nr
contratar;2;ver
contradecir;2;ver
contestáis;2;nr
contempláis;2;nr
constar;2;ver
conseguirlo;2;ver
conseguir;2;ver
conque;2;nr
confirmar;2;ver
confines;2;nr
confiaste;2;nr
conducta;2;nom
conducir;2;ver
condenéis;2;nr
condenándolo;2;nr
condenarán;2;nr
concédenos;2;nr
concebir;2;ver
comunidad;2;nom
compañía;2;nom
compararé;2;nr
compadecía;2;nr
comisteis;2;nr
comilón;2;nr
comerás;2;nr
comerciante;2;nom
cogerán;2;nr
codicias;2;nr
cleofás;2;nr
cimentar;2;ver
ceño;2;nr
cesárea;2;adj
cesta;2;nom
cepo;2;nom
ceniza;2;nom
cementerio;2;nom
celo;2;nom
celemín;2;nr
cebada;2;nom
caña;2;nom
cavar;2;ver
categoría;2;nom
case;2;nr
carpintero;2;nom
cariño;2;nom
cargo;2;nom
cargará;2;nr
cargad;2;nr
carcoma;2;nom
caravana;2;nom
candil;2;nr
calumnian;2;nr
callara;2;nr
calidad;2;nom
calderilla;2;nr
calcular;2;ver
caifás;2;nr
cabra;2;nom
caber;2;ver
cabellera;2;nom
cabales;2;nr
buscabais;2;nr
burro;2;nom
burlar;2;ver
burlaban;2;nr
brillarán;2;nr
brillar;2;ver
brasas;2;nr
botín;2;nom
boquetes;2;nr
bondad;2;nom
bolsa;2;nom
bochorno;2;nom
blasfema;2;nr
belleza;2;nom
beberéis;2;nr
beberás;2;nr
bautizo;2;nom
bautizas;2;nr
bautizaréis;2;nr
bautizaros;2;nr
bautizara;2;nr
bautice;2;nr
batanero;2;nr
barril;2;nom
bandera;2;nom
banco;2;nom
balance;2;nom
bajarás;2;nr
añejar;2;ver
ayunos;2;nr
ayunas;2;nr
ayunamos;2;nr
avergonzar;2;ver
ató;2;nr
atesora;2;nr
atadla;2;nr
astutos;2;nr
astucia;2;nom
astro;2;nom
aspecto;2;nom
aser;2;nr
asaltar;2;ver
asalariar;2;ver
arráncate;2;nr
arrojarán;2;nr
arrojar;2;ver
arresten;2;nr
arremeter;2;ver
arreglarte;2;nr
arreglar;2;ver
arrebatará;2;nr
arrebatarlas;2;nr
arrancarla;2;nr
arrancad;2;nr
armar;2;ver
arma;2;nom
arena;2;nom
apuro;2;nom
aprovechar;2;ver
aprendizaje;2;nom
apoyar;2;ver
apartado;2;nom
apartaba;2;nr
anunciaré;2;nr
anunciarlo;2;nr
ansiedad;2;nom
animar;2;ver
angustiar;2;ver
andéis;2;nr
ana;2;nom
amaré;2;nr
amarlo;2;nr
amarais;2;nr
alzarán;2;nr
alzará;2;nr
alzad;2;nr
alumbre;2;nr
alojamiento;2;nom
almacenar;2;ver
almacenadlo;2;nr
allá;2;adv
aliviaré;2;nr
alimentar;2;ver
alguacil;2;nom
alero;2;nom
alegraríais;2;nr
alegraos;2;nr
alboroto;2;nom
alababan;2;nr
alababa;2;nr
ajustarlas;2;nr
ajuar;2;nom
ajeno;2;adj
agujero;2;nom
agravia;2;nr
agradecer;2;ver
agolpaba;2;nr
agacharme;2;nr
afuera;2;adv
aferrándose;2;nr
aferraros;2;nr
adúltero;2;nr
adónde;2;nr
adulterios;2;nr
adorarás;2;nr
adorarlo;2;nr
admirados;2;nr
admirada;2;nr
adivinando;2;nr
ademán;2;nom
acumular;2;ver
actitud;2;nom
acostar;2;ver
acostados;2;nr
acompáñalo;2;nr
acobarde;2;nr
acláranos;2;nr
acecho;2;nom
acantilado;2;nom
absoluto;2;adj
abrazar;2;ver
abrazaba;2;nr
aborrecía;2;nr
aborrecerás;2;nr
aborrecerá;2;nr
aborrecen;2;nr
aborrece;2;nr
abofetea;2;nr
abalanzar;2;ver
ésto;1;nr
ésos;1;nr
época;1;nom
árbitro;1;nom
ábrenos;1;nr
ábrele;1;nr
á;1;nr
yuntas;1;nr
yema;1;nom
víctima;1;nom
vuélvete;1;nr
volveréis;1;nr
voceará;1;nr
viviréis;1;nr
vivid;1;nr
virgen;1;nom
violento;1;adj
violencia;1;nom
vinisteis;1;nr
vinagre;1;nom
vigilad;1;nr
viajáis;1;nr
vestirte;1;nr
vestidlo;1;nr
ver|vestir;1;ver
verificar;1;ver
verano;1;nom
veracidad;1;nom
venganza;1;nom
vendó;1;nr
vended;1;nr
velara;1;nr
vejez;1;nom
veinte;1;adj
vasija;1;nr
valéis;1;nr
valle;1;nom
vacio;1;adj
vacilar;1;ver
vacilante;1;nr
vacilaban;1;nr
uva;1;nom
untando;1;nr
untado;1;nr
ungüento;1;nr
ungían;1;nr
ungía;1;nr
ungiste;1;nr
túnicas;1;nr
túmbate;1;nr
tuya;1;nr
turbó;1;nr
tuerte;1;nr
tró;1;nr
trátame;1;nr
tráete;1;nr
tropa;1;nom
trompeta;1;nom
trincheras;1;nr
trescientos;1;nr
tremendo;1;adj
traédmelos;1;nr
tratamiento;1;nom
traspasar;1;ver
trasmitís;1;nr
transportar;1;ver
transmitir;1;ver
transitar;1;ver
traidor;1;nom
traicionar;1;ver
tragáis;1;nr
traficaban;1;nr
traedme;1;nr
traedlos;1;nr
traducir;1;ver
traconítide;1;nr
trabar;1;ver
torturar;1;ver
tormentos;1;nr
tormento;1;nom
torcer;1;ver
tomándolo;1;nr
tomarse;1;ver
tocándolos;1;nr
tirárselas;1;nr
tirarle;1;nr
tirarla;1;nr
timeo;1;nr
tieso;1;nr
tierno;1;adj
tiberio;1;nr
teófilo;1;nr
texto;1;nom
terrible;1;adj
terminaréis;1;nr
tercos;1;nr
tentáis;1;nr
tentador;1;nr
teniéndose;1;nr
tender;1;ver
temporal;1;adj
temblorosa;1;nr
temblarán;1;nr
teja;1;nom
tasa;1;nom
tardase;1;nr
tapa;1;nom
tantearlo;1;nr
tambalee;1;nr
tambalearla;1;nr
tallo;1;nom
talitha;1;nr
talegas;1;nr
tala;1;nom
tadeo;1;nr
sótano;1;nom
sólido;1;adv
sálvanos;1;nr
suéltame;1;nr
suyas;1;nr
suspiró;1;nr
suspiro;1;nom
suspenso;1;adj
susana;1;nom
surtidor;1;nr
suplicó;1;nr
suplicándole;1;nr
suplicio;1;nr
suma;1;nom
sujetarlo;1;nr
sujetar;1;ver
suicidar;1;ver
suficiente;1;adj
suelto;1;adj
sudores;1;nr
sudaron;1;nr
sudar;1;ver
sucumbir;1;ver
sucesor;1;adj
sorpresa;1;nom
sordomudos;1;nr
soportales;1;nr
sonar;1;ver
soltarla;1;nr
sollozó;1;nr
sollozando;1;nr
solitario;1;adj
solidez;1;nom
solemne;1;adj
socio;1;nom
sobrecogida;1;nr
sobrecoger;1;ver
sobrará;1;nr
sión;1;nr
situación;1;nom
sitiarán;1;nr
sitiar;1;ver
sirvamos;1;nr
sinceridad;1;nom
silvestre;1;adj
silencio;1;nom
sierra;1;nom
siegan;1;nr
sicar;1;nr
sia;1;nr
señalar;1;ver
sepultura;1;nom
sentándose;1;nr
sentaba;1;nr
sensatez;1;nom
sembrarlo;1;nr
sembrarla;1;nr
sembraban;1;nr
semblante;1;nr
seguirme;1;nr
seguidlo;1;nr
segar;1;nr
secándoselos;1;nr
sazonaréis;1;nr
satisfecho;1;adj
sarmientos;1;nr
santifícalos;1;nr
santidad;1;nr
sanado;1;nr
samaritano;1;nr
samaritana;1;nr
salín;1;nr
salvéis;1;nr
salvarlos;1;nr
salto;1;nom
saltamontes;1;nr
salmos;1;nr
salmo;1;nr
salarán;1;nr
sagaces;1;nr
sacándoos;1;nr
sacudid;1;nr
saciar;1;nr
sacerdocio;1;nom
rumor;1;nom
rudo;1;adj
ropaje;1;nr
romano;1;nom
rogaré;1;nr
rogaron;1;nr
roen;1;nr
roe;1;nr
rodearán;1;nr
roan;1;nr
ritual;1;adj
riguroso;1;adj
rezo;1;nom
rezara;1;nr
revolcaba;1;nr
revistáis;1;nr
revienta;1;nr
reventaba;1;nr
revelaré;1;nr
retires;1;nr
resuelto;1;adj
resucita;1;nr
restituiré;1;nr
resplandor;1;nom
resplandecía;1;nr
res;1;nom
reprobar;1;ver
reprende;1;nr
reponer;1;ver
repartíos;1;nr
repartidlo;1;nr
reparar;1;ver
renuncia;1;nom
renovar;1;ver
renegarán;1;nr
remueve;1;nr
remado;1;nr
remaban;1;nr
rema;1;nr
relámpago;1;nom
religioso;1;adj
relato;1;nom
reinará;1;nr
reinar;1;ver
reinado;1;nom
rehúsa;1;nr
regañar|regañir;1;ver
regarle;1;nr
regalo;1;nom
refresque;1;nr
redimir;1;ver
redil;1;nr
recriminar;1;nr
recostó;1;nr
recostarse;1;nr
recostara;1;nr
recortar;1;ver
reconociste;1;nr
recompensará;1;nr
recomendar;1;ver
recogéis;1;nr
recogeré;1;nr
recoged;1;nr
recobrará;1;nr
recobra;1;nr
reclamo;1;nom
reclames;1;nr
reclamas;1;nr
reclamar;1;ver
recibisteis;1;nr
rechina;1;nr
recaudador;1;nr
recado;1;nom
rebosáis;1;nr
rebosando;1;nr
rasgar;1;ver
raro;1;adj
raquel;1;nr
rapaz;1;nom
qumi;1;nr
quisisteis;1;nr
quinientos;1;nr
quince;1;adj
quebrarán;1;nr
quebrará;1;nr
quebraran;1;nr
púrpura;1;nr
públicamente;1;adv
pórtico;1;nr
pésame;1;nom
págame;1;nr
pábilo;1;nr
puro;1;adj
purificarse;1;nr
purificaciones;1;nr
punta;1;nom
puesta;1;nom
provocar;1;ver
proverbio;1;nr
protestar;1;ver
prosélito;1;nr
propiciar;1;ver
pronunciado;1;adj
proféticamente;1;nr
prodigios;1;nr
proclamarlo;1;nr
procedo;1;nr
privado;1;adj
primavera;1;nom
pretender;1;ver
presumís;1;nr
prestáis;1;nr
presto;1;adj
prestas;1;nr
prestamista;1;nr
prestad;1;nr
preparemos;1;nr
prepararte;1;nr
preparad;1;nr
preparación;1;nom
preocupación;1;nom
pregonará;1;nr
pregonaron;1;nr
predicadores;1;nr
predicad;1;nr
predecir;1;ver
precisaran;1;nr
precisamente;1;adv
potente;1;adj
postras;1;nr
postraban;1;nr
posponer;1;ver
poseídos;1;nr
posarse;1;nr
posadero;1;nr
posaba;1;nr
portero;1;nom
portar;1;ver
portal;1;nom
porgue;1;nr
porfiará;1;nr
popar;1;ver
ponérsela;1;nr
poniente;1;nom
ponerse;1;ver
ponerla;1;ver
ponedle;1;nr
ponderaciones;1;nr
poncio;1;nr
pollo;1;nom
podredumbre;1;nr
poderse;1;ver
podar;1;ver
población;1;nom
planta;1;nom
placeres;1;nr
pisotearán;1;nr
pisoteada;1;nr
piso;1;nom
pisarse;1;nr
pisaron;1;nr
piedad;1;nom
picar;1;ver
peso;1;nom
pescar;1;ver
persuadirlo;1;nr
personal;1;adv
persistir;1;ver
perseverando;1;nr
perplejo;1;adj
perjudicar;1;ver
perfúmate;1;nr
perecer;1;ver
perdáis;1;nr
perdonasen;1;nr
perdonarás;1;nr
perdidamente;1;nr
peor;1;adj
pendiente;1;nom
pegándome;1;nr
pedirías;1;nr
pañuelo;1;nom
patria;1;nom
patente;1;adj
pasto;1;nom
parva;1;nr
paraíso;1;nom
paralíticos;1;nr
palpadme;1;nr
palo;1;nom
paja;1;nom
pagádselo;1;nr
pagano;1;nr
pagana;1;nr
pagadle;1;nr
padeces;1;nr
otorgar;1;ver
oscuridad;1;nom
oscureció;1;nr
oscurecer;1;nr
oráculos;1;nr
ornamentáis;1;nr
orla;1;nr
originar;1;ver
orad;1;nr
opinar;1;ver
oler;1;ver
ofreciéndole;1;nr
oficiaba;1;nr
ofendes;1;nr
ocultar;1;ver
ocular;1;adj
obtendréis;1;nr
obstinación;1;nom
observantes;1;nr
obraron;1;nr
objeto;1;nom
número;1;nr
note;1;nr
nosotras;1;nr
norte;1;nom
nervioso;1;adj
negocio;1;nom
negociar;1;ver
negociad;1;nr
negligente;1;nr
naín;1;nr
naturalmente;1;adv
natural;1;adj
nardo;1;nr
música;1;nom
márchate;1;nr
mándanos;1;nr
multiplicaba;1;nr
muestres;1;nr
muecas;1;nr
movimiento;1;nom
mostrándole;1;nr
mostraré;1;nr
mosquito;1;nom
morir|murar;1;ver
montándolo;1;nr
molieron;1;nr
misericordiosos;1;nr
mirra;1;nr
mirarán;1;nr
minucia;1;nr
miel;1;nom
mezclar;1;ver
meteos;1;nr
menta;1;nom
mensajeros;1;nr
menguar;1;nr
mejoría;1;nom
mejorar;1;ver
meditándolas;1;nr
mediodía;1;nom
materno;1;nr
matarte;1;nr
matadlo;1;nr
masa;1;nom
marchase;1;nr
marcharos;1;nr
mantenéis;1;nr
manteneros;1;nr
manteneos;1;nr
mandándoles;1;nr
maltratar;1;ver
malhechores;1;nr
maldijiste;1;nr
maldiga;1;nr
maldicen;1;nr
magadán;1;nr
maduran;1;nr
líbrame;1;nr
lían;1;nr
lávate;1;nr
luminoso;1;adj
luchar;1;ver
losetas;1;nr
lograr;1;ver
lodo;1;nom
llover;1;ver
lloro;1;nom
lloras;1;nr
llevádselo;1;nr
llenarás;1;nr
llenarla;1;nr
llenad;1;nr
llamaréis;1;nr
litro;1;nom
lisanio;1;nr
lirio;1;nom
lino;1;nom
licor;1;nom
libremente;1;adv
liberador;1;nr
levita;1;nr
levantéis;1;nr
levante;1;nom
levantad;1;nr
letrina;1;nr
letrero;1;nr
lenguaje;1;nom
legítimo;1;adj
legumbre;1;nom
legua;1;nom
legado;1;nom
lección;1;nom
lavase;1;nr
lavarte;1;nr
lavaros;1;nr
latino;1;adj
lanzar;1;ver
lamerle;1;nr
lamento;1;nom
lamentaréis;1;nr
lamentación;1;nom
lamentaban;1;nr
justificarse;1;ver
justificar;1;ver
junta;1;nom
juana;1;nr
jornal;1;nom
jofaina;1;nr
jairo;1;nr
iturea;1;nr
inútil;1;nr
invierno;1;nom
invalidando;1;nr
invadir;1;ver
intendente;1;nom
insísteles;1;nr
instruyendo;1;nr
instigada;1;nr
inquieto;1;adj
injurian;1;nr
informar;1;ver
inevitable;1;adj
inesperadamente;1;adv
incurrir;1;ver
increpaba;1;nr
incredulidad;1;nr
inconstantes;1;nr
incluir;1;ver
inagotable;1;adj
inadvertido;1;adj
impulso;1;nom
impulsaba;1;nr
improperios;1;nr
impresionadas;1;nr
importe;1;nom
importasen;1;nr
importaban;1;nr
imaginar;1;ver
iluminar;1;ver
iguale;1;nr
igle;1;nr
idumea;1;nr
huracán;1;nom
hundían;1;nr
hundimos;1;nr
hundamos;1;nr
humedad;1;nom
huirán;1;nr
huid;1;nr
huerto;1;nom
hoz;1;nom
hospedar;1;ver
hospedamos;1;nr
hosanna;1;nr
hortelano;1;nr
honren;1;nr
honran;1;nr
hondo;1;adj
hoguera;1;nr
historia;1;nom
hiriéndose;1;nr
hilan;1;nr
hierbabuena;1;nr
hidropesía;1;nr
herodianos;1;nr
herida;1;nom
heredarán;1;nr
heredad;1;nr
hemorragia;1;nom
haríais;1;nr
haciéndose;1;ver
hacerlo;1;ver
hacerlas;1;ver
haceos;1;nr
hablándoos;1;nr
habitación;1;nom
habitaba;1;nr
haberse;1;ver
guárdalos;1;nr
guiará;1;nr
guiarlos;1;nr
guardaréis;1;nr
guardarán;1;nr
guardaos;1;nr
gritándole;1;nr
gritarán;1;nr
gritará;1;nr
grave;1;adj
graneros;1;nr
gozar;1;ver
gomorra;1;nr
golpear;1;ver
glorifícame;1;nr
glorifique;1;nr
glorificarlo;1;nr
glorificara;1;nr
glorificando;1;nr
germina;1;nr
gasto;1;nom
gallina;1;nom
galileo;1;nr
fíeles;1;nr
funcionario;1;nom
fulgor;1;nom
fulano;1;nom
frotándolas;1;nr
frasco;1;nom
franja;1;nom
franco;1;adv
fragancia;1;nom
forma;1;nom
flautistas;1;nr
flagrante;1;adj
finca;1;nom
finalmente;1;adv
filtráis;1;nr
filar;1;ver
filacterias;1;nr
figura;1;nom
fermenta;1;nr
fenicia;1;nr
fasto;1;nr
fastidiando;1;nr
farsantes;1;nr
fardos;1;nr
fanático;1;adj
faltos;1;nr
falda;1;nom
extremo;1;nom
extrañes;1;nr
extrañar;1;ver
extorsión;1;nom
extenderás;1;nr
exijáis;1;nr
exhortar;1;ver
exento;1;adj
excusaron;1;nr
excluir;1;ver
exclaméis;1;nr
excelente;1;adj
exactamente;1;adv
evitar;1;ver
estómago;1;nom
estupor;1;nom
estudiáis;1;nr
estudiar;1;ver
estrépito;1;nom
estrujar;1;nr
estiércol;1;nr
estirpe;1;nr
esquina;1;nom
espléndido;1;adv
esperáis;1;nr
esperanza;1;nom
espectacular;1;adv
especie;1;nom
esparzo;1;nr
esparces;1;nr
espanto;1;nom
espacioso;1;nr
espabilándose;1;nr
esforzaos;1;nr
escándalo;1;nom
escupirán;1;nr
escupir;1;ver
escuchadle;1;nr
escribírtelos;1;nr
escabulló;1;nr
escabullendo;1;nr
escabroso;1;adj
erguido;1;nr
equivocar;1;ver
epilepsia;1;nom
enón;1;nr
envolver;1;ver
enviasteis;1;nr
entusiasmar;1;ver
entristeció;1;nr
entrañable;1;adj
enteraba;1;nr
enseñándoos;1;nr
enseñándolos;1;nr
enseñándoles;1;nr
enseñadme;1;nr
ensanchan;1;nr
enronquecidas;1;nr
enloquecidas;1;nr
enjugado;1;nr
enjugaba;1;nr
enderezar;1;ver
enderece;1;nr
encrespando;1;nr
encorvada;1;nr
encomendaste;1;nr
encintar;1;ver
encargo;1;nom
encarecidamente;1;adv
encalados;1;nr
encajaran;1;nr
emprender;1;ver
emperador;1;nom
empecatado;1;nr
emigrar;1;ver
embustero;1;nr
embaucar;1;nr
embarcaba;1;nr
embajada;1;nom
emaús;1;nr
elévense;1;nr
efraín;1;nr
edificaba;1;nr
echéis;1;nr
echándoles;1;nr
echase;1;nr
echadlo;1;nr
dínoslo;1;nr
déjanos;1;nr
décimo;1;adj
dárselos;1;nr
dándoselos;1;nr
dádselo;1;nr
dádsela;1;nr
dureza;1;nom
dormíais;1;nr
dorar;1;ver
donativo;1;nom
domarlo;1;nr
doler;1;ver
doctrina;1;nom
do;1;nom
diván;1;nom
divorciaros;1;nr
división;1;nom
distinguir;1;ver
distante;1;adj
distancia;1;nom
distaba;1;nr
disputar;1;ver
disperséis;1;nr
dispersos;1;nr
disgusto;1;nom
disfrutar;1;ver
discípu;1;nr
discutíais;1;nr
discusión;1;nom
discordia;1;nom
diriges;1;nr
dijisteis;1;nr
dijesen;1;nr
dignado;1;nr
difícilmente;1;adv
difundir;1;ver
diesen;1;nr
devoráis;1;nr
devoran;1;nr
determinar;1;ver
detenerlo;1;ver
destruirnos;1;nr
destrucción;1;nom
destrozaros;1;nr
destrozaba;1;nr
despídelos;1;nr
despuntar;1;nr
despreciará;1;nr
despreciado;1;nr
despreciaban;1;nr
desplomándose;1;nr
despido;1;nom
despedirme;1;nr
despedirlos;1;nr
desobedientes;1;nr
desobedecer;1;ver
desnudaron;1;nr
desmayen;1;nr
desmayar;1;nr
desfiguran;1;nr
desearéis;1;nr
descuidáis;1;nr
descubrieran;1;nr
descreída;1;nr
desciendan;1;nr
descendiente;1;nom
descalabraron;1;nr
desatéis;1;nr
desatadlos;1;nr
desataban;1;nr
desaparecer;1;ver
desanimarse;1;nr
desagradecidos;1;nr
derrochó;1;nr
derribaré;1;nr
deprisa;1;adv
deliberar;1;ver
delantero;1;adj
dejándose;1;nr
degolladlos;1;nr
defraudar;1;ver
deducís;1;nr
dedicación;1;nom
declararé;1;nr
declarar;1;ver
decisión;1;nom
decidles;1;nr
decapité;1;nr
deber|debido;1;ver
dar|datar;1;ver
dalmanuta;1;nr
dadnos;1;nr
cómplice;1;nom
céntimo;1;nr
cátedra;1;nom
cuánta;1;nr
custodiar;1;ver
cusa;1;nr
curen;1;nr
curarlo;1;nr
curaban;1;nr
cumplís;1;nr
cumplid;1;nr
cumplamos;1;nr
culpable;1;adj
cuidadoso;1;adj
cuidadosamente;1;adv
cuero;1;nom
cubo;1;nom
crucifiquen;1;nr
crucificaron;1;nr
crucificar;1;ver
crucificados;1;nr
criticándolo;1;nr
crimen;1;nom
criaron;1;nr
creyerais;1;nr
creeríais;1;nr
creeréis;1;nr
creerán;1;nr
crecida;1;nom
creador;1;nom
costoso;1;adj
corozaín;1;nr
coronar;1;ver
convirtieran;1;nr
convidadlos;1;nr
convicto;1;adj
contestadme;1;nr
contentaos;1;nr
contemplen;1;nr
contemplad;1;nr
consumar;1;ver
construían;1;nr
construiré;1;nr
consolándola;1;nr
consolados;1;nr
considéralo;1;nr
considerable;1;adj
consentía;1;nr
conseguirse;1;ver
consagro;1;nr
consagren;1;nr
confiésalo;1;nr
confesar;1;ver
confesaban;1;nr
condición;1;nom
condenaríais;1;nr
condenaran;1;nr
condenación;1;nr
conciudadano;1;nom
concepción;1;nom
concedernos;1;nr
concedas;1;nr
concebirás;1;nr
comérselas;1;nr
comprometerlo;1;nr
comprometer;1;ver
comprobar;1;ver
comprendáis;1;nr
comprendierais;1;nr
compraremos;1;nr
componer;1;ver
completo;1;adj
completar;1;ver
completamente;1;adv
compartir;1;ver
compararemos;1;nr
comparar;1;ver
comino;1;nom
comenzaréis;1;nr
comentáis;1;nr
comentar;1;ver
colocándola;1;nr
colmad;1;nr
colina;1;nom
cogiéndolo;1;nr
cogerme;1;nr
cofres;1;nr
codicia;1;nom
cobrárselo;1;nr
cobijarse;1;nr
cobarde;1;adj
claramente;1;adv
ción;1;nr
cierre;1;nom
choza;1;nom
chaparrón;1;nom
ceñías;1;nr
ceñir;1;ver
cetáceo;1;nr
cesar;1;ver
certifica;1;nr
cerráis;1;nr
cercar;1;ver
cercanía;1;nom
cercano;1;adj
cenáculo;1;nr
centro;1;nom
celotes;1;nr
celebremos;1;nr
cefas;1;nr
cebadas;1;nr
caída;1;nom
cazarlo;1;nr
cavidad;1;nom
cavaré;1;nr
cate;1;nr
casualidad;1;nom
caserío;1;nom
cascada;1;nom
casaba;1;nr
carácter;1;nom
carnal;1;nr
cardo;1;nom
capcioso;1;adj
capataz;1;nr
capacidad;1;nom
canto;1;nom
cantidad;1;nom
cananeo;1;nr
cananea;1;nr
canalla;1;nr
campamento;1;nom
cambiar;1;ver
camarero;1;nom
calzar;1;ver
calumnien;1;nr
cafarnáún;1;nr
cado;1;nr
cabrito;1;nom
cabo;1;nom
cabizbajos;1;adj
cabida;1;nom
cabecera;1;nom
cabalgadura;1;nr
buscaréis;1;nr
burlen;1;nr
burlarán;1;nr
buitre;1;nom
bruces;1;nr
brote;1;nom
brotar;1;ver
brotan;1;nr
brillaban;1;nr
brillaba;1;nr
bregando;1;nr
bordo;1;nom
bordear;1;ver
boanerges;1;nr
bieldo;1;nr
betesda;1;nr
beso;1;nom
besarme;1;nr
besarlo;1;nr
benditos;1;nr
bendecid;1;nr
bebían;1;nr
bebidos;1;nr
beberá;1;nr
bañar;1;ver
bautizándolos;1;nr
bautizarse;1;nr
bautices;1;nr
batalla;1;nom
barullo;1;nom
bartimeo;1;nr
barrer;1;ver
barrar|barrer;1;ver
banqueteaba;1;nr
balde;1;nom
bajase;1;nr
bailáis;1;nr
baile;1;nom
bailado;1;nr
añadidura;1;nom
azufre;1;nom
azoten;1;nr
ayúdanos;1;nr
ayúdame;1;nr
ayunéis;1;nr
ayunes;1;nr
ayunen;1;nr
ayudante;1;nom
avisara;1;nr
avisadme;1;nr
averiguase;1;nr
averiguar;1;ver
averiguado;1;nr
avergüence;1;nr
avergonzará;1;nr
aventar;1;ver
auxiliar;1;ver
auténtico;1;adj
atéis;1;nr
atraeré;1;nr
atraer;1;ver
atracar;1;ver
atormentes;1;nr
atormentarnos;1;nr
atormentados;1;nr
atiéndela;1;nr
atestiguáis;1;nr
aterran;1;nr
atentaban;1;nr
atener;1;ver
atender;1;ver
atención;1;nom
ataúd;1;nr
atardeció;1;nr
atardece;1;nr
ataque;1;nom
atadlo;1;nr
atacar;1;ver
asistir;1;ver
asir|asistir;1;ver
asesino;1;nom
asesinato;1;nom
asesinar;1;ver
ascender;1;ver
asar;1;ver
arruina;1;nr
arrojasen;1;nr
arrojadlo;1;nr
arrogancia;1;nom
arrodillas;1;nr
arrepentisteis;1;nr
arrepentirán;1;nr
arrepentir;1;ver
arrebatárselo;1;nr
arrastre;1;nom
arrasarán;1;nr
arrancando;1;nr
arrancaban;1;nr
arquelao;1;nr
arado;1;nom
aquéllos;1;nr
apártate;1;nr
aprovechéis;1;nr
aprobáis;1;nr
aprisco;1;nr
apretujaba;1;nr
apretuja;1;nr
apretarán;1;nr
apoderar;1;ver
aplastar;1;ver
apiñaba;1;nr
apedreáis;1;nr
apedreas;1;nr
apedrearte;1;nr
apedreamos;1;nr
apartándolo;1;nr
apartar;1;ver
apartaos;1;nr
aparición;1;nom
aparejaron;1;nr
apagará;1;nr
anúnciales;1;nr
anís;1;nr
anás;1;nr
anzuelo;1;nr
anunciárselo;1;nr
anuláis;1;nr
antojo;1;nom
anillo;1;nom
angular;1;adj
angostar;1;ver
ancho;1;adj
amplio;1;adj
amontonéis;1;nr
amontonad;1;nr
amaríais;1;nr
amaría;1;nr
amaos;1;nr
amabas;1;nr
alégrate;1;nr
alzando;1;nr
aludir;1;ver
alrededores;1;adv
alojarme;1;nr
alojar;1;ver
almohada;1;nom
almacenaré;1;nr
almacenando;1;nr
alimentamos;1;nr
alimañas;1;nr
algarrobas;1;nr
alfombraron;1;nr
alfombraban;1;nr
alfombraba;1;nr
alejaban;1;nr
alegrarán;1;nr
alegrará;1;nr
alegrarte;1;nr
alegran;1;nr
alcuzas;1;nr
alborotar;1;ver
alarmáis;1;nr
alargan;1;nr
alabar;1;nr
alabanza;1;nom
alabando;1;nr
ala;1;nom
ajustarse;1;ver
ajustamos;1;nr
ahondar;1;ver
ahogando;1;nr
aguantar;1;ver
agradar;1;ver
agolpaban;1;nr
agobiéis;1;nr
agobiáis;1;nr
agobios;1;nr
agobio;1;nom
agobiarse;1;nr
agitar;1;ver
afrenta;1;nom
afirmación;1;nom
afianzaba;1;nr
aferran;1;nr
afecto;1;nom
afanan;1;nr
adúlteros;1;nr
adúlteras;1;nr
adúltera;1;nr
adquirir;1;ver
adorarán;1;nr
adoraron;1;nr
adorar;1;ver
adoramos;1;nr
admitirlo;1;nr
admitiese;1;nr
admiró;1;nr
admiración;1;nom
admirables;1;nr
adentros;1;nom
adentro;1;nr
acémila;1;nr
acá;1;adv
acusador;1;nom
actúo;1;nr
acosarlo;1;nr
acosaban;1;nr
acordaos;1;nr
acompañarte;1;nr
acompañante;1;nom
acomodándose;1;nr
acomodaron;1;nr
aclamado;1;nr
achaques;1;nr
acampó;1;nr
acabarla;1;nr
abundancia;1;nom
abrumáis;1;nr
abrevar;1;nr
aborrecían;1;nr
abochornados;1;nr
abilene;1;nr
abiatar;1;nr
abel;1;nr
abasto;1;nom
aarón;1;nr