"";"classe 1";"classe 2";"classe 3";"classe 4";"classe 5";"classe 6"
"decir";0;1;1;1;1;1
"jesús";0;1;1;1;1;1
"padre";1;0,491;0,5;1;0;1
"os";1;1;1;0,003;0;0,287
"ver";0,176;1;1;1;0,583;1
"dar";1;0,009;1;1;0;1
"dios";1;1;1;1;0;0,797
"discípulo";0;1;1;1;1;1
"mundo";1;0,559;0,004;1;0;0,074
"hijo";1;1;1;1;0;1
"hacer";1;1;0,007;1;0,001;1
"ir";1;1;1;0,797;0;0,721
"tiempo";0;1;1;1;1;1
"venir";1;1;1;1;0;1
"vida";1;0;0,03;1;0,071;1
"crear|creer";1;0,687;1;1;0;0,509
"enviar";1;1;1;0,565;0;1
"saber";1;1;1;1;0;1
"conocer";1;1;0,065;1;0;1
"señor";0,942;0,877;1;1;0,198;1
"judío";0;1;1;1;1;1
"pan";1;0;1;1;1;1
"hombre";1;0,357;0,496;1;0,008;1
"hablar";1;1;1;0,01;0;1
"palabra";1;1;0;1;0,311;1
"ya";1;1;1;1;0,004;1
"mismo";1;1;0,013;1;0,004;1
"llegar";0;1;1;0,005;1;1
"testimonio";1;1;1;1;0;1
"querer";0,037;1;1;1;1;1
"día";0,025;0,017;0,857;1;1;1
"verdad";1;1;0,546;1;0;1
"nadie";1;0,923;1;0,237;0;1
"ahora";1;1;1;0,237;0;1
"cielo";1;0;1;1;1;1
"asegurar";1;0,888;1;1;0;0,183
"uno";0,504;1;1;1;0,748;1
"obra";1;1;0;1;1;1
"más";0,451;1;1;1;0,617;1
"quedar";0,002;1;1;1;1;0
"luz";1;1;0;1;1;1
"creer";1;1;1;1;0,009;1
"preguntar";0;1;1;1;1;1
"pedro";0;1;1;1;1;1
"nombre";1;1;1;0,133;0;1
"llamar";0,011;1;1;1;1;1
"juan";0,011;1;0,114;1;1;1
"eterno";1;0,581;0,136;1;0,003;1
"echar";0;1;1;1;1;1
"comer";1;0;1;1;1;1
"así";1;1;1;1;0;1
"morir";1;0;1;1;0,982;1
"mano";0,461;0,181;1;1;1;1
"allí";0;1;1;1;1;1
"seguir";0,142;1;0;1;1;1
"salir";0,057;1;0,901;1;1;1
"oír";0,057;1;0,901;1;1;1
"cómo";1;0,499;1;1;0;1
"simón";0;1;0,849;1;1;1
"poner";0,334;1;1;1;0,962;1
"dónde";1;1;1;1;0,009;1
"agua";0,677;1;1;1;0,342;1
"oveja";1;1;0;1;1;1
"hora";1;1;1;1;0,024;1
"vuestro";1;1;1;0;0,061;0
"templo";0;1;1;1;1;1
"tanto";0,064;1;1;1;1;1
"siempre";1;0;1;1;1;1
"mis";1;1;0;1;1;1
"espíritu";1;0,217;1;1;0,001;1
"nacer";1;0,788;1;1;0,001;1
"llevar";0;1;1;1;1;1
"escribir";1;0,294;1;1;0,23;1
"encontrar";0;1;1;1;1;1
"casa";0,037;1;1;1;1;1
"carne";1;0;1;1;1;1
"voz";1;1;0;1;1;1
"vivir";1;0;1;1;1;1
"vez";0,001;1;1;1;1;1
"subir";0,119;1;1;1;1;1
"sepulcro";0;1;1;1;1;1
"ojo";0,005;1;1;1;1;1
"gente";0;1;1;1;1;1
"bajar";1;0;1;1;0,628;1
"amar";1;1;1;1;0,02;1
"signo";1;0,217;1;1;0,816;1
"recibir";1;1;0,383;1;0,195;1
"pie";0;1;1;1;1;1
"muerto";0;0,896;1;1;1;1
"maría";0;1;1;1;1;1
"hecho";1;0,896;1;1;0,214;1
"guardar";1;1;0;1;1;1
"volver";0,841;1;1;0,024;0,627;1
"profeta";1;1;1;1;0,002;1
"hermano";0;1;1;1;1;1
"galilea";0;1;1;1;1;1
"ciego";0,07;1;1;1;1;0,016
"ama";1;1;0;1;1;1
"ése";1;1;0,062;1;0,067;1
"tierra";1;1;1;1;0,172;1
"pasar";0,584;1;1;1;0,62;1
"mujer";0,127;1;1;1;1;1
"mesías";1;1;1;1;0,003;1
"medio";0,221;1;1;1;1;1
"junto";0,001;1;1;1;1;1
"jerusalén";0;1;1;1;1;1
"grande";1;1;1;1;0,449;1
"gloria";1;1;1;1;0,002;1
"fruto";1;1;1;1;0;1
"felipe";0,001;1;1;1;1;1
"escuchar";1;0,788;0;1;0,449;1
"entregar";1;1;1;1;0,195;1
"entrar";0,127;0,788;0,062;1;1;1
"camino";1;1;1;1;0,018;1
"alegría";1;1;1;0;1;1
"vino";1;1;0;1;1;1
"tomar";0,003;1;1;1;1;1
"saber|ser";1;0,005;1;1;0,03;1
"primero";0;1;1;1;1;1
"glorificado";1;1;1;1;0;1
"dejar";1;1;1;1;0,108;0,009
"aquí";1;1;1;1;0,087;1
"pecado";1;1;1;1;1;0
"moisés";1;1;1;1;0;1
"único";1;1;1;1;0;1
"vuestra";1;1;0,893;0;1;1
"vengar|venir";1;1;1;1;0,27;0,004
"todavía";0;1;1;1;1;1
"sitio";0,14;1;1;1;1;1
"poco";1;1;1;1;0,012;1
"pedir";1;1;1;0,006;0,27;1
"maestro";1;1;1;1;0;1
"levantar";0;1;1;1;1;1
"fiesta";0,001;1;1;1;1;1
"escritura";0,87;0,532;0,16;1;1;1
"amor";1;1;0,005;1;0,238;1
"acercar";0;1;1;1;1;1
"sangre";1;0;1;1;1;1
"madre";0,028;1;1;1;1;1
"lázaro";0;1;1;1;1;1
"juzgar";1;1;0,114;1;0,064;1
"fariseos";0;1;1;1;1;1
"dos";0,001;1;1;1;1;1
"desierto";1;0;1;1;0,854;1
"cuenta";1;1;1;1;0,001;1
"condenar";1;1;1;1;0,006;1
"bueno";1;1;0;1;1;1
"beber";1;0;1;1;1;1
"andar";0,001;1;1;1;1;1
"acerca";1;1;0;1;0,854;1
"abrahán";1;1;1;1;0,022;1
"traer";1;1;0,105;1;1;1
"solo";1;1;0,638;1;0,87;1
"sacerdote";0;1;1;1;1;1
"puerta";0,07;1;0,005;1;1;1
"pez";0;1;1;1;1;1
"orilla";0,001;1;1;1;1;1
"mandamiento";1;1;0;1;1;1
"lago";0;1;1;1;1;1
"enseñar";0,07;1;1;1;1;1
"costado";0,004;1;1;1;1;1
"amigo";1;1;0,005;1;1;1
"abierto";1;1;1;1;0,012;1
"último";1;0;0,638;1;1;1
"voluntad";1;1;1;1;0,009;1
"vivo";1;0;1;1;1;1
"tres";0,003;1;1;1;1;1
"tomás";0;1;1;1;1;1
"sólo";0,143;1;1;1;1;1
"sábado";0,008;1;1;1;1;1
"suelo";0,002;1;1;1;1;1
"sacar";1;1;0,075;1;1;1
"resucitar";0,003;0,385;1;1;1;1
"red";0;1;1;1;1;1
"pueblo";1;0,385;1;1;0,87;1
"podar|poder";1;1;1;1;0,003;1
"oído";1;1;1;1;0,003;1
"nuevo";0,121;1;1;1;1;1
"nicodemo";0;1;1;1;1;1
"mandar";1;1;1;1;0,113;1
"ley";1;1;1;1;0,003;1
"fe";0,769;1;1;1;0,594;1
"erar|ser";0,464;1;0,002;1;1;1
"entender";1;1;1;1;0,022;1
"enfermo";0;1;1;1;1;1
"dar|distar";1;1;0,075;1;0,113;1
"culto";1;1;1;1;0,009;1
"creed";1;1;0;1;1;1
"conmigo";1;1;1;1;0,003;1
"cambio";1;1;0;1;1;1
"barca";0;1;1;1;1;1
"acudir";0,028;1;1;1;1;1
"vendar|vender";0,004;1;1;1;1;1
"suceder";1;1;1;1;0,034;1
"propio";1;1;1;1;0,04;1
"permanecer";1;1;0;1;1;1
"pascua";0,002;1;1;1;1;1
"natanael";0,001;1;1;1;1;1
"muerte";1;1;1;1;0,04;1
"matar";0,769;1;0,044;1;1;1
"marta";0,001;1;1;1;1;1
"llenar";0,008;1;1;0;1;1
"lado";1;1;1;1;0,196;1
"judas";0,001;1;1;1;1;1
"gracia";1;1;1;1;0,336;1
"elevar";1;1;1;1;0,034;1
"crear";1;1;1;1;0,04;0
"cosa";0,063;1;1;1;1;1
"correr";0,004;1;1;1;1;1
"cerca";0,02;1;1;1;1;1
"aparecer";0,001;1;1;1;1;1
"adonde";1;1;1;0;0,196;1
"acordar";0,063;1;1;1;1;1
"vuestros";1;0;1;1;1;0
"vi";0,002;1;1;1;1;1
"tiniebla";1;1;0;1;1;1
"testigo";1;1;0,022;1;0,336;1
"sentar";0,002;1;1;1;1;1
"sed";1;1;1;1;0,009;1
"santo";1;1;1;1;0,009;1
"salvar";1;1;0,433;1;0,336;1
"rey";0,526;1;1;1;0,887;1
"rabí";1;1;1;1;0,009;1
"quitar";1;1;1;0;1;0
"pensar";1;1;1;1;0,075;1
"pastor";1;1;0;1;1;1
"nunca";1;1;1;1;0,009;1
"noche";0,139;1;0,433;1;1;1
"muéstranos";1;1;1;1;0,009;1
"modo";1;0,003;1;1;0,336;1
"higuera";0,002;1;1;1;1;1
"guardará";1;1;0;1;1;1
"detrás";1;0,23;1;1;0,887;1
"debajo";0,002;1;1;1;1;1
"cinco";0,02;1;1;1;1;1
"bautizar";0,298;1;1;1;1;1
"bajo";1;0;1;1;1;1
"año";0,002;1;1;1;1;1
"alimento";1;0,087;1;1;0,263;1
"ahí";1;1;1;1;0,497;1
"aceptar";1;1;0,022;1;0,336;1
"sumos";0,004;1;1;1;1;1
"servir";1;0;1;1;1;1
"seis";0,004;1;1;1;1;1
"saltar";1;1;0,322;1;0,14;1
"resucitaré";1;0;1;1;1;1
"reino";1;1;1;1;0,018;1
"pescado";1;1;1;1;0,14;1
"perezca";1;1;1;1;0,018;1
"paz";1;1;1;1;0,066;1
"paloma";0,049;0,155;1;1;1;1
"mirar";0,298;1;1;1;1;1
"mesa";0,049;1;1;1;1;1
"mellizo";0,004;1;1;1;1;1
"marchar";0,004;1;1;1;1;1
"llorar";0,01;1;1;1;1;1
"juicio";1;1;0,322;1;0,14;1
"judea";0,004;1;1;1;1;1
"israel";1;1;1;1;0,018;1
"gritar";1;1;0,322;1;0,563;1
"glorificará";1;1;1;1;0,066;1
"existir";1;1;1;1;0,018;1
"empezar";0,004;1;1;1;1;1
"embargo";1;1;0,322;1;0,14;1
"elegir";1;0,034;1;1;0,497;1
"doce";0,049;1;0,322;1;1;1
"después";0,004;1;1;1;1;1
"delante";1;1;0,322;1;0,563;1
"curar";0,298;1;1;1;1;1
"corazón";1;1;1;0;1;1
"convertir";1;1;1;0;1;1
"coma";1;0;1;1;1;1
"coger";0,004;1;1;1;1;1
"cerrado";0,004;1;1;1;1;1
"caná";0,004;1;1;1;1;1
"caminar";1;1;0;1;1;1
"cama";0,004;1;1;1;1;1
"caer";1;1;1;1;0,14;1
"cabeza";0,049;1;1;1;1;1
"buscar";0,049;1;1;1;1;1
"betania";0,004;1;1;1;1;1
"aún";0,908;1;1;1;0,563;1
"andrés";0,004;1;1;1;1;1
"acusar";1;1;0,002;1;1;1
"ángeles";1;1;1;1;0,263;1
"válido";1;1;1;1;0,034;1
"vista";0,01;1;1;1;1;1
"tristeza";1;1;1;0;1;1
"trabajo";1;1;1;1;0,034;1
"tiberíades";0,01;1;1;1;1;1
"tampoco";1;1;1;1;0,034;1
"significar";1;1;1;1;0,034;1
"semana";0,01;1;1;1;1;1
"sano";0,01;1;1;1;1;1
"resurrección";1;0;1;1;1;1
"realizar";1;1;0;1;1;1
"razón";1;1;1;1;0,263;0
"principio";1;1;1;1;0,034;1
"pobre";0,296;0,034;1;1;1;1
"piedra";0,01;1;1;1;1;1
"pidáis";1;1;1;1;0,034;1
"perfume";0,01;1;1;1;1;1
"perder";1;1;0;1;1;1
"pecador";1;1;1;1;0,034;1
"nazaret";1;1;0,002;1;0,908;1
"nación";1;1;1;1;0,263;1
"maná";1;0;1;1;1;1
"manifestar";1;1;1;1;0,263;1
"malo";1;1;0;1;1;1
"magdalena";0,01;1;1;1;1;1
"ladrón";1;1;0,002;1;1;1
"josé";1;1;1;1;0,263;1
"jordán";0,121;1;1;1;1;1
"jamás";0,605;1;1;1;0,908;1
"iscariote";0,01;1;1;1;1;1
"haz";1;0;0,209;1;1;1
"estado";0,01;1;1;1;1;1
"embarcar";0,01;1;1;1;1;1
"dichosos";1;1;1;1;0,034;1
"cumplir";1;1;0;1;1;1
"cuerpo";0,01;1;1;1;1;1
"cuatro";0,01;1;1;1;1;1
"comunicar";1;1;1;1;0,034;1
"comparación";1;1;1;1;0,034;1
"comida";1;0;1;1;1;1
"causa";1;1;0,209;1;0,908;1
"cambista";0,01;1;1;1;1;1
"cafarnaún";0,01;1;1;1;1;1
"buey";0,01;1;1;1;1;1
"bautizando";0,121;1;1;1;1;1
"bastar";1;0,087;1;1;0,263;1
"barro";0,01;1;1;1;1;1
"amo";1;1;1;1;0,034;1
"amará";1;1;0;1;1;1
"amanecer";0,01;1;1;1;1;1
"acabar";0,121;1;1;1;1;1
"abundante";1;1;1;1;0,263;1
"abrir";0,605;1;0,209;1;1;1
"viento";1;1;1;1;0,497;1
"viejo";0,296;1;1;1;1;1
"vid";1;1;1;1;0,066;1
"vender";0,025;1;1;1;1;1
"tiemble";1;1;1;0;1;1
"tercero";0,025;1;1;1;1;1
"tarde";0,296;1;1;1;1;1
"surgir";1;1;1;1;0,066;1
"sudario";0,025;1;1;1;1;1
"sorprender";1;1;1;1;0,497;1
"soplar";1;1;1;1;0,497;1
"siervo";1;1;1;1;0,066;1
"serpiente";1;1;1;1;0,066;1
"segundo";0,296;1;1;1;1;1
"sarmiento";1;1;1;1;0,497;1
"samaría";0,025;1;1;1;1;1
"samaritanos";0,296;1;1;1;1;1
"rogar";1;1;0,105;1;0,497;1
"retirar";0,025;1;1;1;1;1
"recordar";1;1;1;1;0,066;1
"recoger";0,025;1;1;1;1;1
"príncipe";1;1;1;1;0,066;1
"proceder";1;1;1;1;0,066;1
"presentar";0,025;1;1;1;1;1
"pregunta";0,296;1;1;0;1;1
"plenitud";1;1;1;0;1;1
"piscina";1;1;1;1;0,497;1
"pierna";0,025;1;1;1;1;1
"paráclito";1;1;1;1;0,066;1
"parte";1;1;0,105;1;1;1
"ocho";0,025;1;1;1;1;1
"necesitar";1;1;1;1;0,497;1
"monte";1;1;1;1;0,497;1
"miedo";0,296;1;1;1;1;1
"mal";1;0,034;0,105;1;1;1
"lugar";0,296;1;1;1;1;1
"linaje";1;1;1;1;0,066;1
"lavar";1;1;1;1;0,497;1
"juzgo";1;1;0,105;1;0,497;1
"jacob";0,296;1;1;1;1;1
"igual";1;1;0,105;1;1;1
"hambre";1;1;1;1;0,066;1
"habitar";1;0;1;1;1;1
"fariseo";0,296;1;1;1;1;1
"esclavo";1;1;1;1;0,497;0
"envío";1;1;1;1;0,066;1
"enterar";0,025;1;1;1;1;1
"derecha";0,025;1;1;1;1;1
"cuándo";1;1;1;1;0,066;1
"conocierais";1;1;1;1;0,066;1
"conoceríais";1;1;1;1;0,066;1
"condena";1;0,034;1;1;1;0
"conceder";1;1;0,105;1;0,497;1
"comprender";1;1;1;1;0,497;1
"cien";0,025;1;1;1;1;1
"celebrar";0,025;1;1;1;1;1
"buscáis";1;1;1;1;0,066;1
"asomar";0,025;1;1;1;1;1
"aprender";1;1;1;1;0,066;1
"apodar";0,025;1;1;1;1;1
"anunciar";0,296;1;1;1;1;1
"además";1;1;0,105;1;0,497;1
"adelantar";0,025;1;1;1;1;1
"acaso";1;1;1;1;0,497;1
"*zein_Juan14-7-14";1;1;0,266;1;0,052;1
"*zein_Juan5-1-3a5-16";0;1;1;1;1;1
"*egutegia_SemanaDeCua";0,01;1;1;1;0,415;0,273
"*zein_Juan8-31-42";1;1;1;1;0,006;0,021
"*zein_Juan16-5-11";1;1;1;0,002;0,61;0
"*egutegia_SemanaDePas";1;0,864;0;0;0;1
"*zein_Juan6-44-51";1;0;1;1;1;1
"*zein_Juan17-11b-19";1;1;0,16;1;0,145;1
"*zein_Juan15-18-21";1;1;0,539;1;0,196;1
"*zein_Juan20-24-29";0,139;1;1;1;1;1
"*zein_Juan3-16-18";1;1;1;1;0,14;1
"*zein_Juan21-15-19";1;1;0,211;1;1;1
"*zein_Juan1-19-28";0,769;1;1;1;0,594;1
"*zein_Juan16-29-33";1;1;1;1;0,022;1
"*egutegia_SemanaSanta";0,023;0,789;1;1;1;1
"*zein_Juan6-16-21";0,004;1;1;1;1;1
"*zein_Juan14-6-14";1;1;0,383;1;0,018;1
"*zein_Juan7-40-53";0,765;1;1;1;0,434;1
"*zein_Juan11-1-45";0,001;0,43;1;1;1;1
"*zein_Juan15-26-16-4a";1;1;1;1;0,04;1
"*egutegia_SemanaDelTi";0,42;0;1;1;1;1
"*zein_Juan1-35-42";0,018;1;1;1;1;1
"*zein_Juan6-30-35";1;0;1;1;1;1
"*zein_Juan6-35-40";1;0,385;1;1;0,113;1
"*zein_Juan12-44-50";1;1;0,005;1;0,238;1
"*zein_Juan6-1-15";0;0,375;1;1;1;1
"*zein_Juan3-5a7b-15";1;1;1;1;0,04;1
"*zein_Juan21-1-19";0;1;1;1;1;1
"*zein_Juan14-21-26";1;1;0,005;1;1;1
"*zein_Juan21-1-14";0;1;1;1;1;1
"*zein_Juan3-1-8";1;0,532;1;1;0,145;1
"*zein_Juan8-51-59";1;1;1;1;0,295;1
"*zein_Juan13-31-33a34-35";1;1;1;1;0,075;1
"*zein_Juan6-41-51";1;0;1;1;1;1
"*zein_Juan1-29-34";1;0,307;1;1;0,594;0
"*zein_Juan4-5-42";1;1;1;1;0,016;1
"*zein_Juan16-23b-28";1;1;1;0;0,196;1
"*zein_Juan4-43-54";0,299;0,896;1;1;1;1
"*zein_Juan6-22-29";0,87;1;1;1;0,412;1
"*zein_Juan20-11-18";0,015;1;1;1;1;1
"*zein_Juan5-31-47";1;1;0,624;1;0,002;1
"*zein_Juan14-1-6";1;1;0,638;1;0,113;1
"*zein_Juan19-25-27";0,049;1;1;1;1;1
"*zein_Juan15-1-8";1;1;0,893;1;0,087;1
"*zein_Juan3-31-36";1;1;1;1;0,006;1
"*zein_Juan6-51-58";1;0;1;1;1;1
"*zein_Juan3-16-21";1;1;0,002;1;0,87;1
"*zein_Juan10-27-30";1;0,087;0,209;1;0,908;1
"*zein_Juan3-13-17";1;1;1;1;0,14;1
"*zein_Juan16-20-23a";1;1;1;0;1;1
"*egutegia_SemanaDeNav";0,241;1;0,893;0,006;1;1
"*zein_Juan17-20-26";1;1;1;1;0,022;1
"*zein_Juan5-17-30";1;0,946;1;1;0,051;1
"*zein_Juan8-12-20";1;1;0,893;1;0,27;1
"*zein_Juan10-11-18";1;1;0;1;1;1
"*zein_Juan17-1-11a";1;1;1;1;0,006;1
"*zein_Juan1-45-51";0,464;1;0,638;1;1;1
"*zein_Juan1-6-819-28";1;1;0,73;1;0,61;1
"*zein_Juan7-1-21025-30";0,241;1;1;1;1;1
"*zein_Juan11-45-57";0,07;1;1;1;1;1
"*zein_Juan20-19-31";0,019;1;1;1;1;0,016
"*zein_Juan12-1-11";0,002;0,601;0,893;1;1;1
"*zein_Juan21-20-25";0,028;1;1;1;1;1
"*zein_Juan13-16-20";1;0,385;1;1;0,382;1
"*zein_Juan8-1-11";0,001;1;1;1;1;1
"*zein_Juan19-31-37";0,139;1;0,433;1;1;1
"*zein_Juan6-52-59";1;0;1;1;1;1
"*egutegia_FinDelTiemp";0,028;1;1;1;1;0
"*zein_Juan10-1-10";1;1;0;1;1;1
"*egutegia_OctavaDePas";0;1;1;1;1;1
"*zein_Juan1-1-18";1;1;0;1;0,061;1
"*zein_Juan1-43-51";0,072;1;0,893;1;1;1
"*egutegia_NavidadYOct";1;1;0,006;1;0,913;1
"*zein_Juan10-31-42";0,584;1;0,211;1;1;1
"*zein_Juan2-1-11";0,072;1;0,324;1;1;1
"*egutegia_TiempoDeNav";0,05;1;1;1;1;0,244
"*zein_Juan20-19-23";0,028;1;1;1;1;0
"*zein_Juan10-22-30";1;0,46;0,114;1;1;1
"*zein_Juan3-14-21";1;1;0,005;1;0,61;1
"*zein_Juan13-1-17";0,54;1;1;1;0,469;1
"*zein_Juan8-21-30";1;1;1;1;0,172;0
"*zein_Juan1-47-51";0,298;1;1;1;1;1
"*zein_Juan15-9-11";1;1;0,209;0;1;1
"*zein_Juan15-9-17";1;1;0,01;0,004;0,854;1
"*zein_Juan2-13-25";0,001;1;1;1;1;1
"*zein_Juan2-13-22";0;1;1;1;1;1
"*ebanjelaria_Juan";1;1;1;1;1;1
"*zein_Juan16-12-15";1;1;1;1;0,075;1
"*zein_Juan20-1-9";0;1;1;1;1;1
"*zein_Juan13-21-3336-38";0,54;0,294;1;1;1;1
"*zein_Juan12-20-33";1;1;0,368;1;0,945;1
"*zein_Juan3-22-30";0,241;1;0,893;0,006;1;1
"*zein_Juan14-15-21";1;1;0;1;1;1
"*zein_Juan6-24-35";1;0;1;1;0,449;1
"*zein_Juan16-16-20";1;1;1;0,002;0,238;1
"*zein_Juan14-27-31a";1;1;1;0,001;0,113;1
"*zein_Juan12-24-26";1;0,23;0,433;1;1;1
"*zein_Juan15-12-17";1;1;0,539;1;0,196;1
"*zein_Juan14-1-12";1;1;0,207;0,056;0,019;1
"*zein_Juan18-33-37";1;1;0,893;1;0,62;1
"*zein_Juan9-1-41";0,615;1;1;1;0,32;0,024
"*zein_Juan6-60-69";1;0,729;1;1;0,295;1
"*zein_Juan20-2-8";0;1;1;1;1;1
"*zein_Juan14-23-29";1;1;0,211;0,006;0,27;1
"*egutegia_SemanaDeAdv";1;1;0,73;1;0,61;1
