*zein_Juan14-7-14;1;0;2;0;9;0
*zein_Juan5-1-3a5-16;17;0;0;0;1;0
*egutegia_SemanaDeCua;162;9;18;0;185;5
*zein_Juan8-31-42;1;0;1;0;13;1
*zein_Juan16-5-11;1;0;0;1;5;2
*egutegia_SemanaDePas;107;25;55;10;242;3
*zein_Juan6-44-51;1;5;0;0;5;0
*zein_Juan17-11b-19;1;0;2;0;7;0
*zein_Juan15-18-21;1;0;1;0;5;0
*zein_Juan20-24-29;4;0;0;0;2;0
*zein_Juan3-16-18;1;0;0;0;4;0
*zein_Juan21-15-19;4;0;2;0;5;0
*zein_Juan1-19-28;3;0;0;0;4;0
*zein_Juan16-29-33;1;0;0;0;7;0
*egutegia_SemanaSanta;25;3;2;0;17;0
*zein_Juan6-16-21;5;0;0;0;0;0
*zein_Juan14-6-14;1;0;2;0;11;0
*zein_Juan7-40-53;5;0;0;0;7;0
*zein_Juan11-1-45;30;4;3;0;13;0
*zein_Juan15-26-16-4a;1;0;0;0;6;0
*egutegia_SemanaDelTi;51;24;6;0;44;0
*zein_Juan1-35-42;9;0;0;0;4;0
*zein_Juan6-30-35;1;4;0;0;2;0
*zein_Juan6-35-40;1;1;0;0;6;0
*zein_Juan12-44-50;0;0;3;0;6;0
*zein_Juan6-1-15;16;2;0;0;2;0
*zein_Juan3-5a7b-15;1;0;0;0;6;0
*zein_Juan21-1-19;16;0;0;0;2;0
*zein_Juan14-21-26;2;0;3;0;4;0
*zein_Juan21-1-14;16;0;0;0;2;0
*zein_Juan3-1-8;2;1;0;0;7;0
*zein_Juan8-51-59;4;0;1;0;8;0
*zein_Juan13-31-33a34-35;1;0;0;0;5;0
*zein_Juan6-41-51;2;6;0;0;6;0
*zein_Juan1-29-34;1;1;0;0;4;1
*zein_Juan4-5-42;13;2;0;0;28;0
*zein_Juan16-23b-28;1;0;0;1;5;0
*zein_Juan4-43-54;8;1;0;0;7;0
*zein_Juan6-22-29;4;0;0;0;6;0
*zein_Juan20-11-18;8;0;0;0;3;0
*zein_Juan5-31-47;1;0;2;0;15;0
*zein_Juan14-1-6;1;0;1;0;6;0
*zein_Juan19-25-27;4;0;0;0;1;0
*zein_Juan15-1-8;2;0;1;0;8;0
*zein_Juan3-31-36;1;0;0;0;9;0
*zein_Juan6-51-58;1;13;0;0;0;0
*zein_Juan3-16-21;1;0;3;0;4;0
*zein_Juan10-27-30;0;1;1;0;2;0
*zein_Juan3-13-17;1;0;0;0;4;0
*zein_Juan16-20-23a;1;0;0;2;2;0
*egutegia_SemanaDeNav;6;0;1;1;3;0
*zein_Juan17-20-26;1;0;0;0;7;0
*zein_Juan5-17-30;3;1;1;0;12;0
*zein_Juan8-12-20;3;0;1;0;7;0
*zein_Juan10-11-18;0;0;9;0;3;0
*zein_Juan17-1-11a;1;0;1;0;11;0
*zein_Juan1-45-51;4;0;1;0;3;0
*zein_Juan1-6-819-28;3;0;1;0;5;0
*zein_Juan7-1-21025-30;6;0;0;0;5;0
*zein_Juan11-45-57;9;0;0;0;6;0
*zein_Juan20-19-31;10;0;0;0;4;1
*zein_Juan12-1-11;9;1;1;0;0;0
*zein_Juan21-20-25;6;0;0;0;2;0
*zein_Juan13-16-20;2;1;0;0;5;0
*zein_Juan8-1-11;12;0;0;0;3;0
*zein_Juan19-31-37;4;0;1;0;1;0
*zein_Juan6-52-59;2;8;0;0;0;0
*egutegia_FinDelTiemp;6;0;0;0;1;1
*zein_Juan10-1-10;1;0;8;0;3;0
*egutegia_OctavaDePas;34;0;0;0;5;0
*zein_Juan1-1-18;0;0;6;0;13;0
*zein_Juan1-43-51;7;0;1;0;3;0
*egutegia_NavidadYOct;8;0;6;0;13;0
*zein_Juan10-31-42;5;0;2;0;4;0
*zein_Juan2-1-11;8;0;2;0;3;0
*egutegia_TiempoDeNav;20;1;1;0;15;1
*zein_Juan20-19-23;6;0;0;0;1;1
*zein_Juan10-22-30;2;1;2;0;4;0
*zein_Juan3-14-21;1;0;3;0;5;0
*zein_Juan13-1-17;8;0;0;0;10;0
*zein_Juan8-21-30;2;0;0;0;8;2
*zein_Juan1-47-51;3;0;0;0;2;0
*zein_Juan15-9-11;1;0;1;1;1;0
*zein_Juan15-9-17;1;0;3;1;5;0
*zein_Juan2-13-25;12;0;0;0;3;0
*zein_Juan2-13-22;11;0;0;0;2;0
*ebanjelaria_Juan;422;62;90;11;530;10
*zein_Juan16-12-15;1;0;0;0;5;0
*zein_Juan20-1-9;10;0;0;0;0;0
*zein_Juan13-21-3336-38;8;2;1;0;7;0
*zein_Juan12-20-33;8;1;3;0;11;0
*zein_Juan3-22-30;6;0;1;1;3;0
*zein_Juan14-15-21;1;0;4;0;4;0
*zein_Juan6-24-35;2;4;0;0;8;0
*zein_Juan16-16-20;2;0;0;1;6;0
*zein_Juan14-27-31a;1;0;0;1;6;0
*zein_Juan12-24-26;2;1;1;0;2;0
*zein_Juan15-12-17;1;0;1;0;5;0
*zein_Juan14-1-12;1;0;3;1;14;0
*zein_Juan18-33-37;4;0;1;0;6;0
*zein_Juan9-1-41;22;0;1;0;29;2
*zein_Juan6-60-69;4;1;0;0;8;0
*zein_Juan20-2-8;8;0;0;0;0;0
*zein_Juan14-23-29;1;0;2;1;7;0
*egutegia_SemanaDeAdv;3;0;1;0;5;0