"V1";"V2";"V3";"V4";"V5";"V6"
"***";"nb classes";"10";"***";"";""
"**";"classe";"1";"**";"";""
"****";"2";"2663";"0.08";"****";""
"*****";"*";"*";"*";"*";"*"
"*";"*";"*";"*";"*";"*"
"**";"classe";"2";"**";"";""
"****";"4";"2663";"0.15";"****";""
"0";"1149";"0";"-3.04";"ukan";"0.08122422"
"*****";"*";"*";"*";"*";"*"
"0";"1433";"0";"-4.667";"izan";"0.03074450"
"0";"1114";"0";"-2.881";"eta";"0.08962911"
"*";"*";"*";"*";"*";"*"
"**";"classe";"3";"**";"";""
"****";"5";"2663";"0.19";"****";""
"*****";"*";"*";"*";"*";"*"
"*";"*";"*";"*";"*";"*"
"**";"classe";"4";"**";"";""
"****";"3";"2663";"0.11";"****";""
"0";"1149";"0";"-2.279";"ukan";"0.1311095"
"*****";"*";"*";"*";"*";"*"
"*";"*";"*";"*";"*";"*"
"**";"classe";"5";"**";"";""
"****";"10";"2663";"0.38";"****";""
"1";"1149";"0.09";"-4.496";"ukan";"0.03397671"
"0";" 547";"0.00";"-2.595";"egin";"0.10721429"
"*****";"*";"*";"*";"*";"*"
"*";"*";"*";"*";"*";"*"
"**";"classe";"6";"**";"";""
"****";"21";"2663";"0.79";"****";""
"1";"547";"0.18";"-3.229";"egin";"0.07235174"
"0";"331";"0.00";"-3.004";"jain";"0.08303895"
"0";"318";"0.00";"-2.870";"kristo";"0.09022263"
"*****";"*";"*";"*";"*";"*"
"0";"244";"0";"-2.135";"gu";"0.1439641"
"*";"*";"*";"*";"*";"*"
"0";"635";"0";"-6.628";"*L_Erromatarrei";"0.01004043"
"0";"368";"0";"-3.394";"*L_Korintoarrei2";"0.06543064"
"**";"classe";"7";"**";"";""
"****";"12";"2663";"0.45";"****";""
"0";"1149";"0";"-9.148";"ukan";"0.002489595"
"*****";"*";"*";"*";"*";"*"
"2";"1433";"0.14";"-6.692";"izan";"0.009686793"
"0";" 475";"0.00";"-2.617";"ere";"0.105730075"
"*";"*";"*";"*";"*";"*"
"**";"classe";"8";"**";"";""
"****";"40";"2663";"1.5";"****";""
"9";"1149";"0.78";"-7.057";"ukan";"0.007894479"
"0";" 331";"0.00";"-5.764";"jain";"0.016356761"
"0";" 269";"0.00";"-4.563";"jainko";"0.032667688"
"0";" 256";"0.00";"-4.319";"eman";"0.037686083"
"0";" 208";"0.00";"-3.441";"esan";"0.063609378"
"0";" 199";"0.00";"-3.280";"on";"0.070138160"
"4";" 547";"0.73";"-2.764";"egin";"0.096377521"
"*****";"*";"*";"*";"*";"*"
" 0";" 785";"0.00";"-16.975";"ez";"3.787749e-05"
"14";"1433";"0.98";" -5.782";"izan";"1.619206e-02"
" 1";" 349";"0.29";" -4.011";"bera";"4.520490e-02"
" 0";" 193";"0.00";" -3.173";"baina";"7.485706e-02"
" 0";" 171";"0.00";" -2.787";"zuek";"9.505331e-02"
" 0";" 127";"0.00";" -2.034";"baizik";"1.538455e-01"
"*";"*";"*";"*";"*";"*"
"1";"368";"0.27";"-4.369";"*L_Korintoarrei2";"0.03660303"
"4";"610";"0.66";"-3.831";"*L_Korintoarrei1";"0.05032324"
"0";"148";"0.00";"-2.390";"*L_Efesoarrei";"0.12213139"
"**";"classe";"9";"**";"";""
"****";"2559";"2663";"96.09";"****";""
" 1";" 21";" 4.76";"-470.489";"agur";"2.508568e-104"
" 1";" 17";" 5.88";"-371.022";"goraintzi";" 1.120895e-82"
" 3";" 19";"15.79";"-328.843";"hizketa";" 1.716870e-73"
" 4";" 20";"20.00";"-310.921";"arrotz";" 1.375584e-69"
" 7";" 16";"43.75";"-117.522";"mintzatu";" 2.206086e-27"
" 1";"  6";"16.67";"-101.092";"zaituztete";" 8.781258e-24"
" 1";"  6";"16.67";"-101.092";"adam";" 8.781258e-24"
" 0";"  4";" 0.00";" -98.571";"muturrekorik";" 3.135561e-23"
" 0";"  4";" 0.00";" -98.571";"esanahi";" 3.135561e-23"
" 0";"  4";" 0.00";" -98.571";"besarkada";" 3.135561e-23"
" 0";"  4";" 0.00";" -98.571";"asia";" 3.135561e-23"
" 0";"  4";" 0.00";" -98.571";"arreba";" 3.135561e-23"
" 1";"  5";"20.00";" -77.292";"santuaz";" 1.474837e-18"
" 1";"  5";"20.00";" -77.292";"idi";" 1.474837e-18"
" 1";"  5";"20.00";" -77.292";"gari";" 1.474837e-18"
" 1";"  5";"20.00";" -77.292";"engain";" 1.474837e-18"
" 0";"  3";" 0.00";" -73.901";"priska";" 8.215299e-18"
" 2";"  6";"33.33";" -63.118";"mende";" 1.946846e-15"
" 1";"  4";"25.00";" -53.954";"probintzia";" 2.052196e-13"
" 1";"  4";"25.00";" -53.954";"menda";" 2.052196e-13"
" 1";"  4";"25.00";" -53.954";"laguntzaile";" 2.052196e-13"
" 1";"  4";"25.00";" -53.954";"erdaindua";" 2.052196e-13"
" 1";"  4";"25.00";" -53.954";"doktrin";" 2.052196e-13"
" 3";"  7";"42.86";" -53.005";"argitu";" 3.327396e-13"
" 6";" 11";"54.55";" -50.811";"ipini";" 1.017257e-12"
"18";" 26";"69.23";" -50.491";"etxe";" 1.197410e-12"
"30";" 40";"75.00";" -48.152";"eli";" 3.944025e-12"
"39";" 50";"78.00";" -44.457";"elkarte";" 2.600092e-11"
" 2";"  5";"40.00";" -42.002";"itxura";" 9.119135e-11"
" 2";"  5";"40.00";" -42.002";"bedeinkatu";" 9.119135e-11"
"13";" 19";"68.42";" -39.051";"bildu";" 4.128685e-10"
" 1";"  3";"33.33";" -31.523";"mintxa";" 1.970494e-08"
" 1";"  3";"33.33";" -31.523";"horie";" 1.970494e-08"
" 1";"  3";"33.33";" -31.523";"agurtu";" 1.970494e-08"
"14";" 19";"73.68";" -25.610";"mintzo";" 4.179650e-07"
" 5";"  8";"62.50";" -24.131";"gaitz";" 9.000042e-07"
" 2";"  4";"50.00";" -22.680";"ohore";" 1.913016e-06"
" 2";"  4";"50.00";" -22.680";"igukan";" 1.913016e-06"
" 2";"  4";"50.00";" -22.680";"erdaingabea";" 1.913016e-06"
" 2";"  4";"50.00";" -22.680";"bilakatu";" 1.913016e-06"
" 7";" 10";"70.00";" -18.213";"arrazoi";" 1.975546e-05"
" 3";"  5";"60.00";" -17.390";"izaki";" 3.043560e-05"
" 8";" 11";"72.73";" -16.071";"irain";" 6.100487e-05"
" 4";"  6";"66.67";" -13.877";"liluratu";" 1.951910e-04"
" 7";"  9";"77.78";"  -8.073";"begira";" 4.492128e-03"
"25";" 29";"86.21";"  -7.638";"jo";" 5.714793e-03"
" 2";"  3";"66.67";"  -6.931";"gizaldi";" 8.473396e-03"
" 2";"  3";"66.67";"  -6.931";"zerbitzari";" 8.473396e-03"
" 2";"  3";"66.67";"  -6.931";"sinestedunentzat";" 8.473396e-03"
" 2";"  3";"66.67";"  -6.931";"pentsaera";" 8.473396e-03"
" 2";"  3";"66.67";"  -6.931";"kantu";" 8.473396e-03"
" 2";"  3";"66.67";"  -6.931";"ikusezin";" 8.473396e-03"
" 2";"  3";"66.67";"  -6.931";"herritar";" 8.473396e-03"
" 2";"  3";"66.67";"  -6.931";"hazarazteko";" 8.473396e-03"
" 2";"  3";"66.67";"  -6.931";"garrantzi";" 8.473396e-03"
" 2";"  3";"66.67";"  -6.931";"galaraz";" 8.473396e-03"
" 2";"  3";"66.67";"  -6.931";"egunero";" 8.473396e-03"
" 2";"  3";"66.67";"  -6.931";"agurgarri";" 8.473396e-03"
"39";" 44";"88.64";"  -6.631";"izen";" 1.001985e-02"
"31";" 35";"88.57";"  -5.349";"fededun";" 2.073630e-02"
"10";" 12";"83.33";"  -5.231";"jaunarengan";" 2.218988e-02"
"10";" 12";"83.33";"  -5.231";"irudi";" 2.218988e-02"
" 3";"  4";"75.00";"  -4.750";"zaitu";" 2.929797e-02"
" 3";"  4";"75.00";"  -4.750";"osasungarri";" 2.929797e-02"
" 3";"  4";"75.00";"  -4.750";"jesusengatik";" 2.929797e-02"
" 3";"  4";"75.00";"  -4.750";"hizkuntza";" 2.929797e-02"
" 3";"  4";"75.00";"  -4.750";"goiagerpen";" 2.929797e-02"
" 3";"  4";"75.00";"  -4.750";"gidatu";" 2.929797e-02"
" 3";"  4";"75.00";"  -4.750";"eskas";" 2.929797e-02"
" 3";"  4";"75.00";"  -4.750";"biezaio";" 2.929797e-02"
" 3";"  4";"75.00";"  -4.750";"argudio";" 2.929797e-02"
"96";"104";"92.31";"  -4.136";"senide";" 4.198764e-02"
"12";" 14";"85.71";"  -4.041";"dizue";" 4.440980e-02"
" 4";"  5";"80.00";"  -3.458";"sustrai";" 6.295796e-02"
" 4";"  5";"80.00";"  -3.458";"zareten";" 6.295796e-02"
" 4";"  5";"80.00";"  -3.458";"sinesgarri";" 6.295796e-02"
" 4";"  5";"80.00";"  -3.458";"profezi";" 6.295796e-02"
" 4";"  5";"80.00";"  -3.458";"maltzur";" 6.295796e-02"
" 4";"  5";"80.00";"  -3.458";"gomendatu";" 6.295796e-02"
" 4";"  5";"80.00";"  -3.458";"etortu";" 6.295796e-02"
" 4";"  5";"80.00";"  -3.458";"begirune";" 6.295796e-02"
" 4";"  5";"80.00";"  -3.458";"batzar";" 6.295796e-02"
" 4";"  5";"80.00";"  -3.458";"azkenik";" 6.295796e-02"
" 4";"  5";"80.00";"  -3.458";"adiskide";" 6.295796e-02"
"40";" 44";"90.91";"  -3.206";"maite";" 7.338474e-02"
"42";" 46";"91.30";"  -2.862";"oso";" 9.068851e-02"
" 5";"  6";"83.33";"  -2.610";"ama";" 1.062245e-01"
" 5";"  6";"83.33";"  -2.610";"seinale";" 1.062245e-01"
" 5";"  6";"83.33";"  -2.610";"lagungarri";" 1.062245e-01"
" 5";"  6";"83.33";"  -2.610";"hona";" 1.062245e-01"
" 5";"  6";"83.33";"  -2.610";"hobe";" 1.062245e-01"
" 5";"  6";"83.33";"  -2.610";"begiratu";" 1.062245e-01"
"29";" 32";"90.62";"  -2.582";"kristau";" 1.080856e-01"
"17";" 19";"89.47";"  -2.235";"parte";" 1.348876e-01"
" 6";"  7";"85.71";"  -2.015";"haia";" 1.557378e-01"
" 6";"  7";"85.71";"  -2.015";"errege";" 1.557378e-01"
" 6";"  7";"85.71";"  -2.015";"itzazu";" 1.557378e-01"
" 6";"  7";"85.71";"  -2.015";"hutsal";" 1.557378e-01"
" 6";"  7";"85.71";"  -2.015";"hiri";" 1.557378e-01"
" 6";"  7";"85.71";"  -2.015";"gorabehera";" 1.557378e-01"
" 6";"  7";"85.71";"  -2.015";"berdin";" 1.557378e-01"
"*****";"*";"*";"*";"*";"*"
"  3";"  5";"60.00";"-17.390";"kontrako";"0.0000304356"
" 15";" 19";"78.95";"-14.993";"ezazue";"0.0001079047"
"  9";" 12";"75.00";"-14.293";"itzazue";"0.0001564406"
"  4";"  6";"66.67";"-13.877";"zaitzatu";"0.0001951910"
" 61";" 68";"89.71";" -7.589";"inor";"0.0058709376"
" 16";" 19";"84.21";" -7.202";"zaituzte";"0.0072834640"
"  2";"  3";"66.67";" -6.931";"zuten";"0.0084733958"
"  3";"  4";"75.00";" -4.750";"niregandik";"0.0292979689"
"  3";"  4";"75.00";" -4.750";"iokan";"0.0292979689"
"240";"256";"93.75";" -4.149";"guzti";"0.0416640575"
" 12";" 14";"85.71";" -4.041";"gainera";"0.0444097953"
" 67";" 73";"91.78";" -3.722";"ari";"0.0537060033"
" 13";" 15";"86.67";" -3.573";"azken";"0.0587302231"
"  4";"  5";"80.00";" -3.458";"behartsu";"0.0629579555"
"  4";"  5";"80.00";" -3.458";"berorren";"0.0629579555"
"  4";"  5";"80.00";" -3.458";"behintzat";"0.0629579555"
"  6";"  7";"85.71";" -2.015";"zinetu";"0.1557377874"
"*";"*";"*";"*";"*";"*"
" 17";" 36";"47.22";"-232.263";"*K_Erm_16";"1.913639e-52"
" 43";" 57";"75.44";" -66.222";"*K_1Ko_14";"4.028316e-16"
"  0";"  2";" 0.00";" -49.249";"*Tx_1Ko_16_19";"2.255028e-12"
"  0";"  2";" 0.00";" -49.249";"*Tx_Flp_4_21";"2.255028e-12"
"  0";"  2";" 0.00";" -49.249";"*Tx_Erm_16_23";"2.255028e-12"
"  0";"  2";" 0.00";" -49.249";"*Tx_Erm_16_5";"2.255028e-12"
"  0";"  2";" 0.00";" -49.249";"*Tx_1Ko_14_27";"2.255028e-12"
"  0";"  2";" 0.00";" -49.249";"*Tx_1Ko_16_20";"2.255028e-12"
"  0";"  2";" 0.00";" -49.249";"*Tx_Erm_16_16";"2.255028e-12"
"  1";"  3";"33.33";" -31.523";"*Tx_1Ko_14_5";"1.970494e-08"
"  1";"  3";"33.33";" -31.523";"*Tx_1Ko_15_45";"1.970494e-08"
"  1";"  3";"33.33";" -31.523";"*Tx_1Ko_12_30";"1.970494e-08"
" 17";" 22";"77.27";" -20.941";"*K_Kol_4";"4.737218e-06"
" 25";" 30";"83.33";" -13.166";"*K_1Ko_16";"2.850007e-04"
"  1";"  2";"50.00";" -11.332";"*Tx_Ga_3_1";"7.619448e-04"
"  1";"  2";"50.00";" -11.332";"*Tx_2Ko_1_8";"7.619448e-04"
"  1";"  2";"50.00";" -11.332";"*Tx_2Tm_2_17";"7.619448e-04"
"  1";"  2";"50.00";" -11.332";"*Tx_2Ts_2_3";"7.619448e-04"
"  1";"  2";"50.00";" -11.332";"*Tx_1Tm_1_3";"7.619448e-04"
"  1";"  2";"50.00";" -11.332";"*Tx_Kol_4_11";"7.619448e-04"
"  1";"  2";"50.00";" -11.332";"*Tx_1Tm_2_14";"7.619448e-04"
"  1";"  2";"50.00";" -11.332";"*Tx_Erm_9_5";"7.619448e-04"
"  1";"  2";"50.00";" -11.332";"*Tx_2Ko_6_2";"7.619448e-04"
"  1";"  2";"50.00";" -11.332";"*Tx_1Ko_3_18";"7.619448e-04"
"  1";"  2";"50.00";" -11.332";"*Tx_1Ko_14_22";"7.619448e-04"
"  1";"  2";"50.00";" -11.332";"*Tx_2Tm_4_21";"7.619448e-04"
"  1";"  2";"50.00";" -11.332";"*Tx_1Ko_6_3";"7.619448e-04"
"  1";"  2";"50.00";" -11.332";"*Tx_2Ko_10_7";"7.619448e-04"
"  1";"  2";"50.00";" -11.332";"*Tx_1Tm_6_10";"7.619448e-04"
"  1";"  2";"50.00";" -11.332";"*Tx_1Ko_7_18";"7.619448e-04"
"  1";"  2";"50.00";" -11.332";"*Tx_1Ko_14_4";"7.619448e-04"
"  1";"  2";"50.00";" -11.332";"*Tx_1Ko_14_2";"7.619448e-04"
"  1";"  2";"50.00";" -11.332";"*Tx_Kol_2_8";"7.619448e-04"
"  1";"  2";"50.00";" -11.332";"*Tx_1Ko_6_11";"7.619448e-04"
"  1";"  2";"50.00";" -11.332";"*Tx_Erm_16_7";"7.619448e-04"
"  1";"  2";"50.00";" -11.332";"*Tx_1Ko_15_49";"7.619448e-04"
"  1";"  2";"50.00";" -11.332";"*Tx_Ef_5_4";"7.619448e-04"
"  1";"  2";"50.00";" -11.332";"*Tx_2Tm_1_12";"7.619448e-04"
"  1";"  2";"50.00";" -11.332";"*Tx_Erm_12_17";"7.619448e-04"
"  1";"  2";"50.00";" -11.332";"*Tx_1Ko_7_19";"7.619448e-04"
"  1";"  2";"50.00";" -11.332";"*Tx_Erm_15_6";"7.619448e-04"
"  1";"  2";"50.00";" -11.332";"*Tx_Ga_2_10";"7.619448e-04"
"  1";"  2";"50.00";" -11.332";"*Tx_Erm_15_3";"7.619448e-04"
"  1";"  2";"50.00";" -11.332";"*Tx_Kol_4_12";"7.619448e-04"
"  1";"  2";"50.00";" -11.332";"*Tx_1Ko_14_23";"7.619448e-04"
"  1";"  2";"50.00";" -11.332";"*Tx_1Tm_5_18";"7.619448e-04"
"  1";"  2";"50.00";" -11.332";"*Tx_Ga_6_15";"7.619448e-04"
"  1";"  2";"50.00";" -11.332";"*Tx_Ga_4_17";"7.619448e-04"
"  1";"  2";"50.00";" -11.332";"*Tx_1Ko_14_26";"7.619448e-04"
"  1";"  2";"50.00";" -11.332";"*Tx_2Ts_3_17";"7.619448e-04"
"  1";"  2";"50.00";" -11.332";"*Tx_2Ko_10_10";"7.619448e-04"
"  1";"  2";"50.00";" -11.332";"*Tx_Tt_3_15";"7.619448e-04"
"  1";"  2";"50.00";" -11.332";"*Tx_Erm_16_12";"7.619448e-04"
"575";"610";"94.26";"  -7.079";"*L_Korintoarrei1";"7.800060e-03"
"  2";"  3";"66.67";"  -6.931";"*Tx_1Ko_12_10";"8.473396e-03"
"  2";"  3";"66.67";"  -6.931";"*Tx_Erm_5_14";"8.473396e-03"
"  2";"  3";"66.67";"  -6.931";"*Tx_1Ko_12_28";"8.473396e-03"
"  2";"  3";"66.67";"  -6.931";"*Tx_1Ko_9_9";"8.473396e-03"
"  2";"  3";"66.67";"  -6.931";"*Tx_1Ko_4_12";"8.473396e-03"
"  2";"  3";"66.67";"  -6.931";"*Tx_1Tm_1_15";"8.473396e-03"
"  2";"  3";"66.67";"  -6.931";"*Tx_Erm_9_33";"8.473396e-03"
" 28";" 32";"87.50";"  -6.375";"*K_Flp_4";"1.157264e-02"
"  3";"  4";"75.00";"  -4.750";"*Tx_Erm_12_21";"2.929797e-02"
"  3";"  4";"75.00";"  -4.750";"*Tx_1Ko_9_12";"2.929797e-02"
" 22";" 25";"88.00";"  -4.406";"*K_1Tm_1";"3.580748e-02"
" 26";" 29";"89.66";"  -3.240";"*K_1Tm_5";"7.187841e-02"
" 40";" 44";"90.91";"  -3.206";"*K_1Ko_12";"7.338474e-02"
" 99";"106";"93.40";"  -2.142";"*L_Kolosarrei";"1.433244e-01"
"**";"classe";"10";"**";"";""
"****";"7";"2663";"0.26";"****";""
"0";"1149";"0";"-5.326";"ukan";"0.0210045"
"*****";"*";"*";"*";"*";"*"
"1";"1114";"0.09";"-2.189";"eta";"0.1390252"
"*";"*";"*";"*";"*";"*"
"0";"635";"0";"-2.198";"*L_Erromatarrei";"0.1382266"
