"V1";"V2";"V3";"V4";"V5";"V6"
"***";"nb classes";"10";"***";"";""
"**";"classe";"1";"**";"";""
"****";"2";"2663";"0.08";"****";""
"2";"3";"66.67";"1774.666";"horie";"0"
"*****";"*";"*";"*";"*";"*"
"1";"  7";"14.29";"188.857";"zinetu";"5.645868e-43"
"1";" 33";" 3.03";" 38.884";"batzuk";"4.497606e-10"
"1";"120";" 0.83";"  9.627";"zu";"1.917733e-03"
"*";"*";"*";"*";"*";"*"
"1";" 2";"50.00";"664.750";"*Tx_2Tm_2_17";"1.384884e-146"
"1";" 2";"50.00";"664.750";"*Tx_1Ko_6_11";"1.384884e-146"
"1";"25";" 4.00";" 51.804";"*K_2Tm_2";" 6.133784e-13"
"1";"30";" 3.33";" 42.921";"*K_1Ko_6";" 5.698781e-11"
"1";"96";" 1.04";" 12.398";"*L_Timoteori2";" 4.298396e-04"
"**";"classe";"2";"**";"";""
"****";"4";"2663";"0.15";"****";""
"4";"  4";"100.00";"2663.000";"besarkada";"0.000000e+00"
"4";"  5";" 80.00";"2129.599";"santuaz";"0.000000e+00"
"3";" 21";" 14.29";" 281.997";"agur";"2.756907e-63"
"1";"  3";" 33.33";" 220.500";"agurtu";"7.034478e-50"
"1";"104";"  0.96";"   4.750";"senide";"2.929797e-02"
"*****";"*";"*";"*";"*";"*"
"3";"19";"15.79";"312.076";"ezazue";"7.709505e-70"
"3";"42";" 7.14";"139.124";"elkar";"4.138528e-32"
"*";"*";"*";"*";"*";"*"
"1";"  2";"50.00";"331.625";"*Tx_1Ko_16_20";"4.255038e-74"
"1";"  2";"50.00";"331.625";"*Tx_Erm_16_16";"4.255038e-74"
"1";" 26";" 3.85";" 23.914";"*K_2Ko_13";"1.007431e-06"
"1";" 28";" 3.57";" 22.084";"*K_1Ts_5";"2.609941e-06"
"1";" 30";" 3.33";" 20.498";"*K_1Ko_16";"5.969071e-06"
"1";" 36";" 2.78";" 16.799";"*K_Erm_16";"4.155251e-05"
"1";"104";" 0.96";"  4.750";"*L_Tesalonikarrei1";"2.929797e-02"
"**";"classe";"3";"**";"";""
"****";"5";"2663";"0.19";"****";""
"4";"  4";"100.00";"2129.599";"muturrekorik";" 0.000000e+00"
"4";"  5";" 80.00";"1702.717";"idi";" 0.000000e+00"
"4";"  5";" 80.00";"1702.717";"gari";" 0.000000e+00"
"5";" 11";" 45.45";"1207.722";"ipini";"1.279578e-264"
"4";" 29";" 13.79";" 289.594";"jo";" 6.094997e-65"
"1";"  6";" 16.67";"  87.138";"hona";" 1.012328e-20"
"1";"  7";" 14.29";"  74.434";"itzazu";" 6.270285e-18"
"1";" 11";"  9.09";"  46.719";"gainerako";" 8.192352e-12"
"4";"208";"  1.92";"  36.254";"esan";" 1.731823e-09"
"1";" 38";"  2.63";"  12.285";"huts";" 4.565694e-04"
"1";" 65";"  1.54";"   6.486";"aurre";" 1.087221e-02"
"1";"130";"  0.77";"   2.466";"hartu";" 1.163496e-01"
"*****";"*";"*";"*";"*";"*"
"4";" 73";"5.48";"112.150";"ari";"3.311982e-26"
"1";" 17";"5.88";" 29.606";"dezata";"5.295289e-08"
"1";" 57";"1.75";"  7.628";"berak";"5.746344e-03"
"4";"785";"0.51";"  6.151";"ez";"1.313609e-02"
"*";"*";"*";"*";"*";"*"
"1";"  2";"50.00";"265.000";"*Tx_1Tm_5_18";"1.395348e-59"
"1";"  3";"33.33";"176.068";"*Tx_1Ko_9_9";"3.500184e-40"
"1";"  3";"33.33";"176.068";"*Tx_Erm_9_33";"3.500184e-40"
"1";"  4";"25.00";"131.602";"*Tx_1Ko_9_12";"1.828430e-30"
"2";" 29";" 6.90";" 70.414";"*K_1Tm_5";"4.807520e-17"
"2";" 48";" 4.17";" 41.294";"*K_1Ko_9";"1.309766e-10"
"2";"129";" 1.55";" 13.432";"*L_Timoteori1";"2.474235e-04"
"1";" 46";" 2.17";"  9.853";"*K_Erm_9";"1.695543e-03"
"**";"classe";"4";"**";"";""
"****";"3";"2663";"0.11";"****";""
"3";" 5";"60.00";"1596.599";"itxura";"0.000000e+00"
"1";" 4";"25.00";" 220.500";"eskas";"7.034478e-50"
"1";" 6";"16.67";" 146.446";"begiratu";"1.037268e-33"
"1";"31";" 3.23";"  27.014";"gizon";"2.019999e-07"
"*****";"*";"*";"*";"*";"*"
"1";"  4";"25.00";"220.500";"iokan";"7.034478e-50"
"1";"127";" 0.79";"  5.396";"baizik";"2.018660e-02"
"1";"187";" 0.53";"  3.185";"hori";"7.433967e-02"
"1";"193";" 0.52";"  3.040";"baina";"8.122336e-02"
"*";"*";"*";"*";"*";"*"
"1";"  2";"50.00";"442.666";"*Tx_2Ko_10_7";"2.845435e-98"
"1";"  2";"50.00";"442.666";"*Tx_Ef_5_4";"2.845435e-98"
"1";"  2";"50.00";"442.666";"*Tx_2Ko_10_10";"2.845435e-98"
"2";" 27";" 7.41";"128.988";"*K_2Ko_10";"6.822166e-30"
"1";" 33";" 3.03";" 25.278";"*K_Ef_5";"4.964588e-07"
"2";"368";" 0.54";"  7.043";"*L_Korintoarrei2";"7.956372e-03"
"1";"148";" 0.68";"  4.415";"*L_Efesoarrei";"3.563437e-02"
"**";"classe";"5";"**";"";""
"****";"10";"2663";"0.38";"****";""
"5";" 6";"83.33";"1106.243";"adam";"1.452063e-242"
"3";" 4";"75.00";" 596.322";"erdaindua";"1.056506e-131"
"2";" 4";"50.00";" 263.700";"erdaingabea";" 2.679512e-59"
"2";" 4";"50.00";" 263.700";"bilakatu";" 2.679512e-59"
"2";" 5";"40.00";" 210.242";"izaki";" 1.216665e-47"
"2";" 6";"33.33";" 174.603";"liluratu";" 7.308084e-40"
"1";" 3";"33.33";"  87.203";"garrantzi";" 9.792204e-21"
"2";"12";"16.67";"  85.517";"irudi";" 2.297453e-20"
"1";" 5";"20.00";"  51.569";"etortu";" 6.912847e-13"
"1";" 7";"14.29";"  36.301";"berdin";" 1.691188e-09"
"1";" 8";"12.50";"  31.530";"eredu";" 1.963515e-08"
"2";"44";" 4.55";"  20.795";"gizaki";" 5.112424e-06"
"1";"27";" 3.70";"   8.076";"deitu";" 4.484898e-03"
"*****";"*";"*";"*";"*";"*"
"2";"37";"5.41";"25.375";"nahiz";"4.720811e-07"
"1";"18";"5.56";"12.998";"lehenengo";"3.117609e-04"
"1";"19";"5.26";"12.220";"zaituzte";"4.728286e-04"
"1";"48";"2.08";" 3.811";"nor";"5.091984e-02"
"1";"51";"1.96";" 3.493";"berriz";"6.163478e-02"
"*";"*";"*";"*";"*";"*"
"2";"  3";"66.67";"352.799";"*Tx_1Ko_15_45";"1.041573e-78"
"1";"  2";"50.00";"131.751";"*Tx_Ga_3_1";"1.696279e-30"
"1";"  2";"50.00";"131.751";"*Tx_1Tm_2_14";"1.696279e-30"
"1";"  2";"50.00";"131.751";"*Tx_1Ko_7_18";"1.696279e-30"
"1";"  2";"50.00";"131.751";"*Tx_1Ko_15_49";"1.696279e-30"
"1";"  2";"50.00";"131.751";"*Tx_1Ko_7_19";"1.696279e-30"
"1";"  2";"50.00";"131.751";"*Tx_Ga_6_15";"1.696279e-30"
"1";"  3";"33.33";" 87.203";"*Tx_Erm_5_14";"9.792204e-21"
"4";" 79";" 5.06";" 47.824";"*K_1Ko_15";"4.662909e-12"
"1";" 16";" 6.25";" 14.848";"*K_1Tm_2";"1.165026e-04"
"2";" 65";" 3.08";" 12.997";"*K_1Ko_7";"3.120538e-04"
"1";" 23";" 4.35";"  9.786";"*K_Ga_6";"1.758862e-03"
"6";"610";" 0.98";"  7.821";"*L_Korintoarrei1";"5.164730e-03"
"1";" 33";" 3.03";"  6.295";"*K_Erm_5";"1.210810e-02"
"1";" 46";" 2.17";"  4.047";"*K_Ga_3";"4.425770e-02"
"**";"classe";"6";"**";"";""
"****";"21";"2663";"0.79";"****";""
"16";"19";" 84.21";"1702.214";"hizketa";" 0.000000e+00"
"16";"20";" 80.00";"1616.106";"arrotz";" 0.000000e+00"
" 9";"16";" 56.25";" 632.862";"mintzatu";"1.191969e-139"
" 4";" 4";"100.00";" 503.995";"esanahi";"1.284452e-111"
" 4";" 7";" 57.14";" 284.895";"argitu";" 6.440058e-64"
" 3";" 4";" 75.00";" 281.997";"doktrin";" 2.756907e-63"
" 2";" 3";" 66.67";" 166.603";"mintxa";" 4.084516e-38"
" 5";"19";" 26.32";" 159.390";"mintzo";" 1.538180e-36"
" 1";" 3";" 33.33";"  40.660";"sinestedunentzat";" 1.811969e-10"
" 1";" 3";" 33.33";"  40.660";"kantu";" 1.811969e-10"
" 1";" 3";" 33.33";"  40.660";"hazarazteko";" 1.811969e-10"
" 1";" 3";" 33.33";"  40.660";"galaraz";" 1.811969e-10"
" 1";" 4";" 25.00";"  30.015";"osasungarri";" 4.286397e-08"
" 1";" 4";" 25.00";"  30.015";"hizkuntza";" 4.286397e-08"
" 1";" 4";" 25.00";"  30.015";"goiagerpen";" 4.286397e-08"
" 1";" 4";" 25.00";"  30.015";"gidatu";" 4.286397e-08"
" 1";" 4";" 25.00";"  30.015";"biezaio";" 4.286397e-08"
" 1";" 5";" 20.00";"  23.632";"zareten";" 1.166493e-06"
" 1";" 5";" 20.00";"  23.632";"sinesgarri";" 1.166493e-06"
" 1";" 5";" 20.00";"  23.632";"profezi";" 1.166493e-06"
" 1";" 5";" 20.00";"  23.632";"batzar";" 1.166493e-06"
" 2";"19";" 10.53";"  23.194";"bildu";" 1.464801e-06"
" 3";"43";"  6.98";"  21.392";"irakatsi";" 3.743278e-06"
" 1";" 6";" 16.67";"  19.378";"seinale";" 1.072147e-05"
" 1";" 6";" 16.67";"  19.378";"lagungarri";" 1.072147e-05"
" 1";" 6";" 16.67";"  19.378";"hobe";" 1.072147e-05"
" 3";"50";"  6.00";"  17.689";"elkarte";" 2.601258e-05"
" 3";"52";"  5.77";"  16.816";"dohain";" 4.117905e-05"
" 2";"25";"  8.00";"  16.775";"dezala";" 4.207971e-05"
" 1";" 9";" 11.11";"  12.299";"bertan";" 4.531652e-04"
" 3";"67";"  4.48";"  11.955";"jainkoa";" 5.449630e-04"
" 2";"40";"  5.00";"   9.206";"eli";" 2.411999e-03"
" 2";"46";"  4.35";"   7.579";"bakarrik";" 5.904157e-03"
" 1";"14";"  7.14";"   7.263";"hasi";" 7.037444e-03"
" 1";"15";"  6.67";"   6.662";"dadila";" 9.848915e-03"
" 1";"15";"  6.67";"   6.662";"eitezi";" 9.848915e-03"
" 2";"51";"  3.92";"   6.523";"baino";" 1.064635e-02"
" 1";"18";"  5.56";"   5.264";"lagundu";" 2.177435e-02"
" 1";"18";"  5.56";"   5.264";"irrika";" 2.177435e-02"
" 1";"19";"  5.26";"   4.897";"profeta";" 2.689870e-02"
" 1";"20";"  5.00";"   4.568";"ulertu";" 3.256970e-02"
" 1";"22";"  4.55";"   4.002";"adierazi";" 4.544855e-02"
" 2";"70";"  2.86";"   3.932";"ote";" 4.738091e-02"
" 1";"23";"  4.35";"   3.757";"ezakan";" 5.259798e-02"
" 2";"89";"  2.25";"   2.504";"buru";" 1.135638e-01"
" 1";"34";"  2.94";"   2.040";"argi";" 1.532366e-01"
"*****";"*";"*";"*";"*";"*"
"1";"  5";"20.00";"23.632";"behartsu";"1.166493e-06"
"1";"  5";"20.00";"23.632";"behintzat";"1.166493e-06"
"1";"  9";"11.11";"12.299";"hiru";"4.531652e-04"
"4";"120";" 3.33";"10.401";"dena";"1.259290e-03"
"3";" 87";" 3.45";" 8.132";"beraz";"4.349076e-03"
"2";" 46";" 4.35";" 7.579";"edo";"5.904157e-03"
"1";" 17";" 5.88";" 5.674";"edota";"1.721692e-02"
"1";" 17";" 5.88";" 5.674";"bi";"1.721692e-02"
"1";" 19";" 5.26";" 4.897";"ezazue";"2.689870e-02"
"3";"120";" 2.50";" 4.704";"beste";"3.008492e-02"
"2";" 68";" 2.94";" 4.133";"inor";"4.205685e-02"
"1";" 22";" 4.55";" 4.002";"norbait";"4.544855e-02"
"1";" 32";" 3.12";" 2.260";"zeren";"1.327620e-01"
"4";"256";" 1.56";" 2.168";"guzti";"1.408850e-01"
"*";"*";"*";"*";"*";"*"
"14";" 57";" 24.56";"420.749";"*K_1Ko_14";"1.676459e-93"
" 2";"  2";"100.00";"251.808";"*Tx_1Ko_14_27";"1.047730e-56"
" 2";"  3";" 66.67";"166.603";"*Tx_1Ko_14_5";"4.084516e-38"
" 2";"  3";" 66.67";"166.603";"*Tx_1Ko_12_30";"4.084516e-38"
" 1";"  2";" 50.00";" 61.955";"*Tx_1Tm_1_3";"3.513489e-15"
" 1";"  2";" 50.00";" 61.955";"*Tx_1Ko_14_22";"3.513489e-15"
" 1";"  2";" 50.00";" 61.955";"*Tx_1Ko_14_4";"3.513489e-15"
" 1";"  2";" 50.00";" 61.955";"*Tx_1Ko_14_2";"3.513489e-15"
" 1";"  2";" 50.00";" 61.955";"*Tx_1Ko_14_23";"3.513489e-15"
" 1";"  2";" 50.00";" 61.955";"*Tx_1Ko_14_26";"3.513489e-15"
"18";"610";"  2.95";" 47.283";"*L_Korintoarrei1";"6.143192e-12"
" 1";"  3";" 33.33";" 40.660";"*Tx_1Ko_12_10";"1.811969e-10"
" 1";"  3";" 33.33";" 40.660";"*Tx_1Ko_12_28";"1.811969e-10"
" 1";"  3";" 33.33";" 40.660";"*Tx_1Tm_1_15";"1.811969e-10"
" 4";" 44";"  9.09";" 39.416";"*K_1Ko_12";"3.423924e-10"
" 2";" 25";"  8.00";" 16.775";"*K_1Tm_1";"4.207971e-05"
" 1";" 14";"  7.14";"  7.263";"*K_Tt_2";"7.037444e-03"
"**";"classe";"7";"**";"";""
"****";"12";"2663";"0.45";"****";""
"4";" 6";"66.67";"587.772";"mende";"7.648598e-130"
"3";" 4";"75.00";"496.309";"menda";"6.040002e-110"
"3";" 5";"60.00";"395.997";"bedeinkatu";" 4.095606e-88"
"3";" 8";"37.50";"245.533";"gaitz";" 2.445223e-55"
"2";" 4";"50.00";"219.251";"ohore";" 1.317847e-49"
"2";" 4";"50.00";"219.251";"igukan";" 1.317847e-49"
"3";"11";"27.27";"177.144";"irain";" 2.036736e-40"
"1";" 3";"33.33";" 72.393";"gizaldi";" 1.763253e-17"
"1";" 3";"33.33";" 72.393";"ikusezin";" 1.763253e-17"
"1";" 5";"20.00";" 42.678";"sustrai";" 6.453568e-11"
"1";" 5";"20.00";" 42.678";"begirune";" 6.453568e-11"
"2";"21";" 9.52";" 38.844";"aintza";" 4.589562e-10"
"1";" 7";"14.29";" 29.947";"errege";" 4.439640e-08"
"1";" 8";"12.50";" 25.970";"madarikatu";" 3.467055e-07"
"1";"12";" 8.33";" 16.697";"itzuli";" 4.384397e-05"
"1";"22";" 4.55";"  8.292";"bedi";" 3.982416e-03"
"1";"29";" 3.45";"  5.873";"bakar";" 1.537384e-02"
"1";"42";" 2.38";"  3.545";"eskatu";" 5.973900e-02"
"1";"49";" 2.04";"  2.814";"aita";" 9.344865e-02"
"*****";"*";"*";"*";"*";"*"
"2";"  5";"40.00";"174.669";"kontrako";"7.069577e-40"
"2";" 14";"14.29";" 60.053";"gainera";"9.234905e-15"
"1";" 12";" 8.33";" 16.697";"itzazue";"4.384397e-05"
"1";" 32";" 3.12";"  5.164";"zeren";"2.305787e-02"
"2";"120";" 1.67";"  4.142";"zu";"4.182039e-02"
"1";" 48";" 2.08";"  2.905";"nor";"8.831770e-02"
"*";"*";"*";"*";"*";"*"
"1";"  2";"50.00";"109.543";"*Tx_Erm_9_5";"1.234067e-25"
"1";"  2";"50.00";"109.543";"*Tx_1Tm_6_10";"1.234067e-25"
"1";"  2";"50.00";"109.543";"*Tx_Erm_12_17";"1.234067e-25"
"1";"  2";"50.00";"109.543";"*Tx_Erm_15_6";"1.234067e-25"
"1";"  2";"50.00";"109.543";"*Tx_Ga_2_10";"1.234067e-25"
"1";"  2";"50.00";"109.543";"*Tx_Erm_15_3";"1.234067e-25"
"1";"  3";"33.33";" 72.393";"*Tx_1Ko_4_12";"1.763253e-17"
"1";"  4";"25.00";" 53.820";"*Tx_Erm_12_21";"2.197030e-13"
"3";" 36";" 8.33";" 50.549";"*K_Erm_12";"1.161995e-12"
"2";" 44";" 4.55";" 16.723";"*K_Erm_15";"4.325491e-05"
"7";"635";" 1.10";"  7.896";"*L_Erromatarrei";"4.955750e-03"
"1";" 23";" 4.35";"  7.855";"*K_1Tm_6";"5.067676e-03"
"1";" 23";" 4.35";"  7.855";"*K_Erm_13";"5.067676e-03"
"1";" 25";" 4.00";"  7.087";"*K_1Tm_1";"7.762362e-03"
"1";" 32";" 3.12";"  5.164";"*K_Flp_4";"2.305787e-02"
"1";" 32";" 3.12";"  5.164";"*K_Ga_2";"2.305787e-02"
"1";" 36";" 2.78";"  4.406";"*K_1Ko_4";"3.581863e-02"
"2";"129";" 1.55";"  3.655";"*L_Timoteori1";"5.589539e-02"
"1";" 46";" 2.17";"  3.099";"*K_Erm_9";"7.834949e-02"
"**";"classe";"8";"**";"";""
"****";"40";"2663";"1.5";"****";""
"16";" 17";" 94.12";"991.933";"goraintzi";"1.017910e-217"
"17";" 21";" 80.95";"903.094";"agur";"2.085574e-198"
" 5";"  6";" 83.33";"272.178";"zaituztete";" 3.803367e-61"
" 4";"  4";"100.00";"262.695";"asia";" 4.437849e-59"
" 4";"  4";"100.00";"262.695";"arreba";" 4.437849e-59"
" 3";"  3";"100.00";"196.947";"priska";" 9.685414e-45"
" 8";" 26";" 30.77";"152.013";"etxe";" 6.295916e-35"
" 3";"  4";" 75.00";"146.267";"probintzia";" 1.134784e-33"
" 3";"  4";" 75.00";"146.267";"laguntzaile";" 1.134784e-33"
" 8";" 40";" 20.00";" 93.921";"eli";" 3.283469e-22"
" 8";" 50";" 16.00";" 72.393";"elkarte";" 1.763158e-17"
" 4";" 19";" 21.05";" 49.439";"bildu";" 2.046799e-12"
" 5";" 44";" 11.36";" 29.408";"izen";" 5.863690e-08"
" 4";" 35";" 11.43";" 23.621";"fededun";" 1.173254e-06"
" 1";"  3";" 33.33";" 20.569";"zerbitzari";" 5.753494e-06"
" 1";"  3";" 33.33";" 20.569";"herritar";" 5.753494e-06"
" 1";"  3";" 33.33";" 20.569";"agurtu";" 5.753494e-06"
" 1";"  3";" 33.33";" 20.569";"agurgarri";" 5.753494e-06"
" 2";" 12";" 16.67";" 18.737";"jaunarengan";" 1.500812e-05"
" 4";" 44";"  9.09";" 17.415";"maite";" 3.004447e-05"
" 2";" 14";" 14.29";" 15.546";"dizue";" 8.053357e-05"
" 1";"  4";" 25.00";" 14.951";"zaitu";" 1.103677e-04"
" 1";"  4";" 25.00";" 14.951";"jesusengatik";" 1.103677e-04"
" 3";" 32";"  9.38";" 13.569";"kristau";" 2.299143e-04"
" 6";"104";"  5.77";" 13.320";"senide";" 2.626202e-04"
" 1";"  5";" 20.00";" 11.586";"gomendatu";" 6.646620e-04"
" 1";"  5";" 20.00";" 11.586";"azkenik";" 6.646620e-04"
" 1";"  5";" 20.00";" 11.586";"adiskide";" 6.646620e-04"
" 3";" 38";"  7.89";" 10.648";"esku";" 1.101809e-03"
" 2";" 19";" 10.53";" 10.533";"parte";" 1.172347e-03"
" 1";"  6";" 16.67";"  9.347";"ama";" 2.233385e-03"
" 2";" 22";"  9.09";"  8.635";"jesusen";" 3.297711e-03"
" 3";" 46";"  6.52";"  7.972";"oso";" 4.750978e-03"
" 1";"  7";" 14.29";"  7.752";"haia";" 5.364191e-03"
" 1";"  7";" 14.29";"  7.752";"hiri";" 5.364191e-03"
" 3";" 49";"  6.12";"  7.203";"idatzi";" 7.278963e-03"
" 1";"  8";" 12.50";"  6.560";"jaunarengatik";" 1.042972e-02"
" 1";"  8";" 12.50";"  6.560";"jardun";" 1.042972e-02"
" 1";"  8";" 12.50";"  6.560";"ditudan";" 1.042972e-02"
" 1";"  8";" 12.50";"  6.560";"bereizi";" 1.042972e-02"
" 1";" 10";" 10.00";"  4.899";"zintzo";" 2.686570e-02"
" 1";" 10";" 10.00";"  4.899";"kristorengan";" 2.686570e-02"
" 1";" 10";" 10.00";"  4.899";"iritzi";" 2.686570e-02"
" 2";" 34";"  5.88";"  4.466";"zerbitzu";" 3.456959e-02"
" 1";" 11";"  9.09";"  4.300";"zaiteztu";" 3.812188e-02"
" 1";" 13";"  7.69";"  3.384";"nolako";" 6.585151e-02"
" 1";" 13";"  7.69";"  3.384";"ardura";" 6.585151e-02"
" 1";" 16";"  6.25";"  2.453";"gutun";" 1.173287e-01"
" 1";" 16";"  6.25";"  2.453";"fruitu";" 1.173287e-01"
"*****";"*";"*";"*";"*";"*"
" 1";"  3";"33.33";"20.569";"zuten";"5.753494e-06"
" 2";" 12";"16.67";"18.737";"itzazue";"1.500812e-05"
" 1";"  4";"25.00";"14.951";"niregandik";"1.103677e-04"
" 2";" 15";"13.33";"14.272";"azken";"1.581835e-04"
" 1";"  5";"20.00";"11.586";"berorren";"6.646620e-04"
"11";"298";" 3.69";"10.870";"ni";"9.775359e-04"
" 2";" 19";"10.53";"10.533";"zaituzte";"1.172347e-03"
" 1";"  8";"12.50";" 6.560";"nitu";"1.042972e-02"
" 2";" 30";" 6.67";" 5.470";"hauek";"1.934397e-02"
" 8";"256";" 3.12";" 5.042";"guzti";"2.473687e-02"
" 3";" 90";" 3.33";" 2.111";"neu";"1.462096e-01"
"*";"*";"*";"*";"*";"*"
"18";" 36";" 50.00";"580.155";"*K_Erm_16";"3.470066e-128"
" 2";"  2";"100.00";"131.249";"*Tx_1Ko_16_19";" 2.184637e-30"
" 2";"  2";"100.00";"131.249";"*Tx_Flp_4_21";" 2.184637e-30"
" 2";"  2";"100.00";"131.249";"*Tx_Erm_16_23";" 2.184637e-30"
" 2";"  2";"100.00";"131.249";"*Tx_Erm_16_5";" 2.184637e-30"
" 5";" 22";" 22.73";" 67.548";"*K_Kol_4";" 2.056053e-16"
" 1";"  2";" 50.00";" 31.819";"*Tx_2Ko_1_8";" 1.692273e-08"
" 1";"  2";" 50.00";" 31.819";"*Tx_Kol_4_11";" 1.692273e-08"
" 1";"  2";" 50.00";" 31.819";"*Tx_2Tm_4_21";" 1.692273e-08"
" 1";"  2";" 50.00";" 31.819";"*Tx_Erm_16_7";" 1.692273e-08"
" 1";"  2";" 50.00";" 31.819";"*Tx_1Ko_16_20";" 1.692273e-08"
" 1";"  2";" 50.00";" 31.819";"*Tx_Kol_4_12";" 1.692273e-08"
" 1";"  2";" 50.00";" 31.819";"*Tx_Ga_4_17";" 1.692273e-08"
" 1";"  2";" 50.00";" 31.819";"*Tx_2Ts_3_17";" 1.692273e-08"
" 1";"  2";" 50.00";" 31.819";"*Tx_Tt_3_15";" 1.692273e-08"
" 1";"  2";" 50.00";" 31.819";"*Tx_Erm_16_12";" 1.692273e-08"
" 1";"  2";" 50.00";" 31.819";"*Tx_Erm_16_16";" 1.692273e-08"
" 4";" 30";" 13.33";" 28.707";"*K_1Ko_16";" 8.419772e-08"
" 3";" 32";"  9.38";" 13.569";"*K_Flp_4";" 2.299143e-04"
"18";"635";"  2.83";" 10.008";"*L_Erromatarrei";" 1.558607e-03"
" 5";"106";"  4.72";"  7.712";"*L_Kolosarrei";" 5.485357e-03"
" 2";" 26";"  7.69";"  6.800";"*L_Filemoni";" 9.113803e-03"
" 2";" 26";"  7.69";"  6.800";"*K_Flm_1";" 9.113803e-03"
" 2";" 28";"  7.14";"  6.086";"*K_2Tm_4";" 1.362779e-02"
" 1";" 15";"  6.67";"  2.720";"*K_Tt_3";" 9.912399e-02"
"**";"classe";"9";"**";"";""
"****";"2559";"2663";"96.09";"****";""
"1132";"1149";" 98.52";"31.690";"ukan";"1.808523e-08"
" 330";" 331";" 99.70";"13.077";"jain";"2.989861e-04"
" 540";" 547";" 98.72";"12.646";"egin";"3.763342e-04"
" 199";" 199";"100.00";" 8.741";"on";"3.111837e-03"
" 204";" 205";" 99.51";" 6.912";"jaun";"8.561026e-03"
" 266";" 269";" 98.88";" 6.207";"jainko";"1.272414e-02"
" 253";" 256";" 98.83";" 5.639";"eman";"1.756416e-02"
" 313";" 318";" 98.43";" 5.238";"kristo";"2.210264e-02"
" 110";" 110";"100.00";" 4.663";"berri";"3.081724e-02"
" 184";" 186";" 98.92";" 4.268";"bezala";"3.884194e-02"
" 100";" 100";"100.00";" 4.223";"lege";"3.988770e-02"
"  94";"  94";"100.00";" 3.960";"bete";"4.659300e-02"
"  89";"  89";"100.00";" 3.742";"sinesmen";"5.305764e-02"
"  89";"  89";"100.00";" 3.742";"horrela";"5.305764e-02"
"  87";"  87";"100.00";" 3.655";"agertu";"5.589544e-02"
"  86";"  86";"100.00";" 3.612";"bide";"5.737255e-02"
" 238";" 242";" 98.35";" 3.599";"egon";"5.782314e-02"
"  84";"  84";"100.00";" 3.525";"gauza";"6.044892e-02"
" 163";" 165";" 98.79";" 3.400";"bizi";"6.520404e-02"
" 121";" 122";" 99.18";" 3.244";"behar";"7.168838e-02"
"  77";"  77";"100.00";" 3.223";"egia";"7.263147e-02"
"  76";"  76";"100.00";" 3.179";"bekatu";"7.457003e-02"
" 117";" 118";" 99.15";" 3.076";"espiritu";"7.943225e-02"
"  72";"  72";"100.00";" 3.007";"gorputz";"8.288227e-02"
"  70";"  70";"100.00";" 2.922";"maitasun";"8.739789e-02"
" 151";" 153";" 98.69";" 2.920";"nahi";"8.749395e-02"
"  69";"  69";"100.00";" 2.879";"hitz";"8.975220e-02"
"  68";"  68";"100.00";" 2.836";"hil";"9.217358e-02"
"  67";"  67";"100.00";" 2.793";"mundu";"9.466414e-02"
"  66";"  66";"100.00";" 2.750";"alde";"9.722612e-02"
"  64";"  64";"100.00";" 2.665";"giza";"1.025736e-01"
"  59";"  59";"100.00";" 2.452";"ikusi";"1.173648e-01"
"  55";"  55";"100.00";" 2.282";"jarri";"1.308503e-01"
"  55";"  55";"100.00";" 2.282";"gertatu";"1.308503e-01"
"  53";"  53";"100.00";" 2.198";"zeuen";"1.382163e-01"
"  53";"  53";"100.00";" 2.198";"hala";"1.382163e-01"
"  52";"  52";"100.00";" 2.155";"ongi";"1.420681e-01"
"  52";"  52";"100.00";" 2.155";"horregatik";"1.420681e-01"
" 128";" 130";" 98.46";" 2.040";"hartu";"1.531856e-01"
"  49";"  49";"100.00";" 2.029";"piztu";"1.543493e-01"
"  49";"  49";"100.00";" 2.029";"liburu";"1.543493e-01"
"*****";"*";"*";"*";"*";"*"
" 343";" 349";" 98.28";"5.115";"bera";"0.02372067"
"1388";"1433";" 96.86";"4.839";"izan";"0.02781636"
" 764";" 785";" 97.32";"4.489";"ez";"0.03411501"
" 240";" 244";" 98.36";"3.675";"gu";"0.05522413"
" 169";" 171";" 98.83";"3.644";"zuek";"0.05625977"
"  75";"  75";"100.00";"3.136";"bai";"0.07656271"
" 190";" 193";" 98.45";"3.065";"baina";"0.08001866"
" 221";" 225";" 98.22";"2.964";"bat";"0.08511652"
" 236";" 241";" 97.93";"2.366";"hau";"0.12397697"
"  96";"  97";" 98.97";"2.216";"arte";"0.13655840"
"  49";"  49";"100.00";"2.029";"zer";"0.15434932"
"*";"*";"*";"*";"*";"*"
"363";"368";" 98.64";"7.379";"*L_Korintoarrei2";"0.006597472"
"147";"148";" 99.32";"4.356";"*L_Efesoarrei";"0.036885634"
"208";"212";" 98.11";"2.501";"*L_Galaziarrei";"0.113782538"
"103";"104";" 99.04";"2.499";"*L_Tesalonikarrei1";"0.113905066"
" 57";" 57";"100.00";"2.367";"*K_Erm_11";"0.123909245"
" 51";" 51";"100.00";"2.113";"*K_Erm_8";"0.146038020"
"**";"classe";"10";"**";"";""
"****";"7";"2663";"0.26";"****";""
"4";" 5";"80.00";"1214.853";"engain";"3.608752e-266"
"3";"10";"30.00";" 338.570";"arrazoi";" 1.307067e-75"
"2";" 9";"22.22";" 166.100";"begira";" 5.261720e-38"
"1";" 3";"33.33";" 125.288";"pentsaera";" 4.402998e-29"
"1";" 3";"33.33";" 125.288";"egunero";" 4.402998e-29"
"1";" 4";"25.00";"  93.504";"argudio";" 4.054785e-22"
"1";" 5";"20.00";"  74.434";"maltzur";" 6.270285e-18"
"1";" 7";"14.29";"  52.642";"hutsal";" 4.002939e-13"
"1";" 7";"14.29";"  52.642";"gorabehera";" 4.002939e-13"
"1";"11";" 9.09";"  32.835";"diotsuet";" 1.003266e-08"
"1";"11";" 9.09";"  32.835";"aitzakan";" 1.003266e-08"
"1";"18";" 5.56";"  19.364";"beza";" 1.080427e-05"
"1";"77";" 1.30";"   3.245";"gero";" 7.163511e-02"
"1";"89";" 1.12";"   2.602";"buru";" 1.067291e-01"
"*****";"*";"*";"*";"*";"*"
"2";"  6";"33.33";"250.858";"zaitzatu";"1.688108e-56"
"4";" 68";" 5.88";" 84.053";"inor";"4.816983e-20"
"4";"785";" 0.51";"  2.584";"ez";"1.079560e-01"
"*";"*";"*";"*";"*";"*"
"1";"  2";"50.00";"188.857";"*Tx_2Ts_2_3";"5.645868e-43"
"1";"  2";"50.00";"188.857";"*Tx_2Ko_6_2";"5.645868e-43"
"1";"  2";"50.00";"188.857";"*Tx_1Ko_3_18";"5.645868e-43"
"1";"  2";"50.00";"188.857";"*Tx_1Ko_6_3";"5.645868e-43"
"1";"  2";"50.00";"188.857";"*Tx_Kol_2_8";"5.645868e-43"
"1";"  2";"50.00";"188.857";"*Tx_2Tm_1_12";"5.645868e-43"
"2";" 28";" 7.14";" 51.091";"*K_Kol_2";"8.819894e-13"
"1";" 18";" 5.56";" 19.364";"*K_2Ts_2";"1.080427e-05"
"1";" 23";" 4.35";" 14.767";"*K_2Tm_1";"1.216554e-04"
"1";" 27";" 3.70";" 12.318";"*K_2Ko_6";"4.486447e-04"
"2";"106";" 1.89";" 11.104";"*L_Kolosarrei";"8.612008e-04"
"1";" 30";" 3.33";" 10.911";"*K_1Ko_6";"9.559039e-04"
"1";" 35";" 2.86";"  9.105";"*K_1Ko_3";"2.549576e-03"
"1";" 56";" 1.79";"  5.060";"*L_Tesalonikarrei2";"2.448428e-02"
"1";" 96";" 1.04";"  2.304";"*L_Timoteori2";"1.290378e-01"
