"";"";"";"";"*zein_Juan14-15-21";""
"1";"*zein_Juan14-15-21";"0.796925806945805";"-0.686210140781638";"0.974129924341247";"24"
"2";"*zein_Juan1-1-18";"1.01674412772095";"-0.628986473797169";"0.955763109835638";"27"
"3";"*zein_Juan2-13-22";"-1.25658525768618";"0.0906632385020194";"0.933576832768067";"32"
"4";"*zein_Juan2-13-25";"-1.14055381555965";"0.0667715841518555";"0.925927471954083";"36"
"5";"*zein_Juan14-27-31a";"0.576128409584104";"-1.23120518309729";"0.917182363683799";"39"
"6";"*zein_Juan5-31-47";"0.782391099394681";"-0.417686117219199";"0.904377771980172";"41"
"7";"*zein_Juan3-16-21";"0.729883482748837";"-0.617086669159551";"0.901466214453431";"43"
"8";"*zein_Juan12-1-11";"-1.05891232987748";"0.497094721149025";"0.89996347508479";"44"
"9";"*zein_Juan3-14-21";"0.745525078884169";"-0.587115975317858";"0.884362118445082";"49"
"10";"*zein_Juan8-31-42";"0.75119606552269";"-0.400047043404556";"0.882441951474041";"50"
"11";"*egutegia_NavidadYOct";"0.228566095376588";"-0.392160233757741";"0.881617531959301";"51"
"12";"*zein_Juan3-31-36";"0.619256390026018";"-0.295585173492298";"0.88027132794156";"53"
"13";"*egutegia_SemanaDeCua";"-0.152546467586978";"-0.0367471278409059";"0.875627445864858";"57"
"14";"*zein_Juan20-11-18";"-0.957716391602701";"0.0291241288122032";"0.863532481085312";"58"
"15";"*zein_Juan14-6-14";"0.757172028374067";"-0.437782029400593";"0.861351421862771";"59"
"16";"*zein_Juan1-35-42";"-0.869813783931089";"0.0110243906681396";"0.861226193582051";"60"
"17";"*zein_Juan14-1-12";"0.819688592735374";"-0.860317821196206";"0.86012001043569";"61"
"18";"*egutegia_SemanaSanta";"-0.387010093790636";"0.242505581299382";"0.857646751891469";"62"
"19";"*zein_Juan16-29-33";"0.556406025540815";"-0.282643860719292";"0.856957996347509";"63"
"20";"*zein_Juan17-20-26";"0.556406025540815";"-0.282643860719292";"0.856957996347509";"64"
"21";"*zein_Juan4-5-42";"0.147335413164518";"0.132352749334877";"0.856707539786068";"65"
"22";"*zein_Juan9-1-41";"-0.139817618309638";"-0.17033920411523";"0.854432559352987";"66"
"23";"*zein_Juan21-20-25";"-1.01485308658925";"0.0408889586058445";"0.852136707539786";"67"
"24";"*zein_Juan15-26-16-4a";"0.511512908051385";"-0.273400065881431";"0.845551787111923";"68"
"25";"*egutegia_TiempoDeNav";"-0.411958278928682";"0.0346001885819758";"0.843088964257762";"69"
"26";"*zein_Juan19-25-27";"-1.14055381555965";"0.0667715841518555";"0.841607096269241";"71"
"27";"*zein_Juan14-7-14";"0.738257725108607";"-0.452853963536638";"0.841471432298461";"72"
"28";"*zein_Juan11-45-57";"-0.637750899678033";"-0.0367589180321883";"0.836055309157318";"73"
"29";"*zein_Juan1-43-51";"-0.687114470515171";"-0.0990122348327278";"0.835324810853118";"75"
"30";"*zein_Juan16-12-15";"0.451655418065477";"-0.261075006097617";"0.834427341507957";"76"
"31";"*zein_Juan15-1-8";"0.455619429215784";"-0.334308830705555";"0.832173232454996";"77"
"32";"*zein_Juan14-1-6";"0.614231844610156";"-0.394124796866045";"0.827550221758414";"80"
"33";"*zein_Juan19-31-37";"-0.728250779546119";"-0.150889998833177";"0.823793373336812";"82"
"34";"*zein_Juan3-16-18";"0.367854932085207";"-0.243819922400276";"0.823720323506392";"83"
"35";"*zein_Juan3-13-17";"0.367854932085207";"-0.243819922400276";"0.823720323506392";"84"
"36";"*zein_Juan17-11b-19";"0.711777700536962";"-0.473954671327102";"0.823469866944952";"85"
"37";"*zein_Juan15-18-21";"0.577599558416345";"-0.400806850049149";"0.818439864336029";"86"
"38";"*zein_Juan21-15-19";"0.0405810104647405";"-0.32126723682679";"0.816905817897209";"87"
"39";"*zein_Juan7-1-21025-30";"-0.500622831710319";"-0.0649945095369275";"0.815340464388208";"89"
"40";"*zein_Juan8-12-20";"0.227072649269593";"-0.287249511530989";"0.813764675189147";"90"
"41";"*zein_Juan8-51-59";"0.132700019883929";"-0.256676381929946";"0.812554135142186";"91"
"42";"*zein_Juan4-43-54";"-0.3277086476228";"0.256592799248218";"0.812303678580746";"93"
"43";"*zein_Juan13-21-3336-38";"-0.116731300424759";"0.446711552421537";"0.811969736498826";"94"
"44";"*zein_Juan1-47-51";"-0.637750899678033";"-0.0367589180321883";"0.811907122358466";"95"
"45";"*zein_Juan12-20-33";"0.0973515752811809";"-0.0435439413756879";"0.808964257761545";"96"
"46";"*zein_Juan13-16-20";"0.359435791343648";"0.472296639890591";"0.808703365510044";"97"
"47";"*zein_Juan6-22-29";"-0.134947983796413";"-0.140289420216232";"0.807774589094704";"98"
"48";"*zein_Juan13-1-17";"-0.24668196510344";"-0.117282641953111";"0.806365770936603";"99"
"49";"*zein_Juan1-45-51";"-0.328523622667883";"-0.200005105270963";"0.806115314375163";"100"
"50";"*zein_Juan1-19-28";"-0.206776971779502";"-0.125499348475654";"0.803381163579442";"101"
"51";"*zein_Juan1-6-819-28";"0.0840537162257632";"-0.273893753074694";"0.803151578398122";"102"
"52";"*egutegia_SemanaDeAdv";"0.0840537162257632";"-0.273893753074694";"0.803151578398122";"103"
"53";"*zein_Juan18-33-37";"-0.00147413067659806";"-0.240190192356424";"0.803057657187582";"104"
