"";"Coord. facteur 1";"Coord. facteur 2";"Coord. facteur 3";"Coord. facteur 4";"Coord. facteur 5";"Coord. facteur 6";"Coord. facteur 7";"Corr. facteur 1";"Corr. facteur 2";"Corr. facteur 3";"Corr. facteur 4";"Corr. facteur 5";"Corr. facteur 6";"Corr. facteur 7";"COR -facteur 1";"COR -facteur 2";"COR -facteur 3";"COR -facteur 4";"COR -facteur 5";"COR -facteur 6";"COR -facteur 7";"CTR -facteur 1";"CTR -facteur 2";"CTR -facteur 3";"CTR -facteur 4";"CTR -facteur 5";"CTR -facteur 6";"CTR -facteur 7";"mass";"chi.distance";"inertie"
"classe 1";-1,25639254115849;0,113022472433021;-0,0365046299162531;0,0466587295662899;-0,10732266621696;0,152107760597444;0,0856643801575938;-0,982036529802195;0,0883419735327662;-0,0285331844230905;0,0364699529543595;-0,0838868229857846;0,118892282849244;0,0669580150006694;0,976824644852635;0,00595659652293546;0,00059988477831735;0,000939738349613154;0,00458917234590805;0,00852268057496239;0,00256728257562855;0,598650893672186;0,00484453996850082;0,000505380913521402;0,000825636255201299;0,00436823347725509;0,00877456673278097;0,00278306589859836;0,379247683081955;0,971875304449498;0,358215216180503
"classe 2";-0,114560850442108;1,98192637970341;5,70228740018438;-10,841248529678;2,70954233112792;-1,96680314476759;-0,746815816362096;-0,00889814617201075;0,153939767038278;0,442906862212031;-0,842059165342178;0,210454999492262;-0,152765118329462;-0,0580065203070187;0,000113181729201329;0,0255259298135537;0,203989636782638;0,707029752703744;0,0407644230215251;0,0198578951097145;0,00271918083962157;7,87022022501595e-05;0,0235553446775615;0,194990131312366;0,704811575415973;0,0440257038447656;0,0231972346245382;0,00334457886566659;0,00599672905687807;8,23268631187648;0,406441048341273
"classe 3";1,38296310468205;3,43411626657323;-1,3767775517794;-0,492704724926809;-0,854645530600229;1,27041747314868;0,43401056441093;0,322608730039995;0,801088535057905;-0,321165804079235;-0,114934986374699;-0,199366207477159;0,296354809644282;0,101243190461499;0,137746184026976;0,640016315533286;0,0993097695505275;0,0121957093213961;0,0338700620443717;0,0691924745504884;0,00766948497295232;0,0987051959823654;0,608623639321346;0,097824216843861;0,0125283039531378;0,0376956189650891;0,0832936212842339;0,0097211899483488;0,0516082137016173;2,84881539169086;0,418839315756037
"classe 4";1,41184453371302;-2,33797685930586;4,07963295811326;-1,39836882358813;-13,8287672598089;-1,27998253830259;-0,434234445831993;0,095377485152622;-0,15794256935583;0,275600551334986;-0,0944671304275322;-0,934205581780847;-0,0864695174485729;-0,0293348087704651;0,0138624018478578;0,0286449332646185;0,0842001658928034;0,0094860065116447;0,856282794457105;0,00678235282025809;0,000741345205714194;0,00905553783107098;0,0248325267792554;0,0756105990956022;0,00888349703245165;0,868775231355448;0,00744300971451726;0,000856621633413675;0,00454297655824096;9,16771568002688;0,381823599808335
"classe 5";1,01931821384777;-0,82240455804261;1,77153899669364;0,479693757191804;0,531627796636684;2,29717294703317;1,44213208879981;0,285766781624061;-0,23056186042006;0,496652557296758;0,134482577958062;0,149042332809178;0,644014509884513;0,404303033237718;0,122364516531663;0,0600218827680118;0,26887064951179;0,0189033721568678;0,0214307239546282;0,369939643066337;0,138469212010701;0,075711949491878;0,0492851266750488;0,228689536096552;0,016767680606252;0,0205949252729178;0,384531786840089;0,151549651023076;0,072869343994185;2,22779659894849;0,361656215191871
"classe 6";0,786269013301948;-5,26669044614099;-6,33289983285799;-4,98076852894318;-0,633737161372437;3,33848953273902;0,0993241075235537;0,0767953176918404;-0,514400490358197;-0,61853773498278;-0,486474342824982;-0,0618974496226669;0,326072069406505;0,00970103903713246;0,00825411293369576;0,279065621981607;0,389528605713145;0,231044708197977;0,00345248647605015;0,0885800009929254;7,44637045957743e-05;0,00584179283781548;0,262107481243792;0,378973697117329;0,234421018939372;0,00379509087127539;0,10531830687458;9,32208746934806e-05;0,0094493912411412;6,61651739476832;0,413678307583887
"classe 7";0,772691325591369;-0,54174554478281;-1,91598277021122;-0,649585738501759;-0,0222694362979652;-6,27186720882488;11,0198579762764;0,0600163173930977;-0,0420783454985701;-0,148817808933855;-0,0504544862414679;-0,00172970695122164;-0,487147144772348;0,855932080543148;0,00622891437017084;0,00230724466965872;0,0278605392890535;0,00307077836375025;3,3312274535973e-06;0,244287673683746;0,716241518396167;0,00358035838510937;0,00175996942842755;0,0220139322550658;0,00253038957749244;2,9739446065712e-06;0,23588924285106;0,72822640450136;0,00599672905687807;7,48502676870923;0,335970497734635
"classe 8";0,665642465301648;-0,230522154084168;-0,0544146969733032;0,202222137397657;0,210012556797199;-0,567673717572529;-0,468954757732968;0,62719686205493;-0,217207854385031;-0,051271859850257;0,190542365647262;0,197882832724088;-0,534886508737389;-0,441869273413256;0,516197941459322;0,0466511370161172;0,0025094161608188;0,0332327929789764;0,0330834128145775;0,223480358804936;0,144844940765254;0,208375569597323;0,0249913719060675;0,00139250636570058;0,0192318982201191;0,0207422222686428;0,151552231078199;0,103425267254843;0,470288933309104;0,708314916273212;0,235948670425577
