"V1";"V2";"V3";"V4";"V5";"V6"
"***";"nb classes";"8";"***";"";""
"**";"classe";"1";"**";"";""
"****";"422";"1141";"36.99";"****";""
"168";"182";" 92.31";"284.363";"jesús";"8.410142e-64"
" 88";" 94";" 93.62";"140.968";"discípulo";"1.635401e-32"
"143";"195";" 73.33";"133.329";"decir";"7.659228e-31"
" 74";" 75";" 98.67";"131.048";"tiempo";"2.416896e-30"
" 45";" 50";" 90.00";" 63.060";"judío";"2.004641e-15"
" 27";" 27";"100.00";" 47.117";"pedro";"6.686194e-12"
" 26";" 27";" 96.30";" 41.741";"preguntar";"1.041769e-10"
" 23";" 24";" 95.83";" 36.428";"allí";"1.583758e-09"
" 23";" 25";" 92.00";" 33.193";"echar";"8.343222e-09"
" 19";" 19";"100.00";" 32.920";"templo";"9.601900e-09"
" 20";" 22";" 90.91";" 27.988";"simón";"1.220686e-07"
" 15";" 15";"100.00";" 25.897";"maría";"3.600673e-07"
" 15";" 16";" 93.75";" 22.436";"sepulcro";"2.172787e-06"
" 14";" 15";" 93.33";" 20.708";"hermano";"5.350417e-06"
" 14";" 15";" 93.33";" 20.708";"galilea";"5.350417e-06"
" 11";" 11";"100.00";" 18.924";"todavía";"1.360200e-05"
" 11";" 11";"100.00";" 18.924";"acercar";"1.360200e-05"
" 26";" 37";" 70.27";" 18.178";"llegar";"2.011732e-05"
" 10";" 10";"100.00";" 17.189";"lázaro";"3.384686e-05"
" 10";" 10";"100.00";" 17.189";"fariseos";"3.384686e-05"
" 13";" 15";" 86.67";" 16.098";"pie";"6.016273e-05"
"  9";"  9";"100.00";" 15.456";"sacerdote";"8.444674e-05"
"  9";"  9";"100.00";" 15.456";"pez";"8.444674e-05"
"  9";"  9";"100.00";" 15.456";"lago";"8.444674e-05"
" 14";" 17";" 82.35";" 15.240";"gente";"9.466010e-05"
" 12";" 14";" 85.71";" 14.441";"jerusalén";"1.446174e-04"
" 10";" 11";" 90.91";" 13.858";"levantar";"1.971780e-04"
"  8";"  8";"100.00";" 13.727";"tomás";"2.114415e-04"
"  8";"  8";"100.00";" 13.727";"red";"2.114415e-04"
"  8";"  8";"100.00";" 13.727";"nicodemo";"2.114415e-04"
"  8";"  8";"100.00";" 13.727";"enfermo";"2.114415e-04"
"  8";"  8";"100.00";" 13.727";"barca";"2.114415e-04"
" 13";" 16";" 81.25";" 13.643";"muerto";"2.210930e-04"
" 14";" 18";" 77.78";" 13.058";"llevar";"3.020107e-04"
" 14";" 18";" 77.78";" 13.058";"encontrar";"3.020107e-04"
" 11";" 13";" 84.62";" 12.800";"primero";"3.465854e-04"
"  9";" 10";" 90.00";" 12.166";"fiesta";"4.866779e-04"
"  9";" 10";" 90.00";" 12.166";"dos";"4.866779e-04"
"  9";" 10";" 90.00";" 12.166";"andar";"4.866779e-04"
"  7";"  7";"100.00";" 12.000";"natanael";"5.319596e-04"
"  7";"  7";"100.00";" 12.000";"marta";"5.319596e-04"
"  7";"  7";"100.00";" 12.000";"judas";"5.319596e-04"
"  7";"  7";"100.00";" 12.000";"aparecer";"5.319596e-04"
" 13";" 17";" 76.47";" 11.544";"vez";"6.795184e-04"
" 11";" 14";" 78.57";" 10.518";"junto";"1.182364e-03"
" 11";" 14";" 78.57";" 10.518";"felipe";"1.182364e-03"
"  8";"  9";" 88.89";" 10.486";"orilla";"1.202826e-03"
" 18";" 27";" 66.67";" 10.454";"quedar";"1.224076e-03"
"  6";"  6";"100.00";" 10.277";"suelo";"1.347141e-03"
"  6";"  6";"100.00";" 10.277";"pascua";"1.347141e-03"
"  6";"  6";"100.00";" 10.277";"vi";"1.347141e-03"
"  6";"  6";"100.00";" 10.277";"sentar";"1.347141e-03"
"  6";"  6";"100.00";" 10.277";"higuera";"1.347141e-03"
"  6";"  6";"100.00";" 10.277";"debajo";"1.347141e-03"
"  6";"  6";"100.00";" 10.277";"año";"1.347141e-03"
" 10";" 13";" 76.92";"  9.000";"tomar";"2.700426e-03"
"  7";"  8";" 87.50";"  8.821";"tres";"2.977939e-03"
"  7";"  8";" 87.50";"  8.821";"resucitar";"2.977939e-03"
"  5";"  5";"100.00";"  8.556";"vendar|vender";"3.442996e-03"
"  5";"  5";"100.00";"  8.556";"correr";"3.442996e-03"
"  5";"  5";"100.00";"  8.556";"sumos";"3.442996e-03"
"  5";"  5";"100.00";"  8.556";"seis";"3.442996e-03"
"  5";"  5";"100.00";"  8.556";"mellizo";"3.442996e-03"
"  5";"  5";"100.00";"  8.556";"marchar";"3.442996e-03"
"  5";"  5";"100.00";"  8.556";"judea";"3.442996e-03"
"  5";"  5";"100.00";"  8.556";"empezar";"3.442996e-03"
"  5";"  5";"100.00";"  8.556";"después";"3.442996e-03"
"  5";"  5";"100.00";"  8.556";"coger";"3.442996e-03"
"  5";"  5";"100.00";"  8.556";"cerrado";"3.442996e-03"
"  5";"  5";"100.00";"  8.556";"caná";"3.442996e-03"
"  5";"  5";"100.00";"  8.556";"cama";"3.442996e-03"
"  5";"  5";"100.00";"  8.556";"betania";"3.442996e-03"
"  5";"  5";"100.00";"  8.556";"andrés";"3.442996e-03"
" 12";" 17";" 70.59";"  8.361";"ojo";"3.833613e-03"
"  6";"  7";" 85.71";"  7.176";"sábado";"7.388767e-03"
"  6";"  7";" 85.71";"  7.176";"llenar";"7.388767e-03"
" 15";" 24";" 62.50";"  6.848";"llamar";"8.874242e-03"
" 15";" 24";" 62.50";"  6.848";"juan";"8.874242e-03"
"  4";"  4";"100.00";"  6.839";"llorar";"8.918167e-03"
"  4";"  4";"100.00";"  6.839";"vista";"8.918167e-03"
"  4";"  4";"100.00";"  6.839";"tiberíades";"8.918167e-03"
"  4";"  4";"100.00";"  6.839";"semana";"8.918167e-03"
"  4";"  4";"100.00";"  6.839";"sano";"8.918167e-03"
"  4";"  4";"100.00";"  6.839";"piedra";"8.918167e-03"
"  4";"  4";"100.00";"  6.839";"perfume";"8.918167e-03"
"  4";"  4";"100.00";"  6.839";"magdalena";"8.918167e-03"
"  4";"  4";"100.00";"  6.839";"iscariote";"8.918167e-03"
"  4";"  4";"100.00";"  6.839";"estado";"8.918167e-03"
"  4";"  4";"100.00";"  6.839";"embarcar";"8.918167e-03"
"  4";"  4";"100.00";"  6.839";"cuerpo";"8.918167e-03"
"  4";"  4";"100.00";"  6.839";"cuatro";"8.918167e-03"
"  4";"  4";"100.00";"  6.839";"cambista";"8.918167e-03"
"  4";"  4";"100.00";"  6.839";"cafarnaún";"8.918167e-03"
"  4";"  4";"100.00";"  6.839";"buey";"8.918167e-03"
"  4";"  4";"100.00";"  6.839";"barro";"8.918167e-03"
"  4";"  4";"100.00";"  6.839";"amanecer";"8.918167e-03"
"  5";"  6";" 83.33";"  5.560";"cerca";"1.838045e-02"
"  5";"  6";" 83.33";"  5.560";"cinco";"1.838045e-02"
" 19";" 34";" 55.88";"  5.370";"día";"2.049035e-02"
"  3";"  3";"100.00";"  5.125";"vender";"2.358562e-02"
"  3";"  3";"100.00";"  5.125";"tercero";"2.358562e-02"
"  3";"  3";"100.00";"  5.125";"sudario";"2.358562e-02"
"  3";"  3";"100.00";"  5.125";"samaría";"2.358562e-02"
"  3";"  3";"100.00";"  5.125";"retirar";"2.358562e-02"
"  3";"  3";"100.00";"  5.125";"recoger";"2.358562e-02"
"  3";"  3";"100.00";"  5.125";"presentar";"2.358562e-02"
"  3";"  3";"100.00";"  5.125";"pierna";"2.358562e-02"
"  3";"  3";"100.00";"  5.125";"ocho";"2.358562e-02"
"  3";"  3";"100.00";"  5.125";"enterar";"2.358562e-02"
"  3";"  3";"100.00";"  5.125";"derecha";"2.358562e-02"
"  3";"  3";"100.00";"  5.125";"cien";"2.358562e-02"
"  3";"  3";"100.00";"  5.125";"celebrar";"2.358562e-02"
"  3";"  3";"100.00";"  5.125";"asomar";"2.358562e-02"
"  3";"  3";"100.00";"  5.125";"apodar";"2.358562e-02"
"  3";"  3";"100.00";"  5.125";"adelantar";"2.358562e-02"
"  6";"  8";" 75.00";"  4.996";"madre";"2.541257e-02"
"  6";"  8";" 75.00";"  4.996";"acudir";"2.541257e-02"
" 19";" 35";" 54.29";"  4.637";"querer";"3.128685e-02"
" 11";" 18";" 61.11";"  4.568";"casa";"3.258392e-02"
"  4";"  5";" 80.00";"  3.987";"paloma";"4.585292e-02"
"  4";"  5";" 80.00";"  3.987";"mesa";"4.585292e-02"
"  4";"  5";" 80.00";"  3.987";"doce";"4.585292e-02"
"  4";"  5";" 80.00";"  3.987";"cabeza";"4.585292e-02"
"  4";"  5";" 80.00";"  3.987";"buscar";"4.585292e-02"
" 13";" 23";" 56.52";"  3.844";"salir";"4.991956e-02"
" 13";" 23";" 56.52";"  3.844";"oír";"4.991956e-02"
" 11";" 19";" 57.89";"  3.625";"tanto";"5.692863e-02"
"  5";"  7";" 71.43";"  3.585";"cosa";"5.829611e-02"
"  5";"  7";" 71.43";"  3.585";"acordar";"5.829611e-02"
"  9";" 15";" 60.00";"  3.455";"ciego";"6.307938e-02"
"  6";"  9";" 66.67";"  3.429";"puerta";"6.405543e-02"
"  6";"  9";" 66.67";"  3.429";"enseñar";"6.405543e-02"
"  9";" 16";" 56.25";"  2.584";"subir";"1.079388e-01"
"  3";"  4";" 75.00";"  2.489";"jordán";"1.146454e-01"
"  3";"  4";" 75.00";"  2.489";"bautizando";"1.146454e-01"
"  3";"  4";" 75.00";"  2.489";"acabar";"1.146454e-01"
"  8";" 14";" 57.14";"  2.471";"mujer";"1.159510e-01"
"  8";" 14";" 57.14";"  2.471";"entrar";"1.159510e-01"
" 12";" 23";" 52.17";"  2.324";"seguir";"1.274301e-01"
"  6";" 10";" 60.00";"  2.293";"sitio";"1.299731e-01"
"  4";"  6";" 66.67";"  2.280";"noche";"1.310475e-01"
"  5";"  8";" 62.50";"  2.250";"sólo";"1.335782e-01"
"*****";"*";"*";"*";"*";"*"
" 86";" 96";" 89.58";"124.426";"aquel";"6.795050e-29"
"113";"170";" 66.47";" 74.518";"se";"6.008415e-18"
"202";"399";" 50.63";" 48.990";"a";"2.572825e-12"
" 21";" 25";" 84.00";" 24.242";"entonces";"8.497406e-07"
" 36";" 59";" 61.02";" 15.418";"otro";"8.618524e-05"
" 14";" 17";" 82.35";" 15.240";"entre";"9.466010e-05"
"128";"279";" 45.88";" 12.532";"él";"4.000897e-04"
" 18";" 28";" 64.29";"  9.180";"mucho";"2.447289e-03"
" 30";" 53";" 56.60";"  9.179";"cuando";"2.447895e-03"
"143";"331";" 43.20";"  7.733";"en";"5.421179e-03"
"211";"515";" 40.97";"  6.398";"y";"1.142212e-02"
" 15";" 25";" 60.00";"  5.809";"donde";"1.594337e-02"
" 35";" 70";" 50.00";"  5.420";"con";"1.990644e-02"
"  3";"  3";"100.00";"  5.125";"demás";"2.358562e-02"
"  3";"  3";"100.00";"  5.125";"cincuenta";"2.358562e-02"
"*";"*";"*";"*";"*";"*"
" 34";" 39";" 87.18";"43.652";"*egutegia_OctavaDePas";"3.921802e-11"
" 17";" 18";" 94.44";"25.908";"*zein_Juan5-1-3a5-16";"3.581288e-07"
" 16";" 18";" 88.89";"21.140";"*zein_Juan21-1-19";"4.269073e-06"
" 16";" 18";" 88.89";"21.140";"*zein_Juan21-1-14";"4.269073e-06"
" 10";" 10";"100.00";"17.189";"*zein_Juan20-1-9";"3.384686e-05"
" 16";" 20";" 80.00";"16.161";"*zein_Juan6-1-15";"5.816878e-05"
"  8";"  8";"100.00";"13.727";"*zein_Juan20-2-8";"2.114415e-04"
" 11";" 13";" 84.62";"12.800";"*zein_Juan2-13-22";"3.465854e-04"
" 12";" 15";" 80.00";"12.067";"*zein_Juan8-1-11";"5.131689e-04"
" 12";" 15";" 80.00";"12.067";"*zein_Juan2-13-25";"5.131689e-04"
" 30";" 50";" 60.00";"11.884";"*zein_Juan11-1-45";"5.660461e-04"
"  9";" 11";" 81.82";" 9.579";"*zein_Juan12-1-11";"1.967994e-03"
"  5";"  5";"100.00";" 8.556";"*zein_Juan6-16-21";"3.442996e-03"
"162";"382";" 42.41";" 7.247";"*egutegia_SemanaDeCua";"7.101801e-03"
"  8";" 11";" 72.73";" 6.088";"*zein_Juan20-11-18";"1.360846e-02"
"  9";" 13";" 69.23";" 5.867";"*zein_Juan1-35-42";"1.543010e-02"
" 25";" 47";" 53.19";" 5.524";"*egutegia_SemanaSanta";"1.875528e-02"
"  6";"  8";" 75.00";" 4.996";"*zein_Juan21-20-25";"2.541257e-02"
"  6";"  8";" 75.00";" 4.996";"*egutegia_FinDelTiemp";"2.541257e-02"
"  6";"  8";" 75.00";" 4.996";"*zein_Juan20-19-23";"2.541257e-02"
" 20";" 38";" 52.63";" 4.129";"*egutegia_TiempoDeNav";"4.215141e-02"
"  4";"  5";" 80.00";" 3.987";"*zein_Juan19-25-27";"4.585292e-02"
"  9";" 15";" 60.00";" 3.455";"*zein_Juan11-45-57";"6.307938e-02"
"  8";" 13";" 61.54";" 3.402";"*zein_Juan2-1-11";"6.513677e-02"
"  7";" 11";" 63.64";" 3.385";"*zein_Juan1-43-51";"6.579008e-02"
" 10";" 18";" 55.56";" 2.706";"*zein_Juan20-19-31";"9.996137e-02"
"  4";"  6";" 66.67";" 2.280";"*zein_Juan19-31-37";"1.310475e-01"
"**";"classe";"2";"**";"";""
"****";"8";"1141";"0.7";"****";""
"6";" 9";"66.67";"566.979";"traer";"2.549208e-125"
"4";" 5";"80.00";"453.589";"dedo";"1.194087e-100"
"4";" 9";"44.44";"249.320";"costado";" 3.654165e-56"
"6";"22";"27.27";"227.491";"mano";" 2.101249e-51"
"2";" 3";"66.67";"187.997";"señal";" 8.702247e-43"
"2";" 4";"50.00";"140.123";"meter";" 2.501802e-32"
"2";"13";"15.38";" 40.722";"aquí";" 1.755006e-10"
"2";"19";"10.53";" 26.790";"mis";" 2.267661e-07"
"2";"62";" 3.23";"  6.002";"crear|creer";" 1.428748e-02"
"1";"22";" 4.55";"  4.762";"comer";" 2.909876e-02"
"*****";"*";"*";"*";"*";"*"
"4";"111";"3.60";"14.878";"tú";"0.0001146678"
"2";" 70";"2.86";" 4.979";"tener";"0.0256564006"
"2";" 84";"2.38";" 3.675";"si";"0.0552326043"
"1";" 28";"3.57";" 3.397";"qué";"0.0653288392"
"*";"*";"*";"*";"*";"*"
"3";"  9";"33.33";"138.748";"*zein_Juan20-24-29";"5.001268e-32"
"3";" 18";"16.67";" 66.957";"*zein_Juan20-19-31";"2.774871e-16"
"1";" 13";" 7.69";"  9.231";"*zein_Juan7-40-53";"2.378907e-03"
"3";"128";" 2.34";"  5.587";"*egutegia_SemanaDelTi";"1.809052e-02"
"**";"classe";"3";"**";"";""
"****";"62";"1141";"5.43";"****";""
"29";" 44";" 65.91";"325.721";"pan";"8.219481e-73"
"18";" 22";" 81.82";"254.710";"comer";"2.442069e-57"
"15";" 17";" 88.24";"230.251";"carne";"5.254094e-52"
"12";" 17";" 70.59";"142.565";"siempre";"7.315877e-33"
" 8";" 10";" 80.00";"109.160";"sangre";"1.496754e-25"
"10";" 17";" 58.82";" 95.729";"vivir";"1.317682e-22"
" 5";"  5";"100.00";" 87.399";"coma";"8.868983e-21"
"12";" 28";" 42.86";" 78.233";"cielo";"9.156627e-19"
" 6";"  8";" 75.00";" 75.875";"vivo";"3.021657e-18"
" 5";"  6";" 83.33";" 71.231";"bajo";"3.177687e-17"
" 4";"  4";"100.00";" 69.858";"maná";"6.373745e-17"
" 4";"  4";"100.00";" 69.858";"comida";"6.373745e-17"
" 6";" 10";" 60.00";" 58.456";"beber";"2.079022e-14"
" 4";"  5";" 80.00";" 54.340";"vuestros";"1.686392e-13"
" 4";"  5";" 80.00";" 54.340";"resucitaré";"1.686392e-13"
" 5";"  8";" 62.50";" 51.058";"último";"8.968994e-13"
"15";" 58";" 25.86";" 49.626";"vida";"1.860761e-12"
" 3";"  4";" 75.00";" 37.804";"resurrección";"7.821508e-10"
" 6";" 17";" 35.29";" 29.944";"bajar";"4.446336e-08"
" 3";"  5";" 60.00";" 29.099";"servir";"6.876212e-08"
" 6";" 19";" 31.58";" 25.703";"morir";"3.981841e-07"
" 4";" 10";" 40.00";" 23.458";"desierto";"1.276968e-06"
" 2";"  3";" 66.67";" 21.948";"habitar";"2.801638e-06"
" 2";"  4";" 50.00";" 15.515";"haz";"8.184979e-05"
" 2";"  6";" 33.33";"  9.137";"modo";"2.505246e-03"
" 3";" 13";" 23.08";"  7.966";"saber|ser";"4.767033e-03"
"12";"111";" 10.81";"  6.918";"dar";"8.531262e-03"
" 5";" 34";" 14.71";"  5.863";"día";"1.546159e-02"
" 1";"  3";" 33.33";"  4.556";"elegir";"3.279717e-02"
" 1";"  3";" 33.33";"  4.556";"pobre";"3.279717e-02"
" 1";"  3";" 33.33";"  4.556";"mal";"3.279717e-02"
" 1";"  3";" 33.33";"  4.556";"condena";"3.279717e-02"
" 1";"  4";" 25.00";"  2.991";"alimento";"8.375033e-02"
" 1";"  4";" 25.00";"  2.991";"bastar";"8.375033e-02"
" 1";"  5";" 20.00";"  2.074";"paloma";"1.498668e-01"
"*****";"*";"*";"*";"*";"*"
"22";"114";"19.30";"47.379";"del";"5.852092e-12"
"17";"127";"13.39";"17.586";"para";"2.746324e-05"
"30";"299";"10.03";"16.682";"yo";"4.420043e-05"
"13";"117";"11.11";" 8.177";"mío";"4.241760e-03"
"40";"545";" 7.34";" 7.373";"que";"6.619650e-03"
"14";"142";" 9.86";" 6.181";"este";"1.291311e-02"
" 2";" 10";"20.00";" 4.166";"nuestro";"4.125411e-02"
" 5";" 42";"11.90";" 3.553";"como";"5.942798e-02"
" 2";" 11";"18.18";" 3.513";"verdadero";"6.090005e-02"
" 7";" 70";"10.00";" 3.026";"tener";"8.194416e-02"
"21";"291";" 7.22";" 2.416";"ser";"1.201182e-01"
" 1";"  5";"20.00";" 2.074";"cada";"1.498668e-01"
"*";"*";"*";"*";"*";"*"
"13";" 14";"92.86";"210.815";"*zein_Juan6-51-58";"9.119248e-48"
" 8";" 10";"80.00";"109.160";"*zein_Juan6-52-59";"1.496754e-25"
"24";"128";"18.75";" 49.751";"*egutegia_SemanaDelTi";"1.745373e-12"
" 6";" 14";"42.86";" 38.631";"*zein_Juan6-41-51";"5.120757e-10"
" 4";"  7";"57.14";" 36.649";"*zein_Juan6-30-35";"1.414353e-09"
" 5";" 11";"45.45";" 34.620";"*zein_Juan6-44-51";"4.007564e-09"
" 4";" 14";"28.57";" 14.767";"*zein_Juan6-24-35";"1.216629e-04"
" 1";"  4";"25.00";"  2.991";"*zein_Juan10-27-30";"8.375033e-02"
"**";"classe";"4";"**";"";""
"****";"8";"1141";"0.7";"****";""
"5";"  5";"100.00";"711.242";"améis";"1.074335e-156"
"4";"  8";" 50.00";"281.236";"nuevo";" 4.038845e-63"
"2";"  4";" 50.00";"140.123";"mando";" 2.501802e-32"
"2";"  8";" 25.00";" 68.323";"mandamiento";" 1.387704e-16"
"1";"  3";" 33.33";" 46.005";"intentar";" 1.179290e-11"
"2";" 13";" 15.38";" 40.722";"amar";" 1.755006e-10"
"2";" 16";" 12.50";" 32.448";"nacer";" 1.224404e-08"
"5";"117";"  4.27";" 23.897";"os";" 1.016556e-06"
"1";" 22";"  4.55";"  4.762";"mano";" 2.909876e-02"
"*****";"*";"*";"*";"*";"*"
"5";" 59";"8.47";"53.999";"otro";"2.005634e-13"
"5";" 99";"5.05";"29.455";"un";"5.723554e-08"
"2";" 42";"4.76";"10.328";"como";"1.310470e-03"
"7";"545";"1.28";" 5.098";"que";"2.395049e-02"
"2";" 70";"2.86";" 4.979";"tener";"2.565640e-02"
"3";"142";"2.11";" 4.641";"este";"3.121046e-02"
"5";"399";"1.25";" 2.685";"a";"1.012856e-01"
"1";" 37";"2.70";" 2.200";"dicho";"1.379719e-01"
"*";"*";"*";"*";"*";"*"
"2";"  9";"22.22";"60.348";"*zein_Juan15-12-17";"7.949382e-15"
"2";" 12";"16.67";"44.401";"*zein_Juan15-9-17";"2.675766e-11"
"1";"  7";"14.29";"18.669";"*zein_Juan13-31-33a34-35";"1.555143e-05"
"1";"  8";"12.50";"16.109";"*zein_Juan3-5a7b-15";"5.978902e-05"
"1";" 11";" 9.09";"11.229";"*zein_Juan3-1-8";"8.051749e-04"
"1";" 12";" 8.33";"10.147";"*zein_Juan10-31-42";"1.445629e-03"
"7";"452";" 1.55";" 7.723";"*egutegia_SemanaDePas";"5.453049e-03"
"**";"classe";"5";"**";"";""
"****";"90";"1141";"7.89";"****";""
"17";"21";" 80.95";"157.191";"luz";"4.650525e-36"
"15";"19";" 78.95";"134.282";"mis";"4.740440e-31"
"12";"14";" 85.71";"118.160";"ama";"1.599509e-27"
"14";"19";" 73.68";"115.127";"oveja";"7.382105e-27"
"12";"16";" 75.00";"100.596";"guardar";"1.127798e-23"
"15";"27";" 55.56";" 86.485";"obra";"1.408214e-20"
"11";"17";" 64.71";" 76.677";"voz";"2.012972e-18"
" 8";"10";" 80.00";" 72.205";"bueno";"1.939783e-17"
" 6";" 6";"100.00";" 70.437";"creed";"4.751872e-17"
" 6";" 6";"100.00";" 70.437";"pastor";"4.751872e-17"
" 6";" 6";"100.00";" 70.437";"guardará";"4.751872e-17"
" 5";" 5";"100.00";" 58.646";"tiniebla";"1.887628e-14"
" 6";" 8";" 75.00";" 49.943";"mandamiento";"1.582788e-12"
" 4";" 4";"100.00";" 46.875";"realizar";"7.564467e-12"
" 4";" 4";"100.00";" 46.875";"amará";"7.564467e-12"
" 7";"13";" 53.85";" 38.227";"vino";"6.296267e-10"
" 4";" 5";" 80.00";" 35.944";"caminar";"2.031203e-09"
" 5";" 8";" 62.50";" 33.071";"cambio";"8.884190e-09"
"13";"42";" 30.95";" 31.927";"palabra";"1.601028e-08"
" 3";" 4";" 75.00";" 24.884";"perder";"6.089695e-07"
" 3";" 4";" 75.00";" 24.884";"malo";"6.089695e-07"
" 3";" 4";" 75.00";" 24.884";"cumplir";"6.089695e-07"
" 4";" 7";" 57.14";" 23.518";"permanecer";"1.237588e-06"
" 7";"23";" 30.43";" 16.424";"seguir";"5.064506e-05"
" 5";"14";" 35.71";" 15.105";"escuchar";"1.016725e-04"
" 4";"10";" 40.00";" 14.318";"acerca";"1.543643e-04"
" 2";" 4";" 50.00";"  9.798";"acusar";"1.747247e-03"
" 2";" 4";" 50.00";"  9.798";"nazaret";"1.747247e-03"
" 2";" 4";" 50.00";"  9.798";"mando";"1.747247e-03"
" 2";" 4";" 50.00";"  9.798";"ladrón";"1.747247e-03"
" 3";" 8";" 37.50";"  9.723";"erar|ser";"1.819489e-03"
"12";"71";" 16.90";"  8.466";"mundo";"3.618320e-03"
" 3";" 9";" 33.33";"  8.084";"amor";"4.465593e-03"
" 3";" 9";" 33.33";"  8.084";"puerta";"4.465593e-03"
" 3";" 9";" 33.33";"  8.084";"amigo";"4.465593e-03"
"12";"74";" 16.22";"  7.554";"hacer";"5.986256e-03"
" 7";"37";" 18.92";"  6.404";"mismo";"1.138344e-02"
" 2";" 6";" 33.33";"  5.375";"testigo";"2.042573e-02"
" 2";" 6";" 33.33";"  5.375";"aceptar";"2.042573e-02"
" 9";"58";" 15.52";"  4.895";"vida";"2.692719e-02"
" 2";" 7";" 28.57";"  4.147";"matar";"4.170474e-02"
" 3";"14";" 21.43";"  3.577";"ése";"5.858993e-02"
" 3";"14";" 21.43";"  3.577";"entrar";"5.858993e-02"
" 7";"46";" 15.22";"  3.544";"conocer";"5.975556e-02"
" 2";" 8";" 25.00";"  3.247";"sacar";"7.155422e-02"
" 2";" 8";" 25.00";"  3.247";"dar|distar";"7.155422e-02"
" 1";" 3";" 33.33";"  2.680";"rogar";"1.015849e-01"
" 1";" 3";" 33.33";"  2.680";"parte";"1.015849e-01"
" 1";" 3";" 33.33";"  2.680";"mal";"1.015849e-01"
" 1";" 3";" 33.33";"  2.680";"juzgo";"1.015849e-01"
" 1";" 3";" 33.33";"  2.680";"igual";"1.015849e-01"
" 1";" 3";" 33.33";"  2.680";"conceder";"1.015849e-01"
" 1";" 3";" 33.33";"  2.680";"además";"1.015849e-01"
" 4";"24";" 16.67";"  2.600";"juan";"1.068348e-01"
" 2";" 9";" 22.22";"  2.565";"juzgar";"1.092200e-01"
" 4";"25";" 16.00";"  2.315";"eterno";"1.281261e-01"
" 2";"10";" 20.00";"  2.037";"escritura";"1.535108e-01"
"*****";"*";"*";"*";"*";"*"
" 2";"  3";"66.67";"14.303";"según";"0.0001556011"
"38";"299";"12.71";"12.962";"yo";"0.0003178201"
"18";"117";"15.38";"10.084";"mío";"0.0014953148"
"75";"795";" 9.43";" 8.626";"el";"0.0033142203"
"11";" 65";"16.92";" 7.745";"sino";"0.0053876034"
"13";" 84";"15.48";" 7.186";"si";"0.0073456903"
" 2";"  8";"25.00";" 3.247";"algo";"0.0715542163"
"31";"303";"10.23";" 3.118";"no";"0.0774471475"
"12";"102";"11.76";" 2.317";"porque";"0.1279504387"
"*";"*";"*";"*";"*";"*"
" 9";" 12";"75.00";"75.180";"*zein_Juan10-11-18";"4.297200e-18"
" 8";" 12";"66.67";"57.669";"*zein_Juan10-1-10";"3.101788e-14"
"55";"452";"12.17";"18.875";"*egutegia_SemanaDePas";"1.395787e-05"
" 4";"  9";"44.44";"16.686";"*zein_Juan14-15-21";"4.411621e-05"
" 6";" 19";"31.58";"14.926";"*zein_Juan1-1-18";"1.118102e-04"
" 3";"  8";"37.50";" 9.723";"*zein_Juan3-16-21";"1.819489e-03"
" 3";"  9";"33.33";" 8.084";"*zein_Juan12-44-50";"4.465593e-03"
" 3";"  9";"33.33";" 8.084";"*zein_Juan14-21-26";"4.465593e-03"
" 3";"  9";"33.33";" 8.084";"*zein_Juan3-14-21";"4.465593e-03"
" 6";" 27";"22.22";" 7.821";"*egutegia_NavidadYOct";"5.164915e-03"
" 3";" 12";"25.00";" 4.888";"*zein_Juan15-9-17";"2.704777e-02"
" 2";"  9";"22.22";" 2.565";"*zein_Juan10-22-30";"1.092200e-01"
" 2";" 10";"20.00";" 2.037";"*zein_Juan17-11b-19";"1.535108e-01"
"**";"classe";"6";"**";"";""
"****";"11";"1141";"0.96";"****";""
"5";"  5";"100.00";"515.897";"corazón";"3.305154e-114"
"7";" 12";" 58.33";"418.053";"alegría";" 6.473815e-93"
"6";" 11";" 54.55";"333.986";"vuestra";" 1.302257e-74"
"3";"  3";"100.00";"308.994";"tiemble";" 3.616780e-69"
"3";"  4";" 75.00";"230.447";"tristeza";" 4.763553e-52"
"2";"  3";" 66.67";"135.997";"plenitud";" 1.998138e-31"
"4";" 19";" 21.05";" 81.667";"vuestro";" 1.610946e-19"
"2";"  5";" 40.00";" 80.151";"convertir";" 3.469386e-19"
"1";"  3";" 33.33";" 33.009";"pregunta";" 9.173987e-09"
"1";"  6";" 16.67";" 15.577";"quitar";" 7.921154e-05"
"1";"  7";" 14.29";" 13.091";"llenar";" 2.966518e-04"
"1";"  7";" 14.29";" 13.091";"adonde";" 2.966518e-04"
"4";"117";"  3.42";"  8.228";"os";" 4.125443e-03"
"2";" 37";"  5.41";"  7.900";"llegar";" 4.942527e-03"
"1";" 11";"  9.09";"  7.683";"pedir";" 5.573638e-03"
"2";" 41";"  4.88";"  6.824";"hablar";" 8.996017e-03"
"1";" 15";"  6.67";"  5.177";"volver";" 2.288681e-02"
"1";" 26";"  3.85";"  2.315";"nombre";" 1.281543e-01"
"*****";"*";"*";"*";"*";"*"
"5";" 78";" 6.41";"26.010";"vosotros";"3.397342e-07"
"2";" 21";" 9.52";"16.418";"ni";"5.081242e-05"
"5";"144";" 3.47";"10.858";"estar";"9.835360e-04"
"3";" 66";" 4.55";" 9.411";"pero";"2.157176e-03"
"1";" 10";"10.00";" 8.627";"ninguno";"3.311825e-03"
"4";"117";" 3.42";" 8.228";"mío";"4.125443e-03"
"5";"170";" 2.94";" 8.179";"se";"4.238828e-03"
"1";" 13";" 7.69";" 6.235";"nada";"1.252631e-02"
"4";"142";" 2.82";" 5.832";"este";"1.574148e-02"
"1";" 14";" 7.14";" 5.668";"hasta";"1.728138e-02"
"3";"127";" 2.36";" 2.926";"para";"8.717143e-02"
"1";" 24";" 4.17";" 2.634";"pues";"1.046245e-01"
"*";"*";"*";"*";"*";"*"
" 2";"  5";"40.00";"80.151";"*zein_Juan16-20-23a";"3.469386e-19"
" 1";"  4";"25.00";"24.289";"*zein_Juan15-9-11";"8.291678e-07"
" 1";"  7";"14.29";"13.091";"*zein_Juan16-23b-28";"2.966518e-04"
"10";"452";" 2.21";"12.217";"*egutegia_SemanaDePas";"4.736014e-04"
" 1";"  8";"12.50";"11.229";"*zein_Juan14-27-31a";"8.051749e-04"
" 1";"  9";"11.11";" 9.783";"*zein_Juan16-5-11";"1.761565e-03"
" 1";"  9";"11.11";" 9.783";"*zein_Juan16-16-20";"1.761565e-03"
" 1";" 11";" 9.09";" 7.683";"*egutegia_SemanaDeNav";"5.573638e-03"
" 1";" 11";" 9.09";" 7.683";"*zein_Juan3-22-30";"5.573638e-03"
" 1";" 11";" 9.09";" 7.683";"*zein_Juan14-23-29";"5.573638e-03"
" 1";" 12";" 8.33";" 6.898";"*zein_Juan15-9-17";"8.629340e-03"
" 1";" 19";" 5.26";" 3.740";"*zein_Juan14-1-12";"5.311670e-02"
"**";"classe";"7";"**";"";""
"****";"10";"1141";"0.88";"****";""
"10";"11";"90.91";"1036.356";"pecado";"2.249100e-227"
" 1";" 3";"33.33";"  36.474";"esclavo";" 1.546880e-09"
" 1";" 3";"33.33";"  36.474";"condena";" 1.546880e-09"
" 1";" 4";"25.00";"  26.889";"razón";" 2.154641e-07"
" 1";" 5";"20.00";"  21.141";"vuestros";" 4.267148e-06"
" 2";"19";"10.53";"  20.711";"vuestro";" 5.340981e-06"
" 1";" 6";"16.67";"  17.311";"quitar";" 3.173102e-05"
" 1";" 7";"14.29";"  14.578";"crear";" 1.344923e-04"
" 2";"27";" 7.41";"  13.578";"quedar";" 2.288739e-04"
" 1";"11";" 9.09";"   8.627";"vengar|venir";" 3.311825e-03"
" 1";"13";" 7.69";"   7.032";"dejar";" 8.007020e-03"
" 1";"15";" 6.67";"   5.866";"ciego";" 1.543625e-02"
" 2";"71";" 2.82";"   3.282";"mundo";" 7.006048e-02"
"*****";"*";"*";"*";"*";"*"
"3";"43";"6.98";"19.141";"quien";"1.214057e-05"
"2";"70";"2.86";" 3.368";"con";"6.648179e-02"
"1";"24";"4.17";" 3.055";"pues";"8.049004e-02"
"2";"84";"2.38";" 2.363";"si";"1.242710e-01"
"*";"*";"*";"*";"*";"*"
"2";" 9";"22.22";"47.579";"*zein_Juan16-5-11";"5.283172e-12"
"2";"12";"16.67";"34.806";"*zein_Juan8-21-30";"3.641725e-09"
"1";" 7";"14.29";"14.578";"*zein_Juan1-29-34";"1.344923e-04"
"1";" 8";"12.50";"12.530";"*egutegia_FinDelTiemp";"4.005759e-04"
"1";" 8";"12.50";"12.530";"*zein_Juan20-19-23";"4.005759e-04"
"1";"16";" 6.25";" 5.394";"*zein_Juan8-31-42";"2.020932e-02"
"2";"54";" 3.70";" 5.216";"*zein_Juan9-1-41";"2.238640e-02"
"1";"18";" 5.56";" 4.609";"*zein_Juan20-19-31";"3.180244e-02"
"**";"classe";"8";"**";"";""
"****";"530";"1141";"46.45";"****";""
"122";"149";" 81.88";"86.482";"padre";"1.410225e-20"
" 99";"117";" 84.62";"76.340";"os";"2.387568e-18"
" 79";" 88";" 89.77";"71.948";"dios";"2.209929e-17"
" 59";" 67";" 88.06";"49.544";"venir";"1.939897e-12"
" 68";" 81";" 83.95";"49.293";"hijo";"2.204551e-12"
" 86";"111";" 77.48";"47.589";"dar";"5.256708e-12"
" 52";" 59";" 88.14";"43.464";"enviar";"4.319009e-11"
" 32";" 34";" 94.12";"32.012";"ahora";"1.532407e-08"
" 60";" 80";" 75.00";"28.191";"ir";"1.099088e-07"
" 35";" 41";" 85.37";"25.892";"hablar";"3.609755e-07"
" 48";" 62";" 77.42";"25.279";"crear|creer";"4.960655e-07"
" 38";" 46";" 82.61";"25.194";"conocer";"5.184265e-07"
" 26";" 29";" 89.66";"22.330";"testimonio";"2.295540e-06"
" 52";" 71";" 73.24";"21.844";"mundo";"2.957881e-06"
" 28";" 33";" 84.85";"20.143";"asegurar";"7.185030e-06"
" 40";" 53";" 75.47";"18.820";"saber";"1.436580e-05"
" 28";" 34";" 82.35";"18.160";"nadie";"2.030836e-05"
" 22";" 25";" 88.00";"17.740";"así";"2.532776e-05"
" 23";" 27";" 85.19";"16.681";"verdad";"4.422455e-05"
" 22";" 26";" 84.62";"15.580";"nombre";"7.908793e-05"
" 20";" 23";" 86.96";"15.483";"cómo";"8.323440e-05"
" 12";" 12";"100.00";"13.981";"moisés";"1.846672e-04"
" 11";" 11";"100.00";"12.805";"fruto";"3.457724e-04"
" 11";" 11";"100.00";"12.805";"glorificado";"3.457724e-04"
" 11";" 11";"100.00";"12.805";"único";"3.457724e-04"
" 11";" 11";"100.00";"12.805";"maestro";"3.457724e-04"
" 49";" 74";" 66.22";"12.429";"hacer";"4.227385e-04"
" 10";" 10";"100.00";"11.630";"cuenta";"6.488846e-04"
" 14";" 16";" 87.50";"10.993";"espíritu";"9.144765e-04"
" 11";" 12";" 91.67";" 9.968";"profeta";"1.592706e-03"
" 11";" 12";" 91.67";" 9.968";"gloria";"1.592706e-03"
"  8";"  8";"100.00";" 9.288";"podar|poder";"2.306899e-03"
"  8";"  8";"100.00";" 9.288";"oído";"2.306899e-03"
"  8";"  8";"100.00";" 9.288";"ley";"2.306899e-03"
"  8";"  8";"100.00";" 9.288";"conmigo";"2.306899e-03"
" 19";" 25";" 76.00";" 8.973";"eterno";"2.740640e-03"
" 29";" 42";" 69.05";" 8.952";"ya";"2.772341e-03"
" 10";" 11";" 90.91";" 8.826";"mesías";"2.969623e-03"
" 26";" 37";" 70.27";" 8.723";"mismo";"3.142814e-03"
" 13";" 16";" 81.25";" 7.900";"nacer";"4.942154e-03"
"  9";" 10";" 90.00";" 7.692";"condenar";"5.546358e-03"
" 31";" 47";" 65.96";" 7.499";"hombre";"6.173537e-03"
" 14";" 18";" 77.78";" 7.216";"dónde";"7.226866e-03"
" 20";" 28";" 71.43";" 7.200";"creer";"7.291122e-03"
"  6";"  6";"100.00";" 6.954";"voluntad";"8.365323e-03"
"  6";"  6";"100.00";" 6.954";"culto";"8.365323e-03"
"  6";"  6";"100.00";" 6.954";"sed";"8.365323e-03"
"  6";"  6";"100.00";" 6.954";"santo";"8.365323e-03"
"  6";"  6";"100.00";" 6.954";"rabí";"8.365323e-03"
"  6";"  6";"100.00";" 6.954";"nunca";"8.365323e-03"
"  6";"  6";"100.00";" 6.954";"muéstranos";"8.365323e-03"
"  8";"  9";" 88.89";" 6.568";"poco";"1.038101e-02"
"  8";"  9";" 88.89";" 6.568";"abierto";"1.038101e-02"
" 11";" 14";" 78.57";" 5.879";"camino";"1.532050e-02"
"  5";"  5";"100.00";" 5.790";"reino";"1.612198e-02"
"  5";"  5";"100.00";" 5.790";"perezca";"1.612198e-02"
"  5";"  5";"100.00";" 5.790";"israel";"1.612198e-02"
"  5";"  5";"100.00";" 5.790";"existir";"1.612198e-02"
"  7";"  8";" 87.50";" 5.458";"abrahán";"1.948138e-02"
"  7";"  8";" 87.50";" 5.458";"entender";"1.948138e-02"
" 15";" 21";" 71.43";" 5.366";"hora";"2.053172e-02"
" 10";" 13";" 76.92";" 4.909";"saber|ser";"2.671711e-02"
"  4";"  4";"100.00";" 4.628";"suceder";"3.146258e-02"
"  4";"  4";"100.00";" 4.628";"elevar";"3.146258e-02"
"  4";"  4";"100.00";" 4.628";"válido";"3.146258e-02"
"  4";"  4";"100.00";" 4.628";"trabajo";"3.146258e-02"
"  4";"  4";"100.00";" 4.628";"tampoco";"3.146258e-02"
"  4";"  4";"100.00";" 4.628";"significar";"3.146258e-02"
"  4";"  4";"100.00";" 4.628";"principio";"3.146258e-02"
"  4";"  4";"100.00";" 4.628";"pidáis";"3.146258e-02"
"  4";"  4";"100.00";" 4.628";"pecador";"3.146258e-02"
"  4";"  4";"100.00";" 4.628";"dichosos";"3.146258e-02"
"  4";"  4";"100.00";" 4.628";"comunicar";"3.146258e-02"
"  4";"  4";"100.00";" 4.628";"comparación";"3.146258e-02"
"  4";"  4";"100.00";" 4.628";"amo";"3.146258e-02"
"  6";"  7";" 85.71";" 4.365";"propio";"3.667900e-02"
"  6";"  7";" 85.71";" 4.365";"muerte";"3.667900e-02"
"  6";"  7";" 85.71";" 4.365";"crear";"3.667900e-02"
" 13";" 19";" 68.42";" 3.750";"vuestro";"5.282061e-02"
" 34";" 58";" 58.62";" 3.639";"vida";"5.645409e-02"
"  7";"  9";" 77.78";" 3.579";"juzgar";"5.850854e-02"
" 10";" 14";" 71.43";" 3.555";"ése";"5.935963e-02"
"  3";"  3";"100.00";" 3.468";"paz";"6.258175e-02"
"  3";"  3";"100.00";" 3.468";"glorificará";"6.258175e-02"
"  3";"  3";"100.00";" 3.468";"vid";"6.258175e-02"
"  3";"  3";"100.00";" 3.468";"surgir";"6.258175e-02"
"  3";"  3";"100.00";" 3.468";"siervo";"6.258175e-02"
"  3";"  3";"100.00";" 3.468";"serpiente";"6.258175e-02"
"  3";"  3";"100.00";" 3.468";"recordar";"6.258175e-02"
"  3";"  3";"100.00";" 3.468";"príncipe";"6.258175e-02"
"  3";"  3";"100.00";" 3.468";"proceder";"6.258175e-02"
"  3";"  3";"100.00";" 3.468";"paráclito";"6.258175e-02"
"  3";"  3";"100.00";" 3.468";"linaje";"6.258175e-02"
"  3";"  3";"100.00";" 3.468";"hambre";"6.258175e-02"
"  3";"  3";"100.00";" 3.468";"envío";"6.258175e-02"
"  3";"  3";"100.00";" 3.468";"cuándo";"6.258175e-02"
"  3";"  3";"100.00";" 3.468";"conocierais";"6.258175e-02"
"  3";"  3";"100.00";" 3.468";"conoceríais";"6.258175e-02"
"  3";"  3";"100.00";" 3.468";"buscáis";"6.258175e-02"
"  3";"  3";"100.00";" 3.468";"aprender";"6.258175e-02"
"  5";"  6";" 83.33";" 3.299";"pensar";"6.933429e-02"
"  9";" 13";" 69.23";" 2.743";"amar";"9.765549e-02"
"  9";" 13";" 69.23";" 2.743";"dejar";"9.765549e-02"
"  6";"  8";" 75.00";" 2.640";"mandar";"1.042061e-01"
"  6";"  8";" 75.00";" 2.640";"dar|distar";"1.042061e-01"
"  4";"  5";" 80.00";" 2.273";"saltar";"1.316872e-01"
"  4";"  5";" 80.00";" 2.273";"pescado";"1.316872e-01"
"  4";"  5";" 80.00";" 2.273";"juicio";"1.316872e-01"
"  4";"  5";" 80.00";" 2.273";"embargo";"1.316872e-01"
"  4";"  5";" 80.00";" 2.273";"caer";"1.316872e-01"
"*****";"*";"*";"*";"*";"*"
"205";"299";" 68.56";"79.640";"yo";"4.492453e-19"
"190";"303";" 62.71";"43.828";"no";"3.584852e-11"
"301";"545";" 55.23";"32.327";"que";"1.302778e-08"
"181";"299";" 60.54";"32.314";"haber";"1.311678e-08"
" 26";" 27";" 96.30";"27.623";"nosotros";"1.473913e-07"
" 51";" 66";" 77.27";"26.755";"todo";"2.309614e-07"
" 57";" 78";" 73.08";"23.863";"vosotros";"1.034339e-06"
"169";"291";" 58.08";"21.223";"ser";"4.088083e-06"
" 59";" 84";" 70.24";"20.627";"si";"5.578995e-06"
" 74";"117";" 63.25";"14.788";"mío";"1.202997e-04"
" 30";" 40";" 75.00";"13.583";"poder";"2.281885e-04"
" 65";"102";" 63.73";"13.439";"porque";"2.464712e-04"
" 42";" 65";" 64.62";" 9.143";"sino";"2.496186e-03"
" 17";" 22";" 77.27";" 8.568";"ese";"3.421912e-03"
" 66";"111";" 59.46";" 8.366";"tú";"3.823302e-03"
" 16";" 21";" 76.19";" 7.607";"ni";"5.813679e-03"
" 28";" 42";" 66.67";" 7.165";"como";"7.435771e-03"
" 10";" 12";" 83.33";" 6.632";"sin";"1.001356e-02"
" 72";"127";" 56.69";" 6.027";"para";"1.408749e-02"
" 17";" 24";" 70.83";" 5.860";"pues";"1.549244e-02"
"  5";"  5";"100.00";" 5.790";"encima";"1.612198e-02"
" 62";"112";" 55.36";" 3.961";"por";"4.657424e-02"
"384";"795";" 48.30";" 3.613";"el";"5.733946e-02"
"  7";"  9";" 77.78";" 3.579";"dentro";"5.850854e-02"
" 26";" 43";" 60.47";" 3.528";"quien";"6.032843e-02"
"  3";"  3";"100.00";" 3.468";"deber";"6.258175e-02"
" 40";" 70";" 57.14";" 3.428";"tener";"6.411317e-02"
"  8";" 11";" 72.73";" 3.083";"verdadero";"7.910577e-02"
"  9";" 13";" 69.23";" 2.743";"nada";"9.765549e-02"
" 10";" 15";" 66.67";" 2.497";"sobre";"1.140332e-01"
" 31";" 55";" 56.36";" 2.283";"también";"1.308028e-01"
"  7";" 10";" 70.00";" 2.249";"nuestro";"1.336776e-01"
"200";"406";" 49.26";" 2.002";"de";"1.571333e-01"
"*";"*";"*";"*";"*";"*"
"242";"452";"53.54";"15.124";"*egutegia_SemanaDePas";"0.0001006676"
" 15";" 18";"83.33";"10.002";"*zein_Juan5-31-47";"0.0015638062"
" 13";" 16";"81.25";" 7.900";"*zein_Juan8-31-42";"0.0049421536"
" 11";" 13";"84.62";" 7.700";"*zein_Juan17-1-11a";"0.0055214481"
"  9";" 10";"90.00";" 7.692";"*zein_Juan3-31-36";"0.0055463582"
" 11";" 14";"78.57";" 5.879";"*zein_Juan14-6-14";"0.0153204977"
" 14";" 19";"73.68";" 5.761";"*zein_Juan14-1-12";"0.0163836494"
"  7";"  8";"87.50";" 5.458";"*zein_Juan16-29-33";"0.0194813787"
"  7";"  8";"87.50";" 5.458";"*zein_Juan17-20-26";"0.0194813787"
" 28";" 44";"63.64";" 5.434";"*zein_Juan4-5-42";"0.0197469944"
"  6";"  7";"85.71";" 4.365";"*zein_Juan15-26-16-4a";"0.0366790019"
" 12";" 17";"70.59";" 4.042";"*zein_Juan5-17-30";"0.0443763394"
"  9";" 12";"75.00";" 3.974";"*zein_Juan14-7-14";"0.0462086725"
" 13";" 19";"68.42";" 3.750";"*zein_Juan1-1-18";"0.0528206061"
"  5";"  6";"83.33";" 3.299";"*zein_Juan16-12-15";"0.0693342875"
"  8";" 11";"72.73";" 3.083";"*zein_Juan15-1-8";"0.0791057678"
"  6";"  8";"75.00";" 2.640";"*zein_Juan6-35-40";"0.1042061102"
"  6";"  8";"75.00";" 2.640";"*zein_Juan3-5a7b-15";"0.1042061102"
"  6";"  8";"75.00";" 2.640";"*zein_Juan14-1-6";"0.1042061102"
"  6";"  8";"75.00";" 2.640";"*zein_Juan14-27-31a";"0.1042061102"
"  4";"  5";"80.00";" 2.273";"*zein_Juan3-16-18";"0.1316872319"
"  4";"  5";"80.00";" 2.273";"*zein_Juan3-13-17";"0.1316872319"
"  7";" 10";"70.00";" 2.249";"*zein_Juan17-11b-19";"0.1336775845"
