el;280;3;47;1;75;1;4;384
que;139;0;40;7;47;7;4;301
y;211;4;28;0;43;5;2;222
de;144;3;24;3;26;3;3;200
yo;20;0;30;2;38;1;3;205
a;202;0;12;5;25;3;2;150
en;143;4;14;0;29;5;1;135
haber;83;2;12;3;13;4;1;181
no;58;3;13;1;31;4;3;190
él;128;1;10;1;22;0;2;115
ser;73;0;21;1;23;1;3;169
se;113;0;3;1;10;5;0;38
al;62;0;4;0;9;1;1;77
tú;33;4;3;1;4;0;0;66
estar;60;0;3;0;8;5;1;67
este;38;0;14;3;12;4;1;70
para;22;0;17;0;13;3;0;72
mío;5;2;13;1;18;4;0;74
por;31;1;5;0;10;1;2;62
del;29;0;22;0;6;0;1;56
un;41;0;4;5;7;0;2;40
porque;21;0;3;0;12;0;1;65
aquel;86;0;1;0;0;0;0;9
si;6;2;2;0;13;0;2;59
vosotros;5;0;4;0;7;5;0;57
tener;10;2;7;2;8;0;1;40
con;35;0;2;0;4;0;2;27
todo;9;0;0;0;6;0;0;51
sino;11;0;0;0;11;1;0;42
pero;19;0;2;1;7;3;1;33
otro;36;0;0;5;2;0;0;16
también;18;0;0;0;6;0;0;31
cuando;30;0;0;0;3;0;1;19
quien;10;0;3;0;1;0;3;26
como;5;0;5;2;1;0;1;28
poder;5;0;2;0;3;0;0;30
dicho;13;0;0;1;1;1;1;20
qué;9;1;3;0;0;0;0;15
ni;2;0;0;0;1;2;0;16
nosotros;1;0;0;0;0;0;0;26
entonces;21;0;0;0;1;0;0;3
mucho;18;0;0;0;0;0;0;10
donde;15;0;0;0;0;0;0;10
pues;3;0;0;0;2;1;1;17
ese;5;0;0;0;0;0;0;17
quién;8;0;1;0;0;0;0;10
antes;7;0;1;0;0;0;0;12
entre;14;0;0;0;0;0;0;3
sobre;4;0;1;0;0;0;0;10
hasta;6;0;0;0;1;1;0;6
verdadero;0;0;2;0;1;0;0;8
nada;2;0;1;0;0;1;0;9
sin;1;0;0;0;1;0;0;10
dentro;2;0;0;0;0;0;0;7
nuestro;1;0;2;0;0;0;0;7
ninguno;3;0;0;0;1;1;0;5
mientras;5;0;0;0;1;0;0;4
o;4;0;0;0;0;0;0;4
desde;4;0;0;0;0;0;0;4
aunque;3;0;1;0;1;0;0;2
algo;2;0;0;0;2;0;0;4
alguno;4;0;0;0;0;0;0;3
bien;3;0;1;0;0;0;0;2
encima;0;0;0;0;0;0;0;5
cada;2;0;1;0;0;0;0;2
según;0;0;0;0;2;0;0;1
hacia;2;0;0;0;0;0;0;1
demás;3;0;0;0;0;0;0;0
deber;0;0;0;0;0;0;0;3
cincuenta;3;0;0;0;0;0;0;0
ante;1;0;0;0;0;0;0;2
