"";"V1"
"1";8
"2";8
"3";8
"4";5
"5";5
"6";8
"7";5
"8";5
"9";5
"10";8
"11";5
"12";8
"13";8
"14";8
"15";8
"16";8
"17";8
"18";8
"19";8
"20";1
"21";8
"22";0
"23";8
"24";8
"25";1
"26";0
"27";8
"28";1
"29";1
"30";7
"31";8
"32";8
"33";3
"34";8
"35";8
"36";1
"37";8
"38";1
"39";1
"40";8
"41";8
"42";1
"43";1
"44";1
"45";8
"46";1
"47";1
"48";1
"49";1
"50";1
"51";1
"52";1
"53";8
"54";5
"55";1
"56";0
"57";1
"58";8
"59";1
"60";8
"61";1
"62";8
"63";5
"64";1
"65";0
"66";1
"67";8
"68";1
"69";8
"70";1
"71";0
"72";1
"73";8
"74";1
"75";8
"76";8
"77";5
"78";1
"79";8
"80";0
"81";8
"82";8
"83";1
"84";0
"85";8
"86";1
"87";5
"88";5
"89";5
"90";5
"91";5
"92";8
"93";5
"94";8
"95";5
"96";1
"97";5
"98";8
"99";5
"100";5
"101";5
"102";8
"103";5
"104";5
"105";5
"106";5
"107";5
"108";5
"109";8
"110";8
"111";1
"112";1
"113";8
"114";8
"115";5
"116";5
"117";3
"118";8
"119";8
"120";5
"121";3
"122";8
"123";8
"124";1
"125";8
"126";5
"127";8
"128";8
"129";5
"130";4
"131";1
"132";1
"133";8
"134";1
"135";1
"136";1
"137";1
"138";1
"139";1
"140";1
"141";8
"142";1
"143";1
"144";1
"145";1
"146";8
"147";5
"148";5
"149";1
"150";8
"151";1
"152";8
"153";1
"154";8
"155";1
"156";8
"157";1
"158";1
"159";1
"160";1
"161";1
"162";8
"163";3
"164";3
"165";3
"166";8
"167";1
"168";8
"169";1
"170";1
"171";1
"172";1
"173";1
"174";8
"175";1
"176";0
"177";1
"178";1
"179";8
"180";1
"181";8
"182";3
"183";8
"184";5
"185";1
"186";1
"187";1
"188";1
"189";1
"190";8
"191";8
"192";1
"193";8
"194";1
"195";8
"196";8
"197";1
"198";1
"199";1
"200";8
"201";1
"202";1
"203";1
"204";1
"205";1
"206";1
"207";1
"208";1
"209";5
"210";3
"211";1
"212";1
"213";1
"214";1
"215";1
"216";1
"217";1
"218";8
"219";8
"220";8
"221";5
"222";1
"223";3
"224";8
"225";8
"226";5
"227";8
"228";1
"229";8
"230";1
"231";5
"232";8
"233";8
"234";8
"235";8
"236";1
"237";8
"238";8
"239";5
"240";1
"241";3
"242";8
"243";8
"244";5
"245";5
"246";5
"247";8
"248";8
"249";8
"250";8
"251";8
"252";8
"253";1
"254";8
"255";1
"256";1
"257";1
"258";8
"259";1
"260";8
"261";1
"262";1
"263";0
"264";8
"265";1
"266";8
"267";8
"268";8
"269";8
"270";1
"271";8
"272";8
"273";1
"274";3
"275";8
"276";8
"277";8
"278";1
"279";8
"280";1
"281";1
"282";1
"283";1
"284";3
"285";1
"286";3
"287";5
"288";8
"289";1
"290";1
"291";8
"292";8
"293";8
"294";8
"295";8
"296";1
"297";8
"298";8
"299";8
"300";4
"301";8
"302";8
"303";1
"304";6
"305";5
"306";8
"307";8
"308";8
"309";8
"310";8
"311";8
"312";8
"313";8
"314";8
"315";8
"316";8
"317";5
"318";8
"319";5
"320";8
"321";8
"322";1
"323";5
"324";8
"325";8
"326";8
"327";8
"328";8
"329";8
"330";1
"331";5
"332";8
"333";8
"334";5
"335";8
"336";8
"337";5
"338";5
"339";1
"340";5
"341";1
"342";8
"343";5
"344";5
"345";8
"346";8
"347";8
"348";1
"349";5
"350";5
"351";8
"352";8
"353";8
"354";8
"355";6
"356";8
"357";8
"358";8
"359";1
"360";8
"361";6
"362";8
"363";8
"364";8
"365";8
"366";8
"367";1
"368";8
"369";8
"370";8
"371";8
"372";8
"373";8
"374";8
"375";5
"376";8
"377";5
"378";8
"379";8
"380";8
"381";1
"382";8
"383";8
"384";8
"385";8
"386";8
"387";5
"388";8
"389";5
"390";8
"391";8
"392";8
"393";1
"394";8
"395";8
"396";8
"397";8
"398";0
"399";8
"400";8
"401";8
"402";1
"403";5
"404";8
"405";1
"406";4
"407";8
"408";5
"409";8
"410";8
"411";8
"412";8
"413";4
"414";1
"415";8
"416";8
"417";8
"418";8
"419";5
"420";8
"421";1
"422";8
"423";8
"424";8
"425";8
"426";8
"427";8
"428";1
"429";8
"430";5
"431";6
"432";1
"433";8
"434";5
"435";5
"436";6
"437";4
"438";8
"439";5
"440";8
"441";8
"442";8
"443";4
"444";1
"445";8
"446";8
"447";8
"448";8
"449";8
"450";1
"451";8
"452";8
"453";8
"454";8
"455";1
"456";8
"457";8
"458";6
"459";1
"460";6
"461";8
"462";8
"463";6
"464";1
"465";8
"466";6
"467";8
"468";8
"469";8
"470";8
"471";1
"472";8
"473";8
"474";8
"475";8
"476";8
"477";8
"478";8
"479";1
"480";6
"481";8
"482";8
"483";8
"484";7
"485";7
"486";8
"487";8
"488";1
"489";8
"490";8
"491";8
"492";8
"493";8
"494";5
"495";8
"496";8
"497";8
"498";0
"499";8
"500";8
"501";8
"502";1
"503";8
"504";5
"505";8
"506";8
"507";5
"508";8
"509";8
"510";8
"511";8
"512";1
"513";8
"514";8
"515";8
"516";8
"517";8
"518";8
"519";8
"520";1
"521";1
"522";8
"523";1
"524";8
"525";8
"526";8
"527";1
"528";8
"529";8
"530";5
"531";1
"532";1
"533";8
"534";1
"535";1
"536";1
"537";1
"538";1
"539";8
"540";5
"541";1
"542";1
"543";1
"544";1
"545";1
"546";1
"547";1
"548";1
"549";8
"550";8
"551";8
"552";5
"553";5
"554";1
"555";1
"556";1
"557";1
"558";1
"559";1
"560";8
"561";1
"562";1
"563";8
"564";1
"565";1
"566";1
"567";1
"568";1
"569";1
"570";1
"571";1
"572";1
"573";8
"574";1
"575";1
"576";8
"577";1
"578";1
"579";1
"580";1
"581";1
"582";8
"583";1
"584";1
"585";1
"586";1
"587";1
"588";1
"589";1
"590";1
"591";1
"592";1
"593";1
"594";1
"595";8
"596";1
"597";1
"598";0
"599";1
"600";1
"601";1
"602";8
"603";1
"604";8
"605";1
"606";1
"607";1
"608";1
"609";8
"610";1
"611";7
"612";1
"613";1
"614";1
"615";1
"616";1
"617";8
"618";1
"619";7
"620";1
"621";1
"622";2
"623";1
"624";1
"625";2
"626";2
"627";0
"628";8
"629";8
"630";1
"631";8
"632";1
"633";1
"634";1
"635";1
"636";1
"637";1
"638";1
"639";1
"640";1
"641";1
"642";2
"643";1
"644";1
"645";2
"646";2
"647";0
"648";8
"649";8
"650";1
"651";1
"652";1
"653";1
"654";1
"655";1
"656";1
"657";1
"658";1
"659";1
"660";1
"661";8
"662";1
"663";1
"664";1
"665";1
"666";8
"667";1
"668";1
"669";1
"670";1
"671";1
"672";1
"673";1
"674";1
"675";1
"676";1
"677";1
"678";1
"679";8
"680";1
"681";1
"682";1
"683";1
"684";8
"685";1
"686";1
"687";5
"688";8
"689";5
"690";8
"691";1
"692";1
"693";8
"694";8
"695";1
"696";8
"697";1
"698";1
"699";1
"700";1
"701";1
"702";1
"703";8
"704";8
"705";1
"706";1
"707";8
"708";8
"709";8
"710";8
"711";8
"712";3
"713";4
"714";8
"715";8
"716";1
"717";8
"718";8
"719";8
"720";8
"721";1
"722";8
"723";8
"724";8
"725";8
"726";8
"727";5
"728";5
"729";5
"730";1
"731";8
"732";8
"733";8
"734";8
"735";1
"736";8
"737";8
"738";8
"739";8
"740";5
"741";5
"742";5
"743";1
"744";1
"745";1
"746";1
"747";1
"748";8
"749";8
"750";8
"751";1
"752";5
"753";6
"754";0
"755";1
"756";8
"757";8
"758";8
"759";8
"760";8
"761";8
"762";8
"763";8
"764";8
"765";1
"766";4
"767";8
"768";8
"769";8
"770";8
"771";8
"772";8
"773";1
"774";8
"775";1
"776";1
"777";1
"778";1
"779";8
"780";3
"781";1
"782";8
"783";8
"784";1
"785";8
"786";8
"787";8
"788";1
"789";1
"790";1
"791";1
"792";1
"793";3
"794";8
"795";1
"796";8
"797";8
"798";8
"799";8
"800";8
"801";8
"802";1
"803";8
"804";8
"805";8
"806";8
"807";8
"808";8
"809";8
"810";8
"811";8
"812";8
"813";1
"814";8
"815";1
"816";1
"817";8
"818";8
"819";1
"820";3
"821";2
"822";8
"823";1
"824";8
"825";8
"826";8
"827";8
"828";8
"829";1
"830";1
"831";8
"832";8
"833";1
"834";1
"835";1
"836";1
"837";1
"838";8
"839";1
"840";1
"841";1
"842";1
"843";1
"844";1
"845";1
"846";1
"847";1
"848";1
"849";1
"850";1
"851";1
"852";5
"853";1
"854";1
"855";8
"856";8
"857";8
"858";8
"859";8
"860";8
"861";8
"862";8
"863";8
"864";8
"865";3
"866";8
"867";8
"868";1
"869";8
"870";8
"871";8
"872";8
"873";8
"874";5
"875";5
"876";8
"877";8
"878";8
"879";8
"880";8
"881";8
"882";8
"883";8
"884";8
"885";8
"886";1
"887";1
"888";1
"889";1
"890";1
"891";3
"892";8
"893";3
"894";1
"895";1
"896";1
"897";1
"898";1
"899";1
"900";1
"901";1
"902";0
"903";1
"904";1
"905";8
"906";1
"907";1
"908";1
"909";1
"910";1
"911";1
"912";1
"913";1
"914";1
"915";1
"916";8
"917";8
"918";8
"919";8
"920";8
"921";8
"922";1
"923";1
"924";8
"925";8
"926";8
"927";8
"928";8
"929";8
"930";3
"931";8
"932";3
"933";3
"934";3
"935";8
"936";1
"937";3
"938";8
"939";3
"940";3
"941";3
"942";8
"943";1
"944";3
"945";8
"946";8
"947";8
"948";8
"949";8
"950";8
"951";1
"952";8
"953";1
"954";8
"955";3
"956";8
"957";8
"958";8
"959";8
"960";3
"961";3
"962";3
"963";3
"964";3
"965";1
"966";8
"967";3
"968";8
"969";8
"970";8
"971";8
"972";3
"973";3
"974";3
"975";3
"976";1
"977";3
"978";3
"979";3
"980";3
"981";3
"982";3
"983";3
"984";3
"985";3
"986";3
"987";3
"988";3
"989";3
"990";1
"991";3
"992";3
"993";3
"994";3
"995";3
"996";3
"997";3
"998";3
"999";1
"1000";1
"1001";8
"1002";1
"1003";8
"1004";3
"1005";8
"1006";8
"1007";8
"1008";8
"1009";1
"1010";1
"1011";8
"1012";8
"1013";1
"1014";1
"1015";1
"1016";1
"1017";8
"1018";8
"1019";1
"1020";8
"1021";8
"1022";8
"1023";1
"1024";1
"1025";8
"1026";8
"1027";8
"1028";8
"1029";1
"1030";2
"1031";8
"1032";8
"1033";1
"1034";8
"1035";1
"1036";1
"1037";1
"1038";1
"1039";1
"1040";8
"1041";8
"1042";1
"1043";1
"1044";1
"1045";1
"1046";1
"1047";1
"1048";1
"1049";1
"1050";8
"1051";1
"1052";1
"1053";5
"1054";8
"1055";8
"1056";8
"1057";8
"1058";8
"1059";8
"1060";8
"1061";1
"1062";1
"1063";1
"1064";7
"1065";8
"1066";8
"1067";8
"1068";7
"1069";1
"1070";8
"1071";8
"1072";8
"1073";8
"1074";8
"1075";1
"1076";8
"1077";8
"1078";8
"1079";7
"1080";8
"1081";8
"1082";8
"1083";5
"1084";8
"1085";8
"1086";8
"1087";8
"1088";8
"1089";8
"1090";8
"1091";1
"1092";8
"1093";8
"1094";8
"1095";8
"1096";8
"1097";8
"1098";5
"1099";8
"1100";1
"1101";1
"1102";8
"1103";1
"1104";1
"1105";8
"1106";8
"1107";8
"1108";8
"1109";5
"1110";1
"1111";8
"1112";1
"1113";1
"1114";8
"1115";0
"1116";8
"1117";1
"1118";1
"1119";1
"1120";1
"1121";1
"1122";1
"1123";8
"1124";8
"1125";1
"1126";1
"1127";1
"1128";8
"1129";8
"1130";8
"1131";8
"1132";8
"1133";1
"1134";8
"1135";1
"1136";8
"1137";8
"1138";8
"1139";8
"1140";8
"1141";1
"1142";1
"1143";1
"1144";8
"1145";8
"1146";8
"1147";1
"1148";8
"1149";8
"1150";1
"1151";8
"1152";8
"1153";8
"1154";8
"1155";1
"1156";1
"1157";7
"1158";7
