"";"Valeurs propres";"Pourcentages";"Pourcentage cumules"
"facteur 1";0,335616689051841;12,7139492450201;12,7139492450201
"facteur 2";0,330756725767015;12,5298424095988;25,2437916546189
"facteur 3";0,320636916868855;12,1464802559943;37,3902719106132
"facteur 4";0,306607094435408;11,6149975968947;49,0052695075079
"facteur 5";0,268516751741803;10,1720458619852;59,1773153694931
"facteur 6";0,256188435650081;9,70502026349804;68,8823356329912
"facteur 7";0,23037563466697;8,72717067413991;77,6095063071311
"facteur 8";0,221372017753147;8,38609249716563;85,9955988042967
"facteur 9";0,186588323546813;7,06840438116932;93,064003185466
"facteur 10";0,18309309257938;6,93599681453399;100
