"";"X";"V1"
"1";1;2
"2";2;10
"3";3;7
"4";4;8
"5";5;10
"6";6;7
"7";7;2
"8";8;2
"9";9;3
"10";10;7
"11";11;7
"12";12;7
"13";13;7
"14";14;7
"15";15;11
"16";16;11
"17";17;11
"18";18;9
"19";19;7
"20";20;7
"21";21;10
"22";22;7
"23";23;7
"24";24;11
"25";25;6
"26";26;8
"27";27;7
"28";28;7
"29";29;0
"30";30;11
"31";31;8
"32";32;8
"33";33;8
"34";34;11
"35";35;11
"36";36;11
"37";37;8
"38";38;1
"39";39;8
"40";40;0
"41";41;0
"42";42;11
"43";43;11
"44";44;11
"45";45;11
"46";46;11
"47";47;11
"48";48;11
"49";49;7
"50";50;6
"51";51;9
"52";52;7
"53";53;11
"54";54;11
"55";55;10
"56";56;6
"57";57;11
"58";58;10
"59";59;10
"60";60;9
"61";61;11
"62";62;11
"63";63;7
"64";64;0
"65";65;10
"66";66;11
"67";67;8
"68";68;11
"69";69;11
"70";70;11
"71";71;6
"72";72;10
"73";73;9
"74";74;9
"75";75;10
"76";76;10
"77";77;10
"78";78;10
"79";79;10
"80";80;10
"81";81;10
"82";82;7
"83";83;4
"84";84;7
"85";85;11
"86";86;2
"87";87;11
"88";88;11
"89";89;9
"90";90;11
"91";91;11
"92";92;11
"93";93;11
"94";94;7
"95";95;11
"96";96;11
"97";97;11
"98";98;11
"99";99;9
"100";100;0
"101";101;11
"102";102;7
"103";103;10
"104";104;11
"105";105;11
"106";106;6
"107";107;10
"108";108;10
"109";109;6
"110";110;10
"111";111;11
"112";112;7
"113";113;10
"114";114;6
"115";115;10
"116";116;10
"117";117;11
"118";118;9
"119";119;9
"120";120;10
"121";121;10
"122";122;10
"123";123;10
"124";124;9
"125";125;11
"126";126;9
"127";127;9
"128";128;7
"129";129;7
"130";130;9
"131";131;9
"132";132;10
"133";133;11
"134";134;9
"135";135;10
"136";136;9
"137";137;9
"138";138;7
"139";139;10
"140";140;9
"141";141;10
"142";142;10
"143";143;10
"144";144;10
"145";145;7
"146";146;9
"147";147;9
"148";148;9
"149";149;9
"150";150;10
"151";151;9
"152";152;9
"153";153;9
"154";154;9
"155";155;10
"156";156;10
"157";157;6
"158";158;9
"159";159;9
"160";160;9
"161";161;10
"162";162;10
"163";163;10
"164";164;10
"165";165;6
"166";166;0
"167";167;6
"168";168;7
"169";169;10
"170";170;8
"171";171;10
"172";172;7
"173";173;10
"174";174;9
"175";175;10
"176";176;7
"177";177;7
"178";178;10
"179";179;10
"180";180;10
"181";181;10
"182";182;10
"183";183;8
"184";184;0
"185";185;10
"186";186;10
"187";187;10
"188";188;10
"189";189;10
"190";190;10
"191";191;10
"192";192;9
"193";193;10
"194";194;10
"195";195;10
"196";196;9
"197";197;11
"198";198;10
"199";199;10
"200";200;10
"201";201;8
"202";202;10
"203";203;10
"204";204;10
"205";205;10
"206";206;8
"207";207;10
"208";208;10
"209";209;10
"210";210;8
"211";211;8
"212";212;10
"213";213;10
"214";214;10
"215";215;10
"216";216;9
"217";217;10
"218";218;11
"219";219;8
"220";220;6
"221";221;10
"222";222;9
"223";223;0
"224";224;10
"225";225;10
"226";226;7
"227";227;11
"228";228;4
"229";229;4
"230";230;4
"231";231;4
"232";232;10
"233";233;10
"234";234;10
"235";235;10
"236";236;11
"237";237;10
"238";238;9
"239";239;10
"240";240;10
"241";241;10
"242";242;10
"243";243;10
"244";244;10
"245";245;9
"246";246;11
"247";247;10
"248";248;10
"249";249;10
"250";250;0
"251";251;11
"252";252;11
"253";253;10
"254";254;11
"255";255;11
"256";256;11
"257";257;10
"258";258;11
"259";259;9
"260";260;10
"261";261;10
"262";262;10
"263";263;10
"264";264;0
"265";265;10
"266";266;10
"267";267;11
"268";268;8
"269";269;9
"270";270;8
"271";271;7
"272";272;8
"273";273;8
"274";274;0
"275";275;8
"276";276;8
"277";277;8
"278";278;7
"279";279;10
"280";280;10
"281";281;8
"282";282;10
"283";283;8
"284";284;9
"285";285;10
"286";286;9
"287";287;9
"288";288;9
"289";289;9
"290";290;9
"291";291;6
"292";292;6
"293";293;11
"294";294;6
"295";295;0
"296";296;6
"297";297;7
"298";298;9
"299";299;6
"300";300;7
"301";301;7
"302";302;7
"303";303;8
"304";304;7
"305";305;9
"306";306;9
"307";307;9
"308";308;8
"309";309;7
"310";310;9
"311";311;10
"312";312;10
"313";313;6
"314";314;5
"315";315;7
"316";316;6
"317";317;11
"318";318;9
"319";319;6
"320";320;7
"321";321;9
"322";322;10
"323";323;8
"324";324;3
"325";325;11
"326";326;9
"327";327;9
"328";328;9
"329";329;2
"330";330;6
"331";331;7
"332";332;7
"333";333;9
"334";334;6
"335";335;11
"336";336;9
"337";337;2
"338";338;6
"339";339;9
"340";340;6
"341";341;8
"342";342;6
"343";343;11
"344";344;11
"345";345;11
"346";346;11
"347";347;6
"348";348;6
"349";349;11
"350";350;9
"351";351;9
"352";352;10
"353";353;7
"354";354;6
"355";355;6
"356";356;10
"357";357;7
"358";358;7
"359";359;8
"360";360;9
"361";361;0
"362";362;11
"363";363;6
"364";364;11
"365";365;8
"366";366;10
"367";367;10
"368";368;10
"369";369;10
"370";370;10
"371";371;9
"372";372;10
"373";373;7
"374";374;7
"375";375;10
"376";376;10
"377";377;11
"378";378;7
"379";379;7
"380";380;11
"381";381;7
"382";382;7
"383";383;11
"384";384;11
"385";385;7
"386";386;7
"387";387;7
"388";388;7
"389";389;7
"390";390;7
"391";391;7
"392";392;7
"393";393;11
"394";394;0
"395";395;11
"396";396;10
"397";397;6
"398";398;9
"399";399;9
"400";400;9
"401";401;9
"402";402;10
"403";403;9
"404";404;9
"405";405;10
"406";406;10
"407";407;7
"408";408;11
"409";409;10
"410";410;10
"411";411;11
"412";412;6
"413";413;6
"414";414;6
"415";415;11
"416";416;9
"417";417;9
"418";418;10
"419";419;9
"420";420;11
"421";421;9
"422";422;9
"423";423;10
"424";424;8
"425";425;8
"426";426;10
"427";427;11
"428";428;10
"429";429;2
"430";430;4
"431";431;2
"432";432;4
"433";433;2
"434";434;4
"435";435;4
"436";436;0
"437";437;11
"438";438;7
"439";439;7
"440";440;4
"441";441;8
"442";442;4
"443";443;6
"444";444;8
"445";445;9
"446";446;10
"447";447;2
"448";448;7
"449";449;7
"450";450;8
"451";451;8
"452";452;8
"453";453;6
"454";454;10
"455";455;7
"456";456;0
"457";457;6
"458";458;10
"459";459;7
"460";460;11
"461";461;6
"462";462;7
"463";463;7
"464";464;11
"465";465;7
"466";466;0
"467";467;0
"468";468;7
"469";469;11
"470";470;7
"471";471;0
"472";472;11
"473";473;0
"474";474;11
"475";475;7
"476";476;7
"477";477;7
"478";478;6
"479";479;1
"480";480;11
"481";481;8
"482";482;8
"483";483;6
"484";484;6
"485";485;6
"486";486;11
"487";487;9
"488";488;4
"489";489;5
"490";490;0
"491";491;3
"492";492;4
"493";493;5
"494";494;0
"495";495;8
"496";496;8
"497";497;8
"498";498;11
"499";499;11
"500";500;2
"501";501;11
"502";502;7
"503";503;11
"504";504;9
"505";505;2
"506";506;4
"507";507;2
"508";508;4
"509";509;4
"510";510;10
"511";511;4
"512";512;7
"513";513;6
"514";514;6
"515";515;6
"516";516;1
"517";517;8
"518";518;6
"519";519;5
"520";520;7
"521";521;11
"522";522;11
"523";523;10
"524";524;6
"525";525;7
"526";526;4
"527";527;11
"528";528;7
"529";529;7
"530";530;7
"531";531;10
"532";532;7
"533";533;10
"534";534;10
"535";535;10
"536";536;10
"537";537;11
"538";538;9
"539";539;9
"540";540;9
"541";541;11
"542";542;7
"543";543;6
"544";544;8
"545";545;7
"546";546;10
"547";547;0
"548";548;9
"549";549;9
"550";550;8
"551";551;8
"552";552;11
"553";553;4
"554";554;11
"555";555;8
"556";556;8
"557";557;8
"558";558;8
"559";559;4
"560";560;9
"561";561;1
"562";562;6
"563";563;6
"564";564;9
"565";565;1
"566";566;6
"567";567;7
"568";568;11
"569";569;9
"570";570;9
"571";571;9
"572";572;9
"573";573;9
"574";574;2
"575";575;6
"576";576;7
"577";577;6
"578";578;11
"579";579;7
"580";580;7
"581";581;9
"582";582;10
"583";583;11
"584";584;7
"585";585;7
"586";586;7
"587";587;9
"588";588;8
"589";589;11
"590";590;6
"591";591;2
"592";592;6
"593";593;11
"594";594;7
"595";595;7
"596";596;11
"597";597;8
"598";598;6
"599";599;7
"600";600;7
"601";601;6
"602";602;2
"603";603;4
"604";604;2
"605";605;2
"606";606;8
"607";607;2
"608";608;2
"609";609;2
"610";610;7
"611";611;2
"612";612;10
"613";613;2
"614";614;2
"615";615;2
"616";616;2
"617";617;2
"618";618;7
"619";619;2
"620";620;2
"621";621;2
"622";622;0
"623";623;2
"624";624;8
"625";625;11
"626";626;6
"627";627;6
"628";628;7
"629";629;3
"630";630;2
"631";631;2
"632";632;2
"633";633;2
"634";634;7
"635";635;7
"636";636;6
"637";637;10
"638";638;2
"639";639;9
"640";640;3
"641";641;7
"642";642;7
"643";643;6
"644";644;6
"645";645;10
"646";646;7
"647";647;0
"648";648;6
"649";649;11
"650";650;9
"651";651;7
"652";652;11
"653";653;11
"654";654;9
"655";655;10
"656";656;9
"657";657;2
"658";658;7
"659";659;10
"660";660;6
"661";661;9
"662";662;8
"663";663;8
"664";664;8
"665";665;8
"666";666;7
"667";667;10
"668";668;0
"669";669;10
"670";670;0
"671";671;6
"672";672;8
"673";673;8
"674";674;9
"675";675;11
"676";676;7
"677";677;10
"678";678;9
"679";679;0
"680";680;0
"681";681;11
"682";682;11
"683";683;0
"684";684;8
"685";685;8
"686";686;8
"687";687;6
"688";688;8
"689";689;9
"690";690;8
"691";691;8
"692";692;7
"693";693;8
"694";694;9
"695";695;8
"696";696;8
"697";697;11
"698";698;11
"699";699;0
"700";700;7
"701";701;11
"702";702;6
"703";703;8
"704";704;8
"705";705;11
"706";706;11
"707";707;0
"708";708;7
"709";709;6
"710";710;11
"711";711;9
"712";712;11
"713";713;2
"714";714;2
"715";715;8
"716";716;11
"717";717;11
"718";718;8
"719";719;8
"720";720;8
"721";721;6
"722";722;8
"723";723;11
"724";724;11
"725";725;9
"726";726;9
"727";727;1
"728";728;8
"729";729;9
"730";730;8
"731";731;8
"732";732;6
"733";733;0
"734";734;8
"735";735;3
"736";736;6
"737";737;2
"738";738;9
"739";739;11
"740";740;11
"741";741;11
"742";742;8
"743";743;6
"744";744;11
"745";745;8
"746";746;10
"747";747;11
"748";748;11
"749";749;8
"750";750;8
"751";751;11
"752";752;8
"753";753;11
"754";754;2
"755";755;11
"756";756;7
"757";757;1
"758";758;6
"759";759;7
"760";760;8
"761";761;9
"762";762;11
"763";763;7
"764";764;9
"765";765;2
"766";766;2
"767";767;6
"768";768;6
"769";769;11
"770";770;7
"771";771;6
"772";772;11
"773";773;4
"774";774;11
"775";775;8
"776";776;11
"777";777;11
"778";778;10
"779";779;10
"780";780;5
"781";781;10
"782";782;9
"783";783;2
"784";784;11
"785";785;9
"786";786;2
"787";787;11
"788";788;4
"789";789;11
"790";790;11
"791";791;11
"792";792;8
"793";793;11
"794";794;2
"795";795;2
"796";796;11
"797";797;11
"798";798;11
"799";799;11
"800";800;8
"801";801;7
"802";802;7
"803";803;0
"804";804;9
"805";805;9
"806";806;0
"807";807;8
"808";808;0
"809";809;8
"810";810;10
"811";811;10
"812";812;0
"813";813;0
"814";814;10
"815";815;10
"816";816;10
"817";817;10
"818";818;9
"819";819;9
"820";820;10
"821";821;7
"822";822;4
"823";823;4
"824";824;4
"825";825;7
"826";826;6
"827";827;10
"828";828;11
"829";829;7
"830";830;11
"831";831;8
"832";832;4
"833";833;4
"834";834;4
"835";835;4
"836";836;9
"837";837;4
"838";838;4
"839";839;4
"840";840;4
"841";841;2
"842";842;9
"843";843;9
"844";844;10
"845";845;2
"846";846;2
"847";847;11
"848";848;2
"849";849;0
"850";850;10
"851";851;0
"852";852;10
"853";853;11
"854";854;10
"855";855;8
"856";856;10
"857";857;9
"858";858;10
"859";859;11
"860";860;10
"861";861;6
"862";862;11
"863";863;10
"864";864;10
"865";865;11
"866";866;8
"867";867;10
"868";868;11
"869";869;6
"870";870;8
"871";871;8
"872";872;10
"873";873;7
"874";874;8
"875";875;7
"876";876;4
"877";877;11
"878";878;7
"879";879;11
"880";880;11
"881";881;11
"882";882;4
"883";883;10
"884";884;10
"885";885;6
"886";886;5
"887";887;11
"888";888;7
"889";889;8
"890";890;9
"891";891;5
"892";892;8
"893";893;11
"894";894;9
"895";895;11
"896";896;5
"897";897;9
"898";898;11
"899";899;11
"900";900;5
"901";901;11
"902";902;11
"903";903;5
"904";904;6
"905";905;11
"906";906;11
"907";907;11
"908";908;11
"909";909;11
"910";910;11
"911";911;9
"912";912;6
"913";913;5
"914";914;11
"915";915;8
"916";916;9
"917";917;0
"918";918;11
"919";919;9
"920";920;10
"921";921;11
"922";922;11
"923";923;6
"924";924;0
"925";925;11
"926";926;7
"927";927;7
"928";928;7
"929";929;11
"930";930;8
"931";931;10
"932";932;11
"933";933;7
"934";934;11
"935";935;11
"936";936;7
"937";937;10
"938";938;11
"939";939;10
"940";940;11
"941";941;9
"942";942;0
"943";943;7
"944";944;7
"945";945;11
"946";946;5
"947";947;11
"948";948;5
"949";949;11
"950";950;11
"951";951;8
"952";952;6
"953";953;10
"954";954;5
"955";955;5
"956";956;10
"957";957;7
"958";958;9
"959";959;9
"960";960;10
"961";961;10
"962";962;9
"963";963;8
"964";964;11
"965";965;11
"966";966;11
"967";967;7
"968";968;6
"969";969;11
"970";970;10
"971";971;10
"972";972;10
"973";973;9
"974";974;5
"975";975;5
"976";976;5
"977";977;11
"978";978;5
"979";979;7
"980";980;11
"981";981;0
"982";982;0
"983";983;2
"984";984;0
"985";985;11
"986";986;11
"987";987;11
"988";988;5
"989";989;11
"990";990;11
"991";991;11
"992";992;5
"993";993;2
"994";994;7
"995";995;9
"996";996;7
"997";997;11
"998";998;11
"999";999;11
"1000";1000;11
"1001";1001;4
"1002";1002;4
"1003";1003;11
"1004";1004;4
"1005";1005;4
"1006";1006;11
"1007";1007;11
"1008";1008;4
"1009";1009;11
"1010";1010;4
"1011";1011;4
"1012";1012;2
"1013";1013;11
"1014";1014;6
"1015";1015;8
"1016";1016;6
"1017";1017;2
"1018";1018;5
"1019";1019;5
"1020";1020;2
"1021";1021;7
"1022";1022;6
"1023";1023;7
"1024";1024;0
"1025";1025;9
"1026";1026;10
"1027";1027;5
"1028";1028;5
"1029";1029;5
"1030";1030;5
"1031";1031;5
"1032";1032;10
"1033";1033;0
"1034";1034;11
"1035";1035;2
"1036";1036;2
"1037";1037;8
"1038";1038;7
"1039";1039;6
"1040";1040;7
"1041";1041;7
"1042";1042;10
"1043";1043;10
"1044";1044;7
"1045";1045;7
"1046";1046;9
"1047";1047;7
"1048";1048;7
"1049";1049;7
"1050";1050;11
"1051";1051;9
"1052";1052;0
"1053";1053;7
"1054";1054;0
"1055";1055;10
"1056";1056;10
"1057";1057;0
"1058";1058;9
"1059";1059;9
"1060";1060;9
"1061";1061;9
"1062";1062;0
"1063";1063;0
"1064";1064;0
"1065";1065;9
"1066";1066;2
"1067";1067;2
"1068";1068;11
"1069";1069;0
"1070";1070;0
"1071";1071;0
"1072";1072;0
"1073";1073;0
"1074";1074;2
"1075";1075;11
"1076";1076;0
"1077";1077;11
"1078";1078;0
"1079";1079;0
"1080";1080;7
"1081";1081;6
"1082";1082;7
"1083";1083;7
"1084";1084;7
"1085";1085;7
"1086";1086;7
"1087";1087;0
"1088";1088;8
"1089";1089;11
"1090";1090;7
"1091";1091;0
"1092";1092;2
"1093";1093;0
"1094";1094;11
"1095";1095;0
"1096";1096;7
"1097";1097;8
"1098";1098;6
"1099";1099;11
"1100";1100;6
"1101";1101;11
"1102";1102;8
"1103";1103;0
"1104";1104;2
"1105";1105;0
"1106";1106;7
"1107";1107;7
"1108";1108;7
"1109";1109;7
"1110";1110;7
"1111";1111;0
"1112";1112;2
"1113";1113;8
"1114";1114;4
"1115";1115;8
"1116";1116;9
"1117";1117;9
"1118";1118;0
"1119";1119;11
"1120";1120;0
"1121";1121;11
"1122";1122;11
"1123";1123;9
"1124";1124;0
"1125";1125;2
"1126";1126;0
"1127";1127;0
"1128";1128;0
"1129";1129;11
"1130";1130;9
"1131";1131;11
"1132";1132;7
"1133";1133;2
"1134";1134;10
"1135";1135;2
"1136";1136;11
"1137";1137;8
"1138";1138;11
"1139";1139;11
"1140";1140;0
"1141";1141;11
"1142";1142;7
"1143";1143;7
"1144";1144;2
"1145";1145;9
"1146";1146;9
"1147";1147;6
"1148";1148;6
"1149";1149;10
"1150";1150;6
"1151";1151;8
"1152";1152;11
"1153";1153;7
"1154";1154;7
"1155";1155;9
"1156";1156;7
"1157";1157;10
"1158";1158;10
"1159";1159;10
"1160";1160;10
"1161";1161;10
"1162";1162;10
"1163";1163;10
"1164";1164;10
"1165";1165;8
"1166";1166;10
"1167";1167;10
"1168";1168;10
"1169";1169;10
"1170";1170;3
"1171";1171;6
"1172";1172;8
"1173";1173;10
"1174";1174;8
"1175";1175;9
"1176";1176;8
"1177";1177;8
"1178";1178;10
"1179";1179;10
"1180";1180;5
"1181";1181;7
"1182";1182;11
"1183";1183;10
"1184";1184;8
"1185";1185;7
"1186";1186;10
"1187";1187;6
"1188";1188;6
"1189";1189;6
"1190";1190;7
"1191";1191;4
"1192";1192;8
"1193";1193;10
"1194";1194;10
"1195";1195;4
"1196";1196;10
"1197";1197;10
"1198";1198;10
"1199";1199;0
"1200";1200;10
"1201";1201;9
"1202";1202;9
"1203";1203;0
"1204";1204;0
"1205";1205;5
"1206";1206;11
"1207";1207;0
"1208";1208;11
"1209";1209;0
"1210";1210;11
"1211";1211;2
"1212";1212;9
"1213";1213;10
"1214";1214;8
"1215";1215;9
"1216";1216;8
"1217";1217;7
"1218";1218;10
"1219";1219;7
"1220";1220;6
"1221";1221;2
"1222";1222;7
"1223";1223;11
"1224";1224;8
"1225";1225;6
"1226";1226;2
"1227";1227;10
"1228";1228;6
"1229";1229;6
"1230";1230;6
"1231";1231;6
"1232";1232;6
"1233";1233;6
"1234";1234;6
"1235";1235;0
"1236";1236;6
"1237";1237;6
"1238";1238;11
"1239";1239;2
"1240";1240;8
"1241";1241;6
"1242";1242;7
"1243";1243;2
"1244";1244;2
"1245";1245;2
"1246";1246;0
"1247";1247;2
"1248";1248;7
"1249";1249;3
"1250";1250;2
"1251";1251;2
"1252";1252;3
"1253";1253;7
"1254";1254;6
"1255";1255;6
"1256";1256;6
"1257";1257;6
"1258";1258;6
"1259";1259;2
"1260";1260;6
"1261";1261;8
"1262";1262;10
"1263";1263;11
"1264";1264;11
"1265";1265;4
"1266";1266;7
"1267";1267;1
"1268";1268;11
"1269";1269;8
"1270";1270;2
"1271";1271;8
"1272";1272;6
"1273";1273;6
"1274";1274;2
"1275";1275;11
"1276";1276;8
"1277";1277;11
"1278";1278;2
"1279";1279;10
"1280";1280;9
"1281";1281;7
"1282";1282;9
"1283";1283;10
"1284";1284;6
"1285";1285;6
"1286";1286;6
"1287";1287;6
"1288";1288;9
"1289";1289;6
"1290";1290;6
"1291";1291;6
"1292";1292;6
"1293";1293;6
"1294";1294;11
"1295";1295;6
"1296";1296;6
"1297";1297;9
"1298";1298;6
"1299";1299;9
"1300";1300;9
"1301";1301;11
"1302";1302;7
"1303";1303;2
"1304";1304;7
"1305";1305;7
"1306";1306;7
"1307";1307;7
"1308";1308;7
"1309";1309;7
"1310";1310;6
"1311";1311;11
"1312";1312;11
"1313";1313;7
"1314";1314;7
"1315";1315;7
"1316";1316;6
"1317";1317;8
"1318";1318;7
"1319";1319;10
"1320";1320;10
"1321";1321;10
"1322";1322;10
"1323";1323;6
"1324";1324;6
"1325";1325;11
"1326";1326;10
"1327";1327;10
"1328";1328;10
"1329";1329;10
"1330";1330;11
"1331";1331;6
"1332";1332;7
"1333";1333;8
"1334";1334;7
"1335";1335;6
"1336";1336;8
"1337";1337;7
"1338";1338;7
"1339";1339;10
"1340";1340;6
"1341";1341;6
"1342";1342;8
"1343";1343;11
"1344";1344;11
"1345";1345;6
"1346";1346;6
"1347";1347;10
"1348";1348;11
"1349";1349;10
"1350";1350;7
"1351";1351;11
"1352";1352;6
"1353";1353;9
"1354";1354;6
"1355";1355;9
"1356";1356;6
"1357";1357;8
"1358";1358;11
"1359";1359;8
"1360";1360;7
"1361";1361;6
"1362";1362;6
"1363";1363;6
"1364";1364;11
"1365";1365;6
"1366";1366;11
"1367";1367;11
"1368";1368;7
"1369";1369;11
"1370";1370;8
"1371";1371;10
"1372";1372;10
"1373";1373;11
"1374";1374;8
"1375";1375;7
"1376";1376;7
"1377";1377;7
"1378";1378;7
"1379";1379;7
"1380";1380;10
"1381";1381;7
"1382";1382;2
"1383";1383;1
"1384";1384;8
"1385";1385;6
"1386";1386;6
"1387";1387;7
"1388";1388;11
"1389";1389;8
"1390";1390;11
"1391";1391;6
"1392";1392;6
"1393";1393;0
"1394";1394;11
"1395";1395;7
"1396";1396;6
"1397";1397;7
"1398";1398;7
"1399";1399;7
"1400";1400;10
"1401";1401;8
"1402";1402;11
"1403";1403;9
"1404";1404;9
"1405";1405;9
"1406";1406;11
"1407";1407;0
"1408";1408;6
"1409";1409;11
"1410";1410;9
"1411";1411;8
"1412";1412;6
"1413";1413;6
"1414";1414;7
"1415";1415;6
"1416";1416;9
"1417";1417;7
"1418";1418;7
"1419";1419;6
"1420";1420;6
"1421";1421;6
"1422";1422;6
"1423";1423;6
"1424";1424;6
"1425";1425;11
"1426";1426;6
"1427";1427;8
"1428";1428;6
"1429";1429;11
"1430";1430;6
"1431";1431;6
"1432";1432;6
"1433";1433;11
"1434";1434;6
"1435";1435;11
"1436";1436;6
"1437";1437;6
"1438";1438;6
"1439";1439;2
"1440";1440;6
"1441";1441;7
"1442";1442;7
"1443";1443;11
"1444";1444;7
"1445";1445;6
"1446";1446;7
"1447";1447;0
"1448";1448;2
"1449";1449;7
"1450";1450;0
"1451";1451;7
"1452";1452;11
"1453";1453;8
"1454";1454;9
"1455";1455;7
"1456";1456;8
"1457";1457;6
"1458";1458;9
"1459";1459;2
"1460";1460;7
"1461";1461;11
"1462";1462;2
"1463";1463;7
"1464";1464;9
"1465";1465;11
"1466";1466;2
"1467";1467;6
"1468";1468;2
"1469";1469;2
"1470";1470;2
"1471";1471;11
"1472";1472;11
"1473";1473;10
"1474";1474;11
"1475";1475;6
"1476";1476;0
"1477";1477;2
"1478";1478;5
"1479";1479;11
"1480";1480;11
"1481";1481;9
"1482";1482;7
"1483";1483;5
"1484";1484;0
"1485";1485;7
"1486";1486;7
"1487";1487;7
"1488";1488;7
"1489";1489;7
"1490";1490;6
"1491";1491;11
"1492";1492;8
"1493";1493;8
"1494";1494;8
"1495";1495;7
"1496";1496;0
"1497";1497;11
"1498";1498;2
"1499";1499;7
"1500";1500;7
"1501";1501;11
"1502";1502;0
"1503";1503;8
"1504";1504;11
"1505";1505;11
"1506";1506;8
"1507";1507;8
"1508";1508;8
"1509";1509;8
"1510";1510;8
"1511";1511;6
"1512";1512;6
"1513";1513;11
"1514";1514;0
"1515";1515;11
"1516";1516;0
"1517";1517;9
"1518";1518;11
"1519";1519;4
"1520";1520;11
"1521";1521;7
"1522";1522;11
"1523";1523;6
"1524";1524;11
"1525";1525;7
"1526";1526;2
"1527";1527;2
"1528";1528;1
"1529";1529;0
"1530";1530;10
"1531";1531;11
"1532";1532;0
"1533";1533;6
"1534";1534;8
"1535";1535;11
"1536";1536;11
"1537";1537;11
"1538";1538;11
"1539";1539;11
"1540";1540;7
"1541";1541;6
"1542";1542;11
"1543";1543;0
"1544";1544;6
"1545";1545;6
"1546";1546;6
"1547";1547;6
"1548";1548;5
"1549";1549;11
"1550";1550;6
"1551";1551;5
"1552";1552;8
"1553";1553;11
"1554";1554;8
"1555";1555;11
"1556";1556;6
"1557";1557;8
"1558";1558;11
"1559";1559;11
"1560";1560;11
"1561";1561;11
"1562";1562;11
"1563";1563;11
"1564";1564;11
"1565";1565;11
"1566";1566;11
"1567";1567;9
"1568";1568;6
"1569";1569;6
"1570";1570;6
"1571";1571;0
"1572";1572;11
"1573";1573;11
"1574";1574;6
"1575";1575;10
"1576";1576;2
"1577";1577;0
"1578";1578;0
"1579";1579;0
"1580";1580;7
"1581";1581;2
"1582";1582;0
"1583";1583;2
"1584";1584;8
"1585";1585;2
"1586";1586;11
"1587";1587;10
"1588";1588;11
"1589";1589;6
"1590";1590;11
"1591";1591;11
"1592";1592;11
"1593";1593;6
"1594";1594;1
"1595";1595;10
"1596";1596;0
"1597";1597;11
"1598";1598;0
"1599";1599;0
"1600";1600;0
"1601";1601;6
"1602";1602;11
"1603";1603;1
"1604";1604;8
"1605";1605;10
"1606";1606;11
"1607";1607;11
"1608";1608;11
"1609";1609;9
"1610";1610;8
"1611";1611;0
"1612";1612;7
"1613";1613;6
"1614";1614;6
"1615";1615;11
"1616";1616;7
"1617";1617;0
"1618";1618;3
"1619";1619;2
"1620";1620;3
"1621";1621;8
"1622";1622;7
"1623";1623;7
"1624";1624;7
"1625";1625;7
"1626";1626;6
"1627";1627;7
"1628";1628;8
"1629";1629;7
"1630";1630;7
"1631";1631;7
"1632";1632;11
"1633";1633;11
"1634";1634;6
"1635";1635;7
"1636";1636;11
"1637";1637;11
"1638";1638;2
"1639";1639;11
"1640";1640;6
"1641";1641;2
"1642";1642;8
"1643";1643;9
"1644";1644;2
"1645";1645;11
"1646";1646;8
"1647";1647;2
"1648";1648;2
"1649";1649;10
"1650";1650;6
"1651";1651;9
"1652";1652;7
"1653";1653;11
"1654";1654;7
"1655";1655;11
"1656";1656;1
"1657";1657;7
"1658";1658;11
"1659";1659;11
"1660";1660;11
"1661";1661;11
"1662";1662;9
"1663";1663;11
"1664";1664;10
"1665";1665;10
"1666";1666;10
"1667";1667;10
"1668";1668;10
"1669";1669;10
"1670";1670;11
"1671";1671;10
"1672";1672;10
"1673";1673;8
"1674";1674;8
"1675";1675;10
"1676";1676;0
"1677";1677;9
"1678";1678;11
"1679";1679;10
"1680";1680;8
"1681";1681;7
"1682";1682;9
"1683";1683;9
"1684";1684;9
"1685";1685;7
"1686";1686;9
"1687";1687;9
"1688";1688;9
"1689";1689;9
"1690";1690;10
"1691";1691;9
"1692";1692;9
"1693";1693;10
"1694";1694;7
"1695";1695;10
"1696";1696;10
"1697";1697;9
"1698";1698;7
"1699";1699;10
"1700";1700;9
"1701";1701;10
"1702";1702;8
"1703";1703;11
"1704";1704;10
"1705";1705;9
"1706";1706;11
"1707";1707;10
"1708";1708;10
"1709";1709;11
"1710";1710;10
"1711";1711;9
"1712";1712;10
"1713";1713;7
"1714";1714;9
"1715";1715;6
"1716";1716;10
"1717";1717;8
"1718";1718;10
"1719";1719;10
"1720";1720;10
"1721";1721;3
"1722";1722;10
"1723";1723;8
"1724";1724;8
"1725";1725;8
"1726";1726;2
"1727";1727;7
"1728";1728;10
"1729";1729;8
"1730";1730;6
"1731";1731;11
"1732";1732;6
"1733";1733;11
"1734";1734;6
"1735";1735;11
"1736";1736;7
"1737";1737;0
"1738";1738;11
"1739";1739;6
"1740";1740;6
"1741";1741;8
"1742";1742;10
"1743";1743;2
"1744";1744;7
"1745";1745;6
"1746";1746;11
"1747";1747;10
"1748";1748;9
"1749";1749;9
"1750";1750;10
"1751";1751;8
"1752";1752;4
"1753";1753;6
"1754";1754;10
"1755";1755;7
"1756";1756;11
"1757";1757;10
"1758";1758;9
"1759";1759;4
"1760";1760;6
"1761";1761;2
"1762";1762;9
"1763";1763;8
"1764";1764;8
"1765";1765;9
"1766";1766;2
"1767";1767;9
"1768";1768;2
"1769";1769;10
"1770";1770;6
"1771";1771;2
"1772";1772;7
"1773";1773;6
"1774";1774;10
"1775";1775;7
"1776";1776;3
"1777";1777;7
"1778";1778;8
"1779";1779;7
"1780";1780;10
"1781";1781;6
"1782";1782;11
"1783";1783;11
"1784";1784;9
"1785";1785;4
"1786";1786;11
"1787";1787;8
"1788";1788;7
"1789";1789;10
"1790";1790;4
"1791";1791;11
"1792";1792;4
"1793";1793;8
"1794";1794;0
"1795";1795;0
"1796";1796;11
"1797";1797;10
"1798";1798;8
"1799";1799;1
"1800";1800;9
"1801";1801;11
"1802";1802;10
"1803";1803;7
"1804";1804;9
"1805";1805;3
"1806";1806;7
"1807";1807;0
"1808";1808;7
"1809";1809;6
"1810";1810;10
"1811";1811;8
"1812";1812;11
"1813";1813;7
"1814";1814;11
"1815";1815;2
"1816";1816;8
"1817";1817;11
"1818";1818;8
"1819";1819;7
"1820";1820;6
"1821";1821;2
"1822";1822;10
"1823";1823;10
"1824";1824;10
"1825";1825;10
"1826";1826;0
"1827";1827;7
"1828";1828;9
"1829";1829;7
"1830";1830;3
"1831";1831;6
"1832";1832;3
"1833";1833;7
"1834";1834;6
"1835";1835;6
"1836";1836;10
"1837";1837;8
"1838";1838;11
"1839";1839;6
"1840";1840;8
"1841";1841;8
"1842";1842;10
"1843";1843;8
"1844";1844;11
"1845";1845;10
"1846";1846;10
"1847";1847;6
"1848";1848;10
"1849";1849;5
"1850";1850;0
"1851";1851;11
"1852";1852;7
"1853";1853;10
"1854";1854;9
"1855";1855;10
"1856";1856;7
"1857";1857;3
"1858";1858;9
"1859";1859;10
"1860";1860;10
"1861";1861;7
"1862";1862;8
"1863";1863;10
"1864";1864;9
"1865";1865;6
"1866";1866;7
"1867";1867;7
"1868";1868;0
"1869";1869;7
"1870";1870;0
"1871";1871;9
"1872";1872;0
"1873";1873;10
"1874";1874;7
"1875";1875;7
"1876";1876;6
"1877";1877;6
"1878";1878;7
"1879";1879;6
"1880";1880;11
"1881";1881;6
"1882";1882;7
"1883";1883;7
"1884";1884;6
"1885";1885;6
"1886";1886;7
"1887";1887;8
"1888";1888;7
"1889";1889;10
"1890";1890;10
"1891";1891;7
"1892";1892;11
"1893";1893;11
"1894";1894;11
"1895";1895;7
"1896";1896;8
"1897";1897;6
"1898";1898;7
"1899";1899;6
"1900";1900;2
"1901";1901;9
"1902";1902;10
"1903";1903;8
"1904";1904;6
"1905";1905;8
"1906";1906;8
"1907";1907;8
"1908";1908;8
"1909";1909;4
"1910";1910;10
"1911";1911;11
"1912";1912;7
"1913";1913;7
"1914";1914;11
"1915";1915;4
"1916";1916;9
"1917";1917;1
"1918";1918;9
"1919";1919;9
"1920";1920;7
"1921";1921;11
"1922";1922;0
"1923";1923;0
"1924";1924;7
"1925";1925;1
"1926";1926;8
"1927";1927;6
"1928";1928;11
"1929";1929;6
"1930";1930;8
"1931";1931;11
"1932";1932;8
"1933";1933;0
"1934";1934;0
"1935";1935;7
"1936";1936;0
"1937";1937;7
"1938";1938;7
"1939";1939;8
"1940";1940;4
"1941";1941;4
"1942";1942;4
"1943";1943;11
"1944";1944;9
"1945";1945;4
"1946";1946;4
"1947";1947;6
"1948";1948;0
"1949";1949;4
"1950";1950;6
"1951";1951;4
"1952";1952;4
"1953";1953;9
"1954";1954;10
"1955";1955;10
"1956";1956;11
"1957";1957;10
"1958";1958;10
"1959";1959;7
"1960";1960;7
"1961";1961;10
"1962";1962;11
"1963";1963;11
"1964";1964;6
"1965";1965;11
"1966";1966;8
"1967";1967;8
"1968";1968;7
"1969";1969;7
"1970";1970;7
"1971";1971;7
"1972";1972;6
"1973";1973;7
"1974";1974;7
"1975";1975;11
"1976";1976;2
"1977";1977;7
"1978";1978;7
"1979";1979;3
"1980";1980;2
"1981";1981;3
"1982";1982;7
"1983";1983;7
"1984";1984;6
"1985";1985;2
"1986";1986;7
"1987";1987;7
"1988";1988;7
"1989";1989;6
"1990";1990;6
"1991";1991;11
"1992";1992;6
"1993";1993;7
"1994";1994;0
"1995";1995;6
"1996";1996;7
"1997";1997;0
"1998";1998;6
"1999";1999;0
"2000";2000;7
"2001";2001;6
"2002";2002;10
"2003";2003;6
"2004";2004;10
"2005";2005;0
"2006";2006;6
"2007";2007;6
"2008";2008;7
"2009";2009;7
"2010";2010;8
"2011";2011;7
"2012";2012;0
"2013";2013;7
"2014";2014;6
"2015";2015;6
"2016";2016;4
"2017";2017;9
"2018";2018;11
"2019";2019;6
"2020";2020;7
"2021";2021;7
"2022";2022;7
"2023";2023;8
"2024";2024;7
"2025";2025;6
"2026";2026;6
"2027";2027;6
"2028";2028;6
"2029";2029;8
"2030";2030;9
"2031";2031;7
"2032";2032;6
"2033";2033;6
"2034";2034;2
"2035";2035;2
"2036";2036;6
"2037";2037;11
"2038";2038;6
"2039";2039;6
"2040";2040;6
"2041";2041;11
"2042";2042;6
"2043";2043;0
"2044";2044;0
"2045";2045;8
"2046";2046;8
"2047";2047;8
"2048";2048;10
"2049";2049;10
"2050";2050;10
"2051";2051;10
"2052";2052;10
"2053";2053;7
"2054";2054;11
"2055";2055;10
"2056";2056;7
"2057";2057;8
"2058";2058;9
"2059";2059;8
"2060";2060;11
"2061";2061;10
"2062";2062;10
"2063";2063;7
"2064";2064;8
"2065";2065;9
"2066";2066;7
"2067";2067;6
"2068";2068;11
"2069";2069;11
"2070";2070;8
"2071";2071;6
"2072";2072;6
"2073";2073;0
"2074";2074;2
"2075";2075;9
"2076";2076;6
"2077";2077;7
"2078";2078;6
"2079";2079;7
"2080";2080;8
"2081";2081;7
"2082";2082;6
"2083";2083;6
"2084";2084;8
"2085";2085;6
"2086";2086;8
"2087";2087;5
"2088";2088;10
"2089";2089;6
"2090";2090;2
"2091";2091;2
"2092";2092;2
"2093";2093;11
"2094";2094;7
"2095";2095;6
"2096";2096;5
"2097";2097;7
"2098";2098;3
"2099";2099;2
"2100";2100;2
"2101";2101;2
"2102";2102;3
"2103";2103;2
"2104";2104;3
"2105";2105;7
"2106";2106;7
"2107";2107;7
"2108";2108;2
"2109";2109;6
"2110";2110;7
"2111";2111;7
"2112";2112;7
"2113";2113;7
"2114";2114;8
"2115";2115;10
"2116";2116;8
"2117";2117;6
"2118";2118;7
"2119";2119;7
"2120";2120;6
"2121";2121;6
"2122";2122;7
"2123";2123;6
"2124";2124;0
"2125";2125;6
"2126";2126;7
"2127";2127;6
"2128";2128;6
"2129";2129;6
"2130";2130;6
"2131";2131;1
"2132";2132;6
"2133";2133;6
"2134";2134;7
"2135";2135;1
"2136";2136;10
"2137";2137;8
"2138";2138;8
"2139";2139;10
"2140";2140;10
"2141";2141;10
"2142";2142;10
"2143";2143;10
"2144";2144;10
"2145";2145;8
"2146";2146;1
"2147";2147;8
"2148";2148;6
"2149";2149;0
"2150";2150;9
"2151";2151;10
"2152";2152;9
"2153";2153;8
"2154";2154;11
"2155";2155;7
"2156";2156;10
"2157";2157;8
"2158";2158;11
"2159";2159;8
"2160";2160;0
"2161";2161;8
"2162";2162;8
"2163";2163;1
"2164";2164;8
"2165";2165;7
"2166";2166;10
"2167";2167;10
"2168";2168;9
"2169";2169;9
"2170";2170;9
"2171";2171;7
"2172";2172;10
"2173";2173;7
"2174";2174;7
"2175";2175;8
"2176";2176;7
"2177";2177;7
"2178";2178;4
"2179";2179;4
"2180";2180;7
"2181";2181;2
"2182";2182;10
"2183";2183;8
"2184";2184;6
"2185";2185;10
"2186";2186;11
"2187";2187;10
"2188";2188;7
"2189";2189;7
"2190";2190;7
"2191";2191;11
"2192";2192;7
"2193";2193;2
"2194";2194;7
"2195";2195;2
"2196";2196;7
"2197";2197;2
"2198";2198;2
"2199";2199;7
"2200";2200;2
"2201";2201;6
"2202";2202;6
"2203";2203;2
"2204";2204;2
"2205";2205;2
"2206";2206;2
"2207";2207;7
"2208";2208;2
"2209";2209;2
"2210";2210;7
"2211";2211;7
"2212";2212;6
"2213";2213;7
"2214";2214;11
"2215";2215;6
"2216";2216;6
"2217";2217;7
"2218";2218;8
"2219";2219;6
"2220";2220;10
"2221";2221;11
"2222";2222;1
"2223";2223;6
"2224";2224;8
"2225";2225;7
"2226";2226;8
"2227";2227;8
"2228";2228;7
"2229";2229;7
"2230";2230;6
"2231";2231;7
"2232";2232;11
"2233";2233;6
"2234";2234;7
"2235";2235;7
"2236";2236;11
"2237";2237;6
"2238";2238;2
"2239";2239;6
"2240";2240;11
"2241";2241;7
"2242";2242;10
"2243";2243;8
"2244";2244;6
"2245";2245;7
"2246";2246;6
"2247";2247;6
"2248";2248;6
"2249";2249;6
"2250";2250;2
"2251";2251;6
"2252";2252;11
"2253";2253;6
"2254";2254;11
"2255";2255;7
"2256";2256;6
"2257";2257;6
"2258";2258;6
"2259";2259;7
"2260";2260;6
"2261";2261;6
"2262";2262;6
"2263";2263;6
"2264";2264;6
"2265";2265;7
"2266";2266;7
"2267";2267;7
"2268";2268;11
"2269";2269;6
"2270";2270;11
"2271";2271;6
"2272";2272;10
"2273";2273;7
"2274";2274;6
"2275";2275;6
"2276";2276;11
"2277";2277;6
"2278";2278;10
"2279";2279;7
"2280";2280;10
"2281";2281;10
"2282";2282;6
"2283";2283;6
"2284";2284;6
"2285";2285;6
"2286";2286;7
"2287";2287;3
"2288";2288;11
"2289";2289;7
"2290";2290;6
"2291";2291;8
"2292";2292;6
"2293";2293;6
"2294";2294;8
"2295";2295;7
"2296";2296;7
"2297";2297;10
"2298";2298;7
"2299";2299;7
"2300";2300;6
"2301";2301;0
"2302";2302;6
"2303";2303;7
"2304";2304;7
"2305";2305;8
"2306";2306;11
"2307";2307;6
"2308";2308;7
"2309";2309;7
"2310";2310;0
"2311";2311;2
"2312";2312;3
"2313";2313;2
"2314";2314;3
"2315";2315;7
"2316";2316;2
"2317";2317;7
"2318";2318;9
"2319";2319;6
"2320";2320;7
"2321";2321;11
"2322";2322;6
"2323";2323;9
"2324";2324;1
"2325";2325;7
"2326";2326;9
"2327";2327;7
"2328";2328;6
"2329";2329;1
"2330";2330;11
"2331";2331;8
"2332";2332;11
"2333";2333;8
"2334";2334;8
"2335";2335;6
"2336";2336;7
"2337";2337;8
"2338";2338;11
"2339";2339;7
"2340";2340;9
"2341";2341;10
"2342";2342;9
"2343";2343;6
"2344";2344;7
"2345";2345;7
"2346";2346;11
"2347";2347;2
"2348";2348;7
"2349";2349;7
"2350";2350;7
"2351";2351;6
"2352";2352;11
"2353";2353;5
"2354";2354;6
"2355";2355;11
"2356";2356;7
"2357";2357;6
"2358";2358;11
"2359";2359;6
"2360";2360;7
"2361";2361;5
"2362";2362;7
"2363";2363;8
"2364";2364;11
"2365";2365;7
"2366";2366;2
"2367";2367;9
"2368";2368;3
"2369";2369;2
"2370";2370;3
"2371";2371;6
"2372";2372;0
"2373";2373;8
"2374";2374;11
"2375";2375;11
"2376";2376;7
"2377";2377;11
"2378";2378;6
"2379";2379;11
"2380";2380;8
"2381";2381;7
"2382";2382;7
"2383";2383;11
"2384";2384;10
"2385";2385;0
"2386";2386;7
"2387";2387;0
"2388";2388;9
"2389";2389;3
"2390";2390;2
"2391";2391;7
"2392";2392;11
"2393";2393;11
"2394";2394;7
"2395";2395;8
"2396";2396;7
"2397";2397;10
"2398";2398;11
"2399";2399;8
"2400";2400;11
"2401";2401;11
"2402";2402;0
"2403";2403;0
"2404";2404;8
"2405";2405;4
"2406";2406;6
"2407";2407;0
"2408";2408;10
"2409";2409;7
"2410";2410;11
"2411";2411;11
"2412";2412;2
"2413";2413;2
"2414";2414;2
"2415";2415;0
"2416";2416;11
"2417";2417;11
"2418";2418;6
"2419";2419;8
"2420";2420;11
"2421";2421;8
"2422";2422;2
"2423";2423;7
"2424";2424;6
"2425";2425;11
"2426";2426;6
"2427";2427;7
"2428";2428;8
"2429";2429;11
"2430";2430;7
"2431";2431;7
"2432";2432;1
"2433";2433;7
"2434";2434;6
"2435";2435;6
"2436";2436;6
"2437";2437;8
"2438";2438;2
"2439";2439;7
"2440";2440;6
"2441";2441;7
"2442";2442;2
"2443";2443;8
"2444";2444;11
"2445";2445;8
"2446";2446;2
"2447";2447;2
"2448";2448;7
"2449";2449;7
"2450";2450;10
"2451";2451;8
"2452";2452;8
"2453";2453;11
"2454";2454;2
"2455";2455;2
"2456";2456;11
"2457";2457;5
"2458";2458;2
"2459";2459;11
"2460";2460;2
"2461";2461;8
"2462";2462;2
"2463";2463;2
"2464";2464;0
"2465";2465;0
"2466";2466;1
"2467";2467;0
"2468";2468;6
"2469";2469;10
"2470";2470;5
"2471";2471;1
"2472";2472;6
"2473";2473;8
"2474";2474;11
"2475";2475;11
"2476";2476;7
"2477";2477;7
"2478";2478;8
"2479";2479;11
"2480";2480;1
"2481";2481;8
"2482";2482;6
"2483";2483;6
"2484";2484;11
"2485";2485;5
"2486";2486;8
"2487";2487;2
"2488";2488;6
"2489";2489;7
"2490";2490;10
"2491";2491;6
"2492";2492;7
"2493";2493;0
"2494";2494;0
"2495";2495;10
"2496";2496;2
"2497";2497;1
"2498";2498;2
"2499";2499;3
"2500";2500;7
"2501";2501;6
"2502";2502;7
"2503";2503;6
"2504";2504;7
"2505";2505;11
"2506";2506;2
"2507";2507;7
"2508";2508;9
"2509";2509;6
"2510";2510;7
"2511";2511;7
"2512";2512;1
"2513";2513;6
"2514";2514;7
"2515";2515;7
"2516";2516;2
"2517";2517;2
"2518";2518;0
"2519";2519;7
"2520";2520;6
"2521";2521;7
"2522";2522;8
"2523";2523;7
"2524";2524;8
"2525";2525;9
"2526";2526;11
"2527";2527;10
"2528";2528;7
"2529";2529;10
"2530";2530;7
"2531";2531;11
"2532";2532;7
"2533";2533;6
"2534";2534;11
"2535";2535;0
"2536";2536;10
"2537";2537;8
"2538";2538;7
"2539";2539;7
"2540";2540;10
"2541";2541;7
"2542";2542;7
"2543";2543;11
"2544";2544;8
"2545";2545;11
"2546";2546;6
"2547";2547;2
"2548";2548;0
"2549";2549;7
"2550";2550;7
"2551";2551;6
"2552";2552;8
"2553";2553;8
"2554";2554;8
"2555";2555;8
"2556";2556;8
"2557";2557;6
"2558";2558;6
"2559";2559;7
"2560";2560;8
"2561";2561;8
"2562";2562;9
"2563";2563;9
"2564";2564;11
"2565";2565;11
"2566";2566;6
"2567";2567;11
"2568";2568;7
"2569";2569;8
"2570";2570;10
"2571";2571;7
"2572";2572;5
"2573";2573;8
"2574";2574;7
"2575";2575;7
"2576";2576;7
"2577";2577;11
"2578";2578;8
"2579";2579;2
"2580";2580;7
"2581";2581;2
"2582";2582;11
"2583";2583;9
"2584";2584;11
"2585";2585;11
"2586";2586;11
"2587";2587;7
"2588";2588;11
"2589";2589;7
"2590";2590;2
"2591";2591;11
"2592";2592;7
"2593";2593;2
"2594";2594;7
"2595";2595;8
"2596";2596;2
"2597";2597;3
"2598";2598;11
"2599";2599;8
"2600";2600;11
"2601";2601;11
"2602";2602;11
"2603";2603;5
"2604";2604;11
"2605";2605;8
"2606";2606;8
"2607";2607;11
"2608";2608;9
"2609";2609;11
"2610";2610;11
"2611";2611;11
"2612";2612;11
"2613";2613;7
"2614";2614;8
"2615";2615;0
"2616";2616;4
"2617";2617;10
"2618";2618;4
"2619";2619;11
"2620";2620;8
"2621";2621;11
"2622";2622;10
"2623";2623;7
"2624";2624;6
"2625";2625;8
"2626";2626;6
"2627";2627;7
"2628";2628;7
"2629";2629;8
"2630";2630;0
"2631";2631;8
"2632";2632;7
"2633";2633;10
"2634";2634;10
"2635";2635;8
"2636";2636;8
"2637";2637;11
"2638";2638;11
"2639";2639;11
"2640";2640;0
"2641";2641;8
"2642";2642;2
"2643";2643;7
"2644";2644;2
"2645";2645;2
"2646";2646;3
"2647";2647;7
"2648";2648;6
"2649";2649;6
"2650";2650;7
"2651";2651;2
"2652";2652;7
"2653";2653;6
"2654";2654;2
"2655";2655;7
"2656";2656;11
"2657";2657;10
"2658";2658;11
"2659";2659;7
"2660";2660;11
"2661";2661;2
"2662";2662;11
"2663";2663;2
"2664";2664;7
"2665";2665;6
"2666";2666;7
"2667";2667;2
"2668";2668;2
"2669";2669;3
