izan;15;94;9;36;19;200;231;155;110;230;239
ni;3;46;0;3;3;60;61;21;17;19;50
gu;2;12;21;0;3;47;61;23;15;37;21
zuek;1;16;2;2;1;43;35;18;11;11;22
zu;2;5;7;5;3;25;17;8;9;11;23
neu;1;16;0;2;1;12;19;9;7;7;17
ari;0;4;0;1;0;16;15;6;6;6;12
inor;6;6;0;2;1;8;6;4;5;9;14
nor;0;5;0;2;2;10;6;4;6;2;11
elkar;0;1;0;2;0;9;9;7;3;2;4
zeu;0;2;0;5;1;4;7;5;0;3;13
ezer;0;1;1;0;1;4;9;7;3;0;14
zaitezte;0;1;0;1;0;9;12;5;6;0;2
geu;0;0;0;0;1;9;6;4;1;3;4
gaitu;0;0;0;0;0;2;5;3;3;9;2
norbait;0;2;0;0;1;1;5;5;0;4;2
nau;0;0;0;0;0;5;5;1;0;2;7
zaituzte;0;4;0;1;0;4;2;0;2;5;0
ezazue;0;1;0;1;0;3;3;2;2;1;2
akikan;0;1;0;0;0;1;3;0;2;3;7
zerbait;0;0;0;0;1;1;2;3;2;1;5
dezata;0;2;0;0;0;0;4;3;2;0;5
daiteu;0;2;0;0;0;2;3;4;1;1;2
kristoria;0;0;0;1;0;5;3;1;1;4;0
gaitezen;0;0;0;1;0;4;2;4;0;1;2
ikan;0;0;0;0;0;3;6;0;1;3;0
beraiek;0;1;0;0;1;3;1;1;0;2;4
itzazue;2;2;0;1;0;0;1;1;0;1;4
natzaizue;0;0;0;0;0;2;1;3;0;0;3
diotsuet;1;0;0;0;0;3;2;1;1;1;2
badakizue;0;2;0;0;0;2;2;2;0;2;1
ukrenentzan;0;0;0;0;0;0;3;1;2;2;0
egizue;0;0;0;0;3;3;2;2;0;0;0
baitugu;0;0;0;0;0;2;2;2;1;2;1
zaituztet;0;1;0;1;0;2;1;0;2;0;1
nitu;0;2;0;0;0;2;0;0;2;1;1
baitut;0;1;0;0;0;1;5;0;0;0;2
izi;0;1;0;0;0;4;1;1;0;0;1
gaituzte;0;0;0;0;0;5;0;1;0;0;2
duten;0;0;0;0;0;2;2;1;1;0;1
did;0;0;0;0;0;1;4;2;0;1;0
zinetu;0;0;0;0;0;1;0;4;0;0;1
zigun;0;0;0;0;0;1;2;0;1;3;0
bazarete;0;0;1;1;0;0;1;0;0;4;0
zedin;0;0;0;0;0;1;2;1;0;2;0
zaitzatu;2;0;0;0;0;1;3;0;0;0;0
testigu;0;0;0;0;0;1;1;1;0;2;1
norbera;0;0;0;1;0;2;0;1;0;0;1
nadin;0;0;0;0;0;3;1;1;0;0;1
ezagut;0;0;0;0;0;0;2;1;1;1;1
dezake;0;0;0;0;0;0;1;1;2;0;0
dezada;0;0;0;0;0;1;3;0;0;0;2
ukzkion;0;0;0;0;0;0;5;0;0;0;0
ezakekan;0;0;0;0;0;3;1;0;0;0;1
zid;0;0;0;0;0;1;1;0;0;1;0
niregandik;0;1;0;0;0;0;1;1;1;0;0
nauzue;0;0;0;0;0;2;0;0;0;0;2
izkikan;0;1;0;0;0;0;1;0;1;0;0
iokan;0;0;0;0;0;1;1;0;1;0;0
iitakn;0;0;0;0;0;2;1;0;0;1;0
ditzala;0;1;0;1;0;1;1;0;0;0;0
dagokia;0;0;0;0;0;0;2;1;0;0;1
bazaio;0;0;0;1;1;0;0;0;0;1;1
zuten;0;1;0;0;0;1;0;1;0;0;0
zaudetu;0;0;0;0;0;1;0;1;0;0;1
zakan;0;0;0;0;0;3;0;0;0;0;0
zaiteu;0;0;0;0;0;0;0;0;0;3;0
nindun;0;1;0;0;0;0;0;0;0;1;1
izaizkn;0;1;0;0;1;0;1;0;0;0;0
guregandik;0;0;0;0;0;1;1;1;0;0;0
daitezke;0;0;0;0;0;0;0;2;0;0;1
baituzue;0;0;0;0;0;1;0;1;0;1;0
baitiote;0;0;0;0;0;0;1;0;0;1;1
baitakit;0;0;0;0;0;1;1;0;0;0;1
baduzue;0;0;0;0;0;0;1;0;0;0;2
