el;3651;art_def
que;2320;con
de;2122;pre
y;1525;con
a;1457;pre
ser;1156;aux
en;1095;pre
por;720;pre
haber;706;aux
uno;518;adj_ind
todo;494;adj_ind
con;474;pre
su;455;pro_pos
como;372;con
os;370;pro_per
se;369;pro_per
este;311;adj_dem
vosotros;308;pro_per
si;282;con
pero;273;con
porque;227;con
nuestro;220;pro_pos
pues;211;con
me;211;pro_per
nos;200;pro_per
ese;190;adj_dem
mismo;189;pro_ind
otro;168;pro_ind
él;164;pro_per
vuestro;158;pro_pos
sino;153;con
yo;141;pro_per
nosotros;140;pro_per
mi;140;pro_pos
quien;137;pro_rel
ni;134;con
cuando;127;con
le;126;pro_per
o;103;con
sin;98;pre
mucho;92;adj_ind
ellos;86;pro_per
entre;85;pre
nada;74;pro_ind
alguno;73;pro_ind
nadie;70;pro_ind
tanto;68;adj_ind
mí;68;pro_per
te;62;pro_per
qué;58;adj_int
aunque;58;con
aquel;57;adj_dem
cada;56;adj_ind
sobre;54;pre
tu;44;pro_pos
cual;43;pro_rel
hasta;42;pre
cuanto;37;adj_ind
cómo;36;pro_ind
ninguno;31;pro_ind
contra;31;pre
cierto;31;adj_ind
tú;29;pro_per
según;27;pre
algo;27;pro_ind
demás;26;pro_ind
solamente;25;adv_sup
desde;25;pre
1;25;adj_num
quién;23;pro_ind
tal;21;adj_dem
ti;20;pro_per
alguien;20;pro_ind
bajo;19;pre
conmigo;18;pro_per
mientras;17;con
dos;17;adj_num
suyo;16;adj_pos
ante;16;pre
último;10;adj_num
mediante;10;pre
tres;9;adj_num
mío;9;adj_pos
cuánto;9;adj_int
cualquiera;9;adj_ind
ello;8;pro_dem
donde;8;pro_rel
ojalá;4;ono
mil;4;adj_num
cuál;4;pro_ind
3;4;adj_num
durante;3;pre
diverso;3;adj_ind
contigo;3;pro_per
ambos;3;pro_ind
treinta;2;adj_num
quienquiera;2;pro_ind
diez;2;adj_num
cinco;2;adj_num
catorce;2;adj_num
2;2;adj_num
veintitrés;1;adj_num
varios;1;adj_ind
tras;1;pre
siete;1;adj_num
sesenta;1;adj_num
semejante;1;adj_dem
quinientos;1;adj_num
quince;1;adj_num
ocho;1;adj_num
nueve;1;adj_num
hacia;1;pre
dónde;1;pro_ind
doce;1;adj_num
cuyo;1;pro_rel
cuatrocientos;1;adj_num
cien;1;adj_num
bastante;1;adj_ind
ay;1;ono
amén;1;ono
4;1;adj_num